4
R41-0-TX/RX,000317F9BC,41.741465,-111.807645,0.0,-71.60
R43-0-TX/RX,000317F9BE,41.742194,-111.807575,0.0,-70.19
R42-0-TX/RX,000317F9C2,41.742008,-111.807575,0.0,-70.86
R40-0-TX/RX,0003185E44,41.741265,-111.807945,0.0,-75.87
-71.60,-70.19,-70.86,-75.87
