\relax 
\providecommand\hyper@newdestlabel[2]{}
\@writefile{toc}{\contentsline {chapter}{\numberline {5}THE ADAPTIVE CROSS-CHANNEL WITH SPARSE SHIFT-SUPPRESSION (AXIS) METHOD}{70}{chapter.5}}
\newlabel{ch:5}{{5}{70}{THE ADAPTIVE CROSS-CHANNEL WITH SPARSE SHIFT-SUPPRESSION (AXIS) METHOD}{chapter.5}{}}
\newlabel{eq:AXIS_objective}{{5.1}{70}{THE ADAPTIVE CROSS-CHANNEL WITH SPARSE SHIFT-SUPPRESSION (AXIS) METHOD}{equation.5.0.1}{}}
\@writefile{toc}{\contentsline {section}{\numberline {5.1}AXIS Derivation}{70}{section.5.1}}
\newlabel{eq:AXIS_lagrangian}{{5.2}{70}{AXIS Derivation}{equation.5.1.2}{}}
\newlabel{eq:AXIS_lambda_mu_update}{{5.3}{70}{AXIS Derivation}{equation.5.1.3}{}}
\newlabel{eq:AXIS_update}{{5.4}{70}{AXIS Derivation}{equation.5.1.4}{}}
\newlabel{eq:AXIS-system-of-equations}{{5.5}{71}{AXIS Derivation}{equation.5.1.5}{}}
\newlabel{eq:AXIS-cramers-rule}{{5.6}{71}{AXIS Derivation}{equation.5.1.6}{}}
\newlabel{eq:AXIS-tilde-lambda-mu}{{5.7}{71}{AXIS Derivation}{equation.5.1.7}{}}
\newlabel{eq:AXIS-complete-update}{{5.8}{71}{AXIS Derivation}{equation.5.1.8}{}}
\@writefile{toc}{\contentsline {subsection}{\numberline {5.1.1}Algorithm Advantages, Implementations, and Modifications}{71}{subsection.5.1.1}}
\citation{work:BSNCID,conf:ETDOARoomRefl}
\@writefile{lof}{\contentsline {figure}{\numberline {5.1}{\ignorespaces Results of the AXIS algorithm with 250,000 data samples, with SNR = 60 dB, at various sampling rates for wideband simulation, (a) 20 MHz, (b) 100 MHz, (c) 150 MHz, and (d) 200 MHz, for impulse response set IR-1\relax }}{72}{figure.caption.58}}
\newlabel{fig:AXIS_ideal_30v3000}{{5.1}{72}{Results of the AXIS algorithm with 250,000 data samples, with SNR = 60 dB, at various sampling rates for wideband simulation, (a) 20 MHz, (b) 100 MHz, (c) 150 MHz, and (d) 200 MHz, for impulse response set IR-1\relax }{figure.caption.58}{}}
\@writefile{lof}{\contentsline {figure}{\numberline {5.2}{\ignorespaces Results of the AXIS algorithm with 250,000 data samples, with SNR = 60 dB, at various sampling rates for wideband simulation, (a) 20 MHz, (b) 100 MHz, (c) 150 MHz, and (d) 200 MHz, for impulse response set IR-2\relax }}{73}{figure.caption.59}}
\newlabel{fig:AXIS_NITF_30v3000}{{5.2}{73}{Results of the AXIS algorithm with 250,000 data samples, with SNR = 60 dB, at various sampling rates for wideband simulation, (a) 20 MHz, (b) 100 MHz, (c) 150 MHz, and (d) 200 MHz, for impulse response set IR-2\relax }{figure.caption.59}{}}
\@writefile{lof}{\contentsline {figure}{\numberline {5.3}{\ignorespaces Results of the AXIS algorithm with 250,000 data samples, with SNR = 60 dB, at various sampling rates for narrowband simulation, (a) 20 MHz, (b) 100 MHz, (c) 150 MHz, and (d) 200 MHz, for impulse response set TF-1\relax }}{74}{figure.caption.60}}
\newlabel{fig:AXIS_narrow_30v3000}{{5.3}{74}{Results of the AXIS algorithm with 250,000 data samples, with SNR = 60 dB, at various sampling rates for narrowband simulation, (a) 20 MHz, (b) 100 MHz, (c) 150 MHz, and (d) 200 MHz, for impulse response set TF-1\relax }{figure.caption.60}{}}
\@writefile{lof}{\contentsline {figure}{\numberline {5.4}{\ignorespaces Results of the AXIS algorithm with 2,500 data samples, with SNR = 60 dB, at various sampling rates for wideband simulation, (a) 20 MHz, (b) 100 MHz, (c) 150 MHz, and (d) 200 MHz, for impulse response set IR-1\relax }}{75}{figure.caption.61}}
\newlabel{fig:AXIS_Nless_30v3000}{{5.4}{75}{Results of the AXIS algorithm with 2,500 data samples, with SNR = 60 dB, at various sampling rates for wideband simulation, (a) 20 MHz, (b) 100 MHz, (c) 150 MHz, and (d) 200 MHz, for impulse response set IR-1\relax }{figure.caption.61}{}}
\@writefile{toc}{\contentsline {section}{\numberline {5.2}Variations}{75}{section.5.2}}
\@writefile{lof}{\contentsline {figure}{\numberline {5.5}{\ignorespaces Results of the AXIS algorithm with 250,000 data samples, with SNR = 20 dB, at various sampling rates for wideband simulation, (a) 20 MHz, (b) 100 MHz, (c) 150 MHz, and (d) 200 MHz, for impulse response set IR-1\relax }}{76}{figure.caption.62}}
\newlabel{fig:AXIS_noisy_30v3000}{{5.5}{76}{Results of the AXIS algorithm with 250,000 data samples, with SNR = 20 dB, at various sampling rates for wideband simulation, (a) 20 MHz, (b) 100 MHz, (c) 150 MHz, and (d) 200 MHz, for impulse response set IR-1\relax }{figure.caption.62}{}}
\@writefile{toc}{\contentsline {subsection}{\numberline {5.2.1}Varied AXIS}{76}{subsection.5.2.1}}
\newlabel{eq:AXIS_varied_objective}{{5.9}{76}{Varied AXIS}{equation.5.2.9}{}}
\@writefile{lof}{\contentsline {figure}{\numberline {5.6}{\ignorespaces Results of the AXIS algorithm with 250,000 data samples, with SNR = 60 dB for wideband simulation at 200 MHz sampling rate for incorrect model order estimates (a) $L/2$, (b) $L-10$, (c) $2L$, and (d) $L + 10$, for impulse response set IR-1\relax }}{77}{figure.caption.63}}
\newlabel{fig:AXIS_wrongModel_30v3000}{{5.6}{77}{Results of the AXIS algorithm with 250,000 data samples, with SNR = 60 dB for wideband simulation at 200 MHz sampling rate for incorrect model order estimates (a) $L/2$, (b) $L-10$, (c) $2L$, and (d) $L + 10$, for impulse response set IR-1\relax }{figure.caption.63}{}}
\newlabel{eq:AXIS_varied-system-of-equations}{{5.10}{77}{Varied AXIS}{equation.5.2.10}{}}
\newlabel{eq:AXIS_varied-cramers-rule}{{5.11}{78}{Varied AXIS}{equation.5.2.11}{}}
\newlabel{eq:AXIS_varied-tilde-lambda-mu}{{5.12}{78}{Varied AXIS}{equation.5.2.12}{}}
\newlabel{eq:AXIS_varied-complete-update}{{5.13}{78}{Varied AXIS}{equation.5.2.13}{}}
\@writefile{lof}{\contentsline {figure}{\numberline {5.7}{\ignorespaces Results of the VAXIS algorithm with 250,000 data samples, with SNR = 60 dB, at various sampling rates for wideband simulation, (a) 20 MHz, (b) 100 MHz, (c) 150 MHz, and (d) 200 MHz, for impulse response set IR-1\relax }}{79}{figure.caption.64}}
\newlabel{fig:VAXIS_ideal_30v3000}{{5.7}{79}{Results of the VAXIS algorithm with 250,000 data samples, with SNR = 60 dB, at various sampling rates for wideband simulation, (a) 20 MHz, (b) 100 MHz, (c) 150 MHz, and (d) 200 MHz, for impulse response set IR-1\relax }{figure.caption.64}{}}
\@writefile{toc}{\contentsline {subsection}{\numberline {5.2.2}Dual Fixed-Peak AXIS}{79}{subsection.5.2.2}}
\newlabel{eq:AXIS_dfp_objective}{{5.14}{79}{Dual Fixed-Peak AXIS}{equation.5.2.14}{}}
\newlabel{eq:AXIS_dfp_lagrangian}{{5.15}{80}{Dual Fixed-Peak AXIS}{equation.5.2.15}{}}
\newlabel{eq:AXIS_dfp_lambda_mu_update}{{5.16}{80}{Dual Fixed-Peak AXIS}{equation.5.2.16}{}}
\newlabel{eq:AXIS_dfp_update}{{5.17}{80}{Dual Fixed-Peak AXIS}{equation.5.2.17}{}}
\newlabel{eq:AXIS_dfp_system_of_equations}{{5.18}{80}{Dual Fixed-Peak AXIS}{equation.5.2.18}{}}
\newlabel{eq:AXIS_dfp-cramers-rule}{{5.19}{81}{Dual Fixed-Peak AXIS}{equation.5.2.19}{}}
\newlabel{eq:AXIS_dfp-tilde-lambda-mu-beta}{{5.20}{81}{Dual Fixed-Peak AXIS}{equation.5.2.20}{}}
\newlabel{eq:AXIS_dfp-complete-update}{{5.21}{81}{Dual Fixed-Peak AXIS}{equation.5.2.21}{}}
\@writefile{toc}{\contentsline {subsection}{\numberline {5.2.3}Non-Sparse AXIS}{82}{subsection.5.2.3}}
\@writefile{lof}{\contentsline {figure}{\numberline {5.8}{\ignorespaces Results of the DFPAXIS algorithm with 250,000 data samples, with SNR = 60 dB, at various sampling rates for wideband simulation, (a) 20 MHz, (b) 100 MHz, (c) 150 MHz, and (d) 200 MHz, for impulse response set IR-1\relax }}{83}{figure.caption.65}}
\newlabel{fig:DFPAXIS_ideal_30v3000}{{5.8}{83}{Results of the DFPAXIS algorithm with 250,000 data samples, with SNR = 60 dB, at various sampling rates for wideband simulation, (a) 20 MHz, (b) 100 MHz, (c) 150 MHz, and (d) 200 MHz, for impulse response set IR-1\relax }{figure.caption.65}{}}
\newlabel{eq:NSAXIS-complete-update}{{5.22}{83}{Non-Sparse AXIS}{equation.5.2.22}{}}
\@writefile{lof}{\contentsline {figure}{\numberline {5.9}{\ignorespaces Results of the NSAXIS algorithm with 250,000 data samples, with SNR = 60 dB, at various sampling rates for wideband simulation, (a) 20 MHz, (b) 100 MHz, (c) 150 MHz, and (d) 200 MHz, for impulse response IR-1.\relax }}{84}{figure.caption.66}}
\newlabel{fig:NonSAXIS_ideal_30v3000}{{5.9}{84}{Results of the NSAXIS algorithm with 250,000 data samples, with SNR = 60 dB, at various sampling rates for wideband simulation, (a) 20 MHz, (b) 100 MHz, (c) 150 MHz, and (d) 200 MHz, for impulse response IR-1.\relax }{figure.caption.66}{}}
\@writefile{toc}{\contentsline {subsection}{\numberline {5.2.4}Single Constraint AXIS (SC)}{84}{subsection.5.2.4}}
\newlabel{eq:SC_objective}{{5.23}{85}{Single Constraint AXIS (SC)}{equation.5.2.23}{}}
\newlabel{eq:SC-update-lambda}{{5.25}{85}{Single Constraint AXIS (SC)}{equation.5.2.25}{}}
\newlabel{eq:SC-lambda}{{5.26}{85}{Single Constraint AXIS (SC)}{equation.5.2.26}{}}
\newlabel{eq:SC-update-complete}{{5.27}{85}{Single Constraint AXIS (SC)}{equation.5.2.27}{}}
\@writefile{lof}{\contentsline {figure}{\numberline {5.10}{\ignorespaces Results of the SC algorithm with 250,000 data samples, with SNR = 60 dB, at various sampling rates for wideband simulation, (a) 20 MHz, (b) 100 MHz, (c) 150 MHz, and (d) 200 MHz, for impulse response set IR-1\relax }}{86}{figure.caption.67}}
\newlabel{fig:SC_ideal_30v3000}{{5.10}{86}{Results of the SC algorithm with 250,000 data samples, with SNR = 60 dB, at various sampling rates for wideband simulation, (a) 20 MHz, (b) 100 MHz, (c) 150 MHz, and (d) 200 MHz, for impulse response set IR-1\relax }{figure.caption.67}{}}
\@writefile{toc}{\contentsline {subsubsection}{Variations of the SC Algorithm}{86}{section*.68}}
\@writefile{toc}{\contentsline {paragraph}{\textbf  {Varied SC (VSC)}}{87}{section*.69}}
\newlabel{eq:SC-varied-objective}{{5.28}{87}{\textbf {Varied SC (VSC)}}{equation.5.2.28}{}}
\@writefile{toc}{\contentsline {paragraph}{\textbf  {Dual Fixed-Peak SC (DFPSC)}}{87}{figure.caption.72}}
\newlabel{eq:SC-dfp-objective}{{5.30}{87}{\textbf {Dual Fixed-Peak SC (DFPSC)}}{equation.5.2.30}{}}
\@writefile{lof}{\contentsline {figure}{\numberline {5.11}{\ignorespaces Results of the VSC algorithm with 250,000 data samples, with SNR = 60 dB, at various sampling rates for wideband simulation, (a) 20 MHz, (b) 100 MHz, (c) 150 MHz, and (d) 200 MHz, for impulse response set IR-1\relax }}{88}{figure.caption.70}}
\newlabel{fig:VSC_ideal_30v3000}{{5.11}{88}{Results of the VSC algorithm with 250,000 data samples, with SNR = 60 dB, at various sampling rates for wideband simulation, (a) 20 MHz, (b) 100 MHz, (c) 150 MHz, and (d) 200 MHz, for impulse response set IR-1\relax }{figure.caption.70}{}}
\newlabel{eq:SC-dfp-update-complete}{{5.31}{88}{\textbf {Dual Fixed-Peak SC (DFPSC)}}{equation.5.2.31}{}}
\@writefile{lof}{\contentsline {figure}{\numberline {5.12}{\ignorespaces Results of the DFPSC algorithm with 250,000 data samples, with SNR = 60 dB, at various sampling rates for wideband simulation, (a) 20 MHz, (b) 100 MHz, (c) 150 MHz, and (d) 200 MHz, for transfer function set TF-1\relax }}{89}{figure.caption.72}}
\newlabel{fig:DFPSC_ideal_30v3000}{{5.12}{89}{Results of the DFPSC algorithm with 250,000 data samples, with SNR = 60 dB, at various sampling rates for wideband simulation, (a) 20 MHz, (b) 100 MHz, (c) 150 MHz, and (d) 200 MHz, for transfer function set TF-1\relax }{figure.caption.72}{}}
\@writefile{toc}{\contentsline {paragraph}{\textbf  {Non-Sparse SC (NSSC)}}{89}{section*.74}}
\@writefile{lof}{\contentsline {figure}{\numberline {5.13}{\ignorespaces Results of the Non-Sparse SC algorithm with 250,000 data samples, with SNR = 60 dB, at various sampling rates for wideband simulation, (a) 20 MHz, (b) 100 MHz, (c) 150 MHz, and (d) 200 MHz, for impulse response set IR-1\relax }}{90}{figure.caption.73}}
\newlabel{fig:NonSSC_ideal_30v3000}{{5.13}{90}{Results of the Non-Sparse SC algorithm with 250,000 data samples, with SNR = 60 dB, at various sampling rates for wideband simulation, (a) 20 MHz, (b) 100 MHz, (c) 150 MHz, and (d) 200 MHz, for impulse response set IR-1\relax }{figure.caption.73}{}}
\newlabel{eq:NSSC-update-complete}{{5.32}{90}{\textbf {Non-Sparse SC (NSSC)}}{equation.5.2.32}{}}
\@writefile{toc}{\contentsline {section}{\numberline {5.3}Data Verification}{91}{section.5.3}}
\newlabel{sec:AXIS_data}{{5.3}{91}{Data Verification}{section.5.3}{}}
\@writefile{toc}{\contentsline {subsection}{\numberline {5.3.1}Simulation}{91}{subsection.5.3.1}}
\newlabel{sec:AXIS_simulations}{{5.3.1}{91}{Simulation}{subsection.5.3.1}{}}
\@writefile{toc}{\contentsline {subsubsection}{``Ideal'' Simulation}{91}{section*.75}}
\@writefile{toc}{\contentsline {subsubsection}{Signal Bandwidth}{91}{section*.76}}
\@writefile{toc}{\contentsline {subsubsection}{Noise}{92}{section*.77}}
\@writefile{toc}{\contentsline {subsubsection}{Sample Size}{92}{section*.78}}
\@writefile{toc}{\contentsline {subsubsection}{Model Order}{92}{section*.79}}
\@writefile{toc}{\contentsline {subsubsection}{Initial Estimates}{93}{section*.80}}
\@writefile{lot}{\contentsline {table}{\numberline {5.1}{\ignorespaces \relax }}{94}{table.caption.81}}
\newlabel{tab:AXIS_ideal_results_IR_1}{{5.1}{94}{\relax }{table.caption.81}{}}
\@writefile{lot}{\contentsline {table}{\numberline {5.2}{\ignorespaces \relax }}{95}{table.caption.82}}
\newlabel{tab:AXIS_ideal_results_IR_2}{{5.2}{95}{\relax }{table.caption.82}{}}
\@writefile{lot}{\contentsline {table}{\numberline {5.3}{\ignorespaces \relax }}{96}{table.caption.83}}
\newlabel{tab:AXIS_narrow_results_IR_1}{{5.3}{96}{\relax }{table.caption.83}{}}
\@writefile{lot}{\contentsline {table}{\numberline {5.4}{\ignorespaces \relax }}{97}{table.caption.84}}
\newlabel{tab:AXIS_narrow_results_IR_2}{{5.4}{97}{\relax }{table.caption.84}{}}
\@writefile{lot}{\contentsline {table}{\numberline {5.5}{\ignorespaces \relax }}{98}{table.caption.85}}
\newlabel{tab:AXIS_noisy_results_IR_1}{{5.5}{98}{\relax }{table.caption.85}{}}
\@writefile{lot}{\contentsline {table}{\numberline {5.6}{\ignorespaces \relax }}{99}{table.caption.86}}
\newlabel{tab:AXIS_noisy_results_IR_2}{{5.6}{99}{\relax }{table.caption.86}{}}
\@writefile{lot}{\contentsline {table}{\numberline {5.7}{\ignorespaces \relax }}{100}{table.caption.87}}
\newlabel{tab:AXIS_Nless_results_IR_1}{{5.7}{100}{\relax }{table.caption.87}{}}
\@writefile{lot}{\contentsline {table}{\numberline {5.8}{\ignorespaces \relax }}{101}{table.caption.88}}
\newlabel{tab:AXIS_Nless_results_IR_2}{{5.8}{101}{\relax }{table.caption.88}{}}
\@writefile{lot}{\contentsline {table}{\numberline {5.9}{\ignorespaces \relax }}{102}{table.caption.89}}
\newlabel{tab:AXIS_wrongModel_under1_results_IR_1}{{5.9}{102}{\relax }{table.caption.89}{}}
\@writefile{lot}{\contentsline {table}{\numberline {5.10}{\ignorespaces \relax }}{103}{table.caption.90}}
\newlabel{tab:AXIS_wrongModel_under1_results_IR_2}{{5.10}{103}{\relax }{table.caption.90}{}}
\@writefile{lot}{\contentsline {table}{\numberline {5.11}{\ignorespaces \relax }}{104}{table.caption.91}}
\newlabel{tab:AXIS_wrongModel_under2_results_IR_1}{{5.11}{104}{\relax }{table.caption.91}{}}
\@writefile{lot}{\contentsline {table}{\numberline {5.12}{\ignorespaces \relax }}{105}{table.caption.92}}
\newlabel{tab:AXIS_wrongModel_under2_results_IR_2}{{5.12}{105}{\relax }{table.caption.92}{}}
\@writefile{lot}{\contentsline {table}{\numberline {5.13}{\ignorespaces \relax }}{106}{table.caption.93}}
\newlabel{tab:AXIS_wrongModel_over1_results_IR_1}{{5.13}{106}{\relax }{table.caption.93}{}}
\@writefile{lot}{\contentsline {table}{\numberline {5.14}{\ignorespaces \relax }}{107}{table.caption.94}}
\newlabel{tab:AXIS_wrongModel_over1_results_IR_2}{{5.14}{107}{\relax }{table.caption.94}{}}
\@writefile{lot}{\contentsline {table}{\numberline {5.15}{\ignorespaces \relax }}{108}{table.caption.95}}
\newlabel{tab:AXIS_wrongModel_over2_results_IR_1}{{5.15}{108}{\relax }{table.caption.95}{}}
\@writefile{lot}{\contentsline {table}{\numberline {5.16}{\ignorespaces \relax }}{109}{table.caption.96}}
\newlabel{tab:AXIS_wrongModel_over2_results_IR_2}{{5.16}{109}{\relax }{table.caption.96}{}}
\@writefile{lot}{\contentsline {table}{\numberline {5.17}{\ignorespaces \relax }}{110}{table.caption.97}}
\newlabel{tab:AXIS_random_results_IR_1}{{5.17}{110}{\relax }{table.caption.97}{}}
\@writefile{lot}{\contentsline {table}{\numberline {5.18}{\ignorespaces \relax }}{111}{table.caption.98}}
\newlabel{tab:AXIS_random_results_IR_2}{{5.18}{111}{\relax }{table.caption.98}{}}
\@writefile{toc}{\contentsline {subsection}{\numberline {5.3.2}Observed Data}{112}{subsection.5.3.2}}
\@writefile{toc}{\contentsline {section}{\numberline {5.4}Algorithm Comparison}{112}{section.5.4}}
\@setckpt{Chapters/Chapter_5/ch_5_AXIS}{
\setcounter{page}{113}
\setcounter{equation}{32}
\setcounter{enumi}{4}
\setcounter{enumii}{0}
\setcounter{enumiii}{0}
\setcounter{enumiv}{0}
\setcounter{footnote}{0}
\setcounter{mpfootnote}{0}
\setcounter{part}{0}
\setcounter{chapter}{5}
\setcounter{section}{4}
\setcounter{subsection}{0}
\setcounter{subsubsection}{0}
\setcounter{paragraph}{0}
\setcounter{subparagraph}{0}
\setcounter{figure}{13}
\setcounter{table}{18}
\setcounter{savemainpageno}{0}
\setcounter{savefrontpageno}{20}
\setcounter{savetotalpageno}{0}
\setcounter{float@type}{16}
\setcounter{alg}{0}
\setcounter{parentequation}{0}
\setcounter{lstnumber}{1}
\setcounter{ContinuedFloat}{0}
\setcounter{subfigure}{4}
\setcounter{subtable}{0}
\setcounter{Item}{6}
\setcounter{Hfootnote}{8}
\setcounter{bookmark@seq@number}{52}
\setcounter{lstlisting}{0}
\setcounter{section@level}{1}
}
