\relax 
\citation{bib:thesis}
\citation{bib:thesis,bib:kailath,bib:benesty}
\citation{bib:TDOA_ML}
\citation{bib:kailath,bib:benesty}
\citation{bib:thesis,bib:kailath,bib:benesty}
\@writefile{toc}{\contentsline {section}{\numberline {I}Introduction}{1}}
\@writefile{toc}{\contentsline {section}{\numberline {II}Complex Cross Relations Methods}{1}}
\newlabel{eq:system_conj}{{1}{1}}
\newlabel{eq:cr-derivation_conj}{{2}{1}}
\newlabel{eq:matCrossRelation}{{3}{1}}
\citation{bib:kailath,bib:benesty}
\citation{bib:kailath}
\citation{bib:benesty}
\citation{bib:LMS}
\citation{bib:benesty}
\newlabel{eq:CR_brief}{{4}{2}}
\@writefile{toc}{\contentsline {subsection}{\numberline {\unhbox \voidb@x \hbox {II-A}}Pre-Existing CR Algorithms}{2}}
\@writefile{toc}{\contentsline {subsubsection}{\numberline {\unhbox \voidb@x \hbox {II-A}1}The SVD Approach}{2}}
\newlabel{eq:SVD}{{5}{2}}
\@writefile{toc}{\contentsline {subsubsection}{\numberline {\unhbox \voidb@x \hbox {II-A}2}The AED Approach}{2}}
\newlabel{eq:AED}{{6}{2}}
\newlabel{eq:AED_update}{{7}{2}}
\@writefile{toc}{\contentsline {section}{\numberline {III}Adaptive Cross-Channel Identification with Sparse Shift-Suppression}{2}}
\newlabel{eq:AXIS_objective}{{8}{2}}
\newlabel{eq:AXIS-complete-update}{{9}{2}}
\@writefile{lot}{\contentsline {table}{\numberline {I}{\ignorespaces Averaged simulation results over 21 variations.\relax }}{3}}
\providecommand*\caption@xref[2]{\@setref\relax\@undefined{#1}}
\newlabel{tab:results}{{I}{3}}
\@writefile{lof}{\contentsline {figure}{\numberline {1}{\ignorespaces Results of the different algorithms for 30,000 data samples, with SNR = 60 dB, at 40 MHz sampling rate for wideband simulation.\relax }}{3}}
\newlabel{fig:results}{{1}{3}}
\@writefile{toc}{\contentsline {section}{\numberline {IV}Simulation Results and Discussion}{3}}
\@writefile{toc}{\contentsline {section}{\numberline {V}Conclusion}{3}}
\bibcite{bib:thesis}{1}
\bibcite{bib:kailath}{2}
\bibcite{bib:benesty}{3}
\bibcite{bib:TDOA_ML}{4}
\bibcite{bib:LMS}{5}
\@writefile{toc}{\contentsline {section}{References}{4}}
