% This file was created by matlab2tikz.
%
%The latest updates can be retrieved from
%  http://www.mathworks.com/matlabcentral/fileexchange/22022-matlab2tikz-matlab2tikz
%where you can also make suggestions and rate matlab2tikz.
%
\definecolor{mycolor1}{rgb}{0.00000,0.44700,0.74100}%
\definecolor{mycolor2}{rgb}{0.85000,0.32500,0.09800}%
%
\begin{tikzpicture}

\begin{axis}[%
width=1.935in,
height=3.2in,
at={(0.758in,0.512in)},
scale only axis,
xmin=0,
xmax=100,
xlabel style={font=\color{white!15!black}, align=center},
xlabel={Sample Index\\[1ex](a) Actual},
ymin=0,
ymax=0.8,
axis background/.style={fill=white},
legend style={legend cell align=left, align=left, draw=white!15!black}
]
\addplot [color=mycolor1]
  table[row sep=crcr]{%
1	0.0129538532238509\\
2	0.0157278361368032\\
3	0.0191571608138802\\
4	0.0255923724575832\\
5	0.13057228915146\\
6	0.790598288418654\\
7	0.353827376030412\\
8	0.122418300101408\\
9	0.229084031593214\\
10	0.118243319340586\\
11	0.168368944374742\\
12	0.0163735399430034\\
13	0.0206849651924714\\
14	0.0262956791329175\\
15	0.151852199158411\\
16	0.152742171024721\\
17	0.110720168991091\\
18	0.123153341936425\\
19	0.125894992669405\\
20	0.0746063601393855\\
21	0.0186653655418556\\
22	0.0250643995407145\\
23	0.00974111680189212\\
24	0.0779603151980655\\
25	0.0307172164925168\\
26	0.0208261989317089\\
27	0.0752294272267323\\
28	0.0144668561504321\\
29	0.0123363814366294\\
30	0.0122598477519198\\
31	0.0155350862563734\\
32	0.0418132873290243\\
33	0.0573531042253119\\
34	0.0129196281383963\\
35	0.00895205820328393\\
36	0.00773833898796016\\
37	0.00748874666873079\\
38	0.00800183229182001\\
39	0.00975691772335202\\
40	0.0159028691535576\\
41	0.0384196893347397\\
42	0.0314876195631017\\
43	0.010044387559483\\
44	0.00616684731235577\\
45	0.00479175222070565\\
46	0.00437058826387638\\
47	0.00459828758875363\\
48	0.005652668265702\\
49	0.0087419213913912\\
50	0.0260232215344717\\
51	0.0227474232041571\\
52	0.00780973732786325\\
53	0.00473741257906885\\
54	0.00342802499502385\\
55	0.0027071673231627\\
56	0.00225206144341568\\
57	0.001938695300116\\
58	0.0017095024412107\\
59	0.00153423834592061\\
60	0.00139554782547471\\
61	0.00128278764759102\\
62	0.00118908147787501\\
63	0.00110979542168412\\
64	0.0010416958422628\\
65	0.000982458809342531\\
66	0.000930371514391801\\
67	0.000884143640819322\\
68	0.000842784330423255\\
69	0.000805519676312384\\
70	0.000771736027647173\\
71	0.000740940180026644\\
72	0.000712730877370764\\
73	0.000686778053613698\\
74	0.000662807472321918\\
75	0.000640589196550035\\
76	0.000619928819626308\\
77	0.000600660714929267\\
78	0.000582642781753098\\
79	0.000565752313398667\\
80	0.000549882716621264\\
81	0.000534940883763175\\
82	0.000520845070183068\\
83	0.000507523166470246\\
84	0.00049491128175685\\
85	0.000482952574159901\\
86	0.000471596279030148\\
87	0.000460796896662062\\
88	0.000450513509420678\\
89	0.000440709204573525\\
90	0.000431350583981088\\
91	0.000422407345569488\\
92	0.000413851924447944\\
93	0.000405659183842499\\
94	0.000397806147840094\\
95	0.000390271769389961\\
96	0.000383036728166029\\
97	0.00037608325382988\\
98	0.000369394970986201\\
99	0\\
100	0\\
};
\addlegendentry{$\mathbf{h_1}$}

\addplot [color=mycolor2]
  table[row sep=crcr]{%
1	0.0089849246842337\\
2	0.00955586856755047\\
3	0.0102000386246561\\
4	0.0109303448856752\\
5	0.0117611964369887\\
6	0.0127063869488681\\
7	0.013771787577086\\
8	0.0149309370172528\\
9	0.0160361992437888\\
10	0.0164244433772478\\
11	0.0125495760932937\\
12	0.664036312008792\\
13	0.0850193487524877\\
14	0.131745330322907\\
15	0.128609472347745\\
16	0.0491456993245761\\
17	0.382620258465008\\
18	0.593903782219221\\
19	0.0828507132426594\\
20	0.0515719011856109\\
21	0.0378681896084267\\
22	0.030017391607479\\
23	0.0248946679351547\\
24	0.0212776230780299\\
25	0.0185834085331559\\
26	0.0164971010401923\\
27	0.0148330326444681\\
28	0.0134744221797144\\
29	0.0123440432735997\\
30	0.0113887411741417\\
31	0.0105707107326117\\
32	0.00986231811042315\\
33	0.00924289003134423\\
34	0.00869664894813821\\
35	0\\
36	0\\
37	0\\
38	0\\
39	0\\
40	0\\
41	0\\
42	0\\
43	0\\
44	0\\
45	0\\
46	0\\
47	0\\
48	0\\
49	0\\
50	0\\
51	0\\
52	0\\
53	0\\
54	0\\
55	0\\
56	0\\
57	0\\
58	0\\
59	0\\
60	0\\
61	0\\
62	0\\
63	0\\
64	0\\
65	0\\
66	0\\
67	0\\
68	0\\
69	0\\
70	0\\
71	0\\
72	0\\
73	0\\
74	0\\
75	0\\
76	0\\
77	0\\
78	0\\
79	0\\
80	0\\
81	0\\
82	0\\
83	0\\
84	0\\
85	0\\
86	0\\
87	0\\
88	0\\
89	0\\
90	0\\
91	0\\
92	0\\
93	0\\
94	0\\
95	0\\
96	0\\
97	0\\
98	0\\
99	0\\
100	0\\
};
\addlegendentry{$\mathbf{h_{2}}$}

\end{axis}

\begin{axis}[%
width=1.935in,
height=3.2in,
at={(3.327in,0.512in)},
scale only axis,
xmin=0,
xmax=100,
xlabel style={font=\color{white!15!black}, align=center},
xlabel={Sample Index\\[1ex](b) Estimated},
ymin=0,
ymax=1,
axis background/.style={fill=white},
legend style={legend cell align=left, align=left, draw=white!15!black}
]
\addplot [color=mycolor1]
  table[row sep=crcr]{%
0	4.29912909093316e-06\\
1	4.52339301692321e-05\\
2	6.05088560298571e-05\\
3	2.62444083616572e-05\\
4	1.56401093787248e-05\\
5	5.25180914307854e-05\\
6	4.12790903504539e-05\\
7	3.97081239879165e-05\\
8	1.29896130706643e-05\\
9	8.13581734577768e-05\\
10	5.90295819219509e-05\\
11	0.000814516652632287\\
12	0.000373814484230258\\
13	6.35806783483926e-05\\
14	4.73330777223456e-05\\
15	2.06408683628763e-05\\
16	1.97531323021013e-05\\
17	2.09869971011467e-05\\
18	3.46249583398695e-05\\
19	1.36305505718023e-05\\
20	0.000174572682662807\\
21	2.53256912695177e-05\\
22	0.000165541077971151\\
23	0.000134378256749047\\
24	0.00852142394819252\\
25	0.000863791661034658\\
26	0.0106999118434329\\
27	0.000989632388861558\\
28	0.00125594428568352\\
29	0.00189474789269559\\
30	0.00609732449527911\\
31	0.0362766558237514\\
32	0.0791164007984441\\
33	0.0225176098157214\\
34	0.000612296174353638\\
35	0.0389600806674045\\
36	0.0915422863219548\\
37	0.385202199279429\\
38	0.591426830513472\\
39	0.0664368680439884\\
40	0.0467203829693949\\
41	0.0370606487851196\\
42	0.106136104665877\\
43	0.561050070546222\\
44	0.161230648832631\\
45	0.0943246847306979\\
46	0.153647873269675\\
47	0.119194295625389\\
48	0.112582028155642\\
49	0.104890877328568\\
50	0.0656257432511559\\
51	0.045974708531576\\
52	0.100301574049682\\
53	0.0871588371861511\\
54	0.0314148575824292\\
55	0.0998427746348707\\
56	0.0825781208442031\\
57	0.0474320259032865\\
58	0.054817672977338\\
59	0.00326676136337923\\
60	0.000196741115876598\\
61	0.059042953088016\\
62	0.0189140436942205\\
63	0.00131212734784396\\
64	0.00762574081432057\\
65	0.00939845070375655\\
66	0.005178826728465\\
67	0.000127100126150593\\
68	0.0117555311725603\\
69	0.0222695210050901\\
70	0.0233872265075312\\
71	4.04450633273291e-05\\
72	0.00659660791632004\\
73	0.0204267007384192\\
74	3.20365834074488e-05\\
75	5.36554994082785e-05\\
76	2.85491749665113e-06\\
77	2.68247567750327e-05\\
78	0.0118121213170618\\
79	0.00376170332788983\\
80	1.87879460168506e-05\\
81	4.73329509303357e-05\\
82	0.0160179662563174\\
83	4.83314141581425e-05\\
84	2.44330134174978e-05\\
85	5.76893949751322e-05\\
86	5.96581773134666e-05\\
87	0.00487480684986182\\
88	0.00346618405412046\\
89	5.31348977114951e-05\\
90	1.21388920010094e-05\\
91	9.77128068751401e-05\\
92	4.3733780326598e-05\\
93	7.45267733173706e-05\\
94	4.35780618414442e-05\\
95	3.31302229787495e-06\\
96	3.61820233657757e-05\\
97	5.41090092941252e-05\\
98	1.43429536008919e-05\\
99	3.10968713326595e-05\\
};
\addlegendentry{$\mathbf{\hat{h}_{1}}$}

\addplot [color=mycolor2]
  table[row sep=crcr]{%
0	4.55172421352879e-05\\
1	3.95937982839752e-05\\
2	5.04228755857793e-05\\
3	4.3231891587704e-05\\
4	1.84074561400807e-05\\
5	0.00752261155349118\\
6	1.42351988376319e-05\\
7	1.7979346230413e-05\\
8	1.26504024499408e-05\\
9	2.42031422322274e-05\\
10	1.88656599860161e-05\\
11	6.98654969395632e-05\\
12	2.87823439956113e-05\\
13	0.000345895780535407\\
14	0.00691416058415169\\
15	0.00398642602783576\\
16	0.000767636902903758\\
17	0.00444729337973731\\
18	5.06008144302669e-05\\
19	1.33999933897804e-05\\
20	5.62654714661864e-05\\
21	4.52201754362104e-05\\
22	0.0122442118765618\\
23	0.0231378051279166\\
24	0.00173953040541737\\
25	0.00194962964232598\\
26	2.90293401920161e-05\\
27	0.000508022950039063\\
28	0.0158221701606571\\
29	0.0102534206251086\\
30	0.00732931433954868\\
31	0.0127723969863143\\
32	0.00301378437882706\\
33	0.00753131953470007\\
34	5.16873382010679e-05\\
35	0.00305946583913286\\
36	0.050750238378501\\
37	0.0523122950229822\\
38	0.0447891288096339\\
39	0.0389058270508036\\
40	0.0503786462909558\\
41	0.0167994539398642\\
42	0.00179297109947568\\
43	0.0468655671479375\\
44	0.0796854400004889\\
45	0.0146234956421629\\
46	0.0926096348619585\\
47	0.0145616614992497\\
48	0.0159429747761457\\
49	0.968051900975559\\
50	0.0167636763534136\\
51	0.0154588548746085\\
52	0.092374902059649\\
53	0.0143021566525415\\
54	0.0804710786562694\\
55	0.0464611032441957\\
56	0.00188375634492997\\
57	0.0165700074859659\\
58	0.0510700252286509\\
59	0.0387320611290727\\
60	0.046197372026565\\
61	0.0530888757479068\\
62	0.0534621950204228\\
63	0.00399153828130749\\
64	3.93716141291556e-05\\
65	0.00785627327133024\\
66	0.00326028944965176\\
67	0.0138471898200782\\
68	0.00629690732893148\\
69	0.0112385825315881\\
70	0.0175120068003303\\
71	0.00057807817476967\\
72	1.49977086924097e-05\\
73	0.00286339519508383\\
74	0.00166582318498901\\
75	0.0252698042214992\\
76	0.0137717004026963\\
77	3.04789797143791e-05\\
78	3.12042934924416e-05\\
79	4.88046750686959e-05\\
80	3.29936106747834e-05\\
81	0.00394728313575325\\
82	0.000677494405422323\\
83	0.00635064836828363\\
84	0.00951187170245942\\
85	0.00189967831983142\\
86	1.53109213908525e-05\\
87	3.47966817849954e-05\\
88	1.71163288275622e-05\\
89	7.28885429878559e-06\\
90	3.79129808381346e-05\\
91	1.30641658881648e-05\\
92	2.7709977684399e-05\\
93	0.0102435604242256\\
94	2.26687778484901e-05\\
95	6.25723068986122e-05\\
96	3.88900530420408e-05\\
97	4.31667290558846e-05\\
98	4.08868423010666e-05\\
99	6.36538128081216e-05\\
};
\addlegendentry{$\mathbf{\hat{h}_{2}}$}

\end{axis}
\end{tikzpicture}%