% This file was created by matlab2tikz.
%
%The latest updates can be retrieved from
%  http://www.mathworks.com/matlabcentral/fileexchange/22022-matlab2tikz-matlab2tikz
%where you can also make suggestions and rate matlab2tikz.
%
\definecolor{mycolor1}{rgb}{0.00000,0.44700,0.74100}%
\definecolor{mycolor2}{rgb}{0.85000,0.32500,0.09800}%
%
\begin{tikzpicture}

\begin{axis}[%
width=1.935in,
height=3.2in,
at={(0.758in,0.512in)},
scale only axis,
xmin=0,
xmax=100,
xlabel style={font=\color{white!15!black}, align=center},
xlabel={Sample Index\\[1ex](a) Actual},
ymin=0,
ymax=1,
axis background/.style={fill=white},
legend style={legend cell align=left, align=left, draw=white!15!black}
]
\addplot [color=mycolor1]
  table[row sep=crcr]{%
1	0.0216926152020066\\
2	0.0241183965289278\\
3	0.0267807478156139\\
4	0.0354280601095614\\
5	0.221828667704926\\
6	0.648965745595675\\
7	0.241270440438586\\
8	0.0776642628644082\\
9	0.0581044824071981\\
10	0.0611489366831747\\
11	0.0798140419847986\\
12	0.062735544320507\\
13	0.113011040425493\\
14	0.377485382687519\\
15	0.331649248845691\\
16	0.18615433793772\\
17	0.146493252817741\\
18	0.0847190801249442\\
19	0.0628278567269286\\
20	0.0148364296169451\\
21	0.0250471739922352\\
22	0.0344835915107885\\
23	0.116323790948646\\
24	0.279210940275387\\
25	0.101045410677318\\
26	0.0464379665429307\\
27	0.041398863205924\\
28	0.0263226969199998\\
29	0.0221848789960478\\
30	0.0197642774213948\\
31	0.0186496517239344\\
32	0.0219339353832985\\
33	0.018414044189717\\
34	0.00937919788338426\\
35	0.0100670783096178\\
36	0.0098135024549665\\
37	0.00937197330245933\\
38	0.00884810306396591\\
39	0.00821513429074651\\
40	0.00732026654240377\\
41	0.00945021173361951\\
42	0.0127255218727005\\
43	0.00946415089832864\\
44	0.00862800399957479\\
45	0.00816256372793386\\
46	0.00784857678072338\\
47	0.00764005346579914\\
48	0.00755773656417068\\
49	0.00776075567554332\\
50	0.00986938420958768\\
51	0.00319649311885596\\
52	0.00500292172051245\\
53	0.00524752973649041\\
54	0.00526667690567613\\
55	0.00521575322380608\\
56	0.00513704586881206\\
57	0.00504647235310817\\
58	0.00495116794332671\\
59	0.00485468351773321\\
60	0.00475890010347922\\
61	0.00466484578572566\\
62	0.00457308311118313\\
63	0.00448390798586452\\
64	0.0043974582605137\\
65	0.00431377595094964\\
66	0.00423284428954661\\
67	0.00415461047403326\\
68	0.00407899997367922\\
69	0.00400592569101114\\
70	0.00393529390404367\\
71	0.0038670081481966\\
72	0.00380097175500134\\
73	0.00373708950172093\\
74	0.00367526866536834\\
75	0.00361541967416126\\
76	0.00355745648532918\\
77	0.00350129677649243\\
78	0.00344686201027152\\
79	0.00339407741330312\\
80	0.00334287189828014\\
81	0.0032931779490063\\
82	0.00324493148246751\\
83	0.00319807169773062\\
84	0.003152540918526\\
85	0.00310828443427485\\
86	0.00306525034282854\\
87	0.00302338939712195\\
88	0.00298265485717807\\
89	0.00294300234835571\\
90	0.00290438972634362\\
91	0.0028667769491261\\
92	0.00283012595595264\\
93	0.0027944005532083\\
94	0.00275956630699144\\
95	0.0027255904421446\\
96	0.00269244174744817\\
97	0.00266009048666622\\
98	0.00262850831512411\\
99	0\\
100	0\\
};
\addlegendentry{$\mathbf{h_1}$}

\addplot [color=mycolor2]
  table[row sep=crcr]{%
1	0.00108294891904515\\
2	0.00115806441999571\\
3	0.00125656841390277\\
4	0.00139359850086552\\
5	0.00159676508941691\\
6	0.00191784013184518\\
7	0.00245777585368985\\
8	0.00342819163679349\\
9	0.00533730915065768\\
10	0.00974214709050295\\
11	0.0244449264542886\\
12	0.973731186814765\\
13	0.0500739614470277\\
14	0.0426946282907342\\
15	0.00536788790071817\\
16	0.0362080823589407\\
17	0.176144271962331\\
18	0.115663212635922\\
19	0.0234963057121139\\
20	0.0138738178597906\\
21	0.00966054585381422\\
22	0.00731818549393035\\
23	0.00584139575065055\\
24	0.0048330083027894\\
25	0.00410500747522503\\
26	0.00355723928842746\\
27	0.00313167065616096\\
28	0.00279247304593218\\
29	0.00251639833876938\\
30	0.00228774297450139\\
31	0.00209554142652578\\
32	0.00193191967393617\\
33	0.00179108704155738\\
34	0.00166869616651274\\
35	0\\
36	0\\
37	0\\
38	0\\
39	0\\
40	0\\
41	0\\
42	0\\
43	0\\
44	0\\
45	0\\
46	0\\
47	0\\
48	0\\
49	0\\
50	0\\
51	0\\
52	0\\
53	0\\
54	0\\
55	0\\
56	0\\
57	0\\
58	0\\
59	0\\
60	0\\
61	0\\
62	0\\
63	0\\
64	0\\
65	0\\
66	0\\
67	0\\
68	0\\
69	0\\
70	0\\
71	0\\
72	0\\
73	0\\
74	0\\
75	0\\
76	0\\
77	0\\
78	0\\
79	0\\
80	0\\
81	0\\
82	0\\
83	0\\
84	0\\
85	0\\
86	0\\
87	0\\
88	0\\
89	0\\
90	0\\
91	0\\
92	0\\
93	0\\
94	0\\
95	0\\
96	0\\
97	0\\
98	0\\
99	0\\
100	0\\
};
\addlegendentry{$\mathbf{h_{2}}$}

\end{axis}

\begin{axis}[%
width=1.935in,
height=3.2in,
at={(3.327in,0.512in)},
scale only axis,
xmin=0,
xmax=100,
xlabel style={font=\color{white!15!black}, align=center},
xlabel={Sample Index\\[1ex](b) Estimated},
ymin=0,
ymax=0.9,
axis background/.style={fill=white},
legend style={legend cell align=left, align=left, draw=white!15!black}
]
\addplot [color=mycolor1]
  table[row sep=crcr]{%
0	0.0170082920670845\\
1	0.0291306960941176\\
2	0.0409270983954992\\
3	0.0426814039840797\\
4	0.175486607861992\\
5	0.590231198254474\\
6	0.233453951550228\\
7	0.112570195930935\\
8	0.182156099016008\\
9	0.050678503977706\\
10	0.0897238923586402\\
11	0.10808695493691\\
12	0.133546791050361\\
13	0.37561913891752\\
14	0.138235115216383\\
15	0.187365511497489\\
16	0.333275390683203\\
17	0.160222528476934\\
18	0.114928692288447\\
19	0.0566363119575037\\
20	0.0346240747957602\\
21	0.0529481219751861\\
22	0.086080309177907\\
23	0.277634713557828\\
24	0.106330725185211\\
25	0.0396277626058521\\
26	0.10223069145267\\
27	0.0553345223282413\\
28	0.0445879699094207\\
29	0.0334611854870637\\
30	0.0333203669869735\\
31	0.038835082258208\\
32	0.0242224247150554\\
33	0.019863935229985\\
34	0.0199554210783511\\
35	0.0198958462900897\\
36	0.0146623783611851\\
37	0.0142200208502676\\
38	0.0140559875830798\\
39	0.0134396882001118\\
40	0.0137944814751857\\
41	0.0150490794073228\\
42	0.016038246579805\\
43	0.0159561124813954\\
44	0.0144560071905737\\
45	0.0134362691925298\\
46	0.0127210140324964\\
47	0.0130075466418221\\
48	0.0121995432676047\\
49	0.0144856771815242\\
50	0.0102204961766699\\
51	0.00941578785286193\\
52	0.00739730671840396\\
53	0.00876569214895961\\
54	0.00859699806472428\\
55	0.00862943479506405\\
56	0.00834891512640216\\
57	0.00821045708693066\\
58	0.00813948442949542\\
59	0.00806619578422416\\
60	0.00774530040614275\\
61	0.0076807804679542\\
62	0.0074189995979067\\
63	0.00745292344583402\\
64	0.00719193341433087\\
65	0.0070249903956659\\
66	0.00697952299793595\\
67	0.00682034182651122\\
68	0.00670297718627287\\
69	0.00657936697931167\\
70	0.00647587369536241\\
71	0.0063464039228832\\
72	0.00622355572591405\\
73	0.00607988949094605\\
74	0.00605038313975604\\
75	0.00594777762851636\\
76	0.0058476213159577\\
77	0.00571362407936314\\
78	0.00570068239423667\\
79	0.00551149726693383\\
80	0.00552253311917253\\
81	0.00535663280129035\\
82	0.00537958267622925\\
83	0.00529065741572963\\
84	0.00521089796585277\\
85	0.00506159707236106\\
86	0.00504072051804443\\
87	0.00494037390771377\\
88	0.00496818056009824\\
89	0.00483323621613811\\
90	0.00475760397958399\\
91	0.00468976480798725\\
92	0.00470254259363612\\
93	0.00454952152383168\\
94	0.00453071538424398\\
95	0.0044361624379799\\
96	0.00446906001739983\\
97	0.00440588286199739\\
98	0.00227378761176818\\
99	0.000977614361668732\\
};
\addlegendentry{$\mathbf{\hat{h}_{1}}$}

\addplot [color=mycolor2]
  table[row sep=crcr]{%
0	0.000866372153384451\\
1	0.00147769982042972\\
2	0.00204140075599547\\
3	0.00217594347742326\\
4	0.00245034032167105\\
5	0.00291983825884345\\
6	0.00355626202183429\\
7	0.0041571921038052\\
8	0.0085401880360317\\
9	0.0110184482416546\\
10	0.0246737857820676\\
11	0.801531880579764\\
12	0.456039788388677\\
13	0.329540691321231\\
14	0.0540188456852387\\
15	0.0533437994270383\\
16	0.162462376173038\\
17	0.0133194837507685\\
18	0.0107950506423758\\
19	0.078794421216954\\
20	0.0127428205764805\\
21	0.0204603931017487\\
22	0.0137614674919572\\
23	0.0184479534921171\\
24	0.00662188186301537\\
25	0.0125918640592819\\
26	0.00557201064326744\\
27	0.0049820847114283\\
28	0.00487179240948046\\
29	0.00370680140889935\\
30	0.00420924750325053\\
31	0.00306393495560525\\
32	0.00342251466018478\\
33	0.00295049658787562\\
34	0.00154827423360291\\
35	0.000716177729266724\\
36	0.000341307826738035\\
37	8.68563728737719e-05\\
38	0.000157547122016661\\
39	0.000278124462007877\\
40	0.000359589891179352\\
41	0.000207185309249932\\
42	0.000162879896099724\\
43	0.000217001812346222\\
44	0.000138495195258586\\
45	0.000243941670374656\\
46	0.000166335648909106\\
47	0.000152844732890485\\
48	8.20356599547292e-05\\
49	0.00012391440044028\\
50	0.000234014715068227\\
51	0.000129383683372025\\
52	6.28949494180336e-05\\
53	5.21495743835432e-05\\
54	4.51555095395802e-05\\
55	3.44605314920572e-05\\
56	6.59265316473778e-05\\
57	7.02441803207317e-05\\
58	7.98486024300308e-05\\
59	5.76041182117196e-05\\
60	4.77531921213177e-05\\
61	7.87783596719342e-05\\
62	2.29639818158446e-05\\
63	7.67391536959357e-05\\
64	8.41630276520897e-05\\
65	4.22148388413678e-05\\
66	5.69196046134224e-05\\
67	8.35884925513459e-05\\
68	6.52870043845533e-05\\
69	3.90142692337742e-05\\
70	3.5661300849489e-05\\
71	4.03828584941377e-05\\
72	7.41932875311792e-05\\
73	2.32169306337039e-05\\
74	3.4370182680957e-05\\
75	7.23663079573464e-06\\
76	7.3827420414989e-05\\
77	8.47846621985453e-05\\
78	2.87775390799981e-05\\
79	8.69316737558543e-05\\
80	8.93126247478276e-05\\
81	1.28765818983398e-05\\
82	2.08554884646101e-05\\
83	6.59202155372382e-05\\
84	2.35325831266762e-05\\
85	3.61372379422175e-05\\
86	4.89993440438431e-05\\
87	9.25331096717226e-06\\
88	1.67704008685978e-05\\
89	3.06358662438895e-05\\
90	4.7379262405674e-05\\
91	4.81029515932154e-05\\
92	4.69516363926392e-05\\
93	7.20523031381953e-05\\
94	5.27475717460125e-05\\
95	5.89611557470132e-05\\
96	1.0991134442514e-05\\
97	5.27952427797517e-05\\
98	5.94027163243582e-05\\
99	3.52468193469782e-05\\
};
\addlegendentry{$\mathbf{\hat{h}_{2}}$}

\end{axis}
\end{tikzpicture}%