% This file was created by matlab2tikz.
%
%The latest updates can be retrieved from
%  http://www.mathworks.com/matlabcentral/fileexchange/22022-matlab2tikz-matlab2tikz
%where you can also make suggestions and rate matlab2tikz.
%
\definecolor{mycolor1}{rgb}{0.00000,0.44700,0.74100}%
\definecolor{mycolor2}{rgb}{0.85000,0.32500,0.09800}%
%
\begin{tikzpicture}

\begin{axis}[%
width=1.935in,
height=3.2in,
at={(0.758in,0.512in)},
scale only axis,
xmin=0,
xmax=100,
xlabel style={font=\color{white!15!black}, align=center},
xlabel={Sample Index\\[1ex](a) Actual},
ymin=0,
ymax=1,
axis background/.style={fill=white},
legend style={legend cell align=left, align=left, draw=white!15!black}
]
\addplot [color=mycolor1]
  table[row sep=crcr]{%
1	0.0216926152020066\\
2	0.0241183965289278\\
3	0.0267807478156139\\
4	0.0354280601095614\\
5	0.221828667704926\\
6	0.648965745595675\\
7	0.241270440438586\\
8	0.0776642628644082\\
9	0.0581044824071981\\
10	0.0611489366831747\\
11	0.0798140419847986\\
12	0.062735544320507\\
13	0.113011040425493\\
14	0.377485382687519\\
15	0.331649248845691\\
16	0.18615433793772\\
17	0.146493252817741\\
18	0.0847190801249442\\
19	0.0628278567269286\\
20	0.0148364296169451\\
21	0.0250471739922352\\
22	0.0344835915107885\\
23	0.116323790948646\\
24	0.279210940275387\\
25	0.101045410677318\\
26	0.0464379665429307\\
27	0.041398863205924\\
28	0.0263226969199998\\
29	0.0221848789960478\\
30	0.0197642774213948\\
31	0.0186496517239344\\
32	0.0219339353832985\\
33	0.018414044189717\\
34	0.00937919788338426\\
35	0.0100670783096178\\
36	0.0098135024549665\\
37	0.00937197330245933\\
38	0.00884810306396591\\
39	0.00821513429074651\\
40	0.00732026654240377\\
41	0.00945021173361951\\
42	0.0127255218727005\\
43	0.00946415089832864\\
44	0.00862800399957479\\
45	0.00816256372793386\\
46	0.00784857678072338\\
47	0.00764005346579914\\
48	0.00755773656417068\\
49	0.00776075567554332\\
50	0.00986938420958768\\
51	0.00319649311885596\\
52	0.00500292172051245\\
53	0.00524752973649041\\
54	0.00526667690567613\\
55	0.00521575322380608\\
56	0.00513704586881206\\
57	0.00504647235310817\\
58	0.00495116794332671\\
59	0.00485468351773321\\
60	0.00475890010347922\\
61	0.00466484578572566\\
62	0.00457308311118313\\
63	0.00448390798586452\\
64	0.0043974582605137\\
65	0.00431377595094964\\
66	0.00423284428954661\\
67	0.00415461047403326\\
68	0.00407899997367922\\
69	0.00400592569101114\\
70	0.00393529390404367\\
71	0.0038670081481966\\
72	0.00380097175500134\\
73	0.00373708950172093\\
74	0.00367526866536834\\
75	0.00361541967416126\\
76	0.00355745648532918\\
77	0.00350129677649243\\
78	0.00344686201027152\\
79	0.00339407741330312\\
80	0.00334287189828014\\
81	0.0032931779490063\\
82	0.00324493148246751\\
83	0.00319807169773062\\
84	0.003152540918526\\
85	0.00310828443427485\\
86	0.00306525034282854\\
87	0.00302338939712195\\
88	0.00298265485717807\\
89	0.00294300234835571\\
90	0.00290438972634362\\
91	0.0028667769491261\\
92	0.00283012595595264\\
93	0.0027944005532083\\
94	0.00275956630699144\\
95	0.0027255904421446\\
96	0.00269244174744817\\
97	0.00266009048666622\\
98	0.00262850831512411\\
99	0\\
100	0\\
};
\addlegendentry{$\mathbf{h_1}$}

\addplot [color=mycolor2]
  table[row sep=crcr]{%
1	0.00108294891904515\\
2	0.00115806441999571\\
3	0.00125656841390277\\
4	0.00139359850086552\\
5	0.00159676508941691\\
6	0.00191784013184518\\
7	0.00245777585368985\\
8	0.00342819163679349\\
9	0.00533730915065768\\
10	0.00974214709050295\\
11	0.0244449264542886\\
12	0.973731186814765\\
13	0.0500739614470277\\
14	0.0426946282907342\\
15	0.00536788790071817\\
16	0.0362080823589407\\
17	0.176144271962331\\
18	0.115663212635922\\
19	0.0234963057121139\\
20	0.0138738178597906\\
21	0.00966054585381422\\
22	0.00731818549393035\\
23	0.00584139575065055\\
24	0.0048330083027894\\
25	0.00410500747522503\\
26	0.00355723928842746\\
27	0.00313167065616096\\
28	0.00279247304593218\\
29	0.00251639833876938\\
30	0.00228774297450139\\
31	0.00209554142652578\\
32	0.00193191967393617\\
33	0.00179108704155738\\
34	0.00166869616651274\\
35	0\\
36	0\\
37	0\\
38	0\\
39	0\\
40	0\\
41	0\\
42	0\\
43	0\\
44	0\\
45	0\\
46	0\\
47	0\\
48	0\\
49	0\\
50	0\\
51	0\\
52	0\\
53	0\\
54	0\\
55	0\\
56	0\\
57	0\\
58	0\\
59	0\\
60	0\\
61	0\\
62	0\\
63	0\\
64	0\\
65	0\\
66	0\\
67	0\\
68	0\\
69	0\\
70	0\\
71	0\\
72	0\\
73	0\\
74	0\\
75	0\\
76	0\\
77	0\\
78	0\\
79	0\\
80	0\\
81	0\\
82	0\\
83	0\\
84	0\\
85	0\\
86	0\\
87	0\\
88	0\\
89	0\\
90	0\\
91	0\\
92	0\\
93	0\\
94	0\\
95	0\\
96	0\\
97	0\\
98	0\\
99	0\\
100	0\\
};
\addlegendentry{$\mathbf{h_{2}}$}

\end{axis}

\begin{axis}[%
width=1.935in,
height=3.2in,
at={(3.327in,0.512in)},
scale only axis,
xmin=0,
xmax=109,
xlabel style={font=\color{white!15!black}, align=center},
xlabel={Sample Index\\[1ex](b) Estimated},
ymin=0,
ymax=0.35,
axis background/.style={fill=white},
legend style={legend cell align=left, align=left, draw=white!15!black}
]
\addplot [color=mycolor1]
  table[row sep=crcr]{%
0	0.00554481254513048\\
1	0.0118634257563634\\
2	0.0186202882445207\\
3	0.0257120373784736\\
4	0.0676411444394712\\
5	0.223391806779222\\
6	0.182227458009949\\
7	0.170970431586034\\
8	0.149423637674016\\
9	0.19815152507871\\
10	0.217786489045925\\
11	0.221468373635635\\
12	0.250693332952978\\
13	0.297016328407907\\
14	0.268027778545626\\
15	0.217363180656995\\
16	0.212273012330215\\
17	0.1844543447814\\
18	0.212643177688962\\
19	0.186144341644736\\
20	0.148143315599212\\
21	0.120568601095048\\
22	0.122569898966213\\
23	0.144772308988312\\
24	0.156411014165837\\
25	0.177450040987802\\
26	0.229016800583966\\
27	0.149974460408717\\
28	0.104165772812777\\
29	0.0667573918027825\\
30	0.0597940517548883\\
31	0.0455485226917627\\
32	0.0557581423850663\\
33	0.0586506277783229\\
34	0.0596727135611964\\
35	0.0436373672544825\\
36	0.107885248575069\\
37	0.0804953665530907\\
38	0.0656783337115717\\
39	0.0590026427305489\\
40	0.0496128980730703\\
41	0.0470122597844858\\
42	0.0443558436510707\\
43	0.0424930162604913\\
44	0.0374071209890088\\
45	0.03263924598653\\
46	0.0359482927343221\\
47	0.0350711519109817\\
48	0.0330649804940135\\
49	0.0321697658087354\\
50	0.0310280281549185\\
51	0.0311667695840962\\
52	0.0304547999190424\\
53	0.0304213578241088\\
54	0.0277384629667198\\
55	0.0262276886226005\\
56	0.0252375937063742\\
57	0.0241686798465056\\
58	0.0234985206807689\\
59	0.0227523750747326\\
60	0.0217306243887662\\
61	0.0204443744389411\\
62	0.0187010486173274\\
63	0.019231081087236\\
64	0.0190121643849017\\
65	0.0185909749692809\\
66	0.0183285992195774\\
67	0.0180628692880811\\
68	0.017677856640309\\
69	0.0172915146324887\\
70	0.0169845431597428\\
71	0.0167269398524637\\
72	0.0163395764738569\\
73	0.0160328373136086\\
74	0.0157953798251352\\
75	0.0154735796915891\\
76	0.0152145439387025\\
77	0.0149213034295081\\
78	0.0146855476592537\\
79	0.014446975155946\\
80	0.01421722036995\\
81	0.0139802809790778\\
82	0.013734685690994\\
83	0.013525212542178\\
84	0.0133192424754164\\
85	0.0131046075693819\\
86	0.012928133023607\\
87	0.0127558374388941\\
88	0.0125796264851267\\
89	0.0123845812964409\\
90	0.0121993568603824\\
91	0.0120551947377881\\
92	0.0118743894024385\\
93	0.0116816531193496\\
94	0.0115357612721452\\
95	0.0113948534281279\\
96	0.0112688416590661\\
97	0.0111185494975075\\
98	0.0102896058561004\\
99	0.00950764602226876\\
100	0.00871376098253078\\
101	0.00795315010116583\\
102	0.00707890490774693\\
103	0.00611662328322116\\
104	0.00529188686752807\\
105	0.00441331910375964\\
106	0.00366054776432441\\
107	0.00287921923155025\\
108	0.00198320386523438\\
109	0.000986984008401677\\
};
\addlegendentry{$\mathbf{\hat{h}_{1}}$}

\addplot [color=mycolor2]
  table[row sep=crcr]{%
0	0.000283386707485859\\
1	0.00060067885342098\\
2	0.000930018861769887\\
3	0.00124291369840448\\
4	0.00165674569537583\\
5	0.0021754411199173\\
6	0.00269861687408527\\
7	0.00380423321393948\\
8	0.00502765678481166\\
9	0.007003517932946\\
10	0.0133526954355292\\
11	0.266285686127686\\
12	0.261511054105123\\
13	0.249326740284705\\
14	0.270819805426998\\
15	0.27453356641057\\
16	0.280928077817637\\
17	0.259102857642837\\
18	0.265057039936556\\
19	0.218541195768685\\
20	0.248159770651714\\
21	0.300749512703139\\
22	0.34739542410467\\
23	0.317081363655628\\
24	0.0454778609945945\\
25	0.0333653635527552\\
26	0.0309782935022402\\
27	0.0286448018377262\\
28	0.00395971439615001\\
29	0.0702287509352181\\
30	0.0292408581631841\\
31	0.0202543334766224\\
32	0.0161113167278441\\
33	0.0174227516823767\\
34	0.0127175224610423\\
35	0.00902761894565303\\
36	0.00872025624071124\\
37	0.00714109769292794\\
38	0.00623149013431249\\
39	0.00522156030277878\\
40	0.00407564868382502\\
41	0.00305678369735604\\
42	0.0029539857518996\\
43	0.00209337879964457\\
44	0.00119993235606328\\
45	0.000645720605232686\\
46	7.09001020245239e-05\\
47	8.68517729958938e-05\\
48	2.16234794657007e-05\\
49	0.000233879062429276\\
50	8.93719817144398e-05\\
51	6.95230681766376e-05\\
52	0.000136932454323612\\
53	7.90435462930816e-05\\
54	2.20961977464546e-05\\
55	7.29626780117408e-05\\
56	1.56862019394553e-05\\
57	5.43078300471193e-05\\
58	9.44161413745299e-06\\
59	8.23887611954606e-05\\
60	1.50956324416608e-05\\
61	6.88634032251494e-05\\
62	6.05909316512035e-05\\
63	8.07137392571285e-06\\
64	1.78140408017432e-05\\
65	1.52977414213869e-05\\
66	9.99537854550863e-06\\
67	3.10617022594339e-05\\
68	3.85416092030172e-05\\
69	3.02079647753079e-05\\
70	1.55210670043996e-05\\
71	2.04591123610847e-05\\
72	8.73918294226016e-06\\
73	3.82926252650577e-05\\
74	2.98468921938493e-05\\
75	4.59080237417361e-06\\
76	1.46068632589873e-05\\
77	5.77153689952701e-06\\
78	9.71159002224907e-06\\
79	1.54243927253016e-05\\
80	1.586655900958e-05\\
81	2.01675647156273e-05\\
82	1.95627050968838e-05\\
83	6.46941528192001e-06\\
84	2.71828924191448e-05\\
85	3.3801151468761e-05\\
86	1.82740393532578e-05\\
87	4.18650909844186e-06\\
88	8.60792882032504e-06\\
89	5.31713966233019e-07\\
90	2.03692620020521e-05\\
91	3.51188108611487e-05\\
92	1.37804640780493e-05\\
93	1.82461971940197e-05\\
94	2.81428215529511e-05\\
95	7.9483225816906e-06\\
96	1.36271244679567e-05\\
97	3.52633765352637e-05\\
98	2.10618047063214e-05\\
99	1.45263418495129e-05\\
100	2.95800873552363e-05\\
101	1.56611581958021e-05\\
102	1.61595560355582e-05\\
103	3.05427903501223e-05\\
104	9.78273513796071e-06\\
105	1.70493936159874e-05\\
106	1.22376706837859e-06\\
107	2.99602548889672e-05\\
108	1.37784368104606e-05\\
109	3.52781456558789e-05\\
};
\addlegendentry{$\mathbf{\hat{h}_{2}}$}

\end{axis}
\end{tikzpicture}%