% This file was created by matlab2tikz.
%
%The latest updates can be retrieved from
%  http://www.mathworks.com/matlabcentral/fileexchange/22022-matlab2tikz-matlab2tikz
%where you can also make suggestions and rate matlab2tikz.
%
\definecolor{mycolor1}{rgb}{0.00000,0.44700,0.74100}%
\definecolor{mycolor2}{rgb}{0.85000,0.32500,0.09800}%
%
\begin{tikzpicture}

\begin{axis}[%
width=1.935in,
height=3.2in,
at={(0.758in,0.512in)},
scale only axis,
xmin=0,
xmax=100,
xlabel style={font=\color{white!15!black}, align=center},
xlabel={Sample Index\\[1ex](a) Actual},
ymin=0,
ymax=1,
axis background/.style={fill=white},
legend style={legend cell align=left, align=left, draw=white!15!black}
]
\addplot [color=mycolor1]
  table[row sep=crcr]{%
1	0.0216926152020066\\
2	0.0241183965289278\\
3	0.0267807478156139\\
4	0.0354280601095614\\
5	0.221828667704926\\
6	0.648965745595675\\
7	0.241270440438586\\
8	0.0776642628644082\\
9	0.0581044824071981\\
10	0.0611489366831747\\
11	0.0798140419847986\\
12	0.062735544320507\\
13	0.113011040425493\\
14	0.377485382687519\\
15	0.331649248845691\\
16	0.18615433793772\\
17	0.146493252817741\\
18	0.0847190801249442\\
19	0.0628278567269286\\
20	0.0148364296169451\\
21	0.0250471739922352\\
22	0.0344835915107885\\
23	0.116323790948646\\
24	0.279210940275387\\
25	0.101045410677318\\
26	0.0464379665429307\\
27	0.041398863205924\\
28	0.0263226969199998\\
29	0.0221848789960478\\
30	0.0197642774213948\\
31	0.0186496517239344\\
32	0.0219339353832985\\
33	0.018414044189717\\
34	0.00937919788338426\\
35	0.0100670783096178\\
36	0.0098135024549665\\
37	0.00937197330245933\\
38	0.00884810306396591\\
39	0.00821513429074651\\
40	0.00732026654240377\\
41	0.00945021173361951\\
42	0.0127255218727005\\
43	0.00946415089832864\\
44	0.00862800399957479\\
45	0.00816256372793386\\
46	0.00784857678072338\\
47	0.00764005346579914\\
48	0.00755773656417068\\
49	0.00776075567554332\\
50	0.00986938420958768\\
51	0.00319649311885596\\
52	0.00500292172051245\\
53	0.00524752973649041\\
54	0.00526667690567613\\
55	0.00521575322380608\\
56	0.00513704586881206\\
57	0.00504647235310817\\
58	0.00495116794332671\\
59	0.00485468351773321\\
60	0.00475890010347922\\
61	0.00466484578572566\\
62	0.00457308311118313\\
63	0.00448390798586452\\
64	0.0043974582605137\\
65	0.00431377595094964\\
66	0.00423284428954661\\
67	0.00415461047403326\\
68	0.00407899997367922\\
69	0.00400592569101114\\
70	0.00393529390404367\\
71	0.0038670081481966\\
72	0.00380097175500134\\
73	0.00373708950172093\\
74	0.00367526866536834\\
75	0.00361541967416126\\
76	0.00355745648532918\\
77	0.00350129677649243\\
78	0.00344686201027152\\
79	0.00339407741330312\\
80	0.00334287189828014\\
81	0.0032931779490063\\
82	0.00324493148246751\\
83	0.00319807169773062\\
84	0.003152540918526\\
85	0.00310828443427485\\
86	0.00306525034282854\\
87	0.00302338939712195\\
88	0.00298265485717807\\
89	0.00294300234835571\\
90	0.00290438972634362\\
91	0.0028667769491261\\
92	0.00283012595595264\\
93	0.0027944005532083\\
94	0.00275956630699144\\
95	0.0027255904421446\\
96	0.00269244174744817\\
97	0.00266009048666622\\
98	0.00262850831512411\\
99	0\\
100	0\\
};
\addlegendentry{$\mathbf{h_1}$}

\addplot [color=mycolor2]
  table[row sep=crcr]{%
1	0.00108294891904515\\
2	0.00115806441999571\\
3	0.00125656841390277\\
4	0.00139359850086552\\
5	0.00159676508941691\\
6	0.00191784013184518\\
7	0.00245777585368985\\
8	0.00342819163679349\\
9	0.00533730915065768\\
10	0.00974214709050295\\
11	0.0244449264542886\\
12	0.973731186814765\\
13	0.0500739614470277\\
14	0.0426946282907342\\
15	0.00536788790071817\\
16	0.0362080823589407\\
17	0.176144271962331\\
18	0.115663212635922\\
19	0.0234963057121139\\
20	0.0138738178597906\\
21	0.00966054585381422\\
22	0.00731818549393035\\
23	0.00584139575065055\\
24	0.0048330083027894\\
25	0.00410500747522503\\
26	0.00355723928842746\\
27	0.00313167065616096\\
28	0.00279247304593218\\
29	0.00251639833876938\\
30	0.00228774297450139\\
31	0.00209554142652578\\
32	0.00193191967393617\\
33	0.00179108704155738\\
34	0.00166869616651274\\
35	0\\
36	0\\
37	0\\
38	0\\
39	0\\
40	0\\
41	0\\
42	0\\
43	0\\
44	0\\
45	0\\
46	0\\
47	0\\
48	0\\
49	0\\
50	0\\
51	0\\
52	0\\
53	0\\
54	0\\
55	0\\
56	0\\
57	0\\
58	0\\
59	0\\
60	0\\
61	0\\
62	0\\
63	0\\
64	0\\
65	0\\
66	0\\
67	0\\
68	0\\
69	0\\
70	0\\
71	0\\
72	0\\
73	0\\
74	0\\
75	0\\
76	0\\
77	0\\
78	0\\
79	0\\
80	0\\
81	0\\
82	0\\
83	0\\
84	0\\
85	0\\
86	0\\
87	0\\
88	0\\
89	0\\
90	0\\
91	0\\
92	0\\
93	0\\
94	0\\
95	0\\
96	0\\
97	0\\
98	0\\
99	0\\
100	0\\
};
\addlegendentry{$\mathbf{h_{2}}$}

\end{axis}

\begin{axis}[%
width=1.935in,
height=3.2in,
at={(3.327in,0.512in)},
scale only axis,
xmin=0,
xmax=100,
xlabel style={font=\color{white!15!black}, align=center},
xlabel={Sample Index\\[1ex](b) Estimated},
ymin=0,
ymax=0.9,
axis background/.style={fill=white},
legend style={legend cell align=left, align=left, draw=white!15!black}
]
\addplot [color=mycolor1]
  table[row sep=crcr]{%
0	0.129111973099411\\
1	0.0530275374870485\\
2	0.0469610132653157\\
3	0.0200410954256132\\
4	0.0351930480657756\\
5	0.0304916791798522\\
6	0.186089131385753\\
7	0.640880065025377\\
8	0.164747084895321\\
9	0.106081705704609\\
10	0.0947909706363801\\
11	0.0873076086396338\\
12	0.0884320472787165\\
13	0.082422028039099\\
14	0.128668943847695\\
15	0.259285598112084\\
16	0.274312938170156\\
17	0.0699464534130896\\
18	0.125346219114022\\
19	0.0410159492372762\\
20	0.101230931783075\\
21	0.0334548369991388\\
22	0.0701788352314221\\
23	0.146800387651152\\
24	0.107850888449429\\
25	0.201802901175714\\
26	0.114917102349288\\
27	0.0211073380507601\\
28	0.0581237705335737\\
29	0.0562715368673956\\
30	0.0712046368551695\\
31	0.0288850223081204\\
32	0.0395661555341398\\
33	0.159956236326258\\
34	0.0143110874898545\\
35	0.0986022114055142\\
36	0.0198435986144666\\
37	0.0457839428491934\\
38	0.0435703463086991\\
39	0.0596641627905826\\
40	0.0150449916764314\\
41	0.0280533620847058\\
42	0.0528502883037385\\
43	0.0432479613307078\\
44	0.033035021928061\\
45	0.0301698568611902\\
46	0.0564517623474276\\
47	0.0631572036639143\\
48	0.0608707707811421\\
49	0.0236125348665773\\
50	0.0756269112971284\\
51	0.033293879484156\\
52	0.0275396399345034\\
53	0.11342296441514\\
54	0.0321562525204473\\
55	0.0758503817461198\\
56	0.0370955866257339\\
57	0.0602041689543969\\
58	0.0039030086449605\\
59	0.050217687868668\\
60	0.0591536818030886\\
61	0.0736804003663623\\
62	0.0314646932841466\\
63	0.0154711186249807\\
64	0.0755342651885297\\
65	0.0468724022381288\\
66	0.0370539524231267\\
67	0.103286543499835\\
68	0.022160196460224\\
69	0.0592496182752291\\
70	0.0110176749716592\\
71	0.0395547649000648\\
72	0.047209478853744\\
73	0.0465376689152964\\
74	0.0226963760107877\\
75	0.0528470441421987\\
76	0.0376216812173533\\
77	0.0502081028152352\\
78	0.0286095399688604\\
79	0.0280334409840368\\
80	0.0269745838447449\\
81	0.0514475189387137\\
82	0.0430094261911673\\
83	0.0157607001848576\\
84	0.00886829222603787\\
85	0.0486207037831063\\
86	0.00570750006819608\\
87	0.0198889694375424\\
88	0.0181625559367503\\
89	0.0587555949646464\\
90	0.0238523195911462\\
91	0.0283897025830707\\
92	0.0175899646468987\\
93	0.0239466659323454\\
94	0.00991560751598605\\
95	0.00792124834753447\\
96	0.0127964230285436\\
97	0.00706298031583515\\
98	0.0063346023046749\\
99	0.0200614665259587\\
};
\addlegendentry{$\mathbf{\hat{h}_{1}}$}

\addplot [color=mycolor2]
  table[row sep=crcr]{%
0	0.00221908401982346\\
1	0.00266711224468482\\
2	0.00598354575770285\\
3	0.0065564229168989\\
4	0.0211680216416891\\
5	0.0453248598378162\\
6	0.158504670454576\\
7	0.00869127371845406\\
8	0.0497301207348968\\
9	0.021138003173813\\
10	0.0121092292297109\\
11	0.0260402964245745\\
12	0.0483750588978503\\
13	0.83609500330088\\
14	0.0681255943902622\\
15	0.0289118969922973\\
16	0.0148938045807162\\
17	0.00212827356344721\\
18	0.0293327280783141\\
19	0.0385940615357648\\
20	0.135113291994055\\
21	0.186631760411176\\
22	0.0324136343533116\\
23	0.0795472254593317\\
24	0.0761468936760457\\
25	0.0868320010985777\\
26	0.0637250521910717\\
27	0.0884707965246569\\
28	0.0353517315125642\\
29	0.044020089800885\\
30	0.0264794718866702\\
31	0.0995015441645522\\
32	0.0751286849789238\\
33	0.0876650330878516\\
34	0.0363454976547646\\
35	0.0370135509295744\\
36	0.057612145696451\\
37	0.0344551396390741\\
38	0.0306701273160792\\
39	0.0198825045297859\\
40	0.0555665727260738\\
41	0.0667463572814877\\
42	0.0559173583895579\\
43	0.103134917829845\\
44	0.0162989427181853\\
45	0.0749626702818441\\
46	0.0458789689033612\\
47	0.0174209556786602\\
48	0.0537456343138033\\
49	0.0143253744905453\\
50	0.0837432901533021\\
51	0.0821573167633071\\
52	0.0623814642149439\\
53	0.0468639518425904\\
54	0.0365061432203137\\
55	0.0394390745651921\\
56	0.0698518764891543\\
57	0.0735514976613871\\
58	0.0399278292211466\\
59	0.0537500466677416\\
60	0.0716649377613221\\
61	0.00807051284332185\\
62	0.0245180178621612\\
63	0.00894890822648518\\
64	0.0536187622190289\\
65	0.0450073257596009\\
66	0.0728158102516401\\
67	0.0525236378803715\\
68	0.0525824264133751\\
69	0.0685573019939535\\
70	0.0460962209724153\\
71	0.0541644580514147\\
72	0.0429345112410678\\
73	0.113883167593843\\
74	0.0218745789286764\\
75	0.0273356257543157\\
76	0.0443549045136607\\
77	0.0175237585615971\\
78	0.0720819934460968\\
79	0.0774715200413818\\
80	0.0287477078899512\\
81	0.0358871560676218\\
82	0.0126072768593836\\
83	0.0172093744637485\\
84	0.0241256516950774\\
85	0.0142711101372057\\
86	0.0347964952906377\\
87	0.0386360416036644\\
88	0.0106250921435147\\
89	2.63796208164307e-05\\
90	0.00850019656301957\\
91	0.00508944897756804\\
92	0.0139024484382073\\
93	0.0010927644852272\\
94	0.00298374270823904\\
95	0.00911133833340604\\
96	0.00348931302670716\\
97	0.00248325476103782\\
98	0.00342814088989745\\
99	0.00154530907666771\\
};
\addlegendentry{$\mathbf{\hat{h}_{2}}$}

\end{axis}
\end{tikzpicture}%