% This file was created by matlab2tikz.
%
%The latest updates can be retrieved from
%  http://www.mathworks.com/matlabcentral/fileexchange/22022-matlab2tikz-matlab2tikz
%where you can also make suggestions and rate matlab2tikz.
%
\definecolor{mycolor1}{rgb}{0.00000,0.44700,0.74100}%
\definecolor{mycolor2}{rgb}{0.85000,0.32500,0.09800}%
%
\begin{tikzpicture}

\begin{axis}[%
width=1.935in,
height=3.2in,
at={(0.758in,0.512in)},
scale only axis,
xmin=0,
xmax=100,
xlabel style={font=\color{white!15!black}, align=center},
xlabel={Sample Index\\[1ex](a) Actual},
ymin=0,
ymax=1,
axis background/.style={fill=white},
legend style={legend cell align=left, align=left, draw=white!15!black}
]
\addplot [color=mycolor1]
  table[row sep=crcr]{%
1	0.0216926152020066\\
2	0.0241183965289278\\
3	0.0267807478156139\\
4	0.0354280601095614\\
5	0.221828667704926\\
6	0.648965745595675\\
7	0.241270440438586\\
8	0.0776642628644082\\
9	0.0581044824071981\\
10	0.0611489366831747\\
11	0.0798140419847986\\
12	0.062735544320507\\
13	0.113011040425493\\
14	0.377485382687519\\
15	0.331649248845691\\
16	0.18615433793772\\
17	0.146493252817741\\
18	0.0847190801249442\\
19	0.0628278567269286\\
20	0.0148364296169451\\
21	0.0250471739922352\\
22	0.0344835915107885\\
23	0.116323790948646\\
24	0.279210940275387\\
25	0.101045410677318\\
26	0.0464379665429307\\
27	0.041398863205924\\
28	0.0263226969199998\\
29	0.0221848789960478\\
30	0.0197642774213948\\
31	0.0186496517239344\\
32	0.0219339353832985\\
33	0.018414044189717\\
34	0.00937919788338426\\
35	0.0100670783096178\\
36	0.0098135024549665\\
37	0.00937197330245933\\
38	0.00884810306396591\\
39	0.00821513429074651\\
40	0.00732026654240377\\
41	0.00945021173361951\\
42	0.0127255218727005\\
43	0.00946415089832864\\
44	0.00862800399957479\\
45	0.00816256372793386\\
46	0.00784857678072338\\
47	0.00764005346579914\\
48	0.00755773656417068\\
49	0.00776075567554332\\
50	0.00986938420958768\\
51	0.00319649311885596\\
52	0.00500292172051245\\
53	0.00524752973649041\\
54	0.00526667690567613\\
55	0.00521575322380608\\
56	0.00513704586881206\\
57	0.00504647235310817\\
58	0.00495116794332671\\
59	0.00485468351773321\\
60	0.00475890010347922\\
61	0.00466484578572566\\
62	0.00457308311118313\\
63	0.00448390798586452\\
64	0.0043974582605137\\
65	0.00431377595094964\\
66	0.00423284428954661\\
67	0.00415461047403326\\
68	0.00407899997367922\\
69	0.00400592569101114\\
70	0.00393529390404367\\
71	0.0038670081481966\\
72	0.00380097175500134\\
73	0.00373708950172093\\
74	0.00367526866536834\\
75	0.00361541967416126\\
76	0.00355745648532918\\
77	0.00350129677649243\\
78	0.00344686201027152\\
79	0.00339407741330312\\
80	0.00334287189828014\\
81	0.0032931779490063\\
82	0.00324493148246751\\
83	0.00319807169773062\\
84	0.003152540918526\\
85	0.00310828443427485\\
86	0.00306525034282854\\
87	0.00302338939712195\\
88	0.00298265485717807\\
89	0.00294300234835571\\
90	0.00290438972634362\\
91	0.0028667769491261\\
92	0.00283012595595264\\
93	0.0027944005532083\\
94	0.00275956630699144\\
95	0.0027255904421446\\
96	0.00269244174744817\\
97	0.00266009048666622\\
98	0.00262850831512411\\
99	0\\
100	0\\
};
\addlegendentry{$\mathbf{h_1}$}

\addplot [color=mycolor2]
  table[row sep=crcr]{%
1	0.00108294891904515\\
2	0.00115806441999571\\
3	0.00125656841390277\\
4	0.00139359850086552\\
5	0.00159676508941691\\
6	0.00191784013184518\\
7	0.00245777585368985\\
8	0.00342819163679349\\
9	0.00533730915065768\\
10	0.00974214709050295\\
11	0.0244449264542886\\
12	0.973731186814765\\
13	0.0500739614470277\\
14	0.0426946282907342\\
15	0.00536788790071817\\
16	0.0362080823589407\\
17	0.176144271962331\\
18	0.115663212635922\\
19	0.0234963057121139\\
20	0.0138738178597906\\
21	0.00966054585381422\\
22	0.00731818549393035\\
23	0.00584139575065055\\
24	0.0048330083027894\\
25	0.00410500747522503\\
26	0.00355723928842746\\
27	0.00313167065616096\\
28	0.00279247304593218\\
29	0.00251639833876938\\
30	0.00228774297450139\\
31	0.00209554142652578\\
32	0.00193191967393617\\
33	0.00179108704155738\\
34	0.00166869616651274\\
35	0\\
36	0\\
37	0\\
38	0\\
39	0\\
40	0\\
41	0\\
42	0\\
43	0\\
44	0\\
45	0\\
46	0\\
47	0\\
48	0\\
49	0\\
50	0\\
51	0\\
52	0\\
53	0\\
54	0\\
55	0\\
56	0\\
57	0\\
58	0\\
59	0\\
60	0\\
61	0\\
62	0\\
63	0\\
64	0\\
65	0\\
66	0\\
67	0\\
68	0\\
69	0\\
70	0\\
71	0\\
72	0\\
73	0\\
74	0\\
75	0\\
76	0\\
77	0\\
78	0\\
79	0\\
80	0\\
81	0\\
82	0\\
83	0\\
84	0\\
85	0\\
86	0\\
87	0\\
88	0\\
89	0\\
90	0\\
91	0\\
92	0\\
93	0\\
94	0\\
95	0\\
96	0\\
97	0\\
98	0\\
99	0\\
100	0\\
};
\addlegendentry{$\mathbf{h_{2}}$}

\end{axis}

\begin{axis}[%
width=1.935in,
height=3.2in,
at={(3.327in,0.512in)},
scale only axis,
xmin=0,
xmax=100,
xlabel style={font=\color{white!15!black}, align=center},
xlabel={Sample Index\\[1ex](b) Estimated},
ymin=0,
ymax=0.8,
axis background/.style={fill=white},
legend style={legend cell align=left, align=left, draw=white!15!black}
]
\addplot [color=mycolor1]
  table[row sep=crcr]{%
0	0.0322166291391425\\
1	0.0927847027920573\\
2	0.0520568313095515\\
3	0.138742533218079\\
4	0.168589294031396\\
5	0.514908264898203\\
6	0.385900214090608\\
7	0.125735753246517\\
8	0.189542528284794\\
9	0.0178822125482769\\
10	0.145659168638129\\
11	0.228492124787474\\
12	0.236918252745329\\
13	0.332697495812674\\
14	0.288787225484415\\
15	0.077234249405643\\
16	0.0650075075095182\\
17	0.053350494119704\\
18	0.0449243824326947\\
19	0.04719855982022\\
20	0.0491230984193372\\
21	0.142245484441874\\
22	0.179651623482782\\
23	0.210960678264925\\
24	0.150137138655294\\
25	0.0421002596013729\\
26	0.0565922905649238\\
27	0.0134729617233613\\
28	0.0423609648438097\\
29	0.0415684206178468\\
30	0.0180370918710202\\
31	0.0222931056684678\\
32	0.022250874554123\\
33	0.00657581411898101\\
34	0.0103560701727087\\
35	0.00693630792562433\\
36	0.0037520071452072\\
37	0.00635176206036241\\
38	0.00959220445367811\\
39	0.00920002988985232\\
40	0.0145266571043356\\
41	0.00612070354560079\\
42	0.0040827803042053\\
43	0.00299385041825008\\
44	0.00312573814947142\\
45	0.00456513394746774\\
46	0.00369927027793467\\
47	0.0044669014268936\\
48	0.00414535906243976\\
49	0.007419560403327\\
50	0.00609413268180386\\
51	0.00121102350808464\\
52	0.00342897155586524\\
53	0.000851898536220767\\
54	0.00175789635529921\\
55	0.00213123070725918\\
56	0.00219952497093545\\
57	0.0013228826127861\\
58	0.0016708930116256\\
59	0.00119082388914137\\
60	0.000793732364675193\\
61	0.000575559778372515\\
62	0.00253263564927877\\
63	0.0021564204860756\\
64	0.00105882428747825\\
65	0.00192799528918583\\
66	0.00277853156357913\\
67	0.00243985373722584\\
68	0.000551839276735803\\
69	0.00119585463870851\\
70	0.00160590784406549\\
71	0.00207512971034027\\
72	0.00120077995074055\\
73	0.00199887341040611\\
74	0.00149933442310106\\
75	0.00147535938580855\\
76	0.000553949921085989\\
77	0.000965840819314668\\
78	0.000652798986645807\\
79	0.00200763905277447\\
80	0.00178387024196871\\
81	0.000461221092785261\\
82	0.000566011884620847\\
83	0.000866451941740306\\
84	0.000476451129044815\\
85	0.000767344188467809\\
86	0.00104271719679486\\
87	0.00166648425936179\\
88	0.00208295274331406\\
89	0.000410920113151021\\
};
\addlegendentry{$\mathbf{\hat{h}_{1}}$}

\addplot [color=mycolor2]
  table[row sep=crcr]{%
0	0.0010056061828995\\
1	0.00237360009798375\\
2	0.00272566077415482\\
3	0.00516696390223902\\
4	0.00338611894901443\\
5	0.0256928685115253\\
6	0.0472545662671924\\
7	0.146043596154665\\
8	0.0435812682789693\\
9	0.334652078068116\\
10	0.413151004673202\\
11	0.715596176797019\\
12	0.334787441857922\\
13	0.129085193248914\\
14	0.179947013882979\\
15	0.104950001481671\\
16	0.035149560043361\\
17	0.0105869150052207\\
18	0.016229022126087\\
19	0.0410705566852672\\
20	0.0439763886701153\\
21	0.0227852773971829\\
22	0.00957506880827836\\
23	0.00236548080211582\\
24	0.00255403184277957\\
25	0.00407873914208781\\
26	0.00271571581907625\\
27	0.0104797064683179\\
28	0.0161354043204044\\
29	0.00727638449079524\\
30	0.00402169621328501\\
31	0.00459519669893429\\
32	0.00112824570961518\\
33	0.00616450465329325\\
34	0.00418088294982905\\
35	0.00428282177692989\\
36	0.00874251657770618\\
37	0.0144584559060485\\
38	0.00687324512843317\\
39	0.0024578934984656\\
40	0.00408409700182213\\
41	0.000736312120692954\\
42	0.00137543917834525\\
43	0.000211825179343281\\
44	0.000898316101998898\\
45	0.000881646559474413\\
46	0.000997166582584955\\
47	0.00195380980987296\\
48	0.00201793242777873\\
49	0.00125318929445065\\
50	0.00208015689373985\\
51	0.00256546952712087\\
52	0.00367730343949724\\
53	0.00226481431458204\\
54	0.00184708424882738\\
55	0.00164941747990861\\
56	0.0010648869465609\\
57	0.00130910146151691\\
58	0.00103294200249694\\
59	0.00239054732980922\\
60	0.00157925566029609\\
61	0.00199470479295701\\
62	0.00152229336680589\\
63	0.00125904081381702\\
64	0.00212508326578665\\
65	0.00184400668953371\\
66	0.000806999370073545\\
67	0.00218272557275973\\
68	0.00430870020210769\\
69	0.00222077825254804\\
70	0.00120683827712361\\
71	0.00181517094753317\\
72	0.00125635196406126\\
73	0.00202342268759683\\
74	0.00233893892595893\\
75	7.76286974697971e-05\\
76	0.00066451664306867\\
77	0.00114065356250203\\
78	0.000916161457612207\\
79	0.000206864969357955\\
80	0.000932195900721695\\
81	0.00132962569591171\\
82	0.000426258367241033\\
83	0.000869383803644225\\
84	0.00147323832035686\\
85	0.00396353464438651\\
86	0.00193887926538802\\
87	0.00062462483886799\\
88	0.000925791961029965\\
89	0.000504141678709649\\
};
\addlegendentry{$\mathbf{\hat{h}_{2}}$}

\end{axis}
\end{tikzpicture}%