% This file was created by matlab2tikz.
%
%The latest updates can be retrieved from
%  http://www.mathworks.com/matlabcentral/fileexchange/22022-matlab2tikz-matlab2tikz
%where you can also make suggestions and rate matlab2tikz.
%
\definecolor{mycolor1}{rgb}{0.00000,0.44700,0.74100}%
\definecolor{mycolor2}{rgb}{0.85000,0.32500,0.09800}%
%
\begin{tikzpicture}

\begin{axis}[%
width=1.935in,
height=3.2in,
at={(0.758in,0.512in)},
scale only axis,
xmin=0,
xmax=150,
xlabel style={font=\color{white!15!black}, align=center},
xlabel={Sample Index\\[1ex](a) Actual},
ymin=0,
ymax=0.7,
axis background/.style={fill=white},
legend style={legend cell align=left, align=left, draw=white!15!black}
]
\addplot [color=mycolor1]
  table[row sep=crcr]{%
1	0.0234657806037261\\
2	0.0272334504034075\\
3	0.0326864300765018\\
4	0.0414541482980318\\
5	0.0586677033458464\\
6	0.117843438362983\\
7	0.159969331461504\\
8	0.174397116945152\\
9	0.616552810702634\\
10	0.0882137642931462\\
11	0.0472681903124796\\
12	0.0327587509505929\\
13	0.0272256709659274\\
14	0.0412344622245766\\
15	0.0186762848129325\\
16	0.0451940046978057\\
17	0.0153724087875252\\
18	0.0239672675363248\\
19	0.0400285717874473\\
20	0.0828333966509162\\
21	0.557624977131952\\
22	0.149414784250917\\
23	0.109138078132702\\
24	0.0381681231028791\\
25	0.032799759178118\\
26	0.191519461959093\\
27	0.0734580287558902\\
28	0.0358315656953253\\
29	0.0179563195827385\\
30	0.0169149242156914\\
31	0.0179798517146348\\
32	0.0199431506445131\\
33	0.0279225394655299\\
34	0.0908594243819801\\
35	0.0439964246924232\\
36	0.330890477505262\\
37	0.037800506563543\\
38	0.020261933748638\\
39	0.0138181229977315\\
40	0.0211497159554441\\
41	0.0112042208144458\\
42	0.00964538908702694\\
43	0.00864780826327016\\
44	0.00787736374270682\\
45	0.00720180133294831\\
46	0.00651453200193765\\
47	0.00565492088107664\\
48	0.0112814316241706\\
49	0.0075966567083061\\
50	0.0102713040739602\\
51	0.00787142060243747\\
52	0.00711780022683946\\
53	0.00668443537322835\\
54	0.00638223966522588\\
55	0.00615487020840034\\
56	0.00598242225636516\\
57	0.00586293416152974\\
58	0.00581626175933958\\
59	0.00593494184987807\\
60	0.00707647204853056\\
61	0.00861312572402681\\
62	0.00240649054353041\\
63	0.0036902508247688\\
64	0.0040125763148678\\
65	0.00408542983582614\\
66	0.00408934467211144\\
67	0.00406760360864643\\
68	0.00403657730104579\\
69	0.00400486664899167\\
70	0.00397913876457006\\
71	0.00396763365360209\\
72	0.00398577860522856\\
73	0.00407460869510253\\
74	0.00440882178496405\\
75	0.00852319154542653\\
76	0.00211982859547221\\
77	0.00279674481878385\\
78	0.00295234209521732\\
79	0.00299967450324673\\
80	0.00300734384297471\\
81	0.00299658049652506\\
82	0.00297609501762909\\
83	0.00295010695632826\\
84	0.00292089738309008\\
85	0.00288979839106794\\
86	0.00285763293534116\\
87	0.00282493110979805\\
88	0.00279204510261472\\
89	0.00275921420187501\\
90	0.00272660345813555\\
91	0.00269432766245323\\
92	0.00266246675038502\\
93	0.00263107599882434\\
94	0.00260019295165966\\
95	0.00256984222925479\\
96	0.00254003893333548\\
97	0.0025107910982644\\
98	0.00248210148178531\\
99	0.00245396889001376\\
100	0.00242638916874131\\
101	0.00239935595223708\\
102	0.00237286123354156\\
103	0.00234689580183488\\
104	0.00232144957979209\\
105	0.00229651188498403\\
106	0.00227207163310714\\
107	0.0022481174963278\\
108	0.00222463802675857\\
109	0.00220162175268604\\
110	0.00217905725339276\\
111	0.0021569332170867\\
112	0.00213523848544673\\
113	0.00211396208753109\\
114	0.00209309326520902\\
115	0.00207262149182518\\
116	0.00205253648545491\\
117	0.00203282821783402\\
118	0.00201348691983224\\
119	0.00199450308416773\\
120	0.00197586746592614\\
121	0.00195757108133911\\
122	0.0019396052051902\\
123	0.0019219613671484\\
124	0.00190463134727109\\
125	0.00188760717087541\\
126	0.00187088110293773\\
127	0.00185444564215264\\
128	0.0018382935147574\\
129	0.00182241766820821\\
130	0.00180681126477794\\
131	0.00179146767513212\\
132	0.00177638047192757\\
133	0.00176154342347035\\
134	0.00174695048746156\\
135	0.0017325958048528\\
136	0.00171847369382931\\
137	0.00170457864393352\\
138	0.0016909053103386\\
139	0.00167744850827835\\
140	0.00166420320763913\\
141	0.00165116452771496\\
142	0.00163832773212761\\
143	0.00162568822391149\\
144	0.00161324154076111\\
145	0.0016009833504405\\
146	0.00158890944635072\\
147	0.00157701574325256\\
148	0.00156529827314105\\
149	0\\
150	0\\
};
\addlegendentry{$\mathbf{h_1}$}

\addplot [color=mycolor2]
  table[row sep=crcr]{%
1	0.019775303219206\\
2	0.0210217764534023\\
3	0.0224372323963497\\
4	0.024058742711813\\
5	0.0259351263737046\\
6	0.0281320174688059\\
7	0.0307398096072034\\
8	0.0338865833958781\\
9	0.0377600935275399\\
10	0.0426472101764649\\
11	0.0490094599986528\\
12	0.0576401827385178\\
13	0.0700288298559564\\
14	0.0893407156606893\\
15	0.123700774100431\\
16	0.202175033398071\\
17	0.564479813098353\\
18	0.690442426104836\\
19	0.212260509632627\\
20	0.126132345068284\\
21	0.100380135781766\\
22	0.0378663697499036\\
23	0.0333199748773482\\
24	0.0149453064107011\\
25	0.10083899339379\\
26	0.161002397050911\\
27	0.0405118251764787\\
28	0.0383644765554957\\
29	0.0341227495803863\\
30	0.0306469105251072\\
31	0.0278570926171954\\
32	0.0255709383506331\\
33	0.0236574529195357\\
34	0.0220274984760589\\
35	0.0206190941704396\\
36	0.0193877726649002\\
37	0.0183006807256663\\
38	0.0173329207549748\\
39	0.016465211935799\\
40	0.0156823459816501\\
41	0.0149721364414517\\
42	0.0143246843629073\\
43	0.0137318527665838\\
44	0.0131868826449622\\
45	0.0126841071808284\\
46	0.0122187355837443\\
47	0.0117866872087634\\
48	0.0113844626077037\\
49	0.0110090421200206\\
50	0.0106578052804057\\
51	0\\
52	0\\
53	0\\
54	0\\
55	0\\
56	0\\
57	0\\
58	0\\
59	0\\
60	0\\
61	0\\
62	0\\
63	0\\
64	0\\
65	0\\
66	0\\
67	0\\
68	0\\
69	0\\
70	0\\
71	0\\
72	0\\
73	0\\
74	0\\
75	0\\
76	0\\
77	0\\
78	0\\
79	0\\
80	0\\
81	0\\
82	0\\
83	0\\
84	0\\
85	0\\
86	0\\
87	0\\
88	0\\
89	0\\
90	0\\
91	0\\
92	0\\
93	0\\
94	0\\
95	0\\
96	0\\
97	0\\
98	0\\
99	0\\
100	0\\
101	0\\
102	0\\
103	0\\
104	0\\
105	0\\
106	0\\
107	0\\
108	0\\
109	0\\
110	0\\
111	0\\
112	0\\
113	0\\
114	0\\
115	0\\
116	0\\
117	0\\
118	0\\
119	0\\
120	0\\
121	0\\
122	0\\
123	0\\
124	0\\
125	0\\
126	0\\
127	0\\
128	0\\
129	0\\
130	0\\
131	0\\
132	0\\
133	0\\
134	0\\
135	0\\
136	0\\
137	0\\
138	0\\
139	0\\
140	0\\
141	0\\
142	0\\
143	0\\
144	0\\
145	0\\
146	0\\
147	0\\
148	0\\
149	0\\
150	0\\
};
\addlegendentry{$\mathbf{h_{2}}$}

\end{axis}

\begin{axis}[%
width=1.935in,
height=3.2in,
at={(3.327in,0.512in)},
scale only axis,
xmin=0,
xmax=300,
xlabel style={font=\color{white!15!black}, align=center},
xlabel={Sample Index\\[1ex](b) Estimated},
ymin=0,
ymax=0.15,
axis background/.style={fill=white},
legend style={legend cell align=left, align=left, draw=white!15!black}
]
\addplot [color=mycolor1]
  table[row sep=crcr]{%
0	0.0749344272382163\\
1	0.0118897028301449\\
2	0.0839282443884415\\
3	0.0330602113424552\\
4	0.0542985817732575\\
5	0.0549947774586869\\
6	0.0924280141516858\\
7	0.037256502404679\\
8	0.0784534867704113\\
9	0.036422254609413\\
10	0.042212621463056\\
11	0.0276139108315035\\
12	0.0474149710610049\\
13	0.0227380206577766\\
14	0.0182932720783516\\
15	0.0365243806906426\\
16	0.0769708647982011\\
17	0.0370187011859005\\
18	0.0701768274323713\\
19	0.0218967041360831\\
20	0.0135506387283001\\
21	0.041332910114306\\
22	0.0673145343407344\\
23	0.0508803446587969\\
24	0.0500938867525839\\
25	0.0540218197313005\\
26	0.0618872928270698\\
27	0.0130458368940044\\
28	0.0399457148588252\\
29	0.0416501157312074\\
30	0.0498060520469015\\
31	0.0334167388822243\\
32	0.0499655219634692\\
33	0.0437427519735048\\
34	0.023247719054804\\
35	0.0654968209964991\\
36	0.0293869593196475\\
37	0.0624457314320727\\
38	0.0496580497222362\\
39	0.0244590315388772\\
40	0.0770715108586403\\
41	0.0423479552782416\\
42	0.0368513322555397\\
43	0.0523136144591742\\
44	0.0404653606175638\\
45	0.0380436039546537\\
46	0.00652764642663096\\
47	0.0437451818925086\\
48	0.0548180457621158\\
49	0.0436146407808996\\
50	0.0307321380027773\\
51	0.019290419508237\\
52	0.0617814791737548\\
53	0.0380441338217979\\
54	0.0280282648500917\\
55	0.0308522392961142\\
56	0.0406266598341852\\
57	0.0600302315761165\\
58	0.0750711864237091\\
59	0.0539495924001185\\
60	0.0402435421762079\\
61	0.0351238838883093\\
62	0.0636280565320521\\
63	0.0460916434516182\\
64	0.0420752707503682\\
65	0.0417542518126627\\
66	0.0419314793587865\\
67	0.0645830236015562\\
68	0.0813968287078062\\
69	0.0553245211440533\\
70	0.0680872667568777\\
71	0.0273402736315878\\
72	0.0246297485562902\\
73	0.0980755780902358\\
74	0.079093418145901\\
75	0.0453390095671072\\
76	0.0140384984033141\\
77	0.0546867559993078\\
78	0.066341317841857\\
79	0.012112982524987\\
80	0.0503146365113985\\
81	0.0566735218994378\\
82	0.0798624534581\\
83	0.0419583688349507\\
84	0.0789626676345215\\
85	0.0286893110113837\\
86	0.0818308440477011\\
87	0.070628415559778\\
88	0.0684008467172516\\
89	0.0479109369708623\\
90	0.0450428527148736\\
91	0.10682305077674\\
92	0.0679303311149143\\
93	0.0535430022632143\\
94	0.0445223452211594\\
95	0.0585497049862121\\
96	0.0376757076389542\\
97	0.0359529286238731\\
98	0.057735769898151\\
99	0.0470227716420096\\
100	0.0929411925543584\\
101	0.0621278870296181\\
102	0.042753172511431\\
103	0.040384937216343\\
104	0.0677274646086016\\
105	0.0531296324906264\\
106	0.0734133916478413\\
107	0.0694168098398116\\
108	0.0624820945054259\\
109	0.111734401457957\\
110	0.072962978606455\\
111	0.00962632056174051\\
112	0.0310429374734246\\
113	0.0689053063187155\\
114	0.0444656741872008\\
115	0.042078133618727\\
116	0.0404880989185285\\
117	0.0614218660987393\\
118	0.0291410031730415\\
119	0.0328763528842777\\
120	0.0701998651202642\\
121	0.0418962580923457\\
122	0.0761070925793006\\
123	0.0757488569615218\\
124	0.0653319731259694\\
125	0.0891758199446141\\
126	0.0518915004453635\\
127	0.0480653772015664\\
128	0.0583243115329537\\
129	0.0868329125846308\\
130	0.0171907672781427\\
131	0.0445948194409954\\
132	0.0175633176667875\\
133	0.0703732264135718\\
134	0.0153181586632462\\
135	0.0462639318828088\\
136	0.0926625817762683\\
137	0.0876825584476841\\
138	0.0362907288682388\\
139	0.0283755674265244\\
140	0.0556971056180482\\
141	0.0235319341728256\\
142	0.0247176811276882\\
143	0.104882394432304\\
144	0.0742088454104238\\
145	0.0524931758409715\\
146	0.0743852161896052\\
147	0.0734740053980312\\
148	0.0317929302324731\\
149	0.0760599602994984\\
150	0.0428218358178041\\
151	0.0111668255600159\\
152	0.0715012018836533\\
153	0.057794864930069\\
154	0.0262157480369943\\
155	0.102480357971644\\
156	0.0584106090477401\\
157	0.109921198005262\\
158	0.0495051012115428\\
159	0.0516679949475406\\
160	0.0587793347141613\\
161	0.0791670163984264\\
162	0.0628321326840487\\
163	0.10492448773893\\
164	0.0249863553772478\\
165	0.0561564699573868\\
166	0.0532918271516876\\
167	0.0538575431031296\\
168	0.0425950463508778\\
169	0.0304578343666678\\
170	0.0561650480908865\\
171	0.0214007976545434\\
172	0.0831791388850667\\
173	0.117028180140741\\
174	0.047633730091404\\
175	0.111109474055832\\
176	0.1154958711455\\
177	0.0279206432542696\\
178	0.0398335726133319\\
179	0.0587754417826561\\
180	0.0744000745713199\\
181	0.0496085145154618\\
182	0.0496869136522275\\
183	0.0866126613994578\\
184	0.0536118921792977\\
185	0.084738112793516\\
186	0.0667304135529602\\
187	0.0213404865234873\\
188	0.0799018068981698\\
189	0.0518690455853254\\
190	0.018141582729369\\
191	0.0265265820368646\\
192	0.0239206508700134\\
193	0.0582692891096029\\
194	0.0160375158908727\\
195	0.0735212700973612\\
196	0.0341481659822784\\
197	0.0615811556214261\\
198	0.0740034848718405\\
199	0.0863615944823338\\
200	0.0374557498767492\\
201	0.0317126626409493\\
202	0.0730681858555933\\
203	0.0168019706569837\\
204	0.0084338004321617\\
205	0.0502343216825133\\
206	0.0426797005796493\\
207	0.0347833612392031\\
208	0.065337871147294\\
209	0.0242641775736829\\
210	0.0344366931640032\\
211	0.0357767777722944\\
212	0.0506435063857622\\
213	0.0515520199839998\\
214	0.0958624652274997\\
215	0.0240511988381601\\
216	0.0294981483776444\\
217	0.117544289092896\\
218	0.0433820761032839\\
219	0.08573103675619\\
220	0.0443827090608919\\
221	0.0335393969760866\\
222	0.0390931657967571\\
223	0.0161528291722295\\
224	0.0339291035984782\\
225	0.0463433280410647\\
226	0.00642481691037646\\
227	0.0243263001946299\\
228	0.0236061090747693\\
229	0.0618004506729642\\
230	0.0734741923142804\\
231	0.034735897917087\\
232	0.0590933823728018\\
233	0.0398071193673901\\
234	0.0429902376425375\\
235	0.0955244195503656\\
236	0.0451639656281058\\
237	0.0697203339782701\\
238	0.0469034450667555\\
239	0.0624911098273976\\
240	0.0439206129841814\\
241	0.0498679797452023\\
242	0.027446982096978\\
243	0.0123059622963065\\
244	0.0864836813112141\\
245	0.0385153725461523\\
246	0.066102617089474\\
247	0.047840948843969\\
248	0.0465995456171708\\
249	0.0216346315676505\\
250	0.0500403770524218\\
251	0.0191923458511636\\
252	0.0654136470062375\\
253	0.0304982349878245\\
254	0.0419162308109156\\
255	0.0454828544577205\\
256	0.0635119081603687\\
257	0.0444122869671122\\
258	0.0452914162370299\\
259	0.0925396841881639\\
260	0.0354591611886141\\
261	0.034402495787972\\
262	0.0414764063002887\\
263	0.122729783482131\\
264	0.0651324370442618\\
265	0.0798542197732785\\
266	0.0857135654991443\\
267	0.0920481047932976\\
268	0.0478275357965796\\
269	0.0778020448944657\\
270	0.0295109933316686\\
271	0.0429604391666359\\
272	0.0459225338335852\\
273	0.051687626682374\\
274	0.0579249749591286\\
275	0.0409280026562123\\
276	0.0882092533155785\\
277	0.063308868304665\\
278	0.0369116698509525\\
279	0.0701068380082285\\
280	0.0617695886805099\\
281	0.0376974431197569\\
282	0.0614648368113522\\
283	0.148941492852898\\
284	0.0564402154193253\\
285	0.0342183307563282\\
286	0.0222984739013059\\
287	0.0463691331248698\\
288	0.0196806954819059\\
289	0.0400206824256521\\
290	0.0768454209537776\\
291	0.0718557146647269\\
292	0.0469626529266723\\
293	0.0570667589076907\\
294	0.103689664614611\\
295	0.0791772218913178\\
296	0.0372861635790533\\
297	0.0477869112885067\\
298	0.0428610347709244\\
299	0.0465079832338208\\
};
\addlegendentry{$\mathbf{\hat{h}_{1}}$}

\addplot [color=mycolor2]
  table[row sep=crcr]{%
0	0.0402493137155534\\
1	0.0867340500871293\\
2	0.0520382893012837\\
3	0.0366737298777436\\
4	0.0401684719352688\\
5	0.0200233580280883\\
6	0.0195175605460588\\
7	0.0799112728030333\\
8	0.0545518780237473\\
9	0.0851263735973409\\
10	0.0729811098610061\\
11	0.0257652611356061\\
12	0.100322293029898\\
13	0.0541278512491632\\
14	0.0588119539968777\\
15	0.0470911623969949\\
16	0.0218523724580609\\
17	0.0300624483041514\\
18	0.0319984051186076\\
19	0.02056770903383\\
20	0.099671094813824\\
21	0.0633673069166135\\
22	0.0415361869399133\\
23	0.0379109564209836\\
24	0.0167434693970315\\
25	0.0383249879130987\\
26	0.0535071178951685\\
27	0.0277950515838542\\
28	0.0743500971959479\\
29	0.0622469415675403\\
30	0.00816342319633739\\
31	0.0454953661284761\\
32	0.098234292142763\\
33	0.0550715419791843\\
34	0.023019899663878\\
35	0.0481350763589573\\
36	0.0119712797615374\\
37	0.080701250517177\\
38	0.0504618748585221\\
39	0.0453885135131837\\
40	0.0208664196389376\\
41	0.0329333091034971\\
42	0.0459990048822926\\
43	0.0143468603957243\\
44	0.0493232574667847\\
45	0.0217228024952266\\
46	0.0418572483229992\\
47	0.0550462059867253\\
48	0.0967745985611265\\
49	0.0131946179823492\\
50	0.0514058709896446\\
51	0.0522900244388556\\
52	0.0853228899228779\\
53	0.0354075259135651\\
54	0.0163415169688978\\
55	0.0836533733072197\\
56	0.0654840896044633\\
57	0.0450254639513493\\
58	0.0862030894734547\\
59	0.0277307564091246\\
60	0.0127773561891167\\
61	0.00209589647232145\\
62	0.0415846599088368\\
63	0.015446194134339\\
64	0.0171355238400126\\
65	0.0645954051839641\\
66	0.0246395661997747\\
67	0.0291340670852832\\
68	0.0557576202899855\\
69	0.0628057852157796\\
70	0.0655658241024468\\
71	0.0627853222353462\\
72	0.0509763584554779\\
73	0.0496951393511672\\
74	0.0440229073082097\\
75	0.0951042091939583\\
76	0.00716350650371881\\
77	0.0384232934578419\\
78	0.0447086414927919\\
79	0.0661355494805382\\
80	0.0810768815636949\\
81	0.0810504320477507\\
82	0.0583641589738113\\
83	0.0126729192664124\\
84	0.0328717884864264\\
85	0.0378144905725532\\
86	0.0447721012115346\\
87	0.0478226080219387\\
88	0.00449394377809269\\
89	0.0437797624193366\\
90	0.0739979339213317\\
91	0.0984782237277497\\
92	0.0776958056576176\\
93	0.027631694928725\\
94	0.0223369866391235\\
95	0.0774653651226558\\
96	0.0500731238258384\\
97	0.0437352462097532\\
98	0.076645533281242\\
99	0.0664450477077936\\
100	0.0091255006033534\\
101	0.0299507704064296\\
102	0.0421483589780396\\
103	0.0978612419681381\\
104	0.0588214833545635\\
105	0.0365797309761224\\
106	0.0513630077807228\\
107	0.0412071762252415\\
108	0.0193292324202153\\
109	0.0813060640512613\\
110	0.0358432150075792\\
111	0.0372262976203287\\
112	0.0700376629995932\\
113	0.0692314829441397\\
114	0.0678404813835147\\
115	0.0727454486672905\\
116	0.0613777569259358\\
117	0.0463116203823825\\
118	0.0777565218185493\\
119	0.0490471548508067\\
120	0.0568287259353981\\
121	0.0704449950789867\\
122	0.0401220048175268\\
123	0.0278872749482392\\
124	0.0618214486032115\\
125	0.0909157218038589\\
126	0.0377834492763156\\
127	0.0805093193633942\\
128	0.0641575624138988\\
129	0.121568827790831\\
130	0.0206598090660195\\
131	0.0246231571396257\\
132	0.0379949165319088\\
133	0.0723192036852866\\
134	0.108535384221113\\
135	0.0719744311852094\\
136	0.0629073058224585\\
137	0.0625272313735551\\
138	0.0822698713728831\\
139	0.0249380796096026\\
140	0.0114109448509884\\
141	0.0678394903703857\\
142	0.0747496760792496\\
143	0.0343858747159504\\
144	0.0531986149101874\\
145	0.110646686357999\\
146	0.0281529207924984\\
147	0.0454955994764954\\
148	0.0258353619923295\\
149	0.0691064538490829\\
150	0.0288123496940078\\
151	0.0660084771322647\\
152	0.102984563551724\\
153	0.0729985996990988\\
154	0.0398596853401551\\
155	0.0632859121096908\\
156	0.0364568585467412\\
157	0.0349500893708044\\
158	0.137332172640721\\
159	0.054065223754596\\
160	0.0672410129278182\\
161	0.0612479109587709\\
162	0.0638797267184369\\
163	0.0988380151296633\\
164	0.125720263654658\\
165	0.0261782908674722\\
166	0.0836758389902082\\
167	0.0266135735943995\\
168	0.0610364891979606\\
169	0.0694981028284339\\
170	0.0839677016957943\\
171	0.0557881637501827\\
172	0.0479347048340585\\
173	0.0975358281459332\\
174	0.0530035232335897\\
175	0.0124330441586601\\
176	0.0439951074391889\\
177	0.119661692030901\\
178	0.0619279301127286\\
179	0.0806212890847869\\
180	0.0730113783610356\\
181	0.0218780303454212\\
182	0.0129005726695596\\
183	0.0282463464581167\\
184	0.0765346186939588\\
185	0.0603418316920139\\
186	0.041477609383578\\
187	0.0861482115742942\\
188	0.096790949228294\\
189	0.0771199858703248\\
190	0.0127420878701228\\
191	0.0539891196487296\\
192	0.0224411138604724\\
193	0.0531813290188305\\
194	0.0797733601567054\\
195	0.0409895742084105\\
196	0.0716695114447638\\
197	0.081429823646723\\
198	0.0315009371599039\\
199	0.0411057714848955\\
200	0.0418405637243109\\
201	0.0681587068677423\\
202	0.0460922876820812\\
203	0.0406973078442748\\
204	0.0713726517746764\\
205	0.0110800065274188\\
206	0.0365505144912403\\
207	0.0737637714341817\\
208	0.0504032472567617\\
209	0.0457313528061953\\
210	0.0561753037844941\\
211	0.0432083258514673\\
212	0.0288980327289748\\
213	0.0775359110916625\\
214	0.0297402372072725\\
215	0.0147164577085853\\
216	0.0704743170034461\\
217	0.0549807809128078\\
218	0.0479238236684446\\
219	0.0306434079876229\\
220	0.00983257356879851\\
221	0.0193430551677202\\
222	0.0169960018803748\\
223	0.0324671950262289\\
224	0.109816546412161\\
225	0.0438798656471622\\
226	0.0348280284722528\\
227	0.0708593664919697\\
228	0.0745020996234806\\
229	0.0138622309870394\\
230	0.00610158078544253\\
231	0.0893545215405347\\
232	0.0395596483297694\\
233	0.0331385671794742\\
234	0.0652050209052091\\
235	0.0809933720268873\\
236	0.0291200976873182\\
237	0.0264434886538474\\
238	0.0163192438003265\\
239	0.0240054108003417\\
240	0.0539311351770566\\
241	0.0294229014243191\\
242	0.0536859022498047\\
243	0.0431252543899368\\
244	0.00817843295167431\\
245	0.0509975228980774\\
246	0.0413515667309257\\
247	0.00654080088891311\\
248	0.0206004193239981\\
249	0.0669797771968671\\
250	0.0339997719069211\\
251	0.0133771376982704\\
252	0.0181098220273314\\
253	0.103174599594144\\
254	0.0455223171722626\\
255	0.0386544390378802\\
256	0.0828363850478116\\
257	0.037592773953273\\
258	0.0921681142438691\\
259	0.0464881118384206\\
260	0.0135230019544699\\
261	0.047623075270827\\
262	0.0712615349880974\\
263	0.00512903300837789\\
264	0.0621531701502817\\
265	0.0436868538865863\\
266	0.0627973103703622\\
267	0.102297864244938\\
268	0.0273494553237321\\
269	0.0249876271678973\\
270	0.0528428348929501\\
271	0.0270147624507838\\
272	0.0754402699716001\\
273	0.0868792166593764\\
274	0.03345170970145\\
275	0.0581612136503492\\
276	0.0188598870855613\\
277	0.0542661394223447\\
278	0.0398029697644371\\
279	0.0470639056277985\\
280	0.0670379735182025\\
281	0.0768985688233538\\
282	0.0555348749884507\\
283	0.0944780270400932\\
284	0.0306197366973451\\
285	0.0568353503371402\\
286	0.0447784033965134\\
287	0.0963061276425683\\
288	0.0285402752858269\\
289	0.0745079160822504\\
290	0.0646876913843911\\
291	0.0747431200048835\\
292	0.0576966533719362\\
293	0.0434776569886068\\
294	0.0293587375892705\\
295	0.0449148256121817\\
296	0.0241755106105054\\
297	0.0753539420978589\\
298	0.0925627268320894\\
299	0.0251198494013158\\
};
\addlegendentry{$\mathbf{\hat{h}_{2}}$}

\end{axis}
\end{tikzpicture}%