% This file was created by matlab2tikz.
%
%The latest updates can be retrieved from
%  http://www.mathworks.com/matlabcentral/fileexchange/22022-matlab2tikz-matlab2tikz
%where you can also make suggestions and rate matlab2tikz.
%
\definecolor{mycolor1}{rgb}{0.00000,0.44700,0.74100}%
\definecolor{mycolor2}{rgb}{0.85000,0.32500,0.09800}%
%
\begin{tikzpicture}

\begin{axis}[%
width=1.935in,
height=3.2in,
at={(0.758in,0.512in)},
scale only axis,
xmin=0,
xmax=200,
xlabel style={font=\color{white!15!black}, align=center},
xlabel={Sample Index\\[1ex](a) Actual},
ymin=0,
ymax=1,
axis background/.style={fill=white},
legend style={legend cell align=left, align=left, draw=white!15!black}
]
\addplot [color=mycolor1]
  table[row sep=crcr]{%
1	0.0167418731260698\\
2	0.018659722218203\\
3	0.0211495716349754\\
4	0.0245407494314006\\
5	0.029505643974117\\
6	0.0377161636169434\\
7	0.0550750576238134\\
8	0.131028403455825\\
9	0.141533477104454\\
10	0.158175166246243\\
11	0.163761757297189\\
12	0.600100605556833\\
13	0.118033417583129\\
14	0.0610914209628117\\
15	0.0426162246246858\\
16	0.0332715711707656\\
17	0.0321939439283243\\
18	0.0268871008873183\\
19	0.0316920608120786\\
20	0.0286771919664519\\
21	0.00773119825769845\\
22	0.0330073087209196\\
23	0.019415059292473\\
24	0.0177688778425817\\
25	0.0188194600762088\\
26	0.0237714798713867\\
27	0.0430806655948836\\
28	0.586023006720236\\
29	0.0970905103802927\\
30	0.0246981078960262\\
31	0.0780346253424249\\
32	0.0580455436901626\\
33	0.0681836526256362\\
34	0.163824852865525\\
35	0.0446106828365612\\
36	0.06119675966513\\
37	0.00907835157153909\\
38	0.0310093774848825\\
39	0.00125972832884384\\
40	0.005422098150711\\
41	0.0107374596162295\\
42	0.0165479326643041\\
43	0.024789327411243\\
44	0.0446277431282512\\
45	0.058019450740893\\
46	0.074843365423057\\
47	0.199666615467323\\
48	0.216838516027539\\
49	0.0783890355452335\\
50	0.0495529240878659\\
51	0.0370791446049236\\
52	0.0307530810094058\\
53	0.0155757068681131\\
54	0.0198807977432187\\
55	0.0179871495341263\\
56	0.0162887905400521\\
57	0.0148728268904216\\
58	0.0136909847461918\\
59	0.0126943671543235\\
60	0.011846112844806\\
61	0.0111233301448608\\
62	0.0105291449791113\\
63	0.0102108676347222\\
64	0.00751288118280402\\
65	0.00739035992869396\\
66	0.0116365722557393\\
67	0.00899390796280924\\
68	0.00831157148096884\\
69	0.00788086875151191\\
70	0.00754217236777393\\
71	0.00725475830161164\\
72	0.00700327644843893\\
73	0.006780818536885\\
74	0.00658453626015097\\
75	0.00641472878078445\\
76	0.00627599401250467\\
77	0.00618216997550965\\
78	0.00617516728867787\\
79	0.00642745729543014\\
80	0.00873051939586948\\
81	0.00471465923588381\\
82	0.00195996010568866\\
83	0.004980313957114\\
84	0.00475839614864904\\
85	0.00464733241660508\\
86	0.00455444244400457\\
87	0.00446749239384432\\
88	0.00438406292262191\\
89	0.00430366820355207\\
90	0.00422628355118023\\
91	0.00415201532524293\\
92	0.00408104289588831\\
93	0.00401365198230764\\
94	0.00395033763548775\\
95	0.00389203620501121\\
96	0.00384070443755282\\
97	0.00380107128140597\\
98	0.00378779867734327\\
99	0.00387836096292209\\
100	0.00228454900881806\\
101	0.00321909463290553\\
102	0.00328982387499096\\
103	0.00328100374444436\\
104	0.00325253146337885\\
105	0.00321692683031362\\
106	0.00317840637543852\\
107	0.00313876414674543\\
108	0.00309887602618152\\
109	0.00305920797263281\\
110	0.00302002111537278\\
111	0.00298146552488656\\
112	0.00294362726599965\\
113	0.0029065537719176\\
114	0.00287026833389302\\
115	0.00283477876811283\\
116	0.00280008280049957\\
117	0.00276617151884636\\
118	0.00273303164395387\\
119	0.00270064705586787\\
120	0.00266899983729428\\
121	0.00263807099659409\\
122	0.00260784097374635\\
123	0.00257828999668392\\
124	0.00254939833288439\\
125	0.00252114646667125\\
126	0.00249351522323938\\
127	0.00246648585412356\\
128	0.00244004009455901\\
129	0.00241416020024051\\
130	0.00238882896892876\\
131	0.0023640297508985\\
132	0.00233974645117835\\
133	0.00231596352577768\\
134	0.00229266597354371\\
135	0.00226983932488367\\
136	0.00224746962828519\\
137	0.00222554343533969\\
138	0.00220404778480324\\
139	0.00218297018609978\\
140	0.00216229860257188\\
141	0.00214202143470905\\
142	0.00212212750352594\\
143	0.00210260603421662\\
144	0.00208344664017788\\
145	0.00206463930746792\\
146	0.00204617437974413\\
147	0.00202804254371082\\
148	0.00201023481509265\\
149	0.00199274252514179\\
150	0.00197555730767936\\
151	0.0019586710866655\\
152	0.00194207606428942\\
153	0.00192576470956709\\
154	0.00190972974743187\\
155	0.00189396414830307\\
156	0.00187846111811499\\
157	0.00186321408878906\\
158	0.00184821670913216\\
159	0.00183346283614256\\
160	0.00181894652670628\\
161	0.00180466202966742\\
162	0.00179060377825436\\
163	0.00177676638284649\\
164	0.00176314462406556\\
165	0.00174973344617591\\
166	0.0017365279507797\\
167	0.00172352339079259\\
168	0.00171071516468654\\
169	0.00169809881098722\\
170	0.00168567000301325\\
171	0.00167342454384613\\
172	0.00166135836151948\\
173	0.00164946750441694\\
174	0.00163774813686889\\
175	0.00162619653493841\\
176	0.00161480908238697\\
177	0.00160358226681213\\
178	0.001592512675948\\
179	0.00158159699412143\\
180	0.00157083199885632\\
181	0.00156021455761888\\
182	0.00154974162469766\\
183	0.00153941023821136\\
184	0.00152921751723897\\
185	0.00151916065906659\\
186	0.00150923693654504\\
187	0.00149944369555362\\
188	0.00148977835256491\\
189	0.00148023839230615\\
190	0.0014708213655126\\
191	0.00146152488676917\\
192	0.00145234663243548\\
193	0.00144328433865201\\
194	0.00143433579942216\\
195	0.0014254988647679\\
196	0.00141677143895562\\
197	0.00140815147878894\\
198	0.00139963699196521\\
199	0\\
200	0\\
};
\addlegendentry{$\mathbf{h_1}$}

\addplot [color=mycolor2]
  table[row sep=crcr]{%
1	0.00495033386861547\\
2	0.00515738368500011\\
3	0.00538309861623286\\
4	0.00563019833310769\\
5	0.00590197136255583\\
6	0.00620243506959928\\
7	0.00653655369620811\\
8	0.00691054090538825\\
9	0.00733228812251618\\
10	0.00781198494389501\\
11	0.00836304134465097\\
12	0.0090034999823859\\
13	0.00975827527656913\\
14	0.0106628508662167\\
15	0.0117696896019869\\
16	0.0131600228416925\\
17	0.0149671880151623\\
18	0.0174273921400842\\
19	0.0210049332363351\\
20	0.0267613442180004\\
21	0.037792597580649\\
22	0.068721841139076\\
23	0.97572931769219\\
24	0.0649085399616321\\
25	0.0262918397391367\\
26	0.0126468169615953\\
27	0.00419508123086451\\
28	0.0214241856295046\\
29	0.0134643328328179\\
30	0.00412679327935559\\
31	0.0112712342656943\\
32	0.0282552508318709\\
33	0.111702725947746\\
34	0.12653020104749\\
35	0.0361926668223949\\
36	0.024130019396178\\
37	0.019518168382204\\
38	0.0163235660243771\\
39	0.0140849625225472\\
40	0.0124312948441269\\
41	0.0111552918846637\\
42	0.0101369616841952\\
43	0.00930266674553233\\
44	0.00860476970863487\\
45	0.00801105372801389\\
46	0.00749890841387189\\
47	0.00705196472677567\\
48	0.00665805661850076\\
49	0.0063079366485928\\
50	0.00599443852440938\\
51	0.00571191453485358\\
52	0.00545584764793091\\
53	0.0052225778141873\\
54	0.00500910486747672\\
55	0.00481294397681212\\
56	0.00463201789166602\\
57	0.00446457542356871\\
58	0.00430912894812168\\
59	0.00416440590497024\\
60	0.00402931074167137\\
61	0.00390289474814389\\
62	0.00378433192171684\\
63	0.00367289949042518\\
64	0.0035679620699816\\
65	0.00346895868109233\\
66	0.00337539203747226\\
67	0.00328681965070268\\
68	0.00320284639950925\\
69	0\\
70	0\\
71	0\\
72	0\\
73	0\\
74	0\\
75	0\\
76	0\\
77	0\\
78	0\\
79	0\\
80	0\\
81	0\\
82	0\\
83	0\\
84	0\\
85	0\\
86	0\\
87	0\\
88	0\\
89	0\\
90	0\\
91	0\\
92	0\\
93	0\\
94	0\\
95	0\\
96	0\\
97	0\\
98	0\\
99	0\\
100	0\\
101	0\\
102	0\\
103	0\\
104	0\\
105	0\\
106	0\\
107	0\\
108	0\\
109	0\\
110	0\\
111	0\\
112	0\\
113	0\\
114	0\\
115	0\\
116	0\\
117	0\\
118	0\\
119	0\\
120	0\\
121	0\\
122	0\\
123	0\\
124	0\\
125	0\\
126	0\\
127	0\\
128	0\\
129	0\\
130	0\\
131	0\\
132	0\\
133	0\\
134	0\\
135	0\\
136	0\\
137	0\\
138	0\\
139	0\\
140	0\\
141	0\\
142	0\\
143	0\\
144	0\\
145	0\\
146	0\\
147	0\\
148	0\\
149	0\\
150	0\\
151	0\\
152	0\\
153	0\\
154	0\\
155	0\\
156	0\\
157	0\\
158	0\\
159	0\\
160	0\\
161	0\\
162	0\\
163	0\\
164	0\\
165	0\\
166	0\\
167	0\\
168	0\\
169	0\\
170	0\\
171	0\\
172	0\\
173	0\\
174	0\\
175	0\\
176	0\\
177	0\\
178	0\\
179	0\\
180	0\\
181	0\\
182	0\\
183	0\\
184	0\\
185	0\\
186	0\\
187	0\\
188	0\\
189	0\\
190	0\\
191	0\\
192	0\\
193	0\\
194	0\\
195	0\\
196	0\\
197	0\\
198	0\\
199	0\\
200	0\\
};
\addlegendentry{$\mathbf{h_{2}}$}

\end{axis}

\begin{axis}[%
width=1.935in,
height=3.2in,
at={(3.327in,0.512in)},
scale only axis,
xmin=0,
xmax=200,
xlabel style={font=\color{white!15!black}, align=center},
xlabel={Sample Index\\[1ex](b) Estimated},
ymin=0,
ymax=0.25,
axis background/.style={fill=white},
legend style={legend cell align=left, align=left, draw=white!15!black}
]
\addplot [color=mycolor1]
  table[row sep=crcr]{%
0	0.0150344456110676\\
1	0.0184921486290762\\
2	0.029357752935801\\
3	0.0103213820013041\\
4	0.010716142917756\\
5	0.0553359028616532\\
6	0.00588197868477444\\
7	0.0675163629668584\\
8	0.0340471178968329\\
9	0.0565048251071851\\
10	0.054738738861156\\
11	0.133250869033041\\
12	0.0520810372047532\\
13	0.0240282398737283\\
14	0.0895117545870282\\
15	0.08036342774059\\
16	0.0860086004696881\\
17	0.019097693548828\\
18	0.0810966022942762\\
19	0.00711651455794429\\
20	0.116752588619542\\
21	0.0985051924922636\\
22	0.0973901538266845\\
23	0.0746914745353226\\
24	0.142184951922205\\
25	0.15686246284159\\
26	0.118938337476399\\
27	0.165825764855482\\
28	0.0638460957682253\\
29	0.0806488220283385\\
30	0.0791866839527359\\
31	0.0770061107737749\\
32	0.0317523236185223\\
33	0.0820781247704717\\
34	0.167919900073366\\
35	0.0790142961162559\\
36	0.0681767753359062\\
37	0.0577285680784734\\
38	0.0453682487997746\\
39	0.0692365025558335\\
40	0.120313637070475\\
41	0.131508933164949\\
42	0.0394489994832955\\
43	0.0824342965799264\\
44	0.117345893391099\\
45	0.106325325756736\\
46	0.0595533535554214\\
47	0.0561348790515307\\
48	0.108379605177081\\
49	0.0843268490573113\\
50	0.127816873358217\\
51	0.043769187708332\\
52	0.0876203830195641\\
53	0.0277588859993848\\
54	0.0615708083893562\\
55	0.0732294138923293\\
56	0.0136042303659603\\
57	0.0327545707830171\\
58	0.0423225239657045\\
59	0.149202209824108\\
60	0.127535250215259\\
61	0.0661705884644637\\
62	0.0277333359454604\\
63	0.181925462013087\\
64	0.0768292858140175\\
65	0.0898401163226558\\
66	0.108062051609337\\
67	0.0805398601336988\\
68	0.0946173493106899\\
69	0.0648951857948702\\
70	0.0730189202120381\\
71	0.0165342293750824\\
72	0.0408186590430922\\
73	0.035408813236482\\
74	0.113827136021958\\
75	0.0447438854926953\\
76	0.0672194641867693\\
77	0.0284085576159428\\
78	0.103507928631871\\
79	0.115978274427958\\
80	0.0910872083302309\\
81	0.0444885884672881\\
82	0.109331535795065\\
83	0.0394728811054878\\
84	0.103576576955479\\
85	0.0702913444996812\\
86	0.0418102884211634\\
87	0.116893511336821\\
88	0.0859414510888468\\
89	0.0283626821963075\\
90	0.0687894493559739\\
91	0.0496129031592871\\
92	0.110910264794465\\
93	0.0218995059715584\\
94	0.0325421500981252\\
95	0.0609975287758875\\
96	0.147424426298157\\
97	0.132158347360886\\
98	0.0491774183065348\\
99	0.074133495484398\\
100	0.091906662970526\\
101	0.0486083150334235\\
102	0.107454004215729\\
103	0.0278684783023998\\
104	0.118067867822054\\
105	0.0526769137672952\\
106	0.0416413101162537\\
107	0.0328834230081929\\
108	0.0540494601556524\\
109	0.0590100556032208\\
110	0.049672790033717\\
111	0.0972152264348526\\
112	0.0459977387062598\\
113	0.0828042384299709\\
114	0.033432249061497\\
115	0.0745450136257022\\
116	0.0357690459294994\\
117	0.0466993406768369\\
118	0.080574234082578\\
119	0.118319655828174\\
120	0.0696522296592464\\
121	0.0310020745514258\\
122	0.0567561400786042\\
123	0.0480826270483422\\
124	0.0145207480653816\\
125	0.0259372929538039\\
126	0.130380796387688\\
127	0.0161791168938174\\
128	0.10121962334152\\
129	0.046932918621354\\
130	0.0910703321264419\\
131	0.00982546664102471\\
132	0.0407078155183927\\
133	0.0406518353808378\\
134	0.0376430943478249\\
135	0.0607590512363524\\
136	0.0428147344182057\\
137	0.102813366977517\\
138	0.0287379423812624\\
139	0.0586953585697195\\
140	0.0417710405024859\\
141	0.100333871541063\\
142	0.0675788592712749\\
143	0.0395382394708544\\
144	0.00718288699804112\\
145	0.0917579821134119\\
146	0.100634117624558\\
147	0.0506245324261023\\
148	0.0522085502027838\\
149	0.00917143148394877\\
150	0.0124130348173376\\
151	0.0885272955513532\\
152	0.0900605236521362\\
153	0.0282593805668763\\
154	0.0945528573794819\\
155	0.0309666732601713\\
156	0.05721622633247\\
157	0.00383224327553575\\
158	0.0562682974374635\\
159	0.0462999217166883\\
160	0.0617729189173085\\
161	0.0538210606675246\\
162	0.0660389657175817\\
163	0.0248397125107337\\
164	0.0339375672026858\\
165	0.0159292302334983\\
166	0.02762895015373\\
167	0.0367100870398807\\
168	0.0453543295796268\\
169	0.0621789590986411\\
170	0.0532154389893451\\
171	0.0695359654921696\\
172	0.0170165319720768\\
173	0.0244752276881378\\
174	0.0356851181724184\\
175	0.0319763591390292\\
176	0.0146254018076506\\
177	0.00463785877407422\\
178	0.00288532379149374\\
179	0.0296734001479492\\
180	0.0066965464851362\\
181	0.0130766367016521\\
182	0.0150527842864306\\
183	0.0185410983197648\\
184	0.0225037628155942\\
185	0.00791679449586602\\
186	0.00799913633040232\\
187	0.0140017851832875\\
188	0.00982168294596592\\
189	0.00999703634430582\\
190	0.0123683217466888\\
191	0.0130059218181428\\
192	0.0108033723972509\\
193	0.00887640514024755\\
194	0.00298515778701396\\
195	0.00298252329677005\\
196	0.00331282648700999\\
197	0.016339325647622\\
198	0.00884342357910202\\
199	0.00452876767439064\\
};
\addlegendentry{$\mathbf{\hat{h}_{1}}$}

\addplot [color=mycolor2]
  table[row sep=crcr]{%
0	0.00126222969095232\\
1	0.0017909690128306\\
2	0.00149171939190383\\
3	0.0012705138820719\\
4	0.00112652310514392\\
5	0.00306297872679092\\
6	0.00559859540956645\\
7	0.0047170479634583\\
8	0.00665240814279459\\
9	0.0014573410111279\\
10	0.00753917927177344\\
11	0.00915658798799822\\
12	0.0225636676977536\\
13	0.031633337471236\\
14	0.0143216423513584\\
15	0.0050981671005149\\
16	0.0612960207237079\\
17	0.0177865447592546\\
18	0.0713781660313445\\
19	0.0445357943733986\\
20	0.0784240027807434\\
21	0.0350193507266272\\
22	0.21979829053151\\
23	0.107256838352985\\
24	0.0301037695633385\\
25	0.112788477902952\\
26	0.082470245788171\\
27	0.123485550529873\\
28	0.0284036849303825\\
29	0.137199358516294\\
30	0.0421022247702821\\
31	0.0827998850411337\\
32	0.0814763816526132\\
33	0.107494432532449\\
34	0.0323532215353187\\
35	0.20833943813891\\
36	0.16953604980501\\
37	0.124995486559944\\
38	0.061562999821877\\
39	0.0389500670042461\\
40	0.0809146581339557\\
41	0.118906642939823\\
42	0.0925884734303756\\
43	0.107956312284026\\
44	0.116058653514957\\
45	0.106936522629625\\
46	0.0815020358546433\\
47	0.116533593228825\\
48	0.0600402453319091\\
49	0.125536776057786\\
50	0.0574960723758632\\
51	0.0276691920614025\\
52	0.0552030881806048\\
53	0.162237137745923\\
54	0.0592312764691565\\
55	0.170129596270071\\
56	0.0799737132313617\\
57	0.0938527142591822\\
58	0.10999623496977\\
59	0.118401566211979\\
60	0.0744158033475827\\
61	0.118980592603009\\
62	0.104888257407032\\
63	0.060944317879327\\
64	0.0514669770164563\\
65	0.120210613830533\\
66	0.0164733898334794\\
67	0.0718064357221422\\
68	0.129086679425608\\
69	0.135081639918279\\
70	0.029087552923055\\
71	0.0575386299690283\\
72	0.0384593434227825\\
73	0.0196713980235154\\
74	0.0911128421542734\\
75	0.0416878140008067\\
76	0.0235893994350932\\
77	0.10614749449073\\
78	0.13065555309284\\
79	0.06625954969927\\
80	0.0245202830131954\\
81	0.0516064916085696\\
82	0.0105231275611351\\
83	0.0445147859942402\\
84	0.016715948243405\\
85	0.12195343855168\\
86	0.110710607921838\\
87	0.0110705614268682\\
88	0.0309347137843748\\
89	0.0487910833984955\\
90	0.0197908802882921\\
91	0.166261422927974\\
92	0.0242821300802617\\
93	0.0909150344683735\\
94	0.0474937488956815\\
95	0.112717160165942\\
96	0.0352625034030998\\
97	0.0722046824713055\\
98	0.110402033610327\\
99	0.0718393205482934\\
100	0.0703335876759457\\
101	0.0324401926024267\\
102	0.0398371488260372\\
103	0.0393632590339884\\
104	0.038618662654076\\
105	0.030478698899943\\
106	0.032812120452203\\
107	0.0626491445259072\\
108	0.0997450964544218\\
109	0.0582504042252216\\
110	0.0851984260019831\\
111	0.0517287420224792\\
112	0.0510388224933481\\
113	0.0472046402269128\\
114	0.0747295729344109\\
115	0.0527854843657375\\
116	0.0743110407134696\\
117	0.021624791294551\\
118	0.0270732351373133\\
119	0.0152878447307763\\
120	0.124948930633258\\
121	0.0564112643404697\\
122	0.0835496028003884\\
123	0.0849928097215871\\
124	0.097509600515866\\
125	0.0893867482804987\\
126	0.0399201047663943\\
127	0.0382487333804546\\
128	0.0781300715325168\\
129	0.0419564022560255\\
130	0.151659746121724\\
131	0.0134647033891705\\
132	0.0906431058607159\\
133	0.0247890252564664\\
134	0.0424073915482645\\
135	0.0352796364323629\\
136	0.0918817678062681\\
137	0.072025526971998\\
138	0.0751174133636059\\
139	0.0539350716017833\\
140	0.0665428269992586\\
141	0.0643503360992127\\
142	0.0867476370052137\\
143	0.11418558692546\\
144	0.035261891464151\\
145	0.0411457699708735\\
146	0.163495372824949\\
147	0.0825633471270834\\
148	0.0695679429895871\\
149	0.0609796894569768\\
150	0.0114333298006285\\
151	0.0275902488343875\\
152	0.0439694182143859\\
153	0.0294674210859585\\
154	0.0671836107624416\\
155	0.0324179103212997\\
156	0.0145691099996087\\
157	0.0364447500069624\\
158	0.0229364285778307\\
159	0.0256325984594332\\
160	0.0514591572746856\\
161	0.0343758361597907\\
162	0.0204991291230748\\
163	0.0180860093225495\\
164	0.0240669370005279\\
165	0.0125756352935886\\
166	0.0106154052849607\\
167	0.0277617114022589\\
168	0.0382819328657181\\
169	0.0163946642520865\\
170	0.0264353305528407\\
171	0.0182742635845588\\
172	0.0263991874481819\\
173	0.028728673426367\\
174	0.0221787221940789\\
175	0.0254817064155508\\
176	0.0185763641875931\\
177	0.00619689057893789\\
178	0.0083605052133237\\
179	0.0161300520265695\\
180	0.00933300244269728\\
181	0.00802405306415172\\
182	0.00704145188584104\\
183	0.0120099066022869\\
184	0.00837201619480129\\
185	0.00438354829354402\\
186	0.0027506501699851\\
187	0.00562271802002427\\
188	0.0028890798906177\\
189	0.00268319178723815\\
190	0.00426739991275071\\
191	0.00228856994090223\\
192	0.00178802232445336\\
193	0.00110752549308244\\
194	0.00258568402950932\\
195	0.000833308594264168\\
196	0.00281859071416186\\
197	0.00309851151339518\\
198	0.00293625636664835\\
199	0.00205386394169026\\
};
\addlegendentry{$\mathbf{\hat{h}_{2}}$}

\end{axis}
\end{tikzpicture}%