% This file was created by matlab2tikz.
%
%The latest updates can be retrieved from
%  http://www.mathworks.com/matlabcentral/fileexchange/22022-matlab2tikz-matlab2tikz
%where you can also make suggestions and rate matlab2tikz.
%
\definecolor{mycolor1}{rgb}{0.00000,0.44700,0.74100}%
\definecolor{mycolor2}{rgb}{0.85000,0.32500,0.09800}%
%
\begin{tikzpicture}

\begin{axis}[%
width=1.935in,
height=3.2in,
at={(0.758in,0.512in)},
scale only axis,
xmin=0,
xmax=200,
xlabel style={font=\color{white!15!black}, align=center},
xlabel={Sample Index\\[1ex](a) Actual},
ymin=0,
ymax=1,
axis background/.style={fill=white},
legend style={legend cell align=left, align=left, draw=white!15!black}
]
\addplot [color=mycolor1]
  table[row sep=crcr]{%
1	0.0167418731260698\\
2	0.018659722218203\\
3	0.0211495716349754\\
4	0.0245407494314006\\
5	0.029505643974117\\
6	0.0377161636169434\\
7	0.0550750576238134\\
8	0.131028403455825\\
9	0.141533477104454\\
10	0.158175166246243\\
11	0.163761757297189\\
12	0.600100605556833\\
13	0.118033417583129\\
14	0.0610914209628117\\
15	0.0426162246246858\\
16	0.0332715711707656\\
17	0.0321939439283243\\
18	0.0268871008873183\\
19	0.0316920608120786\\
20	0.0286771919664519\\
21	0.00773119825769845\\
22	0.0330073087209196\\
23	0.019415059292473\\
24	0.0177688778425817\\
25	0.0188194600762088\\
26	0.0237714798713867\\
27	0.0430806655948836\\
28	0.586023006720236\\
29	0.0970905103802927\\
30	0.0246981078960262\\
31	0.0780346253424249\\
32	0.0580455436901626\\
33	0.0681836526256362\\
34	0.163824852865525\\
35	0.0446106828365612\\
36	0.06119675966513\\
37	0.00907835157153909\\
38	0.0310093774848825\\
39	0.00125972832884384\\
40	0.005422098150711\\
41	0.0107374596162295\\
42	0.0165479326643041\\
43	0.024789327411243\\
44	0.0446277431282512\\
45	0.058019450740893\\
46	0.074843365423057\\
47	0.199666615467323\\
48	0.216838516027539\\
49	0.0783890355452335\\
50	0.0495529240878659\\
51	0.0370791446049236\\
52	0.0307530810094058\\
53	0.0155757068681131\\
54	0.0198807977432187\\
55	0.0179871495341263\\
56	0.0162887905400521\\
57	0.0148728268904216\\
58	0.0136909847461918\\
59	0.0126943671543235\\
60	0.011846112844806\\
61	0.0111233301448608\\
62	0.0105291449791113\\
63	0.0102108676347222\\
64	0.00751288118280402\\
65	0.00739035992869396\\
66	0.0116365722557393\\
67	0.00899390796280924\\
68	0.00831157148096884\\
69	0.00788086875151191\\
70	0.00754217236777393\\
71	0.00725475830161164\\
72	0.00700327644843893\\
73	0.006780818536885\\
74	0.00658453626015097\\
75	0.00641472878078445\\
76	0.00627599401250467\\
77	0.00618216997550965\\
78	0.00617516728867787\\
79	0.00642745729543014\\
80	0.00873051939586948\\
81	0.00471465923588381\\
82	0.00195996010568866\\
83	0.004980313957114\\
84	0.00475839614864904\\
85	0.00464733241660508\\
86	0.00455444244400457\\
87	0.00446749239384432\\
88	0.00438406292262191\\
89	0.00430366820355207\\
90	0.00422628355118023\\
91	0.00415201532524293\\
92	0.00408104289588831\\
93	0.00401365198230764\\
94	0.00395033763548775\\
95	0.00389203620501121\\
96	0.00384070443755282\\
97	0.00380107128140597\\
98	0.00378779867734327\\
99	0.00387836096292209\\
100	0.00228454900881806\\
101	0.00321909463290553\\
102	0.00328982387499096\\
103	0.00328100374444436\\
104	0.00325253146337885\\
105	0.00321692683031362\\
106	0.00317840637543852\\
107	0.00313876414674543\\
108	0.00309887602618152\\
109	0.00305920797263281\\
110	0.00302002111537278\\
111	0.00298146552488656\\
112	0.00294362726599965\\
113	0.0029065537719176\\
114	0.00287026833389302\\
115	0.00283477876811283\\
116	0.00280008280049957\\
117	0.00276617151884636\\
118	0.00273303164395387\\
119	0.00270064705586787\\
120	0.00266899983729428\\
121	0.00263807099659409\\
122	0.00260784097374635\\
123	0.00257828999668392\\
124	0.00254939833288439\\
125	0.00252114646667125\\
126	0.00249351522323938\\
127	0.00246648585412356\\
128	0.00244004009455901\\
129	0.00241416020024051\\
130	0.00238882896892876\\
131	0.0023640297508985\\
132	0.00233974645117835\\
133	0.00231596352577768\\
134	0.00229266597354371\\
135	0.00226983932488367\\
136	0.00224746962828519\\
137	0.00222554343533969\\
138	0.00220404778480324\\
139	0.00218297018609978\\
140	0.00216229860257188\\
141	0.00214202143470905\\
142	0.00212212750352594\\
143	0.00210260603421662\\
144	0.00208344664017788\\
145	0.00206463930746792\\
146	0.00204617437974413\\
147	0.00202804254371082\\
148	0.00201023481509265\\
149	0.00199274252514179\\
150	0.00197555730767936\\
151	0.0019586710866655\\
152	0.00194207606428942\\
153	0.00192576470956709\\
154	0.00190972974743187\\
155	0.00189396414830307\\
156	0.00187846111811499\\
157	0.00186321408878906\\
158	0.00184821670913216\\
159	0.00183346283614256\\
160	0.00181894652670628\\
161	0.00180466202966742\\
162	0.00179060377825436\\
163	0.00177676638284649\\
164	0.00176314462406556\\
165	0.00174973344617591\\
166	0.0017365279507797\\
167	0.00172352339079259\\
168	0.00171071516468654\\
169	0.00169809881098722\\
170	0.00168567000301325\\
171	0.00167342454384613\\
172	0.00166135836151948\\
173	0.00164946750441694\\
174	0.00163774813686889\\
175	0.00162619653493841\\
176	0.00161480908238697\\
177	0.00160358226681213\\
178	0.001592512675948\\
179	0.00158159699412143\\
180	0.00157083199885632\\
181	0.00156021455761888\\
182	0.00154974162469766\\
183	0.00153941023821136\\
184	0.00152921751723897\\
185	0.00151916065906659\\
186	0.00150923693654504\\
187	0.00149944369555362\\
188	0.00148977835256491\\
189	0.00148023839230615\\
190	0.0014708213655126\\
191	0.00146152488676917\\
192	0.00145234663243548\\
193	0.00144328433865201\\
194	0.00143433579942216\\
195	0.0014254988647679\\
196	0.00141677143895562\\
197	0.00140815147878894\\
198	0.00139963699196521\\
199	0\\
200	0\\
};
\addlegendentry{$\mathbf{h_1}$}

\addplot [color=mycolor2]
  table[row sep=crcr]{%
1	0.00495033386861547\\
2	0.00515738368500011\\
3	0.00538309861623286\\
4	0.00563019833310769\\
5	0.00590197136255583\\
6	0.00620243506959928\\
7	0.00653655369620811\\
8	0.00691054090538825\\
9	0.00733228812251618\\
10	0.00781198494389501\\
11	0.00836304134465097\\
12	0.0090034999823859\\
13	0.00975827527656913\\
14	0.0106628508662167\\
15	0.0117696896019869\\
16	0.0131600228416925\\
17	0.0149671880151623\\
18	0.0174273921400842\\
19	0.0210049332363351\\
20	0.0267613442180004\\
21	0.037792597580649\\
22	0.068721841139076\\
23	0.97572931769219\\
24	0.0649085399616321\\
25	0.0262918397391367\\
26	0.0126468169615953\\
27	0.00419508123086451\\
28	0.0214241856295046\\
29	0.0134643328328179\\
30	0.00412679327935559\\
31	0.0112712342656943\\
32	0.0282552508318709\\
33	0.111702725947746\\
34	0.12653020104749\\
35	0.0361926668223949\\
36	0.024130019396178\\
37	0.019518168382204\\
38	0.0163235660243771\\
39	0.0140849625225472\\
40	0.0124312948441269\\
41	0.0111552918846637\\
42	0.0101369616841952\\
43	0.00930266674553233\\
44	0.00860476970863487\\
45	0.00801105372801389\\
46	0.00749890841387189\\
47	0.00705196472677567\\
48	0.00665805661850076\\
49	0.0063079366485928\\
50	0.00599443852440938\\
51	0.00571191453485358\\
52	0.00545584764793091\\
53	0.0052225778141873\\
54	0.00500910486747672\\
55	0.00481294397681212\\
56	0.00463201789166602\\
57	0.00446457542356871\\
58	0.00430912894812168\\
59	0.00416440590497024\\
60	0.00402931074167137\\
61	0.00390289474814389\\
62	0.00378433192171684\\
63	0.00367289949042518\\
64	0.0035679620699816\\
65	0.00346895868109233\\
66	0.00337539203747226\\
67	0.00328681965070268\\
68	0.00320284639950925\\
69	0\\
70	0\\
71	0\\
72	0\\
73	0\\
74	0\\
75	0\\
76	0\\
77	0\\
78	0\\
79	0\\
80	0\\
81	0\\
82	0\\
83	0\\
84	0\\
85	0\\
86	0\\
87	0\\
88	0\\
89	0\\
90	0\\
91	0\\
92	0\\
93	0\\
94	0\\
95	0\\
96	0\\
97	0\\
98	0\\
99	0\\
100	0\\
101	0\\
102	0\\
103	0\\
104	0\\
105	0\\
106	0\\
107	0\\
108	0\\
109	0\\
110	0\\
111	0\\
112	0\\
113	0\\
114	0\\
115	0\\
116	0\\
117	0\\
118	0\\
119	0\\
120	0\\
121	0\\
122	0\\
123	0\\
124	0\\
125	0\\
126	0\\
127	0\\
128	0\\
129	0\\
130	0\\
131	0\\
132	0\\
133	0\\
134	0\\
135	0\\
136	0\\
137	0\\
138	0\\
139	0\\
140	0\\
141	0\\
142	0\\
143	0\\
144	0\\
145	0\\
146	0\\
147	0\\
148	0\\
149	0\\
150	0\\
151	0\\
152	0\\
153	0\\
154	0\\
155	0\\
156	0\\
157	0\\
158	0\\
159	0\\
160	0\\
161	0\\
162	0\\
163	0\\
164	0\\
165	0\\
166	0\\
167	0\\
168	0\\
169	0\\
170	0\\
171	0\\
172	0\\
173	0\\
174	0\\
175	0\\
176	0\\
177	0\\
178	0\\
179	0\\
180	0\\
181	0\\
182	0\\
183	0\\
184	0\\
185	0\\
186	0\\
187	0\\
188	0\\
189	0\\
190	0\\
191	0\\
192	0\\
193	0\\
194	0\\
195	0\\
196	0\\
197	0\\
198	0\\
199	0\\
200	0\\
};
\addlegendentry{$\mathbf{h_{2}}$}

\end{axis}

\begin{axis}[%
width=1.935in,
height=3.2in,
at={(3.327in,0.512in)},
scale only axis,
xmin=0,
xmax=200,
xlabel style={font=\color{white!15!black}, align=center},
xlabel={Sample Index\\[1ex](b) Estimated},
ymin=0,
ymax=0.5,
axis background/.style={fill=white},
legend style={legend cell align=left, align=left, draw=white!15!black}
]
\addplot [color=mycolor1]
  table[row sep=crcr]{%
0	0.00245087054612133\\
1	0.00535478295789207\\
2	0.00636311814205096\\
3	0.0055452995180197\\
4	0.00446352246115148\\
5	0.0111240876316755\\
6	0.0118709915997417\\
7	0.0229469676838002\\
8	0.0431131046366775\\
9	0.05965376357086\\
10	0.0431321669139528\\
11	0.0745130236931433\\
12	0.106505383835693\\
13	0.107151203745044\\
14	0.102125300132724\\
15	0.242054269338881\\
16	0.282548882573929\\
17	0.0812423680071298\\
18	0.0572295801578201\\
19	0.0128726691009012\\
20	0.0747373252138426\\
21	0.121078359991396\\
22	0.143806997400926\\
23	0.123983438357792\\
24	0.110215395541332\\
25	0.0344569640883404\\
26	0.044652599939344\\
27	0.0856437327276885\\
28	0.131807338378018\\
29	0.045708492237651\\
30	0.0436348379548383\\
31	0.121469917764138\\
32	0.247150669164647\\
33	0.0813717235972715\\
34	0.176395338806458\\
35	0.366905599837227\\
36	0.20914965089772\\
37	0.0643588741221148\\
38	0.168911039110474\\
39	0.0800780352545552\\
40	0.0985128116266371\\
41	0.0974969931805221\\
42	0.0340907450372419\\
43	0.0789701931924931\\
44	0.0563038737329737\\
45	0.0952857326293006\\
46	0.110220296568005\\
47	0.05139182227384\\
48	0.0999745480471594\\
49	0.108929024451903\\
50	0.082553511362187\\
51	0.331805750607325\\
52	0.286310444809737\\
53	0.0464681437932603\\
54	0.0312119388218613\\
55	0.0436504177198145\\
56	0.00714714007932734\\
57	0.0963697978326712\\
58	0.123842466846716\\
59	0.0531059092492071\\
60	0.0566358812402001\\
61	0.0135858950780038\\
62	0.0571375573662082\\
63	0.0584395563152626\\
64	0.0293830362598573\\
65	0.0202519773809506\\
66	0.0271213389942477\\
67	0.0427134383519277\\
68	0.0937154758360439\\
69	0.0545123879425584\\
70	0.0744860646619105\\
71	0.151423348263287\\
72	0.0880829040275185\\
73	0.0193213689402295\\
74	0.0105373861628437\\
75	0.011932741031576\\
76	0.0126298406580018\\
77	0.00541487645956793\\
78	0.0155654711882524\\
79	0.0169425410445402\\
80	0.00662756548331722\\
81	0.0200018213517108\\
82	0.0297897793637877\\
83	0.0193574442162393\\
84	0.0142443428127011\\
85	0.00723872909541177\\
86	0.00492323894008421\\
87	0.00542733965979918\\
88	0.0111638679020259\\
89	0.00888277867914076\\
90	0.00869882719760527\\
91	0.00387504593590051\\
92	0.0100119593644008\\
93	0.00946147034078177\\
94	0.00438911122444923\\
95	0.00521542843205545\\
96	0.00164688268555636\\
97	0.00109566089465866\\
98	0.00223529331510977\\
99	0.0036711570494486\\
100	0.00436547054891732\\
101	0.00366229875963217\\
102	0.00334547727770006\\
103	0.00590706760512277\\
104	0.0119115131196612\\
105	0.00891014393634062\\
106	0.00524476728724897\\
107	0.00316070020508175\\
108	0.00141222263173398\\
109	0.000915353918214595\\
110	0.00257541584691242\\
111	0.00155064436634194\\
112	0.00104443569864853\\
113	0.00184315756718571\\
114	0.00199465168376623\\
115	0.00203159737128124\\
116	0.00288696544131549\\
117	0.000867853735759536\\
118	0.000960427846879996\\
119	0.00126964843298593\\
120	0.00183097510709019\\
121	0.000734548001480286\\
122	0.000247470853599996\\
123	0.00507294757389078\\
124	0.00357011699146819\\
125	0.00212723525641864\\
126	0.000117395413762492\\
127	0.00118123446224852\\
128	0.000539728055656006\\
129	0.000849945759744861\\
130	0.000565639768402753\\
131	0.000958353075997416\\
132	0.00047530692106312\\
133	0.000383918966434063\\
134	0.0015124419331858\\
135	0.00064030859560131\\
136	0.000944672431530195\\
137	0.000537026915747444\\
138	0.000662590166269088\\
139	0.000502542053166822\\
140	0.000836105881826692\\
141	0.000531654286551222\\
142	0.000641754877080341\\
143	0.00063551327575554\\
144	0.000487581326420995\\
145	0.000712378208940385\\
146	0.00056609074677212\\
147	0.000595635134632905\\
148	0.000583502282778503\\
149	0.000540260964520634\\
150	0.000553069271641273\\
151	0.000582921702687619\\
152	0.00054285336727039\\
153	0.000519295972050703\\
154	0.000634920591409285\\
155	0.000456392136402559\\
156	0.000536869018951971\\
157	0.000496509169912732\\
158	0.000603775116332083\\
159	0.000499692267763868\\
160	0.000479007046425288\\
161	0.000553631844384487\\
162	0.000466377729743385\\
163	0.000603482964864357\\
164	0.000312913747387134\\
165	0.000800637199857535\\
166	0.00035039643116638\\
167	0.000838720343908056\\
168	0.000252526820158011\\
169	0.000545135009475382\\
170	0.00060703909109037\\
171	0.000352745709046229\\
172	0.000600850897030137\\
173	0.000381220826273115\\
174	0.000604611607956168\\
175	0.000321160233459586\\
176	0.000583512529852125\\
177	0.000452387947084184\\
178	0.00045038560298193\\
179	0.000364081697935279\\
180	0.000473621201165783\\
181	0.000576767121451843\\
182	0.000447740900919449\\
183	0.000411425135139292\\
184	0.000422546476027658\\
185	0.0008864461890048\\
186	0.000911006679397746\\
187	0.00073205085107655\\
188	0.000401525994291103\\
189	0.000527581834464543\\
190	0.000358759709525324\\
191	0.000509923809944628\\
192	0.000547975309619359\\
193	0.000443601947760201\\
194	0.000308709364408559\\
195	0.000365653889895602\\
196	0.000609648697606083\\
197	0.000173312935223707\\
198	0.000426353552859056\\
199	0.000116164097057964\\
};
\addlegendentry{$\mathbf{\hat{h}_{1}}$}

\addplot [color=mycolor2]
  table[row sep=crcr]{%
0	0.000771013587164743\\
1	0.00164677153522925\\
2	0.00183671998102497\\
3	0.00139715049947609\\
4	0.000857786539245877\\
5	0.00260969057704245\\
6	0.00193997842445016\\
7	0.00230814985785967\\
8	0.00199874868651495\\
9	0.00205905079174563\\
10	0.00249389066255756\\
11	0.00277072225854893\\
12	0.00244269530371708\\
13	0.00337666389455789\\
14	0.00317356697949042\\
15	0.00343226803862609\\
16	0.00428626281234627\\
17	0.00460694496566347\\
18	0.00556146522628113\\
19	0.00705237177667006\\
20	0.00909662282756762\\
21	0.0144814506741021\\
22	0.154434257149853\\
23	0.264184182727555\\
24	0.00985447863678626\\
25	0.121223567616576\\
26	0.223141238729584\\
27	0.462604133539698\\
28	0.18610568267831\\
29	0.0648020800704948\\
30	0.0987079337189074\\
31	0.00811197361468859\\
32	0.125525790447441\\
33	0.207916365326971\\
34	0.174007422454726\\
35	0.124772261176029\\
36	0.124984412974321\\
37	0.0618237982410963\\
38	0.0539690974290676\\
39	0.041373403574361\\
40	0.0247002705286061\\
41	0.0485342715949696\\
42	0.0536591899061037\\
43	0.0556972647613954\\
44	0.085449361467783\\
45	0.101973782664243\\
46	0.445774173720841\\
47	0.446520054177824\\
48	0.149344080586953\\
49	0.00922457009691444\\
50	0.00251169678192559\\
51	0.00609013199601682\\
52	0.0127656867775078\\
53	0.00434127761950586\\
54	0.00147200552606765\\
55	0.00209855234110156\\
56	0.0035430498143789\\
57	0.00528631334296559\\
58	0.0055265686815097\\
59	0.0114225186022451\\
60	0.00902839936064121\\
61	0.00948564094315444\\
62	0.0153107626496231\\
63	0.0249188377476595\\
64	0.0192467498826522\\
65	0.0114765472540787\\
66	0.00753594318835289\\
67	0.00409341644317543\\
68	0.00460438845098682\\
69	0.00326309523555548\\
70	0.00259347307105624\\
71	0.00175186592753864\\
72	0.000904878456935539\\
73	0.00162889508226055\\
74	0.00120698653585572\\
75	0.00163707421289332\\
76	0.0014121663788402\\
77	0.00113650781492004\\
78	0.00162453127144072\\
79	0.00738222334037572\\
80	0.00929108052082594\\
81	0.0118254090523192\\
82	0.00831115355054137\\
83	0.0015219550193008\\
84	0.00140983725741404\\
85	0.000783715274743665\\
86	0.0012446586941062\\
87	0.00200015952845168\\
88	0.00194497568877316\\
89	0.00106295385037355\\
90	0.000374885294549387\\
91	0.000705590982808501\\
92	0.000228795832313191\\
93	0.000662080556363685\\
94	0.000882796297055057\\
95	0.00093100334176286\\
96	0.000603324553742174\\
97	0.00129687570072566\\
98	0.00547459696118607\\
99	0.00879686682615902\\
100	0.00474959282758234\\
101	0.000648962359219874\\
102	3.92182018461031e-06\\
103	2.58353040969949e-06\\
104	7.92024357334109e-06\\
105	6.9523548856168e-06\\
106	2.55331089677019e-06\\
107	6.41255564791872e-06\\
108	6.36835790899085e-06\\
109	3.38456780780825e-06\\
110	4.48870501450666e-06\\
111	3.65760324957278e-06\\
112	2.07553107138255e-06\\
113	2.86827712356108e-06\\
114	7.53413893761764e-06\\
115	1.11222603676639e-05\\
116	3.26349123422429e-06\\
117	8.04180002541186e-06\\
118	4.10912039926107e-06\\
119	4.25385330179498e-06\\
120	2.51237653827879e-06\\
121	9.56237494571968e-06\\
122	9.3442409974469e-06\\
123	6.75469196925179e-06\\
124	1.25960337835051e-05\\
125	1.73787553020642e-05\\
126	1.33045986371516e-05\\
127	7.55810005353191e-06\\
128	2.80842844090453e-06\\
129	4.3404174112857e-06\\
130	7.09768860851534e-06\\
131	5.2272533399818e-06\\
132	1.46493432149306e-05\\
133	1.39584739115528e-05\\
134	5.30006078418627e-06\\
135	1.28258852782227e-06\\
136	2.0229971132466e-07\\
137	4.13929379765831e-06\\
138	4.95288924943949e-06\\
139	5.25253186990001e-06\\
140	4.9076165872378e-06\\
141	2.23338467576771e-06\\
142	4.95985946189804e-07\\
143	2.82729624204204e-06\\
144	1.19766380699615e-05\\
145	2.01893278763577e-05\\
146	1.76701456593139e-05\\
147	1.37353609492976e-05\\
148	1.08881682269023e-05\\
149	2.8479142113031e-06\\
150	9.24779340200781e-06\\
151	2.42305299690073e-05\\
152	2.09888724322085e-05\\
153	7.43405769438551e-06\\
154	7.65337435668708e-06\\
155	1.20304795023975e-05\\
156	2.12444822873373e-05\\
157	1.94523462151751e-05\\
158	6.0111477243172e-06\\
159	1.82372873805227e-05\\
160	3.70306384011159e-05\\
161	4.48703068963437e-05\\
162	3.09089111720268e-05\\
163	1.2635621792688e-05\\
164	4.2132646451253e-05\\
165	8.14652723874221e-05\\
166	0.00013077199283472\\
167	0.000156426175106332\\
168	0.000108437885252416\\
169	3.06798744470077e-05\\
170	6.47955092707985e-05\\
171	5.06307004880138e-05\\
172	6.05572993381457e-05\\
173	5.26973840096851e-05\\
174	6.63146650900731e-05\\
175	0.00012211312328633\\
176	0.000323491656274697\\
177	0.00059628461177287\\
178	0.000670146557328534\\
179	0.00040103189095841\\
180	0.000281174490615102\\
181	0.000322526152714265\\
182	0.000143223802325386\\
183	0.000243001430725044\\
184	6.27452832039097e-05\\
185	0.000257334428133587\\
186	0.000283350536430094\\
187	0.000253683625605084\\
188	5.30549365634815e-05\\
189	0.000133941309337169\\
190	5.97470502127705e-05\\
191	7.47364338187094e-05\\
192	0.000116469424496479\\
193	0.000128568071197198\\
194	0.000137967111291604\\
195	9.49301143322381e-05\\
196	0.000246405563107807\\
197	0.00113351349510877\\
198	0.00108008237076367\\
199	0.000204151714515488\\
};
\addlegendentry{$\mathbf{\hat{h}_{2}}$}

\end{axis}

\begin{axis}[%
width=5.833in,
height=4.375in,
at={(0in,0in)},
scale only axis,
xmin=0,
xmax=1,
ymin=0,
ymax=1,
axis line style={draw=none},
ticks=none,
axis x line*=bottom,
axis y line*=left,
legend style={legend cell align=left, align=left, draw=white!15!black}
]
\end{axis}
\end{tikzpicture}%