% This file was created by matlab2tikz.
%
%The latest updates can be retrieved from
%  http://www.mathworks.com/matlabcentral/fileexchange/22022-matlab2tikz-matlab2tikz
%where you can also make suggestions and rate matlab2tikz.
%
\definecolor{mycolor1}{rgb}{0.00000,0.44700,0.74100}%
\definecolor{mycolor2}{rgb}{0.85000,0.32500,0.09800}%
%
\begin{tikzpicture}

\begin{axis}[%
width=1.935in,
height=3.2in,
at={(0.758in,0.512in)},
scale only axis,
xmin=0,
xmax=200,
xlabel style={font=\color{white!15!black}, align=center},
xlabel={Sample Index\\[1ex](a) Actual},
ymin=0,
ymax=1,
axis background/.style={fill=white},
legend style={legend cell align=left, align=left, draw=white!15!black}
]
\addplot [color=mycolor1]
  table[row sep=crcr]{%
1	0.0167418731260698\\
2	0.018659722218203\\
3	0.0211495716349754\\
4	0.0245407494314006\\
5	0.029505643974117\\
6	0.0377161636169434\\
7	0.0550750576238134\\
8	0.131028403455825\\
9	0.141533477104454\\
10	0.158175166246243\\
11	0.163761757297189\\
12	0.600100605556833\\
13	0.118033417583129\\
14	0.0610914209628117\\
15	0.0426162246246858\\
16	0.0332715711707656\\
17	0.0321939439283243\\
18	0.0268871008873183\\
19	0.0316920608120786\\
20	0.0286771919664519\\
21	0.00773119825769845\\
22	0.0330073087209196\\
23	0.019415059292473\\
24	0.0177688778425817\\
25	0.0188194600762088\\
26	0.0237714798713867\\
27	0.0430806655948836\\
28	0.586023006720236\\
29	0.0970905103802927\\
30	0.0246981078960262\\
31	0.0780346253424249\\
32	0.0580455436901626\\
33	0.0681836526256362\\
34	0.163824852865525\\
35	0.0446106828365612\\
36	0.06119675966513\\
37	0.00907835157153909\\
38	0.0310093774848825\\
39	0.00125972832884384\\
40	0.005422098150711\\
41	0.0107374596162295\\
42	0.0165479326643041\\
43	0.024789327411243\\
44	0.0446277431282512\\
45	0.058019450740893\\
46	0.074843365423057\\
47	0.199666615467323\\
48	0.216838516027539\\
49	0.0783890355452335\\
50	0.0495529240878659\\
51	0.0370791446049236\\
52	0.0307530810094058\\
53	0.0155757068681131\\
54	0.0198807977432187\\
55	0.0179871495341263\\
56	0.0162887905400521\\
57	0.0148728268904216\\
58	0.0136909847461918\\
59	0.0126943671543235\\
60	0.011846112844806\\
61	0.0111233301448608\\
62	0.0105291449791113\\
63	0.0102108676347222\\
64	0.00751288118280402\\
65	0.00739035992869396\\
66	0.0116365722557393\\
67	0.00899390796280924\\
68	0.00831157148096884\\
69	0.00788086875151191\\
70	0.00754217236777393\\
71	0.00725475830161164\\
72	0.00700327644843893\\
73	0.006780818536885\\
74	0.00658453626015097\\
75	0.00641472878078445\\
76	0.00627599401250467\\
77	0.00618216997550965\\
78	0.00617516728867787\\
79	0.00642745729543014\\
80	0.00873051939586948\\
81	0.00471465923588381\\
82	0.00195996010568866\\
83	0.004980313957114\\
84	0.00475839614864904\\
85	0.00464733241660508\\
86	0.00455444244400457\\
87	0.00446749239384432\\
88	0.00438406292262191\\
89	0.00430366820355207\\
90	0.00422628355118023\\
91	0.00415201532524293\\
92	0.00408104289588831\\
93	0.00401365198230764\\
94	0.00395033763548775\\
95	0.00389203620501121\\
96	0.00384070443755282\\
97	0.00380107128140597\\
98	0.00378779867734327\\
99	0.00387836096292209\\
100	0.00228454900881806\\
101	0.00321909463290553\\
102	0.00328982387499096\\
103	0.00328100374444436\\
104	0.00325253146337885\\
105	0.00321692683031362\\
106	0.00317840637543852\\
107	0.00313876414674543\\
108	0.00309887602618152\\
109	0.00305920797263281\\
110	0.00302002111537278\\
111	0.00298146552488656\\
112	0.00294362726599965\\
113	0.0029065537719176\\
114	0.00287026833389302\\
115	0.00283477876811283\\
116	0.00280008280049957\\
117	0.00276617151884636\\
118	0.00273303164395387\\
119	0.00270064705586787\\
120	0.00266899983729428\\
121	0.00263807099659409\\
122	0.00260784097374635\\
123	0.00257828999668392\\
124	0.00254939833288439\\
125	0.00252114646667125\\
126	0.00249351522323938\\
127	0.00246648585412356\\
128	0.00244004009455901\\
129	0.00241416020024051\\
130	0.00238882896892876\\
131	0.0023640297508985\\
132	0.00233974645117835\\
133	0.00231596352577768\\
134	0.00229266597354371\\
135	0.00226983932488367\\
136	0.00224746962828519\\
137	0.00222554343533969\\
138	0.00220404778480324\\
139	0.00218297018609978\\
140	0.00216229860257188\\
141	0.00214202143470905\\
142	0.00212212750352594\\
143	0.00210260603421662\\
144	0.00208344664017788\\
145	0.00206463930746792\\
146	0.00204617437974413\\
147	0.00202804254371082\\
148	0.00201023481509265\\
149	0.00199274252514179\\
150	0.00197555730767936\\
151	0.0019586710866655\\
152	0.00194207606428942\\
153	0.00192576470956709\\
154	0.00190972974743187\\
155	0.00189396414830307\\
156	0.00187846111811499\\
157	0.00186321408878906\\
158	0.00184821670913216\\
159	0.00183346283614256\\
160	0.00181894652670628\\
161	0.00180466202966742\\
162	0.00179060377825436\\
163	0.00177676638284649\\
164	0.00176314462406556\\
165	0.00174973344617591\\
166	0.0017365279507797\\
167	0.00172352339079259\\
168	0.00171071516468654\\
169	0.00169809881098722\\
170	0.00168567000301325\\
171	0.00167342454384613\\
172	0.00166135836151948\\
173	0.00164946750441694\\
174	0.00163774813686889\\
175	0.00162619653493841\\
176	0.00161480908238697\\
177	0.00160358226681213\\
178	0.001592512675948\\
179	0.00158159699412143\\
180	0.00157083199885632\\
181	0.00156021455761888\\
182	0.00154974162469766\\
183	0.00153941023821136\\
184	0.00152921751723897\\
185	0.00151916065906659\\
186	0.00150923693654504\\
187	0.00149944369555362\\
188	0.00148977835256491\\
189	0.00148023839230615\\
190	0.0014708213655126\\
191	0.00146152488676917\\
192	0.00145234663243548\\
193	0.00144328433865201\\
194	0.00143433579942216\\
195	0.0014254988647679\\
196	0.00141677143895562\\
197	0.00140815147878894\\
198	0.00139963699196521\\
199	0\\
200	0\\
};
\addlegendentry{$\mathbf{h_1}$}

\addplot [color=mycolor2]
  table[row sep=crcr]{%
1	0.00495033386861547\\
2	0.00515738368500011\\
3	0.00538309861623286\\
4	0.00563019833310769\\
5	0.00590197136255583\\
6	0.00620243506959928\\
7	0.00653655369620811\\
8	0.00691054090538825\\
9	0.00733228812251618\\
10	0.00781198494389501\\
11	0.00836304134465097\\
12	0.0090034999823859\\
13	0.00975827527656913\\
14	0.0106628508662167\\
15	0.0117696896019869\\
16	0.0131600228416925\\
17	0.0149671880151623\\
18	0.0174273921400842\\
19	0.0210049332363351\\
20	0.0267613442180004\\
21	0.037792597580649\\
22	0.068721841139076\\
23	0.97572931769219\\
24	0.0649085399616321\\
25	0.0262918397391367\\
26	0.0126468169615953\\
27	0.00419508123086451\\
28	0.0214241856295046\\
29	0.0134643328328179\\
30	0.00412679327935559\\
31	0.0112712342656943\\
32	0.0282552508318709\\
33	0.111702725947746\\
34	0.12653020104749\\
35	0.0361926668223949\\
36	0.024130019396178\\
37	0.019518168382204\\
38	0.0163235660243771\\
39	0.0140849625225472\\
40	0.0124312948441269\\
41	0.0111552918846637\\
42	0.0101369616841952\\
43	0.00930266674553233\\
44	0.00860476970863487\\
45	0.00801105372801389\\
46	0.00749890841387189\\
47	0.00705196472677567\\
48	0.00665805661850076\\
49	0.0063079366485928\\
50	0.00599443852440938\\
51	0.00571191453485358\\
52	0.00545584764793091\\
53	0.0052225778141873\\
54	0.00500910486747672\\
55	0.00481294397681212\\
56	0.00463201789166602\\
57	0.00446457542356871\\
58	0.00430912894812168\\
59	0.00416440590497024\\
60	0.00402931074167137\\
61	0.00390289474814389\\
62	0.00378433192171684\\
63	0.00367289949042518\\
64	0.0035679620699816\\
65	0.00346895868109233\\
66	0.00337539203747226\\
67	0.00328681965070268\\
68	0.00320284639950925\\
69	0\\
70	0\\
71	0\\
72	0\\
73	0\\
74	0\\
75	0\\
76	0\\
77	0\\
78	0\\
79	0\\
80	0\\
81	0\\
82	0\\
83	0\\
84	0\\
85	0\\
86	0\\
87	0\\
88	0\\
89	0\\
90	0\\
91	0\\
92	0\\
93	0\\
94	0\\
95	0\\
96	0\\
97	0\\
98	0\\
99	0\\
100	0\\
101	0\\
102	0\\
103	0\\
104	0\\
105	0\\
106	0\\
107	0\\
108	0\\
109	0\\
110	0\\
111	0\\
112	0\\
113	0\\
114	0\\
115	0\\
116	0\\
117	0\\
118	0\\
119	0\\
120	0\\
121	0\\
122	0\\
123	0\\
124	0\\
125	0\\
126	0\\
127	0\\
128	0\\
129	0\\
130	0\\
131	0\\
132	0\\
133	0\\
134	0\\
135	0\\
136	0\\
137	0\\
138	0\\
139	0\\
140	0\\
141	0\\
142	0\\
143	0\\
144	0\\
145	0\\
146	0\\
147	0\\
148	0\\
149	0\\
150	0\\
151	0\\
152	0\\
153	0\\
154	0\\
155	0\\
156	0\\
157	0\\
158	0\\
159	0\\
160	0\\
161	0\\
162	0\\
163	0\\
164	0\\
165	0\\
166	0\\
167	0\\
168	0\\
169	0\\
170	0\\
171	0\\
172	0\\
173	0\\
174	0\\
175	0\\
176	0\\
177	0\\
178	0\\
179	0\\
180	0\\
181	0\\
182	0\\
183	0\\
184	0\\
185	0\\
186	0\\
187	0\\
188	0\\
189	0\\
190	0\\
191	0\\
192	0\\
193	0\\
194	0\\
195	0\\
196	0\\
197	0\\
198	0\\
199	0\\
200	0\\
};
\addlegendentry{$\mathbf{h_{2}}$}

\end{axis}

\begin{axis}[%
width=1.935in,
height=3.2in,
at={(3.327in,0.512in)},
scale only axis,
xmin=0,
xmax=100,
xlabel style={font=\color{white!15!black}, align=center},
xlabel={Sample Index\\[1ex](b) Estimated},
ymin=0,
ymax=0.6,
axis background/.style={fill=white},
legend style={legend cell align=left, align=left, draw=white!15!black}
]
\addplot [color=mycolor1]
  table[row sep=crcr]{%
0	0.0194461322794799\\
1	0.034792989076953\\
2	0.0238597260643187\\
3	0.0109249137060624\\
4	0.0233064381600605\\
5	0.0108802469583036\\
6	0.0191977929712265\\
7	0.0213498496449458\\
8	0.0261693743214347\\
9	0.014758072237574\\
10	0.083517897896626\\
11	0.0932724106002712\\
12	0.126000638979805\\
13	0.144476958473924\\
14	0.105035423278123\\
15	0.0408449173276721\\
16	0.102597649215653\\
17	0.116533233103768\\
18	0.0277160955861913\\
19	0.0613777633036828\\
20	0.0675393806700212\\
21	0.0941237327726421\\
22	0.161359105340893\\
23	0.242507920608459\\
24	0.157944239303607\\
25	0.0635613263931981\\
26	0.141944405775816\\
27	0.107458087890398\\
28	0.145904028429441\\
29	0.19718303911668\\
30	0.108833353461166\\
31	0.127800745279375\\
32	0.0411284362941959\\
33	0.188855838230753\\
34	0.115807757755944\\
35	0.216255318660393\\
36	0.144372121779474\\
37	0.169653389862545\\
38	0.207525918977028\\
39	0.302819969916009\\
40	0.139733735155291\\
41	0.0534209660217691\\
42	0.083911945899875\\
43	0.0977677484882108\\
44	0.0704300542712537\\
45	0.00917260937096382\\
46	0.149450220195588\\
47	0.100018094993344\\
48	0.0592155561911308\\
49	0.0863175399327881\\
50	0.0730216012730535\\
51	0.0165746232739498\\
52	0.0899102218699384\\
53	0.127588482545481\\
54	0.296324371691729\\
55	0.049859028589418\\
56	0.0879853764255549\\
57	0.166204146354041\\
58	0.139443787287726\\
59	0.139078488522697\\
60	0.0552212916199544\\
61	0.0295639822693864\\
62	0.0594147602306828\\
63	0.103137362543032\\
64	0.0720744368116163\\
65	0.013252523015442\\
66	0.0844219899296807\\
67	0.0540309205914191\\
68	0.0433588443111642\\
69	0.0203886191111344\\
70	0.0240707708236687\\
71	0.0940789185913249\\
72	0.0724524639486863\\
73	0.106064184273172\\
74	0.0894657531425768\\
75	0.0641701057421749\\
76	0.0211803644652003\\
77	0.0390647394498833\\
78	0.0465184815612343\\
79	0.0266333205404218\\
80	0.0505701957163183\\
81	0.0232422813221934\\
82	0.0200736359350953\\
83	0.0234611669571896\\
84	0.00800579070612818\\
85	0.0170803179538126\\
86	0.0166379118451597\\
87	0.0126948243103744\\
88	0.0109750951764112\\
89	0.0169695008900885\\
90	0.00916338248150545\\
91	0.0359053483952665\\
92	0.0415142676243168\\
93	0.048989016469049\\
94	0.00506475694433741\\
95	0.0172841886764948\\
96	0.00743386966348135\\
97	0.00678715010720765\\
98	0.01986950255804\\
99	0.0182607863112753\\
};
\addlegendentry{$\mathbf{\hat{h}_{1}}$}

\addplot [color=mycolor2]
  table[row sep=crcr]{%
0	0.000704622176896569\\
1	0.000335260684278442\\
2	0.001491462698252\\
3	0.00192819240963891\\
4	0.000451082395800379\\
5	0.00219502029346826\\
6	0.00246951105615395\\
7	0.00331013548352394\\
8	0.00447742156732589\\
9	0.00620329052027369\\
10	0.00997835742642971\\
11	0.018278948535071\\
12	0.026686158611555\\
13	0.0474257229547769\\
14	0.0482994237072159\\
15	0.0267629598565616\\
16	0.0462929139227281\\
17	0.0575609478258444\\
18	0.0119692249200266\\
19	0.0999882968201954\\
20	0.0675043555840942\\
21	0.100203943501681\\
22	0.14380344133162\\
23	0.104882310893851\\
24	0.174058850948632\\
25	0.150979623803149\\
26	0.0778720414386298\\
27	0.0555270873557822\\
28	0.129564271567054\\
29	0.064613841108054\\
30	0.108322910458526\\
31	0.0858942392732209\\
32	0.10927000202373\\
33	0.181028006937298\\
34	0.283253685987476\\
35	0.201065560670874\\
36	0.110540527198616\\
37	0.0759667966231343\\
38	0.170027255502825\\
39	0.144864097724342\\
40	0.157536950635122\\
41	0.0928709047287822\\
42	0.192280274262078\\
43	0.052340477037388\\
44	0.0512516785109078\\
45	0.119348168476826\\
46	0.0797725818987456\\
47	0.0969476308243054\\
48	0.209802092590478\\
49	0.547116147591579\\
50	0.153734397650376\\
51	0.127790317335063\\
52	0.0303473031638772\\
53	0.0527032149829031\\
54	0.0465514354623837\\
55	0.0843638470100431\\
56	0.0688210355355237\\
57	0.0744181370221525\\
58	0.0507171068890247\\
59	0.0915038833669632\\
60	0.0524023409956336\\
61	0.0732697392947413\\
62	0.0268558411954749\\
63	0.0352533597700274\\
64	0.0205147566683072\\
65	0.0356076165121043\\
66	0.0789763965992682\\
67	0.126886797682995\\
68	0.131295367891418\\
69	0.0979477164761153\\
70	0.050630416267228\\
71	0.0255620264562567\\
72	0.0149471018189102\\
73	0.0126077722500714\\
74	0.0622945807348423\\
75	0.0302531100764431\\
76	0.00951318197196972\\
77	0.0223473917752068\\
78	0.030612483682532\\
79	0.026242187024903\\
80	0.00281027051724943\\
81	0.00678751437169404\\
82	0.0188141186605792\\
83	0.00574965038603698\\
84	0.0155889141064405\\
85	0.0125551184317159\\
86	0.013220169562303\\
87	0.00774435248402677\\
88	0.00194186982883421\\
89	0.00346562780732883\\
90	0.0025769311887723\\
91	0.000599903346640393\\
92	0.00526288470513333\\
93	0.00388980094255595\\
94	0.00311970003488774\\
95	0.00301328016817028\\
96	0.00173380402294533\\
97	0.00140347963615213\\
98	0.000669387791613535\\
99	0.00208475590312895\\
};
\addlegendentry{$\mathbf{\hat{h}_{2}}$}

\end{axis}
\end{tikzpicture}%