% This file was created by matlab2tikz.
%
%The latest updates can be retrieved from
%  http://www.mathworks.com/matlabcentral/fileexchange/22022-matlab2tikz-matlab2tikz
%where you can also make suggestions and rate matlab2tikz.
%
\definecolor{mycolor1}{rgb}{0.00000,0.44700,0.74100}%
\definecolor{mycolor2}{rgb}{0.85000,0.32500,0.09800}%
%
\begin{tikzpicture}

\begin{axis}[%
width=1.935in,
height=3.2in,
at={(0.758in,0.512in)},
scale only axis,
xmin=0,
xmax=200,
xlabel style={font=\color{white!15!black}, align=center},
xlabel={Sample Index\\[1ex](a) Actual},
ymin=0,
ymax=1,
axis background/.style={fill=white},
legend style={legend cell align=left, align=left, draw=white!15!black}
]
\addplot [color=mycolor1]
  table[row sep=crcr]{%
1	0.0167418731260698\\
2	0.018659722218203\\
3	0.0211495716349754\\
4	0.0245407494314006\\
5	0.029505643974117\\
6	0.0377161636169434\\
7	0.0550750576238134\\
8	0.131028403455825\\
9	0.141533477104454\\
10	0.158175166246243\\
11	0.163761757297189\\
12	0.600100605556833\\
13	0.118033417583129\\
14	0.0610914209628117\\
15	0.0426162246246858\\
16	0.0332715711707656\\
17	0.0321939439283243\\
18	0.0268871008873183\\
19	0.0316920608120786\\
20	0.0286771919664519\\
21	0.00773119825769845\\
22	0.0330073087209196\\
23	0.019415059292473\\
24	0.0177688778425817\\
25	0.0188194600762088\\
26	0.0237714798713867\\
27	0.0430806655948836\\
28	0.586023006720236\\
29	0.0970905103802927\\
30	0.0246981078960262\\
31	0.0780346253424249\\
32	0.0580455436901626\\
33	0.0681836526256362\\
34	0.163824852865525\\
35	0.0446106828365612\\
36	0.06119675966513\\
37	0.00907835157153909\\
38	0.0310093774848825\\
39	0.00125972832884384\\
40	0.005422098150711\\
41	0.0107374596162295\\
42	0.0165479326643041\\
43	0.024789327411243\\
44	0.0446277431282512\\
45	0.058019450740893\\
46	0.074843365423057\\
47	0.199666615467323\\
48	0.216838516027539\\
49	0.0783890355452335\\
50	0.0495529240878659\\
51	0.0370791446049236\\
52	0.0307530810094058\\
53	0.0155757068681131\\
54	0.0198807977432187\\
55	0.0179871495341263\\
56	0.0162887905400521\\
57	0.0148728268904216\\
58	0.0136909847461918\\
59	0.0126943671543235\\
60	0.011846112844806\\
61	0.0111233301448608\\
62	0.0105291449791113\\
63	0.0102108676347222\\
64	0.00751288118280402\\
65	0.00739035992869396\\
66	0.0116365722557393\\
67	0.00899390796280924\\
68	0.00831157148096884\\
69	0.00788086875151191\\
70	0.00754217236777393\\
71	0.00725475830161164\\
72	0.00700327644843893\\
73	0.006780818536885\\
74	0.00658453626015097\\
75	0.00641472878078445\\
76	0.00627599401250467\\
77	0.00618216997550965\\
78	0.00617516728867787\\
79	0.00642745729543014\\
80	0.00873051939586948\\
81	0.00471465923588381\\
82	0.00195996010568866\\
83	0.004980313957114\\
84	0.00475839614864904\\
85	0.00464733241660508\\
86	0.00455444244400457\\
87	0.00446749239384432\\
88	0.00438406292262191\\
89	0.00430366820355207\\
90	0.00422628355118023\\
91	0.00415201532524293\\
92	0.00408104289588831\\
93	0.00401365198230764\\
94	0.00395033763548775\\
95	0.00389203620501121\\
96	0.00384070443755282\\
97	0.00380107128140597\\
98	0.00378779867734327\\
99	0.00387836096292209\\
100	0.00228454900881806\\
101	0.00321909463290553\\
102	0.00328982387499096\\
103	0.00328100374444436\\
104	0.00325253146337885\\
105	0.00321692683031362\\
106	0.00317840637543852\\
107	0.00313876414674543\\
108	0.00309887602618152\\
109	0.00305920797263281\\
110	0.00302002111537278\\
111	0.00298146552488656\\
112	0.00294362726599965\\
113	0.0029065537719176\\
114	0.00287026833389302\\
115	0.00283477876811283\\
116	0.00280008280049957\\
117	0.00276617151884636\\
118	0.00273303164395387\\
119	0.00270064705586787\\
120	0.00266899983729428\\
121	0.00263807099659409\\
122	0.00260784097374635\\
123	0.00257828999668392\\
124	0.00254939833288439\\
125	0.00252114646667125\\
126	0.00249351522323938\\
127	0.00246648585412356\\
128	0.00244004009455901\\
129	0.00241416020024051\\
130	0.00238882896892876\\
131	0.0023640297508985\\
132	0.00233974645117835\\
133	0.00231596352577768\\
134	0.00229266597354371\\
135	0.00226983932488367\\
136	0.00224746962828519\\
137	0.00222554343533969\\
138	0.00220404778480324\\
139	0.00218297018609978\\
140	0.00216229860257188\\
141	0.00214202143470905\\
142	0.00212212750352594\\
143	0.00210260603421662\\
144	0.00208344664017788\\
145	0.00206463930746792\\
146	0.00204617437974413\\
147	0.00202804254371082\\
148	0.00201023481509265\\
149	0.00199274252514179\\
150	0.00197555730767936\\
151	0.0019586710866655\\
152	0.00194207606428942\\
153	0.00192576470956709\\
154	0.00190972974743187\\
155	0.00189396414830307\\
156	0.00187846111811499\\
157	0.00186321408878906\\
158	0.00184821670913216\\
159	0.00183346283614256\\
160	0.00181894652670628\\
161	0.00180466202966742\\
162	0.00179060377825436\\
163	0.00177676638284649\\
164	0.00176314462406556\\
165	0.00174973344617591\\
166	0.0017365279507797\\
167	0.00172352339079259\\
168	0.00171071516468654\\
169	0.00169809881098722\\
170	0.00168567000301325\\
171	0.00167342454384613\\
172	0.00166135836151948\\
173	0.00164946750441694\\
174	0.00163774813686889\\
175	0.00162619653493841\\
176	0.00161480908238697\\
177	0.00160358226681213\\
178	0.001592512675948\\
179	0.00158159699412143\\
180	0.00157083199885632\\
181	0.00156021455761888\\
182	0.00154974162469766\\
183	0.00153941023821136\\
184	0.00152921751723897\\
185	0.00151916065906659\\
186	0.00150923693654504\\
187	0.00149944369555362\\
188	0.00148977835256491\\
189	0.00148023839230615\\
190	0.0014708213655126\\
191	0.00146152488676917\\
192	0.00145234663243548\\
193	0.00144328433865201\\
194	0.00143433579942216\\
195	0.0014254988647679\\
196	0.00141677143895562\\
197	0.00140815147878894\\
198	0.00139963699196521\\
199	0\\
200	0\\
};
\addlegendentry{$\mathbf{h_1}$}

\addplot [color=mycolor2]
  table[row sep=crcr]{%
1	0.00495033386861547\\
2	0.00515738368500011\\
3	0.00538309861623286\\
4	0.00563019833310769\\
5	0.00590197136255583\\
6	0.00620243506959928\\
7	0.00653655369620811\\
8	0.00691054090538825\\
9	0.00733228812251618\\
10	0.00781198494389501\\
11	0.00836304134465097\\
12	0.0090034999823859\\
13	0.00975827527656913\\
14	0.0106628508662167\\
15	0.0117696896019869\\
16	0.0131600228416925\\
17	0.0149671880151623\\
18	0.0174273921400842\\
19	0.0210049332363351\\
20	0.0267613442180004\\
21	0.037792597580649\\
22	0.068721841139076\\
23	0.97572931769219\\
24	0.0649085399616321\\
25	0.0262918397391367\\
26	0.0126468169615953\\
27	0.00419508123086451\\
28	0.0214241856295046\\
29	0.0134643328328179\\
30	0.00412679327935559\\
31	0.0112712342656943\\
32	0.0282552508318709\\
33	0.111702725947746\\
34	0.12653020104749\\
35	0.0361926668223949\\
36	0.024130019396178\\
37	0.019518168382204\\
38	0.0163235660243771\\
39	0.0140849625225472\\
40	0.0124312948441269\\
41	0.0111552918846637\\
42	0.0101369616841952\\
43	0.00930266674553233\\
44	0.00860476970863487\\
45	0.00801105372801389\\
46	0.00749890841387189\\
47	0.00705196472677567\\
48	0.00665805661850076\\
49	0.0063079366485928\\
50	0.00599443852440938\\
51	0.00571191453485358\\
52	0.00545584764793091\\
53	0.0052225778141873\\
54	0.00500910486747672\\
55	0.00481294397681212\\
56	0.00463201789166602\\
57	0.00446457542356871\\
58	0.00430912894812168\\
59	0.00416440590497024\\
60	0.00402931074167137\\
61	0.00390289474814389\\
62	0.00378433192171684\\
63	0.00367289949042518\\
64	0.0035679620699816\\
65	0.00346895868109233\\
66	0.00337539203747226\\
67	0.00328681965070268\\
68	0.00320284639950925\\
69	0\\
70	0\\
71	0\\
72	0\\
73	0\\
74	0\\
75	0\\
76	0\\
77	0\\
78	0\\
79	0\\
80	0\\
81	0\\
82	0\\
83	0\\
84	0\\
85	0\\
86	0\\
87	0\\
88	0\\
89	0\\
90	0\\
91	0\\
92	0\\
93	0\\
94	0\\
95	0\\
96	0\\
97	0\\
98	0\\
99	0\\
100	0\\
101	0\\
102	0\\
103	0\\
104	0\\
105	0\\
106	0\\
107	0\\
108	0\\
109	0\\
110	0\\
111	0\\
112	0\\
113	0\\
114	0\\
115	0\\
116	0\\
117	0\\
118	0\\
119	0\\
120	0\\
121	0\\
122	0\\
123	0\\
124	0\\
125	0\\
126	0\\
127	0\\
128	0\\
129	0\\
130	0\\
131	0\\
132	0\\
133	0\\
134	0\\
135	0\\
136	0\\
137	0\\
138	0\\
139	0\\
140	0\\
141	0\\
142	0\\
143	0\\
144	0\\
145	0\\
146	0\\
147	0\\
148	0\\
149	0\\
150	0\\
151	0\\
152	0\\
153	0\\
154	0\\
155	0\\
156	0\\
157	0\\
158	0\\
159	0\\
160	0\\
161	0\\
162	0\\
163	0\\
164	0\\
165	0\\
166	0\\
167	0\\
168	0\\
169	0\\
170	0\\
171	0\\
172	0\\
173	0\\
174	0\\
175	0\\
176	0\\
177	0\\
178	0\\
179	0\\
180	0\\
181	0\\
182	0\\
183	0\\
184	0\\
185	0\\
186	0\\
187	0\\
188	0\\
189	0\\
190	0\\
191	0\\
192	0\\
193	0\\
194	0\\
195	0\\
196	0\\
197	0\\
198	0\\
199	0\\
200	0\\
};
\addlegendentry{$\mathbf{h_{2}}$}

\end{axis}

\begin{axis}[%
width=1.935in,
height=3.2in,
at={(3.327in,0.512in)},
scale only axis,
xmin=0,
xmax=100,
xlabel style={font=\color{white!15!black}, align=center},
xlabel={Sample Index\\[1ex](b) Estimated},
ymin=0,
ymax=0.8,
axis background/.style={fill=white},
legend style={legend cell align=left, align=left, draw=white!15!black}
]
\addplot [color=mycolor1]
  table[row sep=crcr]{%
0	0.0021913280133648\\
1	0.0075471763136413\\
2	0.00475307801639266\\
3	0.00669219415259875\\
4	0.00048934887443582\\
5	0.00970459422069484\\
6	0.0232694278027821\\
7	0.0111963955868772\\
8	0.00816315648108668\\
9	0.0073158292858501\\
10	0.0341241822357183\\
11	0.0667018119618778\\
12	0.0479217044645262\\
13	0.0185921278053802\\
14	0.0131964101285569\\
15	0.0358181087817702\\
16	0.0418611899625103\\
17	0.0214476900179843\\
18	0.0316010684249922\\
19	0.107405204876846\\
20	0.096464334363472\\
21	0.169534777400726\\
22	0.456907652839555\\
23	0.46720324254686\\
24	0.107306887922333\\
25	0.03771640969639\\
26	0.0521916729933163\\
27	0.0341243385373021\\
28	0.0860476100300962\\
29	0.105372284222576\\
30	0.0716284953110363\\
31	0.0257926297121157\\
32	0.0461127811968392\\
33	0.0991295720424181\\
34	0.109179464056299\\
35	0.039534635611511\\
36	0.0484600264747214\\
37	0.0219589323424558\\
38	0.235642118494805\\
39	0.428399151642006\\
40	0.146920831208063\\
41	0.0693566131996087\\
42	0.00996600374817436\\
43	0.0416814288374741\\
44	0.0191381139056481\\
45	0.126573619063486\\
46	0.0577728449351177\\
47	0.0631625004276004\\
48	0.0410536590605249\\
49	0.0437883169700869\\
50	0.0716977491193651\\
51	0.0334765626210871\\
52	0.02789159849564\\
53	0.0213602928573845\\
54	0.0454115230930714\\
55	0.0838351468797559\\
56	0.0799466845605812\\
57	0.0212549882203269\\
58	0.243582661908881\\
59	0.21947863103557\\
60	0.0283264922208973\\
61	0.00712157324252464\\
62	0.0217995989571238\\
63	0.0118115412680248\\
64	0.0304385442955079\\
65	0.0312108198016607\\
66	0.0271230225036459\\
67	0.029669994602141\\
68	0.0136684662976645\\
69	0.0473317922822091\\
70	0.0524228312433844\\
71	0.0243342479254511\\
72	0.00697279769476214\\
73	0.0115422980467778\\
74	0.0241325723404681\\
75	0.0392108601912534\\
76	0.0227908468949493\\
77	0.0063834428767944\\
78	0.00970314913905275\\
79	0.00418415959017942\\
80	0.00625534949332575\\
81	0.00903113716903456\\
82	0.00895354693569498\\
83	0.00300919415724208\\
84	0.00576098605170551\\
85	0.00257661434408713\\
86	0.0078914537525959\\
87	0.010363609539587\\
88	0.00679958737317516\\
89	0.00244482445967936\\
90	0.000771974827400552\\
91	0.00669984879092739\\
92	0.00883269481179756\\
93	0.012256363356477\\
94	0.00340156547474037\\
95	0.00393161468027361\\
96	0.00100533489043531\\
97	0.00221371258594369\\
98	0.00125135999346296\\
99	0.00145898264969494\\
};
\addlegendentry{$\mathbf{\hat{h}_{1}}$}

\addplot [color=mycolor2]
  table[row sep=crcr]{%
0	0.000300192126536813\\
1	0.000410876335068586\\
2	0.000208820168282996\\
3	0.000370061389430397\\
4	0.000712872742554158\\
5	0.000433336664558224\\
6	0.00023898477590086\\
7	0.00184837316246365\\
8	0.00118538390498572\\
9	0.00142431554969736\\
10	0.00328949258254706\\
11	0.00636418774465432\\
12	0.0065867679573022\\
13	0.00965125993656372\\
14	0.0119521295355455\\
15	0.00227231999382072\\
16	0.0078766656517356\\
17	0.0371996498295304\\
18	0.0319980436802325\\
19	0.0244145381370504\\
20	0.00363735796173633\\
21	0.0308336685302511\\
22	0.0843940330096768\\
23	0.0781673553562963\\
24	0.0513830699086571\\
25	0.0252959982472744\\
26	0.0210345703136911\\
27	0.0444953595393238\\
28	0.064895686844806\\
29	0.0245277006669439\\
30	0.0704793613669556\\
31	0.045030961640076\\
32	0.0279305980327696\\
33	0.369800108497929\\
34	0.799330025497808\\
35	0.366816521742294\\
36	0.0355637158034272\\
37	0.0460289525040449\\
38	0.0758359687183225\\
39	0.0267455482247055\\
40	0.0578367022836779\\
41	0.0420429859373053\\
42	0.0229041463414669\\
43	0.0504520174970433\\
44	0.071277084140179\\
45	0.104195564402236\\
46	0.0792171296244932\\
47	0.00778627197224647\\
48	0.0301996565845811\\
49	0.0555876517313948\\
50	0.057013308419174\\
51	0.0244624436496724\\
52	0.011079765860192\\
53	0.0199736360161891\\
54	0.0202219660584451\\
55	0.01681762244648\\
56	0.0145938620718687\\
57	0.0181243490718935\\
58	0.0137868345362318\\
59	0.0199653892370897\\
60	0.0190284746457209\\
61	0.017218099038665\\
62	0.00451100136434569\\
63	0.0245953332365043\\
64	0.00783498761438493\\
65	0.00253836793832682\\
66	0.00979031282980439\\
67	0.0254992047570886\\
68	0.0168069191114181\\
69	0.0201819976848704\\
70	0.00328610378064571\\
71	0.00809071126105866\\
72	0.00496126001307905\\
73	0.00775143769374325\\
74	0.00463400957853743\\
75	0.00458689123508167\\
76	0.00256893997271598\\
77	0.00525632994316137\\
78	0.003645825612808\\
79	0.00700332899235788\\
80	0.00189499572619253\\
81	0.00288001493158409\\
82	0.00332711893250244\\
83	0.00350013947243435\\
84	0.00169524092481089\\
85	0.000876789359240228\\
86	0.0104851333110999\\
87	0.010650587036092\\
88	0.000189930917699049\\
89	0.00137308598660541\\
90	0.00189804498897883\\
91	0.00128038499903263\\
92	0.00126417408909749\\
93	0.000989693460094188\\
94	0.00048712401279805\\
95	0.000461931851341882\\
96	0.00167492105688661\\
97	0.0016822974621532\\
98	0.001442692233189\\
99	0.000508174467905015\\
};
\addlegendentry{$\mathbf{\hat{h}_{2}}$}

\end{axis}
\end{tikzpicture}%