% This file was created by matlab2tikz.
%
%The latest updates can be retrieved from
%  http://www.mathworks.com/matlabcentral/fileexchange/22022-matlab2tikz-matlab2tikz
%where you can also make suggestions and rate matlab2tikz.
%
\definecolor{mycolor1}{rgb}{0.00000,0.44700,0.74100}%
\definecolor{mycolor2}{rgb}{0.85000,0.32500,0.09800}%
%
\begin{tikzpicture}

\begin{axis}[%
width=1.935in,
height=3.2in,
at={(0.758in,0.512in)},
scale only axis,
xmin=0,
xmax=200,
xlabel style={font=\color{white!15!black}, align=center},
xlabel={Sample Index\\[1ex](a) Actual},
ymin=0,
ymax=1,
axis background/.style={fill=white},
legend style={legend cell align=left, align=left, draw=white!15!black}
]
\addplot [color=mycolor1]
  table[row sep=crcr]{%
1	0.0167418731260698\\
2	0.018659722218203\\
3	0.0211495716349754\\
4	0.0245407494314006\\
5	0.029505643974117\\
6	0.0377161636169434\\
7	0.0550750576238134\\
8	0.131028403455825\\
9	0.141533477104454\\
10	0.158175166246243\\
11	0.163761757297189\\
12	0.600100605556833\\
13	0.118033417583129\\
14	0.0610914209628117\\
15	0.0426162246246858\\
16	0.0332715711707656\\
17	0.0321939439283243\\
18	0.0268871008873183\\
19	0.0316920608120786\\
20	0.0286771919664519\\
21	0.00773119825769845\\
22	0.0330073087209196\\
23	0.019415059292473\\
24	0.0177688778425817\\
25	0.0188194600762088\\
26	0.0237714798713867\\
27	0.0430806655948836\\
28	0.586023006720236\\
29	0.0970905103802927\\
30	0.0246981078960262\\
31	0.0780346253424249\\
32	0.0580455436901626\\
33	0.0681836526256362\\
34	0.163824852865525\\
35	0.0446106828365612\\
36	0.06119675966513\\
37	0.00907835157153909\\
38	0.0310093774848825\\
39	0.00125972832884384\\
40	0.005422098150711\\
41	0.0107374596162295\\
42	0.0165479326643041\\
43	0.024789327411243\\
44	0.0446277431282512\\
45	0.058019450740893\\
46	0.074843365423057\\
47	0.199666615467323\\
48	0.216838516027539\\
49	0.0783890355452335\\
50	0.0495529240878659\\
51	0.0370791446049236\\
52	0.0307530810094058\\
53	0.0155757068681131\\
54	0.0198807977432187\\
55	0.0179871495341263\\
56	0.0162887905400521\\
57	0.0148728268904216\\
58	0.0136909847461918\\
59	0.0126943671543235\\
60	0.011846112844806\\
61	0.0111233301448608\\
62	0.0105291449791113\\
63	0.0102108676347222\\
64	0.00751288118280402\\
65	0.00739035992869396\\
66	0.0116365722557393\\
67	0.00899390796280924\\
68	0.00831157148096884\\
69	0.00788086875151191\\
70	0.00754217236777393\\
71	0.00725475830161164\\
72	0.00700327644843893\\
73	0.006780818536885\\
74	0.00658453626015097\\
75	0.00641472878078445\\
76	0.00627599401250467\\
77	0.00618216997550965\\
78	0.00617516728867787\\
79	0.00642745729543014\\
80	0.00873051939586948\\
81	0.00471465923588381\\
82	0.00195996010568866\\
83	0.004980313957114\\
84	0.00475839614864904\\
85	0.00464733241660508\\
86	0.00455444244400457\\
87	0.00446749239384432\\
88	0.00438406292262191\\
89	0.00430366820355207\\
90	0.00422628355118023\\
91	0.00415201532524293\\
92	0.00408104289588831\\
93	0.00401365198230764\\
94	0.00395033763548775\\
95	0.00389203620501121\\
96	0.00384070443755282\\
97	0.00380107128140597\\
98	0.00378779867734327\\
99	0.00387836096292209\\
100	0.00228454900881806\\
101	0.00321909463290553\\
102	0.00328982387499096\\
103	0.00328100374444436\\
104	0.00325253146337885\\
105	0.00321692683031362\\
106	0.00317840637543852\\
107	0.00313876414674543\\
108	0.00309887602618152\\
109	0.00305920797263281\\
110	0.00302002111537278\\
111	0.00298146552488656\\
112	0.00294362726599965\\
113	0.0029065537719176\\
114	0.00287026833389302\\
115	0.00283477876811283\\
116	0.00280008280049957\\
117	0.00276617151884636\\
118	0.00273303164395387\\
119	0.00270064705586787\\
120	0.00266899983729428\\
121	0.00263807099659409\\
122	0.00260784097374635\\
123	0.00257828999668392\\
124	0.00254939833288439\\
125	0.00252114646667125\\
126	0.00249351522323938\\
127	0.00246648585412356\\
128	0.00244004009455901\\
129	0.00241416020024051\\
130	0.00238882896892876\\
131	0.0023640297508985\\
132	0.00233974645117835\\
133	0.00231596352577768\\
134	0.00229266597354371\\
135	0.00226983932488367\\
136	0.00224746962828519\\
137	0.00222554343533969\\
138	0.00220404778480324\\
139	0.00218297018609978\\
140	0.00216229860257188\\
141	0.00214202143470905\\
142	0.00212212750352594\\
143	0.00210260603421662\\
144	0.00208344664017788\\
145	0.00206463930746792\\
146	0.00204617437974413\\
147	0.00202804254371082\\
148	0.00201023481509265\\
149	0.00199274252514179\\
150	0.00197555730767936\\
151	0.0019586710866655\\
152	0.00194207606428942\\
153	0.00192576470956709\\
154	0.00190972974743187\\
155	0.00189396414830307\\
156	0.00187846111811499\\
157	0.00186321408878906\\
158	0.00184821670913216\\
159	0.00183346283614256\\
160	0.00181894652670628\\
161	0.00180466202966742\\
162	0.00179060377825436\\
163	0.00177676638284649\\
164	0.00176314462406556\\
165	0.00174973344617591\\
166	0.0017365279507797\\
167	0.00172352339079259\\
168	0.00171071516468654\\
169	0.00169809881098722\\
170	0.00168567000301325\\
171	0.00167342454384613\\
172	0.00166135836151948\\
173	0.00164946750441694\\
174	0.00163774813686889\\
175	0.00162619653493841\\
176	0.00161480908238697\\
177	0.00160358226681213\\
178	0.001592512675948\\
179	0.00158159699412143\\
180	0.00157083199885632\\
181	0.00156021455761888\\
182	0.00154974162469766\\
183	0.00153941023821136\\
184	0.00152921751723897\\
185	0.00151916065906659\\
186	0.00150923693654504\\
187	0.00149944369555362\\
188	0.00148977835256491\\
189	0.00148023839230615\\
190	0.0014708213655126\\
191	0.00146152488676917\\
192	0.00145234663243548\\
193	0.00144328433865201\\
194	0.00143433579942216\\
195	0.0014254988647679\\
196	0.00141677143895562\\
197	0.00140815147878894\\
198	0.00139963699196521\\
199	0\\
200	0\\
};
\addlegendentry{$\mathbf{h_1}$}

\addplot [color=mycolor2]
  table[row sep=crcr]{%
1	0.00495033386861547\\
2	0.00515738368500011\\
3	0.00538309861623286\\
4	0.00563019833310769\\
5	0.00590197136255583\\
6	0.00620243506959928\\
7	0.00653655369620811\\
8	0.00691054090538825\\
9	0.00733228812251618\\
10	0.00781198494389501\\
11	0.00836304134465097\\
12	0.0090034999823859\\
13	0.00975827527656913\\
14	0.0106628508662167\\
15	0.0117696896019869\\
16	0.0131600228416925\\
17	0.0149671880151623\\
18	0.0174273921400842\\
19	0.0210049332363351\\
20	0.0267613442180004\\
21	0.037792597580649\\
22	0.068721841139076\\
23	0.97572931769219\\
24	0.0649085399616321\\
25	0.0262918397391367\\
26	0.0126468169615953\\
27	0.00419508123086451\\
28	0.0214241856295046\\
29	0.0134643328328179\\
30	0.00412679327935559\\
31	0.0112712342656943\\
32	0.0282552508318709\\
33	0.111702725947746\\
34	0.12653020104749\\
35	0.0361926668223949\\
36	0.024130019396178\\
37	0.019518168382204\\
38	0.0163235660243771\\
39	0.0140849625225472\\
40	0.0124312948441269\\
41	0.0111552918846637\\
42	0.0101369616841952\\
43	0.00930266674553233\\
44	0.00860476970863487\\
45	0.00801105372801389\\
46	0.00749890841387189\\
47	0.00705196472677567\\
48	0.00665805661850076\\
49	0.0063079366485928\\
50	0.00599443852440938\\
51	0.00571191453485358\\
52	0.00545584764793091\\
53	0.0052225778141873\\
54	0.00500910486747672\\
55	0.00481294397681212\\
56	0.00463201789166602\\
57	0.00446457542356871\\
58	0.00430912894812168\\
59	0.00416440590497024\\
60	0.00402931074167137\\
61	0.00390289474814389\\
62	0.00378433192171684\\
63	0.00367289949042518\\
64	0.0035679620699816\\
65	0.00346895868109233\\
66	0.00337539203747226\\
67	0.00328681965070268\\
68	0.00320284639950925\\
69	0\\
70	0\\
71	0\\
72	0\\
73	0\\
74	0\\
75	0\\
76	0\\
77	0\\
78	0\\
79	0\\
80	0\\
81	0\\
82	0\\
83	0\\
84	0\\
85	0\\
86	0\\
87	0\\
88	0\\
89	0\\
90	0\\
91	0\\
92	0\\
93	0\\
94	0\\
95	0\\
96	0\\
97	0\\
98	0\\
99	0\\
100	0\\
101	0\\
102	0\\
103	0\\
104	0\\
105	0\\
106	0\\
107	0\\
108	0\\
109	0\\
110	0\\
111	0\\
112	0\\
113	0\\
114	0\\
115	0\\
116	0\\
117	0\\
118	0\\
119	0\\
120	0\\
121	0\\
122	0\\
123	0\\
124	0\\
125	0\\
126	0\\
127	0\\
128	0\\
129	0\\
130	0\\
131	0\\
132	0\\
133	0\\
134	0\\
135	0\\
136	0\\
137	0\\
138	0\\
139	0\\
140	0\\
141	0\\
142	0\\
143	0\\
144	0\\
145	0\\
146	0\\
147	0\\
148	0\\
149	0\\
150	0\\
151	0\\
152	0\\
153	0\\
154	0\\
155	0\\
156	0\\
157	0\\
158	0\\
159	0\\
160	0\\
161	0\\
162	0\\
163	0\\
164	0\\
165	0\\
166	0\\
167	0\\
168	0\\
169	0\\
170	0\\
171	0\\
172	0\\
173	0\\
174	0\\
175	0\\
176	0\\
177	0\\
178	0\\
179	0\\
180	0\\
181	0\\
182	0\\
183	0\\
184	0\\
185	0\\
186	0\\
187	0\\
188	0\\
189	0\\
190	0\\
191	0\\
192	0\\
193	0\\
194	0\\
195	0\\
196	0\\
197	0\\
198	0\\
199	0\\
200	0\\
};
\addlegendentry{$\mathbf{h_{2}}$}

\end{axis}

\begin{axis}[%
width=1.935in,
height=3.2in,
at={(3.327in,0.512in)},
scale only axis,
xmin=0,
xmax=200,
xlabel style={font=\color{white!15!black}, align=center},
xlabel={Sample Index\\[1ex](b) Estimated},
ymin=0,
ymax=0.2,
axis background/.style={fill=white},
legend style={legend cell align=left, align=left, draw=white!15!black}
]
\addplot [color=mycolor1]
  table[row sep=crcr]{%
0	0.0166175645049186\\
1	0.0504545703549596\\
2	0.0425929934156829\\
3	0.0511282939760613\\
4	0.0111649485006613\\
5	0.0311119902522668\\
6	0.0294878711269596\\
7	0.0291209597544576\\
8	0.0779700236833983\\
9	0.0474245486558679\\
10	0.0297541585643787\\
11	0.0932906548344531\\
12	0.0513787387658528\\
13	0.0488458913065928\\
14	0.0445771725821247\\
15	0.0270422520286159\\
16	0.0491475649800212\\
17	0.103709160520966\\
18	0.0444251154716731\\
19	0.0481470426478478\\
20	0.0500053000100302\\
21	0.0305772950008982\\
22	0.0035629388672584\\
23	0.079405422856339\\
24	0.0888848284899254\\
25	0.128757157214701\\
26	0.0297113206224758\\
27	0.0974822982375241\\
28	0.0600583802516378\\
29	0.162500082357004\\
30	0.0159359118554893\\
31	0.089524559028439\\
32	0.0385690529754727\\
33	0.150823214328409\\
34	0.0528109773022946\\
35	0.115298317146913\\
36	0.11222023022883\\
37	0.0747556277520059\\
38	0.1246453142585\\
39	0.0589233145195128\\
40	0.0673815137255912\\
41	0.0687731175148521\\
42	0.126038239768605\\
43	0.0864383912561214\\
44	0.115932759914623\\
45	0.0782257064114958\\
46	0.117229605400426\\
47	0.118902842346698\\
48	0.0664685876364599\\
49	0.13175055384656\\
50	0.0785752536269648\\
51	0.0708848947173531\\
52	0.0388337812424612\\
53	0.0608369847179436\\
54	0.0569345524810913\\
55	0.108096723447255\\
56	0.0425733932399366\\
57	0.109216844057952\\
58	0.0723750427106924\\
59	0.061822136160947\\
60	0.12726857716289\\
61	0.0478032163165143\\
62	0.0259737549842939\\
63	0.0704930553516819\\
64	0.0572970706132805\\
65	0.0860426837633632\\
66	0.0626971195163642\\
67	0.128379818301786\\
68	0.0972647229993829\\
69	0.0390421033293331\\
70	0.0596183763262687\\
71	0.143394730734878\\
72	0.0864466987409288\\
73	0.0293716883458679\\
74	0.0713177323200597\\
75	0.12808464129452\\
76	0.128132964732436\\
77	0.0747287014178477\\
78	0.0389239047395438\\
79	0.139624263345803\\
80	0.0878137799619758\\
81	0.086761580470253\\
82	0.0429698919081634\\
83	0.012599970914119\\
84	0.0189884544924902\\
85	0.167786473085609\\
86	0.0493969651040389\\
87	0.0187112325654961\\
88	0.084372095334546\\
89	0.0787904410475753\\
90	0.0330330700233836\\
91	0.0810800160262625\\
92	0.00803200385100775\\
93	0.0610208876887949\\
94	0.0870766946532569\\
95	0.0847891384586178\\
96	0.0482221910122211\\
97	0.0592567641688225\\
98	0.0535074979097321\\
99	0.0857266232901616\\
100	0.0291165387054764\\
101	0.0480630984621604\\
102	0.0599444829994248\\
103	0.0328842868334001\\
104	0.0676839587050968\\
105	0.0565200160288111\\
106	0.0547658442076143\\
107	0.098373004491131\\
108	0.0942789897949996\\
109	0.0733903350788636\\
110	0.0234024725635262\\
111	0.108338852849846\\
112	0.0590670676069186\\
113	0.114875039309289\\
114	0.108689866812333\\
115	0.112982843553583\\
116	0.109756729648507\\
117	0.0383949585654676\\
118	0.0936656376809553\\
119	0.0690856464297181\\
120	0.0523675367340397\\
121	0.0393596076352212\\
122	0.0251833712105455\\
123	0.0502570727027625\\
124	0.0901624878734844\\
125	0.0746034380092504\\
126	0.071691260554746\\
127	0.0517374694620533\\
128	0.103617296415438\\
129	0.0564216789039222\\
130	0.111699365285446\\
131	0.0542136168257933\\
132	0.0426393278992366\\
133	0.0409536198341686\\
134	0.0819622093234394\\
135	0.108767174101578\\
136	0.0933881248171257\\
137	0.036479622844999\\
138	0.0896234724968986\\
139	0.0224037615004247\\
140	0.0456074431041082\\
141	0.0708515905002838\\
142	0.0115829512632499\\
143	0.0691574875853266\\
144	0.130502436072008\\
145	0.0557390108336945\\
146	0.0980078397107266\\
147	0.0660838262377519\\
148	0.093725771522105\\
149	0.0593005880834395\\
150	0.0495237255176002\\
151	0.0752656649258576\\
152	0.0875002090582483\\
153	0.0845724681369917\\
154	0.0450702627337912\\
155	0.0143515467177615\\
156	0.102316477940698\\
157	0.046270177753489\\
158	0.0543039496569696\\
159	0.033412452067226\\
160	0.0342085853918467\\
161	0.0618480633938196\\
162	0.0844846526210201\\
163	0.058500838557534\\
164	0.0239144671590781\\
165	0.0284930186343384\\
166	0.00369626943498659\\
167	0.0511091470135803\\
168	0.0712643820012556\\
169	0.0194107585528296\\
170	0.0245504016306977\\
171	0.0459126653868045\\
172	0.0295348619792234\\
173	0.021293431708015\\
174	0.00611233005715513\\
175	0.0415329323683216\\
176	0.040201885849837\\
177	0.0366165253615805\\
178	0.0417308614825137\\
179	0.0321689201577554\\
180	0.026398009950001\\
181	0.0195367217382233\\
182	0.0163720124766461\\
183	0.0098944846008493\\
184	0.00475549358159146\\
185	0.00263814362618995\\
186	0.0136786238564436\\
187	0.0193971515255857\\
188	0.0165317662224772\\
189	0.00626076078128407\\
190	0.00627587622516622\\
191	0.00830885429789112\\
192	0.011823310490351\\
193	0.0132938808788297\\
194	0.0191683397717057\\
195	0.00340973185899882\\
196	0.0102081303060393\\
197	0.0138300547146137\\
198	0.0153030846555945\\
199	0.0225678234503308\\
};
\addlegendentry{$\mathbf{\hat{h}_{1}}$}

\addplot [color=mycolor2]
  table[row sep=crcr]{%
0	0.000473670277746633\\
1	0.000927834552362778\\
2	0.00156239595503527\\
3	0.00325467046957872\\
4	0.00176579365910491\\
5	0.00310053000612077\\
6	0.00407656337779501\\
7	0.00602059500947322\\
8	0.00365641932256168\\
9	0.00561002300567257\\
10	0.0126523416621246\\
11	0.0166470130287556\\
12	0.0349347158737653\\
13	0.0369762702375993\\
14	0.0826076810259279\\
15	0.0113839403353033\\
16	0.0114074569987514\\
17	0.0154642711894022\\
18	0.040193980741233\\
19	0.101524367787784\\
20	0.0843638079906652\\
21	0.0426130466737236\\
22	0.106166217466625\\
23	0.0659125507120802\\
24	0.0943709480230143\\
25	0.0893486724568346\\
26	0.0125715323511761\\
27	0.0594246703497427\\
28	0.100385824518259\\
29	0.0116223284104982\\
30	0.0922216242255826\\
31	0.0439475538087721\\
32	0.0812121874128931\\
33	0.0379559786242915\\
34	0.0871663107101746\\
35	0.0140286472058369\\
36	0.102580441808366\\
37	0.0882730126683913\\
38	0.0473853931573636\\
39	0.111069029857819\\
40	0.189319210905027\\
41	0.0852829089017496\\
42	0.0957877501532137\\
43	0.031070591606562\\
44	0.131620530801564\\
45	0.035469402675386\\
46	0.105781700259002\\
47	0.0591317588306834\\
48	0.1509543058695\\
49	0.153289531117661\\
50	0.056024476915951\\
51	0.046066030790624\\
52	0.063691388925737\\
53	0.0537947393273658\\
54	0.0775720152552153\\
55	0.0420295795295854\\
56	0.177861445391878\\
57	0.055600035861547\\
58	0.138350224708472\\
59	0.0224730459985808\\
60	0.0511255455415918\\
61	0.0502477519660483\\
62	0.169739425099842\\
63	0.0877498305203169\\
64	0.00500365973090007\\
65	0.0270697508518697\\
66	0.0984445950931039\\
67	0.0794941525881874\\
68	0.0869985107699057\\
69	0.0786685801149607\\
70	0.0556956622959663\\
71	0.0917913677867003\\
72	0.0985176360494945\\
73	0.0684454665305561\\
74	0.0601768449707438\\
75	0.0703743474487595\\
76	0.0866135228467186\\
77	0.091227181028003\\
78	0.0587790198339292\\
79	0.0525667403458325\\
80	0.0994010596218908\\
81	0.0736243311390872\\
82	0.0660734794539192\\
83	0.0506943175604876\\
84	0.0704825543282203\\
85	0.0816837178140481\\
86	0.11743050840672\\
87	0.0320510982569589\\
88	0.0850161624251449\\
89	0.0797971674400545\\
90	0.105203340943611\\
91	0.0792224078250093\\
92	0.0125343859695974\\
93	0.0719536889298427\\
94	0.091154896323188\\
95	0.0795034823194701\\
96	0.0517786177302795\\
97	0.15534544394089\\
98	0.085610436928705\\
99	0.0412766998637014\\
100	0.0693678257502066\\
101	0.0988233215456133\\
102	0.149162271190534\\
103	0.0264633858459124\\
104	0.102223064068425\\
105	0.118972063761841\\
106	0.102475545493783\\
107	0.0448595129312816\\
108	0.0463350649672083\\
109	0.0603566106563229\\
110	0.101081243204265\\
111	0.05901582479351\\
112	0.0843887575872042\\
113	0.120721350901052\\
114	0.0912291304655597\\
115	0.0497576732011213\\
116	0.0249090582408425\\
117	0.070646617394437\\
118	0.0808701297504291\\
119	0.077709951669206\\
120	0.0589967129824763\\
121	0.0892616646873812\\
122	0.117517829513191\\
123	0.128875244160493\\
124	0.181642711858783\\
125	0.0234345534530728\\
126	0.0284610400614549\\
127	0.100784362880393\\
128	0.0552916240446561\\
129	0.0554692651603738\\
130	0.0866531420665703\\
131	0.0786017281468667\\
132	0.105902234461917\\
133	0.0572354839102241\\
134	0.0712065019353733\\
135	0.105777813319028\\
136	0.055684657143637\\
137	0.0318108040449757\\
138	0.069805795058869\\
139	0.11751122292732\\
140	0.0321648835831651\\
141	0.0426868408808805\\
142	0.0779394289847601\\
143	0.0177766312777683\\
144	0.0580289435559328\\
145	0.0569151126776747\\
146	0.0871861578140665\\
147	0.115822849350866\\
148	0.0449905413034785\\
149	0.0620044220199623\\
150	0.0346002618447541\\
151	0.0547121841383144\\
152	0.0500632058477187\\
153	0.0449728235503055\\
154	0.0623954643276378\\
155	0.0910827662897576\\
156	0.0276533980381655\\
157	0.0651396258361499\\
158	0.0432821807550456\\
159	0.0169319392431768\\
160	0.0272641996882347\\
161	0.0150879957092789\\
162	0.0336631729132349\\
163	0.0115006975789609\\
164	0.0381954833520724\\
165	0.0123643323394374\\
166	0.00187482862651541\\
167	0.0166745709155805\\
168	0.0065406348006304\\
169	0.0142008670115356\\
170	0.0627611235888442\\
171	0.0372360912529551\\
172	0.0444176125357785\\
173	0.043004218701958\\
174	0.0148735878748164\\
175	0.0403210621496317\\
176	0.0163475754001545\\
177	0.0099227633685765\\
178	0.00997359316728233\\
179	0.0111068705585739\\
180	0.0152224111207241\\
181	0.00439193702874658\\
182	0.00521426662284112\\
183	0.00395531100241243\\
184	0.00510527038021024\\
185	0.00542491950556741\\
186	0.00206251931698931\\
187	0.00526350685710178\\
188	0.00364622373522318\\
189	0.00246001750334973\\
190	0.00242985182034614\\
191	0.00274470099346917\\
192	0.000687875799062407\\
193	0.000838494742426554\\
194	0.00056111976191766\\
195	0.00168308701358585\\
196	0.000813487552774744\\
197	0.00153929715939947\\
198	0.0019503288582865\\
199	0.00304587990849912\\
};
\addlegendentry{$\mathbf{\hat{h}_{2}}$}

\end{axis}
\end{tikzpicture}%