% This file was created by matlab2tikz.
%
%The latest updates can be retrieved from
%  http://www.mathworks.com/matlabcentral/fileexchange/22022-matlab2tikz-matlab2tikz
%where you can also make suggestions and rate matlab2tikz.
%
\definecolor{mycolor1}{rgb}{0.00000,0.44700,0.74100}%
\definecolor{mycolor2}{rgb}{0.85000,0.32500,0.09800}%
%
\begin{tikzpicture}

\begin{axis}[%
width=1.952in,
height=3.2in,
at={(0.758in,0.512in)},
scale only axis,
xmin=0,
xmax=20,
xlabel style={font=\color{white!15!black}, align=center},
xlabel={Sample Index\\[1ex](a) Actual},
ymin=0,
ymax=1,
axis background/.style={fill=white},
legend style={legend cell align=left, align=left, draw=white!15!black}
]
\addplot [color=mycolor1]
  table[row sep=crcr]{%
1	0.113205605745861\\
2	0.919292270364926\\
3	0.256025577129562\\
4	0.221212160951117\\
5	0.110921817870281\\
6	0.0400328712358033\\
7	0.0687168441611535\\
8	0.0506014016738843\\
9	0.0552835931164163\\
10	0.0346525615393867\\
11	0.020191452822011\\
12	0.0185296152559968\\
13	0.0171404774442808\\
14	0.0156211388830756\\
15	0.0142945116316957\\
16	0.0131617720182863\\
17	0.0121914691582677\\
18	0.0113534257007881\\
19	0.0106231383936872\\
20	0.00998136168461187\\
};
\addlegendentry{$\mathbf{h_1}$}

\addplot [color=mycolor2]
  table[row sep=crcr]{%
1	0.0495723015654782\\
2	0.0685334241945042\\
3	0.511321702955238\\
4	0.765196656162612\\
5	0.358164812724738\\
6	0.132619444637821\\
7	0\\
8	0\\
9	0\\
10	0\\
11	0\\
12	0\\
13	0\\
14	0\\
15	0\\
16	0\\
17	0\\
18	0\\
19	0\\
20	0\\
};
\addlegendentry{$\mathbf{h_{2}}$}

\end{axis}

\begin{axis}[%
width=1.952in,
height=3.2in,
at={(3.327in,0.512in)},
scale only axis,
xmin=0,
xmax=20,
xlabel style={font=\color{white!15!black}, align=center},
xlabel={Sample Index\\[1ex](b) Estimated},
ymin=0,
ymax=1,
axis background/.style={fill=white},
legend style={legend cell align=left, align=left, draw=white!15!black}
]
\addplot [color=mycolor1]
  table[row sep=crcr]{%
0	0.113203627917172\\
1	0.919290118015715\\
2	0.256022342443783\\
3	0.221222531308866\\
4	0.110956908594427\\
5	0.0400584292374315\\
6	0.0686802605174651\\
7	0.0505635200044599\\
8	0.0552877036763916\\
9	0.0346432750502433\\
10	0.0202156179088902\\
11	0.0185211741110539\\
12	0.0171394300056193\\
13	0.0156226603298535\\
14	0.0142900125944339\\
15	0.0131623406771707\\
16	0.0121927119195199\\
17	0.0113561441496438\\
18	0.010624344670967\\
19	0.00998180019971862\\
};
\addlegendentry{$\mathbf{\hat{h}_{1}}$}

\addplot [color=mycolor2]
  table[row sep=crcr]{%
0	0.0495741943003663\\
1	0.068540588773468\\
2	0.511351794975182\\
3	0.765181308672463\\
4	0.358157715849273\\
5	0.132606399732186\\
6	0.000199121864559232\\
7	0.000182817074328335\\
8	0.000104987248503485\\
9	3.76813251044644e-05\\
10	7.59428231059254e-06\\
11	7.42752804655045e-06\\
12	1.87693583528285e-05\\
13	1.20568788624817e-05\\
14	1.2557988882369e-06\\
15	7.60698302995343e-06\\
16	1.77500805272964e-05\\
17	1.82937855647805e-05\\
18	8.62982656356824e-06\\
19	2.51540256168854e-06\\
};
\addlegendentry{$\mathbf{\hat{h}_{2}}$}

\end{axis}
\end{tikzpicture}%