% This file was created by matlab2tikz.
%
%The latest updates can be retrieved from
%  http://www.mathworks.com/matlabcentral/fileexchange/22022-matlab2tikz-matlab2tikz
%where you can also make suggestions and rate matlab2tikz.
%
\definecolor{mycolor1}{rgb}{0.00000,0.44700,0.74100}%
\definecolor{mycolor2}{rgb}{0.85000,0.32500,0.09800}%
%
\begin{tikzpicture}

\begin{axis}[%
width=1.952in,
height=3.2in,
at={(0.758in,0.512in)},
scale only axis,
xmin=0,
xmax=20,
xlabel style={font=\color{white!15!black}, align=center},
xlabel={Sample Index\\[1ex](a) Actual},
ymin=0,
ymax=0.9,
axis background/.style={fill=white},
legend style={legend cell align=left, align=left, draw=white!15!black}
]
\addplot [color=mycolor1]
  table[row sep=crcr]{%
1	0.0444337104356374\\
2	0.738127803558165\\
3	0.357839506790865\\
4	0.481268775571525\\
5	0.10955194752004\\
6	0.267783168107473\\
7	0.0769544524124665\\
8	0.0372836026936495\\
9	0.027789744685169\\
10	0.0196434178633453\\
11	0.0212138243269196\\
12	0.0147156812719569\\
13	0.0126517206023441\\
14	0.0111331007215966\\
15	0.00994473974674355\\
16	0.00898571135769806\\
17	0.00819466874468931\\
18	0.00753086667278431\\
19	0.00696589032366256\\
20	0.00647923877975415\\
};
\addlegendentry{$\mathbf{h_1}$}

\addplot [color=mycolor2]
  table[row sep=crcr]{%
1	0.0696363384444256\\
2	0.13399148454392\\
3	0.889181852408627\\
4	0.426869408918664\\
5	0.0527923084371181\\
6	0.0393468637154593\\
7	0\\
8	0\\
9	0\\
10	0\\
11	0\\
12	0\\
13	0\\
14	0\\
15	0\\
16	0\\
17	0\\
18	0\\
19	0\\
20	0\\
};
\addlegendentry{$\mathbf{h_{2}}$}

\end{axis}

\begin{axis}[%
width=1.952in,
height=3.2in,
at={(3.327in,0.512in)},
scale only axis,
xmin=0,
xmax=40,
xlabel style={font=\color{white!15!black}, align=center},
xlabel={Sample Index\\[1ex](b) Estimated},
ymin=0,
ymax=0.35,
axis background/.style={fill=white},
legend style={legend cell align=left, align=left, draw=white!15!black}
]
\addplot [color=mycolor1]
  table[row sep=crcr]{%
0	0.0113550644061544\\
1	0.200732882823059\\
2	0.187736602767204\\
3	0.224555683418375\\
4	0.153164243884697\\
5	0.207282621084979\\
6	0.27956375257538\\
7	0.238802380663029\\
8	0.306686291869253\\
9	0.234771151907759\\
10	0.214134020373125\\
11	0.205146608431104\\
12	0.143850426324841\\
13	0.123266257558928\\
14	0.17437569085089\\
15	0.169717064998178\\
16	0.215708345789217\\
17	0.192269289014339\\
18	0.230969176160123\\
19	0.181375172640569\\
20	0.188168161776422\\
21	0.206963830459676\\
22	0.0701379547965929\\
23	0.21565541836669\\
24	0.126084632964256\\
25	0.131376588141055\\
26	0.052752564489864\\
27	0.0363830615039526\\
28	0.0309648105550447\\
29	0.024544159453377\\
30	0.0231442643959623\\
31	0.0195712161748028\\
32	0.01761423119481\\
33	0.0154504964530317\\
34	0.0129155319612205\\
35	0.0100642248761234\\
36	0.0078717613688898\\
37	0.0059669797410686\\
38	0.00405538113512904\\
39	0.00214479799447904\\
};
\addlegendentry{$\mathbf{\hat{h}_{1}}$}

\addplot [color=mycolor2]
  table[row sep=crcr]{%
0	0.0203183582875754\\
1	0.0653607658392911\\
2	0.328364890595876\\
3	0.247382511177706\\
4	0.214735821338995\\
5	0.172219175251617\\
6	0.191962925723276\\
7	0.219237482490439\\
8	0.214705861866966\\
9	0.228572913729643\\
10	0.197588978524639\\
11	0.165168630367291\\
12	0.20784686853719\\
13	0.181811870671042\\
14	0.174027817828925\\
15	0.182331005172546\\
16	0.241856030271745\\
17	0.268271610359149\\
18	0.165147596595016\\
19	0.211669958129159\\
20	0.196712494302071\\
21	0.221516192386324\\
22	0.208717518493916\\
23	0.1611061327173\\
24	0.0333214659273192\\
25	0.0148228067248879\\
26	2.91861584396057e-05\\
27	8.17810047356234e-06\\
28	6.67819494186155e-06\\
29	6.90083713847771e-06\\
30	7.5987548052e-06\\
31	1.90877310600487e-05\\
32	1.5123511847079e-05\\
33	8.31367180432787e-06\\
34	1.08100884543007e-05\\
35	1.08858390240086e-05\\
36	1.57729292608671e-05\\
37	1.16633531833481e-05\\
38	1.03477241170604e-05\\
39	1.26950741676267e-06\\
};
\addlegendentry{$\mathbf{\hat{h}_{2}}$}

\end{axis}
\end{tikzpicture}%