% This file was created by matlab2tikz.
%
%The latest updates can be retrieved from
%  http://www.mathworks.com/matlabcentral/fileexchange/22022-matlab2tikz-matlab2tikz
%where you can also make suggestions and rate matlab2tikz.
%
\definecolor{mycolor1}{rgb}{0.00000,0.44700,0.74100}%
\definecolor{mycolor2}{rgb}{0.85000,0.32500,0.09800}%
%
\begin{tikzpicture}

\begin{axis}[%
width=1.952in,
height=3.2in,
at={(0.758in,0.512in)},
scale only axis,
xmin=0,
xmax=20,
xlabel style={font=\color{white!15!black}, align=center},
xlabel={Sample Index\\[1ex](a) Actual},
ymin=0,
ymax=0.9,
axis background/.style={fill=white},
legend style={legend cell align=left, align=left, draw=white!15!black}
]
\addplot [color=mycolor1]
  table[row sep=crcr]{%
1	0.0444337104356374\\
2	0.738127803558165\\
3	0.357839506790865\\
4	0.481268775571525\\
5	0.10955194752004\\
6	0.267783168107473\\
7	0.0769544524124665\\
8	0.0372836026936495\\
9	0.027789744685169\\
10	0.0196434178633453\\
11	0.0212138243269196\\
12	0.0147156812719569\\
13	0.0126517206023441\\
14	0.0111331007215966\\
15	0.00994473974674355\\
16	0.00898571135769806\\
17	0.00819466874468931\\
18	0.00753086667278431\\
19	0.00696589032366256\\
20	0.00647923877975415\\
};
\addlegendentry{$\mathbf{h_1}$}

\addplot [color=mycolor2]
  table[row sep=crcr]{%
1	0.0696363384444256\\
2	0.13399148454392\\
3	0.889181852408627\\
4	0.426869408918664\\
5	0.0527923084371181\\
6	0.0393468637154593\\
7	0\\
8	0\\
9	0\\
10	0\\
11	0\\
12	0\\
13	0\\
14	0\\
15	0\\
16	0\\
17	0\\
18	0\\
19	0\\
20	0\\
};
\addlegendentry{$\mathbf{h_{2}}$}

\end{axis}

\begin{axis}[%
width=1.952in,
height=3.2in,
at={(3.327in,0.512in)},
scale only axis,
xmin=0,
xmax=30,
xlabel style={font=\color{white!15!black}, align=center},
xlabel={Sample Index\\[1ex](b) Estimated},
ymin=0,
ymax=1,
axis background/.style={fill=white},
legend style={legend cell align=left, align=left, draw=white!15!black}
]
\addplot [color=mycolor1]
  table[row sep=crcr]{%
0	0.0139305747842666\\
1	0.238502107873766\\
2	0.1367024425778\\
3	0.756592950423098\\
4	0.206114903989906\\
5	0.337490974101675\\
6	0.288235470066065\\
7	0.252571274506954\\
8	0.151996712734789\\
9	0.062323155097286\\
10	0.0853498504296004\\
11	0.0469220746953603\\
12	0.104463088798282\\
13	0.0112198898078331\\
14	0.011769414625747\\
15	0.0188289906835548\\
16	0.0115429689527976\\
17	0.00988882840333183\\
18	0.00755295017688447\\
19	0.0074894251864042\\
20	0.00849132164668238\\
21	0.0102512213337469\\
22	0.00304607144349072\\
23	0.00190081189780572\\
24	0.00200465488624844\\
25	0.00153552927265837\\
26	0.000799113941766688\\
27	0.000491349412846256\\
28	0.000421540864330389\\
29	0.000419819091323725\\
};
\addlegendentry{$\mathbf{\hat{h}_{1}}$}

\addplot [color=mycolor2]
  table[row sep=crcr]{%
0	0.0171479360318684\\
1	0.052188249219246\\
2	0.196972104683409\\
3	0.0504903356986131\\
4	0.93303925952861\\
5	0.0538456502168802\\
6	0.21248433764061\\
7	0.124530371542074\\
8	0.0882839807718041\\
9	0.0680893830926545\\
10	0.0377416712435786\\
11	0.0674293346513539\\
12	0.0524438934321621\\
13	0.0186420077771088\\
14	0.0036105807164311\\
15	0.00192969308717344\\
16	6.56513064789455e-05\\
17	4.78715257049254e-05\\
18	2.76158898334273e-05\\
19	1.10573969162668e-05\\
20	1.49845892254741e-05\\
21	1.2518145179818e-05\\
22	1.36524389922431e-05\\
23	3.50281618643857e-06\\
24	1.17726559602964e-05\\
25	7.29317767750421e-06\\
26	6.19712398303121e-06\\
27	2.0904287498828e-05\\
28	2.00339951549898e-05\\
29	5.89187504412773e-06\\
};
\addlegendentry{$\mathbf{\hat{h}_{2}}$}

\end{axis}
\end{tikzpicture}%