% This file was created by matlab2tikz.
%
%The latest updates can be retrieved from
%  http://www.mathworks.com/matlabcentral/fileexchange/22022-matlab2tikz-matlab2tikz
%where you can also make suggestions and rate matlab2tikz.
%
\definecolor{mycolor1}{rgb}{0.00000,0.44700,0.74100}%
\definecolor{mycolor2}{rgb}{0.85000,0.32500,0.09800}%
%
\begin{tikzpicture}

\begin{axis}[%
width=1.952in,
height=3.2in,
at={(0.758in,0.512in)},
scale only axis,
xmin=0,
xmax=20,
xlabel style={font=\color{white!15!black}, align=center},
xlabel={Sample Index\\[1ex](a) Actual},
ymin=0,
ymax=0.9,
axis background/.style={fill=white},
legend style={legend cell align=left, align=left, draw=white!15!black}
]
\addplot [color=mycolor1]
  table[row sep=crcr]{%
1	0.0444337104356374\\
2	0.738127803558165\\
3	0.357839506790865\\
4	0.481268775571525\\
5	0.10955194752004\\
6	0.267783168107473\\
7	0.0769544524124665\\
8	0.0372836026936495\\
9	0.027789744685169\\
10	0.0196434178633453\\
11	0.0212138243269196\\
12	0.0147156812719569\\
13	0.0126517206023441\\
14	0.0111331007215966\\
15	0.00994473974674355\\
16	0.00898571135769806\\
17	0.00819466874468931\\
18	0.00753086667278431\\
19	0.00696589032366256\\
20	0.00647923877975415\\
};
\addlegendentry{$\mathbf{h_1}$}

\addplot [color=mycolor2]
  table[row sep=crcr]{%
1	0.0696363384444256\\
2	0.13399148454392\\
3	0.889181852408627\\
4	0.426869408918664\\
5	0.0527923084371181\\
6	0.0393468637154593\\
7	0\\
8	0\\
9	0\\
10	0\\
11	0\\
12	0\\
13	0\\
14	0\\
15	0\\
16	0\\
17	0\\
18	0\\
19	0\\
20	0\\
};
\addlegendentry{$\mathbf{h_{2}}$}

\end{axis}

\begin{axis}[%
width=1.952in,
height=3.2in,
at={(3.327in,0.512in)},
scale only axis,
xmin=0,
xmax=20,
xlabel style={font=\color{white!15!black}, align=center},
xlabel={Sample Index\\[1ex](b) Estimated},
ymin=0,
ymax=0.9,
axis background/.style={fill=white},
legend style={legend cell align=left, align=left, draw=white!15!black}
]
\addplot [color=mycolor1]
  table[row sep=crcr]{%
0	0.0444643748989809\\
1	0.738639533201554\\
2	0.356998741299283\\
3	0.480939201014065\\
4	0.109929485219013\\
5	0.267794072705529\\
6	0.0773460789663036\\
7	0.0372800741654771\\
8	0.027864467422574\\
9	0.0197021928963993\\
10	0.0212429274249934\\
11	0.0147447729574286\\
12	0.0126660395830481\\
13	0.0111606517020072\\
14	0.0099637602744728\\
15	0.00898714008993564\\
16	0.00822200501321879\\
17	0.0075394033944986\\
18	0.0069722646550629\\
19	0.00649618644683168\\
};
\addlegendentry{$\mathbf{\hat{h}_{1}}$}

\addplot [color=mycolor2]
  table[row sep=crcr]{%
0	0.0696630759610289\\
1	0.134130863249821\\
2	0.889667491683101\\
3	0.425843444097064\\
4	0.0525074459325349\\
5	0.0393451237032693\\
6	5.23635222485055e-05\\
7	7.01035023630707e-05\\
8	3.76599760683153e-05\\
9	2.6193934015729e-05\\
10	1.02489919569092e-05\\
11	1.90012467656817e-05\\
12	9.6417620864765e-06\\
13	1.64673440216667e-05\\
14	1.06474212559782e-05\\
15	1.43710963702457e-05\\
16	1.28243617685087e-05\\
17	1.93329312013613e-05\\
18	2.38769970297683e-05\\
19	8.83083058690039e-06\\
};
\addlegendentry{$\mathbf{\hat{h}_{2}}$}

\end{axis}
\end{tikzpicture}%