% This file was created by matlab2tikz.
%
%The latest updates can be retrieved from
%  http://www.mathworks.com/matlabcentral/fileexchange/22022-matlab2tikz-matlab2tikz
%where you can also make suggestions and rate matlab2tikz.
%
\definecolor{mycolor1}{rgb}{0.00000,0.44700,0.74100}%
\definecolor{mycolor2}{rgb}{0.85000,0.32500,0.09800}%
%
\begin{tikzpicture}

\begin{axis}[%
width=1.952in,
height=3.2in,
at={(0.758in,0.512in)},
scale only axis,
xmin=0,
xmax=20,
xlabel style={font=\color{white!15!black}, align=center},
xlabel={Sample Index\\[1ex](a) Actual},
ymin=0,
ymax=0.9,
axis background/.style={fill=white},
legend style={legend cell align=left, align=left, draw=white!15!black}
]
\addplot [color=mycolor1]
  table[row sep=crcr]{%
1	0.0444337104356374\\
2	0.738127803558165\\
3	0.357839506790865\\
4	0.481268775571525\\
5	0.10955194752004\\
6	0.267783168107473\\
7	0.0769544524124665\\
8	0.0372836026936495\\
9	0.027789744685169\\
10	0.0196434178633453\\
11	0.0212138243269196\\
12	0.0147156812719569\\
13	0.0126517206023441\\
14	0.0111331007215966\\
15	0.00994473974674355\\
16	0.00898571135769806\\
17	0.00819466874468931\\
18	0.00753086667278431\\
19	0.00696589032366256\\
20	0.00647923877975415\\
};
\addlegendentry{$\mathbf{h_1}$}

\addplot [color=mycolor2]
  table[row sep=crcr]{%
1	0.0696363384444256\\
2	0.13399148454392\\
3	0.889181852408627\\
4	0.426869408918664\\
5	0.0527923084371181\\
6	0.0393468637154593\\
7	0\\
8	0\\
9	0\\
10	0\\
11	0\\
12	0\\
13	0\\
14	0\\
15	0\\
16	0\\
17	0\\
18	0\\
19	0\\
20	0\\
};
\addlegendentry{$\mathbf{h_{2}}$}

\end{axis}

\begin{axis}[%
width=1.952in,
height=3.2in,
at={(3.327in,0.512in)},
scale only axis,
xmin=0,
xmax=20,
xlabel style={font=\color{white!15!black}, align=center},
xlabel={Sample Index\\[1ex](b) Estimated},
ymin=0,
ymax=0.9,
axis background/.style={fill=white},
legend style={legend cell align=left, align=left, draw=white!15!black}
]
\addplot [color=mycolor1]
  table[row sep=crcr]{%
0	0.0444427695555068\\
1	0.738242242326263\\
2	0.357605438124404\\
3	0.481420005136978\\
4	0.10916218405592\\
5	0.267688190425317\\
6	0.0768117592195617\\
7	0.0373776035003042\\
8	0.0278185952647858\\
9	0.0196810337125306\\
10	0.0212059668234646\\
11	0.0147158095752746\\
12	0.0126530353797028\\
13	0.0111523290395974\\
14	0.00992823884435523\\
15	0.00899689711767434\\
16	0.00818834233502594\\
17	0.00754080561047845\\
18	0.00695916733539326\\
19	0.00648720952679257\\
};
\addlegendentry{$\mathbf{\hat{h}_{1}}$}

\addplot [color=mycolor2]
  table[row sep=crcr]{%
0	0.0696401248655862\\
1	0.133984866021124\\
2	0.88920661519572\\
3	0.426915276663536\\
4	0.0519396160970661\\
5	0.0394400656666077\\
6	5.92578735357085e-05\\
7	4.33739404755662e-05\\
8	2.62152335401329e-05\\
9	2.70878527572104e-05\\
10	6.80369980673835e-06\\
11	1.35611459771235e-05\\
12	1.48312242524796e-05\\
13	6.02610371290189e-06\\
14	1.33491977632288e-05\\
15	1.93301065433799e-05\\
16	5.63577808819838e-06\\
17	6.81550344419452e-06\\
18	1.48123175016413e-05\\
19	9.00881563493583e-06\\
};
\addlegendentry{$\mathbf{\hat{h}_{2}}$}

\end{axis}
\end{tikzpicture}%