\relax 
\providecommand\hyper@newdestlabel[2]{}
\@writefile{toc}{\contentsline {chapter}{\numberline {5}THE ADAPTIVE CROSS-CHANNEL WITH SPARSE SHIFT-SUPPRESSION (AXIS) METHOD}{39}{chapter.5}}
\newlabel{ch:5}{{5}{39}{THE ADAPTIVE CROSS-CHANNEL WITH SPARSE SHIFT-SUPPRESSION (AXIS) METHOD}{chapter.5}{}}
\newlabel{eq:AXIS_objective}{{5.1}{39}{THE ADAPTIVE CROSS-CHANNEL WITH SPARSE SHIFT-SUPPRESSION (AXIS) METHOD}{equation.5.0.1}{}}
\@writefile{toc}{\contentsline {section}{\numberline {5.1}AXIS Derivation}{39}{section.5.1}}
\newlabel{eq:AXIS_lagrangian}{{5.2}{39}{AXIS Derivation}{equation.5.1.2}{}}
\newlabel{eq:AXIS_lambda_mu_update}{{5.3}{39}{AXIS Derivation}{equation.5.1.3}{}}
\newlabel{eq:AXIS_update}{{5.4}{39}{AXIS Derivation}{equation.5.1.4}{}}
\@writefile{lof}{\contentsline {figure}{\numberline {5.1}{\ignorespaces Results of the AXIS algorithm with 250,000 data samples, with SNR = 60 dB, at various sampling rates for wideband simulation, (a) 20 MHz, (b) 100 MHz, (c) 150 MHz, and (d) 200 MHz, for transfer function set TF-1\relax }}{40}{figure.caption.30}}
\newlabel{fig:AXIS_ideal_30v3000}{{5.1}{40}{Results of the AXIS algorithm with 250,000 data samples, with SNR = 60 dB, at various sampling rates for wideband simulation, (a) 20 MHz, (b) 100 MHz, (c) 150 MHz, and (d) 200 MHz, for transfer function set TF-1\relax }{figure.caption.30}{}}
\newlabel{eq:AXIS-system-of-equations}{{5.5}{40}{AXIS Derivation}{equation.5.1.5}{}}
\@writefile{lof}{\contentsline {figure}{\numberline {5.2}{\ignorespaces Results of the AXIS algorithm with 250,000 data samples, with SNR = 60 dB, at various sampling rates for wideband simulation, (a) 20 MHz, (b) 100 MHz, (c) 150 MHz, and (d) 200 MHz, for transfer function set TF-2\relax }}{41}{figure.caption.31}}
\newlabel{fig:AXIS_NITF_30v3000}{{5.2}{41}{Results of the AXIS algorithm with 250,000 data samples, with SNR = 60 dB, at various sampling rates for wideband simulation, (a) 20 MHz, (b) 100 MHz, (c) 150 MHz, and (d) 200 MHz, for transfer function set TF-2\relax }{figure.caption.31}{}}
\newlabel{eq:AXIS-cramers-rule}{{5.6}{41}{AXIS Derivation}{equation.5.1.6}{}}
\newlabel{eq:AXIS-tilde-lambda-mu}{{5.7}{41}{AXIS Derivation}{equation.5.1.7}{}}
\@writefile{lof}{\contentsline {figure}{\numberline {5.3}{\ignorespaces Results of the AXIS algorithm with 250,000 data samples, with SNR = 60 dB, at various sampling rates for narrowband simulation, (a) 20 MHz, (b) 100 MHz, (c) 150 MHz, and (d) 200 MHz, for transfer function set TF-1\relax }}{42}{figure.caption.32}}
\newlabel{fig:AXIS_narrow_30v3000}{{5.3}{42}{Results of the AXIS algorithm with 250,000 data samples, with SNR = 60 dB, at various sampling rates for narrowband simulation, (a) 20 MHz, (b) 100 MHz, (c) 150 MHz, and (d) 200 MHz, for transfer function set TF-1\relax }{figure.caption.32}{}}
\newlabel{eq:AXIS-complete-update}{{5.8}{42}{AXIS Derivation}{equation.5.1.8}{}}
\@writefile{lof}{\contentsline {figure}{\numberline {5.4}{\ignorespaces Results of the AXIS algorithm with 2,500 data samples, with SNR = 60 dB, at various sampling rates for wideband simulation, (a) 20 MHz, (b) 100 MHz, (c) 150 MHz, and (d) 200 MHz, for transfer function set TF-1\relax }}{43}{figure.caption.33}}
\newlabel{fig:AXIS_Nless_30v3000}{{5.4}{43}{Results of the AXIS algorithm with 2,500 data samples, with SNR = 60 dB, at various sampling rates for wideband simulation, (a) 20 MHz, (b) 100 MHz, (c) 150 MHz, and (d) 200 MHz, for transfer function set TF-1\relax }{figure.caption.33}{}}
\@writefile{toc}{\contentsline {subsection}{\numberline {5.1.1}Algorithm Advantages, Implementations, and Modifications}{43}{subsection.5.1.1}}
\citation{work:BSNCID,conf:ETDOARoomRefl}
\@writefile{lof}{\contentsline {figure}{\numberline {5.5}{\ignorespaces Results of the AXIS algorithm with 250,000 data samples, with SNR = 20 dB, at various sampling rates for wideband simulation, (a) 20 MHz, (b) 100 MHz, (c) 150 MHz, and (d) 200 MHz, for transfer function set TF-1\relax }}{44}{figure.caption.34}}
\newlabel{fig:AXIS_noisy_30v3000}{{5.5}{44}{Results of the AXIS algorithm with 250,000 data samples, with SNR = 20 dB, at various sampling rates for wideband simulation, (a) 20 MHz, (b) 100 MHz, (c) 150 MHz, and (d) 200 MHz, for transfer function set TF-1\relax }{figure.caption.34}{}}
\@writefile{lof}{\contentsline {figure}{\numberline {5.6}{\ignorespaces Results of the AXIS algorithm with 250,000 data samples, with SNR = 60 dB for wideband simulation at 200 MHz sampling rate for incorrect model order estimates (a) $L/2$, (b) $L-10$, (c) $2L$, and (d) $L + 10$, for transfer function set TF-1\relax }}{45}{figure.caption.35}}
\newlabel{fig:AXIS_wrongModel_30v3000}{{5.6}{45}{Results of the AXIS algorithm with 250,000 data samples, with SNR = 60 dB for wideband simulation at 200 MHz sampling rate for incorrect model order estimates (a) $L/2$, (b) $L-10$, (c) $2L$, and (d) $L + 10$, for transfer function set TF-1\relax }{figure.caption.35}{}}
\@writefile{toc}{\contentsline {section}{\numberline {5.2}Variations}{46}{section.5.2}}
\@writefile{toc}{\contentsline {subsection}{\numberline {5.2.1}Varied AXIS}{46}{subsection.5.2.1}}
\newlabel{eq:AXIS_varied_objective}{{5.9}{46}{Varied AXIS}{equation.5.2.9}{}}
\newlabel{eq:AXIS_varied-system-of-equations}{{5.10}{46}{Varied AXIS}{equation.5.2.10}{}}
\newlabel{eq:AXIS_varied-cramers-rule}{{5.11}{46}{Varied AXIS}{equation.5.2.11}{}}
\newlabel{eq:AXIS_varied-tilde-lambda-mu}{{5.12}{46}{Varied AXIS}{equation.5.2.12}{}}
\@writefile{lof}{\contentsline {figure}{\numberline {5.7}{\ignorespaces Results of the VAXIS algorithm with 250,000 data samples, with SNR = 60 dB, at various sampling rates for wideband simulation, (a) 20 MHz, (b) 100 MHz, (c) 150 MHz, and (d) 200 MHz, for transfer function set TF-1\relax }}{47}{figure.caption.36}}
\newlabel{fig:VAXIS_ideal_30v3000}{{5.7}{47}{Results of the VAXIS algorithm with 250,000 data samples, with SNR = 60 dB, at various sampling rates for wideband simulation, (a) 20 MHz, (b) 100 MHz, (c) 150 MHz, and (d) 200 MHz, for transfer function set TF-1\relax }{figure.caption.36}{}}
\newlabel{eq:AXIS_varied-complete-update}{{5.13}{47}{Varied AXIS}{equation.5.2.13}{}}
\@writefile{toc}{\contentsline {subsection}{\numberline {5.2.2}Dual Fixed-Peak AXIS}{48}{subsection.5.2.2}}
\newlabel{eq:AXIS_dfp_objective}{{5.14}{48}{Dual Fixed-Peak AXIS}{equation.5.2.14}{}}
\newlabel{eq:AXIS_dfp_lagrangian}{{5.15}{48}{Dual Fixed-Peak AXIS}{equation.5.2.15}{}}
\newlabel{eq:AXIS_dfp_lambda_mu_update}{{5.16}{48}{Dual Fixed-Peak AXIS}{equation.5.2.16}{}}
\@writefile{lof}{\contentsline {figure}{\numberline {5.8}{\ignorespaces Results of the DFPAXIS algorithm with 250,000 data samples, with SNR = 60 dB, at various sampling rates for wideband simulation, (a) 20 MHz, (b) 100 MHz, (c) 150 MHz, and (d) 200 MHz, for transfer function set TF-1\relax }}{49}{figure.caption.37}}
\newlabel{fig:DFPAXIS_ideal_30v3000}{{5.8}{49}{Results of the DFPAXIS algorithm with 250,000 data samples, with SNR = 60 dB, at various sampling rates for wideband simulation, (a) 20 MHz, (b) 100 MHz, (c) 150 MHz, and (d) 200 MHz, for transfer function set TF-1\relax }{figure.caption.37}{}}
\newlabel{eq:AXIS_dfp_update}{{5.17}{49}{Dual Fixed-Peak AXIS}{equation.5.2.17}{}}
\newlabel{eq:AXIS_dfp_system_of_equations}{{5.18}{49}{Dual Fixed-Peak AXIS}{equation.5.2.18}{}}
\newlabel{eq:AXIS_dfp-cramers-rule}{{5.19}{50}{Dual Fixed-Peak AXIS}{equation.5.2.19}{}}
\newlabel{eq:AXIS_dfp-tilde-lambda-mu-beta}{{5.20}{50}{Dual Fixed-Peak AXIS}{equation.5.2.20}{}}
\newlabel{eq:AXIS_dfp-complete-update}{{5.21}{50}{Dual Fixed-Peak AXIS}{equation.5.2.21}{}}
\@writefile{toc}{\contentsline {section}{\numberline {5.3}Data Verification}{51}{section.5.3}}
\newlabel{sec:AXIS_data}{{5.3}{51}{Data Verification}{section.5.3}{}}
\@writefile{toc}{\contentsline {subsection}{\numberline {5.3.1}Simulation}{51}{subsection.5.3.1}}
\newlabel{sec:AXIS_simulations}{{5.3.1}{51}{Simulation}{subsection.5.3.1}{}}
\@writefile{toc}{\contentsline {subsubsection}{Wideband vs Narrowband}{51}{section*.38}}
\@writefile{toc}{\contentsline {subsection}{\numberline {5.3.2}Observed Data}{51}{subsection.5.3.2}}
\@writefile{toc}{\contentsline {subsubsection}{Wideband vs Narrowband}{51}{section*.39}}
\@writefile{toc}{\contentsline {section}{\numberline {5.4}Issues with the Algorithms}{51}{section.5.4}}
\@writefile{toc}{\contentsline {section}{\numberline {5.5}Possible Improvements}{52}{section.5.5}}
\@setckpt{Chapters/Chapter_5/ch_5_AXIS}{
\setcounter{page}{53}
\setcounter{equation}{21}
\setcounter{enumi}{2}
\setcounter{enumii}{0}
\setcounter{enumiii}{0}
\setcounter{enumiv}{0}
\setcounter{footnote}{0}
\setcounter{mpfootnote}{0}
\setcounter{part}{0}
\setcounter{chapter}{5}
\setcounter{section}{5}
\setcounter{subsection}{0}
\setcounter{subsubsection}{0}
\setcounter{paragraph}{0}
\setcounter{subparagraph}{0}
\setcounter{figure}{8}
\setcounter{table}{0}
\setcounter{savemainpageno}{0}
\setcounter{savefrontpageno}{11}
\setcounter{savetotalpageno}{0}
\setcounter{float@type}{16}
\setcounter{alg}{0}
\setcounter{parentequation}{0}
\setcounter{lstnumber}{1}
\setcounter{ContinuedFloat}{0}
\setcounter{subfigure}{4}
\setcounter{subtable}{0}
\setcounter{Item}{2}
\setcounter{Hfootnote}{6}
\setcounter{bookmark@seq@number}{46}
\setcounter{lstlisting}{0}
\setcounter{section@level}{1}
}
