\relax 
\providecommand\hyper@newdestlabel[2]{}
\citation{conf:AED,art:MultiChannelBID,art:BSI,art:FastMLforBID,art:AlgBEwMultiAntennas,art:LS_Approach_BCID,art:Det_BID_Multi-FIRSystems,art:AdaptBESparse,art:IDinBDeconv,art:SparseBDeConv}
\citation{book:AcousticMIMOSigProc,art:AdaptiveTDEUsingFilterConstraints,art:TDEviaMinEntropy,art:AEDDecomp,conf:MAPEofTD,work:BSNCID}
\@writefile{toc}{\contentsline {chapter}{\numberline {3}PROBLEM OVERVIEW}{9}{chapter.3}}
\newlabel{ch:3}{{3}{9}{PROBLEM OVERVIEW}{chapter.3}{}}
\@writefile{toc}{\contentsline {section}{\numberline {3.1}Objective}{9}{section.3.1}}
\citation{art:InnovIndoorGeolocation,book:sourceLocal}
\citation{art:MLEofTDinMulti}
\citation{book:sourceLocal,art:InnovIndoorGeolocation,art:MLEofTDinMulti,art:ImpSourceLocal}
\citation{book:sourceLocal,art:MLEofTDinMulti,thesis:Geolocation}
\citation{art:ImpSourceLocal,book:sourceLocal,thesis:Geolocation}
\citation{art:MLEofTDinMulti,book:AcousticMIMOSigProc}
\@writefile{toc}{\contentsline {section}{\numberline {3.2}The Multipath Problem}{10}{section.3.2}}
\citation{conf:geoTDOAHyperbolic,thesis:Geolocation,conf:locMovTDOA_FDOA,art:SimpEffEstHyperbolicLoc,conf:iSourceLocTDOA_FDOA}
\@writefile{lof}{\contentsline {figure}{\numberline {3.1}{\ignorespaces An example of the multipath problem, where each color of line denotes a different path from the transmitter to a receiver, and the black lines denote walls. The solid line paths are possible reflective paths, and the dashed lines are direct paths. \relax }}{11}{figure.caption.8}}
\providecommand*\caption@xref[2]{\@setref\relax\@undefined{#1}}
\newlabel{fig:simEnv_rec_trans}{{3.1}{11}{An example of the multipath problem, where each color of line denotes a different path from the transmitter to a receiver, and the black lines denote walls. The solid line paths are possible reflective paths, and the dashed lines are direct paths. \relax }{figure.caption.8}{}}
\@writefile{toc}{\contentsline {subsection}{\numberline {3.2.1}TDOA Calculations}{11}{subsection.3.2.1}}
\citation{conf:geoTDOAHyperbolic,art:SimpEffEstHyperbolicLoc,thesis:Geolocation,conf:locMovTDOA_FDOA,conf:iSourceLocTDOA_FDOA}
\citation{conf:geoTDOAHyperbolic,thesis:Geolocation,conf:geoTDOA_FDOA}
\newlabel{fig:CC_a}{{3.2(a)}{13}{Simulation environment with two receivers and test point, with an example grid overlaid.\relax }{figure.caption.9}{}}
\newlabel{sub@fig:CC_a}{{(a)}{13}{Simulation environment with two receivers and test point, with an example grid overlaid.\relax }{figure.caption.9}{}}
\newlabel{fig:CC_b}{{3.2(b)}{13}{An example of a time likelihood curve via the magnitude plot for the CC for channels 1 and 2.\relax }{figure.caption.9}{}}
\newlabel{sub@fig:CC_b}{{(b)}{13}{An example of a time likelihood curve via the magnitude plot for the CC for channels 1 and 2.\relax }{figure.caption.9}{}}
\@writefile{lof}{\contentsline {figure}{\numberline {3.2}{\ignorespaces Simple pictorial TDOA method.\relax }}{13}{figure.caption.9}}
\newlabel{fig:simEnv_TDOA}{{3.2}{13}{Simple pictorial TDOA method.\relax }{figure.caption.9}{}}
\newlabel{eq:distCalc}{{3.2}{13}{TDOA Calculations}{equation.3.2.2}{}}
\@writefile{lof}{\contentsline {figure}{\numberline {3.3}{\ignorespaces The results of CC TDOA using the LUT method for 250,000 data samples, and two receivers.\relax }}{14}{figure.caption.10}}
\newlabel{fig:CC_res}{{3.3}{14}{The results of CC TDOA using the LUT method for 250,000 data samples, and two receivers.\relax }{figure.caption.10}{}}
\@writefile{toc}{\contentsline {subsection}{\numberline {3.2.2}Time Delay Estimation Methods}{14}{subsection.3.2.2}}
\@writefile{lof}{\contentsline {figure}{\numberline {3.4}{\ignorespaces An example of the normalized delay between two channels, $\mathbf  {h}_1$ and $\mathbf  {h}_2$.\relax }}{15}{figure.caption.11}}
\newlabel{fig:peak_comparison}{{3.4}{15}{An example of the normalized delay between two channels, $\mathbf {h}_1$ and $\mathbf {h}_2$.\relax }{figure.caption.11}{}}
\newlabel{eq:tau}{{3.4}{15}{Time Delay Estimation Methods}{equation.3.2.4}{}}
\newlabel{eq:dist}{{3.5}{15}{Time Delay Estimation Methods}{equation.3.2.5}{}}
\@writefile{toc}{\contentsline {subsubsection}{Generalized Cross-Correlation TDOA Approach}{15}{section*.12}}
\newlabel{sec:GCC}{{3.2.2}{15}{Generalized Cross-Correlation TDOA Approach}{section*.12}{}}
\citation{book:AcousticMIMOSigProc,conf:MAPEofTD,art:GCC,art:AEDDecomp}
\citation{web:CC}
\citation{book:ProbRVandRP,conf:MAPEofTD,book:AcousticMIMOSigProc,art:GCC,art:ResearchTDE,thesis:Geolocation}
\citation{art:GCC,art:AEDDecomp,conf:AED,conf:MAPEofTD,book:AcousticMIMOSigProc,thesis:SLvTDOA}
\citation{art:GCC,conf:MAPEofTD,book:AcousticMIMOSigProc}
\newlabel{eq:CC}{{3.6}{16}{Generalized Cross-Correlation TDOA Approach}{equation.3.2.6}{}}
\newlabel{eq:freq_CC}{{3.9}{16}{Generalized Cross-Correlation TDOA Approach}{equation.3.2.9}{}}
\citation{book:AcousticMIMOSigProc,art:GCC,conf:AED,art:AEDDecomp,art:ResearchTDE,thesis:SLvTDOA,thesis:Geolocation}
\citation{conf:AED,art:AdaptiveTDEUsingFilterConstraints,art:AdaptBESparse,art:AEDDecomp,art:GCC,conf:MAPEofTD,book:AcousticMIMOSigProc}
\citation{art:AEDDecomp,art:GCC,art:MLEofTDinMulti,conf:MAPEofTD,book:AcousticMIMOSigProc,thesis:Geolocation}
\citation{art:AEDDecomp,art:GCC,book:AcousticMIMOSigProc}
\citation{art:GCC,book:AcousticMIMOSigProc}
\citation{art:GCC}
\citation{conf:MAPEofTD,book:moon}
\citation{thesis:SLvTDOA,art:GCC,conf:AED}
\citation{art:GCC,conf:AED,conf:MAPEofTD}
\citation{thesis:SLvTDOA,art:GCC,art:AEDDecomp,book:AcousticMIMOSigProc}
\citation{art:AdaptBESparse,thesis:SLvTDOA,conf:AED,art:AEDDecomp,art:ResearchTDE}
\citation{art:GCC}
\citation{art:AEDDecomp,conf:AED,book:AcousticMIMOSigProc}
\citation{art:Det_BID_Multi-FIRSystems,art:LS_Approach_BCID}
\@writefile{toc}{\contentsline {subsubsection}{Other Algorithms}{18}{section*.13}}
\@writefile{lof}{\contentsline {figure}{\numberline {3.5}{\ignorespaces The environment used to simulate impulse responses including the location of the transmitter, and two of the potential receivers which were used for all testing. The black lines represent the ``walls", or rather boundaries, on which reflections and refractions may occur.\relax }}{20}{figure.caption.14}}
\newlabel{fig:simEnv}{{3.5}{20}{The environment used to simulate impulse responses including the location of the transmitter, and two of the potential receivers which were used for all testing. The black lines represent the ``walls", or rather boundaries, on which reflections and refractions may occur.\relax }{figure.caption.14}{}}
\@writefile{toc}{\contentsline {section}{\numberline {3.3}Simulations}{20}{section.3.3}}
\newlabel{sec:sim_param}{{3.3}{20}{Simulations}{section.3.3}{}}
\@writefile{lof}{\contentsline {figure}{\numberline {3.6}{\ignorespaces Ideal impulse response explanation\relax }}{21}{figure.caption.15}}
\newlabel{fig:idealImp}{{3.6}{21}{Ideal impulse response explanation\relax }{figure.caption.15}{}}
\@writefile{lof}{\contentsline {figure}{\numberline {3.7}{\ignorespaces Simulated impulse response explanation.\relax }}{22}{figure.caption.16}}
\newlabel{fig:idealImpDelay}{{3.7}{22}{Simulated impulse response explanation.\relax }{figure.caption.16}{}}
\@writefile{toc}{\contentsline {subsection}{\numberline {3.3.1}Different Simulation Parameters}{23}{subsection.3.3.1}}
\newlabel{sec:diffSimParam}{{3.3.1}{23}{Different Simulation Parameters}{subsection.3.3.1}{}}
\@writefile{toc}{\contentsline {subsubsection}{Signal Bandwidth}{23}{section*.17}}
\newlabel{sec:narrow_v_wide}{{3.3.1}{23}{Signal Bandwidth}{section*.17}{}}
\@writefile{toc}{\contentsline {subsubsection}{Noise}{23}{section*.19}}
\citation{art:BSI,art:MultiChannelBID,art:LS_Approach_BCID}
\@writefile{lof}{\contentsline {figure}{\numberline {3.8}{\ignorespaces Power spectral density comparison for (a) wideband, versus (b) narrowband data at 20 MHz.\relax }}{24}{figure.caption.18}}
\newlabel{fig:freq_comparison}{{3.8}{24}{Power spectral density comparison for (a) wideband, versus (b) narrowband data at 20 MHz.\relax }{figure.caption.18}{}}
\@writefile{lot}{\contentsline {table}{\numberline {3.1}{\ignorespaces Noise amount with corresponding SNR in dB.\relax }}{24}{table.caption.20}}
\newlabel{tab:Noise}{{3.1}{24}{Noise amount with corresponding SNR in dB.\relax }{table.caption.20}{}}
\@writefile{toc}{\contentsline {subsubsection}{Sample Size}{24}{section*.21}}
\@writefile{toc}{\contentsline {subsubsection}{Model Order Estimates}{25}{section*.22}}
\@writefile{lot}{\contentsline {table}{\numberline {3.2}{\ignorespaces Various model order estimates used for algorithm simulation\relax }}{25}{table.caption.23}}
\newlabel{tab:Model Order}{{3.2}{25}{Various model order estimates used for algorithm simulation\relax }{table.caption.23}{}}
\@writefile{toc}{\contentsline {subsubsection}{The Ideal Simulation}{25}{section*.24}}
\@writefile{toc}{\contentsline {subsection}{\numberline {3.3.2}Coding Modifications}{26}{subsection.3.3.2}}
\@writefile{toc}{\contentsline {subsection}{\numberline {3.3.3}Results Explanation}{26}{subsection.3.3.3}}
\newlabel{sec:ch3_sim_results}{{3.3.3}{26}{Results Explanation}{subsection.3.3.3}{}}
\newlabel{eq:distAvg}{{3.14}{28}{Results Explanation}{equation.3.3.14}{}}
\newlabel{fig:USUrec}{{3.9(a)}{29}{Locations of receiver antennas in the ceiling.\relax }{figure.caption.25}{}}
\newlabel{sub@fig:USUrec}{{(a)}{29}{Locations of receiver antennas in the ceiling.\relax }{figure.caption.25}{}}
\newlabel{fig:USUtrans}{{3.9(b)}{29}{Locations of the transmitter antenna on the floor.\relax }{figure.caption.25}{}}
\newlabel{sub@fig:USUtrans}{{(b)}{29}{Locations of the transmitter antenna on the floor.\relax }{figure.caption.25}{}}
\@writefile{lof}{\contentsline {figure}{\numberline {3.9}{\ignorespaces SANT building layout with the basic outline of the data collection. The circles either denote the location of a receiver or the location of the transmitter, whereas the lines depict the general layout of the major walls on the second floor of the building. Figure (a) shows the locations of the receivers in the ceiling and Figure (b) shows the various locations of the data transmitter used.\relax }}{29}{figure.caption.25}}
\newlabel{fig:USU}{{3.9}{29}{SANT building layout with the basic outline of the data collection. The circles either denote the location of a receiver or the location of the transmitter, whereas the lines depict the general layout of the major walls on the second floor of the building. Figure (a) shows the locations of the receivers in the ceiling and Figure (b) shows the various locations of the data transmitter used.\relax }{figure.caption.25}{}}
\@writefile{toc}{\contentsline {section}{\numberline {3.4}Data Collection}{29}{section.3.4}}
\newlabel{fig:USUtrans_Corner}{{3.10(a)}{30}{Transmitter location for the corner data sets.\relax }{figure.caption.26}{}}
\newlabel{sub@fig:USUtrans_Corner}{{(a)}{30}{Transmitter location for the corner data sets.\relax }{figure.caption.26}{}}
\newlabel{fig:USUtrans_Hall}{{3.10(b)}{30}{Transmitter location for the hallway data sets.\relax }{figure.caption.26}{}}
\newlabel{sub@fig:USUtrans_Hall}{{(b)}{30}{Transmitter location for the hallway data sets.\relax }{figure.caption.26}{}}
\newlabel{fig:USUtrans_Lab}{{3.10(c)}{30}{Transmitter location of the lab data sets.\relax }{figure.caption.26}{}}
\newlabel{sub@fig:USUtrans_Lab}{{(c)}{30}{Transmitter location of the lab data sets.\relax }{figure.caption.26}{}}
\@writefile{lof}{\contentsline {figure}{\numberline {3.10}{\ignorespaces Transmitter locations for the data sets.\relax }}{30}{figure.caption.26}}
\newlabel{fig:USUtrans_locs}{{3.10}{30}{Transmitter locations for the data sets.\relax }{figure.caption.26}{}}
\@writefile{toc}{\contentsline {section}{\numberline {3.5}Data Sets}{30}{section.3.5}}
\newlabel{sec:DataSets}{{3.5}{30}{Data Sets}{section.3.5}{}}
\@writefile{lof}{\contentsline {figure}{\numberline {3.11}{\ignorespaces The respective locations of each channel\relax }}{31}{figure.caption.27}}
\newlabel{fig:USU_rec_Num}{{3.11}{31}{The respective locations of each channel\relax }{figure.caption.27}{}}
\@writefile{toc}{\contentsline {subsection}{\numberline {3.5.1}HT Data Sets}{31}{subsection.3.5.1}}
\@writefile{toc}{\contentsline {subsection}{\numberline {3.5.2}Gaussian White-Noise Data Sets}{31}{subsection.3.5.2}}
\newlabel{fig:freq_HT_chan1}{{3.12(a)}{32}{HT: Channel 1\relax }{figure.caption.28}{}}
\newlabel{sub@fig:freq_HT_chan1}{{(a)}{32}{HT: Channel 1\relax }{figure.caption.28}{}}
\newlabel{fig:freq_HT_chan2}{{3.12(b)}{32}{HT: Channel 2.\relax }{figure.caption.28}{}}
\newlabel{sub@fig:freq_HT_chan2}{{(b)}{32}{HT: Channel 2.\relax }{figure.caption.28}{}}
\newlabel{fig:freq_HT_chan3}{{3.12(c)}{32}{HT: Channel 3.\relax }{figure.caption.28}{}}
\newlabel{sub@fig:freq_HT_chan3}{{(c)}{32}{HT: Channel 3.\relax }{figure.caption.28}{}}
\newlabel{fig:freq_HT_chan4}{{3.12(d)}{32}{HT: Channel 4.\relax }{figure.caption.28}{}}
\newlabel{sub@fig:freq_HT_chan4}{{(d)}{32}{HT: Channel 4.\relax }{figure.caption.28}{}}
\newlabel{fig:freq_Gauss_chan1}{{3.12(e)}{32}{Gauss: Channel 1\relax }{figure.caption.28}{}}
\newlabel{sub@fig:freq_Gauss_chan1}{{(e)}{32}{Gauss: Channel 1\relax }{figure.caption.28}{}}
\newlabel{fig:freq_Gauss_chan2}{{3.12(f)}{32}{Gauss: Channel 2.\relax }{figure.caption.28}{}}
\newlabel{sub@fig:freq_Gauss_chan2}{{(f)}{32}{Gauss: Channel 2.\relax }{figure.caption.28}{}}
\newlabel{fig:freq_Gauss_chan3}{{3.12(g)}{32}{Gauss: Channel 3.\relax }{figure.caption.28}{}}
\newlabel{sub@fig:freq_Gauss_chan3}{{(g)}{32}{Gauss: Channel 3.\relax }{figure.caption.28}{}}
\newlabel{fig:freq_Gauss_chan4}{{3.12(h)}{32}{Gauss: Channel 4.\relax }{figure.caption.28}{}}
\newlabel{sub@fig:freq_Gauss_chan4}{{(h)}{32}{Gauss: Channel 4.\relax }{figure.caption.28}{}}
\@writefile{lof}{\contentsline {figure}{\numberline {3.12}{\ignorespaces Comparison of the normalized frequency bandwidths at each receiver for both data sets for the corner data set.\relax }}{32}{figure.caption.28}}
\newlabel{fig:real_freq_bandwidths}{{3.12}{32}{Comparison of the normalized frequency bandwidths at each receiver for both data sets for the corner data set.\relax }{figure.caption.28}{}}
\@setckpt{Chapters/Chapter_3/ch_3_problem_overview}{
\setcounter{page}{34}
\setcounter{equation}{15}
\setcounter{enumi}{3}
\setcounter{enumii}{0}
\setcounter{enumiii}{0}
\setcounter{enumiv}{0}
\setcounter{footnote}{3}
\setcounter{mpfootnote}{0}
\setcounter{part}{0}
\setcounter{chapter}{3}
\setcounter{section}{5}
\setcounter{subsection}{2}
\setcounter{subsubsection}{0}
\setcounter{paragraph}{0}
\setcounter{subparagraph}{0}
\setcounter{figure}{12}
\setcounter{table}{2}
\setcounter{savemainpageno}{0}
\setcounter{savefrontpageno}{22}
\setcounter{savetotalpageno}{0}
\setcounter{float@type}{16}
\setcounter{alg}{0}
\setcounter{parentequation}{0}
\setcounter{lstnumber}{1}
\setcounter{LT@tables}{0}
\setcounter{LT@chunks}{0}
\setcounter{ContinuedFloat}{0}
\setcounter{subfigure}{8}
\setcounter{subtable}{0}
\setcounter{Item}{12}
\setcounter{Hfootnote}{5}
\setcounter{bookmark@seq@number}{25}
\setcounter{lstlisting}{0}
\setcounter{section@level}{2}
}
