#FIG 3.2  Produced by xfig version 3.2.6a
Landscape
Center
Metric
A4
100.00
Single
-2
1200 2
2 1 0 1 0 7 50 -1 -1 0.000 0 0 -1 1 1 2
	0 0 1.00 30.00 60.00
	0 0 1.00 30.00 60.00
	 1260 2250 3060 2250
2 1 0 1 1 1 50 -1 -1 0.000 0 0 -1 0 0 2
	 1350 2025 3015 2025
4 0 0 50 -1 0 8 0.0000 2 120 345 2565 2160 $H(f)$\001
