%!PS-Adobe-3.0 EPSF-3.0
%%Title: junk.pstex
%%Creator: fig2dev Version 3.2.6a
%%CreationDate: 2020-03-19 14:03:19
%%BoundingBox: 0 0 135 86
%Magnification: 1.0000
%%EndComments
%%BeginProlog
/$F2psDict 200 dict def
$F2psDict begin
$F2psDict /mtrx matrix put
/col-1 {0 setgray} bind def
/col0 {0.000 0.000 0.000 srgb} bind def
/col7 {1.000 1.000 1.000 srgb} bind def

end

/cp {closepath} bind def
/ef {eofill} bind def
/gr {grestore} bind def
/gs {gsave} bind def
/sa {save} bind def
/rs {restore} bind def
/l {lineto} bind def
/m {moveto} bind def
/rm {rmoveto} bind def
/n {newpath} bind def
/s {stroke} bind def
/sh {show} bind def
/slc {setlinecap} bind def
/slj {setlinejoin} bind def
/slw {setlinewidth} bind def
/srgb {setrgbcolor} bind def
/rot {rotate} bind def
/sc {scale} bind def
/sd {setdash} bind def
/ff {findfont} bind def
/sf {setfont} bind def
/scf {scalefont} bind def
/sw {stringwidth} bind def
/tr {translate} bind def
/tnt {dup dup currentrgbcolor
  4 -2 roll dup 1 exch sub 3 -1 roll mul add
  4 -2 roll dup 1 exch sub 3 -1 roll mul add
  4 -2 roll dup 1 exch sub 3 -1 roll mul add srgb}
  bind def
/shd {dup dup currentrgbcolor 4 -2 roll mul 4 -2 roll mul
  4 -2 roll mul srgb} bind def
/$F2psBegin {$F2psDict begin /$F2psEnteredState save def} def
/$F2psEnd {$F2psEnteredState restore end} def

/pageheader {
save
newpath 0 86 moveto 0 0 lineto 135 0 lineto 135 86 lineto closepath clip newpath
-50.1 153.8 translate
1 -1 scale
$F2psBegin
10 setmiterlimit
0 slj 0 slc
 0.06299 0.06299 sc
} bind def
/pagefooter {
$F2psEnd
restore
} bind def
%%EndProlog
pageheader
%
% Fig objects follow
%
% 
% here starts figure with depth 50
% Polyline
0 slj
0 slc
7.500 slw
gs  clippath
1447 1928 m 1447 1942 l 1364 1950 l 1364 1920 l cp
eoclip
n 810 1935 m
 1440 1935 l gs col0 s gr gr

% arrowhead
n 1364 1950 m 1424 1935 l 1364 1920 l 1364 1950 l  cp gs 0.00 setgray ef gr  col0 s
% Polyline
gs  clippath
1439 1970 m 1450 1979 l 1403 2048 l 1380 2029 l cp
eoclip
n 1215 2250 m
 1440 1980 l gs col0 s gr gr

% arrowhead
n 1403 2048 m 1430 1992 l 1380 2029 l 1403 2048 l  cp gs 0.00 setgray ef gr  col0 s
% Polyline
n 1440 1350 m 2925 1350 l 2925 2430 l 1440 2430 l
 cp gs col0 s gr 
% here ends figure;
pagefooter
showpage
%%Trailer
%EOF
