This is BibTeX, Version 0.99d (TeX Live 2017/Debian)
Capacity: max_strings=100000, hash_size=100000, hash_prime=85009
The top-level auxiliary file: thesis.aux
A level-1 auxiliary file: abstract.aux
A level-1 auxiliary file: publicabstract.aux
A level-1 auxiliary file: acknowl.aux
A level-1 auxiliary file: acronyms.aux
A level-1 auxiliary file: Chapters/Chapter_1/ch_1_introduction.aux
A level-1 auxiliary file: Chapters/Chapter_2/ch_2_lit_review.aux
A level-1 auxiliary file: Chapters/Chapter_3/ch_3_problem_overview.aux
A level-1 auxiliary file: Chapters/Chapter_4/ch_4_cross_relation_methods.aux
A level-1 auxiliary file: Chapters/Chapter_5/ch_5_AXIS.aux
A level-1 auxiliary file: Chapters/Chapter_6/ch_6_Brute.aux
A level-1 auxiliary file: Chapters/Chapter_8/ch_8_results.aux
A level-1 auxiliary file: Chapters/Chapter_9/ch_9_conclusion.aux
The style file: IEEEtran.bst
A level-1 auxiliary file: Chapters/Appendix/appendix.aux
Reallocated singl_function (elt_size=4) to 100 items from 50.
Reallocated singl_function (elt_size=4) to 100 items from 50.
Reallocated singl_function (elt_size=4) to 100 items from 50.
Reallocated wiz_functions (elt_size=4) to 6000 items from 3000.
Reallocated singl_function (elt_size=4) to 100 items from 50.
Database file #1: IEEEabrv.bib
Database file #2: sample.bib
-- IEEEtran.bst version 1.14 (2015/08/26) by Michael Shell.
-- http://www.michaelshell.org/tex/ieeetran/bibtex/
-- See the "IEEEtran_bst_HOWTO.pdf" manual for usage information.

Done.
You've used 60 entries,
            4087 wiz_defined-function locations,
            1767 strings with 29864 characters,
and the built_in function-call counts, 50590 in all, are:
= -- 3989
> -- 1061
< -- 523
+ -- 624
- -- 146
* -- 2401
:= -- 7151
add.period$ -- 120
call.type$ -- 60
change.case$ -- 53
chr.to.int$ -- 1284
cite$ -- 60
duplicate$ -- 3471
empty$ -- 4197
format.name$ -- 194
if$ -- 12078
int.to.chr$ -- 0
int.to.str$ -- 60
missing$ -- 572
newline$ -- 213
num.names$ -- 59
pop$ -- 1348
preamble$ -- 1
purify$ -- 0
quote$ -- 2
skip$ -- 3879
stack$ -- 0
substring$ -- 2976
swap$ -- 3032
text.length$ -- 95
text.prefix$ -- 0
top$ -- 5
type$ -- 60
warning$ -- 0
while$ -- 209
width$ -- 62
write$ -- 605
