\contentsline {table}{\numberline {3.1}{\ignorespaces Noise amount with corresponding SNR in dB.\relax }}{24}{table.caption.20}
\contentsline {table}{\numberline {3.2}{\ignorespaces Various model order estimates used for algorithm simulation\relax }}{25}{table.caption.23}
\contentsline {table}{\numberline {4.1}{\ignorespaces Numerical results for pre-existing and modified algorithms in the ``Ideal'' case.\relax }}{65}{table.caption.54}
\contentsline {table}{\numberline {4.2}{\ignorespaces Numerical results for pre-existing and modified algorithms in the narrowband case.\relax }}{66}{table.caption.55}
\contentsline {table}{\numberline {4.3}{\ignorespaces Numerical results for pre-existing and modified algorithms in the noisy case.\relax }}{67}{table.caption.56}
\contentsline {table}{\numberline {4.4}{\ignorespaces Numerical results for pre-existing and modified algorithms in the smaller data size case.\relax }}{68}{table.caption.57}
\contentsline {table}{\numberline {4.5}{\ignorespaces Numerical results for pre-existing and modified algorithms in the wrong model order, $L/2$, case.\relax }}{69}{table.caption.58}
\contentsline {table}{\numberline {4.6}{\ignorespaces Numerical results for pre-existing and modified algorithms in the wrong model order, $L-10$, case.\relax }}{70}{table.caption.59}
\contentsline {table}{\numberline {4.7}{\ignorespaces Numerical results for pre-existing and modified algorithms in the wrong model order, $2L$, case.\relax }}{71}{table.caption.60}
\contentsline {table}{\numberline {4.8}{\ignorespaces Numerical results for pre-existing and modified algorithms in the wrong model order, $L+10$, case.\relax }}{72}{table.caption.61}
\contentsline {table}{\numberline {4.9}{\ignorespaces Numerical results for pre-existing and modified algorithms in the normalized random start case.\relax }}{73}{table.caption.62}
\contentsline {table}{\numberline {5.1}{\ignorespaces Numerical results for the AXIS algorithms in the ``ideal'' case for set IR-1.\relax }}{98}{table.caption.86}
\contentsline {table}{\numberline {5.2}{\ignorespaces Numerical results for the AXIS algorithms in the ``ideal'' case for set IR-2.\relax }}{99}{table.caption.87}
\contentsline {table}{\numberline {5.3}{\ignorespaces Numerical results for the AXIS algorithms in the narrowband case for set IR-1.\relax }}{100}{table.caption.88}
\contentsline {table}{\numberline {5.4}{\ignorespaces Numerical results for the AXIS algorithms in the narrowband case for set IR-2.\relax }}{101}{table.caption.89}
\contentsline {table}{\numberline {5.5}{\ignorespaces Numerical results for the AXIS algorithms in the noisy case for set IR-1.\relax }}{102}{table.caption.90}
\contentsline {table}{\numberline {5.6}{\ignorespaces Numerical results for the AXIS algorithms in the noisy case for set IR-2.\relax }}{103}{table.caption.91}
\contentsline {table}{\numberline {5.7}{\ignorespaces Numerical results for the AXIS algorithms in the smaller data size case for set IR-1.\relax }}{104}{table.caption.92}
\contentsline {table}{\numberline {5.8}{\ignorespaces Numerical results for the AXIS algorithms in the smaller data size case for set IR-2.\relax }}{105}{table.caption.93}
\contentsline {table}{\numberline {5.9}{\ignorespaces Numerical results of the AXIS algorithms in the wrong model order, $L/2$, case for set IR-1.\relax }}{106}{table.caption.94}
\contentsline {table}{\numberline {5.10}{\ignorespaces Numerical results of the AXIS algorithms in the wrong model order, $L/2$, case for set IR-2.\relax }}{107}{table.caption.95}
\contentsline {table}{\numberline {5.11}{\ignorespaces Numerical results of the AXIS algorithms in the wrong model order, $L-10$, case for set IR-1.\relax }}{108}{table.caption.96}
\contentsline {table}{\numberline {5.12}{\ignorespaces Numerical results of the AXIS algorithms in the wrong model order, $L-10$, case for set IR-2.\relax }}{109}{table.caption.97}
\contentsline {table}{\numberline {5.13}{\ignorespaces Numerical results of the AXIS algorithms in the wrong model order, $2L$, case for set IR-1.\relax }}{110}{table.caption.98}
\contentsline {table}{\numberline {5.14}{\ignorespaces Numerical results of the AXIS algorithms in the wrong model order, $2L$, case for set IR-2.\relax }}{111}{table.caption.99}
\contentsline {table}{\numberline {5.15}{\ignorespaces Numerical results of the AXIS algorithms in the wrong model order, $L+10$, case for set IR-1.\relax }}{112}{table.caption.100}
\contentsline {table}{\numberline {5.16}{\ignorespaces Numerical results of the AXIS algorithms in the wrong model order, $L+10$, case for set IR-2.\relax }}{113}{table.caption.101}
\contentsline {table}{\numberline {5.17}{\ignorespaces Numerical results of the AXIS algorithms in the normalized random start case for set IR-1.\relax }}{114}{table.caption.102}
\contentsline {table}{\numberline {5.18}{\ignorespaces Numerical results of the AXIS algorithms in the normalized random start case for set IR-2.\relax }}{115}{table.caption.103}
\contentsline {table}{\numberline {6.1}{\ignorespaces Numerical results for the BF algorithms in the ``ideal'' case.\relax }}{139}{table.caption.128}
\contentsline {table}{\numberline {6.2}{\ignorespaces Numerical results for the BF algorithms in the narrowband case.\relax }}{140}{table.caption.129}
\contentsline {table}{\numberline {6.3}{\ignorespaces Numerical results for the BF algorithms in the noisy case.\relax }}{141}{table.caption.130}
\contentsline {table}{\numberline {6.4}{\ignorespaces Numerical results for the BF algorithms in the smaller data size case.\relax }}{142}{table.caption.131}
\contentsline {table}{\numberline {6.5}{\ignorespaces Numerical results for the BF algorithms in the wrong model order, $L/2$, case.\relax }}{143}{table.caption.132}
\contentsline {table}{\numberline {6.6}{\ignorespaces Numerical results for the BF algorithms in the wrong model order, $L-10$, case.\relax }}{144}{table.caption.133}
\contentsline {table}{\numberline {6.7}{\ignorespaces Numerical results for the BF algorithms in the wrong model order, $2L$, case.\relax }}{145}{table.caption.134}
\contentsline {table}{\numberline {6.8}{\ignorespaces Numerical results for the BF algorithms in the wrong model order, $L+10$, case.\relax }}{146}{table.caption.135}
\contentsline {table}{\numberline {6.9}{\ignorespaces Numerical results for the BF algorithms in the normalized random start case.\relax }}{147}{table.caption.136}
\contentsline {table}{\numberline {7.1}{\ignorespaces Comparison of the computational complexity of the algorithms.\relax }}{150}{table.caption.137}
\contentsline {table}{\numberline {7.2}{\ignorespaces Table of various variables used in simulation.\relax }}{151}{table.caption.138}
\contentsline {table}{\numberline {7.3}{\ignorespaces The distance in meters between antennas (receiver or transmitters).\relax }}{156}{table.caption.149}
