\relax 
\providecommand\hyper@newdestlabel[2]{}
\providecommand\HyperFirstAtBeginDocument{\AtBeginDocument}
\HyperFirstAtBeginDocument{\ifx\hyper@anchor\@undefined
\global\let\oldcontentsline\contentsline
\gdef\contentsline#1#2#3#4{\oldcontentsline{#1}{#2}{#3}}
\global\let\oldnewlabel\newlabel
\gdef\newlabel#1#2{\newlabelxx{#1}#2}
\gdef\newlabelxx#1#2#3#4#5#6{\oldnewlabel{#1}{{#2}{#3}}}
\AtEndDocument{\ifx\hyper@anchor\@undefined
\let\contentsline\oldcontentsline
\let\newlabel\oldnewlabel
\fi}
\fi}
\global\let\hyper@last\relax 
\gdef\HyperFirstAtBeginDocument#1{#1}
\providecommand\HyField@AuxAddToFields[1]{}
\providecommand\HyField@AuxAddToCoFields[2]{}
\@input{abstract.aux}
\@input{publicabstract.aux}
\@input{acknowl.aux}
\@writefile{toc}{\contentsline {chapter}{\textnormal  {LIST OF TABLES}}{x}{chapter*.3}}
\@writefile{toc}{\contentsline {chapter}{\textnormal  {LIST OF FIGURES}}{xiii}{chapter*.4}}
\@input{acronyms.aux}
\@input{Chapters/Chapter_1/ch_1_introduction.aux}
\@input{Chapters/Chapter_2/ch_2_lit_review.aux}
\@input{Chapters/Chapter_3/ch_3_problem_overview.aux}
\@input{Chapters/Chapter_4/ch_4_cross_relation_methods.aux}
\@input{Chapters/Chapter_5/ch_5_AXIS.aux}
\@input{Chapters/Chapter_6/ch_6_Brute.aux}
\@input{Chapters/Chapter_8/ch_8_results.aux}
\@input{Chapters/Chapter_9/ch_9_conclusion.aux}
\bibdata{IEEEabrv,sample}
\bibcite{book:sourceLocal}{1}
\bibcite{thesis:Geolocation}{2}
\bibcite{art:TDOAGeo}{3}
\bibcite{conf:overviewGeo}{4}
\bibcite{art:CircArrayDOA}{5}
\bibcite{art:InnovIndoorGeolocation}{6}
\bibcite{art:ImpSourceLocal}{7}
\bibcite{web:fmf}{8}
\bibcite{conf:RFID_livestock}{9}
\bibcite{art:IoD}{10}
\bibcite{thesis:RSSI}{11}
\bibcite{book:AcousticMIMOSigProc}{12}
\bibcite{art:AdaptiveTDEUsingFilterConstraints}{13}
\@writefile{toc}{\contentsline {chapter}{REFERENCES}{162}{section.8.3}}
\bibcite{art:TDEviaMinEntropy}{14}
\bibcite{art:AEDDecomp}{15}
\bibcite{art:MLEofTDinMulti}{16}
\bibcite{conf:geoTDOA_FDOA}{17}
\bibcite{conf:iSourceLocTDOA_FDOA}{18}
\bibcite{conf:locMovTDOA_FDOA}{19}
\bibcite{art:NovEstTDOA_FDOA}{20}
\bibcite{art:itCWLS_TDOA_FDOA}{21}
\bibcite{art:locFDOA}{22}
\bibcite{art:sigTDOA_FDOA}{23}
\bibcite{art:estDiffDoppler}{24}
\bibcite{conf:AED}{25}
\bibcite{conf:MAPEofTD}{26}
\bibcite{art:ResearchTDE}{27}
\bibcite{work:BSNCID}{28}
\bibcite{art:NN}{29}
\bibcite{work:TDOAacousticNN}{30}
\bibcite{conf:ImprovTDOAwML}{31}
\bibcite{conf:TDOAIndoorPositionML}{32}
\bibcite{conf:MLforSourceLocal}{33}
\bibcite{art:MultiChannelBID}{34}
\bibcite{art:BSI}{35}
\bibcite{art:FastMLforBID}{36}
\bibcite{art:AlgBEwMultiAntennas}{37}
\bibcite{art:LS_Approach_BCID}{38}
\bibcite{art:Det_BID_Multi-FIRSystems}{39}
\bibcite{art:AdaptBESparse}{40}
\bibcite{art:IDinBDeconv}{41}
\bibcite{art:SparseBDeConv}{42}
\bibcite{conf:ETDOARoomRefl}{43}
\bibcite{conf:geoTDOAHyperbolic}{44}
\bibcite{art:SimpEffEstHyperbolicLoc}{45}
\bibcite{art:GCC}{46}
\bibcite{web:CC}{47}
\bibcite{book:ProbRVandRP}{48}
\bibcite{thesis:SLvTDOA}{49}
\bibcite{book:moon}{50}
\bibcite{art:LMS}{51}
\bibcite{book:matComp}{52}
\bibcite{web:subgradient_prince}{53}
\bibcite{web:subgradient_stan}{54}
\bibcite{book:Proakis}{55}
\bibcite{book:Boyd}{56}
\bibcite{art:TDOA_DOP}{57}
\bibcite{art:StatTheoryPassLoc}{58}
\bibcite{conf:GenAlgAppGDOP}{59}
\bibcite{conf:SDRBandwidth}{60}
\bibstyle{IEEEtran}
\@input{Chapters/Appendix/appendix.aux}
\newlabel{totalpageno}{{394}{394}{}{}{}}
