\relax 
\providecommand\hyper@newdestlabel[2]{}
\citation{art:LS_Approach_BCID}
\citation{art:AEDDecomp}
\citation{art:LS_Approach_BCID}
\@writefile{toc}{\contentsline {chapter}{\numberline {4}CROSS RELATION METHODS}{16}{chapter.4}}
\newlabel{ch:4}{{4}{16}{CROSS RELATION METHODS}{chapter.4}{}}
\@writefile{toc}{\contentsline {section}{\numberline {4.1}Least-Squares Blind Channel Identification according to Xu et. al}{16}{section.4.1}}
\@writefile{toc}{\contentsline {subsection}{\numberline {4.1.1}System Model for the Least-Squares Approach}{16}{subsection.4.1.1}}
\newlabel{eq:system}{{4.1}{16}{System Model for the Least-Squares Approach}{equation.4.1.1}{}}
\@writefile{toc}{\contentsline {subsection}{\numberline {4.1.2}Complex Cross Relation}{16}{subsection.4.1.2}}
\newlabel{sec:ch_4_LS_conj_cr}{{4.1.2}{16}{Complex Cross Relation}{subsection.4.1.2}{}}
\@writefile{lof}{\contentsline {figure}{\numberline {4.1}{\ignorespaces System Model\relax }}{17}{figure.caption.11}}
\newlabel{fig:transmission_figure}{{4.1}{17}{System Model\relax }{figure.caption.11}{}}
\newlabel{eq:cr-derivation}{{4.2}{17}{Complex Cross Relation}{equation.4.1.2}{}}
\citation{art:LS_Approach_BCID}
\newlabel{eq:cr-matrix}{{4.3}{18}{Complex Cross Relation}{equation.4.1.3}{}}
\newlabel{eq:cr-brief}{{4.4}{18}{Complex Cross Relation}{equation.4.1.4}{}}
\@writefile{lof}{\contentsline {figure}{\numberline {4.2}{\ignorespaces Results of the LS algorithm with 30,000 data samples, with SNR = 60 dB, at various sampling rates for wideband simulation, (a) 20 MHz, (b) 100 MHz, (c) 150 MHz, and (d) 200 MHz, for transfer function set TF-1\relax }}{19}{figure.caption.12}}
\newlabel{fig:LS_ideal_30v3000}{{4.2}{19}{Results of the LS algorithm with 30,000 data samples, with SNR = 60 dB, at various sampling rates for wideband simulation, (a) 20 MHz, (b) 100 MHz, (c) 150 MHz, and (d) 200 MHz, for transfer function set TF-1\relax }{figure.caption.12}{}}
\@writefile{toc}{\contentsline {subsection}{\numberline {4.1.3}A Least-Squares Approach According to Xu et. al}{19}{subsection.4.1.3}}
\newlabel{eq:min_cr_brief}{{4.5}{19}{A Least-Squares Approach According to Xu et. al}{equation.4.1.5}{}}
\citation{art:LS_Approach_BCID}
\@writefile{toc}{\contentsline {subsection}{\numberline {4.1.4}LS Algorithm Advantages, Implementations and Disadvantages}{20}{subsection.4.1.4}}
\@writefile{lof}{\contentsline {figure}{\numberline {4.3}{\ignorespaces Results of the LS algorithm with 300 data samples, with SNR = 60 dB, at various sampling rates for wideband simulation, (a) 20 MHz, (b) 100 MHz, (c) 150 MHz, and (d) 200 MHz, for transfer function set TF-1\relax }}{20}{figure.caption.13}}
\newlabel{fig:LS_Nless_30v3000}{{4.3}{20}{Results of the LS algorithm with 300 data samples, with SNR = 60 dB, at various sampling rates for wideband simulation, (a) 20 MHz, (b) 100 MHz, (c) 150 MHz, and (d) 200 MHz, for transfer function set TF-1\relax }{figure.caption.13}{}}
\@writefile{lof}{\contentsline {figure}{\numberline {4.4}{\ignorespaces Results of the LS algorithm with 30,000 data samples, with SNR = 60 dB, at various sampling rates for wideband simulation, (a) 20 MHz, (b) 100 MHz, (c) 150 MHz, and (d) 200 MHz, for transfer function set TF-2\relax }}{21}{figure.caption.14}}
\newlabel{fig:LS_NITF_30v3000}{{4.4}{21}{Results of the LS algorithm with 30,000 data samples, with SNR = 60 dB, at various sampling rates for wideband simulation, (a) 20 MHz, (b) 100 MHz, (c) 150 MHz, and (d) 200 MHz, for transfer function set TF-2\relax }{figure.caption.14}{}}
\@writefile{lof}{\contentsline {figure}{\numberline {4.5}{\ignorespaces Results of the LS algorithm with 30,000 data samples, with SNR = 60 dB, at various sampling rates for narrowband simulation, (a) 20 MHz, (b) 100 MHz, (c) 150 MHz, and (d) 200 MHz, for transfer function set TF-1\relax }}{22}{figure.caption.15}}
\newlabel{fig:LS_narrowband_30v3000}{{4.5}{22}{Results of the LS algorithm with 30,000 data samples, with SNR = 60 dB, at various sampling rates for narrowband simulation, (a) 20 MHz, (b) 100 MHz, (c) 150 MHz, and (d) 200 MHz, for transfer function set TF-1\relax }{figure.caption.15}{}}
\citation{art:AEDDecomp,book:AcousticMIMOSigProc,conf:AED}
\@writefile{lof}{\contentsline {figure}{\numberline {4.6}{\ignorespaces Results of the LS algorithm with 30,000 data samples, with SNR = 20 dB at various sampling rates for wideband simulation, (a) 20 MHz, (b) 100 MHz, (c) 150 MHz, and (d) 200 MHz, for transfer function set TF-1\relax }}{23}{figure.caption.16}}
\newlabel{fig:LS_noisy_30v3000}{{4.6}{23}{Results of the LS algorithm with 30,000 data samples, with SNR = 20 dB at various sampling rates for wideband simulation, (a) 20 MHz, (b) 100 MHz, (c) 150 MHz, and (d) 200 MHz, for transfer function set TF-1\relax }{figure.caption.16}{}}
\@writefile{toc}{\contentsline {section}{\numberline {4.2}Adaptive Eigenvalue Decomposition}{23}{section.4.2}}
\newlabel{sec:AED}{{4.2}{23}{Adaptive Eigenvalue Decomposition}{section.4.2}{}}
\@writefile{lof}{\contentsline {figure}{\numberline {4.7}{\ignorespaces Results of the LS algorithm with 30,000 data samples, with SNR = 60 dB for wideband at 200 MHz sampling rate with incorrect lengths of transfer functions $L$ (a) $L/2$, (b) $L - 10$, (c) $L*2$, and (d) $L + 10$, for transfer function set TF-1,\relax }}{24}{figure.caption.17}}
\newlabel{fig:LS_wrongModel_30v3000}{{4.7}{24}{Results of the LS algorithm with 30,000 data samples, with SNR = 60 dB for wideband at 200 MHz sampling rate with incorrect lengths of transfer functions $L$ (a) $L/2$, (b) $L - 10$, (c) $L*2$, and (d) $L + 10$, for transfer function set TF-1,\relax }{figure.caption.17}{}}
\@writefile{toc}{\contentsline {subsection}{\numberline {4.2.1}System Model for the Modified Adaptive Eigenvalue Decomposition}{24}{subsection.4.2.1}}
\@writefile{lof}{\contentsline {figure}{\numberline {4.8}{\ignorespaces Results of the AED algorithm with 250,000 data samples, with SNR = 60 dB, at various sampling rates for wideband simulation, (a) 20 MHz, (b) 100 MHz, (c) 150 MHz, and (d) 200 MHz, for transfer function set TF-1\relax }}{25}{figure.caption.18}}
\newlabel{fig:AED_ideal_30v3000}{{4.8}{25}{Results of the AED algorithm with 250,000 data samples, with SNR = 60 dB, at various sampling rates for wideband simulation, (a) 20 MHz, (b) 100 MHz, (c) 150 MHz, and (d) 200 MHz, for transfer function set TF-1\relax }{figure.caption.18}{}}
\newlabel{eq:system_conj}{{4.6}{25}{System Model for the Modified Adaptive Eigenvalue Decomposition}{equation.4.2.6}{}}
\@writefile{lof}{\contentsline {figure}{\numberline {4.9}{\ignorespaces Results of the modAED algorithm with 250,000 data samples, with SNR = 60 dB, at various sampling rates for wideband simulation, (a) 20 MHz, (b) 100 MHz, (c) 150 MHz, and (d) 200 MHz, for transfer function set TF-1\relax }}{26}{figure.caption.19}}
\newlabel{fig:modAED_ideal_30v3000}{{4.9}{26}{Results of the modAED algorithm with 250,000 data samples, with SNR = 60 dB, at various sampling rates for wideband simulation, (a) 20 MHz, (b) 100 MHz, (c) 150 MHz, and (d) 200 MHz, for transfer function set TF-1\relax }{figure.caption.19}{}}
\@writefile{toc}{\contentsline {subsection}{\numberline {4.2.2}Complex Conjugate Cross Relation}{26}{subsection.4.2.2}}
\citation{art:AEDDecomp}
\newlabel{eq:cr-derivation_conj}{{4.7}{27}{Complex Conjugate Cross Relation}{equation.4.2.7}{}}
\newlabel{eq:cr-matrix_conj}{{4.8}{27}{Complex Conjugate Cross Relation}{equation.4.2.8}{}}
\newlabel{eq:cr-brief_conj}{{4.9}{27}{Complex Conjugate Cross Relation}{equation.4.2.9}{}}
\@writefile{toc}{\contentsline {subsection}{\numberline {4.2.3}Modified Adaptive Eigenvalue Decomposition}{27}{subsection.4.2.3}}
\newlabel{eq:AED_objective}{{4.10}{27}{Modified Adaptive Eigenvalue Decomposition}{equation.4.2.10}{}}
\citation{art:AEDDecomp,conf:AED,book:AcousticMIMOSigProc}
\@writefile{lof}{\contentsline {figure}{\numberline {4.10}{\ignorespaces Results of the modAED algorithm with 250,000 data samples, with SNR = 60 dB, at various sampling rates for wideband simulation, (a) 20 MHz, (b) 100 MHz, (c) 150 MHz, and (d) 200 MHz, for transfer function set TF-2\relax }}{28}{figure.caption.20}}
\newlabel{fig:modAED_NITF_30v3000}{{4.10}{28}{Results of the modAED algorithm with 250,000 data samples, with SNR = 60 dB, at various sampling rates for wideband simulation, (a) 20 MHz, (b) 100 MHz, (c) 150 MHz, and (d) 200 MHz, for transfer function set TF-2\relax }{figure.caption.20}{}}
\citation{book:AcousticMIMOSigProc,art:AEDDecomp,conf:AED}
\newlabel{eq:AED_lagrangian}{{4.11}{29}{Modified Adaptive Eigenvalue Decomposition}{equation.4.2.11}{}}
\newlabel{eq:AED_update_lambda}{{4.12}{29}{Modified Adaptive Eigenvalue Decomposition}{equation.4.2.12}{}}
\newlabel{eq:AED_constraint}{{4.13}{29}{Modified Adaptive Eigenvalue Decomposition}{equation.4.2.13}{}}
\newlabel{eq:modAED_final_update}{{4.14}{29}{Modified Adaptive Eigenvalue Decomposition}{equation.4.2.14}{}}
\@writefile{lof}{\contentsline {figure}{\numberline {4.11}{\ignorespaces Results of the modAED algorithm with 250,000 data samples, with SNR = 60 dB, at various sampling rates for narrowband simulation, (a) 20 MHz, (b) 100 MHz, (c) 150 MHz, and (d) 200 MHz, for transfer function set TF-1\relax }}{30}{figure.caption.21}}
\newlabel{fig:modAED_narrowband_30v3000}{{4.11}{30}{Results of the modAED algorithm with 250,000 data samples, with SNR = 60 dB, at various sampling rates for narrowband simulation, (a) 20 MHz, (b) 100 MHz, (c) 150 MHz, and (d) 200 MHz, for transfer function set TF-1\relax }{figure.caption.21}{}}
\@writefile{toc}{\contentsline {subsection}{\numberline {4.2.4}Modified Adaptive Eigenvalue Decomposition Algorithm Advantages, Implementations and Disadvantages}{30}{subsection.4.2.4}}
\citation{art:AEDDecomp,conf:AED}
\@writefile{lof}{\contentsline {figure}{\numberline {4.12}{\ignorespaces Results of the modAED algorithm with 250,000 data samples, with SNR = 20 dB, at various sampling rates for wideband simulation, (a) 20 MHz, (b) 100 MHz, (c) 150 MHz, and (d) 200 MHz, for transfer function set TF-1\relax }}{31}{figure.caption.22}}
\newlabel{fig:modAED_noisy_30v3000}{{4.12}{31}{Results of the modAED algorithm with 250,000 data samples, with SNR = 20 dB, at various sampling rates for wideband simulation, (a) 20 MHz, (b) 100 MHz, (c) 150 MHz, and (d) 200 MHz, for transfer function set TF-1\relax }{figure.caption.22}{}}
\newlabel{eq:ch_4_unit_vector}{{4.16}{31}{Modified Adaptive Eigenvalue Decomposition Algorithm Advantages, Implementations and Disadvantages}{equation.4.2.16}{}}
\@writefile{lof}{\contentsline {figure}{\numberline {4.13}{\ignorespaces Results of the modAED algorithm with 2,500 data samples, with SNR = 60 dB, at various sampling rates for wideband simulation, (a) 20 MHz, (b) 100 MHz, (c) 150 MHz, and (d) 200 MHz, for transfer function set TF-1\relax }}{32}{figure.caption.23}}
\newlabel{fig:modAED_Nless_30v3000}{{4.13}{32}{Results of the modAED algorithm with 2,500 data samples, with SNR = 60 dB, at various sampling rates for wideband simulation, (a) 20 MHz, (b) 100 MHz, (c) 150 MHz, and (d) 200 MHz, for transfer function set TF-1\relax }{figure.caption.23}{}}
\citation{book:AcousticMIMOSigProc}
\@writefile{lof}{\contentsline {figure}{\numberline {4.14}{\ignorespaces Results of the modAED algorithm with 250,000 data samples, with SNR = 60 dB for wideband simulation at 200 MHz sampling rate for incorrect estimates of transfer function length, $L$, (a) $L/2$, (b) $L - 10$, (c) $L*2$, and (d) $L + 10$, for transfer function set TF-1\relax }}{33}{figure.caption.24}}
\newlabel{fig:modAED_wrongModel_30v3000}{{4.14}{33}{Results of the modAED algorithm with 250,000 data samples, with SNR = 60 dB for wideband simulation at 200 MHz sampling rate for incorrect estimates of transfer function length, $L$, (a) $L/2$, (b) $L - 10$, (c) $L*2$, and (d) $L + 10$, for transfer function set TF-1\relax }{figure.caption.24}{}}
\citation{art:AdaptBESparse,art:IDinBDeconv,art:SparseBDeConv}
\@writefile{lof}{\contentsline {figure}{\numberline {4.15}{\ignorespaces Results of the modAED algorithm with 250,000 data samples, with SNR = 60 dB, at various sampling rates for wideband simulation, (a) 20 MHz, (b) 100 MHz, (c) 150 MHz, and (d) 200 MHz, for transfer function set TF-1 and normalized random initial estimates after 100 iterations\relax }}{34}{figure.caption.25}}
\newlabel{fig:modAED_rStart_30v3000}{{4.15}{34}{Results of the modAED algorithm with 250,000 data samples, with SNR = 60 dB, at various sampling rates for wideband simulation, (a) 20 MHz, (b) 100 MHz, (c) 150 MHz, and (d) 200 MHz, for transfer function set TF-1 and normalized random initial estimates after 100 iterations\relax }{figure.caption.25}{}}
\@writefile{toc}{\contentsline {subsection}{\numberline {4.2.5}Modified AED with Sparsity}{34}{subsection.4.2.5}}
\citation{art:IDinBDeconv,art:AdaptiveTDEUsingFilterConstraints,thesis:SLvTDOA,art:SparseBDeConv,conf:ETDOARoomRefl}
\citation{web:subgradient}
\newlabel{eq:modAEDS_objective}{{4.17}{35}{Modified AED with Sparsity}{equation.4.2.17}{}}
\newlabel{eq:lagrangian_modAEDS}{{4.18}{35}{Modified AED with Sparsity}{equation.4.2.18}{}}
\@writefile{lof}{\contentsline {figure}{\numberline {4.16}{\ignorespaces Results of the modAEDS algorithm with 250,000 data samples, with SNR = 60 dB, at various sampling rates for wideband simulation, (a) 20 MHz, (b) 100 MHz, (c) 150 MHz, and (d) 200 MHz, for transfer function set TF-1\relax }}{35}{figure.caption.26}}
\newlabel{fig:modAEDS_ideal__30v3000}{{4.16}{35}{Results of the modAEDS algorithm with 250,000 data samples, with SNR = 60 dB, at various sampling rates for wideband simulation, (a) 20 MHz, (b) 100 MHz, (c) 150 MHz, and (d) 200 MHz, for transfer function set TF-1\relax }{figure.caption.26}{}}
\@writefile{lof}{\contentsline {figure}{\numberline {4.17}{\ignorespaces Results of the modAED and modAEDS algorithms with 2,500 data samples, with SNR = 60 dB, for wideband simulation at 100 MHz sampling rate for transfer function set TF-1\relax }}{36}{figure.caption.27}}
\newlabel{fig:modAEDvmodAEDS_Nless_30v3000}{{4.17}{36}{Results of the modAED and modAEDS algorithms with 2,500 data samples, with SNR = 60 dB, for wideband simulation at 100 MHz sampling rate for transfer function set TF-1\relax }{figure.caption.27}{}}
\newlabel{eq:modAEDS_derivative}{{4.19}{36}{Modified AED with Sparsity}{equation.4.2.19}{}}
\newlabel{eq:modAEDS_update_lambda}{{4.20}{36}{Modified AED with Sparsity}{equation.4.2.20}{}}
\@writefile{lof}{\contentsline {figure}{\numberline {4.18}{\ignorespaces Results of the modAED and modAEDS algorithms with 250,000 data samples, with SNR = 20 dB, for wideband simulation at 150 MHz sampling rate for transfer function set TF-1\relax }}{37}{figure.caption.28}}
\newlabel{fig:modAEDvmodAEDS_noisy_30v3000}{{4.18}{37}{Results of the modAED and modAEDS algorithms with 250,000 data samples, with SNR = 20 dB, for wideband simulation at 150 MHz sampling rate for transfer function set TF-1\relax }{figure.caption.28}{}}
\newlabel{eq:modAEDS_constraint}{{4.21}{37}{Modified AED with Sparsity}{equation.4.2.21}{}}
\@writefile{toc}{\contentsline {subsection}{\numberline {4.2.6}Modified AED with Sparsity Algorithm Advantages, Implementations and Disadvantages}{37}{subsection.4.2.6}}
\citation{art:AdaptBESparse}
\@writefile{lof}{\contentsline {figure}{\numberline {4.19}{\ignorespaces Results of the modAED and modAEDS algorithms with 250,000 data samples, with SNR = 60 dB, for wideband simulation at 100 MHz sampling rate for incorrect estimates of model order, $L = L/2$, for transfer function set TF-1\relax }}{38}{figure.caption.29}}
\newlabel{fig:modAEDvmodAEDS_wrongModel_30v3000}{{4.19}{38}{Results of the modAED and modAEDS algorithms with 250,000 data samples, with SNR = 60 dB, for wideband simulation at 100 MHz sampling rate for incorrect estimates of model order, $L = L/2$, for transfer function set TF-1\relax }{figure.caption.29}{}}
\@writefile{toc}{\contentsline {section}{\numberline {4.3}Algorithm Testing and Results}{38}{section.4.3}}
\@writefile{toc}{\contentsline {subsection}{\numberline {4.3.1}Simulation}{38}{subsection.4.3.1}}
\@writefile{toc}{\contentsline {subsection}{\numberline {4.3.2}Real World Data Testing}{38}{subsection.4.3.2}}
\@setckpt{Chapters/Chapter_4/ch_4_cross_relation_methods}{
\setcounter{page}{39}
\setcounter{equation}{22}
\setcounter{enumi}{2}
\setcounter{enumii}{0}
\setcounter{enumiii}{0}
\setcounter{enumiv}{0}
\setcounter{footnote}{3}
\setcounter{mpfootnote}{0}
\setcounter{part}{0}
\setcounter{chapter}{4}
\setcounter{section}{3}
\setcounter{subsection}{2}
\setcounter{subsubsection}{0}
\setcounter{paragraph}{0}
\setcounter{subparagraph}{0}
\setcounter{figure}{19}
\setcounter{table}{0}
\setcounter{savemainpageno}{0}
\setcounter{savefrontpageno}{11}
\setcounter{savetotalpageno}{0}
\setcounter{float@type}{16}
\setcounter{alg}{0}
\setcounter{parentequation}{0}
\setcounter{lstnumber}{1}
\setcounter{ContinuedFloat}{0}
\setcounter{subfigure}{2}
\setcounter{subtable}{0}
\setcounter{Item}{2}
\setcounter{Hfootnote}{6}
\setcounter{bookmark@seq@number}{35}
\setcounter{lstlisting}{0}
\setcounter{section@level}{2}
}
