% This file was created by matlab2tikz.
%
%The latest updates can be retrieved from
%  http://www.mathworks.com/matlabcentral/fileexchange/22022-matlab2tikz-matlab2tikz
%where you can also make suggestions and rate matlab2tikz.
%
\definecolor{mycolor1}{rgb}{0.00000,0.44700,0.74100}%
\definecolor{mycolor2}{rgb}{0.85000,0.32500,0.09800}%
%
\begin{tikzpicture}

\begin{axis}[%
width=1.935in,
height=3.2in,
at={(0.758in,0.512in)},
scale only axis,
xmin=0,
xmax=150,
xlabel style={font=\color{white!15!black}, align=center},
xlabel={Sample Index\\[1ex](a) Actual},
ymin=0,
ymax=0.7,
axis background/.style={fill=white},
legend style={legend cell align=left, align=left, draw=white!15!black}
]
\addplot [color=mycolor1]
  table[row sep=crcr]{%
1	0.0234657806037261\\
2	0.0272334504034075\\
3	0.0326864300765018\\
4	0.0414541482980318\\
5	0.0586677033458464\\
6	0.117843438362983\\
7	0.159969331461504\\
8	0.174397116945152\\
9	0.616552810702634\\
10	0.0882137642931462\\
11	0.0472681903124796\\
12	0.0327587509505929\\
13	0.0272256709659274\\
14	0.0412344622245766\\
15	0.0186762848129325\\
16	0.0451940046978057\\
17	0.0153724087875252\\
18	0.0239672675363248\\
19	0.0400285717874473\\
20	0.0828333966509162\\
21	0.557624977131952\\
22	0.149414784250917\\
23	0.109138078132702\\
24	0.0381681231028791\\
25	0.032799759178118\\
26	0.191519461959093\\
27	0.0734580287558902\\
28	0.0358315656953253\\
29	0.0179563195827385\\
30	0.0169149242156914\\
31	0.0179798517146348\\
32	0.0199431506445131\\
33	0.0279225394655299\\
34	0.0908594243819801\\
35	0.0439964246924232\\
36	0.330890477505262\\
37	0.037800506563543\\
38	0.020261933748638\\
39	0.0138181229977315\\
40	0.0211497159554441\\
41	0.0112042208144458\\
42	0.00964538908702694\\
43	0.00864780826327016\\
44	0.00787736374270682\\
45	0.00720180133294831\\
46	0.00651453200193765\\
47	0.00565492088107664\\
48	0.0112814316241706\\
49	0.0075966567083061\\
50	0.0102713040739602\\
51	0.00787142060243747\\
52	0.00711780022683946\\
53	0.00668443537322835\\
54	0.00638223966522588\\
55	0.00615487020840034\\
56	0.00598242225636516\\
57	0.00586293416152974\\
58	0.00581626175933958\\
59	0.00593494184987807\\
60	0.00707647204853056\\
61	0.00861312572402681\\
62	0.00240649054353041\\
63	0.0036902508247688\\
64	0.0040125763148678\\
65	0.00408542983582614\\
66	0.00408934467211144\\
67	0.00406760360864643\\
68	0.00403657730104579\\
69	0.00400486664899167\\
70	0.00397913876457006\\
71	0.00396763365360209\\
72	0.00398577860522856\\
73	0.00407460869510253\\
74	0.00440882178496405\\
75	0.00852319154542653\\
76	0.00211982859547221\\
77	0.00279674481878385\\
78	0.00295234209521732\\
79	0.00299967450324673\\
80	0.00300734384297471\\
81	0.00299658049652506\\
82	0.00297609501762909\\
83	0.00295010695632826\\
84	0.00292089738309008\\
85	0.00288979839106794\\
86	0.00285763293534116\\
87	0.00282493110979805\\
88	0.00279204510261472\\
89	0.00275921420187501\\
90	0.00272660345813555\\
91	0.00269432766245323\\
92	0.00266246675038502\\
93	0.00263107599882434\\
94	0.00260019295165966\\
95	0.00256984222925479\\
96	0.00254003893333548\\
97	0.0025107910982644\\
98	0.00248210148178531\\
99	0.00245396889001376\\
100	0.00242638916874131\\
101	0.00239935595223708\\
102	0.00237286123354156\\
103	0.00234689580183488\\
104	0.00232144957979209\\
105	0.00229651188498403\\
106	0.00227207163310714\\
107	0.0022481174963278\\
108	0.00222463802675857\\
109	0.00220162175268604\\
110	0.00217905725339276\\
111	0.0021569332170867\\
112	0.00213523848544673\\
113	0.00211396208753109\\
114	0.00209309326520902\\
115	0.00207262149182518\\
116	0.00205253648545491\\
117	0.00203282821783402\\
118	0.00201348691983224\\
119	0.00199450308416773\\
120	0.00197586746592614\\
121	0.00195757108133911\\
122	0.0019396052051902\\
123	0.0019219613671484\\
124	0.00190463134727109\\
125	0.00188760717087541\\
126	0.00187088110293773\\
127	0.00185444564215264\\
128	0.0018382935147574\\
129	0.00182241766820821\\
130	0.00180681126477794\\
131	0.00179146767513212\\
132	0.00177638047192757\\
133	0.00176154342347035\\
134	0.00174695048746156\\
135	0.0017325958048528\\
136	0.00171847369382931\\
137	0.00170457864393352\\
138	0.0016909053103386\\
139	0.00167744850827835\\
140	0.00166420320763913\\
141	0.00165116452771496\\
142	0.00163832773212761\\
143	0.00162568822391149\\
144	0.00161324154076111\\
145	0.0016009833504405\\
146	0.00158890944635072\\
147	0.00157701574325256\\
148	0.00156529827314105\\
149	0\\
150	0\\
};
\addlegendentry{$\mathbf{h_1}$}

\addplot [color=mycolor2]
  table[row sep=crcr]{%
1	0.019775303219206\\
2	0.0210217764534023\\
3	0.0224372323963497\\
4	0.024058742711813\\
5	0.0259351263737046\\
6	0.0281320174688059\\
7	0.0307398096072034\\
8	0.0338865833958781\\
9	0.0377600935275399\\
10	0.0426472101764649\\
11	0.0490094599986528\\
12	0.0576401827385178\\
13	0.0700288298559564\\
14	0.0893407156606893\\
15	0.123700774100431\\
16	0.202175033398071\\
17	0.564479813098353\\
18	0.690442426104836\\
19	0.212260509632627\\
20	0.126132345068284\\
21	0.100380135781766\\
22	0.0378663697499036\\
23	0.0333199748773482\\
24	0.0149453064107011\\
25	0.10083899339379\\
26	0.161002397050911\\
27	0.0405118251764787\\
28	0.0383644765554957\\
29	0.0341227495803863\\
30	0.0306469105251072\\
31	0.0278570926171954\\
32	0.0255709383506331\\
33	0.0236574529195357\\
34	0.0220274984760589\\
35	0.0206190941704396\\
36	0.0193877726649002\\
37	0.0183006807256663\\
38	0.0173329207549748\\
39	0.016465211935799\\
40	0.0156823459816501\\
41	0.0149721364414517\\
42	0.0143246843629073\\
43	0.0137318527665838\\
44	0.0131868826449622\\
45	0.0126841071808284\\
46	0.0122187355837443\\
47	0.0117866872087634\\
48	0.0113844626077037\\
49	0.0110090421200206\\
50	0.0106578052804057\\
51	0\\
52	0\\
53	0\\
54	0\\
55	0\\
56	0\\
57	0\\
58	0\\
59	0\\
60	0\\
61	0\\
62	0\\
63	0\\
64	0\\
65	0\\
66	0\\
67	0\\
68	0\\
69	0\\
70	0\\
71	0\\
72	0\\
73	0\\
74	0\\
75	0\\
76	0\\
77	0\\
78	0\\
79	0\\
80	0\\
81	0\\
82	0\\
83	0\\
84	0\\
85	0\\
86	0\\
87	0\\
88	0\\
89	0\\
90	0\\
91	0\\
92	0\\
93	0\\
94	0\\
95	0\\
96	0\\
97	0\\
98	0\\
99	0\\
100	0\\
101	0\\
102	0\\
103	0\\
104	0\\
105	0\\
106	0\\
107	0\\
108	0\\
109	0\\
110	0\\
111	0\\
112	0\\
113	0\\
114	0\\
115	0\\
116	0\\
117	0\\
118	0\\
119	0\\
120	0\\
121	0\\
122	0\\
123	0\\
124	0\\
125	0\\
126	0\\
127	0\\
128	0\\
129	0\\
130	0\\
131	0\\
132	0\\
133	0\\
134	0\\
135	0\\
136	0\\
137	0\\
138	0\\
139	0\\
140	0\\
141	0\\
142	0\\
143	0\\
144	0\\
145	0\\
146	0\\
147	0\\
148	0\\
149	0\\
150	0\\
};
\addlegendentry{$\mathbf{h_{2}}$}

\end{axis}

\begin{axis}[%
width=1.935in,
height=3.2in,
at={(3.327in,0.512in)},
scale only axis,
xmin=0,
xmax=150,
xlabel style={font=\color{white!15!black}, align=center},
xlabel={Sample Index\\[1ex](b) Estimated},
ymin=0,
ymax=0.6,
axis background/.style={fill=white},
legend style={legend cell align=left, align=left, draw=white!15!black}
]
\addplot [color=mycolor1]
  table[row sep=crcr]{%
0	0.0161367652095091\\
1	0.0339762822441019\\
2	0.053646959754518\\
3	0.0684026396242019\\
4	0.0901188263948563\\
5	0.146911721165251\\
6	0.0797534395170955\\
7	0.11954047545632\\
8	0.345411047156151\\
9	0.251593737333514\\
10	0.254906289189919\\
11	0.0408885153434325\\
12	0.0652346149489021\\
13	0.09933264018186\\
14	0.030530056401374\\
15	0.0205128625361357\\
16	0.0580832782501346\\
17	0.0486998738101196\\
18	0.0690932242438457\\
19	0.084186533723191\\
20	0.468777345402197\\
21	0.352539918785898\\
22	0.200714170137776\\
23	0.128989190528196\\
24	0.125088806486908\\
25	0.203598429045456\\
26	0.176550458904638\\
27	0.121562165472058\\
28	0.110515976476514\\
29	0.0654451579630996\\
30	0.0345193563213701\\
31	0.0232676735003769\\
32	0.0344488819563361\\
33	0.0445296233040802\\
34	0.0682794628737033\\
35	0.157248649616707\\
36	0.198544634323193\\
37	0.173655209863454\\
38	0.125661627543109\\
39	0.0679321447418258\\
40	0.0216985491903826\\
41	0.0293835232158034\\
42	0.06988152822437\\
43	0.00548223306684901\\
44	0.00440569353763361\\
45	0.0115963503981161\\
46	0.0186418553014365\\
47	0.0153466941383672\\
48	0.00953610262885672\\
49	0.0171913874653307\\
50	0.0202752744346017\\
51	0.0216742001326472\\
52	0.0266917786401311\\
53	0.0253006989058764\\
54	0.0195635050298632\\
55	0.01365708255579\\
56	0.0111219507384852\\
57	0.0109036313365386\\
58	0.0115957884025532\\
59	0.01240655400311\\
60	0.0164134940247173\\
61	0.00397048845450671\\
62	0.00529432318438481\\
63	0.00821993853393146\\
64	0.00831431165645794\\
65	0.00673390593653754\\
66	0.0104079239066911\\
67	0.00721792205320621\\
68	0.00619530200682183\\
69	0.00891603194386772\\
70	0.00902804942161561\\
71	0.00811763256154733\\
72	0.00793593057172746\\
73	0.00833626667767093\\
74	0.010847480331991\\
75	0.00996260779487559\\
76	0.00848015168268738\\
77	0.00796538264120876\\
78	0.00521838629830143\\
79	0.00509355725698451\\
80	0.00645842390635365\\
81	0.0066495226371944\\
82	0.00571836416896369\\
83	0.00595163858157884\\
84	0.00589739404438006\\
85	0.00548040866218211\\
86	0.00620550726110909\\
87	0.00577200845126624\\
88	0.00562006589406137\\
89	0.00523021438309262\\
90	0.00589314538820562\\
91	0.00555661894322116\\
92	0.00540068260802954\\
93	0.00548242851898006\\
94	0.00526541484642032\\
95	0.0050779670150356\\
96	0.00504236250924908\\
97	0.00514724384952903\\
98	0.00512459313002851\\
99	0.0050245054038497\\
100	0.00483626216227427\\
101	0.00476048863576696\\
102	0.00473804431272912\\
103	0.00477215649643143\\
104	0.00471911078001214\\
105	0.00470401832912269\\
106	0.00461924016859757\\
107	0.00452305933431685\\
108	0.00453959912115471\\
109	0.00442091745633969\\
110	0.00454224866099465\\
111	0.00430019459788328\\
112	0.0043404416278764\\
113	0.00419736253542178\\
114	0.00423616962445519\\
115	0.00417143176706383\\
116	0.00416165053684174\\
117	0.00412018819259249\\
118	0.00408005982579973\\
119	0.00414157686984955\\
120	0.0040481989340169\\
121	0.0039393231734302\\
122	0.00390684948529784\\
123	0.00382254295248078\\
124	0.00387652082614428\\
125	0.00378673313612318\\
126	0.00378557019365901\\
127	0.0036883590906261\\
128	0.00375969124800189\\
129	0.00369277613199172\\
130	0.00374235938591614\\
131	0.00365298855665886\\
132	0.00360902853895832\\
133	0.00356568760122912\\
134	0.00343110437183455\\
135	0.00354469496721747\\
136	0.00352388045824525\\
137	0.00349564784478399\\
138	0.00327432349971493\\
139	0.0033925145922143\\
140	0.00349967233553996\\
141	0.00337390743624776\\
142	0.00331933590265642\\
143	0.00324963155064772\\
144	0.00323758188511808\\
145	0.00323001980842079\\
146	0.00324727263389914\\
147	0.00325051956473091\\
148	0.00210011551977567\\
149	0.00112225997527434\\
};
\addlegendentry{$\mathbf{\hat{h}_{1}}$}

\addplot [color=mycolor2]
  table[row sep=crcr]{%
0	0.012391798077809\\
1	0.0248793997678248\\
2	0.0368496291393338\\
3	0.0416585400616449\\
4	0.0450891275217344\\
5	0.0478861563772222\\
6	0.0518204528158798\\
7	0.0574639753359265\\
8	0.0629579360047786\\
9	0.0699635445745998\\
10	0.0792369876662304\\
11	0.0912965292468605\\
12	0.108541115514808\\
13	0.133053117981233\\
14	0.173415276616588\\
15	0.253833593513601\\
16	0.547752905930623\\
17	0.0331570352418453\\
18	0.224156614350154\\
19	0.500436411864759\\
20	0.326852588658042\\
21	0.211839495119359\\
22	0.102065577994946\\
23	0.0351367387467981\\
24	0.0977069876887197\\
25	0.0471904450181459\\
26	0.0511688182945748\\
27	0.119363916137908\\
28	0.0642444393297088\\
29	0.0896491181156245\\
30	0.0570920668816472\\
31	0.0585331274727261\\
32	0.0401859961721614\\
33	0.0473260267995671\\
34	0.0976540168620101\\
35	0.0278506996933089\\
36	0.0397662710143184\\
37	0.0420461086598069\\
38	0.0325248617650122\\
39	0.031022610422494\\
40	0.02696861739444\\
41	0.0268275151270951\\
42	0.0289107335346205\\
43	0.0252031039680528\\
44	0.0245210860736271\\
45	0.0233617734321885\\
46	0.023446803760088\\
47	0.0201210387767567\\
48	0.0221060409520177\\
49	0.020295439797689\\
50	0.0132541700744238\\
51	0.00709391897308322\\
52	0.000407107539493718\\
53	0.0010542495678556\\
54	0.000921376567956893\\
55	0.000258465295239478\\
56	0.000835603822804106\\
57	0.000648864426251531\\
58	0.00135243945707266\\
59	0.00149392029386933\\
60	0.000722784970353274\\
61	0.00029408770227314\\
62	0.000414919603297615\\
63	0.00070619264945554\\
64	0.000395523575066267\\
65	0.000247973545511155\\
66	0.000400630167271397\\
67	0.000118227110300741\\
68	0.000259156570609862\\
69	7.54907403514784e-05\\
70	0.000334125652115072\\
71	0.00025680505831884\\
72	5.50839237363595e-05\\
73	0.00111672425226175\\
74	0.000478729018461686\\
75	0.000607514293008455\\
76	0.000338720183852844\\
77	6.77600949987721e-05\\
78	8.7996101741003e-05\\
79	2.52018942715209e-05\\
80	4.55376836663941e-05\\
81	0.000115832163288232\\
82	4.89675632952243e-05\\
83	6.89158011671233e-05\\
84	0.000154942864523674\\
85	0.000115277420343631\\
86	5.78811584765405e-05\\
87	0.000120720125466247\\
88	0.000124554992085732\\
89	8.59261810537652e-05\\
90	6.43317718484723e-05\\
91	5.55767556296961e-05\\
92	1.70535076922165e-05\\
93	5.38210058187505e-05\\
94	5.64726757232876e-05\\
95	0.000110405544415818\\
96	8.76989395432842e-05\\
97	6.07831179974418e-05\\
98	0.000101247755307407\\
99	7.97663845873212e-05\\
100	7.56116340491928e-05\\
101	1.37617753424343e-05\\
102	0.000104476657931025\\
103	0.000112039350373773\\
104	6.98185728537143e-05\\
105	9.65311831966969e-05\\
106	0.000152251713886951\\
107	8.13509275884861e-05\\
108	2.38450101307599e-05\\
109	4.29537863813671e-05\\
110	2.56044999109055e-05\\
111	4.19584881117432e-05\\
112	1.77558813941095e-05\\
113	7.52448044896304e-05\\
114	8.74440665560171e-05\\
115	7.43049876478266e-05\\
116	0.000105849287690703\\
117	1.3993928144811e-05\\
118	0.000128478854601285\\
119	9.35842438614503e-05\\
120	8.04207199502367e-05\\
121	4.93015183767824e-05\\
122	7.91345298164513e-06\\
123	3.83642408444599e-05\\
124	4.99759033009104e-05\\
125	7.34592243336875e-05\\
126	7.27815022534013e-05\\
127	9.49812625910945e-05\\
128	6.25965222166564e-05\\
129	6.59116461314396e-05\\
130	0.000150669764941455\\
131	0.00010250819072124\\
132	3.44625778623449e-05\\
133	9.81074684694568e-05\\
134	6.35937063423689e-05\\
135	9.37706226885022e-05\\
136	0.000123499276566895\\
137	8.87259493946709e-05\\
138	5.54042284195029e-05\\
139	9.8292226886073e-05\\
140	3.99521153572983e-05\\
141	5.35222376034215e-05\\
142	6.44085977107096e-05\\
143	9.77841654745391e-05\\
144	2.00592339710893e-05\\
145	0.000104730080504282\\
146	0.000178566258139673\\
147	0.000158741432427372\\
148	0.000102312124152173\\
149	4.83519475410163e-05\\
};
\addlegendentry{$\mathbf{\hat{h}_{2}}$}

\end{axis}
\end{tikzpicture}%