% This file was created by matlab2tikz.
%
%The latest updates can be retrieved from
%  http://www.mathworks.com/matlabcentral/fileexchange/22022-matlab2tikz-matlab2tikz
%where you can also make suggestions and rate matlab2tikz.
%
\definecolor{mycolor1}{rgb}{0.00000,0.44700,0.74100}%
\definecolor{mycolor2}{rgb}{0.85000,0.32500,0.09800}%
%
\begin{tikzpicture}

\begin{axis}[%
width=1.935in,
height=3.2in,
at={(0.758in,0.512in)},
scale only axis,
xmin=0,
xmax=150,
xlabel style={font=\color{white!15!black}, align=center},
xlabel={Sample Index\\[1ex](a) Actual},
ymin=0,
ymax=0.7,
axis background/.style={fill=white},
legend style={legend cell align=left, align=left, draw=white!15!black}
]
\addplot [color=mycolor1]
  table[row sep=crcr]{%
1	0.0234657806037261\\
2	0.0272334504034075\\
3	0.0326864300765018\\
4	0.0414541482980318\\
5	0.0586677033458464\\
6	0.117843438362983\\
7	0.159969331461504\\
8	0.174397116945152\\
9	0.616552810702634\\
10	0.0882137642931462\\
11	0.0472681903124796\\
12	0.0327587509505929\\
13	0.0272256709659274\\
14	0.0412344622245766\\
15	0.0186762848129325\\
16	0.0451940046978057\\
17	0.0153724087875252\\
18	0.0239672675363248\\
19	0.0400285717874473\\
20	0.0828333966509162\\
21	0.557624977131952\\
22	0.149414784250917\\
23	0.109138078132702\\
24	0.0381681231028791\\
25	0.032799759178118\\
26	0.191519461959093\\
27	0.0734580287558902\\
28	0.0358315656953253\\
29	0.0179563195827385\\
30	0.0169149242156914\\
31	0.0179798517146348\\
32	0.0199431506445131\\
33	0.0279225394655299\\
34	0.0908594243819801\\
35	0.0439964246924232\\
36	0.330890477505262\\
37	0.037800506563543\\
38	0.020261933748638\\
39	0.0138181229977315\\
40	0.0211497159554441\\
41	0.0112042208144458\\
42	0.00964538908702694\\
43	0.00864780826327016\\
44	0.00787736374270682\\
45	0.00720180133294831\\
46	0.00651453200193765\\
47	0.00565492088107664\\
48	0.0112814316241706\\
49	0.0075966567083061\\
50	0.0102713040739602\\
51	0.00787142060243747\\
52	0.00711780022683946\\
53	0.00668443537322835\\
54	0.00638223966522588\\
55	0.00615487020840034\\
56	0.00598242225636516\\
57	0.00586293416152974\\
58	0.00581626175933958\\
59	0.00593494184987807\\
60	0.00707647204853056\\
61	0.00861312572402681\\
62	0.00240649054353041\\
63	0.0036902508247688\\
64	0.0040125763148678\\
65	0.00408542983582614\\
66	0.00408934467211144\\
67	0.00406760360864643\\
68	0.00403657730104579\\
69	0.00400486664899167\\
70	0.00397913876457006\\
71	0.00396763365360209\\
72	0.00398577860522856\\
73	0.00407460869510253\\
74	0.00440882178496405\\
75	0.00852319154542653\\
76	0.00211982859547221\\
77	0.00279674481878385\\
78	0.00295234209521732\\
79	0.00299967450324673\\
80	0.00300734384297471\\
81	0.00299658049652506\\
82	0.00297609501762909\\
83	0.00295010695632826\\
84	0.00292089738309008\\
85	0.00288979839106794\\
86	0.00285763293534116\\
87	0.00282493110979805\\
88	0.00279204510261472\\
89	0.00275921420187501\\
90	0.00272660345813555\\
91	0.00269432766245323\\
92	0.00266246675038502\\
93	0.00263107599882434\\
94	0.00260019295165966\\
95	0.00256984222925479\\
96	0.00254003893333548\\
97	0.0025107910982644\\
98	0.00248210148178531\\
99	0.00245396889001376\\
100	0.00242638916874131\\
101	0.00239935595223708\\
102	0.00237286123354156\\
103	0.00234689580183488\\
104	0.00232144957979209\\
105	0.00229651188498403\\
106	0.00227207163310714\\
107	0.0022481174963278\\
108	0.00222463802675857\\
109	0.00220162175268604\\
110	0.00217905725339276\\
111	0.0021569332170867\\
112	0.00213523848544673\\
113	0.00211396208753109\\
114	0.00209309326520902\\
115	0.00207262149182518\\
116	0.00205253648545491\\
117	0.00203282821783402\\
118	0.00201348691983224\\
119	0.00199450308416773\\
120	0.00197586746592614\\
121	0.00195757108133911\\
122	0.0019396052051902\\
123	0.0019219613671484\\
124	0.00190463134727109\\
125	0.00188760717087541\\
126	0.00187088110293773\\
127	0.00185444564215264\\
128	0.0018382935147574\\
129	0.00182241766820821\\
130	0.00180681126477794\\
131	0.00179146767513212\\
132	0.00177638047192757\\
133	0.00176154342347035\\
134	0.00174695048746156\\
135	0.0017325958048528\\
136	0.00171847369382931\\
137	0.00170457864393352\\
138	0.0016909053103386\\
139	0.00167744850827835\\
140	0.00166420320763913\\
141	0.00165116452771496\\
142	0.00163832773212761\\
143	0.00162568822391149\\
144	0.00161324154076111\\
145	0.0016009833504405\\
146	0.00158890944635072\\
147	0.00157701574325256\\
148	0.00156529827314105\\
149	0\\
150	0\\
};
\addlegendentry{$\mathbf{h_1}$}

\addplot [color=mycolor2]
  table[row sep=crcr]{%
1	0.019775303219206\\
2	0.0210217764534023\\
3	0.0224372323963497\\
4	0.024058742711813\\
5	0.0259351263737046\\
6	0.0281320174688059\\
7	0.0307398096072034\\
8	0.0338865833958781\\
9	0.0377600935275399\\
10	0.0426472101764649\\
11	0.0490094599986528\\
12	0.0576401827385178\\
13	0.0700288298559564\\
14	0.0893407156606893\\
15	0.123700774100431\\
16	0.202175033398071\\
17	0.564479813098353\\
18	0.690442426104836\\
19	0.212260509632627\\
20	0.126132345068284\\
21	0.100380135781766\\
22	0.0378663697499036\\
23	0.0333199748773482\\
24	0.0149453064107011\\
25	0.10083899339379\\
26	0.161002397050911\\
27	0.0405118251764787\\
28	0.0383644765554957\\
29	0.0341227495803863\\
30	0.0306469105251072\\
31	0.0278570926171954\\
32	0.0255709383506331\\
33	0.0236574529195357\\
34	0.0220274984760589\\
35	0.0206190941704396\\
36	0.0193877726649002\\
37	0.0183006807256663\\
38	0.0173329207549748\\
39	0.016465211935799\\
40	0.0156823459816501\\
41	0.0149721364414517\\
42	0.0143246843629073\\
43	0.0137318527665838\\
44	0.0131868826449622\\
45	0.0126841071808284\\
46	0.0122187355837443\\
47	0.0117866872087634\\
48	0.0113844626077037\\
49	0.0110090421200206\\
50	0.0106578052804057\\
51	0\\
52	0\\
53	0\\
54	0\\
55	0\\
56	0\\
57	0\\
58	0\\
59	0\\
60	0\\
61	0\\
62	0\\
63	0\\
64	0\\
65	0\\
66	0\\
67	0\\
68	0\\
69	0\\
70	0\\
71	0\\
72	0\\
73	0\\
74	0\\
75	0\\
76	0\\
77	0\\
78	0\\
79	0\\
80	0\\
81	0\\
82	0\\
83	0\\
84	0\\
85	0\\
86	0\\
87	0\\
88	0\\
89	0\\
90	0\\
91	0\\
92	0\\
93	0\\
94	0\\
95	0\\
96	0\\
97	0\\
98	0\\
99	0\\
100	0\\
101	0\\
102	0\\
103	0\\
104	0\\
105	0\\
106	0\\
107	0\\
108	0\\
109	0\\
110	0\\
111	0\\
112	0\\
113	0\\
114	0\\
115	0\\
116	0\\
117	0\\
118	0\\
119	0\\
120	0\\
121	0\\
122	0\\
123	0\\
124	0\\
125	0\\
126	0\\
127	0\\
128	0\\
129	0\\
130	0\\
131	0\\
132	0\\
133	0\\
134	0\\
135	0\\
136	0\\
137	0\\
138	0\\
139	0\\
140	0\\
141	0\\
142	0\\
143	0\\
144	0\\
145	0\\
146	0\\
147	0\\
148	0\\
149	0\\
150	0\\
};
\addlegendentry{$\mathbf{h_{2}}$}

\end{axis}

\begin{axis}[%
width=1.935in,
height=3.2in,
at={(3.327in,0.512in)},
scale only axis,
xmin=0,
xmax=159,
xlabel style={font=\color{white!15!black}, align=center},
xlabel={Sample Index\\[1ex](b) Estimated},
ymin=0,
ymax=0.35,
axis background/.style={fill=white},
legend style={legend cell align=left, align=left, draw=white!15!black}
]
\addplot [color=mycolor1]
  table[row sep=crcr]{%
0	0.00443960097579121\\
1	0.0107282476681804\\
2	0.02080074854923\\
3	0.0326993453027369\\
4	0.0472154594871658\\
5	0.0748344096132167\\
6	0.0611324617831282\\
7	0.0373868352878291\\
8	0.123863098256052\\
9	0.100962044764976\\
10	0.201644842782708\\
11	0.181364533361389\\
12	0.186084059708707\\
13	0.149194542029048\\
14	0.144960480008448\\
15	0.103594384740273\\
16	0.162762525064425\\
17	0.15971348007958\\
18	0.124995570941106\\
19	0.11522950928992\\
20	0.223199382793037\\
21	0.107545722666245\\
22	0.198154821281541\\
23	0.122434531737164\\
24	0.24958698216293\\
25	0.223666909130608\\
26	0.208306324626447\\
27	0.178263016712729\\
28	0.159581651596475\\
29	0.208167705093719\\
30	0.214987095146591\\
31	0.21641667970287\\
32	0.0980687536900993\\
33	0.163634576892987\\
34	0.136748309914684\\
35	0.149246796091478\\
36	0.124898736730938\\
37	0.145002415734063\\
38	0.133738254010083\\
39	0.089557537485902\\
40	0.0886987873181727\\
41	0.0954943285839763\\
42	0.08371583486941\\
43	0.125232326919603\\
44	0.114970327845858\\
45	0.114932652478653\\
46	0.116665788715239\\
47	0.0956563804630644\\
48	0.0535466277626627\\
49	0.0358017866330445\\
50	0.0392337933617645\\
51	0.0416285138489787\\
52	0.0167964223310996\\
53	0.0201780595870474\\
54	0.0256695051696961\\
55	0.0329728636197203\\
56	0.018065340974852\\
57	0.0211084196116607\\
58	0.0223734502636149\\
59	0.0280825056974434\\
60	0.0173070864746735\\
61	0.0199786472243828\\
62	0.0298549804809616\\
63	0.0237527060224584\\
64	0.0206565054749041\\
65	0.00547677154384848\\
66	0.0186753308557106\\
67	0.0150580077870046\\
68	0.0154578490228511\\
69	0.0132744612840831\\
70	0.0154565844384394\\
71	0.0131577439021377\\
72	0.014524059218476\\
73	0.0158648483636219\\
74	0.0148758599131249\\
75	0.0134174253820977\\
76	0.0169276978624079\\
77	0.0160889805024309\\
78	0.0142500103216384\\
79	0.0147094061644423\\
80	0.0134727943215\\
81	0.0130648903769731\\
82	0.0141632837680521\\
83	0.0134052034844011\\
84	0.0124192858290655\\
85	0.0112509813650501\\
86	0.0116258827301498\\
87	0.01099258866276\\
88	0.00996533120433723\\
89	0.00963716376890589\\
90	0.0111263818964057\\
91	0.0102760882738252\\
92	0.0100463559106809\\
93	0.0103003837460501\\
94	0.0100903953125282\\
95	0.00974082490523216\\
96	0.0100974332456022\\
97	0.00960542646543624\\
98	0.00938607210092323\\
99	0.0092627721983588\\
100	0.00939293250936993\\
101	0.00965743227608581\\
102	0.00880891050153993\\
103	0.00897383535603247\\
104	0.00858393995477947\\
105	0.00883802594140742\\
106	0.0087933583676701\\
107	0.00862321445831198\\
108	0.00841152214875266\\
109	0.00833949139304117\\
110	0.00833010659021444\\
111	0.00828249696700044\\
112	0.00815064203124876\\
113	0.00794021396658993\\
114	0.007931352693203\\
115	0.00794595895571778\\
116	0.0078147994257349\\
117	0.00769198321920695\\
118	0.00768839657527544\\
119	0.00758642073752974\\
120	0.00746588542035275\\
121	0.00740568530249673\\
122	0.00730809866522972\\
123	0.00719495700850337\\
124	0.00718008310857918\\
125	0.00712689174308501\\
126	0.00711101192041673\\
127	0.00703123332091256\\
128	0.00695237441347805\\
129	0.00691884747330644\\
130	0.00684015072236497\\
131	0.00678249418925715\\
132	0.0066517463312693\\
133	0.00666441518021791\\
134	0.00656045672286972\\
135	0.00656447387251881\\
136	0.00646172793012469\\
137	0.00650966324129261\\
138	0.00634830973275717\\
139	0.00630852331639598\\
140	0.00624657184515723\\
141	0.00622454610458691\\
142	0.00614853834788054\\
143	0.00608177950132109\\
144	0.0060171489426978\\
145	0.00599236196926729\\
146	0.00597429959938367\\
147	0.00593344397242087\\
148	0.00564027744439412\\
149	0.00534187854375442\\
150	0.00480635872969909\\
151	0.00432178389062079\\
152	0.00382278477825867\\
153	0.00333652680518113\\
154	0.00273807281798894\\
155	0.00222402609364643\\
156	0.00176707342509281\\
157	0.00122906560183955\\
158	0.000727696097367066\\
159	0.000377519752388933\\
};
\addlegendentry{$\mathbf{\hat{h}_{1}}$}

\addplot [color=mycolor2]
  table[row sep=crcr]{%
0	0.00372433282479576\\
1	0.00862928528511798\\
2	0.0160213612864077\\
3	0.0234797364211806\\
4	0.0302331596160889\\
5	0.0377863806521614\\
6	0.0466351580461214\\
7	0.056049775732304\\
8	0.0676979777721919\\
9	0.0800638836422344\\
10	0.0932251291460394\\
11	0.106455726453021\\
12	0.123221447879967\\
13	0.140471112072561\\
14	0.165500049804804\\
15	0.205533480754125\\
16	0.317474737397642\\
17	0.235416369816126\\
18	0.25570037398775\\
19	0.152497777256918\\
20	0.25257721536072\\
21	0.0878568040325772\\
22	0.0683136006544097\\
23	0.0559488743201973\\
24	0.0234117853738624\\
25	0.172254385962892\\
26	0.196790933515608\\
27	0.264253474072123\\
28	0.262363967819738\\
29	0.341021973170007\\
30	0.188689593047245\\
31	0.181489317939739\\
32	0.0619115447511614\\
33	0.144213242184539\\
34	0.117348808968645\\
35	0.0874524434515431\\
36	0.0881202079553366\\
37	0.129634039167414\\
38	0.0807071046356337\\
39	0.109456110310689\\
40	0.0734414254292245\\
41	0.082515514468389\\
42	0.052975344220576\\
43	0.035917230795955\\
44	0.0954757356057189\\
45	0.0631746597330988\\
46	0.0727222239496336\\
47	0.0446296665773301\\
48	0.051089554399605\\
49	0.0483865983300439\\
50	0.0460066543920453\\
51	0.0402155681931235\\
52	0.0371002618241177\\
53	0.0330330587449481\\
54	0.0284394457386732\\
55	0.0257145000131141\\
56	0.0176731614088215\\
57	0.0165768411677005\\
58	0.0121486900375657\\
59	0.00924423650648563\\
60	0.00349161498051663\\
61	0.00278083775468565\\
62	0.000217734917173509\\
63	0.000839438983182953\\
64	0.000705449286607738\\
65	0.000341639483518846\\
66	0.000377625924503889\\
67	8.03438964435004e-05\\
68	0.000663719705897606\\
69	0.000583455485978669\\
70	0.000659675018540984\\
71	0.00106130167198379\\
72	0.00067287471803097\\
73	0.000430208770119908\\
74	0.00045301353922835\\
75	0.000148768052499065\\
76	0.000116938079998516\\
77	0.000126357016294875\\
78	0.000544414075591469\\
79	0.00019772232050243\\
80	2.77195671133526e-05\\
81	0.000256093220890758\\
82	0.000227591547919598\\
83	0.000681198666896429\\
84	0.000154090858784187\\
85	0.000246497789060107\\
86	0.000535117257309255\\
87	4.27023012460306e-05\\
88	7.87682145381432e-05\\
89	7.70608104619983e-05\\
90	4.15036059957182e-05\\
91	2.88358018086044e-05\\
92	6.31172473031773e-05\\
93	3.45178866501902e-05\\
94	4.88604806412585e-05\\
95	5.11760454843528e-05\\
96	6.49247335528464e-05\\
97	0.000103833713655621\\
98	5.52579836269409e-05\\
99	2.87778645378911e-05\\
100	4.7007427062086e-05\\
101	3.72142092353991e-05\\
102	1.52301981953491e-05\\
103	5.27938756318644e-05\\
104	5.77700746720443e-05\\
105	1.79256324986185e-05\\
106	5.29160434524268e-05\\
107	7.51919765030791e-05\\
108	9.02790849575793e-05\\
109	5.32253683962862e-05\\
110	1.63398578576488e-05\\
111	4.21127753027772e-05\\
112	2.00696430854463e-05\\
113	4.15888419385547e-05\\
114	0.000125448104773757\\
115	1.375732338389e-05\\
116	4.01999583752523e-05\\
117	7.31703713518482e-05\\
118	0.000100342194945796\\
119	4.01644763640226e-05\\
120	6.17467502978996e-05\\
121	4.42724423644531e-05\\
122	6.27138189278326e-05\\
123	5.54489870735467e-05\\
124	1.7992182236026e-05\\
125	2.80833913744863e-05\\
126	3.31170812098688e-05\\
127	1.75411426739503e-05\\
128	3.76271042396419e-05\\
129	3.13733419563462e-05\\
130	5.67016389119873e-05\\
131	3.63350732386256e-05\\
132	8.96034342439468e-05\\
133	0.000107108288830387\\
134	6.26125329272426e-05\\
135	3.987103992629e-05\\
136	4.01678881376698e-05\\
137	1.60655961202118e-05\\
138	3.39220818606035e-05\\
139	9.74071085555078e-06\\
140	2.69794871587179e-05\\
141	1.27820111539343e-05\\
142	7.35547181244579e-05\\
143	2.10741989581692e-05\\
144	6.44696244071437e-05\\
145	5.16482478492141e-05\\
146	8.38649553118839e-05\\
147	0.000107116431374936\\
148	2.17548680370416e-05\\
149	3.04500980203422e-05\\
150	2.3170728729187e-05\\
151	5.95401020362997e-05\\
152	7.57810434828617e-05\\
153	4.80820174055998e-05\\
154	6.71956854122853e-05\\
155	4.99081788398378e-05\\
156	0.000147783574726536\\
157	1.51560868762254e-05\\
158	3.76091784806341e-05\\
159	0.00014061399968286\\
};
\addlegendentry{$\mathbf{\hat{h}_{2}}$}

\end{axis}
\end{tikzpicture}%