% This file was created by matlab2tikz.
%
%The latest updates can be retrieved from
%  http://www.mathworks.com/matlabcentral/fileexchange/22022-matlab2tikz-matlab2tikz
%where you can also make suggestions and rate matlab2tikz.
%
\definecolor{mycolor1}{rgb}{0.00000,0.44700,0.74100}%
\definecolor{mycolor2}{rgb}{0.85000,0.32500,0.09800}%
%
\begin{tikzpicture}

\begin{axis}[%
width=1.935in,
height=3.2in,
at={(0.758in,0.512in)},
scale only axis,
xmin=0,
xmax=150,
xlabel style={font=\color{white!15!black}, align=center},
xlabel={Sample Index\\[1ex](a) Actual},
ymin=0,
ymax=0.7,
axis background/.style={fill=white},
legend style={legend cell align=left, align=left, draw=white!15!black}
]
\addplot [color=mycolor1]
  table[row sep=crcr]{%
1	0.0234657806037261\\
2	0.0272334504034075\\
3	0.0326864300765018\\
4	0.0414541482980318\\
5	0.0586677033458464\\
6	0.117843438362983\\
7	0.159969331461504\\
8	0.174397116945152\\
9	0.616552810702634\\
10	0.0882137642931462\\
11	0.0472681903124796\\
12	0.0327587509505929\\
13	0.0272256709659274\\
14	0.0412344622245766\\
15	0.0186762848129325\\
16	0.0451940046978057\\
17	0.0153724087875252\\
18	0.0239672675363248\\
19	0.0400285717874473\\
20	0.0828333966509162\\
21	0.557624977131952\\
22	0.149414784250917\\
23	0.109138078132702\\
24	0.0381681231028791\\
25	0.032799759178118\\
26	0.191519461959093\\
27	0.0734580287558902\\
28	0.0358315656953253\\
29	0.0179563195827385\\
30	0.0169149242156914\\
31	0.0179798517146348\\
32	0.0199431506445131\\
33	0.0279225394655299\\
34	0.0908594243819801\\
35	0.0439964246924232\\
36	0.330890477505262\\
37	0.037800506563543\\
38	0.020261933748638\\
39	0.0138181229977315\\
40	0.0211497159554441\\
41	0.0112042208144458\\
42	0.00964538908702694\\
43	0.00864780826327016\\
44	0.00787736374270682\\
45	0.00720180133294831\\
46	0.00651453200193765\\
47	0.00565492088107664\\
48	0.0112814316241706\\
49	0.0075966567083061\\
50	0.0102713040739602\\
51	0.00787142060243747\\
52	0.00711780022683946\\
53	0.00668443537322835\\
54	0.00638223966522588\\
55	0.00615487020840034\\
56	0.00598242225636516\\
57	0.00586293416152974\\
58	0.00581626175933958\\
59	0.00593494184987807\\
60	0.00707647204853056\\
61	0.00861312572402681\\
62	0.00240649054353041\\
63	0.0036902508247688\\
64	0.0040125763148678\\
65	0.00408542983582614\\
66	0.00408934467211144\\
67	0.00406760360864643\\
68	0.00403657730104579\\
69	0.00400486664899167\\
70	0.00397913876457006\\
71	0.00396763365360209\\
72	0.00398577860522856\\
73	0.00407460869510253\\
74	0.00440882178496405\\
75	0.00852319154542653\\
76	0.00211982859547221\\
77	0.00279674481878385\\
78	0.00295234209521732\\
79	0.00299967450324673\\
80	0.00300734384297471\\
81	0.00299658049652506\\
82	0.00297609501762909\\
83	0.00295010695632826\\
84	0.00292089738309008\\
85	0.00288979839106794\\
86	0.00285763293534116\\
87	0.00282493110979805\\
88	0.00279204510261472\\
89	0.00275921420187501\\
90	0.00272660345813555\\
91	0.00269432766245323\\
92	0.00266246675038502\\
93	0.00263107599882434\\
94	0.00260019295165966\\
95	0.00256984222925479\\
96	0.00254003893333548\\
97	0.0025107910982644\\
98	0.00248210148178531\\
99	0.00245396889001376\\
100	0.00242638916874131\\
101	0.00239935595223708\\
102	0.00237286123354156\\
103	0.00234689580183488\\
104	0.00232144957979209\\
105	0.00229651188498403\\
106	0.00227207163310714\\
107	0.0022481174963278\\
108	0.00222463802675857\\
109	0.00220162175268604\\
110	0.00217905725339276\\
111	0.0021569332170867\\
112	0.00213523848544673\\
113	0.00211396208753109\\
114	0.00209309326520902\\
115	0.00207262149182518\\
116	0.00205253648545491\\
117	0.00203282821783402\\
118	0.00201348691983224\\
119	0.00199450308416773\\
120	0.00197586746592614\\
121	0.00195757108133911\\
122	0.0019396052051902\\
123	0.0019219613671484\\
124	0.00190463134727109\\
125	0.00188760717087541\\
126	0.00187088110293773\\
127	0.00185444564215264\\
128	0.0018382935147574\\
129	0.00182241766820821\\
130	0.00180681126477794\\
131	0.00179146767513212\\
132	0.00177638047192757\\
133	0.00176154342347035\\
134	0.00174695048746156\\
135	0.0017325958048528\\
136	0.00171847369382931\\
137	0.00170457864393352\\
138	0.0016909053103386\\
139	0.00167744850827835\\
140	0.00166420320763913\\
141	0.00165116452771496\\
142	0.00163832773212761\\
143	0.00162568822391149\\
144	0.00161324154076111\\
145	0.0016009833504405\\
146	0.00158890944635072\\
147	0.00157701574325256\\
148	0.00156529827314105\\
149	0\\
150	0\\
};
\addlegendentry{$\mathbf{h_1}$}

\addplot [color=mycolor2]
  table[row sep=crcr]{%
1	0.019775303219206\\
2	0.0210217764534023\\
3	0.0224372323963497\\
4	0.024058742711813\\
5	0.0259351263737046\\
6	0.0281320174688059\\
7	0.0307398096072034\\
8	0.0338865833958781\\
9	0.0377600935275399\\
10	0.0426472101764649\\
11	0.0490094599986528\\
12	0.0576401827385178\\
13	0.0700288298559564\\
14	0.0893407156606893\\
15	0.123700774100431\\
16	0.202175033398071\\
17	0.564479813098353\\
18	0.690442426104836\\
19	0.212260509632627\\
20	0.126132345068284\\
21	0.100380135781766\\
22	0.0378663697499036\\
23	0.0333199748773482\\
24	0.0149453064107011\\
25	0.10083899339379\\
26	0.161002397050911\\
27	0.0405118251764787\\
28	0.0383644765554957\\
29	0.0341227495803863\\
30	0.0306469105251072\\
31	0.0278570926171954\\
32	0.0255709383506331\\
33	0.0236574529195357\\
34	0.0220274984760589\\
35	0.0206190941704396\\
36	0.0193877726649002\\
37	0.0183006807256663\\
38	0.0173329207549748\\
39	0.016465211935799\\
40	0.0156823459816501\\
41	0.0149721364414517\\
42	0.0143246843629073\\
43	0.0137318527665838\\
44	0.0131868826449622\\
45	0.0126841071808284\\
46	0.0122187355837443\\
47	0.0117866872087634\\
48	0.0113844626077037\\
49	0.0110090421200206\\
50	0.0106578052804057\\
51	0\\
52	0\\
53	0\\
54	0\\
55	0\\
56	0\\
57	0\\
58	0\\
59	0\\
60	0\\
61	0\\
62	0\\
63	0\\
64	0\\
65	0\\
66	0\\
67	0\\
68	0\\
69	0\\
70	0\\
71	0\\
72	0\\
73	0\\
74	0\\
75	0\\
76	0\\
77	0\\
78	0\\
79	0\\
80	0\\
81	0\\
82	0\\
83	0\\
84	0\\
85	0\\
86	0\\
87	0\\
88	0\\
89	0\\
90	0\\
91	0\\
92	0\\
93	0\\
94	0\\
95	0\\
96	0\\
97	0\\
98	0\\
99	0\\
100	0\\
101	0\\
102	0\\
103	0\\
104	0\\
105	0\\
106	0\\
107	0\\
108	0\\
109	0\\
110	0\\
111	0\\
112	0\\
113	0\\
114	0\\
115	0\\
116	0\\
117	0\\
118	0\\
119	0\\
120	0\\
121	0\\
122	0\\
123	0\\
124	0\\
125	0\\
126	0\\
127	0\\
128	0\\
129	0\\
130	0\\
131	0\\
132	0\\
133	0\\
134	0\\
135	0\\
136	0\\
137	0\\
138	0\\
139	0\\
140	0\\
141	0\\
142	0\\
143	0\\
144	0\\
145	0\\
146	0\\
147	0\\
148	0\\
149	0\\
150	0\\
};
\addlegendentry{$\mathbf{h_{2}}$}

\end{axis}

\begin{axis}[%
width=1.935in,
height=3.2in,
at={(3.327in,0.512in)},
scale only axis,
xmin=0,
xmax=300,
xlabel style={font=\color{white!15!black}, align=center},
xlabel={Sample Index\\[1ex](b) Estimated},
ymin=0,
ymax=0.18,
axis background/.style={fill=white},
legend style={legend cell align=left, align=left, draw=white!15!black}
]
\addplot [color=mycolor1]
  table[row sep=crcr]{%
0	0.00931674004194483\\
1	0.0148759371731698\\
2	0.0469060548276306\\
3	0.0422905656263777\\
4	0.0407038804985498\\
5	0.0278826669775981\\
6	0.0066717909034381\\
7	0.015283657528911\\
8	0.0219734635133468\\
9	0.032159481982073\\
10	0.035079360927045\\
11	0.0535785674419791\\
12	0.00377360762511601\\
13	0.0652613701962954\\
14	0.0667603553481008\\
15	0.10360998679654\\
16	0.051206279617094\\
17	0.0301546082430618\\
18	0.0388403285445889\\
19	0.074371805422138\\
20	0.0660337387908489\\
21	0.0331970328589588\\
22	0.0422606853818552\\
23	0.0521590824249983\\
24	0.0741038762528417\\
25	0.0588315043722349\\
26	0.0496051602486044\\
27	0.0601763076729849\\
28	0.0881359951053983\\
29	0.0366129129676493\\
30	0.088148065719731\\
31	0.100869838532425\\
32	0.0372695188045102\\
33	0.0672518553915158\\
34	0.0145126658986177\\
35	0.0272962080485813\\
36	0.0680183108475049\\
37	0.0543680025077662\\
38	0.0357252828368398\\
39	0.0513744803232633\\
40	0.018782574826535\\
41	0.0922094686292011\\
42	0.0430289583303676\\
43	0.0297225130518525\\
44	0.0730448473491456\\
45	0.04341857446216\\
46	0.0405620976980905\\
47	0.0694263820912411\\
48	0.0697683056165161\\
49	0.0493261180259582\\
50	0.0428278309012989\\
51	0.114194486982994\\
52	0.0195448908317621\\
53	0.0373529959031704\\
54	0.0703274851123776\\
55	0.0954591757988955\\
56	0.0967628158511475\\
57	0.0641364956240243\\
58	0.0132375726776496\\
59	0.0303066471284276\\
60	0.0519207994401019\\
61	0.128273923001606\\
62	0.0548538636555293\\
63	0.0482242305583344\\
64	0.0174304850636935\\
65	0.120547655581078\\
66	0.0661616233167393\\
67	0.0276188698240836\\
68	0.0136628344312677\\
69	0.117481390923317\\
70	0.114279089899813\\
71	0.0663626032894352\\
72	0.0939518361901687\\
73	0.00467245381610449\\
74	0.0162210375800635\\
75	0.0108358590874613\\
76	0.0500413943977541\\
77	0.0403037856592207\\
78	0.00360045760642447\\
79	0.0254969586636375\\
80	0.0797828486039716\\
81	0.080493532783012\\
82	0.0619588410234793\\
83	0.0572947171716776\\
84	0.0578165762803008\\
85	0.0180891779224615\\
86	0.0292916804224718\\
87	0.013869722226784\\
88	0.0238547689439164\\
89	0.00878797213892815\\
90	0.045747547807882\\
91	0.0806037024866534\\
92	0.0410640011965813\\
93	0.0318250836419955\\
94	0.0330915035646529\\
95	0.0646622806368672\\
96	0.00736007217658749\\
97	0.0678156990704038\\
98	0.104813468216836\\
99	0.0269728443146553\\
100	0.0740877177401571\\
101	0.0746934430401638\\
102	0.0416344660674374\\
103	0.0578126737442823\\
104	0.0885056658824347\\
105	0.0406288176070264\\
106	0.0252609795857465\\
107	0.0825590279609887\\
108	0.0780672151665294\\
109	0.0147307257514659\\
110	0.0727293469098641\\
111	0.0794336642561818\\
112	0.0723231679921261\\
113	0.0348726537514738\\
114	0.0268929655372701\\
115	0.0464492360423061\\
116	0.0146677547238627\\
117	0.0569761317165517\\
118	0.022050522127129\\
119	0.0502162043042707\\
120	0.0499297226948747\\
121	0.0437216253665872\\
122	0.111593645704171\\
123	0.074738003179592\\
124	0.0415726932141699\\
125	0.0138162103022381\\
126	0.0565571259688599\\
127	0.0337663390058357\\
128	0.0613642303472805\\
129	0.0393723660862028\\
130	0.00996455500533625\\
131	0.0546481701127306\\
132	0.0411044357107547\\
133	0.100818139025069\\
134	0.0416369079346353\\
135	0.0555824209031207\\
136	0.0160961242214472\\
137	0.0418651905619001\\
138	0.0337992876716266\\
139	0.010916963877623\\
140	0.0422198227559584\\
141	0.0250758292079109\\
142	0.0734499333239762\\
143	0.0712814128934636\\
144	0.0340641209300126\\
145	0.0746054162225152\\
146	0.0693409837255859\\
147	0.0425843489808128\\
148	0.0555411005523668\\
149	0.0374616578927526\\
150	0.0489868528206073\\
151	0.0656961436981672\\
152	0.0257879373378884\\
153	0.0483061824632744\\
154	0.0316786136907636\\
155	0.109174374419633\\
156	0.0105750487216289\\
157	0.0862494171374007\\
158	0.0528844785150734\\
159	0.0690943637446677\\
160	0.0351495211548365\\
161	0.0256447799142487\\
162	0.0499716217159793\\
163	0.0316426217000826\\
164	0.0509305090959532\\
165	0.000966671381100299\\
166	0.0778689939367853\\
167	0.0741698381817269\\
168	0.0161194839804203\\
169	0.0319069360711169\\
170	0.0969709835727144\\
171	0.038372348553114\\
172	0.0171418802044298\\
173	0.0906202102175302\\
174	0.0854944022379764\\
175	0.127495943275909\\
176	0.0409556556672612\\
177	0.0589668288723073\\
178	0.143357392350268\\
179	0.0169287188981295\\
180	0.0200996171814016\\
181	0.0327259974303334\\
182	0.0776501005839449\\
183	0.0193474329101836\\
184	0.0227475934271765\\
185	0.0538068236648395\\
186	0.0109825648393774\\
187	0.086798848187477\\
188	0.0877881244058215\\
189	0.06062151129696\\
190	0.0308304211154642\\
191	0.0237121621019384\\
192	0.0797045842055963\\
193	0.0681797569315639\\
194	0.079237886249205\\
195	0.00696837351807184\\
196	0.0677416915382238\\
197	0.0385421472405961\\
198	0.0778316941410814\\
199	0.0776675863471228\\
200	0.0139723742555583\\
201	0.067235299827425\\
202	0.0257521446805762\\
203	0.0436344725728535\\
204	0.0336597021764041\\
205	0.0705395676587429\\
206	0.153438844168372\\
207	0.0115062796838896\\
208	0.0495512269366393\\
209	0.0463751630471817\\
210	0.0588863471378134\\
211	0.0221620544767662\\
212	0.0358986368748232\\
213	0.0793198500473611\\
214	0.0940040421340376\\
215	0.0232151854620177\\
216	0.0702273675564569\\
217	0.118680638134846\\
218	0.0473037309465666\\
219	0.0236071607276722\\
220	0.0822925002387608\\
221	0.0436585128345076\\
222	0.00981764771274331\\
223	0.0506440676123631\\
224	0.0635624753089113\\
225	0.017449885071158\\
226	0.0321244430991189\\
227	0.00748956286310283\\
228	0.0351469359328305\\
229	0.0695399866272933\\
230	0.0718110912687311\\
231	0.040261452040542\\
232	0.0988239480113642\\
233	0.0814108583094794\\
234	0.0275221116921167\\
235	0.0436699389557157\\
236	0.0561594813709264\\
237	0.0527321764649617\\
238	0.0394621123600424\\
239	0.0944756220347692\\
240	0.0384183288804951\\
241	0.0603259074200114\\
242	0.0512244963599106\\
243	0.0461095973942936\\
244	0.0241769658022844\\
245	0.0978777264560291\\
246	0.0313125048764311\\
247	0.0812327987847862\\
248	0.0750083900816021\\
249	0.033693475105836\\
250	0.0464502300104081\\
251	0.047863830530073\\
252	0.0232344838665638\\
253	0.0573941981478147\\
254	0.0286741521881339\\
255	0.0460333598771112\\
256	0.0459525488581696\\
257	0.0773152438710166\\
258	0.0218397869239579\\
259	0.0499538299259944\\
260	0.0269579643018248\\
261	0.00553381670296539\\
262	0.0475676245652278\\
263	0.0294612167100261\\
264	0.0465372748748932\\
265	0.0380481715409146\\
266	0.0823487001842782\\
267	0.0470285214993886\\
268	0.0759575167958294\\
269	0.0613161241331214\\
270	0.0269116943338134\\
271	0.0648021357230773\\
272	0.0385408042750542\\
273	0.0446981218731117\\
274	0.0604341401169113\\
275	0.0229864034818481\\
276	0.0882704639522493\\
277	0.0122421364767855\\
278	0.0500770137082329\\
279	0.0623023311739748\\
280	0.032023198815505\\
281	0.0477999314162033\\
282	0.0550549479964973\\
283	0.0436581109393876\\
284	0.00359551920326824\\
285	0.0551719065899163\\
286	0.0510673355812135\\
287	0.0410315412555636\\
288	0.0486727110963238\\
289	0.0611453390411242\\
290	0.0821325552583277\\
291	0.0569685714315975\\
292	0.0503867258360892\\
293	0.0342809564953383\\
294	0.00351782140934616\\
295	0.0743158074487259\\
296	0.0934124913475713\\
297	0.0283787805514007\\
298	0.0251714006748907\\
299	0.0350583614614688\\
};
\addlegendentry{$\mathbf{\hat{h}_{1}}$}

\addplot [color=mycolor2]
  table[row sep=crcr]{%
0	0.0425961420064731\\
1	0.012045961077688\\
2	0.0225625204014235\\
3	0.0438924300202462\\
4	0.03637426062473\\
5	0.0560400931133212\\
6	0.0916999463642796\\
7	0.0432156739015212\\
8	0.0171569979088151\\
9	0.123818235931792\\
10	0.0338610382741161\\
11	0.00723120527337142\\
12	0.0489435714511771\\
13	0.0621136550163399\\
14	0.0454846134714571\\
15	0.00428101121393447\\
16	0.0257086963750086\\
17	0.0522497778287892\\
18	0.0739393108056162\\
19	0.0183782876412893\\
20	0.0128634413883944\\
21	0.104096927357242\\
22	0.0881084731941228\\
23	0.0462600980061883\\
24	0.0195879315447744\\
25	0.05754857372878\\
26	0.0235121092223475\\
27	0.0434755836972624\\
28	0.0278006047451478\\
29	0.0906344682040937\\
30	0.0624570278357311\\
31	0.0843949278690198\\
32	0.0472923958463537\\
33	0.0357954847643356\\
34	0.0553305590147188\\
35	0.0622507680545908\\
36	0.0239568884705445\\
37	0.0383403803459178\\
38	0.0790990218313254\\
39	0.00654389921062057\\
40	0.073924714001646\\
41	0.0705210373725123\\
42	0.044671852944049\\
43	0.0520793056869622\\
44	0.0750036649114421\\
45	0.0396047543494025\\
46	0.0292355791808074\\
47	0.0349785007004479\\
48	0.0886251570346802\\
49	0.0187950414265057\\
50	0.00477838602385486\\
51	0.0261429392397711\\
52	0.0554534125374349\\
53	0.0272160725774673\\
54	0.0195878792385607\\
55	0.0125822897146181\\
56	0.0925150882622359\\
57	0.0682733075507545\\
58	0.108513971853517\\
59	0.0239709357674379\\
60	0.0152029895114497\\
61	0.0494622716767569\\
62	0.0646584780145347\\
63	0.020660848723978\\
64	0.0454006828027726\\
65	0.100714851754424\\
66	0.134574944419467\\
67	0.0256722044006799\\
68	0.0892251437576902\\
69	0.0185299598843081\\
70	0.0144037523384948\\
71	0.0486320173028458\\
72	0.0358125952857173\\
73	0.0440990560417886\\
74	0.0959840536174832\\
75	0.0170346698453578\\
76	0.126144978813317\\
77	0.058854448802896\\
78	0.0821407092051819\\
79	0.0378918020269556\\
80	0.008525810162167\\
81	0.0875527470176147\\
82	0.109310895431333\\
83	0.10661957657392\\
84	0.0467009291046614\\
85	0.026681784584537\\
86	0.0149822748421835\\
87	0.0616000243061671\\
88	0.0289104833679501\\
89	0.0738009549064794\\
90	0.00954076515365667\\
91	0.022647503787059\\
92	0.0414599696588258\\
93	0.0739025209666796\\
94	0.0426408337310372\\
95	0.00624331117269525\\
96	0.102283335712333\\
97	0.0248863627164971\\
98	0.0367325952955185\\
99	0.044273844914329\\
100	0.018461637680413\\
101	0.0348192049075883\\
102	0.053538636159729\\
103	0.0529464992232467\\
104	0.0606598303100934\\
105	0.0502165631699054\\
106	0.0671558000301837\\
107	0.0513779137432983\\
108	0.0613781042325529\\
109	0.0572951677385392\\
110	0.0698502841593387\\
111	0.0355846928206446\\
112	0.0166636705905352\\
113	0.0373380098995418\\
114	0.0321011522843889\\
115	0.0149238054075199\\
116	0.0716672107295654\\
117	0.0349964103590202\\
118	0.028443341754436\\
119	0.0965519007602148\\
120	0.0598748295089883\\
121	0.031123327257558\\
122	0.071113989051583\\
123	0.0504104863420049\\
124	0.0181464289942228\\
125	0.0625253632556778\\
126	0.00170750814444927\\
127	0.0299245171426371\\
128	0.0563610735760191\\
129	0.0459642601282085\\
130	0.00900278876480256\\
131	0.0427938500719939\\
132	0.0400896946299116\\
133	0.0183172239284173\\
134	0.0257020077535272\\
135	0.0739157208678842\\
136	0.0273547529875287\\
137	0.0200490907224078\\
138	0.0466469438201833\\
139	0.0363797658795743\\
140	0.0556619585239202\\
141	0.0355553188946366\\
142	0.0608756795166751\\
143	0.0527363407265729\\
144	0.0229893650361112\\
145	0.0340472003683567\\
146	0.0209304078153596\\
147	0.0258873603579095\\
148	0.0440350001600077\\
149	0.0484265493629272\\
150	0.0403843667166028\\
151	0.0780352169501866\\
152	0.0295333676452622\\
153	0.0607092089338078\\
154	0.0718796458355062\\
155	0.0406606609126449\\
156	0.0202856464177331\\
157	0.0398102130127498\\
158	0.0414305736598194\\
159	0.0391987388009242\\
160	0.00967623856840678\\
161	0.0583556225474996\\
162	0.0414263466906271\\
163	0.0496920349060101\\
164	0.0587267006946903\\
165	0.0854573077619572\\
166	0.0263208887326334\\
167	0.0521468878327523\\
168	0.0453293303507101\\
169	0.0536055896447796\\
170	0.0663512387049041\\
171	0.0547199518770873\\
172	0.0244075045291131\\
173	0.0746401786465938\\
174	0.0162057344066318\\
175	0.0846994643347427\\
176	0.0607752319150949\\
177	0.0795657936021402\\
178	0.0410692352030189\\
179	0.0392931444248148\\
180	0.0285997218948893\\
181	0.0375359099522058\\
182	0.0970592837686886\\
183	0.016072192040786\\
184	0.0308640403222903\\
185	0.0331218990016573\\
186	0.0839044651222683\\
187	0.0335516571209046\\
188	0.0977480555804554\\
189	0.0114600883413949\\
190	0.0446135694880282\\
191	0.0394449485335262\\
192	0.0053177301526908\\
193	0.0459461938351277\\
194	0.0457760174699228\\
195	0.050786066028217\\
196	0.131636250792315\\
197	0.0460790174506312\\
198	0.00511468252661891\\
199	0.0140541365551203\\
200	0.0463482110660052\\
201	0.0384985146599611\\
202	0.0537710777755877\\
203	0.0336887174779528\\
204	0.0598009756551857\\
205	0.0745455644704681\\
206	0.0199520602892381\\
207	0.096761615161029\\
208	0.130469386396832\\
209	0.0458285732409762\\
210	0.0694884368332375\\
211	0.0571165697977196\\
212	0.0397384921374386\\
213	0.0275557034244841\\
214	0.127480224684398\\
215	0.0851919578577749\\
216	0.050650746290471\\
217	0.0362763911761506\\
218	0.0430941724571891\\
219	0.0485984016543096\\
220	0.114759864519438\\
221	0.0721943108439706\\
222	0.0934578247573725\\
223	0.0323674362965492\\
224	0.0280982191225849\\
225	0.0773291615051101\\
226	0.0556192690873095\\
227	0.0754406495126098\\
228	0.0615972694303564\\
229	0.0554113408726035\\
230	0.0765338788275228\\
231	0.0180273221551035\\
232	0.0535796653208431\\
233	0.117971055142308\\
234	0.0662637527690717\\
235	0.0711512840066743\\
236	0.0358212940495546\\
237	0.0415266884608962\\
238	0.0357066019736168\\
239	0.0349335956011298\\
240	0.0290652275861135\\
241	0.0404438248005449\\
242	0.0464710791938209\\
243	0.0378522824587903\\
244	0.0329509600819206\\
245	0.0208707590062723\\
246	0.0402428892624488\\
247	0.159072347051146\\
248	0.0948549808548865\\
249	0.00783638091270886\\
250	0.0397539528420462\\
251	0.0510974259596379\\
252	0.0554088814095778\\
253	0.00827217328025649\\
254	0.0848524729310279\\
255	0.0531326540007876\\
256	0.0579542953817331\\
257	0.0653942639495211\\
258	0.046098192373276\\
259	0.078777126257323\\
260	0.0489037660886724\\
261	0.165399094322862\\
262	0.0938496926747946\\
263	0.0025560436113533\\
264	0.0174061079722133\\
265	0.094670909331754\\
266	0.0432499821751\\
267	0.0886427313562834\\
268	0.100270622890095\\
269	0.0233053078355661\\
270	0.0477829269584202\\
271	0.0381976760752357\\
272	0.0914807916192516\\
273	0.00935317038175143\\
274	0.00815634339100677\\
275	0.0146244907748831\\
276	0.057701452468476\\
277	0.0727919391909164\\
278	0.0717570887974694\\
279	0.036649425102199\\
280	0.0429298372229627\\
281	0.0851939271331862\\
282	0.0252609486497168\\
283	0.0519425588233615\\
284	0.0264962591508227\\
285	0.0890597851559251\\
286	0.033900458276048\\
287	0.0605901886074599\\
288	0.0994743869790372\\
289	0.0500878634341772\\
290	0.0280232635339512\\
291	0.0192305573928619\\
292	0.0392408790891063\\
293	0.0222708551002115\\
294	0.0283541410614837\\
295	0.0190155167626688\\
296	0.0311293456915276\\
297	0.0567849933609191\\
298	0.077838779147544\\
299	0.0486365427010165\\
};
\addlegendentry{$\mathbf{\hat{h}_{2}}$}

\end{axis}
\end{tikzpicture}%