% This file was created by matlab2tikz.
%
%The latest updates can be retrieved from
%  http://www.mathworks.com/matlabcentral/fileexchange/22022-matlab2tikz-matlab2tikz
%where you can also make suggestions and rate matlab2tikz.
%
\definecolor{mycolor1}{rgb}{0.00000,0.44700,0.74100}%
\definecolor{mycolor2}{rgb}{0.85000,0.32500,0.09800}%
%
\begin{tikzpicture}

\begin{axis}[%
width=1.935in,
height=3.2in,
at={(0.758in,0.512in)},
scale only axis,
xmin=0,
xmax=150,
xlabel style={font=\color{white!15!black}, align=center},
xlabel={Sample Index\\[1ex](a) Actual},
ymin=0,
ymax=0.7,
axis background/.style={fill=white},
legend style={legend cell align=left, align=left, draw=white!15!black}
]
\addplot [color=mycolor1]
  table[row sep=crcr]{%
1	0.0234657806037261\\
2	0.0272334504034075\\
3	0.0326864300765018\\
4	0.0414541482980318\\
5	0.0586677033458464\\
6	0.117843438362983\\
7	0.159969331461504\\
8	0.174397116945152\\
9	0.616552810702634\\
10	0.0882137642931462\\
11	0.0472681903124796\\
12	0.0327587509505929\\
13	0.0272256709659274\\
14	0.0412344622245766\\
15	0.0186762848129325\\
16	0.0451940046978057\\
17	0.0153724087875252\\
18	0.0239672675363248\\
19	0.0400285717874473\\
20	0.0828333966509162\\
21	0.557624977131952\\
22	0.149414784250917\\
23	0.109138078132702\\
24	0.0381681231028791\\
25	0.032799759178118\\
26	0.191519461959093\\
27	0.0734580287558902\\
28	0.0358315656953253\\
29	0.0179563195827385\\
30	0.0169149242156914\\
31	0.0179798517146348\\
32	0.0199431506445131\\
33	0.0279225394655299\\
34	0.0908594243819801\\
35	0.0439964246924232\\
36	0.330890477505262\\
37	0.037800506563543\\
38	0.020261933748638\\
39	0.0138181229977315\\
40	0.0211497159554441\\
41	0.0112042208144458\\
42	0.00964538908702694\\
43	0.00864780826327016\\
44	0.00787736374270682\\
45	0.00720180133294831\\
46	0.00651453200193765\\
47	0.00565492088107664\\
48	0.0112814316241706\\
49	0.0075966567083061\\
50	0.0102713040739602\\
51	0.00787142060243747\\
52	0.00711780022683946\\
53	0.00668443537322835\\
54	0.00638223966522588\\
55	0.00615487020840034\\
56	0.00598242225636516\\
57	0.00586293416152974\\
58	0.00581626175933958\\
59	0.00593494184987807\\
60	0.00707647204853056\\
61	0.00861312572402681\\
62	0.00240649054353041\\
63	0.0036902508247688\\
64	0.0040125763148678\\
65	0.00408542983582614\\
66	0.00408934467211144\\
67	0.00406760360864643\\
68	0.00403657730104579\\
69	0.00400486664899167\\
70	0.00397913876457006\\
71	0.00396763365360209\\
72	0.00398577860522856\\
73	0.00407460869510253\\
74	0.00440882178496405\\
75	0.00852319154542653\\
76	0.00211982859547221\\
77	0.00279674481878385\\
78	0.00295234209521732\\
79	0.00299967450324673\\
80	0.00300734384297471\\
81	0.00299658049652506\\
82	0.00297609501762909\\
83	0.00295010695632826\\
84	0.00292089738309008\\
85	0.00288979839106794\\
86	0.00285763293534116\\
87	0.00282493110979805\\
88	0.00279204510261472\\
89	0.00275921420187501\\
90	0.00272660345813555\\
91	0.00269432766245323\\
92	0.00266246675038502\\
93	0.00263107599882434\\
94	0.00260019295165966\\
95	0.00256984222925479\\
96	0.00254003893333548\\
97	0.0025107910982644\\
98	0.00248210148178531\\
99	0.00245396889001376\\
100	0.00242638916874131\\
101	0.00239935595223708\\
102	0.00237286123354156\\
103	0.00234689580183488\\
104	0.00232144957979209\\
105	0.00229651188498403\\
106	0.00227207163310714\\
107	0.0022481174963278\\
108	0.00222463802675857\\
109	0.00220162175268604\\
110	0.00217905725339276\\
111	0.0021569332170867\\
112	0.00213523848544673\\
113	0.00211396208753109\\
114	0.00209309326520902\\
115	0.00207262149182518\\
116	0.00205253648545491\\
117	0.00203282821783402\\
118	0.00201348691983224\\
119	0.00199450308416773\\
120	0.00197586746592614\\
121	0.00195757108133911\\
122	0.0019396052051902\\
123	0.0019219613671484\\
124	0.00190463134727109\\
125	0.00188760717087541\\
126	0.00187088110293773\\
127	0.00185444564215264\\
128	0.0018382935147574\\
129	0.00182241766820821\\
130	0.00180681126477794\\
131	0.00179146767513212\\
132	0.00177638047192757\\
133	0.00176154342347035\\
134	0.00174695048746156\\
135	0.0017325958048528\\
136	0.00171847369382931\\
137	0.00170457864393352\\
138	0.0016909053103386\\
139	0.00167744850827835\\
140	0.00166420320763913\\
141	0.00165116452771496\\
142	0.00163832773212761\\
143	0.00162568822391149\\
144	0.00161324154076111\\
145	0.0016009833504405\\
146	0.00158890944635072\\
147	0.00157701574325256\\
148	0.00156529827314105\\
149	0\\
150	0\\
};
\addlegendentry{$\mathbf{h_1}$}

\addplot [color=mycolor2]
  table[row sep=crcr]{%
1	0.019775303219206\\
2	0.0210217764534023\\
3	0.0224372323963497\\
4	0.024058742711813\\
5	0.0259351263737046\\
6	0.0281320174688059\\
7	0.0307398096072034\\
8	0.0338865833958781\\
9	0.0377600935275399\\
10	0.0426472101764649\\
11	0.0490094599986528\\
12	0.0576401827385178\\
13	0.0700288298559564\\
14	0.0893407156606893\\
15	0.123700774100431\\
16	0.202175033398071\\
17	0.564479813098353\\
18	0.690442426104836\\
19	0.212260509632627\\
20	0.126132345068284\\
21	0.100380135781766\\
22	0.0378663697499036\\
23	0.0333199748773482\\
24	0.0149453064107011\\
25	0.10083899339379\\
26	0.161002397050911\\
27	0.0405118251764787\\
28	0.0383644765554957\\
29	0.0341227495803863\\
30	0.0306469105251072\\
31	0.0278570926171954\\
32	0.0255709383506331\\
33	0.0236574529195357\\
34	0.0220274984760589\\
35	0.0206190941704396\\
36	0.0193877726649002\\
37	0.0183006807256663\\
38	0.0173329207549748\\
39	0.016465211935799\\
40	0.0156823459816501\\
41	0.0149721364414517\\
42	0.0143246843629073\\
43	0.0137318527665838\\
44	0.0131868826449622\\
45	0.0126841071808284\\
46	0.0122187355837443\\
47	0.0117866872087634\\
48	0.0113844626077037\\
49	0.0110090421200206\\
50	0.0106578052804057\\
51	0\\
52	0\\
53	0\\
54	0\\
55	0\\
56	0\\
57	0\\
58	0\\
59	0\\
60	0\\
61	0\\
62	0\\
63	0\\
64	0\\
65	0\\
66	0\\
67	0\\
68	0\\
69	0\\
70	0\\
71	0\\
72	0\\
73	0\\
74	0\\
75	0\\
76	0\\
77	0\\
78	0\\
79	0\\
80	0\\
81	0\\
82	0\\
83	0\\
84	0\\
85	0\\
86	0\\
87	0\\
88	0\\
89	0\\
90	0\\
91	0\\
92	0\\
93	0\\
94	0\\
95	0\\
96	0\\
97	0\\
98	0\\
99	0\\
100	0\\
101	0\\
102	0\\
103	0\\
104	0\\
105	0\\
106	0\\
107	0\\
108	0\\
109	0\\
110	0\\
111	0\\
112	0\\
113	0\\
114	0\\
115	0\\
116	0\\
117	0\\
118	0\\
119	0\\
120	0\\
121	0\\
122	0\\
123	0\\
124	0\\
125	0\\
126	0\\
127	0\\
128	0\\
129	0\\
130	0\\
131	0\\
132	0\\
133	0\\
134	0\\
135	0\\
136	0\\
137	0\\
138	0\\
139	0\\
140	0\\
141	0\\
142	0\\
143	0\\
144	0\\
145	0\\
146	0\\
147	0\\
148	0\\
149	0\\
150	0\\
};
\addlegendentry{$\mathbf{h_{2}}$}

\end{axis}

\begin{axis}[%
width=1.935in,
height=3.2in,
at={(3.327in,0.512in)},
scale only axis,
xmin=0,
xmax=150,
xlabel style={font=\color{white!15!black}, align=center},
xlabel={Sample Index\\[1ex](b) Estimated},
ymin=0,
ymax=0.6,
axis background/.style={fill=white},
legend style={legend cell align=left, align=left, draw=white!15!black}
]
\addplot [color=mycolor1]
  table[row sep=crcr]{%
0	0.00327162805026145\\
1	0.00282253429245746\\
2	0.0119613762621904\\
3	0.0122569292418116\\
4	0.0145706579944871\\
5	0.0340302945836713\\
6	0.0131439936093034\\
7	0.0384842424402589\\
8	0.152832254510958\\
9	0.060186659943504\\
10	0.234978420169383\\
11	0.119532998331355\\
12	0.133495912178081\\
13	0.313373449307441\\
14	0.285025553315672\\
15	0.135345949938548\\
16	0.133762007161273\\
17	0.104216716089191\\
18	0.12803849432398\\
19	0.135448639967266\\
20	0.0776579882520309\\
21	0.100529802269662\\
22	0.31798567444904\\
23	0.141998060784819\\
24	0.233629938978715\\
25	0.356741630134142\\
26	0.325827507790097\\
27	0.056482501189393\\
28	0.0637932394539731\\
29	0.0819928204471472\\
30	0.081690570593882\\
31	0.074453071806238\\
32	0.0704489803360065\\
33	0.0991829832837037\\
34	0.0902607734495763\\
35	0.0576053066844963\\
36	0.0509721769167149\\
37	0.101184608458586\\
38	0.0599723945120907\\
39	0.113020350074746\\
40	0.218448427347985\\
41	0.166954185991712\\
42	0.0977669545222419\\
43	0.0643333307913089\\
44	0.0386883185574964\\
45	0.0437870457320741\\
46	0.0478660460033881\\
47	0.0410092282524083\\
48	0.076298777910045\\
49	0.0698520698262689\\
50	0.0273659629361776\\
51	0.0500938645665356\\
52	0.0327261721703594\\
53	0.0112768090371595\\
54	0.01217703004121\\
55	0.0260100481063213\\
56	0.0168420241902228\\
57	0.0173106968519195\\
58	0.00776727899069275\\
59	0.00406439417196828\\
60	0.0113826325707859\\
61	0.00214190566466447\\
62	0.00622422242619532\\
63	0.0018758837633512\\
64	0.00703807845106958\\
65	0.00997427854780112\\
66	0.00522287504826547\\
67	0.00137937210672077\\
68	0.00262941927265559\\
69	0.00499585049091424\\
70	0.00208987169818909\\
71	0.00240267945316334\\
72	0.0042718307794055\\
73	0.00402495703845936\\
74	0.00325435525020648\\
75	0.00415284021099078\\
76	0.00131899449575716\\
77	0.00232952833446483\\
78	0.00355443809355144\\
79	0.00711788539806082\\
80	0.00504525311245543\\
81	0.00459348796352146\\
82	0.00284535587571813\\
83	0.000400468723803997\\
84	0.00286849367051069\\
85	0.00166463808711395\\
86	0.00122482357321934\\
87	0.00221150051599149\\
88	0.00359267653148257\\
89	0.000107270854680274\\
90	0.00216033918507253\\
91	0.00242750849328622\\
92	0.00117908466249876\\
93	0.00158840558637274\\
94	0.00154303148394115\\
95	0.00144707084850623\\
96	0.00105052867739027\\
97	0.0015379481164306\\
98	0.000978869575861403\\
99	0.00126648702224647\\
100	0.00114955078346388\\
101	0.00114980097170483\\
102	0.00107590500966317\\
103	0.00109881501766869\\
104	0.00111371275568361\\
105	0.000935336111688958\\
106	0.00118749467128738\\
107	0.00117257708906301\\
108	0.00070836204683694\\
109	0.0012785033991614\\
110	0.000960782442450085\\
111	0.000909220066003119\\
112	0.00109156288064087\\
113	0.0010268118468223\\
114	0.000867350433569672\\
115	0.000884957017458845\\
116	0.00141993163407992\\
117	0.000480965726852636\\
118	0.001217384998887\\
119	0.0011958954158345\\
120	0.000526468825794026\\
121	0.00106541293684487\\
122	0.00114303741539251\\
123	0.000648962868437034\\
124	0.000862608535540729\\
125	0.00127317133311761\\
126	0.000868911119589641\\
127	0.00101853398957862\\
128	0.00126375227949673\\
129	0.000568618092764812\\
130	0.000855589741974103\\
131	0.00115102162204221\\
132	0.000839934504292738\\
133	0.000458994395007429\\
134	0.00138557847880265\\
135	0.000779668578643346\\
136	0.00047229456937742\\
137	0.0013681157753408\\
138	0.000840986580954787\\
139	0.00081289626902375\\
140	0.00096570482914466\\
141	0.000880477575366853\\
142	0.000365653899316905\\
143	0.0011208303180016\\
144	0.000951396743551519\\
145	0.000333032786852036\\
146	0.00102841676094152\\
147	0.000764136881114314\\
148	0.000422066549862012\\
149	0.000786587932240269\\
};
\addlegendentry{$\mathbf{\hat{h}_{1}}$}

\addplot [color=mycolor2]
  table[row sep=crcr]{%
0	0.00317094567426229\\
1	0.00250250319358746\\
2	0.0109658425617988\\
3	0.00981689821327663\\
4	0.00916370365304309\\
5	0.0192233736394207\\
6	0.01162107046373\\
7	0.014789326214165\\
8	0.0187627295232193\\
9	0.0181276058708042\\
10	0.0204558974748959\\
11	0.0255113355770609\\
12	0.0282735295136964\\
13	0.0322292344125986\\
14	0.0441188613648133\\
15	0.0596623798982356\\
16	0.120880639397586\\
17	0.146732540530004\\
18	0.201865390092025\\
19	0.349547110147952\\
20	0.135782987399374\\
21	0.311764478244814\\
22	0.594125930147919\\
23	0.311456650768449\\
24	0.212311376952836\\
25	0.211216112044061\\
26	0.163182031485802\\
27	0.103261808899215\\
28	0.119270503251865\\
29	0.0858357670751208\\
30	0.108190588233826\\
31	0.0875489888629876\\
32	0.0869109479183788\\
33	0.152328544310082\\
34	0.10712324372682\\
35	0.0640213957951292\\
36	0.0878138668035378\\
37	0.0428592853173748\\
38	0.00899974524855703\\
39	0.00990605908856435\\
40	0.00982405373638196\\
41	0.00932595615807348\\
42	0.0061459285266254\\
43	0.011859040344892\\
44	0.00369125039706163\\
45	0.00873528924908519\\
46	0.0151051197003798\\
47	0.00397355736953909\\
48	0.0093951758354068\\
49	0.00869259958482673\\
50	0.00394093894749438\\
51	0.00710366436000805\\
52	0.00290187224647925\\
53	0.00376942252827315\\
54	0.00315212764075111\\
55	0.00116426951946334\\
56	0.00156131356017985\\
57	0.0038800834484616\\
58	0.00356136437668003\\
59	0.00369747019677605\\
60	0.00529059288856156\\
61	0.00727270910469113\\
62	0.00523310519254769\\
63	0.00111969872849688\\
64	0.00241636845246847\\
65	0.00145984730392867\\
66	0.00178589515120337\\
67	0.00157028960012168\\
68	0.00163533541627594\\
69	0.00183270530280581\\
70	0.00124629028820861\\
71	0.00105333720375579\\
72	0.00274918191726586\\
73	0.00263675748253374\\
74	0.00166087575577592\\
75	0.00170833797766342\\
76	0.00129692482060849\\
77	0.00038917519188852\\
78	0.000255190049981047\\
79	8.3507765396497e-05\\
80	0.000224550566845478\\
81	0.000337465848431498\\
82	0.000289684586616867\\
83	0.000225898018257975\\
84	0.000102252475040904\\
85	7.13295007686367e-05\\
86	0.000198075692453607\\
87	0.000229945193417803\\
88	0.000232485925647906\\
89	0.000233798272809739\\
90	0.000148513611937511\\
91	0.000107912379181646\\
92	6.35433294219229e-05\\
93	0.000142059895317871\\
94	0.000280945378834742\\
95	0.000263922316558129\\
96	8.61523047699477e-05\\
97	0.000197639747162221\\
98	0.000219960721884526\\
99	0.000200435397854716\\
100	0.000184963372125021\\
101	0.000165523077635961\\
102	5.78139545174079e-05\\
103	0.000143101050352376\\
104	0.000195086706496384\\
105	0.000180578991885369\\
106	0.000214047105293022\\
107	0.000149726821681992\\
108	8.81100799329514e-05\\
109	0.000254775358375784\\
110	0.000197004055267082\\
111	0.000136088355819334\\
112	0.000227815553712087\\
113	0.000267414963890802\\
114	0.000184857955658211\\
115	0.000202000566796947\\
116	0.000434606369940554\\
117	0.000468513965224788\\
118	0.000236799351094316\\
119	0.000215884101273159\\
120	0.000227485170576389\\
121	0.000186625371345584\\
122	0.000258404298672941\\
123	0.000366950217120938\\
124	0.000478951255287381\\
125	0.000444311055474238\\
126	0.000634317550178937\\
127	0.00051895775910137\\
128	0.000292968219184304\\
129	0.000303465312418612\\
130	0.000231010221743065\\
131	0.000249499690311527\\
132	0.000202209359539781\\
133	0.000202546584012118\\
134	0.000720755373523362\\
135	0.000801183868692509\\
136	0.000277351635660067\\
137	0.000474480200068437\\
138	0.000261322891286126\\
139	0.000326257373127302\\
140	0.000275058685954829\\
141	0.000248766346108873\\
142	0.00025962082131626\\
143	0.000210590161704667\\
144	0.000104436282325812\\
145	0.000378485036540093\\
146	0.00045524127240723\\
147	0.000206173749965988\\
148	0.000177970135685868\\
149	0.000202632830894368\\
};
\addlegendentry{$\mathbf{\hat{h}_{2}}$}

\end{axis}
\end{tikzpicture}%