% This file was created by matlab2tikz.
%
%The latest updates can be retrieved from
%  http://www.mathworks.com/matlabcentral/fileexchange/22022-matlab2tikz-matlab2tikz
%where you can also make suggestions and rate matlab2tikz.
%
\definecolor{mycolor1}{rgb}{0.00000,0.44700,0.74100}%
\definecolor{mycolor2}{rgb}{0.85000,0.32500,0.09800}%
%
\begin{tikzpicture}

\begin{axis}[%
width=1.935in,
height=3.2in,
at={(0.758in,0.512in)},
scale only axis,
xmin=0,
xmax=150,
xlabel style={font=\color{white!15!black}, align=center},
xlabel={Sample Index\\[1ex](a) Actual},
ymin=0,
ymax=0.7,
axis background/.style={fill=white},
legend style={legend cell align=left, align=left, draw=white!15!black}
]
\addplot [color=mycolor1]
  table[row sep=crcr]{%
1	0.0234657806037261\\
2	0.0272334504034075\\
3	0.0326864300765018\\
4	0.0414541482980318\\
5	0.0586677033458464\\
6	0.117843438362983\\
7	0.159969331461504\\
8	0.174397116945152\\
9	0.616552810702634\\
10	0.0882137642931462\\
11	0.0472681903124796\\
12	0.0327587509505929\\
13	0.0272256709659274\\
14	0.0412344622245766\\
15	0.0186762848129325\\
16	0.0451940046978057\\
17	0.0153724087875252\\
18	0.0239672675363248\\
19	0.0400285717874473\\
20	0.0828333966509162\\
21	0.557624977131952\\
22	0.149414784250917\\
23	0.109138078132702\\
24	0.0381681231028791\\
25	0.032799759178118\\
26	0.191519461959093\\
27	0.0734580287558902\\
28	0.0358315656953253\\
29	0.0179563195827385\\
30	0.0169149242156914\\
31	0.0179798517146348\\
32	0.0199431506445131\\
33	0.0279225394655299\\
34	0.0908594243819801\\
35	0.0439964246924232\\
36	0.330890477505262\\
37	0.037800506563543\\
38	0.020261933748638\\
39	0.0138181229977315\\
40	0.0211497159554441\\
41	0.0112042208144458\\
42	0.00964538908702694\\
43	0.00864780826327016\\
44	0.00787736374270682\\
45	0.00720180133294831\\
46	0.00651453200193765\\
47	0.00565492088107664\\
48	0.0112814316241706\\
49	0.0075966567083061\\
50	0.0102713040739602\\
51	0.00787142060243747\\
52	0.00711780022683946\\
53	0.00668443537322835\\
54	0.00638223966522588\\
55	0.00615487020840034\\
56	0.00598242225636516\\
57	0.00586293416152974\\
58	0.00581626175933958\\
59	0.00593494184987807\\
60	0.00707647204853056\\
61	0.00861312572402681\\
62	0.00240649054353041\\
63	0.0036902508247688\\
64	0.0040125763148678\\
65	0.00408542983582614\\
66	0.00408934467211144\\
67	0.00406760360864643\\
68	0.00403657730104579\\
69	0.00400486664899167\\
70	0.00397913876457006\\
71	0.00396763365360209\\
72	0.00398577860522856\\
73	0.00407460869510253\\
74	0.00440882178496405\\
75	0.00852319154542653\\
76	0.00211982859547221\\
77	0.00279674481878385\\
78	0.00295234209521732\\
79	0.00299967450324673\\
80	0.00300734384297471\\
81	0.00299658049652506\\
82	0.00297609501762909\\
83	0.00295010695632826\\
84	0.00292089738309008\\
85	0.00288979839106794\\
86	0.00285763293534116\\
87	0.00282493110979805\\
88	0.00279204510261472\\
89	0.00275921420187501\\
90	0.00272660345813555\\
91	0.00269432766245323\\
92	0.00266246675038502\\
93	0.00263107599882434\\
94	0.00260019295165966\\
95	0.00256984222925479\\
96	0.00254003893333548\\
97	0.0025107910982644\\
98	0.00248210148178531\\
99	0.00245396889001376\\
100	0.00242638916874131\\
101	0.00239935595223708\\
102	0.00237286123354156\\
103	0.00234689580183488\\
104	0.00232144957979209\\
105	0.00229651188498403\\
106	0.00227207163310714\\
107	0.0022481174963278\\
108	0.00222463802675857\\
109	0.00220162175268604\\
110	0.00217905725339276\\
111	0.0021569332170867\\
112	0.00213523848544673\\
113	0.00211396208753109\\
114	0.00209309326520902\\
115	0.00207262149182518\\
116	0.00205253648545491\\
117	0.00203282821783402\\
118	0.00201348691983224\\
119	0.00199450308416773\\
120	0.00197586746592614\\
121	0.00195757108133911\\
122	0.0019396052051902\\
123	0.0019219613671484\\
124	0.00190463134727109\\
125	0.00188760717087541\\
126	0.00187088110293773\\
127	0.00185444564215264\\
128	0.0018382935147574\\
129	0.00182241766820821\\
130	0.00180681126477794\\
131	0.00179146767513212\\
132	0.00177638047192757\\
133	0.00176154342347035\\
134	0.00174695048746156\\
135	0.0017325958048528\\
136	0.00171847369382931\\
137	0.00170457864393352\\
138	0.0016909053103386\\
139	0.00167744850827835\\
140	0.00166420320763913\\
141	0.00165116452771496\\
142	0.00163832773212761\\
143	0.00162568822391149\\
144	0.00161324154076111\\
145	0.0016009833504405\\
146	0.00158890944635072\\
147	0.00157701574325256\\
148	0.00156529827314105\\
149	0\\
150	0\\
};
\addlegendentry{$\mathbf{h_1}$}

\addplot [color=mycolor2]
  table[row sep=crcr]{%
1	0.019775303219206\\
2	0.0210217764534023\\
3	0.0224372323963497\\
4	0.024058742711813\\
5	0.0259351263737046\\
6	0.0281320174688059\\
7	0.0307398096072034\\
8	0.0338865833958781\\
9	0.0377600935275399\\
10	0.0426472101764649\\
11	0.0490094599986528\\
12	0.0576401827385178\\
13	0.0700288298559564\\
14	0.0893407156606893\\
15	0.123700774100431\\
16	0.202175033398071\\
17	0.564479813098353\\
18	0.690442426104836\\
19	0.212260509632627\\
20	0.126132345068284\\
21	0.100380135781766\\
22	0.0378663697499036\\
23	0.0333199748773482\\
24	0.0149453064107011\\
25	0.10083899339379\\
26	0.161002397050911\\
27	0.0405118251764787\\
28	0.0383644765554957\\
29	0.0341227495803863\\
30	0.0306469105251072\\
31	0.0278570926171954\\
32	0.0255709383506331\\
33	0.0236574529195357\\
34	0.0220274984760589\\
35	0.0206190941704396\\
36	0.0193877726649002\\
37	0.0183006807256663\\
38	0.0173329207549748\\
39	0.016465211935799\\
40	0.0156823459816501\\
41	0.0149721364414517\\
42	0.0143246843629073\\
43	0.0137318527665838\\
44	0.0131868826449622\\
45	0.0126841071808284\\
46	0.0122187355837443\\
47	0.0117866872087634\\
48	0.0113844626077037\\
49	0.0110090421200206\\
50	0.0106578052804057\\
51	0\\
52	0\\
53	0\\
54	0\\
55	0\\
56	0\\
57	0\\
58	0\\
59	0\\
60	0\\
61	0\\
62	0\\
63	0\\
64	0\\
65	0\\
66	0\\
67	0\\
68	0\\
69	0\\
70	0\\
71	0\\
72	0\\
73	0\\
74	0\\
75	0\\
76	0\\
77	0\\
78	0\\
79	0\\
80	0\\
81	0\\
82	0\\
83	0\\
84	0\\
85	0\\
86	0\\
87	0\\
88	0\\
89	0\\
90	0\\
91	0\\
92	0\\
93	0\\
94	0\\
95	0\\
96	0\\
97	0\\
98	0\\
99	0\\
100	0\\
101	0\\
102	0\\
103	0\\
104	0\\
105	0\\
106	0\\
107	0\\
108	0\\
109	0\\
110	0\\
111	0\\
112	0\\
113	0\\
114	0\\
115	0\\
116	0\\
117	0\\
118	0\\
119	0\\
120	0\\
121	0\\
122	0\\
123	0\\
124	0\\
125	0\\
126	0\\
127	0\\
128	0\\
129	0\\
130	0\\
131	0\\
132	0\\
133	0\\
134	0\\
135	0\\
136	0\\
137	0\\
138	0\\
139	0\\
140	0\\
141	0\\
142	0\\
143	0\\
144	0\\
145	0\\
146	0\\
147	0\\
148	0\\
149	0\\
150	0\\
};
\addlegendentry{$\mathbf{h_{2}}$}

\end{axis}

\begin{axis}[%
width=1.935in,
height=3.2in,
at={(3.327in,0.512in)},
scale only axis,
xmin=0,
xmax=150,
xlabel style={font=\color{white!15!black}, align=center},
xlabel={Sample Index\\[1ex](b) Estimated},
ymin=0,
ymax=0.7,
axis background/.style={fill=white},
legend style={legend cell align=left, align=left, draw=white!15!black}
]
\addplot [color=mycolor1]
  table[row sep=crcr]{%
0	0.0115605279911671\\
1	0.027290467137883\\
2	0.0194898083526545\\
3	0.024173020176453\\
4	0.0569309365919153\\
5	0.0225057857886645\\
6	0.0190917944579207\\
7	0.0186661840659987\\
8	0.09600858727499\\
9	0.0781038221170257\\
10	0.046850406816937\\
11	0.0434222361518981\\
12	0.0100697420045569\\
13	0.0555654458182384\\
14	0.0462387583053602\\
15	0.0791084963030826\\
16	0.0390751920975282\\
17	0.0869834444980313\\
18	0.0819111962974173\\
19	0.0869183978786245\\
20	0.0734742617746703\\
21	0.0995668767837849\\
22	0.0311942512159678\\
23	0.0331846667368867\\
24	0.0695658454935216\\
25	0.068480720812268\\
26	0.0520648211324393\\
27	0.0760885609977865\\
28	0.0046555777500253\\
29	0.0590534927570064\\
30	0.154261769040406\\
31	0.0406391843533009\\
32	0.0263610274951786\\
33	0.0358209411142006\\
34	0.0629832109753948\\
35	0.0499234885661935\\
36	0.031906363273685\\
37	0.0675898016785616\\
38	0.000477672691241117\\
39	0.0642345636818762\\
40	0.0174438125677983\\
41	0.0570712398027745\\
42	0.0235346462888907\\
43	0.0559841139690579\\
44	0.09268789550465\\
45	0.0086165187538426\\
46	0.0257473512994874\\
47	0.0680374767763681\\
48	0.0522542388765089\\
49	0.0668994994915043\\
50	0.0115321464327307\\
51	0.0635883272753813\\
52	0.123304988833827\\
53	0.0968989220541533\\
54	0.106017433848403\\
55	0.0933362788443813\\
56	0.106277283684043\\
57	0.0650208631919939\\
58	0.0906183616758288\\
59	0.0317376421355948\\
60	0.0930755790323254\\
61	0.0706394508898653\\
62	0.0389018304625664\\
63	0.0166877182768693\\
64	0.0616264165839331\\
65	0.0563804843766176\\
66	0.0944944162654779\\
67	0.0829354242263609\\
68	0.181180164709683\\
69	0.0665854948699803\\
70	0.0242791244298509\\
71	0.023965999767325\\
72	0.0827944247939168\\
73	0.0395189329295523\\
74	0.00939163028355496\\
75	0.026638908535395\\
76	0.0759638247445752\\
77	0.0549768548486577\\
78	0.0617233549707353\\
79	0.0508294832612768\\
80	0.0927540187174878\\
81	0.131558856504724\\
82	0.0944511868858189\\
83	0.0643182091857203\\
84	0.346252523191433\\
85	0.269600465368812\\
86	0.097425262014799\\
87	0.119557618489853\\
88	0.0572135228557463\\
89	0.0720612001624097\\
90	0.0371478599840266\\
91	0.0278971759130957\\
92	0.0965688384178034\\
93	0.121192078155611\\
94	0.148176612442782\\
95	0.151087363643022\\
96	0.135667223259572\\
97	0.280415238054042\\
98	0.082030886575159\\
99	0.0557965053730498\\
100	0.0153147151457324\\
101	0.0560826810917031\\
102	0.124838887321922\\
103	0.0646014614222805\\
104	0.0782003645761599\\
105	0.093433379250052\\
106	0.0113855333451206\\
107	0.00675379182853362\\
108	0.0721986955681391\\
109	0.0407546427892599\\
110	0.0318375299831664\\
111	0.17024011287897\\
112	0.123493679580958\\
113	0.109921997673068\\
114	0.016177452391367\\
115	0.00991910098026033\\
116	0.115050309104062\\
117	0.0329350662576396\\
118	0.0855579788450297\\
119	0.0724408088215571\\
120	0.0706858736519971\\
121	0.117607362598221\\
122	0.0423384016704783\\
123	0.10288769560503\\
124	0.0941708889805769\\
125	0.0492437238565328\\
126	0.115226860551988\\
127	0.0402356280901437\\
128	0.0186500090396609\\
129	0.0297464426242362\\
130	0.023765118827807\\
131	0.0486686432747066\\
132	0.0544292437489858\\
133	0.048878439250332\\
134	0.0381996772191155\\
135	0.0128936920109547\\
136	0.00885266327495959\\
137	0.0340544163146161\\
138	0.0636621893110478\\
139	0.0299634438894417\\
140	0.0466503839349866\\
141	0.0190381483661031\\
142	0.0161014685626331\\
143	0.0234788696803541\\
144	0.0277596820839494\\
145	0.0254796577300657\\
146	0.0290730122836072\\
147	0.0213992900003596\\
148	0.0416472377195852\\
149	0.0113288233642782\\
};
\addlegendentry{$\mathbf{\hat{h}_{1}}$}

\addplot [color=mycolor2]
  table[row sep=crcr]{%
0	0.00164829821408552\\
1	0.00452079857448321\\
2	0.00367293449365563\\
3	0.00505090466630169\\
4	0.0107835534479931\\
5	0.0130219772646443\\
6	0.0117009530587817\\
7	0.00517011235814875\\
8	0.019271457904523\\
9	0.0146865077630544\\
10	0.0278532598236917\\
11	0.0337343388620678\\
12	0.0585684668218387\\
13	0.0335498422803742\\
14	0.0492368394544819\\
15	0.0322054285333625\\
16	0.049548769270339\\
17	0.115217164354729\\
18	0.0540951321481942\\
19	0.0347800703414044\\
20	0.0545559454321672\\
21	0.0362081353013588\\
22	0.0858650276522455\\
23	0.0753927171817234\\
24	0.031795852636743\\
25	0.0820618454731231\\
26	0.134611038698523\\
27	0.0224226044180125\\
28	0.0551303054900868\\
29	0.0593488829966148\\
30	0.0558383127810557\\
31	0.00824308811771422\\
32	0.0298898146951301\\
33	0.133749242199538\\
34	0.0451770891070462\\
35	0.0404509549982828\\
36	0.121979328763242\\
37	0.0724111822090823\\
38	0.0779843111601077\\
39	0.103031488940761\\
40	0.0246739533291317\\
41	0.0819805872432852\\
42	0.128872471128797\\
43	0.0139705471677423\\
44	0.00817354621714709\\
45	0.0579517069019771\\
46	0.0770942966858185\\
47	0.0172843026559022\\
48	0.102910848851841\\
49	0.101101068850047\\
50	0.0885731235038095\\
51	0.0950361540936939\\
52	0.040837952761461\\
53	0.0936816484906606\\
54	0.0542210044109896\\
55	0.0741475654936343\\
56	0.0764214352851752\\
57	0.0585011877132993\\
58	0.117371338779068\\
59	0.0286587474825536\\
60	0.0182309586841675\\
61	0.0762796519767278\\
62	0.0487692523002347\\
63	0.0316462745018597\\
64	0.0564158398097483\\
65	0.063894941819125\\
66	0.0768572773340155\\
67	0.0747824910308087\\
68	0.0604206719254447\\
69	0.0935842411980452\\
70	0.0338792290084213\\
71	0.018114968769399\\
72	0.0760579321297121\\
73	0.116231872093356\\
74	0.0244896452713438\\
75	0.0506745422624559\\
76	0.0932922343887326\\
77	0.0630913852284168\\
78	0.0927998644117648\\
79	0.034952373838687\\
80	0.0282894120245516\\
81	0.0286346472321896\\
82	0.0606943064767936\\
83	0.0429841800278015\\
84	0.0699599551386092\\
85	0.00980623476647272\\
86	0.0257683025488573\\
87	0.0397326671443955\\
88	0.0534027741213524\\
89	0.13000835031371\\
90	0.126569134956341\\
91	0.0535456544264357\\
92	0.0655628407047359\\
93	0.63449304518531\\
94	0.0950068564678038\\
95	0.0417748699300016\\
96	0.11805523752154\\
97	0.119570782299564\\
98	0.0461186656286328\\
99	0.0474120855269947\\
100	0.0104409367387287\\
101	0.0498715102274937\\
102	0.030871433094703\\
103	0.053654860529663\\
104	0.0532573281907028\\
105	0.135685592464092\\
106	0.105203413675344\\
107	0.05055484228995\\
108	0.147477911061097\\
109	0.0444910831294278\\
110	0.0683613670600681\\
111	0.0446269953470453\\
112	0.0458583019813443\\
113	0.0594583409538832\\
114	0.0211034020697132\\
115	0.0279356761211349\\
116	0.0184232967150977\\
117	0.0651879181459494\\
118	0.0437556740085249\\
119	0.100302669138704\\
120	0.111757190691034\\
121	0.0343111453722498\\
122	0.121027940945416\\
123	0.0435673122702334\\
124	0.0160930856263605\\
125	0.0771478200465368\\
126	0.0162109026128387\\
127	0.0885722862673697\\
128	0.0608962220192807\\
129	0.0471597938406305\\
130	0.0578013168989572\\
131	0.0377392002309328\\
132	0.0112676035480926\\
133	0.0145988701942878\\
134	0.00767583698460826\\
135	0.0141387510352636\\
136	0.0129341668748041\\
137	0.0130685454075448\\
138	0.0147983916658779\\
139	0.00381504734141773\\
140	0.00411745900058824\\
141	0.00457466076459266\\
142	0.00582934983570894\\
143	0.00242239931640251\\
144	0.000341633579971277\\
145	0.00374216417484824\\
146	0.00410919343741457\\
147	0.00596081936091176\\
148	0.00311551394700899\\
149	0.00369835743491896\\
};
\addlegendentry{$\mathbf{\hat{h}_{2}}$}

\end{axis}
\end{tikzpicture}%