% This file was created by matlab2tikz.
%
%The latest updates can be retrieved from
%  http://www.mathworks.com/matlabcentral/fileexchange/22022-matlab2tikz-matlab2tikz
%where you can also make suggestions and rate matlab2tikz.
%
\definecolor{mycolor1}{rgb}{0.00000,0.44700,0.74100}%
\definecolor{mycolor2}{rgb}{0.85000,0.32500,0.09800}%
%
\begin{tikzpicture}

\begin{axis}[%
width=1.935in,
height=3.2in,
at={(0.758in,0.512in)},
scale only axis,
xmin=0,
xmax=200,
xlabel style={font=\color{white!15!black}, align=center},
xlabel={Sample Index\\[1ex](a) Actual},
ymin=0,
ymax=1,
axis background/.style={fill=white},
legend style={legend cell align=left, align=left, draw=white!15!black}
]
\addplot [color=mycolor1]
  table[row sep=crcr]{%
1	0.0167418731260698\\
2	0.018659722218203\\
3	0.0211495716349754\\
4	0.0245407494314006\\
5	0.029505643974117\\
6	0.0377161636169434\\
7	0.0550750576238134\\
8	0.131028403455825\\
9	0.141533477104454\\
10	0.158175166246243\\
11	0.163761757297189\\
12	0.600100605556833\\
13	0.118033417583129\\
14	0.0610914209628117\\
15	0.0426162246246858\\
16	0.0332715711707656\\
17	0.0321939439283243\\
18	0.0268871008873183\\
19	0.0316920608120786\\
20	0.0286771919664519\\
21	0.00773119825769845\\
22	0.0330073087209196\\
23	0.019415059292473\\
24	0.0177688778425817\\
25	0.0188194600762088\\
26	0.0237714798713867\\
27	0.0430806655948836\\
28	0.586023006720236\\
29	0.0970905103802927\\
30	0.0246981078960262\\
31	0.0780346253424249\\
32	0.0580455436901626\\
33	0.0681836526256362\\
34	0.163824852865525\\
35	0.0446106828365612\\
36	0.06119675966513\\
37	0.00907835157153909\\
38	0.0310093774848825\\
39	0.00125972832884384\\
40	0.005422098150711\\
41	0.0107374596162295\\
42	0.0165479326643041\\
43	0.024789327411243\\
44	0.0446277431282512\\
45	0.058019450740893\\
46	0.074843365423057\\
47	0.199666615467323\\
48	0.216838516027539\\
49	0.0783890355452335\\
50	0.0495529240878659\\
51	0.0370791446049236\\
52	0.0307530810094058\\
53	0.0155757068681131\\
54	0.0198807977432187\\
55	0.0179871495341263\\
56	0.0162887905400521\\
57	0.0148728268904216\\
58	0.0136909847461918\\
59	0.0126943671543235\\
60	0.011846112844806\\
61	0.0111233301448608\\
62	0.0105291449791113\\
63	0.0102108676347222\\
64	0.00751288118280402\\
65	0.00739035992869396\\
66	0.0116365722557393\\
67	0.00899390796280924\\
68	0.00831157148096884\\
69	0.00788086875151191\\
70	0.00754217236777393\\
71	0.00725475830161164\\
72	0.00700327644843893\\
73	0.006780818536885\\
74	0.00658453626015097\\
75	0.00641472878078445\\
76	0.00627599401250467\\
77	0.00618216997550965\\
78	0.00617516728867787\\
79	0.00642745729543014\\
80	0.00873051939586948\\
81	0.00471465923588381\\
82	0.00195996010568866\\
83	0.004980313957114\\
84	0.00475839614864904\\
85	0.00464733241660508\\
86	0.00455444244400457\\
87	0.00446749239384432\\
88	0.00438406292262191\\
89	0.00430366820355207\\
90	0.00422628355118023\\
91	0.00415201532524293\\
92	0.00408104289588831\\
93	0.00401365198230764\\
94	0.00395033763548775\\
95	0.00389203620501121\\
96	0.00384070443755282\\
97	0.00380107128140597\\
98	0.00378779867734327\\
99	0.00387836096292209\\
100	0.00228454900881806\\
101	0.00321909463290553\\
102	0.00328982387499096\\
103	0.00328100374444436\\
104	0.00325253146337885\\
105	0.00321692683031362\\
106	0.00317840637543852\\
107	0.00313876414674543\\
108	0.00309887602618152\\
109	0.00305920797263281\\
110	0.00302002111537278\\
111	0.00298146552488656\\
112	0.00294362726599965\\
113	0.0029065537719176\\
114	0.00287026833389302\\
115	0.00283477876811283\\
116	0.00280008280049957\\
117	0.00276617151884636\\
118	0.00273303164395387\\
119	0.00270064705586787\\
120	0.00266899983729428\\
121	0.00263807099659409\\
122	0.00260784097374635\\
123	0.00257828999668392\\
124	0.00254939833288439\\
125	0.00252114646667125\\
126	0.00249351522323938\\
127	0.00246648585412356\\
128	0.00244004009455901\\
129	0.00241416020024051\\
130	0.00238882896892876\\
131	0.0023640297508985\\
132	0.00233974645117835\\
133	0.00231596352577768\\
134	0.00229266597354371\\
135	0.00226983932488367\\
136	0.00224746962828519\\
137	0.00222554343533969\\
138	0.00220404778480324\\
139	0.00218297018609978\\
140	0.00216229860257188\\
141	0.00214202143470905\\
142	0.00212212750352594\\
143	0.00210260603421662\\
144	0.00208344664017788\\
145	0.00206463930746792\\
146	0.00204617437974413\\
147	0.00202804254371082\\
148	0.00201023481509265\\
149	0.00199274252514179\\
150	0.00197555730767936\\
151	0.0019586710866655\\
152	0.00194207606428942\\
153	0.00192576470956709\\
154	0.00190972974743187\\
155	0.00189396414830307\\
156	0.00187846111811499\\
157	0.00186321408878906\\
158	0.00184821670913216\\
159	0.00183346283614256\\
160	0.00181894652670628\\
161	0.00180466202966742\\
162	0.00179060377825436\\
163	0.00177676638284649\\
164	0.00176314462406556\\
165	0.00174973344617591\\
166	0.0017365279507797\\
167	0.00172352339079259\\
168	0.00171071516468654\\
169	0.00169809881098722\\
170	0.00168567000301325\\
171	0.00167342454384613\\
172	0.00166135836151948\\
173	0.00164946750441694\\
174	0.00163774813686889\\
175	0.00162619653493841\\
176	0.00161480908238697\\
177	0.00160358226681213\\
178	0.001592512675948\\
179	0.00158159699412143\\
180	0.00157083199885632\\
181	0.00156021455761888\\
182	0.00154974162469766\\
183	0.00153941023821136\\
184	0.00152921751723897\\
185	0.00151916065906659\\
186	0.00150923693654504\\
187	0.00149944369555362\\
188	0.00148977835256491\\
189	0.00148023839230615\\
190	0.0014708213655126\\
191	0.00146152488676917\\
192	0.00145234663243548\\
193	0.00144328433865201\\
194	0.00143433579942216\\
195	0.0014254988647679\\
196	0.00141677143895562\\
197	0.00140815147878894\\
198	0.00139963699196521\\
199	0\\
200	0\\
};
\addlegendentry{$\mathbf{h_1}$}

\addplot [color=mycolor2]
  table[row sep=crcr]{%
1	0.00495033386861547\\
2	0.00515738368500011\\
3	0.00538309861623286\\
4	0.00563019833310769\\
5	0.00590197136255583\\
6	0.00620243506959928\\
7	0.00653655369620811\\
8	0.00691054090538825\\
9	0.00733228812251618\\
10	0.00781198494389501\\
11	0.00836304134465097\\
12	0.0090034999823859\\
13	0.00975827527656913\\
14	0.0106628508662167\\
15	0.0117696896019869\\
16	0.0131600228416925\\
17	0.0149671880151623\\
18	0.0174273921400842\\
19	0.0210049332363351\\
20	0.0267613442180004\\
21	0.037792597580649\\
22	0.068721841139076\\
23	0.97572931769219\\
24	0.0649085399616321\\
25	0.0262918397391367\\
26	0.0126468169615953\\
27	0.00419508123086451\\
28	0.0214241856295046\\
29	0.0134643328328179\\
30	0.00412679327935559\\
31	0.0112712342656943\\
32	0.0282552508318709\\
33	0.111702725947746\\
34	0.12653020104749\\
35	0.0361926668223949\\
36	0.024130019396178\\
37	0.019518168382204\\
38	0.0163235660243771\\
39	0.0140849625225472\\
40	0.0124312948441269\\
41	0.0111552918846637\\
42	0.0101369616841952\\
43	0.00930266674553233\\
44	0.00860476970863487\\
45	0.00801105372801389\\
46	0.00749890841387189\\
47	0.00705196472677567\\
48	0.00665805661850076\\
49	0.0063079366485928\\
50	0.00599443852440938\\
51	0.00571191453485358\\
52	0.00545584764793091\\
53	0.0052225778141873\\
54	0.00500910486747672\\
55	0.00481294397681212\\
56	0.00463201789166602\\
57	0.00446457542356871\\
58	0.00430912894812168\\
59	0.00416440590497024\\
60	0.00402931074167137\\
61	0.00390289474814389\\
62	0.00378433192171684\\
63	0.00367289949042518\\
64	0.0035679620699816\\
65	0.00346895868109233\\
66	0.00337539203747226\\
67	0.00328681965070268\\
68	0.00320284639950925\\
69	0\\
70	0\\
71	0\\
72	0\\
73	0\\
74	0\\
75	0\\
76	0\\
77	0\\
78	0\\
79	0\\
80	0\\
81	0\\
82	0\\
83	0\\
84	0\\
85	0\\
86	0\\
87	0\\
88	0\\
89	0\\
90	0\\
91	0\\
92	0\\
93	0\\
94	0\\
95	0\\
96	0\\
97	0\\
98	0\\
99	0\\
100	0\\
101	0\\
102	0\\
103	0\\
104	0\\
105	0\\
106	0\\
107	0\\
108	0\\
109	0\\
110	0\\
111	0\\
112	0\\
113	0\\
114	0\\
115	0\\
116	0\\
117	0\\
118	0\\
119	0\\
120	0\\
121	0\\
122	0\\
123	0\\
124	0\\
125	0\\
126	0\\
127	0\\
128	0\\
129	0\\
130	0\\
131	0\\
132	0\\
133	0\\
134	0\\
135	0\\
136	0\\
137	0\\
138	0\\
139	0\\
140	0\\
141	0\\
142	0\\
143	0\\
144	0\\
145	0\\
146	0\\
147	0\\
148	0\\
149	0\\
150	0\\
151	0\\
152	0\\
153	0\\
154	0\\
155	0\\
156	0\\
157	0\\
158	0\\
159	0\\
160	0\\
161	0\\
162	0\\
163	0\\
164	0\\
165	0\\
166	0\\
167	0\\
168	0\\
169	0\\
170	0\\
171	0\\
172	0\\
173	0\\
174	0\\
175	0\\
176	0\\
177	0\\
178	0\\
179	0\\
180	0\\
181	0\\
182	0\\
183	0\\
184	0\\
185	0\\
186	0\\
187	0\\
188	0\\
189	0\\
190	0\\
191	0\\
192	0\\
193	0\\
194	0\\
195	0\\
196	0\\
197	0\\
198	0\\
199	0\\
200	0\\
};
\addlegendentry{$\mathbf{h_{2}}$}

\end{axis}

\begin{axis}[%
width=1.935in,
height=3.2in,
at={(3.327in,0.512in)},
scale only axis,
xmin=0,
xmax=200,
xlabel style={font=\color{white!15!black}, align=center},
xlabel={Sample Index\\[1ex](b) Estimated},
ymin=0,
ymax=0.25,
axis background/.style={fill=white},
legend style={legend cell align=left, align=left, draw=white!15!black}
]
\addplot [color=mycolor1]
  table[row sep=crcr]{%
0	0.00199671026200293\\
1	0.0133300140487039\\
2	0.0162638093218502\\
3	0.0197300671889516\\
4	0.0200438564881265\\
5	0.027321035552742\\
6	0.0169949518774133\\
7	0.0495199280777022\\
8	0.0339749814453916\\
9	0.0761062103163339\\
10	0.108801744384685\\
11	0.114010766172287\\
12	0.0216782303278792\\
13	0.0888266751526224\\
14	0.0596324117478767\\
15	0.090403060625042\\
16	0.101473194216914\\
17	0.0474182113309418\\
18	0.00891807957466876\\
19	0.037255676509584\\
20	0.143532874836499\\
21	0.117596899702387\\
22	0.0913280570501447\\
23	0.0477582286244626\\
24	0.124431218123791\\
25	0.120234072420913\\
26	0.182625617383475\\
27	0.11287626652138\\
28	0.126880552767388\\
29	0.100953906824228\\
30	0.0091798387305942\\
31	0.0357872423477921\\
32	0.0834436484289619\\
33	0.0396302526022536\\
34	0.0379302264833842\\
35	0.104730753592747\\
36	0.110807043183199\\
37	0.100295400041814\\
38	0.156051267139547\\
39	0.10341765980964\\
40	0.0967115446390534\\
41	0.0186172033976657\\
42	0.0710124947910555\\
43	0.0589113103201191\\
44	0.0742517633648498\\
45	0.133056887502098\\
46	0.0681060120793717\\
47	0.153912352707254\\
48	0.0832807333229996\\
49	0.0336280761429293\\
50	0.13799322051063\\
51	0.182897614331348\\
52	0.17013985185115\\
53	0.121707869418578\\
54	0.0890598666971566\\
55	0.00640243361342359\\
56	0.0556119329903702\\
57	0.0864505525799114\\
58	0.19965421599845\\
59	0.0763328197797001\\
60	0.0705763784380667\\
61	0.135127258212485\\
62	0.0442248761868097\\
63	0.0586104132813072\\
64	0.0255687467523481\\
65	0.0638974375442753\\
66	0.0775923104206832\\
67	0.0227847655691159\\
68	0.0799166287094315\\
69	0.0190868418411038\\
70	0.0636139699049858\\
71	0.0742838664394929\\
72	0.0760240691241935\\
73	0.0953844488404805\\
74	0.153564143449893\\
75	0.0358482035980625\\
76	0.0418410705381851\\
77	0.0762007923924585\\
78	0.0368932013993011\\
79	0.0253461639012242\\
80	0.0384273989050589\\
81	0.0555515761904265\\
82	0.00608636838921328\\
83	0.0253483344152428\\
84	0.0564640709452987\\
85	0.0637558569486323\\
86	0.0161933269098355\\
87	0.0528495794552948\\
88	0.0392334390211144\\
89	0.0446056002624313\\
90	0.060162311178218\\
91	0.0503752614390956\\
92	0.0476200426867054\\
93	0.0761997302878218\\
94	0.120142007740718\\
95	0.0833901623365995\\
96	0.0964701131059616\\
97	0.0199118906242154\\
98	0.078172879161753\\
99	0.113589056916421\\
100	0.118086335420112\\
101	0.0438419214067656\\
102	0.12188194805387\\
103	0.021848742393469\\
104	0.0348641833112682\\
105	0.0511441385201503\\
106	0.107343831403642\\
107	0.133137659258204\\
108	0.0419613609835047\\
109	0.0285941804577292\\
110	0.0272336653547459\\
111	0.050341669151368\\
112	0.0404949329823741\\
113	0.0177500972002497\\
114	0.0533242103660328\\
115	0.0989676159160694\\
116	0.0108213939014819\\
117	0.0557887583966513\\
118	0.0455631591512695\\
119	0.0682612018812733\\
120	0.0150002230231786\\
121	0.0490152943685583\\
122	0.142302098683879\\
123	0.0810193125637939\\
124	0.0601825440249489\\
125	0.120020908722333\\
126	0.0677843512096726\\
127	0.00180549255890297\\
128	0.0594704317755142\\
129	0.013760380269964\\
130	0.0334614774203457\\
131	0.0762308487945453\\
132	0.0620256187327003\\
133	0.0493026002463588\\
134	0.0892486637549145\\
135	0.119895688502664\\
136	0.0843851546031865\\
137	0.0327177648940291\\
138	0.057137340557098\\
139	0.0256754486795791\\
140	0.108566615980261\\
141	0.0176926404878854\\
142	0.0292145744466236\\
143	0.0134657118219681\\
144	0.0219989691217458\\
145	0.0603209374199733\\
146	0.0453704403081438\\
147	0.0839936068155726\\
148	0.0404364101276018\\
149	0.0106373949189319\\
150	0.0601655241625219\\
151	0.0120840079865184\\
152	0.0428068287450979\\
153	0.0277932311474111\\
154	0.0601659487516152\\
155	0.0738836844223657\\
156	0.0865548087782682\\
157	0.036774829706067\\
158	0.0331776743538236\\
159	0.012047016280007\\
160	0.0545188970869274\\
161	0.0334509332365378\\
162	0.0271495181064659\\
163	0.0390941371870898\\
164	0.0370921325054543\\
165	0.0570929145336929\\
166	0.0553384897284406\\
167	0.0328626861022006\\
168	0.0255145097477348\\
169	0.0365388633057499\\
170	0.0351264958801695\\
171	0.0174398337695071\\
172	0.00748175774384636\\
173	0.0123641955940564\\
174	0.00967088130557197\\
175	0.0194703269864018\\
176	0.0232966446607168\\
177	0.0304692536580234\\
178	0.0240931434444335\\
179	0.0177607366622517\\
180	0.0113348509005935\\
181	0.0165832541447982\\
182	0.0168526711669217\\
183	0.0122141099540296\\
184	0.0161167510209164\\
185	0.0129651600670006\\
186	0.0114538968084358\\
187	0.0110876614605743\\
188	0.00632348878896001\\
189	0.00176430670297802\\
};
\addlegendentry{$\mathbf{\hat{h}_{1}}$}

\addplot [color=mycolor2]
  table[row sep=crcr]{%
0	0.0010385636703962\\
1	0.00188900637904696\\
2	0.0029784227168759\\
3	0.00324255442094991\\
4	0.00294477351857971\\
5	0.00365533620932418\\
6	0.00136496442326106\\
7	0.0024378858192169\\
8	0.00567263878518778\\
9	0.00871074956009925\\
10	0.00710641856265706\\
11	0.0082965749197768\\
12	0.0119425807944338\\
13	0.0133340085661508\\
14	0.0241049837730325\\
15	0.0438325842336528\\
16	0.0533010317423257\\
17	0.026383775217765\\
18	0.0501514727130749\\
19	0.109995099069542\\
20	0.145485129516137\\
21	0.17508052934494\\
22	0.0766092297625073\\
23	0.0399976945889287\\
24	0.101797960676143\\
25	0.0641869362895499\\
26	0.165401755397793\\
27	0.170763557929501\\
28	0.0272442266218879\\
29	0.0336880410060528\\
30	0.0496269082060899\\
31	0.128244300615508\\
32	0.111215440321268\\
33	0.165486857358779\\
34	0.106606357593345\\
35	0.0785893952999557\\
36	0.0810005960271227\\
37	0.0412640411739277\\
38	0.152370606306576\\
39	0.22068275206103\\
40	0.165403853952995\\
41	0.0776536203236224\\
42	0.116992861278296\\
43	0.075219043337105\\
44	0.0603999694671484\\
45	0.00750317744625784\\
46	0.0802733136970451\\
47	0.0590576755090156\\
48	0.0477514412042745\\
49	0.0967503206364635\\
50	0.115641489620354\\
51	0.0170796090823213\\
52	0.0957350098015361\\
53	0.102247389859181\\
54	0.117358833614924\\
55	0.0811230463429873\\
56	0.109045563855222\\
57	0.0954073145720579\\
58	0.127395480125401\\
59	0.0499732939990489\\
60	0.052396092329515\\
61	0.121471576228611\\
62	0.101125438310815\\
63	0.191995551736435\\
64	0.0551442780984149\\
65	0.0736044205536763\\
66	0.0994563800134724\\
67	0.036268556502455\\
68	0.0725682764964083\\
69	0.107025009714924\\
70	0.0753178128735517\\
71	0.0318145041525076\\
72	0.0875009729746807\\
73	0.0737273911453279\\
74	0.01923374429578\\
75	0.0978467188489806\\
76	0.0381167595827657\\
77	0.103791071699452\\
78	0.0275425534422715\\
79	0.0346262283753031\\
80	0.0394771268864518\\
81	0.0337717266374476\\
82	0.0554314990455348\\
83	0.0986387417136888\\
84	0.0317952544876909\\
85	0.0613662903304585\\
86	0.0570711494688684\\
87	0.0402772538263233\\
88	0.0809076742405554\\
89	0.0695182339598825\\
90	0.0401660930893628\\
91	0.0409985213629638\\
92	0.0246092124628568\\
93	0.0118954617501645\\
94	0.0493809326474877\\
95	0.121743069478778\\
96	0.126485604766784\\
97	0.021715607079865\\
98	0.0378092299373466\\
99	0.0370702423068246\\
100	0.0118890049462572\\
101	0.0511550516655325\\
102	0.0748759508211577\\
103	0.0486156937495473\\
104	0.086771619888815\\
105	0.0967096514965823\\
106	0.0467406149702266\\
107	0.014501196058511\\
108	0.0236631574927737\\
109	0.0291771203454832\\
110	0.140519118709797\\
111	0.0437494027576298\\
112	0.100040357334246\\
113	0.0842646033067368\\
114	0.0605165602483589\\
115	0.0368815938798649\\
116	0.0470544216970433\\
117	0.134902690886301\\
118	0.129442545034258\\
119	0.00743015433465415\\
120	0.0345361116625396\\
121	0.0779152006387269\\
122	0.0687370772421131\\
123	0.054437828130409\\
124	0.0151545072862204\\
125	0.0650154941947038\\
126	0.0210271488859082\\
127	0.0551926613078523\\
128	0.0687760487646173\\
129	0.137087703804745\\
130	0.0798109057856625\\
131	0.045595840669781\\
132	0.0994911685108149\\
133	0.0897860475504137\\
134	0.0315587975081028\\
135	0.135826533339664\\
136	0.116889091313701\\
137	0.0213206156662097\\
138	0.0615462024541053\\
139	0.00906921425658614\\
140	0.0237433508872201\\
141	0.0568896744231572\\
142	0.126254045042279\\
143	0.0848461179713172\\
144	0.0587310468982262\\
145	0.0134694585367286\\
146	0.0268990511247875\\
147	0.0428279459818911\\
148	0.0552758925399545\\
149	0.0657136965541933\\
150	0.0749178987441314\\
151	0.068824937410083\\
152	0.0491446061227703\\
153	0.0213392787604187\\
154	0.0241646636374997\\
155	0.022422591598745\\
156	0.00565004057054281\\
157	0.0504235826754084\\
158	0.0518674282512922\\
159	0.0614374466467928\\
160	0.0540535198174176\\
161	0.0592561929918988\\
162	0.0163617422960875\\
163	0.0198914012834709\\
164	0.0295518055644443\\
165	0.0238522251833005\\
166	0.0175485117315253\\
167	0.00998372050283988\\
168	0.0218769413298933\\
169	0.0204122594322605\\
170	0.0141178170449387\\
171	0.00812756502144191\\
172	0.0011503430288233\\
173	0.00562607689638851\\
174	0.0064178502553379\\
175	0.00465263381594625\\
176	0.00136628392760707\\
177	0.000731749138029796\\
178	0.00167440418224558\\
179	0.00438126266236352\\
180	0.00336956002483813\\
181	0.0035856446802462\\
182	0.00233601849108606\\
183	0.0012512662358275\\
184	0.0029906115470324\\
185	0.00253329105972654\\
186	0.00239799527918765\\
187	0.00303510294633949\\
188	0.00179575231136387\\
189	0.000761447786963292\\
};
\addlegendentry{$\mathbf{\hat{h}_{2}}$}

\end{axis}
\end{tikzpicture}%