% This file was created by matlab2tikz.
%
%The latest updates can be retrieved from
%  http://www.mathworks.com/matlabcentral/fileexchange/22022-matlab2tikz-matlab2tikz
%where you can also make suggestions and rate matlab2tikz.
%
\definecolor{mycolor1}{rgb}{0.00000,0.44700,0.74100}%
\definecolor{mycolor2}{rgb}{0.85000,0.32500,0.09800}%
%
\begin{tikzpicture}

\begin{axis}[%
width=1.935in,
height=3.2in,
at={(0.758in,0.512in)},
scale only axis,
xmin=0,
xmax=200,
xlabel style={font=\color{white!15!black}, align=center},
xlabel={Sample Index\\[1ex](a) Actual},
ymin=0,
ymax=1,
axis background/.style={fill=white},
legend style={legend cell align=left, align=left, draw=white!15!black}
]
\addplot [color=mycolor1]
  table[row sep=crcr]{%
1	0.0167418731260698\\
2	0.018659722218203\\
3	0.0211495716349754\\
4	0.0245407494314006\\
5	0.029505643974117\\
6	0.0377161636169434\\
7	0.0550750576238134\\
8	0.131028403455825\\
9	0.141533477104454\\
10	0.158175166246243\\
11	0.163761757297189\\
12	0.600100605556833\\
13	0.118033417583129\\
14	0.0610914209628117\\
15	0.0426162246246858\\
16	0.0332715711707656\\
17	0.0321939439283243\\
18	0.0268871008873183\\
19	0.0316920608120786\\
20	0.0286771919664519\\
21	0.00773119825769845\\
22	0.0330073087209196\\
23	0.019415059292473\\
24	0.0177688778425817\\
25	0.0188194600762088\\
26	0.0237714798713867\\
27	0.0430806655948836\\
28	0.586023006720236\\
29	0.0970905103802927\\
30	0.0246981078960262\\
31	0.0780346253424249\\
32	0.0580455436901626\\
33	0.0681836526256362\\
34	0.163824852865525\\
35	0.0446106828365612\\
36	0.06119675966513\\
37	0.00907835157153909\\
38	0.0310093774848825\\
39	0.00125972832884384\\
40	0.005422098150711\\
41	0.0107374596162295\\
42	0.0165479326643041\\
43	0.024789327411243\\
44	0.0446277431282512\\
45	0.058019450740893\\
46	0.074843365423057\\
47	0.199666615467323\\
48	0.216838516027539\\
49	0.0783890355452335\\
50	0.0495529240878659\\
51	0.0370791446049236\\
52	0.0307530810094058\\
53	0.0155757068681131\\
54	0.0198807977432187\\
55	0.0179871495341263\\
56	0.0162887905400521\\
57	0.0148728268904216\\
58	0.0136909847461918\\
59	0.0126943671543235\\
60	0.011846112844806\\
61	0.0111233301448608\\
62	0.0105291449791113\\
63	0.0102108676347222\\
64	0.00751288118280402\\
65	0.00739035992869396\\
66	0.0116365722557393\\
67	0.00899390796280924\\
68	0.00831157148096884\\
69	0.00788086875151191\\
70	0.00754217236777393\\
71	0.00725475830161164\\
72	0.00700327644843893\\
73	0.006780818536885\\
74	0.00658453626015097\\
75	0.00641472878078445\\
76	0.00627599401250467\\
77	0.00618216997550965\\
78	0.00617516728867787\\
79	0.00642745729543014\\
80	0.00873051939586948\\
81	0.00471465923588381\\
82	0.00195996010568866\\
83	0.004980313957114\\
84	0.00475839614864904\\
85	0.00464733241660508\\
86	0.00455444244400457\\
87	0.00446749239384432\\
88	0.00438406292262191\\
89	0.00430366820355207\\
90	0.00422628355118023\\
91	0.00415201532524293\\
92	0.00408104289588831\\
93	0.00401365198230764\\
94	0.00395033763548775\\
95	0.00389203620501121\\
96	0.00384070443755282\\
97	0.00380107128140597\\
98	0.00378779867734327\\
99	0.00387836096292209\\
100	0.00228454900881806\\
101	0.00321909463290553\\
102	0.00328982387499096\\
103	0.00328100374444436\\
104	0.00325253146337885\\
105	0.00321692683031362\\
106	0.00317840637543852\\
107	0.00313876414674543\\
108	0.00309887602618152\\
109	0.00305920797263281\\
110	0.00302002111537278\\
111	0.00298146552488656\\
112	0.00294362726599965\\
113	0.0029065537719176\\
114	0.00287026833389302\\
115	0.00283477876811283\\
116	0.00280008280049957\\
117	0.00276617151884636\\
118	0.00273303164395387\\
119	0.00270064705586787\\
120	0.00266899983729428\\
121	0.00263807099659409\\
122	0.00260784097374635\\
123	0.00257828999668392\\
124	0.00254939833288439\\
125	0.00252114646667125\\
126	0.00249351522323938\\
127	0.00246648585412356\\
128	0.00244004009455901\\
129	0.00241416020024051\\
130	0.00238882896892876\\
131	0.0023640297508985\\
132	0.00233974645117835\\
133	0.00231596352577768\\
134	0.00229266597354371\\
135	0.00226983932488367\\
136	0.00224746962828519\\
137	0.00222554343533969\\
138	0.00220404778480324\\
139	0.00218297018609978\\
140	0.00216229860257188\\
141	0.00214202143470905\\
142	0.00212212750352594\\
143	0.00210260603421662\\
144	0.00208344664017788\\
145	0.00206463930746792\\
146	0.00204617437974413\\
147	0.00202804254371082\\
148	0.00201023481509265\\
149	0.00199274252514179\\
150	0.00197555730767936\\
151	0.0019586710866655\\
152	0.00194207606428942\\
153	0.00192576470956709\\
154	0.00190972974743187\\
155	0.00189396414830307\\
156	0.00187846111811499\\
157	0.00186321408878906\\
158	0.00184821670913216\\
159	0.00183346283614256\\
160	0.00181894652670628\\
161	0.00180466202966742\\
162	0.00179060377825436\\
163	0.00177676638284649\\
164	0.00176314462406556\\
165	0.00174973344617591\\
166	0.0017365279507797\\
167	0.00172352339079259\\
168	0.00171071516468654\\
169	0.00169809881098722\\
170	0.00168567000301325\\
171	0.00167342454384613\\
172	0.00166135836151948\\
173	0.00164946750441694\\
174	0.00163774813686889\\
175	0.00162619653493841\\
176	0.00161480908238697\\
177	0.00160358226681213\\
178	0.001592512675948\\
179	0.00158159699412143\\
180	0.00157083199885632\\
181	0.00156021455761888\\
182	0.00154974162469766\\
183	0.00153941023821136\\
184	0.00152921751723897\\
185	0.00151916065906659\\
186	0.00150923693654504\\
187	0.00149944369555362\\
188	0.00148977835256491\\
189	0.00148023839230615\\
190	0.0014708213655126\\
191	0.00146152488676917\\
192	0.00145234663243548\\
193	0.00144328433865201\\
194	0.00143433579942216\\
195	0.0014254988647679\\
196	0.00141677143895562\\
197	0.00140815147878894\\
198	0.00139963699196521\\
199	0\\
200	0\\
};
\addlegendentry{$\mathbf{h_1}$}

\addplot [color=mycolor2]
  table[row sep=crcr]{%
1	0.00495033386861547\\
2	0.00515738368500011\\
3	0.00538309861623286\\
4	0.00563019833310769\\
5	0.00590197136255583\\
6	0.00620243506959928\\
7	0.00653655369620811\\
8	0.00691054090538825\\
9	0.00733228812251618\\
10	0.00781198494389501\\
11	0.00836304134465097\\
12	0.0090034999823859\\
13	0.00975827527656913\\
14	0.0106628508662167\\
15	0.0117696896019869\\
16	0.0131600228416925\\
17	0.0149671880151623\\
18	0.0174273921400842\\
19	0.0210049332363351\\
20	0.0267613442180004\\
21	0.037792597580649\\
22	0.068721841139076\\
23	0.97572931769219\\
24	0.0649085399616321\\
25	0.0262918397391367\\
26	0.0126468169615953\\
27	0.00419508123086451\\
28	0.0214241856295046\\
29	0.0134643328328179\\
30	0.00412679327935559\\
31	0.0112712342656943\\
32	0.0282552508318709\\
33	0.111702725947746\\
34	0.12653020104749\\
35	0.0361926668223949\\
36	0.024130019396178\\
37	0.019518168382204\\
38	0.0163235660243771\\
39	0.0140849625225472\\
40	0.0124312948441269\\
41	0.0111552918846637\\
42	0.0101369616841952\\
43	0.00930266674553233\\
44	0.00860476970863487\\
45	0.00801105372801389\\
46	0.00749890841387189\\
47	0.00705196472677567\\
48	0.00665805661850076\\
49	0.0063079366485928\\
50	0.00599443852440938\\
51	0.00571191453485358\\
52	0.00545584764793091\\
53	0.0052225778141873\\
54	0.00500910486747672\\
55	0.00481294397681212\\
56	0.00463201789166602\\
57	0.00446457542356871\\
58	0.00430912894812168\\
59	0.00416440590497024\\
60	0.00402931074167137\\
61	0.00390289474814389\\
62	0.00378433192171684\\
63	0.00367289949042518\\
64	0.0035679620699816\\
65	0.00346895868109233\\
66	0.00337539203747226\\
67	0.00328681965070268\\
68	0.00320284639950925\\
69	0\\
70	0\\
71	0\\
72	0\\
73	0\\
74	0\\
75	0\\
76	0\\
77	0\\
78	0\\
79	0\\
80	0\\
81	0\\
82	0\\
83	0\\
84	0\\
85	0\\
86	0\\
87	0\\
88	0\\
89	0\\
90	0\\
91	0\\
92	0\\
93	0\\
94	0\\
95	0\\
96	0\\
97	0\\
98	0\\
99	0\\
100	0\\
101	0\\
102	0\\
103	0\\
104	0\\
105	0\\
106	0\\
107	0\\
108	0\\
109	0\\
110	0\\
111	0\\
112	0\\
113	0\\
114	0\\
115	0\\
116	0\\
117	0\\
118	0\\
119	0\\
120	0\\
121	0\\
122	0\\
123	0\\
124	0\\
125	0\\
126	0\\
127	0\\
128	0\\
129	0\\
130	0\\
131	0\\
132	0\\
133	0\\
134	0\\
135	0\\
136	0\\
137	0\\
138	0\\
139	0\\
140	0\\
141	0\\
142	0\\
143	0\\
144	0\\
145	0\\
146	0\\
147	0\\
148	0\\
149	0\\
150	0\\
151	0\\
152	0\\
153	0\\
154	0\\
155	0\\
156	0\\
157	0\\
158	0\\
159	0\\
160	0\\
161	0\\
162	0\\
163	0\\
164	0\\
165	0\\
166	0\\
167	0\\
168	0\\
169	0\\
170	0\\
171	0\\
172	0\\
173	0\\
174	0\\
175	0\\
176	0\\
177	0\\
178	0\\
179	0\\
180	0\\
181	0\\
182	0\\
183	0\\
184	0\\
185	0\\
186	0\\
187	0\\
188	0\\
189	0\\
190	0\\
191	0\\
192	0\\
193	0\\
194	0\\
195	0\\
196	0\\
197	0\\
198	0\\
199	0\\
200	0\\
};
\addlegendentry{$\mathbf{h_{2}}$}

\end{axis}

\begin{axis}[%
width=1.935in,
height=3.2in,
at={(3.327in,0.512in)},
scale only axis,
xmin=0,
xmax=400,
xlabel style={font=\color{white!15!black}, align=center},
xlabel={Sample Index\\[1ex](b) Estimated},
ymin=0,
ymax=0.09,
axis background/.style={fill=white},
legend style={legend cell align=left, align=left, draw=white!15!black}
]
\addplot [color=mycolor1]
  table[row sep=crcr]{%
0	0.00113807389511294\\
1	0.000122544959405462\\
2	0.00124866529738263\\
3	0.000269624710541653\\
4	0.00157547999768267\\
5	0.000782798003930076\\
6	0.00271301459156302\\
7	0.00595443409369877\\
8	0.0158124395284196\\
9	0.0109287959998039\\
10	0.0160840210084625\\
11	0.0539572848557454\\
12	0.0463201469366422\\
13	0.0493117528122223\\
14	0.0506320508561202\\
15	0.0524194764665506\\
16	0.0527379752311082\\
17	0.0542835848712656\\
18	0.0553634881972263\\
19	0.0563701996697259\\
20	0.05513450236485\\
21	0.0526629098593522\\
22	0.0503436330655447\\
23	0.0513139593203412\\
24	0.0503367990917307\\
25	0.0492411741160997\\
26	0.0487465274254483\\
27	0.0737689158593327\\
28	0.0715437008676414\\
29	0.0703263094533523\\
30	0.0713149111252742\\
31	0.0740314047742243\\
32	0.0712409136772555\\
33	0.0776170156952645\\
34	0.0784072508109371\\
35	0.0761545889076785\\
36	0.0765462382571689\\
37	0.0763003669578482\\
38	0.075169202685171\\
39	0.0756073471902468\\
40	0.0759423293015148\\
41	0.0752577473523804\\
42	0.0748227941369523\\
43	0.0730894063922226\\
44	0.069083918457065\\
45	0.0712866014841982\\
46	0.0682559425441764\\
47	0.0636722312355127\\
48	0.0652427035755559\\
49	0.0631805997103646\\
50	0.0625540557885223\\
51	0.0630521966694102\\
52	0.0631701060157978\\
53	0.0640208255522955\\
54	0.0645138117074816\\
55	0.064900486525695\\
56	0.0641594957158827\\
57	0.0642477850632894\\
58	0.0650925581745465\\
59	0.0651195220217947\\
60	0.0663937749610267\\
61	0.0653232640609609\\
62	0.0673782459042258\\
63	0.0703408762198274\\
64	0.0688640818039179\\
65	0.0703452022086501\\
66	0.0708911219020542\\
67	0.0721069427505955\\
68	0.0715062293611759\\
69	0.0714007495654536\\
70	0.0709618588333396\\
71	0.0712905620904655\\
72	0.0715297774835985\\
73	0.0711798336210852\\
74	0.0705856620874662\\
75	0.0706458510618889\\
76	0.0702359133226233\\
77	0.0703926000091876\\
78	0.0701801954470886\\
79	0.0687443081203591\\
80	0.0680121518739284\\
81	0.067235101713687\\
82	0.0681535637013099\\
83	0.0680449371052798\\
84	0.0687372531620906\\
85	0.0686211633833814\\
86	0.0687050303575245\\
87	0.0690132403339139\\
88	0.0686957769054131\\
89	0.068693209831565\\
90	0.0692626626317456\\
91	0.0695872353891109\\
92	0.0696939974861924\\
93	0.0696200940158911\\
94	0.0693724123944365\\
95	0.0701218927309814\\
96	0.0704084193231841\\
97	0.0705965815138077\\
98	0.0704255837644102\\
99	0.0699108120780697\\
100	0.0699042675406321\\
101	0.0703091089584194\\
102	0.0707749465306072\\
103	0.0706780699215557\\
104	0.0706441797523298\\
105	0.0704149877777224\\
106	0.0702495829014169\\
107	0.0701746443016277\\
108	0.0704921000953017\\
109	0.0703171810457954\\
110	0.0699946945018383\\
111	0.0697848750230832\\
112	0.0696428504887893\\
113	0.0695241139772484\\
114	0.069460780905807\\
115	0.0694095290404312\\
116	0.0693364966292042\\
117	0.0689214616699662\\
118	0.0687815615339031\\
119	0.0685377804616144\\
120	0.0688920336059709\\
121	0.0692355001167246\\
122	0.0690961145450556\\
123	0.0691253366311862\\
124	0.0691893898264852\\
125	0.0693386670721706\\
126	0.0695900184454133\\
127	0.0695178324553099\\
128	0.0698752322563328\\
129	0.069735135333779\\
130	0.07015927289222\\
131	0.0699764285322475\\
132	0.0700148029203201\\
133	0.0698957473027754\\
134	0.0700191115547687\\
135	0.0699389561048217\\
136	0.0699930837787224\\
137	0.0699893858887254\\
138	0.0697574743113722\\
139	0.0697276504666534\\
140	0.0695227344188267\\
141	0.0693660367627576\\
142	0.0696314374659386\\
143	0.069528956171704\\
144	0.0694160455465961\\
145	0.0693124693414122\\
146	0.0691202063663328\\
147	0.0691378168662621\\
148	0.0691419428240874\\
149	0.0693011800895584\\
150	0.0693483991166027\\
151	0.0692804820359072\\
152	0.0694416291600045\\
153	0.069371821456971\\
154	0.0692642312973603\\
155	0.0686620800224416\\
156	0.0686214071554416\\
157	0.0687533767765608\\
158	0.0690175037795353\\
159	0.069044224762367\\
160	0.0691925206016118\\
161	0.0690007483323574\\
162	0.0689972535370763\\
163	0.0688987324418186\\
164	0.0688353738100245\\
165	0.0693340553927461\\
166	0.0698259732680749\\
167	0.0694542772857874\\
168	0.0696791198830277\\
169	0.0695655763776623\\
170	0.0697205617693574\\
171	0.0695488362968161\\
172	0.0699072739979035\\
173	0.0693979787496\\
174	0.0694784511868391\\
175	0.0691737369071745\\
176	0.0688615767943873\\
177	0.0691376534416509\\
178	0.0690362000258542\\
179	0.0687416084171296\\
180	0.068445510282257\\
181	0.0682490672975169\\
182	0.0685374524229207\\
183	0.0686997076202117\\
184	0.0693751199097145\\
185	0.069129884741704\\
186	0.0687150897950618\\
187	0.0691446384828589\\
188	0.0678301793666208\\
189	0.0698871722625759\\
190	0.0689396484704627\\
191	0.0690590501878758\\
192	0.0686325072235829\\
193	0.069148055801611\\
194	0.0690310203674928\\
195	0.0686349338629607\\
196	0.0696630559199055\\
197	0.0688462476022896\\
198	0.0687102324597821\\
199	0.0670604679895541\\
200	0.0672446359795779\\
201	0.0681340819883082\\
202	0.0690914281588389\\
203	0.0691732128221159\\
204	0.0697546628508571\\
205	0.0686134602028645\\
206	0.069879632764433\\
207	0.0701361701797497\\
208	0.0710171972150702\\
209	0.0691928996439077\\
210	0.0736406838105892\\
211	0.0742299082203772\\
212	0.0705073827318146\\
213	0.0651317731125167\\
214	0.0519138268347947\\
215	0.0600419579056647\\
216	0.0553035439836219\\
217	0.0527478909455633\\
218	0.0490357082456123\\
219	0.0516092455672754\\
220	0.0521409777311394\\
221	0.0499014468307191\\
222	0.0486997128597149\\
223	0.0492357120328502\\
224	0.0490616861188205\\
225	0.0467768119063264\\
226	0.0440123396878782\\
227	0.0415423194267189\\
228	0.0428897327167916\\
229	0.042013959637491\\
230	0.0285562755160507\\
231	0.0306554830041361\\
232	0.0314742676829094\\
233	0.0337036269670523\\
234	0.0284038126296822\\
235	0.0316335756554468\\
236	0.0291667469851941\\
237	0.0226182212635153\\
238	0.0176000613598878\\
239	0.016442748539289\\
240	0.0183160385149935\\
241	0.019699336800497\\
242	0.0164671649916449\\
243	0.012538789322418\\
244	0.0122218393906342\\
245	0.0103496887321416\\
246	0.0121384398637323\\
247	0.0145075064091255\\
248	0.0179524733385081\\
249	0.0166148994260587\\
250	0.0164956821308126\\
251	0.0221399700977865\\
252	0.0204988453226547\\
253	0.0111902269860972\\
254	0.00159272068835735\\
255	0.00547115931690846\\
256	0.00719473081835243\\
257	0.00707177767004631\\
258	0.00551130357697968\\
259	0.00500116580780343\\
260	0.00433817547490783\\
261	0.00430090004005604\\
262	0.00180728511193502\\
263	0.00122081271559659\\
264	0.00250210275172977\\
265	0.00379639689635881\\
266	0.00317451958570519\\
267	0.00286636783098913\\
268	0.00173065852172339\\
269	0.00406998457032986\\
270	0.00603912533887162\\
271	0.00812264098747191\\
272	0.00663699979356165\\
273	0.00228505076531346\\
274	0.000315513816037683\\
275	0.000302899266273446\\
276	0.000529741434315165\\
277	0.000537806692074702\\
278	0.000560314640034376\\
279	0.000589884338826061\\
280	0.00109824018336264\\
281	0.00116299465457482\\
282	0.00135165544905957\\
283	0.000573272850298638\\
284	0.000332935191087475\\
285	0.000660128766702066\\
286	0.000591929052393439\\
287	0.000559194045686144\\
288	0.000441323460158527\\
289	0.000792991245500629\\
290	0.000958512877958993\\
291	0.00115157516810849\\
292	0.0011991186744841\\
293	0.00123857484869831\\
294	0.000988388639070832\\
295	0.000792299190165902\\
296	0.000691382711171477\\
297	0.000658557198028303\\
298	0.000634300706996935\\
299	0.00063384018524842\\
300	0.000542619453378153\\
301	0.0005968646891852\\
302	0.000631677085051182\\
303	0.000655467235290001\\
304	0.00072956795439926\\
305	0.00063961916898773\\
306	0.000459047315329837\\
307	0.000222118487565436\\
308	0.000186541490165493\\
309	9.50300401964445e-05\\
310	0.00015686546658235\\
311	9.93020264644194e-05\\
312	0.000132940495614461\\
313	7.91976485196877e-05\\
314	8.14405524984689e-05\\
315	0.000120223520690182\\
316	6.35003245518874e-05\\
317	0.000154286167562288\\
318	0.000138087820063396\\
319	0.000145218607042618\\
320	0.000116437789223853\\
321	5.72331698719879e-05\\
322	0.0001863673648115\\
323	0.0001396846061515\\
324	0.000249302653850892\\
325	5.47767307504878e-05\\
326	3.3276431054052e-05\\
327	9.22492359407214e-05\\
328	4.88184673549158e-05\\
329	0.000108926741521359\\
330	5.63943965335275e-05\\
331	0.000122949256364054\\
332	4.97670981043587e-05\\
333	0.000134199476163365\\
334	5.88720745253583e-05\\
335	0.000129467202945823\\
336	2.57908342387685e-05\\
337	8.68642085970747e-05\\
338	1.80569056998008e-05\\
339	7.63295061174322e-05\\
340	1.38869944504285e-05\\
341	7.23411419897644e-05\\
342	2.38062918079131e-05\\
343	6.2470530046817e-05\\
344	3.45060075529393e-05\\
345	6.42301553119596e-05\\
346	3.39252323323073e-05\\
347	6.97210273429512e-05\\
348	2.86981151159797e-05\\
349	7.42816089776476e-05\\
350	2.62430665759787e-05\\
351	7.30649767233418e-05\\
352	2.40101338499703e-05\\
353	7.27254250985675e-05\\
354	2.70795983290575e-05\\
355	7.31960886667874e-05\\
356	2.75061330553415e-05\\
357	7.23847818292061e-05\\
358	2.53197371432216e-05\\
359	7.26341821482104e-05\\
360	2.06376155645992e-05\\
361	7.41249808703311e-05\\
362	2.33313747147079e-05\\
363	7.71213180738881e-05\\
364	1.43137537811569e-05\\
365	7.98542624914972e-05\\
366	1.91858727761687e-05\\
367	8.68566825792462e-05\\
368	3.46000131734188e-05\\
369	0.000105542028913953\\
370	4.46629657182551e-05\\
371	0.000101707145152941\\
372	4.02683527648693e-05\\
373	0.000101733095795993\\
374	4.70152328387256e-05\\
375	0.000106207344175284\\
376	5.48117038824487e-05\\
377	0.000101309303560512\\
378	4.72176895461748e-05\\
379	9.05558481327236e-05\\
380	4.39979385439851e-05\\
381	9.69445915315843e-05\\
382	5.61393603902373e-05\\
383	9.8929002103095e-05\\
384	6.1080546219803e-05\\
385	0.000100568605060145\\
386	6.69969159994622e-05\\
387	9.57099174764933e-05\\
388	3.52659598776178e-05\\
389	8.15218350299053e-05\\
390	3.38334817959636e-05\\
391	9.34940090572339e-05\\
392	3.71182322772056e-05\\
393	9.48656210466739e-05\\
394	3.57483921750358e-05\\
395	9.61126208888241e-05\\
396	3.97313769698868e-05\\
397	9.89527184868748e-05\\
398	3.67712839384932e-05\\
399	9.06422774389864e-05\\
};
\addlegendentry{$\mathbf{\hat{h}_{1}}$}

\addplot [color=mycolor2]
  table[row sep=crcr]{%
0	0.000361821993504276\\
1	1.29464236304396e-05\\
2	0.000359832666070474\\
3	1.44951044902327e-05\\
4	0.000380313885149929\\
5	2.29738857849173e-05\\
6	0.000399978393782286\\
7	4.60716308446004e-05\\
8	0.0004289403268797\\
9	7.2814427809018e-05\\
10	0.000433712579396692\\
11	0.000137788862401993\\
12	0.000482519581668983\\
13	0.000194420567464972\\
14	0.000552424104857069\\
15	0.000290085937554074\\
16	0.00062496548785733\\
17	0.000458184852182852\\
18	0.000853718544913422\\
19	0.000842651976995354\\
20	0.00162749124943981\\
21	0.00304391117080607\\
22	0.0678117715653672\\
23	0.0736958746312602\\
24	0.0677195935074405\\
25	0.0733509884416783\\
26	0.0738597261515826\\
27	0.0740407188549241\\
28	0.0726224768310075\\
29	0.0722199703928298\\
30	0.0728742116414143\\
31	0.0719018693627009\\
32	0.0733580301566683\\
33	0.0773041240573843\\
34	0.0762634096750841\\
35	0.0789799474843389\\
36	0.0772380516711125\\
37	0.0789980160464708\\
38	0.0685167937340577\\
39	0.0675704788880103\\
40	0.0644488831927894\\
41	0.0677983722186422\\
42	0.0676846107999194\\
43	0.0676347306109223\\
44	0.0656103010376317\\
45	0.0625311841355533\\
46	0.0633092570358626\\
47	0.0632030111901584\\
48	0.0648630689780801\\
49	0.0648886923835715\\
50	0.0651163028261176\\
51	0.0649059839822842\\
52	0.0647286086441804\\
53	0.065169136959557\\
54	0.0653266818029869\\
55	0.0668507463140733\\
56	0.067056745988779\\
57	0.0667064038038624\\
58	0.0681186319260687\\
59	0.0678055872132674\\
60	0.0696645716497759\\
61	0.0705665104758673\\
62	0.0702674145521608\\
63	0.0707726129276312\\
64	0.0705289563609913\\
65	0.0705270126585866\\
66	0.0702869696803824\\
67	0.0705006093664837\\
68	0.0705892804393886\\
69	0.0707271164018267\\
70	0.0705431424615426\\
71	0.0697574251088411\\
72	0.0703258849051097\\
73	0.0698291232801769\\
74	0.0684705083765225\\
75	0.068782997351641\\
76	0.0678470152457544\\
77	0.0672265194279209\\
78	0.0659382726106401\\
79	0.0660698383777417\\
80	0.0663110654013893\\
81	0.0669956348240215\\
82	0.0665748418903989\\
83	0.0669834862118583\\
84	0.0665819393317691\\
85	0.0671640714013278\\
86	0.0668707612381368\\
87	0.0672020983128611\\
88	0.0670200110564326\\
89	0.0673486345640464\\
90	0.0679481776615293\\
91	0.0684406902224604\\
92	0.0689141790715761\\
93	0.0691732435720486\\
94	0.0689716456629754\\
95	0.0691242007880777\\
96	0.0695609778819594\\
97	0.0699337688439105\\
98	0.0695836387929235\\
99	0.0694493200261378\\
100	0.0696428136810808\\
101	0.0697902730738951\\
102	0.069592587555766\\
103	0.0696245245607332\\
104	0.0695245670722938\\
105	0.0694267098939543\\
106	0.0694338463372959\\
107	0.0691299214277159\\
108	0.068704276351118\\
109	0.0688187907061949\\
110	0.0688149463755712\\
111	0.0694741196342931\\
112	0.068891741501044\\
113	0.0690244276815232\\
114	0.0687963001180614\\
115	0.0687474141945583\\
116	0.0687823930667548\\
117	0.0684865112072263\\
118	0.0684093190740915\\
119	0.0688126823770169\\
120	0.0687972946662242\\
121	0.0688898841577286\\
122	0.0682748065617363\\
123	0.0687556990723041\\
124	0.0687293373297004\\
125	0.0692318333352583\\
126	0.0689774160863604\\
127	0.0682936499698353\\
128	0.0679450770300204\\
129	0.0682234322650302\\
130	0.0683969272521704\\
131	0.0686339050150527\\
132	0.0687850646564188\\
133	0.0689084739336812\\
134	0.0687617093477713\\
135	0.0688376589687779\\
136	0.0684695464528864\\
137	0.0689080306210749\\
138	0.0689688040875314\\
139	0.0690995254907096\\
140	0.0688042512576\\
141	0.0689138202390136\\
142	0.0687484338878436\\
143	0.0691135000823838\\
144	0.0695997877026358\\
145	0.0696297625280317\\
146	0.0692661946431181\\
147	0.0691374935526915\\
148	0.0691690525680981\\
149	0.0692294817469464\\
150	0.0692908868547362\\
151	0.0691918293205171\\
152	0.0690012455041547\\
153	0.0689716503858017\\
154	0.068972011626159\\
155	0.0689223176638233\\
156	0.0687822895744232\\
157	0.0684500649849849\\
158	0.0686220135579209\\
159	0.0683225832006449\\
160	0.0676897831215931\\
161	0.0681127008194664\\
162	0.0676131279081278\\
163	0.0680246669341478\\
164	0.0680571675166435\\
165	0.0680759229275952\\
166	0.0669749951705619\\
167	0.0667206015754882\\
168	0.0667055091962892\\
169	0.067355537306635\\
170	0.0674382917608212\\
171	0.0675508121808356\\
172	0.0672428040758842\\
173	0.0682614166275883\\
174	0.0680590159016755\\
175	0.0676634894665575\\
176	0.0686650179091899\\
177	0.0692316105032452\\
178	0.069363113617514\\
179	0.0696944481652331\\
180	0.0691845979442051\\
181	0.0693320883809879\\
182	0.0701708188635353\\
183	0.0707418249813973\\
184	0.0702276038134376\\
185	0.070087635197863\\
186	0.0697089102955778\\
187	0.0692666256826719\\
188	0.0698861624769005\\
189	0.0692078558210066\\
190	0.069382667508419\\
191	0.068885849686955\\
192	0.0676818310932807\\
193	0.067419764903842\\
194	0.0677626864496991\\
195	0.0674349557297544\\
196	0.0677982339971735\\
197	0.0675359399043412\\
198	0.0674670907469498\\
199	0.0648052006662949\\
200	0.0669478007619772\\
201	0.0663099525696147\\
202	0.0671694497282014\\
203	0.0672892086434484\\
204	0.0661937357443959\\
205	0.0670454755098284\\
206	0.0664562307769845\\
207	0.068037252124774\\
208	0.067704950801008\\
209	0.0706195796217206\\
210	0.0673605159923494\\
211	0.0679406154156477\\
212	0.0694506498301233\\
213	0.0707088567019231\\
214	0.07307973220896\\
215	0.0751325798095167\\
216	0.0738044476360016\\
217	0.0741442341531247\\
218	0.0761116001203287\\
219	0.0772296046860105\\
220	0.0777499202059585\\
221	0.0769499955702544\\
222	0.0774906945712696\\
223	0.0788397944269272\\
224	0.0808111626500312\\
225	0.0452963564499404\\
226	0.052007265405701\\
227	0.0547697057032779\\
228	0.0501531124352496\\
229	0.0357339144732529\\
230	0.0348584347502028\\
231	0.0402414954555085\\
232	0.0399707616893071\\
233	0.0383479139207607\\
234	0.0384732170642823\\
235	0.0339366308681927\\
236	0.0307217814842272\\
237	0.0297686717253865\\
238	0.02375661415788\\
239	0.0205954965884213\\
240	0.0198491046285619\\
241	0.0203552321169543\\
242	0.0191668447983057\\
243	0.0187174500112101\\
244	0.0192665687228601\\
245	0.0238013023457772\\
246	0.026570127098743\\
247	0.0277545192530516\\
248	0.0164479389399575\\
249	0.00246794480881166\\
250	0.000810468777996598\\
251	0.000554753582877358\\
252	0.000995049984047708\\
253	0.000974086919287156\\
254	0.00147461166439288\\
255	0.00128335311023533\\
256	0.0013961814452713\\
257	0.00105400855857743\\
258	0.00111182477939655\\
259	0.000856345061178945\\
260	0.00106263398999652\\
261	0.000976045468529352\\
262	0.00109426880932182\\
263	0.00108882667848361\\
264	0.000956239855586965\\
265	0.00108273242743424\\
266	0.000987416569586886\\
267	0.00103710380329958\\
268	0.000935175833476421\\
269	0.00114589049326308\\
270	0.000898658753946862\\
271	0.000801451478125889\\
272	0.000721643599258463\\
273	0.000703509706769173\\
274	0.00072446944742475\\
275	0.000738759855675117\\
276	0.000775650189085142\\
277	0.000972644289573825\\
278	0.00113943733552031\\
279	0.00114325787551599\\
280	0.00114839303706362\\
281	0.00106341783616247\\
282	0.000850433289862863\\
283	0.000557697879851143\\
284	0.000414361210354647\\
285	0.00038910945184015\\
286	0.000410681163205614\\
287	0.000455673718275119\\
288	0.00050327695137596\\
289	0.000509950936007143\\
290	0.000456201877027377\\
291	0.000398942884200287\\
292	0.000393215134179428\\
293	0.000412070239183542\\
294	0.000420817474553097\\
295	0.0004116252143775\\
296	0.000407621710188693\\
297	0.000452193964610066\\
298	0.000464840989588921\\
299	0.000469244669153649\\
300	0.000380940733085846\\
301	0.000131882929471025\\
302	1.66612221671412e-06\\
303	1.28272356524038e-06\\
304	9.96597485951265e-07\\
305	1.19829249738487e-06\\
306	9.94678782650485e-07\\
307	9.2489102089124e-07\\
308	6.97918836719549e-07\\
309	7.67872299834942e-07\\
310	1.06989694087583e-06\\
311	1.05648693414879e-06\\
312	9.72043226036819e-07\\
313	1.41359633567004e-06\\
314	1.72745363353494e-06\\
315	2.07667043671752e-06\\
316	2.27317793728402e-06\\
317	2.42077864994344e-06\\
318	2.71773325324109e-06\\
319	2.86054953777721e-06\\
320	2.97173858027766e-06\\
321	3.24753176844805e-06\\
322	3.63940199711989e-06\\
323	3.99288882050641e-06\\
324	4.22199008003258e-06\\
325	4.4253542329345e-06\\
326	4.62507090362251e-06\\
327	4.56905379630098e-06\\
328	4.3979945403105e-06\\
329	4.30814550631124e-06\\
330	4.16444110184302e-06\\
331	4.07521369593957e-06\\
332	4.20943232517256e-06\\
333	4.33979489803569e-06\\
334	4.257827255562e-06\\
335	4.45023864978134e-06\\
336	4.76824928447972e-06\\
337	4.86319975205754e-06\\
338	4.90821145934694e-06\\
339	4.9251788078842e-06\\
340	5.14040422753106e-06\\
341	5.69765250594964e-06\\
342	5.91462650854516e-06\\
343	5.80134861894375e-06\\
344	5.51289111162272e-06\\
345	5.3908581508083e-06\\
346	5.72984926723242e-06\\
347	6.41359306202179e-06\\
348	7.06174544672534e-06\\
349	7.4010523128691e-06\\
350	7.64712358133813e-06\\
351	7.81547722501447e-06\\
352	8.34940077519733e-06\\
353	9.2245640771306e-06\\
354	9.86370363525062e-06\\
355	1.03818809999925e-05\\
356	1.05889950537536e-05\\
357	1.07862839992096e-05\\
358	1.10781492400473e-05\\
359	1.13028232052059e-05\\
360	1.16320428471924e-05\\
361	1.14026313376679e-05\\
362	1.07002787722246e-05\\
363	9.89292827222339e-06\\
364	9.97789120195346e-06\\
365	1.2717151400344e-05\\
366	1.49747158473656e-05\\
367	1.39653812743948e-05\\
368	1.19190069945329e-05\\
369	1.20173946109835e-05\\
370	1.24882224699702e-05\\
371	1.1346209472776e-05\\
372	1.00942423124044e-05\\
373	9.74413169729498e-06\\
374	8.00877537477248e-06\\
375	1.12001422684903e-05\\
376	3.29314379211125e-05\\
377	4.1711721503329e-05\\
378	3.87001636131564e-05\\
379	4.3200813854722e-05\\
380	5.65377347545468e-05\\
381	6.26972571131292e-05\\
382	5.79627157853264e-05\\
383	5.23430097395299e-05\\
384	5.20788790390809e-05\\
385	5.70025425648576e-05\\
386	6.41224601659218e-05\\
387	6.98080599744119e-05\\
388	6.68361391918881e-05\\
389	5.60337658189338e-05\\
390	5.10336838142122e-05\\
391	5.37142540480578e-05\\
392	5.61428725003724e-05\\
393	5.63394242631813e-05\\
394	5.41552517833487e-05\\
395	5.67465066327619e-05\\
396	6.47269414021153e-05\\
397	5.95975640429454e-05\\
398	6.58039283423851e-05\\
399	3.87730772993759e-05\\
};
\addlegendentry{$\mathbf{\hat{h}_{2}}$}

\end{axis}
\end{tikzpicture}%