% This file was created by matlab2tikz.
%
%The latest updates can be retrieved from
%  http://www.mathworks.com/matlabcentral/fileexchange/22022-matlab2tikz-matlab2tikz
%where you can also make suggestions and rate matlab2tikz.
%
\definecolor{mycolor1}{rgb}{0.00000,0.44700,0.74100}%
\definecolor{mycolor2}{rgb}{0.85000,0.32500,0.09800}%
%
\begin{tikzpicture}

\begin{axis}[%
width=1.935in,
height=3.2in,
at={(0.758in,0.512in)},
scale only axis,
xmin=0,
xmax=200,
xlabel style={font=\color{white!15!black}, align=center},
xlabel={Sample Index\\[1ex](a) Actual},
ymin=0,
ymax=1,
axis background/.style={fill=white},
legend style={legend cell align=left, align=left, draw=white!15!black}
]
\addplot [color=mycolor1]
  table[row sep=crcr]{%
1	0.0167418731260698\\
2	0.018659722218203\\
3	0.0211495716349754\\
4	0.0245407494314006\\
5	0.029505643974117\\
6	0.0377161636169434\\
7	0.0550750576238134\\
8	0.131028403455825\\
9	0.141533477104454\\
10	0.158175166246243\\
11	0.163761757297189\\
12	0.600100605556833\\
13	0.118033417583129\\
14	0.0610914209628117\\
15	0.0426162246246858\\
16	0.0332715711707656\\
17	0.0321939439283243\\
18	0.0268871008873183\\
19	0.0316920608120786\\
20	0.0286771919664519\\
21	0.00773119825769845\\
22	0.0330073087209196\\
23	0.019415059292473\\
24	0.0177688778425817\\
25	0.0188194600762088\\
26	0.0237714798713867\\
27	0.0430806655948836\\
28	0.586023006720236\\
29	0.0970905103802927\\
30	0.0246981078960262\\
31	0.0780346253424249\\
32	0.0580455436901626\\
33	0.0681836526256362\\
34	0.163824852865525\\
35	0.0446106828365612\\
36	0.06119675966513\\
37	0.00907835157153909\\
38	0.0310093774848825\\
39	0.00125972832884384\\
40	0.005422098150711\\
41	0.0107374596162295\\
42	0.0165479326643041\\
43	0.024789327411243\\
44	0.0446277431282512\\
45	0.058019450740893\\
46	0.074843365423057\\
47	0.199666615467323\\
48	0.216838516027539\\
49	0.0783890355452335\\
50	0.0495529240878659\\
51	0.0370791446049236\\
52	0.0307530810094058\\
53	0.0155757068681131\\
54	0.0198807977432187\\
55	0.0179871495341263\\
56	0.0162887905400521\\
57	0.0148728268904216\\
58	0.0136909847461918\\
59	0.0126943671543235\\
60	0.011846112844806\\
61	0.0111233301448608\\
62	0.0105291449791113\\
63	0.0102108676347222\\
64	0.00751288118280402\\
65	0.00739035992869396\\
66	0.0116365722557393\\
67	0.00899390796280924\\
68	0.00831157148096884\\
69	0.00788086875151191\\
70	0.00754217236777393\\
71	0.00725475830161164\\
72	0.00700327644843893\\
73	0.006780818536885\\
74	0.00658453626015097\\
75	0.00641472878078445\\
76	0.00627599401250467\\
77	0.00618216997550965\\
78	0.00617516728867787\\
79	0.00642745729543014\\
80	0.00873051939586948\\
81	0.00471465923588381\\
82	0.00195996010568866\\
83	0.004980313957114\\
84	0.00475839614864904\\
85	0.00464733241660508\\
86	0.00455444244400457\\
87	0.00446749239384432\\
88	0.00438406292262191\\
89	0.00430366820355207\\
90	0.00422628355118023\\
91	0.00415201532524293\\
92	0.00408104289588831\\
93	0.00401365198230764\\
94	0.00395033763548775\\
95	0.00389203620501121\\
96	0.00384070443755282\\
97	0.00380107128140597\\
98	0.00378779867734327\\
99	0.00387836096292209\\
100	0.00228454900881806\\
101	0.00321909463290553\\
102	0.00328982387499096\\
103	0.00328100374444436\\
104	0.00325253146337885\\
105	0.00321692683031362\\
106	0.00317840637543852\\
107	0.00313876414674543\\
108	0.00309887602618152\\
109	0.00305920797263281\\
110	0.00302002111537278\\
111	0.00298146552488656\\
112	0.00294362726599965\\
113	0.0029065537719176\\
114	0.00287026833389302\\
115	0.00283477876811283\\
116	0.00280008280049957\\
117	0.00276617151884636\\
118	0.00273303164395387\\
119	0.00270064705586787\\
120	0.00266899983729428\\
121	0.00263807099659409\\
122	0.00260784097374635\\
123	0.00257828999668392\\
124	0.00254939833288439\\
125	0.00252114646667125\\
126	0.00249351522323938\\
127	0.00246648585412356\\
128	0.00244004009455901\\
129	0.00241416020024051\\
130	0.00238882896892876\\
131	0.0023640297508985\\
132	0.00233974645117835\\
133	0.00231596352577768\\
134	0.00229266597354371\\
135	0.00226983932488367\\
136	0.00224746962828519\\
137	0.00222554343533969\\
138	0.00220404778480324\\
139	0.00218297018609978\\
140	0.00216229860257188\\
141	0.00214202143470905\\
142	0.00212212750352594\\
143	0.00210260603421662\\
144	0.00208344664017788\\
145	0.00206463930746792\\
146	0.00204617437974413\\
147	0.00202804254371082\\
148	0.00201023481509265\\
149	0.00199274252514179\\
150	0.00197555730767936\\
151	0.0019586710866655\\
152	0.00194207606428942\\
153	0.00192576470956709\\
154	0.00190972974743187\\
155	0.00189396414830307\\
156	0.00187846111811499\\
157	0.00186321408878906\\
158	0.00184821670913216\\
159	0.00183346283614256\\
160	0.00181894652670628\\
161	0.00180466202966742\\
162	0.00179060377825436\\
163	0.00177676638284649\\
164	0.00176314462406556\\
165	0.00174973344617591\\
166	0.0017365279507797\\
167	0.00172352339079259\\
168	0.00171071516468654\\
169	0.00169809881098722\\
170	0.00168567000301325\\
171	0.00167342454384613\\
172	0.00166135836151948\\
173	0.00164946750441694\\
174	0.00163774813686889\\
175	0.00162619653493841\\
176	0.00161480908238697\\
177	0.00160358226681213\\
178	0.001592512675948\\
179	0.00158159699412143\\
180	0.00157083199885632\\
181	0.00156021455761888\\
182	0.00154974162469766\\
183	0.00153941023821136\\
184	0.00152921751723897\\
185	0.00151916065906659\\
186	0.00150923693654504\\
187	0.00149944369555362\\
188	0.00148977835256491\\
189	0.00148023839230615\\
190	0.0014708213655126\\
191	0.00146152488676917\\
192	0.00145234663243548\\
193	0.00144328433865201\\
194	0.00143433579942216\\
195	0.0014254988647679\\
196	0.00141677143895562\\
197	0.00140815147878894\\
198	0.00139963699196521\\
199	0\\
200	0\\
};
\addlegendentry{$\mathbf{h_1}$}

\addplot [color=mycolor2]
  table[row sep=crcr]{%
1	0.00495033386861547\\
2	0.00515738368500011\\
3	0.00538309861623286\\
4	0.00563019833310769\\
5	0.00590197136255583\\
6	0.00620243506959928\\
7	0.00653655369620811\\
8	0.00691054090538825\\
9	0.00733228812251618\\
10	0.00781198494389501\\
11	0.00836304134465097\\
12	0.0090034999823859\\
13	0.00975827527656913\\
14	0.0106628508662167\\
15	0.0117696896019869\\
16	0.0131600228416925\\
17	0.0149671880151623\\
18	0.0174273921400842\\
19	0.0210049332363351\\
20	0.0267613442180004\\
21	0.037792597580649\\
22	0.068721841139076\\
23	0.97572931769219\\
24	0.0649085399616321\\
25	0.0262918397391367\\
26	0.0126468169615953\\
27	0.00419508123086451\\
28	0.0214241856295046\\
29	0.0134643328328179\\
30	0.00412679327935559\\
31	0.0112712342656943\\
32	0.0282552508318709\\
33	0.111702725947746\\
34	0.12653020104749\\
35	0.0361926668223949\\
36	0.024130019396178\\
37	0.019518168382204\\
38	0.0163235660243771\\
39	0.0140849625225472\\
40	0.0124312948441269\\
41	0.0111552918846637\\
42	0.0101369616841952\\
43	0.00930266674553233\\
44	0.00860476970863487\\
45	0.00801105372801389\\
46	0.00749890841387189\\
47	0.00705196472677567\\
48	0.00665805661850076\\
49	0.0063079366485928\\
50	0.00599443852440938\\
51	0.00571191453485358\\
52	0.00545584764793091\\
53	0.0052225778141873\\
54	0.00500910486747672\\
55	0.00481294397681212\\
56	0.00463201789166602\\
57	0.00446457542356871\\
58	0.00430912894812168\\
59	0.00416440590497024\\
60	0.00402931074167137\\
61	0.00390289474814389\\
62	0.00378433192171684\\
63	0.00367289949042518\\
64	0.0035679620699816\\
65	0.00346895868109233\\
66	0.00337539203747226\\
67	0.00328681965070268\\
68	0.00320284639950925\\
69	0\\
70	0\\
71	0\\
72	0\\
73	0\\
74	0\\
75	0\\
76	0\\
77	0\\
78	0\\
79	0\\
80	0\\
81	0\\
82	0\\
83	0\\
84	0\\
85	0\\
86	0\\
87	0\\
88	0\\
89	0\\
90	0\\
91	0\\
92	0\\
93	0\\
94	0\\
95	0\\
96	0\\
97	0\\
98	0\\
99	0\\
100	0\\
101	0\\
102	0\\
103	0\\
104	0\\
105	0\\
106	0\\
107	0\\
108	0\\
109	0\\
110	0\\
111	0\\
112	0\\
113	0\\
114	0\\
115	0\\
116	0\\
117	0\\
118	0\\
119	0\\
120	0\\
121	0\\
122	0\\
123	0\\
124	0\\
125	0\\
126	0\\
127	0\\
128	0\\
129	0\\
130	0\\
131	0\\
132	0\\
133	0\\
134	0\\
135	0\\
136	0\\
137	0\\
138	0\\
139	0\\
140	0\\
141	0\\
142	0\\
143	0\\
144	0\\
145	0\\
146	0\\
147	0\\
148	0\\
149	0\\
150	0\\
151	0\\
152	0\\
153	0\\
154	0\\
155	0\\
156	0\\
157	0\\
158	0\\
159	0\\
160	0\\
161	0\\
162	0\\
163	0\\
164	0\\
165	0\\
166	0\\
167	0\\
168	0\\
169	0\\
170	0\\
171	0\\
172	0\\
173	0\\
174	0\\
175	0\\
176	0\\
177	0\\
178	0\\
179	0\\
180	0\\
181	0\\
182	0\\
183	0\\
184	0\\
185	0\\
186	0\\
187	0\\
188	0\\
189	0\\
190	0\\
191	0\\
192	0\\
193	0\\
194	0\\
195	0\\
196	0\\
197	0\\
198	0\\
199	0\\
200	0\\
};
\addlegendentry{$\mathbf{h_{2}}$}

\end{axis}

\begin{axis}[%
width=1.935in,
height=3.2in,
at={(3.327in,0.512in)},
scale only axis,
xmin=0,
xmax=200,
xlabel style={font=\color{white!15!black}, align=center},
xlabel={Sample Index\\[1ex](b) Estimated},
ymin=0,
ymax=1,
axis background/.style={fill=white},
legend style={legend cell align=left, align=left, draw=white!15!black}
]
\addplot [color=mycolor1]
  table[row sep=crcr]{%
0	0.00155054634225853\\
1	0.000576502531448739\\
2	0.000995053615718091\\
3	0.00167494067263099\\
4	0.000429898870095383\\
5	0.00175536020533443\\
6	0.0034442288607849\\
7	0.00482157963103885\\
8	0.00291363392356019\\
9	0.00470023945271761\\
10	0.00286706512926949\\
11	0.004238169685434\\
12	0.00740907363995222\\
13	0.00287854082440211\\
14	0.00465755592574347\\
15	0.00507014390993889\\
16	0.00854127522521543\\
17	0.00154692325289197\\
18	0.00642185889555583\\
19	0.00333460378577487\\
20	0.00425455204583798\\
21	0.0010471261464364\\
22	0.0044689263212547\\
23	0.00718268774511333\\
24	0.00732114250148913\\
25	0.00161376827511395\\
26	0.00489192934897086\\
27	0.00334545113514698\\
28	0.00369840396510538\\
29	0.0113565687953811\\
30	0.0019713394244715\\
31	0.0151407000802644\\
32	0.0122040208548613\\
33	0.0170139839646733\\
34	0.0152255145090062\\
35	0.00633259087372009\\
36	0.00764610574130703\\
37	0.00812645478544684\\
38	0.00408067391631186\\
39	0.0106517102736096\\
40	0.00207071641164573\\
41	0.00522764257462434\\
42	0.00430980429190277\\
43	0.000994509723779675\\
44	0.00681024445544765\\
45	0.00616607218894471\\
46	0.0126930507768954\\
47	0.00826538866952226\\
48	0.00580878666198589\\
49	0.0249456795531735\\
50	0.0318238130929732\\
51	0.0185528159219941\\
52	0.0263364001286294\\
53	0.000795938129443351\\
54	0.0177266288534385\\
55	0.0120071936594809\\
56	0.0128136946184972\\
57	0.0116983831105521\\
58	0.0142887872467332\\
59	0.0112405167494543\\
60	0.00279357612757523\\
61	0.00529452949360596\\
62	0.0349733565830865\\
63	0.0223571207090502\\
64	0.00717869661838726\\
65	0.0296728655326758\\
66	0.0161708201579391\\
67	0.0308349079594434\\
68	0.0940521819235947\\
69	0.0481242817976549\\
70	0.0519022845402399\\
71	0.0236182247648157\\
72	0.0825268458848007\\
73	0.0160551845957839\\
74	0.020671935657319\\
75	0.0287218383654093\\
76	0.022963179127079\\
77	0.0680549338476855\\
78	0.0175590200982373\\
79	0.0101769453253016\\
80	0.0136095298330375\\
81	0.033899024377507\\
82	0.0524677217042819\\
83	0.0973450677955284\\
84	0.165770674181288\\
85	0.086019025908222\\
86	0.122707513536004\\
87	0.239372914703868\\
88	0.536017908725195\\
89	0.100565345746078\\
90	0.0351805724807183\\
91	0.0548038728541176\\
92	0.0152612707208841\\
93	0.0535883341955404\\
94	0.0513810852580228\\
95	0.0391014081039348\\
96	0.0309682613868366\\
97	0.00566999940865188\\
98	0.0873416754929913\\
99	0.0216541170620393\\
100	0.0121991163843452\\
101	0.0681420689874788\\
102	0.109795480301272\\
103	0.10045994859403\\
104	0.542215845924213\\
105	0.12574846217401\\
106	0.029810597398788\\
107	0.0910953489343558\\
108	0.062084998105835\\
109	0.0629182778643661\\
110	0.138915604799309\\
111	0.0411151417641896\\
112	0.0591642000492947\\
113	0.0305924558828063\\
114	0.0181183614822767\\
115	0.0220090477136226\\
116	0.0160577192881952\\
117	0.0209896799830914\\
118	0.0260603422841447\\
119	0.0234032700324229\\
120	0.131389037217865\\
121	0.0886356766385426\\
122	0.069910053244441\\
123	0.21148242470791\\
124	0.171824180146484\\
125	0.085061644948613\\
126	0.0613003169410654\\
127	0.00561020784456769\\
128	0.0413053028119369\\
129	0.0206740855404612\\
130	0.0111271491039428\\
131	0.0208767544923004\\
132	0.0278998975183129\\
133	0.0185340616414587\\
134	0.00749825387819856\\
135	0.0247460517223415\\
136	0.0259833466408413\\
137	0.0357279535635425\\
138	0.0318836289855316\\
139	0.0720881424921575\\
140	0.0632409460881364\\
141	0.0293232652830138\\
142	0.0269881414727703\\
143	0.0321675043103983\\
144	0.0166800527429765\\
145	0.0121546653679649\\
146	0.0264052215065565\\
147	0.00743374350979774\\
148	0.00885055248863789\\
149	0.00942159675417997\\
150	0.0107954307063621\\
151	0.0133896893247381\\
152	0.00518223952773638\\
153	0.0170879837478093\\
154	0.00300834640916733\\
155	0.00607658189002832\\
156	0.0353466302444865\\
157	0.0239292835332279\\
158	0.0160691552970183\\
159	0.0207077190200784\\
160	0.00452024466863914\\
161	0.0113668443390605\\
162	0.0205245234864609\\
163	0.00225739394530247\\
164	0.0125666842300837\\
165	0.00668792467098978\\
166	0.00499227514258863\\
167	0.00861808999172117\\
168	0.0086328969822541\\
169	0.00832688094036821\\
170	0.00595435099896647\\
171	0.00262820799908307\\
172	0.0109274072183903\\
173	0.0150278782899822\\
174	0.00260533486743325\\
175	0.00763485516910948\\
176	0.00789124864815701\\
177	0.00620166354382101\\
178	0.00838754710477328\\
179	0.00972505509854243\\
180	0.00726218581049898\\
181	0.0023839205733077\\
182	0.00454525023042251\\
183	0.00159733840216139\\
184	0.00467437155290361\\
185	0.00431817192508351\\
186	0.00053315017853827\\
187	0.00265274797494788\\
188	0.000560812353422723\\
189	0.0049099579532262\\
190	0.00167873961456608\\
191	0.00305688018604197\\
192	0.00297562070947397\\
193	0.00327306806286048\\
194	0.00188012622903489\\
195	0.00201742046463126\\
196	0.00349228102917657\\
197	0.00263150493801807\\
198	0.000485950049015098\\
199	0.002208477193267\\
};
\addlegendentry{$\mathbf{\hat{h}_{1}}$}

\addplot [color=mycolor2]
  table[row sep=crcr]{%
0	6.71678688890069e-05\\
1	3.1814643050607e-05\\
2	4.16523398595926e-05\\
3	7.52498946731009e-05\\
4	0.000104478313999862\\
5	0.000219337353622011\\
6	0.000150079479313248\\
7	0.000306497020228584\\
8	0.000317435310664788\\
9	0.000158681096434571\\
10	0.000628053676119394\\
11	0.00068006404726742\\
12	0.000802493832247059\\
13	0.000744778970937804\\
14	0.000767448728971466\\
15	0.00240847339913337\\
16	0.000665403159778429\\
17	0.00383559469888018\\
18	0.00509317931551249\\
19	0.0012805973661839\\
20	0.00268831895251996\\
21	0.00231513939920277\\
22	0.00499188246237981\\
23	0.00530492058738079\\
24	0.00246318849091135\\
25	0.00628170628069108\\
26	0.00248984199265049\\
27	0.00722268573802299\\
28	0.00342689500348698\\
29	0.00435669516938281\\
30	0.0071820913034536\\
31	0.00450749524237342\\
32	0.000843992583993284\\
33	0.00430223538335888\\
34	0.00945567725497506\\
35	0.00257931601735156\\
36	0.000920967169843337\\
37	0.00588079458081481\\
38	0.00248054343788107\\
39	0.00601378449078908\\
40	0.00639061448650802\\
41	0.0100144775028083\\
42	0.00514321824945499\\
43	0.0140023341435178\\
44	0.0221727366554911\\
45	0.0105574477673443\\
46	0.0105451287069676\\
47	0.0169000638043547\\
48	0.0141952513237019\\
49	0.00855895960648039\\
50	0.0178564124107734\\
51	0.00370235687893124\\
52	0.00377104836568195\\
53	0.0058664395079901\\
54	0.00190352388364152\\
55	0.00614143460963524\\
56	0.00185967990892999\\
57	0.013809217488525\\
58	0.008532916717842\\
59	0.0115417721557492\\
60	0.0351690487157323\\
61	0.0273865399889324\\
62	0.0118237977810812\\
63	0.0536271541946466\\
64	0.0340396743176845\\
65	0.0298158758350636\\
66	0.032414548557829\\
67	0.0214030776783383\\
68	0.00957325266504717\\
69	0.0164431121706046\\
70	0.00865170577448698\\
71	0.00813578750559812\\
72	0.00370809374984904\\
73	0.0190680436990486\\
74	0.00567276287152973\\
75	0.0080026653486191\\
76	0.0360749297156266\\
77	0.0312886799559101\\
78	0.0123964026113916\\
79	0.0486529392476374\\
80	0.065690681995733\\
81	0.046691069687867\\
82	0.0201505257265806\\
83	0.157228872278058\\
84	0.0220898727703974\\
85	0.0122667318691934\\
86	0.0365025679457463\\
87	0.0226609830904775\\
88	0.0485369278985823\\
89	0.0380901708473456\\
90	0.0138261392794207\\
91	0.0274030025952267\\
92	0.0122629780439692\\
93	0.0326894704520212\\
94	0.0174093030088949\\
95	0.00911945645446805\\
96	0.0874857462081098\\
97	0.0729354347702538\\
98	0.0343915601488795\\
99	0.925947757355235\\
100	0.0343959206521311\\
101	0.0729163001357126\\
102	0.087454328407427\\
103	0.00904494571120709\\
104	0.0173429779324659\\
105	0.0326712864267155\\
106	0.0123078404356173\\
107	0.0274026384468519\\
108	0.0137659952622235\\
109	0.0381068099593416\\
110	0.048678115016474\\
111	0.0229437999115753\\
112	0.0366103949161524\\
113	0.0126137529712413\\
114	0.0218729465667179\\
115	0.156803508138816\\
116	0.0197745382535659\\
117	0.0470305843611387\\
118	0.065725717055969\\
119	0.0486876821453157\\
120	0.0125419976338597\\
121	0.0315822154405161\\
122	0.0351489110177548\\
123	0.0077275262374954\\
124	0.00551638023778953\\
125	0.0186416129771128\\
126	0.00355295840128155\\
127	0.00767463421379792\\
128	0.00816562153750242\\
129	0.0162013204498078\\
130	0.00945206711529066\\
131	0.0207554610167334\\
132	0.0322228719655261\\
133	0.0296178062230516\\
134	0.033606942536258\\
135	0.0522554632812292\\
136	0.011664874599086\\
137	0.0257658771910029\\
138	0.0344019846230162\\
139	0.0112914026449154\\
140	0.00936457548319668\\
141	0.0141083443794018\\
142	0.00278801404371542\\
143	0.0063819963363514\\
144	0.00187845337721321\\
145	0.00392553957002633\\
146	0.00528677176565062\\
147	0.00466789601855155\\
148	0.0135654509688759\\
149	0.00748250171588411\\
150	0.0135402733810065\\
151	0.0150283205656991\\
152	0.00997902722064129\\
153	0.00849625455680728\\
154	0.0187566844456787\\
155	0.0120056213555077\\
156	0.00508305623392643\\
157	0.00945296285093053\\
158	0.00481624294141606\\
159	0.00471062330906356\\
160	0.00205527165811073\\
161	0.00465255091915757\\
162	0.0012544986189367\\
163	0.00325128030663626\\
164	0.00658723498151364\\
165	0.00306249919264518\\
166	0.00215716984016664\\
167	0.00491304907530962\\
168	0.00694521609673361\\
169	0.00371100993208916\\
170	0.0013220972764364\\
171	0.00555491602764331\\
172	0.00101530899217808\\
173	0.00467288009267326\\
174	0.00352277281030677\\
175	0.00209697519389784\\
176	0.00232990729003232\\
177	0.000710050186074614\\
178	0.00140805073570556\\
179	0.00171591395131155\\
180	0.00178679338470032\\
181	0.00160981292256288\\
182	0.0013774551368055\\
183	0.000420547266587966\\
184	0.000849580810364051\\
185	0.000752952668548377\\
186	0.000412966330814849\\
187	0.000837295498293882\\
188	0.000381341426989377\\
189	0.000783514784597865\\
190	0.000552336578916449\\
191	0.00023248657444878\\
192	0.000356287457994975\\
193	6.66247106467321e-05\\
194	0.000368701872044649\\
195	0.000156674999158464\\
196	0.00015144562551882\\
197	6.59415352452719e-05\\
198	0.0001399015695227\\
199	0.000126116750544114\\
};
\addlegendentry{$\mathbf{\hat{h}_{2}}$}

\end{axis}
\end{tikzpicture}%