% This file was created by matlab2tikz.
%
%The latest updates can be retrieved from
%  http://www.mathworks.com/matlabcentral/fileexchange/22022-matlab2tikz-matlab2tikz
%where you can also make suggestions and rate matlab2tikz.
%
\definecolor{mycolor1}{rgb}{0.00000,0.44700,0.74100}%
\definecolor{mycolor2}{rgb}{0.85000,0.32500,0.09800}%
%
\begin{tikzpicture}

\begin{axis}[%
width=1.935in,
height=3.2in,
at={(0.758in,0.512in)},
scale only axis,
xmin=0,
xmax=200,
xlabel style={font=\color{white!15!black}, align=center},
xlabel={Sample Index\\[1ex](a) Actual},
ymin=0,
ymax=1,
axis background/.style={fill=white},
legend style={legend cell align=left, align=left, draw=white!15!black}
]
\addplot [color=mycolor1]
  table[row sep=crcr]{%
1	0.0167418731260698\\
2	0.018659722218203\\
3	0.0211495716349754\\
4	0.0245407494314006\\
5	0.029505643974117\\
6	0.0377161636169434\\
7	0.0550750576238134\\
8	0.131028403455825\\
9	0.141533477104454\\
10	0.158175166246243\\
11	0.163761757297189\\
12	0.600100605556833\\
13	0.118033417583129\\
14	0.0610914209628117\\
15	0.0426162246246858\\
16	0.0332715711707656\\
17	0.0321939439283243\\
18	0.0268871008873183\\
19	0.0316920608120786\\
20	0.0286771919664519\\
21	0.00773119825769845\\
22	0.0330073087209196\\
23	0.019415059292473\\
24	0.0177688778425817\\
25	0.0188194600762088\\
26	0.0237714798713867\\
27	0.0430806655948836\\
28	0.586023006720236\\
29	0.0970905103802927\\
30	0.0246981078960262\\
31	0.0780346253424249\\
32	0.0580455436901626\\
33	0.0681836526256362\\
34	0.163824852865525\\
35	0.0446106828365612\\
36	0.06119675966513\\
37	0.00907835157153909\\
38	0.0310093774848825\\
39	0.00125972832884384\\
40	0.005422098150711\\
41	0.0107374596162295\\
42	0.0165479326643041\\
43	0.024789327411243\\
44	0.0446277431282512\\
45	0.058019450740893\\
46	0.074843365423057\\
47	0.199666615467323\\
48	0.216838516027539\\
49	0.0783890355452335\\
50	0.0495529240878659\\
51	0.0370791446049236\\
52	0.0307530810094058\\
53	0.0155757068681131\\
54	0.0198807977432187\\
55	0.0179871495341263\\
56	0.0162887905400521\\
57	0.0148728268904216\\
58	0.0136909847461918\\
59	0.0126943671543235\\
60	0.011846112844806\\
61	0.0111233301448608\\
62	0.0105291449791113\\
63	0.0102108676347222\\
64	0.00751288118280402\\
65	0.00739035992869396\\
66	0.0116365722557393\\
67	0.00899390796280924\\
68	0.00831157148096884\\
69	0.00788086875151191\\
70	0.00754217236777393\\
71	0.00725475830161164\\
72	0.00700327644843893\\
73	0.006780818536885\\
74	0.00658453626015097\\
75	0.00641472878078445\\
76	0.00627599401250467\\
77	0.00618216997550965\\
78	0.00617516728867787\\
79	0.00642745729543014\\
80	0.00873051939586948\\
81	0.00471465923588381\\
82	0.00195996010568866\\
83	0.004980313957114\\
84	0.00475839614864904\\
85	0.00464733241660508\\
86	0.00455444244400457\\
87	0.00446749239384432\\
88	0.00438406292262191\\
89	0.00430366820355207\\
90	0.00422628355118023\\
91	0.00415201532524293\\
92	0.00408104289588831\\
93	0.00401365198230764\\
94	0.00395033763548775\\
95	0.00389203620501121\\
96	0.00384070443755282\\
97	0.00380107128140597\\
98	0.00378779867734327\\
99	0.00387836096292209\\
100	0.00228454900881806\\
101	0.00321909463290553\\
102	0.00328982387499096\\
103	0.00328100374444436\\
104	0.00325253146337885\\
105	0.00321692683031362\\
106	0.00317840637543852\\
107	0.00313876414674543\\
108	0.00309887602618152\\
109	0.00305920797263281\\
110	0.00302002111537278\\
111	0.00298146552488656\\
112	0.00294362726599965\\
113	0.0029065537719176\\
114	0.00287026833389302\\
115	0.00283477876811283\\
116	0.00280008280049957\\
117	0.00276617151884636\\
118	0.00273303164395387\\
119	0.00270064705586787\\
120	0.00266899983729428\\
121	0.00263807099659409\\
122	0.00260784097374635\\
123	0.00257828999668392\\
124	0.00254939833288439\\
125	0.00252114646667125\\
126	0.00249351522323938\\
127	0.00246648585412356\\
128	0.00244004009455901\\
129	0.00241416020024051\\
130	0.00238882896892876\\
131	0.0023640297508985\\
132	0.00233974645117835\\
133	0.00231596352577768\\
134	0.00229266597354371\\
135	0.00226983932488367\\
136	0.00224746962828519\\
137	0.00222554343533969\\
138	0.00220404778480324\\
139	0.00218297018609978\\
140	0.00216229860257188\\
141	0.00214202143470905\\
142	0.00212212750352594\\
143	0.00210260603421662\\
144	0.00208344664017788\\
145	0.00206463930746792\\
146	0.00204617437974413\\
147	0.00202804254371082\\
148	0.00201023481509265\\
149	0.00199274252514179\\
150	0.00197555730767936\\
151	0.0019586710866655\\
152	0.00194207606428942\\
153	0.00192576470956709\\
154	0.00190972974743187\\
155	0.00189396414830307\\
156	0.00187846111811499\\
157	0.00186321408878906\\
158	0.00184821670913216\\
159	0.00183346283614256\\
160	0.00181894652670628\\
161	0.00180466202966742\\
162	0.00179060377825436\\
163	0.00177676638284649\\
164	0.00176314462406556\\
165	0.00174973344617591\\
166	0.0017365279507797\\
167	0.00172352339079259\\
168	0.00171071516468654\\
169	0.00169809881098722\\
170	0.00168567000301325\\
171	0.00167342454384613\\
172	0.00166135836151948\\
173	0.00164946750441694\\
174	0.00163774813686889\\
175	0.00162619653493841\\
176	0.00161480908238697\\
177	0.00160358226681213\\
178	0.001592512675948\\
179	0.00158159699412143\\
180	0.00157083199885632\\
181	0.00156021455761888\\
182	0.00154974162469766\\
183	0.00153941023821136\\
184	0.00152921751723897\\
185	0.00151916065906659\\
186	0.00150923693654504\\
187	0.00149944369555362\\
188	0.00148977835256491\\
189	0.00148023839230615\\
190	0.0014708213655126\\
191	0.00146152488676917\\
192	0.00145234663243548\\
193	0.00144328433865201\\
194	0.00143433579942216\\
195	0.0014254988647679\\
196	0.00141677143895562\\
197	0.00140815147878894\\
198	0.00139963699196521\\
199	0\\
200	0\\
};
\addlegendentry{$\mathbf{h_1}$}

\addplot [color=mycolor2]
  table[row sep=crcr]{%
1	0.00495033386861547\\
2	0.00515738368500011\\
3	0.00538309861623286\\
4	0.00563019833310769\\
5	0.00590197136255583\\
6	0.00620243506959928\\
7	0.00653655369620811\\
8	0.00691054090538825\\
9	0.00733228812251618\\
10	0.00781198494389501\\
11	0.00836304134465097\\
12	0.0090034999823859\\
13	0.00975827527656913\\
14	0.0106628508662167\\
15	0.0117696896019869\\
16	0.0131600228416925\\
17	0.0149671880151623\\
18	0.0174273921400842\\
19	0.0210049332363351\\
20	0.0267613442180004\\
21	0.037792597580649\\
22	0.068721841139076\\
23	0.97572931769219\\
24	0.0649085399616321\\
25	0.0262918397391367\\
26	0.0126468169615953\\
27	0.00419508123086451\\
28	0.0214241856295046\\
29	0.0134643328328179\\
30	0.00412679327935559\\
31	0.0112712342656943\\
32	0.0282552508318709\\
33	0.111702725947746\\
34	0.12653020104749\\
35	0.0361926668223949\\
36	0.024130019396178\\
37	0.019518168382204\\
38	0.0163235660243771\\
39	0.0140849625225472\\
40	0.0124312948441269\\
41	0.0111552918846637\\
42	0.0101369616841952\\
43	0.00930266674553233\\
44	0.00860476970863487\\
45	0.00801105372801389\\
46	0.00749890841387189\\
47	0.00705196472677567\\
48	0.00665805661850076\\
49	0.0063079366485928\\
50	0.00599443852440938\\
51	0.00571191453485358\\
52	0.00545584764793091\\
53	0.0052225778141873\\
54	0.00500910486747672\\
55	0.00481294397681212\\
56	0.00463201789166602\\
57	0.00446457542356871\\
58	0.00430912894812168\\
59	0.00416440590497024\\
60	0.00402931074167137\\
61	0.00390289474814389\\
62	0.00378433192171684\\
63	0.00367289949042518\\
64	0.0035679620699816\\
65	0.00346895868109233\\
66	0.00337539203747226\\
67	0.00328681965070268\\
68	0.00320284639950925\\
69	0\\
70	0\\
71	0\\
72	0\\
73	0\\
74	0\\
75	0\\
76	0\\
77	0\\
78	0\\
79	0\\
80	0\\
81	0\\
82	0\\
83	0\\
84	0\\
85	0\\
86	0\\
87	0\\
88	0\\
89	0\\
90	0\\
91	0\\
92	0\\
93	0\\
94	0\\
95	0\\
96	0\\
97	0\\
98	0\\
99	0\\
100	0\\
101	0\\
102	0\\
103	0\\
104	0\\
105	0\\
106	0\\
107	0\\
108	0\\
109	0\\
110	0\\
111	0\\
112	0\\
113	0\\
114	0\\
115	0\\
116	0\\
117	0\\
118	0\\
119	0\\
120	0\\
121	0\\
122	0\\
123	0\\
124	0\\
125	0\\
126	0\\
127	0\\
128	0\\
129	0\\
130	0\\
131	0\\
132	0\\
133	0\\
134	0\\
135	0\\
136	0\\
137	0\\
138	0\\
139	0\\
140	0\\
141	0\\
142	0\\
143	0\\
144	0\\
145	0\\
146	0\\
147	0\\
148	0\\
149	0\\
150	0\\
151	0\\
152	0\\
153	0\\
154	0\\
155	0\\
156	0\\
157	0\\
158	0\\
159	0\\
160	0\\
161	0\\
162	0\\
163	0\\
164	0\\
165	0\\
166	0\\
167	0\\
168	0\\
169	0\\
170	0\\
171	0\\
172	0\\
173	0\\
174	0\\
175	0\\
176	0\\
177	0\\
178	0\\
179	0\\
180	0\\
181	0\\
182	0\\
183	0\\
184	0\\
185	0\\
186	0\\
187	0\\
188	0\\
189	0\\
190	0\\
191	0\\
192	0\\
193	0\\
194	0\\
195	0\\
196	0\\
197	0\\
198	0\\
199	0\\
200	0\\
};
\addlegendentry{$\mathbf{h_{2}}$}

\end{axis}

\begin{axis}[%
width=1.935in,
height=3.2in,
at={(3.327in,0.512in)},
scale only axis,
xmin=0,
xmax=200,
xlabel style={font=\color{white!15!black}, align=center},
xlabel={Sample Index\\[1ex](b) Estimated},
ymin=0,
ymax=0.25,
axis background/.style={fill=white},
legend style={legend cell align=left, align=left, draw=white!15!black}
]
\addplot [color=mycolor1]
  table[row sep=crcr]{%
0	0.0105501283558533\\
1	0.0310709337830627\\
2	0.0455569245214735\\
3	0.0198163448933603\\
4	0.00988713263228008\\
5	0.0467834216783818\\
6	0.0325511274552025\\
7	0.0311945878438469\\
8	0.0526693542663565\\
9	0.055332207199069\\
10	0.0282666739982293\\
11	0.0540832430217947\\
12	0.0284143772520477\\
13	0.0625053640108942\\
14	0.0552424561097126\\
15	0.0923603512963873\\
16	0.0827502798790567\\
17	0.0860935152970402\\
18	0.0414271273975917\\
19	0.0533876960082975\\
20	0.164025281940281\\
21	0.0362204931489917\\
22	0.0961658031919942\\
23	0.0474708226679776\\
24	0.0144246892060778\\
25	0.107397666107636\\
26	0.0313095923975679\\
27	0.0766672559488071\\
28	0.0823102229268332\\
29	0.0800311099457486\\
30	0.127876529745848\\
31	0.039403806694762\\
32	0.0385391986243111\\
33	0.0465345821696399\\
34	0.069232562662411\\
35	0.0866176900468623\\
36	0.172740361398811\\
37	0.0354745537957913\\
38	0.0924634346467137\\
39	0.0869621192242689\\
40	0.089602758681284\\
41	0.160493966231941\\
42	0.0491147955072496\\
43	0.0684476208778373\\
44	0.172302450631707\\
45	0.0587713201058491\\
46	0.0414976774466986\\
47	0.10783325536528\\
48	0.043046254670819\\
49	0.0365508505278627\\
50	0.13356683278983\\
51	0.0676934258650079\\
52	0.0839370815828976\\
53	0.114997374909729\\
54	0.0895099725856824\\
55	0.0310720017120268\\
56	0.0602039956801347\\
57	0.0529111462298743\\
58	0.0534398087960622\\
59	0.0896001212954306\\
60	0.0185916591656735\\
61	0.144302683412013\\
62	0.0934982939896\\
63	0.0752099780053794\\
64	0.159096319840371\\
65	0.0739133083288471\\
66	0.185238499893647\\
67	0.093461701976336\\
68	0.117671351614023\\
69	0.0808463486985107\\
70	0.0441092204887641\\
71	0.105272896715562\\
72	0.0667290642320608\\
73	0.0964042002477696\\
74	0.063905976709203\\
75	0.046515674778118\\
76	0.0854677863552507\\
77	0.0146378357005311\\
78	0.108091930963658\\
79	0.0310599924019651\\
80	0.178494808477448\\
81	0.142766703527765\\
82	0.0521566628090357\\
83	0.0116116015103144\\
84	0.0129012944024355\\
85	0.060445735773503\\
86	0.0603055991860993\\
87	0.092593610949039\\
88	0.0635673244619574\\
89	0.0566087940661388\\
90	0.0974430570202987\\
91	0.0873664753241521\\
92	0.0371484965784274\\
93	0.0331043874646947\\
94	0.0805516879692931\\
95	0.0559660923925257\\
96	0.0223559330427658\\
97	0.0730461066388191\\
98	0.0261759860172728\\
99	0.0364554500339372\\
100	0.0110027959746426\\
101	0.054318442030439\\
102	0.118235662674942\\
103	0.0773737991070923\\
104	0.0265508018478185\\
105	0.0857351961227131\\
106	0.0254940283201053\\
107	0.0779204865067732\\
108	0.0384866321462299\\
109	0.0937353530506183\\
110	0.0283479848484794\\
111	0.0135737741994108\\
112	0.134248969036928\\
113	0.02213609221152\\
114	0.0543732611181421\\
115	0.0837221487762752\\
116	0.0383888755633662\\
117	0.0984646850618243\\
118	0.0318566368785396\\
119	0.0732979246928887\\
120	0.115523578649614\\
121	0.128063528960373\\
122	0.0731184124279287\\
123	0.102318554707855\\
124	0.0209906470674541\\
125	0.0291669290021717\\
126	0.0298687015534999\\
127	0.0808353015499864\\
128	0.0467233640437253\\
129	0.0773395471443391\\
130	0.0655893593263546\\
131	0.0220548723693915\\
132	0.103870386698768\\
133	0.124697852240107\\
134	0.047806695419013\\
135	0.0212876124143944\\
136	0.0350063652670734\\
137	0.10702229077562\\
138	0.0541247014306104\\
139	0.12223044857263\\
140	0.069243021674711\\
141	0.0629109337425463\\
142	0.125125954145786\\
143	0.0906586005776659\\
144	0.0342707817555488\\
145	0.0625154930612054\\
146	0.0423666460708566\\
147	0.0462875035218662\\
148	0.0687739053960739\\
149	0.0201323398560791\\
150	0.017485679842863\\
151	0.0308533545825569\\
152	0.0651948760059289\\
153	0.0284870677155083\\
154	0.0480231500394643\\
155	0.0364873430916943\\
156	0.0778230907146149\\
157	0.0375378695201283\\
158	0.0388199578676602\\
159	0.0106587416341826\\
160	0.082186101693942\\
161	0.023197253972014\\
162	0.0699426174014771\\
163	0.083082057821856\\
164	0.0319062414991093\\
165	0.0687791748368255\\
166	0.0327276609698747\\
167	0.0382214659554728\\
168	0.0766885535552732\\
169	0.0321422611723446\\
170	0.0520601208640914\\
171	0.0209390381872524\\
172	0.0264893349618265\\
173	0.0480818781645089\\
174	0.0205699896376504\\
175	0.0426993350359138\\
176	0.0158437578332939\\
177	0.0339929644213837\\
178	0.0211474732831845\\
179	0.0370017191228702\\
180	0.00976061875691698\\
181	0.0169844555992753\\
182	0.00789668943639732\\
183	0.0180576661635638\\
184	0.0163024468352446\\
185	0.0104824906511716\\
186	0.00440198217683021\\
187	0.000184975437824058\\
188	0.0283200704230053\\
189	0.0227107632064801\\
190	0.000310487879911903\\
191	0.00695190584073551\\
192	0.00829010731559806\\
193	0.00963221549615905\\
194	0.00687905381430242\\
195	0.0090686586319315\\
196	0.00413889973543178\\
197	0.000869407965890704\\
198	0.00509539714198155\\
199	0.0191784928992694\\
};
\addlegendentry{$\mathbf{\hat{h}_{1}}$}

\addplot [color=mycolor2]
  table[row sep=crcr]{%
0	0.0005435445920426\\
1	0.00179683892972505\\
2	0.00202542820353468\\
3	0.00172869981976697\\
4	0.000581914534472549\\
5	0.000884017021946874\\
6	0.00252025587329793\\
7	0.00494073724124543\\
8	0.00416240808562402\\
9	0.00259243314924072\\
10	0.00828682885615342\\
11	0.0214017202867498\\
12	0.013935436014508\\
13	0.0271325546930221\\
14	0.0549155507851783\\
15	0.0196559236132364\\
16	0.0768785091512184\\
17	0.0195228041683963\\
18	0.00992543860303413\\
19	0.121107285269161\\
20	0.0476853843220017\\
21	0.0329267040453157\\
22	0.0492959509485114\\
23	0.0495543222924749\\
24	0.0704540324088902\\
25	0.0511292707571484\\
26	0.116908307165586\\
27	0.0484809581158633\\
28	0.0777757759893203\\
29	0.0687686360562193\\
30	0.0674935865934964\\
31	0.226275321719651\\
32	0.058318815776324\\
33	0.0645732504518347\\
34	0.0309147935197699\\
35	0.177884507488853\\
36	0.0700912656868964\\
37	0.0975123734034492\\
38	0.163268386213106\\
39	0.149221419421827\\
40	0.117182717679027\\
41	0.0801937480609178\\
42	0.108797672485671\\
43	0.0736142297655154\\
44	0.0159997076861909\\
45	0.0553454974590716\\
46	0.0838076605048096\\
47	0.129815293014688\\
48	0.0628511305549383\\
49	0.0954070517632095\\
50	0.0497149737024152\\
51	0.0506438088155266\\
52	0.168670850241984\\
53	0.111492714262714\\
54	0.153428146633299\\
55	0.0843795031653757\\
56	0.079303566686096\\
57	0.146531694166685\\
58	0.0416523402801074\\
59	0.0199583626709782\\
60	0.0318276291571509\\
61	0.13178453619838\\
62	0.151617387185414\\
63	0.135095844106605\\
64	0.065532408983253\\
65	0.094070237824925\\
66	0.13107512067426\\
67	0.0388643752206415\\
68	0.091239181582394\\
69	0.0768299525649538\\
70	0.0490194983301182\\
71	0.0407273146645051\\
72	0.125088423419847\\
73	0.0112041305663346\\
74	0.0364406815253953\\
75	0.0651743666157163\\
76	0.10318478903396\\
77	0.133161117795245\\
78	0.0731658563800738\\
79	0.106156269592607\\
80	0.121799222182747\\
81	0.0359528770046393\\
82	0.0539830142657474\\
83	0.0495477784691948\\
84	0.038973672113109\\
85	0.0603100160588602\\
86	0.069221512457761\\
87	0.0691240596321116\\
88	0.09793259173448\\
89	0.0736458764221646\\
90	0.0387686691081751\\
91	0.0476729448620822\\
92	0.0887316045075174\\
93	0.0592137747888867\\
94	0.0585404154763565\\
95	0.0972279421700935\\
96	0.0460092829427493\\
97	0.0353486636087182\\
98	0.100381625712618\\
99	0.113784719234733\\
100	0.0911678858579637\\
101	0.021425396283462\\
102	0.0810977855490161\\
103	0.0684345131069759\\
104	0.0577035961544636\\
105	0.0501433492889203\\
106	0.00728761233178657\\
107	0.0259832333326687\\
108	0.0698367099967723\\
109	0.091494369225716\\
110	0.03926930000589\\
111	0.0163562480878182\\
112	0.0398081045359656\\
113	0.033266479633551\\
114	0.0154490110052567\\
115	0.127327002176547\\
116	0.0231599977428306\\
117	0.0490255067412578\\
118	0.0323501474068966\\
119	0.0168045988907718\\
120	0.0369206658583126\\
121	0.0238426078166416\\
122	0.0884670287260713\\
123	0.0592766610348298\\
124	0.0302937348663072\\
125	0.0629196363232389\\
126	0.0137353442220824\\
127	0.149287127205551\\
128	0.0988668331116334\\
129	0.0438956977756244\\
130	0.0125614104716503\\
131	0.103918162835726\\
132	0.115911187817554\\
133	0.0749191715326936\\
134	0.0856155963095647\\
135	0.0168479779705946\\
136	0.0925656555945766\\
137	0.166566756412387\\
138	0.103054510694197\\
139	0.127538197994315\\
140	0.106677951186596\\
141	0.0461750441188933\\
142	0.0267644107241014\\
143	0.0376081018728685\\
144	0.0208278508418718\\
145	0.0221106016365166\\
146	0.0430363266864671\\
147	0.102893323257694\\
148	0.0797667151920278\\
149	0.0304898600981674\\
150	0.0791432507334386\\
151	0.0964016011500452\\
152	0.0338477800764144\\
153	0.0307476202431101\\
154	0.0481442261174371\\
155	0.0261588009576447\\
156	0.0623044929160215\\
157	0.0422080042673789\\
158	0.0507479239119463\\
159	0.015511969836903\\
160	0.0515414051594362\\
161	0.0426952223068525\\
162	0.0624975312854212\\
163	0.0563656078420149\\
164	0.0238331832122712\\
165	0.0685778565934232\\
166	0.023981362631154\\
167	0.00985555267007391\\
168	0.0256776087509003\\
169	0.00596458772364867\\
170	0.0244651310083413\\
171	0.026092062824677\\
172	0.0181831147173643\\
173	0.0155012844097809\\
174	0.0217893827769592\\
175	0.0362151473298196\\
176	0.00630765412231325\\
177	0.00284298541542124\\
178	0.00771581207607305\\
179	0.0118937976517762\\
180	0.00958252364543403\\
181	0.00772920486868012\\
182	0.000772356147768872\\
183	0.00557048257818844\\
184	0.00661153450648165\\
185	0.00886698514707141\\
186	0.0085374166313023\\
187	0.00316540471414554\\
188	0.00372766754611015\\
189	0.00240493832012695\\
190	0.00497981915530404\\
191	0.00621574444409961\\
192	0.00283403581563421\\
193	0.0033685138765021\\
194	0.00143621676725858\\
195	0.00191471291944039\\
196	0.00140796713936388\\
197	0.00123653595120015\\
198	0.00190991955399102\\
199	0.00225080717075515\\
};
\addlegendentry{$\mathbf{\hat{h}_{2}}$}

\end{axis}
\end{tikzpicture}%