% This file was created by matlab2tikz.
%
%The latest updates can be retrieved from
%  http://www.mathworks.com/matlabcentral/fileexchange/22022-matlab2tikz-matlab2tikz
%where you can also make suggestions and rate matlab2tikz.
%
\definecolor{mycolor1}{rgb}{0.00000,0.44700,0.74100}%
\definecolor{mycolor2}{rgb}{0.85000,0.32500,0.09800}%
%
\begin{tikzpicture}

\begin{axis}[%
width=1.935in,
height=3.2in,
at={(0.758in,0.512in)},
scale only axis,
xmin=0,
xmax=200,
xlabel style={font=\color{white!15!black}, align=center},
xlabel={Sample Index\\[1ex](a) Actual},
ymin=0,
ymax=1,
axis background/.style={fill=white},
legend style={legend cell align=left, align=left, draw=white!15!black}
]
\addplot [color=mycolor1]
  table[row sep=crcr]{%
1	0.0167418731260698\\
2	0.018659722218203\\
3	0.0211495716349754\\
4	0.0245407494314006\\
5	0.029505643974117\\
6	0.0377161636169434\\
7	0.0550750576238134\\
8	0.131028403455825\\
9	0.141533477104454\\
10	0.158175166246243\\
11	0.163761757297189\\
12	0.600100605556833\\
13	0.118033417583129\\
14	0.0610914209628117\\
15	0.0426162246246858\\
16	0.0332715711707656\\
17	0.0321939439283243\\
18	0.0268871008873183\\
19	0.0316920608120786\\
20	0.0286771919664519\\
21	0.00773119825769845\\
22	0.0330073087209196\\
23	0.019415059292473\\
24	0.0177688778425817\\
25	0.0188194600762088\\
26	0.0237714798713867\\
27	0.0430806655948836\\
28	0.586023006720236\\
29	0.0970905103802927\\
30	0.0246981078960262\\
31	0.0780346253424249\\
32	0.0580455436901626\\
33	0.0681836526256362\\
34	0.163824852865525\\
35	0.0446106828365612\\
36	0.06119675966513\\
37	0.00907835157153909\\
38	0.0310093774848825\\
39	0.00125972832884384\\
40	0.005422098150711\\
41	0.0107374596162295\\
42	0.0165479326643041\\
43	0.024789327411243\\
44	0.0446277431282512\\
45	0.058019450740893\\
46	0.074843365423057\\
47	0.199666615467323\\
48	0.216838516027539\\
49	0.0783890355452335\\
50	0.0495529240878659\\
51	0.0370791446049236\\
52	0.0307530810094058\\
53	0.0155757068681131\\
54	0.0198807977432187\\
55	0.0179871495341263\\
56	0.0162887905400521\\
57	0.0148728268904216\\
58	0.0136909847461918\\
59	0.0126943671543235\\
60	0.011846112844806\\
61	0.0111233301448608\\
62	0.0105291449791113\\
63	0.0102108676347222\\
64	0.00751288118280402\\
65	0.00739035992869396\\
66	0.0116365722557393\\
67	0.00899390796280924\\
68	0.00831157148096884\\
69	0.00788086875151191\\
70	0.00754217236777393\\
71	0.00725475830161164\\
72	0.00700327644843893\\
73	0.006780818536885\\
74	0.00658453626015097\\
75	0.00641472878078445\\
76	0.00627599401250467\\
77	0.00618216997550965\\
78	0.00617516728867787\\
79	0.00642745729543014\\
80	0.00873051939586948\\
81	0.00471465923588381\\
82	0.00195996010568866\\
83	0.004980313957114\\
84	0.00475839614864904\\
85	0.00464733241660508\\
86	0.00455444244400457\\
87	0.00446749239384432\\
88	0.00438406292262191\\
89	0.00430366820355207\\
90	0.00422628355118023\\
91	0.00415201532524293\\
92	0.00408104289588831\\
93	0.00401365198230764\\
94	0.00395033763548775\\
95	0.00389203620501121\\
96	0.00384070443755282\\
97	0.00380107128140597\\
98	0.00378779867734327\\
99	0.00387836096292209\\
100	0.00228454900881806\\
101	0.00321909463290553\\
102	0.00328982387499096\\
103	0.00328100374444436\\
104	0.00325253146337885\\
105	0.00321692683031362\\
106	0.00317840637543852\\
107	0.00313876414674543\\
108	0.00309887602618152\\
109	0.00305920797263281\\
110	0.00302002111537278\\
111	0.00298146552488656\\
112	0.00294362726599965\\
113	0.0029065537719176\\
114	0.00287026833389302\\
115	0.00283477876811283\\
116	0.00280008280049957\\
117	0.00276617151884636\\
118	0.00273303164395387\\
119	0.00270064705586787\\
120	0.00266899983729428\\
121	0.00263807099659409\\
122	0.00260784097374635\\
123	0.00257828999668392\\
124	0.00254939833288439\\
125	0.00252114646667125\\
126	0.00249351522323938\\
127	0.00246648585412356\\
128	0.00244004009455901\\
129	0.00241416020024051\\
130	0.00238882896892876\\
131	0.0023640297508985\\
132	0.00233974645117835\\
133	0.00231596352577768\\
134	0.00229266597354371\\
135	0.00226983932488367\\
136	0.00224746962828519\\
137	0.00222554343533969\\
138	0.00220404778480324\\
139	0.00218297018609978\\
140	0.00216229860257188\\
141	0.00214202143470905\\
142	0.00212212750352594\\
143	0.00210260603421662\\
144	0.00208344664017788\\
145	0.00206463930746792\\
146	0.00204617437974413\\
147	0.00202804254371082\\
148	0.00201023481509265\\
149	0.00199274252514179\\
150	0.00197555730767936\\
151	0.0019586710866655\\
152	0.00194207606428942\\
153	0.00192576470956709\\
154	0.00190972974743187\\
155	0.00189396414830307\\
156	0.00187846111811499\\
157	0.00186321408878906\\
158	0.00184821670913216\\
159	0.00183346283614256\\
160	0.00181894652670628\\
161	0.00180466202966742\\
162	0.00179060377825436\\
163	0.00177676638284649\\
164	0.00176314462406556\\
165	0.00174973344617591\\
166	0.0017365279507797\\
167	0.00172352339079259\\
168	0.00171071516468654\\
169	0.00169809881098722\\
170	0.00168567000301325\\
171	0.00167342454384613\\
172	0.00166135836151948\\
173	0.00164946750441694\\
174	0.00163774813686889\\
175	0.00162619653493841\\
176	0.00161480908238697\\
177	0.00160358226681213\\
178	0.001592512675948\\
179	0.00158159699412143\\
180	0.00157083199885632\\
181	0.00156021455761888\\
182	0.00154974162469766\\
183	0.00153941023821136\\
184	0.00152921751723897\\
185	0.00151916065906659\\
186	0.00150923693654504\\
187	0.00149944369555362\\
188	0.00148977835256491\\
189	0.00148023839230615\\
190	0.0014708213655126\\
191	0.00146152488676917\\
192	0.00145234663243548\\
193	0.00144328433865201\\
194	0.00143433579942216\\
195	0.0014254988647679\\
196	0.00141677143895562\\
197	0.00140815147878894\\
198	0.00139963699196521\\
199	0\\
200	0\\
};
\addlegendentry{$\mathbf{h_1}$}

\addplot [color=mycolor2]
  table[row sep=crcr]{%
1	0.00495033386861547\\
2	0.00515738368500011\\
3	0.00538309861623286\\
4	0.00563019833310769\\
5	0.00590197136255583\\
6	0.00620243506959928\\
7	0.00653655369620811\\
8	0.00691054090538825\\
9	0.00733228812251618\\
10	0.00781198494389501\\
11	0.00836304134465097\\
12	0.0090034999823859\\
13	0.00975827527656913\\
14	0.0106628508662167\\
15	0.0117696896019869\\
16	0.0131600228416925\\
17	0.0149671880151623\\
18	0.0174273921400842\\
19	0.0210049332363351\\
20	0.0267613442180004\\
21	0.037792597580649\\
22	0.068721841139076\\
23	0.97572931769219\\
24	0.0649085399616321\\
25	0.0262918397391367\\
26	0.0126468169615953\\
27	0.00419508123086451\\
28	0.0214241856295046\\
29	0.0134643328328179\\
30	0.00412679327935559\\
31	0.0112712342656943\\
32	0.0282552508318709\\
33	0.111702725947746\\
34	0.12653020104749\\
35	0.0361926668223949\\
36	0.024130019396178\\
37	0.019518168382204\\
38	0.0163235660243771\\
39	0.0140849625225472\\
40	0.0124312948441269\\
41	0.0111552918846637\\
42	0.0101369616841952\\
43	0.00930266674553233\\
44	0.00860476970863487\\
45	0.00801105372801389\\
46	0.00749890841387189\\
47	0.00705196472677567\\
48	0.00665805661850076\\
49	0.0063079366485928\\
50	0.00599443852440938\\
51	0.00571191453485358\\
52	0.00545584764793091\\
53	0.0052225778141873\\
54	0.00500910486747672\\
55	0.00481294397681212\\
56	0.00463201789166602\\
57	0.00446457542356871\\
58	0.00430912894812168\\
59	0.00416440590497024\\
60	0.00402931074167137\\
61	0.00390289474814389\\
62	0.00378433192171684\\
63	0.00367289949042518\\
64	0.0035679620699816\\
65	0.00346895868109233\\
66	0.00337539203747226\\
67	0.00328681965070268\\
68	0.00320284639950925\\
69	0\\
70	0\\
71	0\\
72	0\\
73	0\\
74	0\\
75	0\\
76	0\\
77	0\\
78	0\\
79	0\\
80	0\\
81	0\\
82	0\\
83	0\\
84	0\\
85	0\\
86	0\\
87	0\\
88	0\\
89	0\\
90	0\\
91	0\\
92	0\\
93	0\\
94	0\\
95	0\\
96	0\\
97	0\\
98	0\\
99	0\\
100	0\\
101	0\\
102	0\\
103	0\\
104	0\\
105	0\\
106	0\\
107	0\\
108	0\\
109	0\\
110	0\\
111	0\\
112	0\\
113	0\\
114	0\\
115	0\\
116	0\\
117	0\\
118	0\\
119	0\\
120	0\\
121	0\\
122	0\\
123	0\\
124	0\\
125	0\\
126	0\\
127	0\\
128	0\\
129	0\\
130	0\\
131	0\\
132	0\\
133	0\\
134	0\\
135	0\\
136	0\\
137	0\\
138	0\\
139	0\\
140	0\\
141	0\\
142	0\\
143	0\\
144	0\\
145	0\\
146	0\\
147	0\\
148	0\\
149	0\\
150	0\\
151	0\\
152	0\\
153	0\\
154	0\\
155	0\\
156	0\\
157	0\\
158	0\\
159	0\\
160	0\\
161	0\\
162	0\\
163	0\\
164	0\\
165	0\\
166	0\\
167	0\\
168	0\\
169	0\\
170	0\\
171	0\\
172	0\\
173	0\\
174	0\\
175	0\\
176	0\\
177	0\\
178	0\\
179	0\\
180	0\\
181	0\\
182	0\\
183	0\\
184	0\\
185	0\\
186	0\\
187	0\\
188	0\\
189	0\\
190	0\\
191	0\\
192	0\\
193	0\\
194	0\\
195	0\\
196	0\\
197	0\\
198	0\\
199	0\\
200	0\\
};
\addlegendentry{$\mathbf{h_{2}}$}

\end{axis}

\begin{axis}[%
width=1.935in,
height=3.2in,
at={(3.327in,0.512in)},
scale only axis,
xmin=0,
xmax=209,
xlabel style={font=\color{white!15!black}, align=center},
xlabel={Sample Index\\[1ex](b) Estimated},
ymin=0,
ymax=0.25,
axis background/.style={fill=white},
legend style={legend cell align=left, align=left, draw=white!15!black}
]
\addplot [color=mycolor1]
  table[row sep=crcr]{%
0	0.0178816490070011\\
1	0.0353754814424767\\
2	0.0280282714314171\\
3	0.0421246436312402\\
4	0.0295424682051903\\
5	0.0273839758843575\\
6	0.0679745462171607\\
7	0.0641453395254989\\
8	0.0322762106635243\\
9	0.114832559232425\\
10	0.0617470292915527\\
11	0.0910122308806196\\
12	0.120417551090463\\
13	0.0226639815087027\\
14	0.0370714692671609\\
15	0.0337323704161121\\
16	0.0203676722381901\\
17	0.0487102451872222\\
18	0.0847526575793618\\
19	0.00919154075381669\\
20	0.0848202385069487\\
21	0.0596822769408551\\
22	0.11894975592046\\
23	0.113641944261163\\
24	0.0347677260552628\\
25	0.0882064274263805\\
26	0.0952806440639614\\
27	0.147709962154186\\
28	0.0782222177224098\\
29	0.0851428565212933\\
30	0.0930322846506639\\
31	0.0630412925000362\\
32	0.0648643725151673\\
33	0.0549946969894533\\
34	0.102102602173586\\
35	0.0686508964805859\\
36	0.122075482353812\\
37	0.0791731905840671\\
38	0.117555370102355\\
39	0.067371536282906\\
40	0.0661670542336466\\
41	0.0584004663841233\\
42	0.00893193458785861\\
43	0.0204927856693988\\
44	0.112270647068491\\
45	0.0765595666886785\\
46	0.0973990546395106\\
47	0.111452299750852\\
48	0.048454012670334\\
49	0.0459881535278409\\
50	0.0874808128216215\\
51	0.118729476401313\\
52	0.0392679580814345\\
53	0.0626050120037856\\
54	0.0372553887217923\\
55	0.0725370347418665\\
56	0.0203890356567634\\
57	0.0638470494713834\\
58	0.0428670628128151\\
59	0.136515399968454\\
60	0.0462384180117697\\
61	0.046523741204108\\
62	0.084399556485312\\
63	0.108936701903408\\
64	0.0504517903055939\\
65	0.122432544859178\\
66	0.0571947787357941\\
67	0.140354752459919\\
68	0.0997534652363619\\
69	0.0696296639680494\\
70	0.113954096828479\\
71	0.0499321937194581\\
72	0.0834149539307356\\
73	0.0459304995352363\\
74	0.0553256360383918\\
75	0.0949694093981373\\
76	0.0499398110662343\\
77	0.154866579669687\\
78	0.0569169226596048\\
79	0.0678626363562963\\
80	0.0101542811614928\\
81	0.0409421905622385\\
82	0.0649614712236418\\
83	0.0432554797898243\\
84	0.104991801769613\\
85	0.0578264212968209\\
86	0.114539399438005\\
87	0.00254594298547033\\
88	0.0158384857771422\\
89	0.133938566060136\\
90	0.0537229742744803\\
91	0.0648479437041823\\
92	0.0477418437341493\\
93	0.0910806476549832\\
94	0.142510257060471\\
95	0.00893009309304884\\
96	0.0830479801265455\\
97	0.0540697550963276\\
98	0.144756696470226\\
99	0.0681971243287439\\
100	0.0493955054395921\\
101	0.0755406227769761\\
102	0.0880087580907839\\
103	0.0270162705470569\\
104	0.0330389018043394\\
105	0.0406818946502653\\
106	0.0445563155857856\\
107	0.077879761613154\\
108	0.0350405319043964\\
109	0.0611952524885864\\
110	0.0318674518255077\\
111	0.0672679293338775\\
112	0.0845791625883835\\
113	0.12549629036729\\
114	0.00953032412770041\\
115	0.0306875677865972\\
116	0.0195868997806267\\
117	0.0179413584155694\\
118	0.0374638507353828\\
119	0.0279239656765861\\
120	0.107914701399436\\
121	0.0897517226075101\\
122	0.0953385174688365\\
123	0.0493535480627981\\
124	0.101048869071755\\
125	0.124811323301819\\
126	0.134805044295683\\
127	0.0735412298348225\\
128	0.0670722658685366\\
129	0.00736297206610187\\
130	0.0230423585205794\\
131	0.0715337168334906\\
132	0.107747226318773\\
133	0.102733366304881\\
134	0.150378525485826\\
135	0.042279193479884\\
136	0.106538982224264\\
137	0.0663466611700212\\
138	0.0288363977031393\\
139	0.0364728944170819\\
140	0.064799252604915\\
141	0.095948965616202\\
142	0.0568884712228176\\
143	0.0981936231744809\\
144	0.0855559217132116\\
145	0.140471493319247\\
146	0.0556906592387009\\
147	0.0408954683684129\\
148	0.0616327471750825\\
149	0.0700161487184416\\
150	0.0722642365355201\\
151	0.0654826352286756\\
152	0.0723939958605176\\
153	0.0935865309837301\\
154	0.0337929698791174\\
155	0.028914612635308\\
156	0.054131992731397\\
157	0.0700030811810987\\
158	0.0563988424415466\\
159	0.0605442976656919\\
160	0.0382822684013279\\
161	0.0617649235007188\\
162	0.0405748790431984\\
163	0.0287582898703702\\
164	0.0377706212694393\\
165	0.0466149796350998\\
166	0.0373313039611581\\
167	0.0341215044567584\\
168	0.0248829371577013\\
169	0.0696206061560743\\
170	0.0536848956769723\\
171	0.0137249353316375\\
172	0.014313893204085\\
173	0.0532216750066555\\
174	0.0155502366247436\\
175	0.0542577106786363\\
176	0.00640280487022544\\
177	0.0583673192859378\\
178	0.0472858602342506\\
179	0.0523536862952044\\
180	0.0436431878866692\\
181	0.0449713027321222\\
182	0.0193030524076857\\
183	0.0324333952593267\\
184	0.0134739963105511\\
185	0.0207217928495268\\
186	0.0133844004667459\\
187	0.0296375493809412\\
188	0.00442474672224492\\
189	0.017380724415523\\
190	0.0248766458048698\\
191	0.0169243224245341\\
192	0.0179169035813195\\
193	0.0179729051241563\\
194	0.00158965714795999\\
195	0.025382393944694\\
196	0.0240242620497138\\
197	0.026515411255488\\
198	0.0229976985133943\\
199	0.0285658643950711\\
200	0.00616107378189434\\
201	0.00777283338247393\\
202	0.00846941311432777\\
203	0.00556778357188724\\
204	0.00352022925544145\\
205	0.0174647442529403\\
206	0.0171845214528189\\
207	0.0134144705451023\\
208	0.013975175059405\\
209	0.00391783690110941\\
};
\addlegendentry{$\mathbf{\hat{h}_{1}}$}

\addplot [color=mycolor2]
  table[row sep=crcr]{%
0	0.00198661665743451\\
1	0.00212900942510405\\
2	0.00113399491342011\\
3	0.00131615382100557\\
4	0.00378006972305443\\
5	0.00398020331830326\\
6	0.00287807875652045\\
7	0.00379391201831282\\
8	0.00394222291683034\\
9	0.00360488394316644\\
10	0.00275193275787347\\
11	0.0212646889949209\\
12	0.0107375391797961\\
13	0.0247143718726347\\
14	0.0769046152432728\\
15	0.0345931849910519\\
16	0.0763759478791588\\
17	0.125009466512323\\
18	0.0796340625644469\\
19	0.00964766689444524\\
20	0.135455951447793\\
21	0.0817039009840279\\
22	0.169306315223478\\
23	0.154026353231073\\
24	0.0621092993847072\\
25	0.0273597815522616\\
26	0.0680152268156435\\
27	0.0388825507845795\\
28	0.0761126622846689\\
29	0.0678822154407469\\
30	0.0134424396034163\\
31	0.109159229866299\\
32	0.042920465233408\\
33	0.0587098372699413\\
34	0.0752321425180858\\
35	0.0417338791751154\\
36	0.0411298544701559\\
37	0.0988779801288934\\
38	0.10212176688596\\
39	0.0573296888742907\\
40	0.116916285151518\\
41	0.15754702850671\\
42	0.0389461219550479\\
43	0.0821605252298943\\
44	0.0506566410227896\\
45	0.0529981373370186\\
46	0.0636519603530521\\
47	0.0765964481086971\\
48	0.100159640120225\\
49	0.0337906611569474\\
50	0.118566487817185\\
51	0.0739184638916166\\
52	0.0519044432583052\\
53	0.0377506958992804\\
54	0.052911434828819\\
55	0.0740346701554673\\
56	0.100067916994113\\
57	0.0857973016051071\\
58	0.0833949290225717\\
59	0.0964062745902194\\
60	0.0726397628496237\\
61	0.0742086982682896\\
62	0.233855376388822\\
63	0.0787539777520929\\
64	0.0155676564127064\\
65	0.0521732046246163\\
66	0.119124215598935\\
67	0.101159143381197\\
68	0.0500195591886029\\
69	0.0911124242294625\\
70	0.140553268203368\\
71	0.0261297308329952\\
72	0.104763186112121\\
73	0.0698551120741158\\
74	0.0925498277054546\\
75	0.0445942011614071\\
76	0.0256695440867615\\
77	0.0261920673546949\\
78	0.0231687118766061\\
79	0.0857246511315507\\
80	0.105752867125206\\
81	0.061290851603182\\
82	0.0206865479002415\\
83	0.0723491765965802\\
84	0.0710153889204525\\
85	0.0750305671680903\\
86	0.0186450252176216\\
87	0.0355189919774526\\
88	0.154310982970329\\
89	0.0391201518376315\\
90	0.0721622835293164\\
91	0.0332193781320194\\
92	0.042949284330019\\
93	0.103061589837751\\
94	0.0545610472913996\\
95	0.0982847664080855\\
96	0.068033765532773\\
97	0.0590077914207576\\
98	0.0759734641513641\\
99	0.024125893696018\\
100	0.084846656512884\\
101	0.00690145092291371\\
102	0.0105823455894179\\
103	0.0380116539233625\\
104	0.0251346957479713\\
105	0.0992583822371756\\
106	0.0775581702425586\\
107	0.0963018023496239\\
108	0.0709449623040333\\
109	0.0756145376235076\\
110	0.111151642628176\\
111	0.0943317004103826\\
112	0.0234093832578861\\
113	0.0885498795768535\\
114	0.0702627539353045\\
115	0.059836770989079\\
116	0.0774732217604534\\
117	0.102633376169144\\
118	0.0978484316881912\\
119	0.119754785095018\\
120	0.0718061585641433\\
121	0.0834097019906546\\
122	0.0478579250918125\\
123	0.0235236331890084\\
124	0.0476924543987732\\
125	0.0188820492768883\\
126	0.0607413748671918\\
127	0.0599833825760358\\
128	0.0634504747479657\\
129	0.0538018301394593\\
130	0.0404103356699849\\
131	0.155693332650649\\
132	0.100787089715513\\
133	0.044608071405805\\
134	0.0710750765024537\\
135	0.0444412587813633\\
136	0.112952165661496\\
137	0.081651854635983\\
138	0.0935518402721064\\
139	0.0906638309843675\\
140	0.101223214791203\\
141	0.0676887251302634\\
142	0.102790474670009\\
143	0.0839842249901973\\
144	0.0355038118733702\\
145	0.116005069688891\\
146	0.126827441992565\\
147	0.0661349148385711\\
148	0.0815169053325369\\
149	0.0501679829645849\\
150	0.0398174652498102\\
151	0.0326766186074056\\
152	0.102488418497979\\
153	0.030002250062751\\
154	0.114202402030719\\
155	0.0482031989091924\\
156	0.124815658706657\\
157	0.0241116189897333\\
158	0.0346333067711684\\
159	0.0553859446772022\\
160	0.0607508599813099\\
161	0.0388824426473168\\
162	0.0573042786462936\\
163	0.0135885387476274\\
164	0.0173172879999247\\
165	0.0389200503070688\\
166	0.0515666028270822\\
167	0.0379129985634437\\
168	0.0341876651067238\\
169	0.0453763799892308\\
170	0.0812531818236136\\
171	0.047394893988944\\
172	0.0203121630645643\\
173	0.0155451972037019\\
174	0.0201220501041755\\
175	0.0632944863631041\\
176	0.019606966106594\\
177	0.0114087623191821\\
178	0.0344949510895994\\
179	0.0376533557154732\\
180	0.0438565531765914\\
181	0.0335511841140743\\
182	0.0139800489872065\\
183	0.020694774605922\\
184	0.0394202776777803\\
185	0.0287461709677983\\
186	0.0168638402688526\\
187	0.0086220824531642\\
188	0.0094325256544742\\
189	0.0187406235212025\\
190	0.0144942282663718\\
191	0.0119752069069945\\
192	0.0108113113843961\\
193	0.00506298455192957\\
194	0.00739717838051232\\
195	0.00756737269623658\\
196	0.00812029041310858\\
197	0.00498909584812709\\
198	0.00648796830503835\\
199	0.0040912711755431\\
200	0.00375995763495623\\
201	0.00405070348341811\\
202	0.00271779237831701\\
203	0.000828160354800511\\
204	0.0013917888699839\\
205	0.00319027226571751\\
206	0.00361120241307576\\
207	0.00353216725924887\\
208	0.00434559370441983\\
209	0.000858011374523539\\
};
\addlegendentry{$\mathbf{\hat{h}_{2}}$}

\end{axis}
\end{tikzpicture}%