% This file was created by matlab2tikz.
%
%The latest updates can be retrieved from
%  http://www.mathworks.com/matlabcentral/fileexchange/22022-matlab2tikz-matlab2tikz
%where you can also make suggestions and rate matlab2tikz.
%
\definecolor{mycolor1}{rgb}{0.00000,0.44700,0.74100}%
\definecolor{mycolor2}{rgb}{0.85000,0.32500,0.09800}%
%
\begin{tikzpicture}

\begin{axis}[%
width=1.935in,
height=3.2in,
at={(0.758in,0.512in)},
scale only axis,
xmin=0,
xmax=200,
xlabel style={font=\color{white!15!black}, align=center},
xlabel={Sample Index\\[1ex](a) Actual},
ymin=0,
ymax=1,
axis background/.style={fill=white},
legend style={legend cell align=left, align=left, draw=white!15!black}
]
\addplot [color=mycolor1]
  table[row sep=crcr]{%
1	0.0167418731260698\\
2	0.018659722218203\\
3	0.0211495716349754\\
4	0.0245407494314006\\
5	0.029505643974117\\
6	0.0377161636169434\\
7	0.0550750576238134\\
8	0.131028403455825\\
9	0.141533477104454\\
10	0.158175166246243\\
11	0.163761757297189\\
12	0.600100605556833\\
13	0.118033417583129\\
14	0.0610914209628117\\
15	0.0426162246246858\\
16	0.0332715711707656\\
17	0.0321939439283243\\
18	0.0268871008873183\\
19	0.0316920608120786\\
20	0.0286771919664519\\
21	0.00773119825769845\\
22	0.0330073087209196\\
23	0.019415059292473\\
24	0.0177688778425817\\
25	0.0188194600762088\\
26	0.0237714798713867\\
27	0.0430806655948836\\
28	0.586023006720236\\
29	0.0970905103802927\\
30	0.0246981078960262\\
31	0.0780346253424249\\
32	0.0580455436901626\\
33	0.0681836526256362\\
34	0.163824852865525\\
35	0.0446106828365612\\
36	0.06119675966513\\
37	0.00907835157153909\\
38	0.0310093774848825\\
39	0.00125972832884384\\
40	0.005422098150711\\
41	0.0107374596162295\\
42	0.0165479326643041\\
43	0.024789327411243\\
44	0.0446277431282512\\
45	0.058019450740893\\
46	0.074843365423057\\
47	0.199666615467323\\
48	0.216838516027539\\
49	0.0783890355452335\\
50	0.0495529240878659\\
51	0.0370791446049236\\
52	0.0307530810094058\\
53	0.0155757068681131\\
54	0.0198807977432187\\
55	0.0179871495341263\\
56	0.0162887905400521\\
57	0.0148728268904216\\
58	0.0136909847461918\\
59	0.0126943671543235\\
60	0.011846112844806\\
61	0.0111233301448608\\
62	0.0105291449791113\\
63	0.0102108676347222\\
64	0.00751288118280402\\
65	0.00739035992869396\\
66	0.0116365722557393\\
67	0.00899390796280924\\
68	0.00831157148096884\\
69	0.00788086875151191\\
70	0.00754217236777393\\
71	0.00725475830161164\\
72	0.00700327644843893\\
73	0.006780818536885\\
74	0.00658453626015097\\
75	0.00641472878078445\\
76	0.00627599401250467\\
77	0.00618216997550965\\
78	0.00617516728867787\\
79	0.00642745729543014\\
80	0.00873051939586948\\
81	0.00471465923588381\\
82	0.00195996010568866\\
83	0.004980313957114\\
84	0.00475839614864904\\
85	0.00464733241660508\\
86	0.00455444244400457\\
87	0.00446749239384432\\
88	0.00438406292262191\\
89	0.00430366820355207\\
90	0.00422628355118023\\
91	0.00415201532524293\\
92	0.00408104289588831\\
93	0.00401365198230764\\
94	0.00395033763548775\\
95	0.00389203620501121\\
96	0.00384070443755282\\
97	0.00380107128140597\\
98	0.00378779867734327\\
99	0.00387836096292209\\
100	0.00228454900881806\\
101	0.00321909463290553\\
102	0.00328982387499096\\
103	0.00328100374444436\\
104	0.00325253146337885\\
105	0.00321692683031362\\
106	0.00317840637543852\\
107	0.00313876414674543\\
108	0.00309887602618152\\
109	0.00305920797263281\\
110	0.00302002111537278\\
111	0.00298146552488656\\
112	0.00294362726599965\\
113	0.0029065537719176\\
114	0.00287026833389302\\
115	0.00283477876811283\\
116	0.00280008280049957\\
117	0.00276617151884636\\
118	0.00273303164395387\\
119	0.00270064705586787\\
120	0.00266899983729428\\
121	0.00263807099659409\\
122	0.00260784097374635\\
123	0.00257828999668392\\
124	0.00254939833288439\\
125	0.00252114646667125\\
126	0.00249351522323938\\
127	0.00246648585412356\\
128	0.00244004009455901\\
129	0.00241416020024051\\
130	0.00238882896892876\\
131	0.0023640297508985\\
132	0.00233974645117835\\
133	0.00231596352577768\\
134	0.00229266597354371\\
135	0.00226983932488367\\
136	0.00224746962828519\\
137	0.00222554343533969\\
138	0.00220404778480324\\
139	0.00218297018609978\\
140	0.00216229860257188\\
141	0.00214202143470905\\
142	0.00212212750352594\\
143	0.00210260603421662\\
144	0.00208344664017788\\
145	0.00206463930746792\\
146	0.00204617437974413\\
147	0.00202804254371082\\
148	0.00201023481509265\\
149	0.00199274252514179\\
150	0.00197555730767936\\
151	0.0019586710866655\\
152	0.00194207606428942\\
153	0.00192576470956709\\
154	0.00190972974743187\\
155	0.00189396414830307\\
156	0.00187846111811499\\
157	0.00186321408878906\\
158	0.00184821670913216\\
159	0.00183346283614256\\
160	0.00181894652670628\\
161	0.00180466202966742\\
162	0.00179060377825436\\
163	0.00177676638284649\\
164	0.00176314462406556\\
165	0.00174973344617591\\
166	0.0017365279507797\\
167	0.00172352339079259\\
168	0.00171071516468654\\
169	0.00169809881098722\\
170	0.00168567000301325\\
171	0.00167342454384613\\
172	0.00166135836151948\\
173	0.00164946750441694\\
174	0.00163774813686889\\
175	0.00162619653493841\\
176	0.00161480908238697\\
177	0.00160358226681213\\
178	0.001592512675948\\
179	0.00158159699412143\\
180	0.00157083199885632\\
181	0.00156021455761888\\
182	0.00154974162469766\\
183	0.00153941023821136\\
184	0.00152921751723897\\
185	0.00151916065906659\\
186	0.00150923693654504\\
187	0.00149944369555362\\
188	0.00148977835256491\\
189	0.00148023839230615\\
190	0.0014708213655126\\
191	0.00146152488676917\\
192	0.00145234663243548\\
193	0.00144328433865201\\
194	0.00143433579942216\\
195	0.0014254988647679\\
196	0.00141677143895562\\
197	0.00140815147878894\\
198	0.00139963699196521\\
199	0\\
200	0\\
};
\addlegendentry{$\mathbf{h_1}$}

\addplot [color=mycolor2]
  table[row sep=crcr]{%
1	0.00495033386861547\\
2	0.00515738368500011\\
3	0.00538309861623286\\
4	0.00563019833310769\\
5	0.00590197136255583\\
6	0.00620243506959928\\
7	0.00653655369620811\\
8	0.00691054090538825\\
9	0.00733228812251618\\
10	0.00781198494389501\\
11	0.00836304134465097\\
12	0.0090034999823859\\
13	0.00975827527656913\\
14	0.0106628508662167\\
15	0.0117696896019869\\
16	0.0131600228416925\\
17	0.0149671880151623\\
18	0.0174273921400842\\
19	0.0210049332363351\\
20	0.0267613442180004\\
21	0.037792597580649\\
22	0.068721841139076\\
23	0.97572931769219\\
24	0.0649085399616321\\
25	0.0262918397391367\\
26	0.0126468169615953\\
27	0.00419508123086451\\
28	0.0214241856295046\\
29	0.0134643328328179\\
30	0.00412679327935559\\
31	0.0112712342656943\\
32	0.0282552508318709\\
33	0.111702725947746\\
34	0.12653020104749\\
35	0.0361926668223949\\
36	0.024130019396178\\
37	0.019518168382204\\
38	0.0163235660243771\\
39	0.0140849625225472\\
40	0.0124312948441269\\
41	0.0111552918846637\\
42	0.0101369616841952\\
43	0.00930266674553233\\
44	0.00860476970863487\\
45	0.00801105372801389\\
46	0.00749890841387189\\
47	0.00705196472677567\\
48	0.00665805661850076\\
49	0.0063079366485928\\
50	0.00599443852440938\\
51	0.00571191453485358\\
52	0.00545584764793091\\
53	0.0052225778141873\\
54	0.00500910486747672\\
55	0.00481294397681212\\
56	0.00463201789166602\\
57	0.00446457542356871\\
58	0.00430912894812168\\
59	0.00416440590497024\\
60	0.00402931074167137\\
61	0.00390289474814389\\
62	0.00378433192171684\\
63	0.00367289949042518\\
64	0.0035679620699816\\
65	0.00346895868109233\\
66	0.00337539203747226\\
67	0.00328681965070268\\
68	0.00320284639950925\\
69	0\\
70	0\\
71	0\\
72	0\\
73	0\\
74	0\\
75	0\\
76	0\\
77	0\\
78	0\\
79	0\\
80	0\\
81	0\\
82	0\\
83	0\\
84	0\\
85	0\\
86	0\\
87	0\\
88	0\\
89	0\\
90	0\\
91	0\\
92	0\\
93	0\\
94	0\\
95	0\\
96	0\\
97	0\\
98	0\\
99	0\\
100	0\\
101	0\\
102	0\\
103	0\\
104	0\\
105	0\\
106	0\\
107	0\\
108	0\\
109	0\\
110	0\\
111	0\\
112	0\\
113	0\\
114	0\\
115	0\\
116	0\\
117	0\\
118	0\\
119	0\\
120	0\\
121	0\\
122	0\\
123	0\\
124	0\\
125	0\\
126	0\\
127	0\\
128	0\\
129	0\\
130	0\\
131	0\\
132	0\\
133	0\\
134	0\\
135	0\\
136	0\\
137	0\\
138	0\\
139	0\\
140	0\\
141	0\\
142	0\\
143	0\\
144	0\\
145	0\\
146	0\\
147	0\\
148	0\\
149	0\\
150	0\\
151	0\\
152	0\\
153	0\\
154	0\\
155	0\\
156	0\\
157	0\\
158	0\\
159	0\\
160	0\\
161	0\\
162	0\\
163	0\\
164	0\\
165	0\\
166	0\\
167	0\\
168	0\\
169	0\\
170	0\\
171	0\\
172	0\\
173	0\\
174	0\\
175	0\\
176	0\\
177	0\\
178	0\\
179	0\\
180	0\\
181	0\\
182	0\\
183	0\\
184	0\\
185	0\\
186	0\\
187	0\\
188	0\\
189	0\\
190	0\\
191	0\\
192	0\\
193	0\\
194	0\\
195	0\\
196	0\\
197	0\\
198	0\\
199	0\\
200	0\\
};
\addlegendentry{$\mathbf{h_{2}}$}

\end{axis}

\begin{axis}[%
width=1.935in,
height=3.2in,
at={(3.327in,0.512in)},
scale only axis,
xmin=0,
xmax=100,
xlabel style={font=\color{white!15!black}, align=center},
xlabel={Sample Index\\[1ex](b) Estimated},
ymin=0,
ymax=0.7,
axis background/.style={fill=white},
legend style={legend cell align=left, align=left, draw=white!15!black}
]
\addplot [color=mycolor1]
  table[row sep=crcr]{%
0	0.00117204851279684\\
1	0.00145729900654204\\
2	0.00263427334257613\\
3	0.00304439501618963\\
4	0.00139514558476147\\
5	0.000328960117552238\\
6	0.000692895330154976\\
7	0.0050633819600243\\
8	0.00737088086995236\\
9	0.00652960659698347\\
10	0.0206579241697921\\
11	0.0151236599378951\\
12	0.00734830724370714\\
13	0.00987350211197728\\
14	0.00854983448877316\\
15	0.00952625298385186\\
16	0.0230584811513731\\
17	0.0424998874774871\\
18	0.0828378195034533\\
19	0.133224964143509\\
20	0.178501698956851\\
21	0.24659222754929\\
22	0.251908352945153\\
23	0.165938998880892\\
24	0.128652628409853\\
25	0.103409419577472\\
26	0.0610651133887266\\
27	0.0932994887874138\\
28	0.117313524713252\\
29	0.0789719127254516\\
30	0.0219625397625623\\
31	0.0609565559601721\\
32	0.118032155954976\\
33	0.121822298835872\\
34	0.167621754254451\\
35	0.190261758571959\\
36	0.103385076416356\\
37	0.166062991561883\\
38	0.213456142942175\\
39	0.202349418854508\\
40	0.0425729187942948\\
41	0.114637832022263\\
42	0.0213929624924253\\
43	0.0637988337314139\\
44	0.0503802795614955\\
45	0.0695190771810787\\
46	0.0598497098111825\\
47	0.0253079394973258\\
48	0.0726419670484697\\
49	0.100376780177021\\
50	0.0833604563949271\\
51	0.0891162277708111\\
52	0.146913171670781\\
53	0.187608242151967\\
54	0.368487976132169\\
55	0.10764168840801\\
56	0.196480378125514\\
57	0.218855749247003\\
58	0.192023589741599\\
59	0.0554490731193849\\
60	0.091899921425443\\
61	0.014205274455739\\
62	0.0329161760448273\\
63	0.0885903213616734\\
64	0.019319361006382\\
65	0.0259724319541393\\
66	0.0391923728094764\\
67	0.0378714834627382\\
68	0.0800818987165495\\
69	0.0935499891861785\\
70	0.0337964859903745\\
71	0.0631657815117105\\
72	0.0842419882751376\\
73	0.147415550872261\\
74	0.121135607934287\\
75	0.0797457777092692\\
76	0.0104552026434982\\
77	0.0322728770424598\\
78	0.0443355175273939\\
79	0.00795144017000346\\
80	0.0742062577492631\\
81	0.0420755597682777\\
82	0.0128823408669036\\
83	0.0178848472817343\\
84	0.019554038158754\\
85	0.0236036116170608\\
86	0.027729701819687\\
87	0.0204486886494685\\
88	0.0121151623067786\\
89	0.0139655717305872\\
90	0.0131053297726727\\
91	0.0438865555940597\\
92	0.0406747176610637\\
93	0.0641733563157064\\
94	0.00835969159127726\\
95	0.0182182866349796\\
96	0.00672677524192568\\
97	0.00895402834026213\\
98	0.0261262259752971\\
99	0.019664501889917\\
};
\addlegendentry{$\mathbf{\hat{h}_{1}}$}

\addplot [color=mycolor2]
  table[row sep=crcr]{%
0	8.83434903379459e-05\\
1	6.38787978965247e-05\\
2	0.000174261458384832\\
3	8.00875971278959e-05\\
4	0.000124017745106688\\
5	0.000180461122839262\\
6	6.14274203487056e-05\\
7	0.000325809817056826\\
8	0.000207440927581033\\
9	0.000359841090574601\\
10	0.00109189818513434\\
11	0.00210450755136367\\
12	0.00190022167568981\\
13	0.00274150869355303\\
14	0.0024723784620938\\
15	0.00250656026556483\\
16	0.00362620475187358\\
17	0.00289625261782201\\
18	0.00946291925063235\\
19	0.00332148119979604\\
20	0.0084157746567722\\
21	0.0215683992463433\\
22	0.0223687296653277\\
23	0.0126719970317521\\
24	0.00646725516275482\\
25	0.00966035997749202\\
26	0.00756362246333892\\
27	0.0165221070985426\\
28	0.0183968627107269\\
29	0.0275190221255617\\
30	0.0710588698998671\\
31	0.124815028171289\\
32	0.184993175261794\\
33	0.282674819718572\\
34	0.242162557025481\\
35	0.139613167027466\\
36	0.119630666139095\\
37	0.0480881810042069\\
38	0.0667530124811346\\
39	0.123963061385369\\
40	0.0878983065680888\\
41	0.0233551510889958\\
42	0.0359370677016743\\
43	0.0981888387183238\\
44	0.133980903238696\\
45	0.115027357545633\\
46	0.173273408062203\\
47	0.212503462581587\\
48	0.223762705059703\\
49	0.622075454157337\\
50	0.172589269649707\\
51	0.187582530671445\\
52	0.0231872443600143\\
53	0.0432404314351799\\
54	0.0562947879716698\\
55	0.0829414506842566\\
56	0.0780907229328276\\
57	0.0796222408423789\\
58	0.0378487912344602\\
59	0.071123993027935\\
60	0.0681026499779344\\
61	0.0664158263296115\\
62	0.0373321701626859\\
63	0.0317557304832892\\
64	0.0269336060835809\\
65	0.0348459801337274\\
66	0.0917941020836114\\
67	0.141143255302887\\
68	0.142996581435619\\
69	0.116963655993648\\
70	0.0514731743219044\\
71	0.0200613084866903\\
72	0.0136071011562809\\
73	0.0271411851952308\\
74	0.0635259021169064\\
75	0.0297085940039157\\
76	0.0108699023026075\\
77	0.0197745144599395\\
78	0.0302605007457269\\
79	0.0326761639464624\\
80	0.00851451806103872\\
81	0.00394713297884141\\
82	0.0181379655580777\\
83	0.00436782492055328\\
84	0.0217069208242066\\
85	0.0160642991174828\\
86	0.014236529648834\\
87	0.00611552599915426\\
88	0.00141872669832309\\
89	0.00343515831684039\\
90	0.00303226982734333\\
91	0.00221414125092742\\
92	0.0044061456451555\\
93	0.00384101810045651\\
94	0.00484864026475822\\
95	0.00374615432086631\\
96	0.00186421076994865\\
97	0.00167224970525505\\
98	0.00325964305818854\\
99	0.00236594720064937\\
};
\addlegendentry{$\mathbf{\hat{h}_{2}}$}

\end{axis}
\end{tikzpicture}%