% This file was created by matlab2tikz.
%
%The latest updates can be retrieved from
%  http://www.mathworks.com/matlabcentral/fileexchange/22022-matlab2tikz-matlab2tikz
%where you can also make suggestions and rate matlab2tikz.
%
\definecolor{mycolor1}{rgb}{0.00000,0.44700,0.74100}%
\definecolor{mycolor2}{rgb}{0.85000,0.32500,0.09800}%
%
\begin{tikzpicture}

\begin{axis}[%
width=1.952in,
height=3.2in,
at={(0.758in,0.512in)},
scale only axis,
xmin=0,
xmax=20,
xlabel style={font=\color{white!15!black}, align=center},
xlabel={Sample Index\\[1ex](a) Actual},
ymin=0,
ymax=0.9,
axis background/.style={fill=white},
legend style={legend cell align=left, align=left, draw=white!15!black}
]
\addplot [color=mycolor1]
  table[row sep=crcr]{%
1	0.0444337104356374\\
2	0.738127803558165\\
3	0.357839506790865\\
4	0.481268775571525\\
5	0.10955194752004\\
6	0.267783168107473\\
7	0.0769544524124665\\
8	0.0372836026936495\\
9	0.027789744685169\\
10	0.0196434178633453\\
11	0.0212138243269196\\
12	0.0147156812719569\\
13	0.0126517206023441\\
14	0.0111331007215966\\
15	0.00994473974674355\\
16	0.00898571135769806\\
17	0.00819466874468931\\
18	0.00753086667278431\\
19	0.00696589032366256\\
20	0.00647923877975415\\
};
\addlegendentry{$\mathbf{h_1}$}

\addplot [color=mycolor2]
  table[row sep=crcr]{%
1	0.0696363384444256\\
2	0.13399148454392\\
3	0.889181852408627\\
4	0.426869408918664\\
5	0.0527923084371181\\
6	0.0393468637154593\\
7	0\\
8	0\\
9	0\\
10	0\\
11	0\\
12	0\\
13	0\\
14	0\\
15	0\\
16	0\\
17	0\\
18	0\\
19	0\\
20	0\\
};
\addlegendentry{$\mathbf{h_{2}}$}

\end{axis}

\begin{axis}[%
width=1.952in,
height=3.2in,
at={(3.327in,0.512in)},
scale only axis,
xmin=0,
xmax=20,
xlabel style={font=\color{white!15!black}, align=center},
xlabel={Sample Index\\[1ex](b) Estimated},
ymin=0,
ymax=0.8,
axis background/.style={fill=white},
legend style={legend cell align=left, align=left, draw=white!15!black}
]
\addplot [color=mycolor1]
  table[row sep=crcr]{%
0	0.0346867031983286\\
1	0.599464022639663\\
2	0.450432933117418\\
3	0.338805705497105\\
4	0.425926222848252\\
5	0.292391285081948\\
6	0.217808655667519\\
7	0.0663199562361181\\
8	0.0367921345469565\\
9	0.0134876324883728\\
10	0.0270974016488921\\
11	0.0145223472591568\\
12	0.00932864848220463\\
13	0.00869876425966573\\
14	0.00807437582775885\\
15	0.00820753755901596\\
16	0.00920182497366007\\
17	0.00322386722022086\\
18	0.0111986412551768\\
19	0.00439930456455085\\
};
\addlegendentry{$\mathbf{\hat{h}_{1}}$}

\addplot [color=mycolor2]
  table[row sep=crcr]{%
0	0.0536874637066539\\
1	0.131953606722311\\
2	0.719033664641958\\
3	0.351640107101028\\
4	0.574343999320668\\
5	0.0859389734036461\\
6	0.0197443547549884\\
7	0.021534232679011\\
8	0.0213292766463094\\
9	0.0180386872988259\\
10	0.00728257292788208\\
11	0.000262707849054746\\
12	0.000118724222192219\\
13	5.61934371382463e-05\\
14	2.66784886042537e-05\\
15	6.27774603466726e-05\\
16	0.000103914391514105\\
17	0.00231062150632875\\
18	0.00819778054254623\\
19	0.00544189579414813\\
};
\addlegendentry{$\mathbf{\hat{h}_{2}}$}

\end{axis}

\end{tikzpicture}%