% This file was created by matlab2tikz.
%
%The latest updates can be retrieved from
%  http://www.mathworks.com/matlabcentral/fileexchange/22022-matlab2tikz-matlab2tikz
%where you can also make suggestions and rate matlab2tikz.
%
\definecolor{mycolor1}{rgb}{0.00000,0.44700,0.74100}%
\definecolor{mycolor2}{rgb}{0.85000,0.32500,0.09800}%
%
\begin{tikzpicture}

\begin{axis}[%
width=1.952in,
height=3.2in,
at={(0.758in,0.512in)},
scale only axis,
xmin=0,
xmax=20,
xlabel style={font=\color{white!15!black}, align=center},
xlabel={Sample Index\\[1ex](a) Actual},
ymin=0,
ymax=0.9,
axis background/.style={fill=white},
legend style={legend cell align=left, align=left, draw=white!15!black}
]
\addplot [color=mycolor1]
  table[row sep=crcr]{%
1	0.0444337104356374\\
2	0.738127803558165\\
3	0.357839506790865\\
4	0.481268775571525\\
5	0.10955194752004\\
6	0.267783168107473\\
7	0.0769544524124665\\
8	0.0372836026936495\\
9	0.027789744685169\\
10	0.0196434178633453\\
11	0.0212138243269196\\
12	0.0147156812719569\\
13	0.0126517206023441\\
14	0.0111331007215966\\
15	0.00994473974674355\\
16	0.00898571135769806\\
17	0.00819466874468931\\
18	0.00753086667278431\\
19	0.00696589032366256\\
20	0.00647923877975415\\
};
\addlegendentry{$\mathbf{h_1}$}

\addplot [color=mycolor2]
  table[row sep=crcr]{%
1	0.0696363384444256\\
2	0.13399148454392\\
3	0.889181852408627\\
4	0.426869408918664\\
5	0.0527923084371181\\
6	0.0393468637154593\\
7	0\\
8	0\\
9	0\\
10	0\\
11	0\\
12	0\\
13	0\\
14	0\\
15	0\\
16	0\\
17	0\\
18	0\\
19	0\\
20	0\\
};
\addlegendentry{$\mathbf{h_{2}}$}

\end{axis}

\begin{axis}[%
width=1.952in,
height=3.2in,
at={(3.327in,0.512in)},
scale only axis,
xmin=0,
xmax=20,
xlabel style={font=\color{white!15!black}, align=center},
xlabel={Sample Index\\[1ex](b) Estimated},
ymin=0,
ymax=0.9,
axis background/.style={fill=white},
legend style={legend cell align=left, align=left, draw=white!15!black}
]
\addplot [color=mycolor1]
  table[row sep=crcr]{%
0	0.044433679176469\\
1	0.738142287325676\\
2	0.357831942880238\\
3	0.481153674190783\\
4	0.109830787570847\\
5	0.267804290023493\\
6	0.0770900013673022\\
7	0.0372912292118737\\
8	0.02777725434318\\
9	0.019642805672834\\
10	0.021248801858879\\
11	0.0146867562340144\\
12	0.0126770964326094\\
13	0.0111295548504295\\
14	0.00994107487889676\\
15	0.00900051419721055\\
16	0.0081970963437093\\
17	0.00753395451248592\\
18	0.00697253437680861\\
19	0.00648100273766921\\
};
\addlegendentry{$\mathbf{\hat{h}_{1}}$}

\addplot [color=mycolor2]
  table[row sep=crcr]{%
0	0.0696389103125743\\
1	0.134022536735377\\
2	0.889262371770266\\
3	0.426643959418754\\
4	0.0531848691810894\\
5	0.0393333660869984\\
6	2.65201183945379e-05\\
7	1.63510991141461e-05\\
8	8.11633525598086e-06\\
9	2.17895533848293e-05\\
10	2.24131215443196e-05\\
11	2.55095342713124e-05\\
12	2.71489228583492e-05\\
13	1.08093541176282e-05\\
14	5.81342662515476e-06\\
15	7.90537783992442e-06\\
16	1.0334960441365e-05\\
17	9.3101194868503e-06\\
18	6.9937980179558e-06\\
19	3.07406703458809e-06\\
};
\addlegendentry{$\mathbf{\hat{h}_{2}}$}

\end{axis}
\end{tikzpicture}%