% This file was created by matlab2tikz.
%
%The latest updates can be retrieved from
%  http://www.mathworks.com/matlabcentral/fileexchange/22022-matlab2tikz-matlab2tikz
%where you can also make suggestions and rate matlab2tikz.
%
\definecolor{mycolor1}{rgb}{0.00000,0.44700,0.74100}%
\definecolor{mycolor2}{rgb}{0.85000,0.32500,0.09800}%
%
\begin{tikzpicture}

\begin{axis}[%
width=1.952in,
height=3.2in,
at={(0.758in,0.512in)},
scale only axis,
xmin=0,
xmax=20,
xlabel style={font=\color{white!15!black}, align=center},
xlabel={Sample Index\\[1ex](a) Actual},
ymin=0,
ymax=0.9,
axis background/.style={fill=white},
legend style={legend cell align=left, align=left, draw=white!15!black}
]
\addplot [color=mycolor1]
  table[row sep=crcr]{%
1	0.0444337104356374\\
2	0.738127803558165\\
3	0.357839506790865\\
4	0.481268775571525\\
5	0.10955194752004\\
6	0.267783168107473\\
7	0.0769544524124665\\
8	0.0372836026936495\\
9	0.027789744685169\\
10	0.0196434178633453\\
11	0.0212138243269196\\
12	0.0147156812719569\\
13	0.0126517206023441\\
14	0.0111331007215966\\
15	0.00994473974674355\\
16	0.00898571135769806\\
17	0.00819466874468931\\
18	0.00753086667278431\\
19	0.00696589032366256\\
20	0.00647923877975415\\
};
\addlegendentry{$\mathbf{h_1}$}

\addplot [color=mycolor2]
  table[row sep=crcr]{%
1	0.0696363384444256\\
2	0.13399148454392\\
3	0.889181852408627\\
4	0.426869408918664\\
5	0.0527923084371181\\
6	0.0393468637154593\\
7	0\\
8	0\\
9	0\\
10	0\\
11	0\\
12	0\\
13	0\\
14	0\\
15	0\\
16	0\\
17	0\\
18	0\\
19	0\\
20	0\\
};
\addlegendentry{$\mathbf{h_{2}}$}

\end{axis}

\begin{axis}[%
width=1.952in,
height=3.2in,
at={(3.327in,0.512in)},
scale only axis,
xmin=0,
xmax=40,
xlabel style={font=\color{white!15!black}, align=center},
xlabel={Sample Index\\[1ex](b) Estimated},
ymin=0,
ymax=0.9,
axis background/.style={fill=white},
legend style={legend cell align=left, align=left, draw=white!15!black}
]
\addplot [color=mycolor1]
  table[row sep=crcr]{%
0	0.00293207567316496\\
1	0.0482617795902098\\
2	0.0339427498924265\\
3	0.0493185052408429\\
4	0.00891002835761462\\
5	0.0112362705110169\\
6	0.0272535429171923\\
7	0.0157358055138833\\
8	0.0557263625108389\\
9	0.0211054426149704\\
10	0.0517601929505261\\
11	0.0260756074616447\\
12	0.0440163310885682\\
13	0.0225188358912407\\
14	0.0149220190716725\\
15	0.0493562388220083\\
16	0.0420662840910455\\
17	0.0560241695877621\\
18	0.0664670665085811\\
19	0.162000535171184\\
20	0.11976380553905\\
21	0.629379778442046\\
22	0.51410336851929\\
23	0.420434682124251\\
24	0.186451745927322\\
25	0.232196517707094\\
26	0.0612368412011081\\
27	0.0229194260237144\\
28	0.0165707506383061\\
29	0.0098263530038183\\
30	0.0132771847067326\\
31	0.00767433408732267\\
32	0.00626432009207678\\
33	0.00543272626136246\\
34	0.00517326654107611\\
35	0.00447742856382361\\
36	0.00360332216387931\\
37	0.00379873110659842\\
38	0.00494519112575119\\
39	0.006318181830338\\
};
\addlegendentry{$\mathbf{\hat{h}_{1}}$}

\addplot [color=mycolor2]
  table[row sep=crcr]{%
0	0.00413839605943287\\
1	0.00699750206082946\\
2	0.0516243743084299\\
3	0.0362730029667905\\
4	0.0225968648302773\\
5	0.00571143449955502\\
6	0.0276038315462173\\
7	0.0322009322711087\\
8	0.00916854503521056\\
9	0.0666953699766374\\
10	0.0329483562779305\\
11	0.0335864745219756\\
12	0.0434767839018382\\
13	0.0478111063095531\\
14	0.0122974670783482\\
15	0.02382514186648\\
16	0.0566552969565685\\
17	0.0685999525854181\\
18	0.0678097667346602\\
19	0.132245736330247\\
20	0.152463883405618\\
21	0.0891947282142305\\
22	0.885829646275419\\
23	0.365165148139478\\
24	0.0390789529404592\\
25	0.0346306399028822\\
26	7.10911126053422e-05\\
27	2.62878149356034e-05\\
28	4.16521073369624e-05\\
29	2.3604677834403e-05\\
30	1.44402132808083e-05\\
31	1.1238242707909e-05\\
32	4.70195305664517e-06\\
33	8.09163240566666e-06\\
34	1.26689325295192e-05\\
35	1.65943816073658e-05\\
36	1.22887964187426e-05\\
37	1.6764127634473e-05\\
38	1.68046637358344e-05\\
39	7.83100619595254e-06\\
};
\addlegendentry{$\mathbf{\hat{h}_{2}}$}

\end{axis}
\end{tikzpicture}%