% This file was created by matlab2tikz.
%
%The latest updates can be retrieved from
%  http://www.mathworks.com/matlabcentral/fileexchange/22022-matlab2tikz-matlab2tikz
%where you can also make suggestions and rate matlab2tikz.
%
\definecolor{mycolor1}{rgb}{0.00000,0.44700,0.74100}%
\definecolor{mycolor2}{rgb}{0.85000,0.32500,0.09800}%
%
\begin{tikzpicture}

\begin{axis}[%
width=1.952in,
height=3.2in,
at={(0.758in,0.512in)},
scale only axis,
xmin=0,
xmax=20,
xlabel style={font=\color{white!15!black}, align=center},
xlabel={Sample Index\\[1ex](a) Actual},
ymin=0,
ymax=0.9,
axis background/.style={fill=white},
legend style={legend cell align=left, align=left, draw=white!15!black}
]
\addplot [color=mycolor1]
  table[row sep=crcr]{%
1	0.0444337104356374\\
2	0.738127803558165\\
3	0.357839506790865\\
4	0.481268775571525\\
5	0.10955194752004\\
6	0.267783168107473\\
7	0.0769544524124665\\
8	0.0372836026936495\\
9	0.027789744685169\\
10	0.0196434178633453\\
11	0.0212138243269196\\
12	0.0147156812719569\\
13	0.0126517206023441\\
14	0.0111331007215966\\
15	0.00994473974674355\\
16	0.00898571135769806\\
17	0.00819466874468931\\
18	0.00753086667278431\\
19	0.00696589032366256\\
20	0.00647923877975415\\
};
\addlegendentry{$\mathbf{h_1}$}

\addplot [color=mycolor2]
  table[row sep=crcr]{%
1	0.0696363384444256\\
2	0.13399148454392\\
3	0.889181852408627\\
4	0.426869408918664\\
5	0.0527923084371181\\
6	0.0393468637154593\\
7	0\\
8	0\\
9	0\\
10	0\\
11	0\\
12	0\\
13	0\\
14	0\\
15	0\\
16	0\\
17	0\\
18	0\\
19	0\\
20	0\\
};
\addlegendentry{$\mathbf{h_{2}}$}

\end{axis}

\begin{axis}[%
width=1.952in,
height=3.2in,
at={(3.327in,0.512in)},
scale only axis,
xmin=0,
xmax=20,
xlabel style={font=\color{white!15!black}, align=center},
xlabel={Sample Index\\[1ex](b) Estimated},
ymin=0,
ymax=0.9,
axis background/.style={fill=white},
legend style={legend cell align=left, align=left, draw=white!15!black}
]
\addplot [color=mycolor1]
  table[row sep=crcr]{%
0	0.0444632274741673\\
1	0.738680697143796\\
2	0.357047406010284\\
3	0.480601605240639\\
4	0.110437768539156\\
5	0.267961338894476\\
6	0.0776025071798882\\
7	0.0371394052823186\\
8	0.0278497194044008\\
9	0.0196700453688351\\
10	0.0212562826886804\\
11	0.014740531781101\\
12	0.0126756827456334\\
13	0.0111552108316065\\
14	0.00996008803495432\\
15	0.00899195547138914\\
16	0.00821553669551731\\
17	0.00753062667244812\\
18	0.0069769453375268\\
19	0.00649213002122076\\
};
\addlegendentry{$\mathbf{\hat{h}_{1}}$}

\addplot [color=mycolor2]
  table[row sep=crcr]{%
0	0.0696656489777041\\
1	0.134172292712867\\
2	0.889752446596422\\
3	0.425543023586198\\
4	0.053472504112186\\
5	0.0392286378929867\\
6	5.9121261122432e-05\\
7	8.13130146438944e-05\\
8	5.38226310693144e-05\\
9	3.64607793341161e-05\\
10	2.01393424645698e-05\\
11	1.63537608614152e-05\\
12	1.56228110087767e-05\\
13	6.17193264003675e-06\\
14	6.80283826916404e-06\\
15	9.13613722771539e-06\\
16	1.65073582184731e-05\\
17	2.4725835509121e-05\\
18	3.04211291491558e-05\\
19	1.09715288697761e-05\\
};
\addlegendentry{$\mathbf{\hat{h}_{2}}$}

\end{axis}
\end{tikzpicture}%