% This file was created by matlab2tikz.
%
%The latest updates can be retrieved from
%  http://www.mathworks.com/matlabcentral/fileexchange/22022-matlab2tikz-matlab2tikz
%where you can also make suggestions and rate matlab2tikz.
%
\definecolor{mycolor1}{rgb}{0.00000,0.44700,0.74100}%
\definecolor{mycolor2}{rgb}{0.85000,0.32500,0.09800}%
%
\begin{tikzpicture}

\begin{axis}[%
width=1.935in,
height=3.2in,
at={(0.758in,0.512in)},
scale only axis,
xmin=0,
xmax=100,
xlabel style={font=\color{white!15!black}, align=center},
xlabel={Sample Index\\[1ex](a) Actual},
ymin=0,
ymax=1,
axis background/.style={fill=white},
legend style={legend cell align=left, align=left, draw=white!15!black}
]
\addplot [color=mycolor1]
  table[row sep=crcr]{%
1	0.0216926152020066\\
2	0.0241183965289278\\
3	0.0267807478156139\\
4	0.0354280601095614\\
5	0.221828667704926\\
6	0.648965745595675\\
7	0.241270440438586\\
8	0.0776642628644082\\
9	0.0581044824071981\\
10	0.0611489366831747\\
11	0.0798140419847986\\
12	0.062735544320507\\
13	0.113011040425493\\
14	0.377485382687519\\
15	0.331649248845691\\
16	0.18615433793772\\
17	0.146493252817741\\
18	0.0847190801249442\\
19	0.0628278567269286\\
20	0.0148364296169451\\
21	0.0250471739922352\\
22	0.0344835915107885\\
23	0.116323790948646\\
24	0.279210940275387\\
25	0.101045410677318\\
26	0.0464379665429307\\
27	0.041398863205924\\
28	0.0263226969199998\\
29	0.0221848789960478\\
30	0.0197642774213948\\
31	0.0186496517239344\\
32	0.0219339353832985\\
33	0.018414044189717\\
34	0.00937919788338426\\
35	0.0100670783096178\\
36	0.0098135024549665\\
37	0.00937197330245933\\
38	0.00884810306396591\\
39	0.00821513429074651\\
40	0.00732026654240377\\
41	0.00945021173361951\\
42	0.0127255218727005\\
43	0.00946415089832864\\
44	0.00862800399957479\\
45	0.00816256372793386\\
46	0.00784857678072338\\
47	0.00764005346579914\\
48	0.00755773656417068\\
49	0.00776075567554332\\
50	0.00986938420958768\\
51	0.00319649311885596\\
52	0.00500292172051245\\
53	0.00524752973649041\\
54	0.00526667690567613\\
55	0.00521575322380608\\
56	0.00513704586881206\\
57	0.00504647235310817\\
58	0.00495116794332671\\
59	0.00485468351773321\\
60	0.00475890010347922\\
61	0.00466484578572566\\
62	0.00457308311118313\\
63	0.00448390798586452\\
64	0.0043974582605137\\
65	0.00431377595094964\\
66	0.00423284428954661\\
67	0.00415461047403326\\
68	0.00407899997367922\\
69	0.00400592569101114\\
70	0.00393529390404367\\
71	0.0038670081481966\\
72	0.00380097175500134\\
73	0.00373708950172093\\
74	0.00367526866536834\\
75	0.00361541967416126\\
76	0.00355745648532918\\
77	0.00350129677649243\\
78	0.00344686201027152\\
79	0.00339407741330312\\
80	0.00334287189828014\\
81	0.0032931779490063\\
82	0.00324493148246751\\
83	0.00319807169773062\\
84	0.003152540918526\\
85	0.00310828443427485\\
86	0.00306525034282854\\
87	0.00302338939712195\\
88	0.00298265485717807\\
89	0.00294300234835571\\
90	0.00290438972634362\\
91	0.0028667769491261\\
92	0.00283012595595264\\
93	0.0027944005532083\\
94	0.00275956630699144\\
95	0.0027255904421446\\
96	0.00269244174744817\\
97	0.00266009048666622\\
98	0.00262850831512411\\
99	0\\
100	0\\
};
\addlegendentry{$\mathbf{h_1}$}

\addplot [color=mycolor2]
  table[row sep=crcr]{%
1	0.00108294891904515\\
2	0.00115806441999571\\
3	0.00125656841390277\\
4	0.00139359850086552\\
5	0.00159676508941691\\
6	0.00191784013184518\\
7	0.00245777585368985\\
8	0.00342819163679349\\
9	0.00533730915065768\\
10	0.00974214709050295\\
11	0.0244449264542886\\
12	0.973731186814765\\
13	0.0500739614470277\\
14	0.0426946282907342\\
15	0.00536788790071817\\
16	0.0362080823589407\\
17	0.176144271962331\\
18	0.115663212635922\\
19	0.0234963057121139\\
20	0.0138738178597906\\
21	0.00966054585381422\\
22	0.00731818549393035\\
23	0.00584139575065055\\
24	0.0048330083027894\\
25	0.00410500747522503\\
26	0.00355723928842746\\
27	0.00313167065616096\\
28	0.00279247304593218\\
29	0.00251639833876938\\
30	0.00228774297450139\\
31	0.00209554142652578\\
32	0.00193191967393617\\
33	0.00179108704155738\\
34	0.00166869616651274\\
35	0\\
36	0\\
37	0\\
38	0\\
39	0\\
40	0\\
41	0\\
42	0\\
43	0\\
44	0\\
45	0\\
46	0\\
47	0\\
48	0\\
49	0\\
50	0\\
51	0\\
52	0\\
53	0\\
54	0\\
55	0\\
56	0\\
57	0\\
58	0\\
59	0\\
60	0\\
61	0\\
62	0\\
63	0\\
64	0\\
65	0\\
66	0\\
67	0\\
68	0\\
69	0\\
70	0\\
71	0\\
72	0\\
73	0\\
74	0\\
75	0\\
76	0\\
77	0\\
78	0\\
79	0\\
80	0\\
81	0\\
82	0\\
83	0\\
84	0\\
85	0\\
86	0\\
87	0\\
88	0\\
89	0\\
90	0\\
91	0\\
92	0\\
93	0\\
94	0\\
95	0\\
96	0\\
97	0\\
98	0\\
99	0\\
100	0\\
};
\addlegendentry{$\mathbf{h_{2}}$}

\end{axis}

\begin{axis}[%
width=1.935in,
height=3.2in,
at={(3.327in,0.512in)},
scale only axis,
xmin=0,
xmax=200,
xlabel style={font=\color{white!15!black}, align=center},
xlabel={Sample Index\\[1ex](b) Estimated},
ymin=0,
ymax=1,
axis background/.style={fill=white},
legend style={legend cell align=left, align=left, draw=white!15!black}
]
\addplot [color=mycolor1]
  table[row sep=crcr]{%
0	0.000108855500737109\\
1	0.000168629932942135\\
2	4.97919202747658e-05\\
3	0.000145635628673967\\
4	0.000104464175534749\\
5	7.85295436946374e-05\\
6	0.000141148962942425\\
7	0.00015445277960057\\
8	0.000195918325475029\\
9	7.14101138772681e-05\\
10	4.12253473717046e-05\\
11	4.69726453880481e-05\\
12	0.000213093680454555\\
13	1.88745845522015e-05\\
14	6.27792492382825e-05\\
15	4.20349709127798e-05\\
16	0.000107215154606049\\
17	0.000112443351674101\\
18	8.2856121636846e-05\\
19	3.42992422818282e-05\\
20	7.50057134595963e-05\\
21	0.000200309024765663\\
22	7.4465335530017e-05\\
23	5.26514680595477e-05\\
24	0.000110433307257033\\
25	4.24125018776567e-05\\
26	1.35492440601249e-05\\
27	5.46020146136376e-05\\
28	7.38944578154033e-05\\
29	3.1220364417771e-05\\
30	2.07492116281159e-05\\
31	0.000166905948408422\\
32	0.000190443674072509\\
33	9.26183344623212e-05\\
34	2.94790011079869e-05\\
35	4.77496195789222e-05\\
36	5.52806587942577e-05\\
37	5.99153106353446e-05\\
38	6.76030396823246e-05\\
39	0.000122979425746577\\
40	0.000224577510815431\\
41	2.9175468714612e-05\\
42	0.000118231514120421\\
43	2.56477018725606e-05\\
44	6.68899460677133e-05\\
45	0.000168642269014649\\
46	4.57213639114316e-05\\
47	0.000157581765128561\\
48	1.92618272469078e-05\\
49	5.19881328325197e-05\\
50	0.000127921880270586\\
51	7.24820963123222e-05\\
52	8.22661848921101e-05\\
53	0.000216678159616209\\
54	6.49376312048991e-05\\
55	2.66575711128142e-05\\
56	6.18922407290616e-05\\
57	0.000102692431590897\\
58	4.74691223236741e-05\\
59	0.000189681091397596\\
60	2.04602494926732e-05\\
61	0.000133393668863566\\
62	0.000172128872434428\\
63	4.54819986400352e-05\\
64	0.000161736957250537\\
65	0.000818109961154457\\
66	0.000816874982726952\\
67	0.000931962598865575\\
68	0.000239126226004886\\
69	6.00384384517756e-05\\
70	6.17381656468e-05\\
71	5.24836342213003e-05\\
72	0.000952059360725318\\
73	0.000132657577626879\\
74	0.00935824370221985\\
75	0.0320854155435855\\
76	0.00106919667619655\\
77	0.00807866386003193\\
78	0.00172222141619203\\
79	0.00223026322869759\\
80	0.0015751567879781\\
81	0.00649802777917318\\
82	0.0258322612124541\\
83	0.0610126111827734\\
84	0.0372046034766857\\
85	0.0464423714778638\\
86	0.0300420754941848\\
87	0.0290015028057157\\
88	0.0760220899163129\\
89	0.0227322064845451\\
90	0.0326591005142569\\
91	0.0055200528165694\\
92	0.181868504518883\\
93	0.680670585363139\\
94	0.206328225266136\\
95	0.0243249506786417\\
96	0.116908263358358\\
97	0.0811456538103341\\
98	0.119948275908924\\
99	0.0296247650284315\\
100	0.0964382347867332\\
101	0.378887920369462\\
102	0.290013055388669\\
103	0.178628667057028\\
104	0.123464785786329\\
105	0.0746410583213638\\
106	0.0848331292910344\\
107	0.0477529817618551\\
108	0.0354009559183696\\
109	0.0601938071138263\\
110	0.131855441325148\\
111	0.269695843731224\\
112	0.0640943964340833\\
113	0.006711401604414\\
114	0.00955718949478089\\
115	0.0137267075402639\\
116	0.0112123191762393\\
117	0.0285811132465869\\
118	0.0382795726874715\\
119	0.0603746568271708\\
120	0.0263146565382963\\
121	0.0126288154650083\\
122	0.00214958674709066\\
123	0.0169748663226464\\
124	0.0134611972869717\\
125	0.00735438513868405\\
126	0.00322964423029135\\
127	0.00691963475636071\\
128	0.0137439265462437\\
129	0.00893697922637304\\
130	0.0100740022498499\\
131	0.00411399499879777\\
132	0.00218517157620203\\
133	0.00500299745867548\\
134	0.00419881764401639\\
135	0.00403935514474888\\
136	0.00600625898267509\\
137	0.00630834573375072\\
138	0.000165307008233033\\
139	0.000942660959781538\\
140	0.00173318986194709\\
141	0.000136364326163803\\
142	0.00123551831354827\\
143	0.000221010208086661\\
144	0.000381333460786308\\
145	0.00066535033029816\\
146	0.00102184555761988\\
147	0.00069854832075398\\
148	0.000386102741399862\\
149	6.47107458585282e-05\\
150	8.93600483454105e-05\\
151	0.000129258034079612\\
152	0.000133047005931359\\
153	7.51715053003756e-05\\
154	0.000105375303702916\\
155	0.000229681440391056\\
156	0.000502835309083246\\
157	0.000305704134018188\\
158	0.000296369284873602\\
159	0.00036191218969335\\
160	0.000483006989295789\\
161	0.000182939877757016\\
162	2.91726088636548e-05\\
163	0.000451249357365\\
164	4.34039363250781e-05\\
165	0.00023461424586848\\
166	9.67364743873345e-05\\
167	6.66889932514198e-05\\
168	0.000278355957324902\\
169	0.000138304731163907\\
170	2.3181883255692e-05\\
171	0.000114236720148459\\
172	0.000155968871643638\\
173	0.000290636678754232\\
174	0.000232486328738513\\
175	9.4155650649289e-05\\
176	4.65187175082609e-05\\
177	1.7382705157809e-05\\
178	0.000124715452360291\\
179	8.21433235687075e-05\\
180	0.000168685387908697\\
181	5.96780681125899e-05\\
182	0.000155774970539961\\
183	0.000199808870424005\\
184	0.000304054712362435\\
185	0.000301808230529307\\
186	5.57001865984467e-05\\
187	0.00012924733738687\\
188	6.13204872964804e-05\\
189	0.000395822032898026\\
190	0.000217071435105859\\
191	5.74540690990004e-05\\
192	4.37912439566655e-05\\
193	3.79161844105234e-05\\
194	0.000217584585623505\\
195	5.67011610802413e-05\\
196	3.67430917352439e-05\\
197	4.17243159015566e-05\\
198	5.11213556695341e-05\\
199	0.000156820976033178\\
};
\addlegendentry{$\mathbf{\hat{h}_{1}}$}

\addplot [color=mycolor2]
  table[row sep=crcr]{%
0	7.22929869671656e-05\\
1	5.4708842910209e-05\\
2	0.000120729719485944\\
3	0.000112835230648806\\
4	2.8858314818247e-05\\
5	2.97756932405652e-05\\
6	4.94302439052305e-05\\
7	0.000114799623695115\\
8	4.67311200816683e-05\\
9	5.85236791667583e-05\\
10	8.42540664280943e-05\\
11	3.17425693971122e-05\\
12	4.39470511631279e-05\\
13	7.78984411072802e-05\\
14	6.35276381662587e-05\\
15	4.42961552461038e-05\\
16	0.000134073140908998\\
17	4.24653784568811e-05\\
18	8.41126469398342e-05\\
19	1.95320445585976e-05\\
20	6.46594727409907e-05\\
21	3.39431796692111e-05\\
22	8.2560919228024e-05\\
23	4.42880614063014e-05\\
24	7.62987260652879e-05\\
25	2.25103542320683e-05\\
26	1.70179199347945e-05\\
27	7.74690860663245e-05\\
28	2.1255161433508e-05\\
29	9.82745337238257e-05\\
30	1.33969342273613e-05\\
31	2.94040340733345e-05\\
32	1.8254519191418e-05\\
33	1.69562047640569e-05\\
34	5.39238804051529e-05\\
35	3.76896872185154e-05\\
36	2.49845338899786e-05\\
37	0.000179982781010372\\
38	3.23824982579265e-05\\
39	1.73442000023782e-05\\
40	2.16149494862251e-05\\
41	8.37542845636184e-05\\
42	2.28699497411382e-05\\
43	7.65174243023173e-06\\
44	1.91623033921247e-05\\
45	4.47130820754153e-05\\
46	5.46160601106671e-05\\
47	2.50776630382402e-05\\
48	2.61717934411066e-05\\
49	2.95473354417382e-05\\
50	2.50566414916337e-05\\
51	5.62393148092234e-05\\
52	4.27490727806588e-05\\
53	6.9766630850924e-05\\
54	0.000129777334231038\\
55	0.000353685817063416\\
56	0.000162516213976662\\
57	6.57433210447796e-05\\
58	8.16846196430585e-05\\
59	9.27277330083405e-05\\
60	4.39901994120921e-05\\
61	2.19078947539746e-05\\
62	7.72428901683057e-05\\
63	0.000406363392866005\\
64	7.8752473643546e-05\\
65	0.00349139771157075\\
66	0.00181385741827822\\
67	0.00151460631151654\\
68	0.00121111197625782\\
69	0.00111494820681187\\
70	0.00231815115767768\\
71	0.00836953370459733\\
72	0.00491824290137564\\
73	0.0137742194858615\\
74	0.00616046153100631\\
75	1.4772290991525e-05\\
76	0.00326126279020229\\
77	0.000488923551009976\\
78	0.00320405510774904\\
79	0.00478748114575294\\
80	0.0124394378910357\\
81	0.0714461099751999\\
82	0.0132336587351494\\
83	0.0230264839293641\\
84	0.0122372917518925\\
85	0.00741792905946584\\
86	0.00425190465249282\\
87	6.35619024529193e-05\\
88	0.0503623574628096\\
89	0.0725242203488479\\
90	0.0241958029623503\\
91	0.113588625942018\\
92	0.00596311055868576\\
93	0.0117219324972094\\
94	4.85804390991625e-06\\
95	0.0187799195976164\\
96	0.0236843256727765\\
97	0.0403390465232215\\
98	0.00865541487018397\\
99	0.967964252954536\\
100	0.00763902884333384\\
101	0.0413917255047775\\
102	0.0245518595529651\\
103	0.0197378164016376\\
104	0.0304918839851989\\
105	0.0108577451415993\\
106	0.00436527570238978\\
107	0.114264711221824\\
108	0.0239616934628856\\
109	0.0734912226353755\\
110	0.0523283171171695\\
111	4.66164838771731e-05\\
112	0.00824898057473966\\
113	0.00866635596835724\\
114	0.0120534940649446\\
115	0.0224743362511928\\
116	0.0130154352471052\\
117	0.0727553665053934\\
118	0.0121171810555642\\
119	0.00472487358361269\\
120	0.00315263763135305\\
121	0.000408915832993006\\
122	0.00164738519652911\\
123	2.27470595816595e-05\\
124	0.00630995531362733\\
125	0.0128184326381434\\
126	0.0051463252917289\\
127	0.00917214640089805\\
128	0.00266860497239571\\
129	0.00135689698569878\\
130	0.00147347049938383\\
131	0.00245475796593471\\
132	0.00233044999357578\\
133	0.00392274121301065\\
134	8.41157037558372e-05\\
135	0.00012155290839567\\
136	6.42132683795153e-05\\
137	0.000195330061962527\\
138	6.63274763393174e-06\\
139	7.79694021589304e-05\\
140	0.000140830604699098\\
141	7.04337275102953e-05\\
142	0.000541111386898594\\
143	0.000595734533212664\\
144	0.000211354481375163\\
145	7.89989826141307e-05\\
146	2.66341088448789e-05\\
147	3.45815315090623e-05\\
148	4.33215034122348e-05\\
149	4.66405504678686e-05\\
150	2.58158774255608e-05\\
151	2.38448354505395e-05\\
152	4.41404670753516e-05\\
153	0.000111197580868093\\
154	1.84996128007854e-06\\
155	1.47852998064157e-05\\
156	2.71317771490641e-05\\
157	0.000135203514933742\\
158	3.58790582358402e-05\\
159	2.44230897634457e-05\\
160	2.74288720519727e-05\\
161	0.000307344350124888\\
162	5.5357084539283e-05\\
163	3.56752305389716e-05\\
164	4.43649051504105e-05\\
165	1.652688713606e-05\\
166	8.65988137174319e-05\\
167	1.52594344523146e-05\\
168	1.61280362966638e-05\\
169	0.000106730283132342\\
170	4.98991055450246e-05\\
171	5.01938489111115e-05\\
172	2.46951851944855e-05\\
173	8.03363978562192e-05\\
174	9.3222986344829e-05\\
175	6.20534079485732e-05\\
176	8.32211248947731e-05\\
177	3.45094160079146e-05\\
178	6.97738610711717e-05\\
179	2.36651449916494e-05\\
180	7.21168865424661e-05\\
181	3.89377271984239e-05\\
182	0.000167036051999482\\
183	8.68267696616819e-05\\
184	4.31768698222077e-05\\
185	4.50317219428483e-05\\
186	3.08334386890975e-05\\
187	5.14786921498185e-05\\
188	7.71164643765527e-05\\
189	6.47559608843297e-05\\
190	6.01733205690113e-05\\
191	0.000152238001558771\\
192	7.72241509878773e-05\\
193	2.74973793871205e-05\\
194	1.7995493295997e-05\\
195	0.000109228661820137\\
196	0.00011500460363857\\
197	5.86177691702348e-05\\
198	8.30946806308723e-05\\
199	4.1145083653204e-06\\
};
\addlegendentry{$\mathbf{\hat{h}_{2}}$}

\end{axis}
\end{tikzpicture}%