% This file was created by matlab2tikz.
%
%The latest updates can be retrieved from
%  http://www.mathworks.com/matlabcentral/fileexchange/22022-matlab2tikz-matlab2tikz
%where you can also make suggestions and rate matlab2tikz.
%
\definecolor{mycolor1}{rgb}{0.00000,0.44700,0.74100}%
\definecolor{mycolor2}{rgb}{0.85000,0.32500,0.09800}%
%
\begin{tikzpicture}

\begin{axis}[%
width=1.935in,
height=3.2in,
at={(0.758in,0.512in)},
scale only axis,
xmin=0,
xmax=100,
xlabel style={font=\color{white!15!black}, align=center},
xlabel={Sample Index\\[1ex](a) Actual},
ymin=0,
ymax=1,
axis background/.style={fill=white},
legend style={legend cell align=left, align=left, draw=white!15!black}
]
\addplot [color=mycolor1]
  table[row sep=crcr]{%
1	0.0216926152020066\\
2	0.0241183965289278\\
3	0.0267807478156139\\
4	0.0354280601095614\\
5	0.221828667704926\\
6	0.648965745595675\\
7	0.241270440438586\\
8	0.0776642628644082\\
9	0.0581044824071981\\
10	0.0611489366831747\\
11	0.0798140419847986\\
12	0.062735544320507\\
13	0.113011040425493\\
14	0.377485382687519\\
15	0.331649248845691\\
16	0.18615433793772\\
17	0.146493252817741\\
18	0.0847190801249442\\
19	0.0628278567269286\\
20	0.0148364296169451\\
21	0.0250471739922352\\
22	0.0344835915107885\\
23	0.116323790948646\\
24	0.279210940275387\\
25	0.101045410677318\\
26	0.0464379665429307\\
27	0.041398863205924\\
28	0.0263226969199998\\
29	0.0221848789960478\\
30	0.0197642774213948\\
31	0.0186496517239344\\
32	0.0219339353832985\\
33	0.018414044189717\\
34	0.00937919788338426\\
35	0.0100670783096178\\
36	0.0098135024549665\\
37	0.00937197330245933\\
38	0.00884810306396591\\
39	0.00821513429074651\\
40	0.00732026654240377\\
41	0.00945021173361951\\
42	0.0127255218727005\\
43	0.00946415089832864\\
44	0.00862800399957479\\
45	0.00816256372793386\\
46	0.00784857678072338\\
47	0.00764005346579914\\
48	0.00755773656417068\\
49	0.00776075567554332\\
50	0.00986938420958768\\
51	0.00319649311885596\\
52	0.00500292172051245\\
53	0.00524752973649041\\
54	0.00526667690567613\\
55	0.00521575322380608\\
56	0.00513704586881206\\
57	0.00504647235310817\\
58	0.00495116794332671\\
59	0.00485468351773321\\
60	0.00475890010347922\\
61	0.00466484578572566\\
62	0.00457308311118313\\
63	0.00448390798586452\\
64	0.0043974582605137\\
65	0.00431377595094964\\
66	0.00423284428954661\\
67	0.00415461047403326\\
68	0.00407899997367922\\
69	0.00400592569101114\\
70	0.00393529390404367\\
71	0.0038670081481966\\
72	0.00380097175500134\\
73	0.00373708950172093\\
74	0.00367526866536834\\
75	0.00361541967416126\\
76	0.00355745648532918\\
77	0.00350129677649243\\
78	0.00344686201027152\\
79	0.00339407741330312\\
80	0.00334287189828014\\
81	0.0032931779490063\\
82	0.00324493148246751\\
83	0.00319807169773062\\
84	0.003152540918526\\
85	0.00310828443427485\\
86	0.00306525034282854\\
87	0.00302338939712195\\
88	0.00298265485717807\\
89	0.00294300234835571\\
90	0.00290438972634362\\
91	0.0028667769491261\\
92	0.00283012595595264\\
93	0.0027944005532083\\
94	0.00275956630699144\\
95	0.0027255904421446\\
96	0.00269244174744817\\
97	0.00266009048666622\\
98	0.00262850831512411\\
99	0\\
100	0\\
};
\addlegendentry{$\mathbf{h_1}$}

\addplot [color=mycolor2]
  table[row sep=crcr]{%
1	0.00108294891904515\\
2	0.00115806441999571\\
3	0.00125656841390277\\
4	0.00139359850086552\\
5	0.00159676508941691\\
6	0.00191784013184518\\
7	0.00245777585368985\\
8	0.00342819163679349\\
9	0.00533730915065768\\
10	0.00974214709050295\\
11	0.0244449264542886\\
12	0.973731186814765\\
13	0.0500739614470277\\
14	0.0426946282907342\\
15	0.00536788790071817\\
16	0.0362080823589407\\
17	0.176144271962331\\
18	0.115663212635922\\
19	0.0234963057121139\\
20	0.0138738178597906\\
21	0.00966054585381422\\
22	0.00731818549393035\\
23	0.00584139575065055\\
24	0.0048330083027894\\
25	0.00410500747522503\\
26	0.00355723928842746\\
27	0.00313167065616096\\
28	0.00279247304593218\\
29	0.00251639833876938\\
30	0.00228774297450139\\
31	0.00209554142652578\\
32	0.00193191967393617\\
33	0.00179108704155738\\
34	0.00166869616651274\\
35	0\\
36	0\\
37	0\\
38	0\\
39	0\\
40	0\\
41	0\\
42	0\\
43	0\\
44	0\\
45	0\\
46	0\\
47	0\\
48	0\\
49	0\\
50	0\\
51	0\\
52	0\\
53	0\\
54	0\\
55	0\\
56	0\\
57	0\\
58	0\\
59	0\\
60	0\\
61	0\\
62	0\\
63	0\\
64	0\\
65	0\\
66	0\\
67	0\\
68	0\\
69	0\\
70	0\\
71	0\\
72	0\\
73	0\\
74	0\\
75	0\\
76	0\\
77	0\\
78	0\\
79	0\\
80	0\\
81	0\\
82	0\\
83	0\\
84	0\\
85	0\\
86	0\\
87	0\\
88	0\\
89	0\\
90	0\\
91	0\\
92	0\\
93	0\\
94	0\\
95	0\\
96	0\\
97	0\\
98	0\\
99	0\\
100	0\\
};
\addlegendentry{$\mathbf{h_{2}}$}

\end{axis}

\begin{axis}[%
width=1.935in,
height=3.2in,
at={(3.327in,0.512in)},
scale only axis,
xmin=0,
xmax=60,
xlabel style={font=\color{white!15!black}, align=center},
xlabel={Sample Index\\[1ex](b) Estimated},
ymin=0,
ymax=1,
axis background/.style={fill=white},
legend style={legend cell align=left, align=left, draw=white!15!black}
]
\addplot [color=mycolor1]
  table[row sep=crcr]{%
0	0.0517157367679029\\
1	0.0039841271377992\\
2	0.0224120237212284\\
3	0.000969182146887422\\
4	0.00389187372786393\\
5	0.00838380242340041\\
6	0.0109289013273964\\
7	0.0430964874639781\\
8	0.0857533333332915\\
9	0.0536763148425277\\
10	0.0735967249502145\\
11	0.0364011196511928\\
12	0.0133027847063704\\
13	0.0695852000577556\\
14	0.0158944320889783\\
15	0.0382196155662534\\
16	0.00740534496326884\\
17	0.17664091288671\\
18	0.675056137229107\\
19	0.202953778413222\\
20	0.0289470874589428\\
21	0.103044612319118\\
22	0.0842765968522185\\
23	0.126009475403524\\
24	0.029474053771628\\
25	0.095669617170381\\
26	0.361398851561814\\
27	0.285021271241323\\
28	0.190064985194369\\
29	0.123390778619486\\
30	0.081543365119273\\
31	0.0732169238515363\\
32	0.0609461101093871\\
33	0.0372728922530495\\
34	0.072502032874062\\
35	0.146659972740121\\
36	0.267239762509557\\
37	0.0628820519774819\\
38	0.0116297545488326\\
39	0.0130163797223166\\
40	0.0133894486356371\\
41	0.0118094645631642\\
42	0.0367579719682471\\
43	0.054406969493626\\
44	0.0830884668439464\\
45	0.0410839377521237\\
46	0.0304475934481432\\
47	0.00536631738693956\\
48	0.0259354189308233\\
49	0.0223335912079701\\
50	0.0181288850224654\\
};
\addlegendentry{$\mathbf{\hat{h}_{1}}$}

\addplot [color=mycolor2]
  table[row sep=crcr]{%
0	0.00229856935487819\\
1	0.00400539021179266\\
2	0.00359042146756924\\
3	0.00395593539851948\\
4	0.00519135553504503\\
5	0.0131746132896956\\
6	0.0749880983459499\\
7	0.0202796471386199\\
8	0.0308140540317465\\
9	0.0149990070954287\\
10	0.00848092118610094\\
11	0.00683869817017578\\
12	5.80172441739713e-05\\
13	0.0595564410769188\\
14	0.0779572704185807\\
15	0.0305584044136154\\
16	0.130869993475896\\
17	0.00621947300006684\\
18	0.0244633238326142\\
19	0.044900086276666\\
20	0.026774949373967\\
21	0.0275940415952084\\
22	0.0455713531539872\\
23	0.0114484506687963\\
24	0.956772000224554\\
25	0.0101225337975435\\
26	0.0460998303544829\\
27	0.0303684821554567\\
28	0.0272831935088617\\
29	0.0468051596501054\\
30	0.024529607645351\\
31	0.00578424419316413\\
32	0.132202529031064\\
33	0.030506268744667\\
34	0.077713067622691\\
35	0.0608885374096283\\
36	4.47978133743897e-05\\
37	0.00815637144269687\\
38	0.0108435414645047\\
39	0.0131462060350091\\
40	0.0274090973888984\\
41	0.0185599302487431\\
42	0.0776946936855863\\
43	0.0178999772182188\\
44	0.00566540299771503\\
45	0.0059099762111445\\
46	0.00347049634902042\\
47	0.00529514131757552\\
48	0.00378893621526076\\
49	0.007032281876358\\
50	0.0113769385211945\\
};
\addlegendentry{$\mathbf{\hat{h}_{2}}$}

\end{axis}
\end{tikzpicture}%