% This file was created by matlab2tikz.
%
%The latest updates can be retrieved from
%  http://www.mathworks.com/matlabcentral/fileexchange/22022-matlab2tikz-matlab2tikz
%where you can also make suggestions and rate matlab2tikz.
%
\definecolor{mycolor1}{rgb}{0.00000,0.44700,0.74100}%
\definecolor{mycolor2}{rgb}{0.85000,0.32500,0.09800}%
%
\begin{tikzpicture}

\begin{axis}[%
width=1.935in,
height=3.2in,
at={(0.758in,0.512in)},
scale only axis,
xmin=0,
xmax=100,
xlabel style={font=\color{white!15!black}, align=center},
xlabel={Sample Index\\[1ex](a) Actual},
ymin=0,
ymax=1,
axis background/.style={fill=white},
legend style={legend cell align=left, align=left, draw=white!15!black}
]
\addplot [color=mycolor1]
  table[row sep=crcr]{%
1	0.0216926152020066\\
2	0.0241183965289278\\
3	0.0267807478156139\\
4	0.0354280601095614\\
5	0.221828667704926\\
6	0.648965745595675\\
7	0.241270440438586\\
8	0.0776642628644082\\
9	0.0581044824071981\\
10	0.0611489366831747\\
11	0.0798140419847986\\
12	0.062735544320507\\
13	0.113011040425493\\
14	0.377485382687519\\
15	0.331649248845691\\
16	0.18615433793772\\
17	0.146493252817741\\
18	0.0847190801249442\\
19	0.0628278567269286\\
20	0.0148364296169451\\
21	0.0250471739922352\\
22	0.0344835915107885\\
23	0.116323790948646\\
24	0.279210940275387\\
25	0.101045410677318\\
26	0.0464379665429307\\
27	0.041398863205924\\
28	0.0263226969199998\\
29	0.0221848789960478\\
30	0.0197642774213948\\
31	0.0186496517239344\\
32	0.0219339353832985\\
33	0.018414044189717\\
34	0.00937919788338426\\
35	0.0100670783096178\\
36	0.0098135024549665\\
37	0.00937197330245933\\
38	0.00884810306396591\\
39	0.00821513429074651\\
40	0.00732026654240377\\
41	0.00945021173361951\\
42	0.0127255218727005\\
43	0.00946415089832864\\
44	0.00862800399957479\\
45	0.00816256372793386\\
46	0.00784857678072338\\
47	0.00764005346579914\\
48	0.00755773656417068\\
49	0.00776075567554332\\
50	0.00986938420958768\\
51	0.00319649311885596\\
52	0.00500292172051245\\
53	0.00524752973649041\\
54	0.00526667690567613\\
55	0.00521575322380608\\
56	0.00513704586881206\\
57	0.00504647235310817\\
58	0.00495116794332671\\
59	0.00485468351773321\\
60	0.00475890010347922\\
61	0.00466484578572566\\
62	0.00457308311118313\\
63	0.00448390798586452\\
64	0.0043974582605137\\
65	0.00431377595094964\\
66	0.00423284428954661\\
67	0.00415461047403326\\
68	0.00407899997367922\\
69	0.00400592569101114\\
70	0.00393529390404367\\
71	0.0038670081481966\\
72	0.00380097175500134\\
73	0.00373708950172093\\
74	0.00367526866536834\\
75	0.00361541967416126\\
76	0.00355745648532918\\
77	0.00350129677649243\\
78	0.00344686201027152\\
79	0.00339407741330312\\
80	0.00334287189828014\\
81	0.0032931779490063\\
82	0.00324493148246751\\
83	0.00319807169773062\\
84	0.003152540918526\\
85	0.00310828443427485\\
86	0.00306525034282854\\
87	0.00302338939712195\\
88	0.00298265485717807\\
89	0.00294300234835571\\
90	0.00290438972634362\\
91	0.0028667769491261\\
92	0.00283012595595264\\
93	0.0027944005532083\\
94	0.00275956630699144\\
95	0.0027255904421446\\
96	0.00269244174744817\\
97	0.00266009048666622\\
98	0.00262850831512411\\
99	0\\
100	0\\
};
\addlegendentry{$\mathbf{h_1}$}

\addplot [color=mycolor2]
  table[row sep=crcr]{%
1	0.00108294891904515\\
2	0.00115806441999571\\
3	0.00125656841390277\\
4	0.00139359850086552\\
5	0.00159676508941691\\
6	0.00191784013184518\\
7	0.00245777585368985\\
8	0.00342819163679349\\
9	0.00533730915065768\\
10	0.00974214709050295\\
11	0.0244449264542886\\
12	0.973731186814765\\
13	0.0500739614470277\\
14	0.0426946282907342\\
15	0.00536788790071817\\
16	0.0362080823589407\\
17	0.176144271962331\\
18	0.115663212635922\\
19	0.0234963057121139\\
20	0.0138738178597906\\
21	0.00966054585381422\\
22	0.00731818549393035\\
23	0.00584139575065055\\
24	0.0048330083027894\\
25	0.00410500747522503\\
26	0.00355723928842746\\
27	0.00313167065616096\\
28	0.00279247304593218\\
29	0.00251639833876938\\
30	0.00228774297450139\\
31	0.00209554142652578\\
32	0.00193191967393617\\
33	0.00179108704155738\\
34	0.00166869616651274\\
35	0\\
36	0\\
37	0\\
38	0\\
39	0\\
40	0\\
41	0\\
42	0\\
43	0\\
44	0\\
45	0\\
46	0\\
47	0\\
48	0\\
49	0\\
50	0\\
51	0\\
52	0\\
53	0\\
54	0\\
55	0\\
56	0\\
57	0\\
58	0\\
59	0\\
60	0\\
61	0\\
62	0\\
63	0\\
64	0\\
65	0\\
66	0\\
67	0\\
68	0\\
69	0\\
70	0\\
71	0\\
72	0\\
73	0\\
74	0\\
75	0\\
76	0\\
77	0\\
78	0\\
79	0\\
80	0\\
81	0\\
82	0\\
83	0\\
84	0\\
85	0\\
86	0\\
87	0\\
88	0\\
89	0\\
90	0\\
91	0\\
92	0\\
93	0\\
94	0\\
95	0\\
96	0\\
97	0\\
98	0\\
99	0\\
100	0\\
};
\addlegendentry{$\mathbf{h_{2}}$}

\end{axis}

\begin{axis}[%
width=1.935in,
height=3.2in,
at={(3.327in,0.512in)},
scale only axis,
xmin=0,
xmax=200,
xlabel style={font=\color{white!15!black}, align=center},
xlabel={Sample Index\\[1ex](b) Estimated},
ymin=0,
ymax=1,
axis background/.style={fill=white},
legend style={legend cell align=left, align=left, draw=white!15!black}
]
\addplot [color=mycolor1]
  table[row sep=crcr]{%
0	0.000167549336598379\\
1	0.000102486094837384\\
2	6.06397974702951e-05\\
3	4.27941958019232e-05\\
4	0.000266662781094781\\
5	0.000298310071769555\\
6	8.70889471549677e-06\\
7	8.48997095578856e-05\\
8	3.23807512638002e-05\\
9	3.70801275797239e-05\\
10	4.54052553042027e-05\\
11	1.8969102343439e-05\\
12	7.26418127900875e-05\\
13	2.41342505685854e-05\\
14	7.48933689452389e-05\\
15	9.33749124906653e-05\\
16	0.000111035733147121\\
17	7.09691222022599e-05\\
18	3.78214709142303e-05\\
19	6.86892245683052e-05\\
20	3.93566772511502e-05\\
21	3.9201969912655e-05\\
22	5.13593341075963e-05\\
23	3.14393725743603e-05\\
24	0.000113658983646213\\
25	7.09621374015515e-05\\
26	0.000119151758636305\\
27	3.07600005320953e-05\\
28	7.26116593897352e-05\\
29	9.91306615737926e-05\\
30	7.87007822947008e-05\\
31	4.09872614684805e-05\\
32	3.39541691382429e-05\\
33	3.96491231179718e-05\\
34	0.000162194310787822\\
35	9.86134301025e-05\\
36	4.29145083971413e-05\\
37	0.000142791475225404\\
38	5.00230922810081e-05\\
39	0.000140097540812439\\
40	0.00015079540652125\\
41	5.96866851014192e-05\\
42	5.47213530014621e-05\\
43	4.0661582972617e-05\\
44	4.8390575789995e-05\\
45	8.08673787826722e-05\\
46	8.51275241608062e-05\\
47	0.00010587280273361\\
48	7.75025423005689e-05\\
49	2.50477852101441e-05\\
50	0.000191640123624829\\
51	0.000125115111051736\\
52	9.28326332672793e-05\\
53	0.000185660830568759\\
54	7.46297668399315e-05\\
55	0.000104005126136066\\
56	0.000170499971332063\\
57	0.000253168617501159\\
58	5.69727662745199e-05\\
59	7.29112385122027e-05\\
60	0.000131441605570319\\
61	1.81437250060984e-05\\
62	3.44829131555757e-05\\
63	7.67858576753101e-05\\
64	0.000107965164096776\\
65	0.000551906299954016\\
66	0.00174056054570682\\
67	0.000555406983813329\\
68	3.30104000367031e-05\\
69	0.000160816538622831\\
70	0.000186396356159577\\
71	3.70988199070217e-05\\
72	0.00144016524464842\\
73	7.20722151414252e-05\\
74	0.0092980860348159\\
75	0.0315933239884215\\
76	0.000136892832053442\\
77	0.00692265423594546\\
78	0.0010729537417894\\
79	0.00286490114504124\\
80	0.00241199902629698\\
81	0.00793760207267011\\
82	0.0261423015791438\\
83	0.0601954194091032\\
84	0.0364767987703373\\
85	0.0461512380186836\\
86	0.0313857441391487\\
87	0.0237513273643103\\
88	0.081736957841091\\
89	0.0194076376005737\\
90	0.031589066475644\\
91	0.00945279351174927\\
92	0.181476367699248\\
93	0.680695390701948\\
94	0.205154245917159\\
95	0.0260656395643095\\
96	0.120337450859836\\
97	0.0766367509618763\\
98	0.115288766737781\\
99	0.0278044028690726\\
100	0.0984906830524372\\
101	0.378933301543373\\
102	0.290857093520437\\
103	0.180301867423884\\
104	0.122099535930015\\
105	0.0752609050391692\\
106	0.0861839041453114\\
107	0.0457631904547401\\
108	0.0355174461186493\\
109	0.0601314602875715\\
110	0.13170269026424\\
111	0.269361143737785\\
112	0.0653232440788729\\
113	0.00486142238983775\\
114	0.00755074631428187\\
115	0.0140027825482124\\
116	0.0104755721900167\\
117	0.0289050616487835\\
118	0.0388354077170228\\
119	0.0595676718478019\\
120	0.0266569995568608\\
121	0.0137298729830139\\
122	0.0015775758549641\\
123	0.0160979414310146\\
124	0.0136977950640774\\
125	0.00686542694278007\\
126	0.00258518577253769\\
127	0.00666340652225855\\
128	0.0143584885899424\\
129	0.00812437091269573\\
130	0.0104916814762357\\
131	0.00326271392889317\\
132	0.00153524386181129\\
133	0.00423119295926393\\
134	0.0043148636867978\\
135	0.0059297620153341\\
136	0.00722693046866301\\
137	0.00799126875451502\\
138	0.000122441579740537\\
139	0.00139805183414729\\
140	0.00116261845693506\\
141	0.000164319658666776\\
142	0.000543660336618651\\
143	0.000139983232398085\\
144	0.000115206619834655\\
145	0.000172593164467484\\
146	0.00083607071979185\\
147	0.00198327702249897\\
148	9.16407006509499e-05\\
149	0.00026171607755893\\
150	0.000213567653889941\\
151	0.000236619991647167\\
152	0.000241423684557751\\
153	0.000294434796571008\\
154	5.10722537454386e-05\\
155	8.94593224054193e-05\\
156	6.67101730775744e-05\\
157	8.69490816764977e-05\\
158	2.40297087105283e-05\\
159	0.000191575749170667\\
160	7.80320402273709e-05\\
161	2.61328660918424e-05\\
162	0.000247571205179504\\
163	0.000224925572597027\\
164	0.000187571629217229\\
165	7.28041728295749e-05\\
166	0.000107744132272044\\
167	5.83697845977217e-05\\
168	0.000126034411224713\\
169	0.000201929367902581\\
170	3.4503438478129e-05\\
171	0.000341353123677321\\
172	9.42603850059608e-05\\
173	1.2491386157979e-05\\
174	3.06724627385826e-05\\
175	8.84682084464651e-05\\
176	0.000108078000686082\\
177	7.8222567777676e-05\\
178	5.62067287306845e-05\\
179	0.000159279592575858\\
180	0.000129047257313167\\
181	8.55300636583928e-05\\
182	0.000258746280149204\\
183	3.98167568184439e-05\\
184	2.93212517556421e-05\\
185	0.000314007975142568\\
186	9.72655691677349e-05\\
187	9.65456955184168e-05\\
188	2.02936824678495e-05\\
189	3.27642419864236e-05\\
190	0.000106155734497383\\
191	4.99395594944745e-05\\
192	6.34026966928983e-05\\
193	0.000117977834402224\\
194	4.64956772046349e-05\\
195	0.000101826967415932\\
196	0.000132731877219387\\
197	6.11936808908679e-05\\
198	0.000301740536181015\\
199	0.000114542321300918\\
};
\addlegendentry{$\mathbf{\hat{h}_{1}}$}

\addplot [color=mycolor2]
  table[row sep=crcr]{%
0	3.16497004752325e-05\\
1	3.90741330680347e-06\\
2	0.000110869844094535\\
3	8.35899199704502e-06\\
4	9.01572120782075e-05\\
5	4.17705645083381e-05\\
6	4.76095972179887e-05\\
7	7.99733411822668e-05\\
8	2.20651479847532e-05\\
9	2.23103061269529e-05\\
10	0.000111715512692828\\
11	2.71188294533109e-05\\
12	5.08063257109129e-05\\
13	1.94752275009981e-05\\
14	2.00615601011662e-05\\
15	2.16611018369637e-05\\
16	4.2663679766466e-05\\
17	2.18919607244186e-05\\
18	2.48464603082405e-05\\
19	4.3771309438594e-05\\
20	4.11394681545575e-05\\
21	0.000117699230999555\\
22	3.68651244883934e-05\\
23	2.70516617392661e-05\\
24	2.80368287411135e-05\\
25	4.89979802350931e-05\\
26	2.70618230721745e-05\\
27	1.13672592649863e-05\\
28	6.08722433066843e-05\\
29	5.57366559059506e-05\\
30	7.05727986741017e-05\\
31	2.80512201552668e-05\\
32	3.43638531114092e-05\\
33	2.15878591773024e-05\\
34	4.58720727344533e-05\\
35	2.41942072825382e-05\\
36	6.14543065503344e-05\\
37	8.47364226763689e-06\\
38	5.3686608440238e-05\\
39	4.81405815504323e-05\\
40	1.36385068164916e-05\\
41	1.38636053418256e-05\\
42	3.57115537152244e-05\\
43	5.16479862152442e-05\\
44	7.74856300633944e-05\\
45	7.51432908758718e-05\\
46	9.14918381545837e-05\\
47	9.27563428204187e-05\\
48	6.61980298329534e-05\\
49	2.42679229542502e-05\\
50	5.82919841314601e-05\\
51	7.39358768048845e-05\\
52	7.49321504647066e-05\\
53	4.36151832057568e-05\\
54	0.000180559686400816\\
55	0.000614161022634698\\
56	0.000414047395916005\\
57	5.74621725151504e-05\\
58	3.41697335135927e-05\\
59	8.88739204183374e-05\\
60	1.55269793770457e-05\\
61	0.000116674326554481\\
62	0.000403112111745063\\
63	4.05728603908015e-05\\
64	3.23584756489529e-05\\
65	0.00335428546205488\\
66	0.00151142866120677\\
67	0.00161503653042503\\
68	0.00164478048483426\\
69	0.000191963057799129\\
70	0.0015299149683524\\
71	0.00964082894720429\\
72	0.00533418929043324\\
73	0.0128515194921415\\
74	0.00628192015540616\\
75	5.75395245687184e-05\\
76	0.00248185040434215\\
77	0.000305724414996288\\
78	0.00341899810684154\\
79	0.00468434935409263\\
80	0.0117022936698\\
81	0.0711389822387924\\
82	0.0130623872430362\\
83	0.0213663547122927\\
84	0.0105779898786004\\
85	0.00702564417667836\\
86	0.00666392946930616\\
87	1.28352836791041e-05\\
88	0.0502038017765099\\
89	0.0719868635823754\\
90	0.0236560556828052\\
91	0.113495293292312\\
92	0.00417507396820805\\
93	0.0123378882357712\\
94	0.0280845066929842\\
95	0.0186270115277498\\
96	0.024962017107732\\
97	0.0404819210555782\\
98	0.0086548609096838\\
99	0.967875597730001\\
100	0.00791477618894058\\
101	0.0408449756853279\\
102	0.0270858831243538\\
103	0.0190805637975801\\
104	0.0286305715142018\\
105	0.0121380095317589\\
106	0.00340814451942204\\
107	0.113947216101225\\
108	0.0240108242597887\\
109	0.0726767013733091\\
110	0.0516686994176939\\
111	1.67098343611962e-05\\
112	0.00699293565257356\\
113	0.00811182694908769\\
114	0.0117579165834923\\
115	0.021941860364533\\
116	0.0129892214830325\\
117	0.0725648240584308\\
118	0.0117173040620027\\
119	0.00449134513779658\\
120	0.00273237866985677\\
121	0.000235014737344629\\
122	0.00161855896386528\\
123	0.000276920112465068\\
124	0.00653702085033787\\
125	0.0121688689579388\\
126	0.00534500530910819\\
127	0.0101812890386424\\
128	0.00171502638514644\\
129	0.000602727009171468\\
130	0.00170412673358032\\
131	0.00254958259824359\\
132	0.00215149285209234\\
133	0.00381104677442508\\
134	4.42088604918439e-05\\
135	3.64824057842578e-05\\
136	0.000367249293929409\\
137	0.000349954607640009\\
138	1.70889743437807e-05\\
139	9.24316880425652e-05\\
140	3.69059590481998e-05\\
141	0.000134375577695046\\
142	0.000721839270791661\\
143	0.000875682572247746\\
144	0.000435184218249803\\
145	3.05937302855596e-05\\
146	9.18123952657121e-05\\
147	0.000119128157107844\\
148	9.80997246938655e-05\\
149	4.57541659278513e-05\\
150	3.87779629354548e-05\\
151	0.00012017192549002\\
152	0.000149331810153755\\
153	0.000153723702951899\\
154	8.32938233802931e-05\\
155	4.9978413168776e-05\\
156	6.53798668676555e-05\\
157	3.37209292103322e-05\\
158	1.69607097481036e-05\\
159	9.3375890713921e-05\\
160	6.60980235435059e-05\\
161	8.38501646666203e-06\\
162	6.78220010505448e-05\\
163	1.66095980462876e-05\\
164	6.4756321135063e-05\\
165	1.72674145368903e-05\\
166	4.66314065221809e-05\\
167	3.84061896331103e-05\\
168	0.00010476752284863\\
169	9.5240178138021e-05\\
170	6.39133192286793e-05\\
171	1.61782262965732e-05\\
172	2.39411442856751e-05\\
173	5.58033721268825e-05\\
174	2.04021948357692e-05\\
175	4.05080419337385e-05\\
176	1.85119602190078e-05\\
177	0.000137108302812385\\
178	4.17933474516803e-05\\
179	3.5502601668496e-05\\
180	7.21720140348879e-05\\
181	2.1407513287164e-05\\
182	4.66983340446296e-05\\
183	2.64113689482288e-05\\
184	1.01768413560971e-05\\
185	1.28098934629336e-05\\
186	7.13600724613498e-05\\
187	4.24749753899325e-05\\
188	0.000149641614216259\\
189	2.60052758344744e-05\\
190	4.62994158577755e-05\\
191	0.000120439812323352\\
192	5.44003899241586e-05\\
193	2.87322817794458e-05\\
194	9.85845682242825e-05\\
195	4.03337760273376e-06\\
196	0.000112441892711828\\
197	5.99234630550616e-06\\
198	4.59400221640005e-05\\
199	7.82500225178119e-05\\
};
\addlegendentry{$\mathbf{\hat{h}_{2}}$}

\end{axis}
\end{tikzpicture}%