% This file was created by matlab2tikz.
%
%The latest updates can be retrieved from
%  http://www.mathworks.com/matlabcentral/fileexchange/22022-matlab2tikz-matlab2tikz
%where you can also make suggestions and rate matlab2tikz.
%
\definecolor{mycolor1}{rgb}{0.00000,0.44700,0.74100}%
\definecolor{mycolor2}{rgb}{0.85000,0.32500,0.09800}%
%
\begin{tikzpicture}

\begin{axis}[%
width=1.935in,
height=3.2in,
at={(0.758in,0.512in)},
scale only axis,
xmin=0,
xmax=150,
xlabel style={font=\color{white!15!black}, align=center},
xlabel={Sample Index\\[1ex](a) Actual},
ymin=0,
ymax=0.7,
axis background/.style={fill=white},
legend style={legend cell align=left, align=left, draw=white!15!black}
]
\addplot [color=mycolor1]
  table[row sep=crcr]{%
1	0.0234657806037261\\
2	0.0272334504034075\\
3	0.0326864300765018\\
4	0.0414541482980318\\
5	0.0586677033458464\\
6	0.117843438362983\\
7	0.159969331461504\\
8	0.174397116945152\\
9	0.616552810702634\\
10	0.0882137642931462\\
11	0.0472681903124796\\
12	0.0327587509505929\\
13	0.0272256709659274\\
14	0.0412344622245766\\
15	0.0186762848129325\\
16	0.0451940046978057\\
17	0.0153724087875252\\
18	0.0239672675363248\\
19	0.0400285717874473\\
20	0.0828333966509162\\
21	0.557624977131952\\
22	0.149414784250917\\
23	0.109138078132702\\
24	0.0381681231028791\\
25	0.032799759178118\\
26	0.191519461959093\\
27	0.0734580287558902\\
28	0.0358315656953253\\
29	0.0179563195827385\\
30	0.0169149242156914\\
31	0.0179798517146348\\
32	0.0199431506445131\\
33	0.0279225394655299\\
34	0.0908594243819801\\
35	0.0439964246924232\\
36	0.330890477505262\\
37	0.037800506563543\\
38	0.020261933748638\\
39	0.0138181229977315\\
40	0.0211497159554441\\
41	0.0112042208144458\\
42	0.00964538908702694\\
43	0.00864780826327016\\
44	0.00787736374270682\\
45	0.00720180133294831\\
46	0.00651453200193765\\
47	0.00565492088107664\\
48	0.0112814316241706\\
49	0.0075966567083061\\
50	0.0102713040739602\\
51	0.00787142060243747\\
52	0.00711780022683946\\
53	0.00668443537322835\\
54	0.00638223966522588\\
55	0.00615487020840034\\
56	0.00598242225636516\\
57	0.00586293416152974\\
58	0.00581626175933958\\
59	0.00593494184987807\\
60	0.00707647204853056\\
61	0.00861312572402681\\
62	0.00240649054353041\\
63	0.0036902508247688\\
64	0.0040125763148678\\
65	0.00408542983582614\\
66	0.00408934467211144\\
67	0.00406760360864643\\
68	0.00403657730104579\\
69	0.00400486664899167\\
70	0.00397913876457006\\
71	0.00396763365360209\\
72	0.00398577860522856\\
73	0.00407460869510253\\
74	0.00440882178496405\\
75	0.00852319154542653\\
76	0.00211982859547221\\
77	0.00279674481878385\\
78	0.00295234209521732\\
79	0.00299967450324673\\
80	0.00300734384297471\\
81	0.00299658049652506\\
82	0.00297609501762909\\
83	0.00295010695632826\\
84	0.00292089738309008\\
85	0.00288979839106794\\
86	0.00285763293534116\\
87	0.00282493110979805\\
88	0.00279204510261472\\
89	0.00275921420187501\\
90	0.00272660345813555\\
91	0.00269432766245323\\
92	0.00266246675038502\\
93	0.00263107599882434\\
94	0.00260019295165966\\
95	0.00256984222925479\\
96	0.00254003893333548\\
97	0.0025107910982644\\
98	0.00248210148178531\\
99	0.00245396889001376\\
100	0.00242638916874131\\
101	0.00239935595223708\\
102	0.00237286123354156\\
103	0.00234689580183488\\
104	0.00232144957979209\\
105	0.00229651188498403\\
106	0.00227207163310714\\
107	0.0022481174963278\\
108	0.00222463802675857\\
109	0.00220162175268604\\
110	0.00217905725339276\\
111	0.0021569332170867\\
112	0.00213523848544673\\
113	0.00211396208753109\\
114	0.00209309326520902\\
115	0.00207262149182518\\
116	0.00205253648545491\\
117	0.00203282821783402\\
118	0.00201348691983224\\
119	0.00199450308416773\\
120	0.00197586746592614\\
121	0.00195757108133911\\
122	0.0019396052051902\\
123	0.0019219613671484\\
124	0.00190463134727109\\
125	0.00188760717087541\\
126	0.00187088110293773\\
127	0.00185444564215264\\
128	0.0018382935147574\\
129	0.00182241766820821\\
130	0.00180681126477794\\
131	0.00179146767513212\\
132	0.00177638047192757\\
133	0.00176154342347035\\
134	0.00174695048746156\\
135	0.0017325958048528\\
136	0.00171847369382931\\
137	0.00170457864393352\\
138	0.0016909053103386\\
139	0.00167744850827835\\
140	0.00166420320763913\\
141	0.00165116452771496\\
142	0.00163832773212761\\
143	0.00162568822391149\\
144	0.00161324154076111\\
145	0.0016009833504405\\
146	0.00158890944635072\\
147	0.00157701574325256\\
148	0.00156529827314105\\
149	0\\
150	0\\
};
\addlegendentry{$\mathbf{h_1}$}

\addplot [color=mycolor2]
  table[row sep=crcr]{%
1	0.019775303219206\\
2	0.0210217764534023\\
3	0.0224372323963497\\
4	0.024058742711813\\
5	0.0259351263737046\\
6	0.0281320174688059\\
7	0.0307398096072034\\
8	0.0338865833958781\\
9	0.0377600935275399\\
10	0.0426472101764649\\
11	0.0490094599986528\\
12	0.0576401827385178\\
13	0.0700288298559564\\
14	0.0893407156606893\\
15	0.123700774100431\\
16	0.202175033398071\\
17	0.564479813098353\\
18	0.690442426104836\\
19	0.212260509632627\\
20	0.126132345068284\\
21	0.100380135781766\\
22	0.0378663697499036\\
23	0.0333199748773482\\
24	0.0149453064107011\\
25	0.10083899339379\\
26	0.161002397050911\\
27	0.0405118251764787\\
28	0.0383644765554957\\
29	0.0341227495803863\\
30	0.0306469105251072\\
31	0.0278570926171954\\
32	0.0255709383506331\\
33	0.0236574529195357\\
34	0.0220274984760589\\
35	0.0206190941704396\\
36	0.0193877726649002\\
37	0.0183006807256663\\
38	0.0173329207549748\\
39	0.016465211935799\\
40	0.0156823459816501\\
41	0.0149721364414517\\
42	0.0143246843629073\\
43	0.0137318527665838\\
44	0.0131868826449622\\
45	0.0126841071808284\\
46	0.0122187355837443\\
47	0.0117866872087634\\
48	0.0113844626077037\\
49	0.0110090421200206\\
50	0.0106578052804057\\
51	0\\
52	0\\
53	0\\
54	0\\
55	0\\
56	0\\
57	0\\
58	0\\
59	0\\
60	0\\
61	0\\
62	0\\
63	0\\
64	0\\
65	0\\
66	0\\
67	0\\
68	0\\
69	0\\
70	0\\
71	0\\
72	0\\
73	0\\
74	0\\
75	0\\
76	0\\
77	0\\
78	0\\
79	0\\
80	0\\
81	0\\
82	0\\
83	0\\
84	0\\
85	0\\
86	0\\
87	0\\
88	0\\
89	0\\
90	0\\
91	0\\
92	0\\
93	0\\
94	0\\
95	0\\
96	0\\
97	0\\
98	0\\
99	0\\
100	0\\
101	0\\
102	0\\
103	0\\
104	0\\
105	0\\
106	0\\
107	0\\
108	0\\
109	0\\
110	0\\
111	0\\
112	0\\
113	0\\
114	0\\
115	0\\
116	0\\
117	0\\
118	0\\
119	0\\
120	0\\
121	0\\
122	0\\
123	0\\
124	0\\
125	0\\
126	0\\
127	0\\
128	0\\
129	0\\
130	0\\
131	0\\
132	0\\
133	0\\
134	0\\
135	0\\
136	0\\
137	0\\
138	0\\
139	0\\
140	0\\
141	0\\
142	0\\
143	0\\
144	0\\
145	0\\
146	0\\
147	0\\
148	0\\
149	0\\
150	0\\
};
\addlegendentry{$\mathbf{h_{2}}$}

\end{axis}

\begin{axis}[%
width=1.935in,
height=3.2in,
at={(3.327in,0.512in)},
scale only axis,
xmin=0,
xmax=150,
xlabel style={font=\color{white!15!black}, align=center},
xlabel={Sample Index\\[1ex](b) Estimated},
ymin=0,
ymax=1,
axis background/.style={fill=white},
legend style={legend cell align=left, align=left, draw=white!15!black}
]
\addplot [color=mycolor1]
  table[row sep=crcr]{%
0	0.0001339073970452\\
1	6.92001933511424e-05\\
2	3.07208571714715e-05\\
3	4.15774679798942e-05\\
4	6.15078176441997e-05\\
5	5.6100523007092e-05\\
6	0.000150585037955753\\
7	8.14996231124891e-05\\
8	1.39009365851981e-05\\
9	4.57675844887701e-05\\
10	2.71298090614225e-05\\
11	0.000121544139433658\\
12	9.08761673589549e-05\\
13	0.000106790491285027\\
14	8.50255232191538e-06\\
15	7.15712174331335e-05\\
16	0.00016737077401669\\
17	0.000202527619532326\\
18	0.000171277772537951\\
19	0.000100163245807225\\
20	3.83986692023978e-05\\
21	0.000858750334892411\\
22	0.000151243391234377\\
23	3.97603605638607e-05\\
24	0.00478757366676584\\
25	0.000133772598236558\\
26	0.00235843861086122\\
27	5.62077778600213e-05\\
28	0.000126748493611815\\
29	0.000999588621962212\\
30	0.000238335943682933\\
31	0.00148369080777842\\
32	0.00355521507344676\\
33	0.00539810403455634\\
34	0.00831453470837009\\
35	0.00465559280348111\\
36	0.00591634592373669\\
37	0.016905390915238\\
38	0.0225109501912027\\
39	0.0189355557247603\\
40	0.0112028194503376\\
41	0.0191944387274001\\
42	0.00534628973221733\\
43	0.0110096356362334\\
44	0.0108878247314489\\
45	0.0140840036290473\\
46	0.00203374104478436\\
47	0.0102455274273018\\
48	0.0251146496399998\\
49	0.00842080842158654\\
50	0.0361530056444392\\
51	0.0912350592126931\\
52	0.0325766316917401\\
53	0.0248163586299908\\
54	0.0537041985266453\\
55	0.00799532481243279\\
56	0.0183830560720679\\
57	0.105327871276956\\
58	0.0319392086357519\\
59	0.0327902822497843\\
60	0.037728374468501\\
61	0.0310564133725816\\
62	0.0465296719266448\\
63	0.145797584736006\\
64	0.035637955395911\\
65	0.478413610983151\\
66	0.397188233276663\\
67	0.104193126806243\\
68	0.0908919608041815\\
69	0.0306426528630855\\
70	0.0961450197247825\\
71	0.0338654523488207\\
72	0.0549924915983015\\
73	0.0221402999791357\\
74	0.0883577034978301\\
75	0.0956243016417343\\
76	0.119925344861119\\
77	0.248292178010772\\
78	0.468948596283202\\
79	0.190648027573429\\
80	0.0805597274449985\\
81	0.0776431150029011\\
82	0.102506455647915\\
83	0.0997395254064683\\
84	0.106092705736009\\
85	0.0266654888281912\\
86	0.0365190524902923\\
87	0.0382456786718235\\
88	0.0271019364610206\\
89	0.040346967591968\\
90	0.112057733032049\\
91	0.101831505788463\\
92	0.277261889217594\\
93	0.0984022614709966\\
94	0.035077212889147\\
95	0.0514198642997525\\
96	0.0152742466417516\\
97	0.00750159320143833\\
98	0.0153799681848235\\
99	0.0159952090389837\\
100	0.0241830625612355\\
101	0.00379531293582327\\
102	0.0204226840252956\\
103	0.0255878282643042\\
104	0.060352278816989\\
105	0.0374366121430568\\
106	6.32197438700649e-05\\
107	0.0267506194866273\\
108	0.000809737578877583\\
109	0.00533658702251144\\
110	0.00606395839280425\\
111	0.000898701236541196\\
112	0.00228594563941873\\
113	0.000788928461894028\\
114	7.36977963480485e-05\\
115	0.00120165077136269\\
116	0.000114749755592872\\
117	0.0190430479964499\\
118	0.00476847022046284\\
119	0.00565051445118548\\
120	0.00225079087741202\\
121	0.0005458666405963\\
122	0.000560924224866014\\
123	0.000177600679954281\\
124	0.00101433259853359\\
125	0.000108633190400817\\
126	0.000230941414548322\\
127	2.51527160385294e-05\\
128	4.195064553095e-05\\
129	0.000272557891619018\\
130	0.000664173375899033\\
131	0.000633538355734946\\
132	0.00185586501215278\\
133	2.51595498615359e-05\\
134	0.000162064644274932\\
135	7.75666323154217e-06\\
136	1.47390936989909e-05\\
137	9.42931960296025e-05\\
138	6.26767379570229e-05\\
139	1.55339692256618e-05\\
140	0.000112128920608721\\
141	4.57490376222326e-05\\
142	2.60583855507932e-05\\
143	0.000148314235001039\\
144	8.30224047938732e-05\\
145	8.31256295467368e-05\\
146	0.000122604232770496\\
147	9.10317715689317e-05\\
148	9.04947777377589e-05\\
149	6.79682750410786e-05\\
};
\addlegendentry{$\mathbf{\hat{h}_{1}}$}

\addplot [color=mycolor2]
  table[row sep=crcr]{%
0	3.7497717981607e-05\\
1	1.90812332651957e-05\\
2	7.80125333170362e-05\\
3	3.8414634378288e-05\\
4	4.28714678927175e-05\\
5	4.78777252988582e-05\\
6	9.91630499936207e-05\\
7	9.22858916418398e-05\\
8	0.000580498865790471\\
9	5.49333079554906e-05\\
10	3.32661137236608e-05\\
11	4.93662727006597e-05\\
12	0.000105631298603371\\
13	0.000195427506709689\\
14	8.48689837989959e-05\\
15	3.34171174671717e-05\\
16	0.000265447943313645\\
17	0.000276598626763846\\
18	0.000102690167583441\\
19	0.000732166564811885\\
20	0.00135461604550637\\
21	3.27007606600096e-05\\
22	0.00231781741856637\\
23	0.00135271214279434\\
24	0.00114111941193133\\
25	8.55358852778533e-05\\
26	3.43446623153011e-05\\
27	0.000968256356071142\\
28	6.19290769358669e-05\\
29	0.000150048867179401\\
30	0.00456168258183943\\
31	4.51991910653334e-05\\
32	0.00612779352422349\\
33	0.0123591629980658\\
34	0.00767215003583895\\
35	0.0113763392326454\\
36	0.00239440940982454\\
37	0.00925400670645404\\
38	0.00327712108040734\\
39	7.25519522374033e-05\\
40	0.00391298106962057\\
41	0.00616669222570267\\
42	0.00929824065955554\\
43	0.00347901946266072\\
44	0.00105746412746389\\
45	0.0204718253665512\\
46	0.0114345373928002\\
47	0.0550002447536211\\
48	0.011235209950817\\
49	0.0298757282757403\\
50	0.0155669582662909\\
51	0.0074234192960493\\
52	0.000563181186288686\\
53	0.00316738870008321\\
54	0.0103288970273695\\
55	0.00718762689472071\\
56	0.00894000592886238\\
57	0.0312495650984669\\
58	0.0238675222486359\\
59	0.0605993705037441\\
60	0.0330285025927897\\
61	0.0457882604061743\\
62	0.13143326393828\\
63	0.0276615200450157\\
64	0.0292704373721291\\
65	0.00686806464834741\\
66	0.0241961442677903\\
67	0.0192311781816336\\
68	0.0199810599442429\\
69	0.0101616019670848\\
70	0.0144666171606542\\
71	0.0288508978725073\\
72	0.0379568800572056\\
73	0.0356311256529839\\
74	0.960870722314197\\
75	0.0352028278068412\\
76	0.0373594198796195\\
77	0.028101643257731\\
78	0.0153936768848649\\
79	0.0113926413607062\\
80	0.0208646375920966\\
81	0.0197692506754962\\
82	0.0265268642371044\\
83	0.00760721681600788\\
84	0.0280108787280996\\
85	0.0272561061361734\\
86	0.130788154637372\\
87	0.0463752692237328\\
88	0.0319860155146382\\
89	0.0616897598113637\\
90	0.0236656764293991\\
91	0.0318934437682221\\
92	0.00883503034481887\\
93	0.00789655729308261\\
94	0.0096403544626713\\
95	0.00297873870245104\\
96	0.00104318975279498\\
97	0.00667561198899035\\
98	0.0149992095922211\\
99	0.0292856112426289\\
100	0.0113402248479387\\
101	0.0556967319586055\\
102	0.0112556920929318\\
103	0.0198368792056291\\
104	0.00139275223524369\\
105	0.00358563480590175\\
106	0.00928128560015456\\
107	0.006368638824576\\
108	0.00424501718679936\\
109	0.000705792253497854\\
110	0.00336110627934481\\
111	0.00876139836206245\\
112	0.00268040744174054\\
113	0.0103114052206556\\
114	0.00757686130789684\\
115	0.0128647386133428\\
116	0.0073741681777323\\
117	4.97730361045812e-05\\
118	0.00462410953448461\\
119	0.000370843039065544\\
120	0.000146177926215202\\
121	0.00107863227198265\\
122	3.82047006359769e-05\\
123	0.000132871933547456\\
124	0.00104215347717834\\
125	0.00127488726488172\\
126	0.0020626580251256\\
127	4.60908241747888e-05\\
128	0.00105007541944296\\
129	0.000861618349211046\\
130	0.000266220147928436\\
131	5.32853720717018e-05\\
132	0.000186792626328082\\
133	2.18459098019646e-05\\
134	3.6497848999411e-05\\
135	0.000145191593467195\\
136	8.54473641686464e-05\\
137	2.66667923863847e-05\\
138	3.45812835065728e-05\\
139	4.01251178110567e-05\\
140	0.000669080138653008\\
141	6.94577001036909e-05\\
142	0.000202603584144248\\
143	4.27962203820299e-05\\
144	4.12368466315726e-05\\
145	4.25107112478445e-05\\
146	7.02648526861367e-05\\
147	2.35603123081963e-05\\
148	2.6435501789228e-05\\
149	4.71870417474676e-06\\
};
\addlegendentry{$\mathbf{\hat{h}_{2}}$}

\end{axis}
\end{tikzpicture}%