% This file was created by matlab2tikz.
%
%The latest updates can be retrieved from
%  http://www.mathworks.com/matlabcentral/fileexchange/22022-matlab2tikz-matlab2tikz
%where you can also make suggestions and rate matlab2tikz.
%
\definecolor{mycolor1}{rgb}{0.00000,0.44700,0.74100}%
\definecolor{mycolor2}{rgb}{0.85000,0.32500,0.09800}%
%
\begin{tikzpicture}

\begin{axis}[%
width=1.935in,
height=3.2in,
at={(0.758in,0.512in)},
scale only axis,
xmin=0,
xmax=150,
xlabel style={font=\color{white!15!black}, align=center},
xlabel={Sample Index\\[1ex](a) Actual},
ymin=0,
ymax=0.7,
axis background/.style={fill=white},
legend style={legend cell align=left, align=left, draw=white!15!black}
]
\addplot [color=mycolor1]
  table[row sep=crcr]{%
1	0.0234657806037261\\
2	0.0272334504034075\\
3	0.0326864300765018\\
4	0.0414541482980318\\
5	0.0586677033458464\\
6	0.117843438362983\\
7	0.159969331461504\\
8	0.174397116945152\\
9	0.616552810702634\\
10	0.0882137642931462\\
11	0.0472681903124796\\
12	0.0327587509505929\\
13	0.0272256709659274\\
14	0.0412344622245766\\
15	0.0186762848129325\\
16	0.0451940046978057\\
17	0.0153724087875252\\
18	0.0239672675363248\\
19	0.0400285717874473\\
20	0.0828333966509162\\
21	0.557624977131952\\
22	0.149414784250917\\
23	0.109138078132702\\
24	0.0381681231028791\\
25	0.032799759178118\\
26	0.191519461959093\\
27	0.0734580287558902\\
28	0.0358315656953253\\
29	0.0179563195827385\\
30	0.0169149242156914\\
31	0.0179798517146348\\
32	0.0199431506445131\\
33	0.0279225394655299\\
34	0.0908594243819801\\
35	0.0439964246924232\\
36	0.330890477505262\\
37	0.037800506563543\\
38	0.020261933748638\\
39	0.0138181229977315\\
40	0.0211497159554441\\
41	0.0112042208144458\\
42	0.00964538908702694\\
43	0.00864780826327016\\
44	0.00787736374270682\\
45	0.00720180133294831\\
46	0.00651453200193765\\
47	0.00565492088107664\\
48	0.0112814316241706\\
49	0.0075966567083061\\
50	0.0102713040739602\\
51	0.00787142060243747\\
52	0.00711780022683946\\
53	0.00668443537322835\\
54	0.00638223966522588\\
55	0.00615487020840034\\
56	0.00598242225636516\\
57	0.00586293416152974\\
58	0.00581626175933958\\
59	0.00593494184987807\\
60	0.00707647204853056\\
61	0.00861312572402681\\
62	0.00240649054353041\\
63	0.0036902508247688\\
64	0.0040125763148678\\
65	0.00408542983582614\\
66	0.00408934467211144\\
67	0.00406760360864643\\
68	0.00403657730104579\\
69	0.00400486664899167\\
70	0.00397913876457006\\
71	0.00396763365360209\\
72	0.00398577860522856\\
73	0.00407460869510253\\
74	0.00440882178496405\\
75	0.00852319154542653\\
76	0.00211982859547221\\
77	0.00279674481878385\\
78	0.00295234209521732\\
79	0.00299967450324673\\
80	0.00300734384297471\\
81	0.00299658049652506\\
82	0.00297609501762909\\
83	0.00295010695632826\\
84	0.00292089738309008\\
85	0.00288979839106794\\
86	0.00285763293534116\\
87	0.00282493110979805\\
88	0.00279204510261472\\
89	0.00275921420187501\\
90	0.00272660345813555\\
91	0.00269432766245323\\
92	0.00266246675038502\\
93	0.00263107599882434\\
94	0.00260019295165966\\
95	0.00256984222925479\\
96	0.00254003893333548\\
97	0.0025107910982644\\
98	0.00248210148178531\\
99	0.00245396889001376\\
100	0.00242638916874131\\
101	0.00239935595223708\\
102	0.00237286123354156\\
103	0.00234689580183488\\
104	0.00232144957979209\\
105	0.00229651188498403\\
106	0.00227207163310714\\
107	0.0022481174963278\\
108	0.00222463802675857\\
109	0.00220162175268604\\
110	0.00217905725339276\\
111	0.0021569332170867\\
112	0.00213523848544673\\
113	0.00211396208753109\\
114	0.00209309326520902\\
115	0.00207262149182518\\
116	0.00205253648545491\\
117	0.00203282821783402\\
118	0.00201348691983224\\
119	0.00199450308416773\\
120	0.00197586746592614\\
121	0.00195757108133911\\
122	0.0019396052051902\\
123	0.0019219613671484\\
124	0.00190463134727109\\
125	0.00188760717087541\\
126	0.00187088110293773\\
127	0.00185444564215264\\
128	0.0018382935147574\\
129	0.00182241766820821\\
130	0.00180681126477794\\
131	0.00179146767513212\\
132	0.00177638047192757\\
133	0.00176154342347035\\
134	0.00174695048746156\\
135	0.0017325958048528\\
136	0.00171847369382931\\
137	0.00170457864393352\\
138	0.0016909053103386\\
139	0.00167744850827835\\
140	0.00166420320763913\\
141	0.00165116452771496\\
142	0.00163832773212761\\
143	0.00162568822391149\\
144	0.00161324154076111\\
145	0.0016009833504405\\
146	0.00158890944635072\\
147	0.00157701574325256\\
148	0.00156529827314105\\
149	0\\
150	0\\
};
\addlegendentry{$\mathbf{h_1}$}

\addplot [color=mycolor2]
  table[row sep=crcr]{%
1	0.019775303219206\\
2	0.0210217764534023\\
3	0.0224372323963497\\
4	0.024058742711813\\
5	0.0259351263737046\\
6	0.0281320174688059\\
7	0.0307398096072034\\
8	0.0338865833958781\\
9	0.0377600935275399\\
10	0.0426472101764649\\
11	0.0490094599986528\\
12	0.0576401827385178\\
13	0.0700288298559564\\
14	0.0893407156606893\\
15	0.123700774100431\\
16	0.202175033398071\\
17	0.564479813098353\\
18	0.690442426104836\\
19	0.212260509632627\\
20	0.126132345068284\\
21	0.100380135781766\\
22	0.0378663697499036\\
23	0.0333199748773482\\
24	0.0149453064107011\\
25	0.10083899339379\\
26	0.161002397050911\\
27	0.0405118251764787\\
28	0.0383644765554957\\
29	0.0341227495803863\\
30	0.0306469105251072\\
31	0.0278570926171954\\
32	0.0255709383506331\\
33	0.0236574529195357\\
34	0.0220274984760589\\
35	0.0206190941704396\\
36	0.0193877726649002\\
37	0.0183006807256663\\
38	0.0173329207549748\\
39	0.016465211935799\\
40	0.0156823459816501\\
41	0.0149721364414517\\
42	0.0143246843629073\\
43	0.0137318527665838\\
44	0.0131868826449622\\
45	0.0126841071808284\\
46	0.0122187355837443\\
47	0.0117866872087634\\
48	0.0113844626077037\\
49	0.0110090421200206\\
50	0.0106578052804057\\
51	0\\
52	0\\
53	0\\
54	0\\
55	0\\
56	0\\
57	0\\
58	0\\
59	0\\
60	0\\
61	0\\
62	0\\
63	0\\
64	0\\
65	0\\
66	0\\
67	0\\
68	0\\
69	0\\
70	0\\
71	0\\
72	0\\
73	0\\
74	0\\
75	0\\
76	0\\
77	0\\
78	0\\
79	0\\
80	0\\
81	0\\
82	0\\
83	0\\
84	0\\
85	0\\
86	0\\
87	0\\
88	0\\
89	0\\
90	0\\
91	0\\
92	0\\
93	0\\
94	0\\
95	0\\
96	0\\
97	0\\
98	0\\
99	0\\
100	0\\
101	0\\
102	0\\
103	0\\
104	0\\
105	0\\
106	0\\
107	0\\
108	0\\
109	0\\
110	0\\
111	0\\
112	0\\
113	0\\
114	0\\
115	0\\
116	0\\
117	0\\
118	0\\
119	0\\
120	0\\
121	0\\
122	0\\
123	0\\
124	0\\
125	0\\
126	0\\
127	0\\
128	0\\
129	0\\
130	0\\
131	0\\
132	0\\
133	0\\
134	0\\
135	0\\
136	0\\
137	0\\
138	0\\
139	0\\
140	0\\
141	0\\
142	0\\
143	0\\
144	0\\
145	0\\
146	0\\
147	0\\
148	0\\
149	0\\
150	0\\
};
\addlegendentry{$\mathbf{h_{2}}$}

\end{axis}

\begin{axis}[%
width=1.935in,
height=3.2in,
at={(3.327in,0.512in)},
scale only axis,
xmin=0,
xmax=300,
xlabel style={font=\color{white!15!black}, align=center},
xlabel={Sample Index\\[1ex](b) Estimated},
ymin=0,
ymax=1,
axis background/.style={fill=white},
legend style={legend cell align=left, align=left, draw=white!15!black}
]
\addplot [color=mycolor1]
  table[row sep=crcr]{%
0	3.62157403617068e-05\\
1	4.76731397673359e-05\\
2	0.00011563962637842\\
3	6.58055633159211e-05\\
4	4.39878775032592e-05\\
5	2.8066664814187e-05\\
6	5.68065549468587e-05\\
7	8.33081070862529e-05\\
8	3.56417072536518e-06\\
9	0.000131843197074775\\
10	7.06602894992518e-05\\
11	3.99239980660619e-05\\
12	0.000196314779686378\\
13	2.13802151088806e-05\\
14	3.87906729633435e-05\\
15	3.16424364938346e-05\\
16	1.72601202661502e-05\\
17	4.35331455624262e-05\\
18	5.53109590188665e-05\\
19	3.19383654994626e-05\\
20	0.000166729515338889\\
21	0.000149889749468773\\
22	5.81675428513565e-05\\
23	6.73375073817617e-05\\
24	7.76822698436213e-05\\
25	2.70718282025957e-05\\
26	7.42352909443935e-05\\
27	1.69932833581691e-05\\
28	5.67339787145051e-05\\
29	2.95322213619385e-05\\
30	6.41879158427405e-05\\
31	1.80371063494549e-05\\
32	7.19662267535292e-05\\
33	6.18338672036351e-05\\
34	3.85570589589707e-05\\
35	7.11712029329624e-05\\
36	6.79400025219026e-05\\
37	7.14322845337922e-05\\
38	4.08760136249499e-05\\
39	3.7129759939836e-05\\
40	3.85874307642771e-05\\
41	2.69833902594469e-05\\
42	5.70926455015057e-05\\
43	0.000147612825924316\\
44	1.58904172435855e-05\\
45	0.000137591220847583\\
46	2.64605066278391e-05\\
47	9.49330022248526e-05\\
48	4.56324284816187e-05\\
49	7.65062589755769e-06\\
50	2.07371304641031e-05\\
51	0.000132632572848179\\
52	4.18190686642154e-05\\
53	3.59365596079381e-05\\
54	6.64254781764486e-05\\
55	0.000109401563650634\\
56	2.75460496534078e-05\\
57	0.00010677170126905\\
58	4.01096935568914e-05\\
59	7.79405275039366e-05\\
60	0.000143822881693146\\
61	4.53780558260126e-05\\
62	0.000116181073347855\\
63	0.000237017811868751\\
64	5.72215183438465e-05\\
65	7.14287476508972e-05\\
66	0.000110156467011639\\
67	7.30450020977012e-05\\
68	4.91529336513088e-05\\
69	3.78276164329036e-05\\
70	9.70502324553009e-05\\
71	9.60513719700692e-05\\
72	6.84589803476001e-05\\
73	0.000135950048022346\\
74	8.2058053269783e-05\\
75	5.87789061237978e-05\\
76	0.000238665933226966\\
77	7.98869023276477e-05\\
78	2.33043982606277e-05\\
79	0.000132002400945837\\
80	0.000113197931840401\\
81	9.02257745031676e-05\\
82	0.000178148136852567\\
83	0.000181013025664587\\
84	7.42401705918774e-05\\
85	1.93074518746062e-05\\
86	4.1510033851156e-05\\
87	0.000118179170809022\\
88	9.89552254016876e-05\\
89	2.39792931920962e-05\\
90	5.88430953862795e-05\\
91	4.07805082182868e-05\\
92	2.64967795866466e-05\\
93	7.31679891282815e-05\\
94	8.09043869681152e-05\\
95	7.30595762531788e-05\\
96	5.44389454106836e-05\\
97	3.90150827934568e-05\\
98	6.46523826017466e-05\\
99	0.000351688257839353\\
100	5.89465811263459e-05\\
101	0.000411686402801903\\
102	4.54515549822014e-05\\
103	7.44071403107296e-05\\
104	5.39216312817101e-05\\
105	9.7275616493836e-05\\
106	0.000451471845904673\\
107	9.07603101988359e-05\\
108	0.00265562275931687\\
109	0.00438302476104548\\
110	0.00277621431491492\\
111	0.0031710171765703\\
112	0.0105716881334567\\
113	0.0192214809216832\\
114	0.0141665047424347\\
115	0.00753477717468983\\
116	0.0119032781226442\\
117	0.002101572524688\\
118	0.00892565054935701\\
119	0.00708255039391543\\
120	0.0101736977495206\\
121	0.0033692018721368\\
122	0.0090502688989016\\
123	0.0197083181128171\\
124	0.00721992764721261\\
125	0.0301095561625136\\
126	0.0757113651112712\\
127	0.0251267716583171\\
128	0.0172557179268271\\
129	0.0445254940095052\\
130	0.00643658052896028\\
131	0.0161271764767543\\
132	0.104206008111345\\
133	0.029346297244045\\
134	0.0315493981074386\\
135	0.0336538245724717\\
136	0.0235076388513176\\
137	0.0469279931886012\\
138	0.150332349212846\\
139	0.0325642896339153\\
140	0.485238396250384\\
141	0.401324099985217\\
142	0.107405846840407\\
143	0.0858722118550908\\
144	0.0328983860899242\\
145	0.0994150988559523\\
146	0.0306014727464014\\
147	0.0519673166980344\\
148	0.0147309844294588\\
149	0.0817651939829849\\
150	0.0884674864038016\\
151	0.115124565305404\\
152	0.253853883934936\\
153	0.475662853468384\\
154	0.186437534058801\\
155	0.0691801040117214\\
156	0.0748693661899339\\
157	0.104861347738906\\
158	0.0954380322429082\\
159	0.108331016421769\\
160	0.0198975555664432\\
161	0.0311006143066328\\
162	0.0321874944830701\\
163	0.0220214077895323\\
164	0.0366344185894299\\
165	0.10134390128555\\
166	0.104043675836682\\
167	0.280814291053647\\
168	0.0990140201575958\\
169	0.0334333819653133\\
170	0.0451788679072079\\
171	0.0116687079942332\\
172	0.00469431790525384\\
173	0.0100206186879554\\
174	0.011576701720343\\
175	0.0196452646731254\\
176	0.00111426536841096\\
177	0.0108364700222984\\
178	0.0207127507770708\\
179	0.0498060398277757\\
180	0.0307604868515845\\
181	4.70411221385432e-05\\
182	0.0198467913116313\\
183	4.80628280262207e-05\\
184	0.00247012067864516\\
185	0.00271363609702525\\
186	0.000899789901404265\\
187	0.00017507683860916\\
188	0.000101383189781961\\
189	0.000186784273384411\\
190	0.000445895903675557\\
191	0.00016987565997006\\
192	0.0131846433018536\\
193	0.00186135702022342\\
194	0.0022344741605225\\
195	0.00118418511274276\\
196	6.8191235487238e-05\\
197	0.000312955629702046\\
198	0.000124116462414275\\
199	0.000271830099202649\\
200	6.96389376357102e-05\\
201	0.000103021733934756\\
202	0.000143035844303321\\
203	0.000193275249221095\\
204	3.51466662022144e-05\\
205	6.11516364579965e-05\\
206	0.000212554277142889\\
207	0.000158764033730028\\
208	4.82362259498286e-05\\
209	7.16110889055387e-05\\
210	0.000151629288504199\\
211	0.000109581829137581\\
212	5.14827401288263e-05\\
213	0.000107140370304953\\
214	9.16760999599052e-05\\
215	2.38492052990047e-05\\
216	3.70666705676038e-05\\
217	0.000151531252778476\\
218	5.45493539076361e-05\\
219	0.000197795356921641\\
220	6.95407743469094e-05\\
221	0.000107084889610257\\
222	8.1994273934206e-05\\
223	5.11438236992971e-05\\
224	2.36543063531188e-05\\
225	3.2303511590697e-05\\
226	4.88420417610234e-05\\
227	7.19663532938469e-05\\
228	1.99461455939757e-05\\
229	6.69411759208767e-05\\
230	5.48363386789843e-05\\
231	4.87889739123892e-05\\
232	5.28845779395468e-05\\
233	0.000151679761056867\\
234	0.000260535710104883\\
235	7.79820578082645e-05\\
236	2.54296949549912e-05\\
237	3.03364556534367e-05\\
238	7.63403631089367e-05\\
239	3.41409035143904e-05\\
240	0.00013184959844469\\
241	9.23663258511674e-06\\
242	0.000188278462044699\\
243	3.93465008889103e-05\\
244	7.30726557593991e-05\\
245	5.12243025830365e-05\\
246	9.0488593222538e-05\\
247	7.28198539372932e-05\\
248	0.000246573888243845\\
249	5.16741042452457e-05\\
250	0.000263737081803487\\
251	8.63318674444048e-05\\
252	5.46290498493463e-05\\
253	6.51551578166426e-05\\
254	1.09949860256561e-05\\
255	0.000197405004946599\\
256	1.70232127486845e-05\\
257	5.34421624787873e-05\\
258	7.43242760833335e-05\\
259	7.02070389648274e-05\\
260	3.78165943352876e-05\\
261	0.00017023812304264\\
262	2.00332661789559e-05\\
263	2.07924431406117e-05\\
264	4.47247519999724e-05\\
265	7.82141189477993e-06\\
266	0.000146467323763844\\
267	0.000116315642507989\\
268	4.07721715854455e-05\\
269	0.000115777774704477\\
270	1.76053328662062e-05\\
271	2.61263237808142e-05\\
272	0.000113216502354096\\
273	0.000112478115186712\\
274	6.53168347553054e-05\\
275	3.53638472380171e-05\\
276	3.96557600113094e-05\\
277	1.4931441500499e-05\\
278	0.000220205876145016\\
279	5.44807367531421e-05\\
280	7.67118990546043e-05\\
281	3.26832274742758e-05\\
282	5.29355802769335e-05\\
283	5.66245162478182e-05\\
284	5.67795221167049e-05\\
285	8.48695218308271e-06\\
286	8.43913760780887e-05\\
287	0.000224429393137937\\
288	6.7883644101536e-06\\
289	0.000123633840926519\\
290	4.7656353765564e-05\\
291	1.93174065389097e-07\\
292	7.56924890060036e-05\\
293	4.52008920263737e-05\\
294	0.000101992673601634\\
295	5.13334669640082e-05\\
296	0.000105502245901842\\
297	3.86921820567287e-05\\
298	0.000130196349771059\\
299	6.53973607775693e-05\\
};
\addlegendentry{$\mathbf{\hat{h}_{1}}$}

\addplot [color=mycolor2]
  table[row sep=crcr]{%
0	2.59332946013253e-05\\
1	1.73709486661393e-05\\
2	7.08377942955723e-05\\
3	4.48376836876917e-05\\
4	2.08381920791068e-05\\
5	2.95329139696328e-05\\
6	3.62120570831588e-05\\
7	5.92470361315349e-05\\
8	1.80826780425239e-05\\
9	1.44730153016503e-05\\
10	2.10916179484412e-05\\
11	2.96644839572377e-05\\
12	3.73691923658294e-05\\
13	5.26752494323226e-05\\
14	4.8378207733042e-05\\
15	1.79105752445914e-05\\
16	9.29108031685091e-05\\
17	1.71825425220101e-05\\
18	3.23518125046889e-05\\
19	0.000106652675819658\\
20	3.16175329201404e-05\\
21	4.06427262601255e-05\\
22	1.05940433507878e-05\\
23	1.53845356564457e-05\\
24	1.69219400269563e-05\\
25	6.14993879464235e-05\\
26	3.29539779395936e-05\\
27	2.65844661900102e-05\\
28	5.96942907514885e-05\\
29	7.35351266005322e-05\\
30	9.17580367359303e-05\\
31	1.9020108091086e-05\\
32	4.03602583854521e-05\\
33	4.90294935160315e-06\\
34	5.81908232810971e-05\\
35	3.14167346823393e-05\\
36	4.61160042990378e-05\\
37	2.62160875048696e-05\\
38	4.88542792199083e-05\\
39	3.62560230755385e-05\\
40	1.16457519539591e-05\\
41	9.48064958543574e-05\\
42	1.8622448423104e-05\\
43	2.75185609373136e-05\\
44	4.41511838623645e-05\\
45	1.13083972556573e-05\\
46	1.28217426443458e-05\\
47	2.13680377457561e-05\\
48	8.16936085061523e-05\\
49	2.38065873083516e-05\\
50	4.42907854361146e-05\\
51	6.56869221618997e-05\\
52	7.32441931123802e-05\\
53	9.79814121204648e-05\\
54	2.84006271881939e-05\\
55	5.06511221600399e-06\\
56	9.62806279401752e-05\\
57	6.36679009065076e-05\\
58	4.83038063904654e-05\\
59	4.17250849285566e-05\\
60	6.06018896312702e-05\\
61	3.28603364772948e-05\\
62	1.40726786562251e-05\\
63	4.37983119415685e-05\\
64	5.44345515634712e-05\\
65	1.77464012471352e-05\\
66	3.63053856842113e-05\\
67	2.01121647336838e-05\\
68	4.01484352190904e-05\\
69	2.72169956759819e-05\\
70	5.17942608769025e-05\\
71	8.39917946140934e-05\\
72	0.000230961445499306\\
73	4.43040083820835e-05\\
74	4.18530176265182e-05\\
75	3.5729224213352e-05\\
76	2.88895208726914e-05\\
77	5.77340997724389e-05\\
78	2.19487242215932e-05\\
79	4.03057261579336e-05\\
80	2.08877215284195e-05\\
81	0.000176145773711915\\
82	4.81498515587125e-06\\
83	4.9642836938926e-05\\
84	5.61833205432026e-05\\
85	4.16247645548985e-05\\
86	1.01789007949095e-05\\
87	0.000111239687330825\\
88	1.69026275639653e-05\\
89	2.59942895796968e-05\\
90	3.53670851805548e-05\\
91	8.20277318860609e-05\\
92	4.21670330896457e-05\\
93	1.41873018098576e-05\\
94	0.000375681708192985\\
95	0.00046163110801467\\
96	3.60733829522378e-05\\
97	0.000644584686720215\\
98	0.000676146252007896\\
99	0.000104467703090183\\
100	3.46630743540573e-05\\
101	3.03121163750406e-05\\
102	0.000299364794148491\\
103	8.70612416328081e-05\\
104	6.19100329252484e-06\\
105	0.00240629941890754\\
106	2.9500424940315e-05\\
107	0.00362214761691314\\
108	0.00824547912805634\\
109	0.00580672816126239\\
110	0.00769513422137716\\
111	0.000907026361128522\\
112	0.0054029864716243\\
113	0.00192981257586928\\
114	3.28472721455951e-05\\
115	0.00315648284836564\\
116	0.00335480980705436\\
117	0.00733720895879207\\
118	0.00226483940876006\\
119	0.00064144940917977\\
120	0.0170026056618782\\
121	0.00880010109069642\\
122	0.0499699300848841\\
123	0.00983842155149172\\
124	0.0243450235903083\\
125	0.012833669788194\\
126	0.00823726410036683\\
127	8.72102066848878e-05\\
128	0.00223411138240533\\
129	0.00924825043845851\\
130	0.00779305033471814\\
131	0.00696076798642262\\
132	0.0283458249133615\\
133	0.0191706840907721\\
134	0.0560337517460165\\
135	0.0311709757041309\\
136	0.042242149522827\\
137	0.116378626695923\\
138	0.0224752391753527\\
139	0.0262168184879731\\
140	0.0063938413655077\\
141	4.86653725881831e-06\\
142	0.016922187051037\\
143	0.0168680942414892\\
144	0.00995664672388945\\
145	0.0115283505233134\\
146	0.0249702233039184\\
147	0.0351535566733671\\
148	0.0313845337680175\\
149	0.969656080410483\\
150	0.0310610211778909\\
151	0.0343028517338746\\
152	0.0243828165476656\\
153	0.0110540821116831\\
154	0.0109732065382795\\
155	0.0168706767835142\\
156	0.0169291117898777\\
157	0.0172719717772913\\
158	0.00676652867960687\\
159	0.025186888785917\\
160	0.0224491749672104\\
161	0.115857950161422\\
162	0.0427256947439321\\
163	0.0304295947230198\\
164	0.0571929514105858\\
165	0.0192446695566843\\
166	0.0293242681894519\\
167	0.00731422316606324\\
168	0.00806384928785609\\
169	0.00903454789537844\\
170	0.00233037875208288\\
171	0.000111599422422854\\
172	0.00697725981624217\\
173	0.0120992235369888\\
174	0.023921086396934\\
175	0.00970435513858533\\
176	0.0508352576675546\\
177	0.00863938544565711\\
178	0.0164371388190273\\
179	0.00123956213465769\\
180	0.00232761693601652\\
181	0.00731892516842875\\
182	0.00336046328722205\\
183	0.00344491519338088\\
184	0.000108000869346295\\
185	0.00197765821971174\\
186	0.00495672507218396\\
187	0.00099562956367695\\
188	0.00683450175437696\\
189	0.00560355367747092\\
190	0.0084001047485553\\
191	0.00463086759400325\\
192	2.18568343231698e-05\\
193	0.00232331202875919\\
194	5.16292213698225e-05\\
195	0.000106655726449437\\
196	0.000241423667641885\\
197	1.02816323396039e-05\\
198	5.73387753234604e-05\\
199	0.000109251743376145\\
200	0.000650054763627998\\
201	0.000757019450614862\\
202	4.76610747276555e-05\\
203	0.000304620291510735\\
204	0.000584714789992994\\
205	2.64704110971095e-05\\
206	3.21229545899187e-05\\
207	8.37832968977493e-05\\
208	2.75620875448581e-05\\
209	3.34182658667143e-05\\
210	2.07402329725256e-05\\
211	0.000123102299280001\\
212	5.4364748518648e-06\\
213	3.09498654259838e-05\\
214	5.66183683506345e-05\\
215	7.361318076959e-05\\
216	6.30868118142162e-06\\
217	0.000188246252551588\\
218	1.76237422688574e-05\\
219	4.84989596554292e-05\\
220	1.8074197906584e-05\\
221	4.67191040412796e-05\\
222	2.34228714815303e-05\\
223	3.49828136080555e-05\\
224	4.94157116045132e-05\\
225	4.24480198462092e-05\\
226	0.000240140566047921\\
227	6.60630165351377e-05\\
228	3.64181827487241e-05\\
229	2.58380252719473e-05\\
230	5.08151034023587e-05\\
231	2.75425685845642e-05\\
232	3.73381548292285e-05\\
233	2.1600444550095e-05\\
234	3.94666106455532e-05\\
235	3.15116195460142e-05\\
236	3.88817042986856e-06\\
237	3.1369147842214e-05\\
238	5.70901774853647e-05\\
239	4.7109456923432e-05\\
240	4.53344822456048e-05\\
241	4.95416186915762e-05\\
242	0.000112012275042509\\
243	1.36614518850499e-05\\
244	1.4788426984434e-05\\
245	0.000100909309195224\\
246	8.15219549136744e-05\\
247	6.89866470107198e-05\\
248	2.90638450710864e-05\\
249	1.20065382305456e-05\\
250	7.93138156606128e-05\\
251	2.01306898170558e-06\\
252	1.38405474651012e-05\\
253	1.43883622652717e-05\\
254	3.18332018639698e-05\\
255	4.08360936133371e-05\\
256	1.94226762997414e-05\\
257	9.48215415609945e-05\\
258	1.85471921806093e-05\\
259	3.68965921028416e-05\\
260	5.52772079933977e-05\\
261	1.57426676083655e-05\\
262	3.75593581168665e-05\\
263	3.18174882508011e-05\\
264	7.03542966180354e-05\\
265	2.30596007947454e-05\\
266	1.40022268344744e-05\\
267	3.76971822105065e-05\\
268	9.35577263557563e-05\\
269	7.16456716558283e-05\\
270	7.63445249152399e-05\\
271	4.45767754927295e-06\\
272	1.85835076355594e-05\\
273	8.30642949563505e-05\\
274	2.67521715387222e-05\\
275	2.56439804017223e-05\\
276	8.59050639443266e-06\\
277	3.25328194334493e-05\\
278	2.73009063939273e-05\\
279	9.33046449330729e-05\\
280	5.17772743373663e-05\\
281	1.22986704989071e-05\\
282	7.90634331404226e-05\\
283	9.34654192119445e-06\\
284	5.32350121046649e-05\\
285	3.92297878414077e-05\\
286	4.04829849867157e-05\\
287	2.75605385313867e-05\\
288	5.64255031056536e-06\\
289	1.29362813597176e-05\\
290	1.96673138503538e-05\\
291	4.73943228771926e-05\\
292	3.91191288155446e-05\\
293	2.7415628111035e-05\\
294	2.44794017738397e-05\\
295	3.26098777529305e-05\\
296	8.48000434833379e-05\\
297	7.40356467679889e-06\\
298	2.28320035128179e-05\\
299	3.23354770608919e-05\\
};
\addlegendentry{$\mathbf{\hat{h}_{2}}$}

\end{axis}
\end{tikzpicture}%