% This file was created by matlab2tikz.
%
%The latest updates can be retrieved from
%  http://www.mathworks.com/matlabcentral/fileexchange/22022-matlab2tikz-matlab2tikz
%where you can also make suggestions and rate matlab2tikz.
%
\definecolor{mycolor1}{rgb}{0.00000,0.44700,0.74100}%
\definecolor{mycolor2}{rgb}{0.85000,0.32500,0.09800}%
%
\begin{tikzpicture}

\begin{axis}[%
width=1.952in,
height=3.2in,
at={(0.758in,0.512in)},
scale only axis,
xmin=0,
xmax=20,
xlabel style={font=\color{white!15!black}, align=center},
xlabel={Sample Index\\[1ex](a) Actual},
ymin=0,
ymax=0.9,
axis background/.style={fill=white},
legend style={legend cell align=left, align=left, draw=white!15!black}
]
\addplot [color=mycolor1]
  table[row sep=crcr]{%
1	0.0444337104356374\\
2	0.738127803558165\\
3	0.357839506790865\\
4	0.481268775571525\\
5	0.10955194752004\\
6	0.267783168107473\\
7	0.0769544524124665\\
8	0.0372836026936495\\
9	0.027789744685169\\
10	0.0196434178633453\\
11	0.0212138243269196\\
12	0.0147156812719569\\
13	0.0126517206023441\\
14	0.0111331007215966\\
15	0.00994473974674355\\
16	0.00898571135769806\\
17	0.00819466874468931\\
18	0.00753086667278431\\
19	0.00696589032366256\\
20	0.00647923877975415\\
};
\addlegendentry{$\mathbf{h_1}$}

\addplot [color=mycolor2]
  table[row sep=crcr]{%
1	0.0696363384444256\\
2	0.13399148454392\\
3	0.889181852408627\\
4	0.426869408918664\\
5	0.0527923084371181\\
6	0.0393468637154593\\
7	0\\
8	0\\
9	0\\
10	0\\
11	0\\
12	0\\
13	0\\
14	0\\
15	0\\
16	0\\
17	0\\
18	0\\
19	0\\
20	0\\
};
\addlegendentry{$\mathbf{h_{2}}$}

\end{axis}

\begin{axis}[%
width=1.952in,
height=3.2in,
at={(3.327in,0.512in)},
scale only axis,
xmin=0,
xmax=30,
xlabel style={font=\color{white!15!black}, align=center},
xlabel={Sample Index\\[1ex](b) Estimated},
ymin=0,
ymax=1,
axis background/.style={fill=white},
legend style={legend cell align=left, align=left, draw=white!15!black}
]
\addplot [color=mycolor1]
  table[row sep=crcr]{%
0	3.78859557386678e-05\\
1	3.54735247758514e-05\\
2	0.000730102560730678\\
3	0.00117530125252936\\
4	0.00147107238636194\\
5	0.000394822230198645\\
6	0.0119702034840819\\
7	0.0200002411489192\\
8	0.0238332867005607\\
9	0.0357361287140732\\
10	0.0390682310489991\\
11	0.201575302375954\\
12	0.161081294666763\\
13	0.771038428274572\\
14	0.23074946045203\\
15	0.379275248528306\\
16	0.28123222116329\\
17	0.178701160060604\\
18	0.155380032417145\\
19	0.0242254791758029\\
20	0.0284252750454683\\
21	0.0232416570139869\\
22	0.0241963880263746\\
23	0.0131938520513754\\
24	0.00248182099340882\\
25	0.00273977906123964\\
26	0.00367365335769717\\
27	0.00319247928759035\\
28	0.000508556912156569\\
29	0.000347212837154958\\
30	0.00224305264711633\\
};
\addlegendentry{$\mathbf{\hat{h}_{1}}$}

\addplot [color=mycolor2]
  table[row sep=crcr]{%
0	0.00190852581203165\\
1	0.00227628701721207\\
2	0.00225532559023025\\
3	0.00301498284110994\\
4	0.00496972804678002\\
5	0.0103275281650791\\
6	0.011594295385564\\
7	0.0211060419145131\\
8	0.0146446378785848\\
9	0.0504504742187081\\
10	0.0710293060865346\\
11	0.0755457689486424\\
12	0.168408484125306\\
13	0.0312782433118105\\
14	0.95467432663544\\
15	0.0306568909490132\\
16	0.170129347019186\\
17	0.0765733649028944\\
18	0.0731833160814869\\
19	0.05126111534079\\
20	0.016769292513947\\
21	0.0233214539040344\\
22	0.0133098087432115\\
23	0.0118848587806221\\
24	0.00733943102991753\\
25	0.00527463047615277\\
26	0.00407113241663292\\
27	0.00301858602444852\\
28	0.00317318086893696\\
29	0.0033551111669094\\
30	0.00280584848716739\\
};
\addlegendentry{$\mathbf{\hat{h}_{2}}$}

\end{axis}
\end{tikzpicture}%