% This file was created by matlab2tikz.
%
%The latest updates can be retrieved from
%  http://www.mathworks.com/matlabcentral/fileexchange/22022-matlab2tikz-matlab2tikz
%where you can also make suggestions and rate matlab2tikz.
%
\definecolor{mycolor1}{rgb}{0.00000,0.44700,0.74100}%
\definecolor{mycolor2}{rgb}{0.85000,0.32500,0.09800}%
%
\begin{tikzpicture}

\begin{axis}[%
width=1.972in,
height=3.2in,
at={(0.772in,0.512in)},
scale only axis,
xmin=0,
xmax=200,
xlabel style={font=\color{white!15!black}, align=center},
xlabel={Sample Index\\[1ex](a) Actual},
ymin=0,
ymax=1,
axis background/.style={fill=white},
legend style={legend cell align=left, align=left, draw=white!15!black}
]
\addplot [color=mycolor1]
  table[row sep=crcr]{%
1	0.0167418731260698\\
2	0.018659722218203\\
3	0.0211495716349754\\
4	0.0245407494314006\\
5	0.029505643974117\\
6	0.0377161636169434\\
7	0.0550750576238134\\
8	0.131028403455825\\
9	0.141533477104454\\
10	0.158175166246243\\
11	0.163761757297189\\
12	0.600100605556833\\
13	0.118033417583129\\
14	0.0610914209628117\\
15	0.0426162246246858\\
16	0.0332715711707656\\
17	0.0321939439283243\\
18	0.0268871008873183\\
19	0.0316920608120786\\
20	0.0286771919664519\\
21	0.00773119825769845\\
22	0.0330073087209196\\
23	0.019415059292473\\
24	0.0177688778425817\\
25	0.0188194600762088\\
26	0.0237714798713867\\
27	0.0430806655948836\\
28	0.586023006720236\\
29	0.0970905103802927\\
30	0.0246981078960262\\
31	0.0780346253424249\\
32	0.0580455436901626\\
33	0.0681836526256362\\
34	0.163824852865525\\
35	0.0446106828365612\\
36	0.06119675966513\\
37	0.00907835157153909\\
38	0.0310093774848825\\
39	0.00125972832884384\\
40	0.005422098150711\\
41	0.0107374596162295\\
42	0.0165479326643041\\
43	0.024789327411243\\
44	0.0446277431282512\\
45	0.058019450740893\\
46	0.074843365423057\\
47	0.199666615467323\\
48	0.216838516027539\\
49	0.0783890355452335\\
50	0.0495529240878659\\
51	0.0370791446049236\\
52	0.0307530810094058\\
53	0.0155757068681131\\
54	0.0198807977432187\\
55	0.0179871495341263\\
56	0.0162887905400521\\
57	0.0148728268904216\\
58	0.0136909847461918\\
59	0.0126943671543235\\
60	0.011846112844806\\
61	0.0111233301448608\\
62	0.0105291449791113\\
63	0.0102108676347222\\
64	0.00751288118280402\\
65	0.00739035992869396\\
66	0.0116365722557393\\
67	0.00899390796280924\\
68	0.00831157148096884\\
69	0.00788086875151191\\
70	0.00754217236777393\\
71	0.00725475830161164\\
72	0.00700327644843893\\
73	0.006780818536885\\
74	0.00658453626015097\\
75	0.00641472878078445\\
76	0.00627599401250467\\
77	0.00618216997550965\\
78	0.00617516728867787\\
79	0.00642745729543014\\
80	0.00873051939586948\\
81	0.00471465923588381\\
82	0.00195996010568866\\
83	0.004980313957114\\
84	0.00475839614864904\\
85	0.00464733241660508\\
86	0.00455444244400457\\
87	0.00446749239384432\\
88	0.00438406292262191\\
89	0.00430366820355207\\
90	0.00422628355118023\\
91	0.00415201532524293\\
92	0.00408104289588831\\
93	0.00401365198230764\\
94	0.00395033763548775\\
95	0.00389203620501121\\
96	0.00384070443755282\\
97	0.00380107128140597\\
98	0.00378779867734327\\
99	0.00387836096292209\\
100	0.00228454900881806\\
101	0.00321909463290553\\
102	0.00328982387499096\\
103	0.00328100374444436\\
104	0.00325253146337885\\
105	0.00321692683031362\\
106	0.00317840637543852\\
107	0.00313876414674543\\
108	0.00309887602618152\\
109	0.00305920797263281\\
110	0.00302002111537278\\
111	0.00298146552488656\\
112	0.00294362726599965\\
113	0.0029065537719176\\
114	0.00287026833389302\\
115	0.00283477876811283\\
116	0.00280008280049957\\
117	0.00276617151884636\\
118	0.00273303164395387\\
119	0.00270064705586787\\
120	0.00266899983729428\\
121	0.00263807099659409\\
122	0.00260784097374635\\
123	0.00257828999668392\\
124	0.00254939833288439\\
125	0.00252114646667125\\
126	0.00249351522323938\\
127	0.00246648585412356\\
128	0.00244004009455901\\
129	0.00241416020024051\\
130	0.00238882896892876\\
131	0.0023640297508985\\
132	0.00233974645117835\\
133	0.00231596352577768\\
134	0.00229266597354371\\
135	0.00226983932488367\\
136	0.00224746962828519\\
137	0.00222554343533969\\
138	0.00220404778480324\\
139	0.00218297018609978\\
140	0.00216229860257188\\
141	0.00214202143470905\\
142	0.00212212750352594\\
143	0.00210260603421662\\
144	0.00208344664017788\\
145	0.00206463930746792\\
146	0.00204617437974413\\
147	0.00202804254371082\\
148	0.00201023481509265\\
149	0.00199274252514179\\
150	0.00197555730767936\\
151	0.0019586710866655\\
152	0.00194207606428942\\
153	0.00192576470956709\\
154	0.00190972974743187\\
155	0.00189396414830307\\
156	0.00187846111811499\\
157	0.00186321408878906\\
158	0.00184821670913216\\
159	0.00183346283614256\\
160	0.00181894652670628\\
161	0.00180466202966742\\
162	0.00179060377825436\\
163	0.00177676638284649\\
164	0.00176314462406556\\
165	0.00174973344617591\\
166	0.0017365279507797\\
167	0.00172352339079259\\
168	0.00171071516468654\\
169	0.00169809881098722\\
170	0.00168567000301325\\
171	0.00167342454384613\\
172	0.00166135836151948\\
173	0.00164946750441694\\
174	0.00163774813686889\\
175	0.00162619653493841\\
176	0.00161480908238697\\
177	0.00160358226681213\\
178	0.001592512675948\\
179	0.00158159699412143\\
180	0.00157083199885632\\
181	0.00156021455761888\\
182	0.00154974162469766\\
183	0.00153941023821136\\
184	0.00152921751723897\\
185	0.00151916065906659\\
186	0.00150923693654504\\
187	0.00149944369555362\\
188	0.00148977835256491\\
189	0.00148023839230615\\
190	0.0014708213655126\\
191	0.00146152488676917\\
192	0.00145234663243548\\
193	0.00144328433865201\\
194	0.00143433579942216\\
195	0.0014254988647679\\
196	0.00141677143895562\\
197	0.00140815147878894\\
198	0.00139963699196521\\
199	0\\
200	0\\
};
\addlegendentry{$\mathbf{h_1}$}

\addplot [color=mycolor2]
  table[row sep=crcr]{%
1	0.00495033386861547\\
2	0.00515738368500011\\
3	0.00538309861623286\\
4	0.00563019833310769\\
5	0.00590197136255583\\
6	0.00620243506959928\\
7	0.00653655369620811\\
8	0.00691054090538825\\
9	0.00733228812251618\\
10	0.00781198494389501\\
11	0.00836304134465097\\
12	0.0090034999823859\\
13	0.00975827527656913\\
14	0.0106628508662167\\
15	0.0117696896019869\\
16	0.0131600228416925\\
17	0.0149671880151623\\
18	0.0174273921400842\\
19	0.0210049332363351\\
20	0.0267613442180004\\
21	0.037792597580649\\
22	0.068721841139076\\
23	0.97572931769219\\
24	0.0649085399616321\\
25	0.0262918397391367\\
26	0.0126468169615953\\
27	0.00419508123086451\\
28	0.0214241856295046\\
29	0.0134643328328179\\
30	0.00412679327935559\\
31	0.0112712342656943\\
32	0.0282552508318709\\
33	0.111702725947746\\
34	0.12653020104749\\
35	0.0361926668223949\\
36	0.024130019396178\\
37	0.019518168382204\\
38	0.0163235660243771\\
39	0.0140849625225472\\
40	0.0124312948441269\\
41	0.0111552918846637\\
42	0.0101369616841952\\
43	0.00930266674553233\\
44	0.00860476970863487\\
45	0.00801105372801389\\
46	0.00749890841387189\\
47	0.00705196472677567\\
48	0.00665805661850076\\
49	0.0063079366485928\\
50	0.00599443852440938\\
51	0.00571191453485358\\
52	0.00545584764793091\\
53	0.0052225778141873\\
54	0.00500910486747672\\
55	0.00481294397681212\\
56	0.00463201789166602\\
57	0.00446457542356871\\
58	0.00430912894812168\\
59	0.00416440590497024\\
60	0.00402931074167137\\
61	0.00390289474814389\\
62	0.00378433192171684\\
63	0.00367289949042518\\
64	0.0035679620699816\\
65	0.00346895868109233\\
66	0.00337539203747226\\
67	0.00328681965070268\\
68	0.00320284639950925\\
69	0\\
70	0\\
71	0\\
72	0\\
73	0\\
74	0\\
75	0\\
76	0\\
77	0\\
78	0\\
79	0\\
80	0\\
81	0\\
82	0\\
83	0\\
84	0\\
85	0\\
86	0\\
87	0\\
88	0\\
89	0\\
90	0\\
91	0\\
92	0\\
93	0\\
94	0\\
95	0\\
96	0\\
97	0\\
98	0\\
99	0\\
100	0\\
101	0\\
102	0\\
103	0\\
104	0\\
105	0\\
106	0\\
107	0\\
108	0\\
109	0\\
110	0\\
111	0\\
112	0\\
113	0\\
114	0\\
115	0\\
116	0\\
117	0\\
118	0\\
119	0\\
120	0\\
121	0\\
122	0\\
123	0\\
124	0\\
125	0\\
126	0\\
127	0\\
128	0\\
129	0\\
130	0\\
131	0\\
132	0\\
133	0\\
134	0\\
135	0\\
136	0\\
137	0\\
138	0\\
139	0\\
140	0\\
141	0\\
142	0\\
143	0\\
144	0\\
145	0\\
146	0\\
147	0\\
148	0\\
149	0\\
150	0\\
151	0\\
152	0\\
153	0\\
154	0\\
155	0\\
156	0\\
157	0\\
158	0\\
159	0\\
160	0\\
161	0\\
162	0\\
163	0\\
164	0\\
165	0\\
166	0\\
167	0\\
168	0\\
169	0\\
170	0\\
171	0\\
172	0\\
173	0\\
174	0\\
175	0\\
176	0\\
177	0\\
178	0\\
179	0\\
180	0\\
181	0\\
182	0\\
183	0\\
184	0\\
185	0\\
186	0\\
187	0\\
188	0\\
189	0\\
190	0\\
191	0\\
192	0\\
193	0\\
194	0\\
195	0\\
196	0\\
197	0\\
198	0\\
199	0\\
200	0\\
};
\addlegendentry{$\mathbf{h_{2}}$}

\end{axis}

\begin{axis}[%
width=1.972in,
height=3.2in,
at={(3.386in,0.512in)},
scale only axis,
xmin=0,
xmax=210,
xlabel style={font=\color{white!15!black}, align=center},
xlabel={Sample Index\\[1ex](b) Estimated},
ymin=0,
ymax=1,
axis background/.style={fill=white},
legend style={legend cell align=left, align=left, draw=white!15!black}
]
\addplot [color=mycolor1]
  table[row sep=crcr]{%
0	6.00583515431512e-05\\
1	0.0002050704803521\\
2	1.33991015897001e-05\\
3	0.000120981357619025\\
4	8.66610717054649e-05\\
5	6.64654259442264e-05\\
6	5.43544947186701e-05\\
7	9.83625513981283e-05\\
8	0.000134246416246952\\
9	3.7736541752817e-05\\
10	0.000159344739414018\\
11	1.72631691740136e-05\\
12	7.31680806306497e-05\\
13	6.04667512254942e-05\\
14	7.11468807069868e-05\\
15	3.23673700243239e-05\\
16	0.00025356025573155\\
17	4.82548249254131e-05\\
18	2.99735388599152e-05\\
19	0.000152108591989545\\
20	1.31143857900891e-05\\
21	7.60876914936129e-05\\
22	4.57220573788069e-05\\
23	6.38778296433608e-05\\
24	7.73085578307322e-05\\
25	4.44682517121542e-05\\
26	5.11039241406836e-06\\
27	0.000199293154676214\\
28	0.000108160488130642\\
29	4.36043240054133e-05\\
30	0.000109077215225796\\
31	2.70162514715259e-05\\
32	3.78532695647575e-05\\
33	6.41233799570968e-05\\
34	1.52082503098992e-05\\
35	2.87887503557665e-05\\
36	0.000202098013399671\\
37	0.000461022169623891\\
38	0.000236694667166706\\
39	7.71944161272795e-05\\
40	0.000262837028743132\\
41	0.000270435738146597\\
42	4.35010218294962e-05\\
43	0.00015201882008823\\
44	0.0001101904355262\\
45	5.23551226097029e-05\\
46	9.64491230070593e-05\\
47	2.96740790536353e-05\\
48	4.32958543166017e-05\\
49	0.000425419783814788\\
50	5.37403269780834e-05\\
51	0.000509219265790438\\
52	0.000111182253957887\\
53	0.000109868159429799\\
54	0.011587603106597\\
55	0.0130018446823093\\
56	0.00350649029328389\\
57	0.0171449195005825\\
58	6.45763512689955e-05\\
59	0.00338700778671998\\
60	0.00176142815944601\\
61	0.000342306295931546\\
62	0.00363604226727549\\
63	9.35776464567719e-05\\
64	0.000193297296163676\\
65	0.000100290802082324\\
66	0.000239543004206425\\
67	0.0116658972087834\\
68	0.00568489602903127\\
69	0.000309667019193\\
70	0.014632964783374\\
71	0.00979350549728667\\
72	0.00604173136202773\\
73	0.0560256253561738\\
74	0.0264566158010289\\
75	0.0330747998738512\\
76	0.00207641283826453\\
77	0.0566289466916614\\
78	0.0142191996223146\\
79	0.0297550358632428\\
80	0.0346622247912682\\
81	0.0128875395440439\\
82	0.0820899787073001\\
83	2.89033921658244e-05\\
84	0.00426731965760802\\
85	0.00482149639623431\\
86	0.0122934577369302\\
87	0.0450889062892182\\
88	0.0675236958885669\\
89	0.149598169764007\\
90	0.0934901806306947\\
91	0.133258809209115\\
92	0.215459532279023\\
93	0.570752174251987\\
94	0.127166720920094\\
95	0.0629296167860358\\
96	0.00156714158487487\\
97	0.0387219688557619\\
98	0.0552223982715814\\
99	0.0639687154181191\\
100	0.0121925751492294\\
101	0.0270441021279404\\
102	0.0137211424452881\\
103	0.0466525460812733\\
104	0.0323934174018484\\
105	0.0269092962757331\\
106	0.0432999614497854\\
107	0.05593094722206\\
108	0.0727728948297284\\
109	0.583162556170781\\
110	0.131301228746417\\
111	0.0181493409597172\\
112	0.0541612361645099\\
113	0.055606228770077\\
114	0.0735844517531384\\
115	0.164301790465664\\
116	0.0207533860349674\\
117	0.0390632135464054\\
118	0.026794127279999\\
119	0.000119840721200262\\
120	0.0138962906766296\\
121	0.000793932757628952\\
122	0.00331412800395005\\
123	0.0129575807320406\\
124	0.0174144578563168\\
125	0.0927887026616736\\
126	0.069978450663617\\
127	0.0793393260065502\\
128	0.219500387892836\\
129	0.16773563199356\\
130	0.076493018761094\\
131	0.0504894936380601\\
132	0.0070976452387424\\
133	0.0254824633707089\\
134	0.0211952349952757\\
135	0.00103875659667882\\
136	0.00326745528295351\\
137	0.0160931460161129\\
138	0.0107108441612064\\
139	9.46869486476788e-05\\
140	0.01464023863723\\
141	0.0130807339485767\\
142	0.00476183412116735\\
143	0.0155721637056066\\
144	0.0393187132504042\\
145	0.0351447612052764\\
146	0.0078575428220627\\
147	0.016075941140043\\
148	0.0107572348286046\\
149	0.00450165790388856\\
150	0.00324775402343789\\
151	0.00554057712497315\\
152	0.00177806204202509\\
153	4.9069696415292e-05\\
154	0.000119539299540892\\
155	0.000807134493211205\\
156	0.00105403540621444\\
157	8.27048312221754e-05\\
158	0.000884694127310335\\
159	0.000101277740465697\\
160	0.000150300746819854\\
161	0.00991051026535728\\
162	0.00494842259830268\\
163	0.00179780985341734\\
164	0.00468091190379964\\
165	0.000123115824965016\\
166	1.63804054482329e-05\\
167	0.00113642148822499\\
168	0.000247898302417227\\
169	0.000655853099097436\\
170	0.000859886600664605\\
171	0.000187143220382543\\
172	0.00012802706137628\\
173	0.000412002970151868\\
174	0.000206291570465429\\
175	0.000259994690227958\\
176	0.000206769345009092\\
177	0.000125184785753525\\
178	5.36380884603999e-05\\
179	2.83155687103638e-05\\
180	0.000865771756322688\\
181	0.000109929509504395\\
182	0.000123941040934374\\
183	0.000199356308096154\\
184	0.000100893765115205\\
185	0.000141110866770871\\
186	3.53380652938283e-05\\
187	7.17248893177282e-05\\
188	8.62532119060676e-05\\
189	2.73503433396166e-05\\
190	0.000195112247384451\\
191	1.36399915383962e-05\\
192	6.81283390788306e-05\\
193	6.20254125657669e-05\\
194	4.10298151713325e-05\\
195	0.000117553918264378\\
196	3.69534470685627e-05\\
197	0.000108263233046\\
198	5.37971207743208e-05\\
199	2.07649642915348e-05\\
200	6.45148457152249e-05\\
201	7.46186974996798e-05\\
202	3.35417671709042e-05\\
203	1.80942391615591e-05\\
204	0.000107044555914979\\
205	0.000132358918577848\\
206	0.000103350832133111\\
207	9.7127931371848e-05\\
208	4.51521905002116e-05\\
209	2.34154641538337e-05\\
210	6.16294329602262e-05\\
};
\addlegendentry{$\mathbf{\hat{h}_{1}}$}

\addplot [color=mycolor2]
  table[row sep=crcr]{%
0	7.56761133217308e-05\\
1	2.44251698134965e-05\\
2	3.84489429205715e-05\\
3	2.82748505395577e-05\\
4	2.86000960116498e-06\\
5	2.36592009044408e-05\\
6	1.34237306997923e-05\\
7	0.000124617621964048\\
8	6.64031560296776e-05\\
9	1.04606746123117e-05\\
10	2.393564415608e-05\\
11	7.26088308907073e-05\\
12	7.03325959178271e-05\\
13	5.34010431815734e-05\\
14	4.18774412703254e-05\\
15	5.07866645454503e-05\\
16	3.70995637518295e-05\\
17	2.01570585990677e-05\\
18	3.10728081093232e-05\\
19	4.35191637374277e-05\\
20	1.78318359156574e-05\\
21	8.01360906848505e-05\\
22	2.57765311469235e-05\\
23	3.98105165102829e-05\\
24	1.82247812184565e-05\\
25	3.19832012661979e-05\\
26	1.98418117659445e-05\\
27	0.000591660244971386\\
28	8.90829745395701e-05\\
29	0.000189017351304668\\
30	0.00036792519132925\\
31	0.000131334108134846\\
32	0.000139695391402096\\
33	3.90222421552794e-05\\
34	0.000183429201322522\\
35	0.000712272605261558\\
36	0.00026238520675373\\
37	1.52063441529067e-05\\
38	3.31271543369646e-05\\
39	0.000894739143259817\\
40	0.000643879631106995\\
41	8.08753806640048e-05\\
42	0.00189572494702884\\
43	2.09639463031309e-05\\
44	1.89425972993552e-05\\
45	0.0022494495374123\\
46	0.000750851388330598\\
47	0.00023443187174829\\
48	0.00530960372708996\\
49	0.00764918375032151\\
50	0.00275546526630232\\
51	0.00346228360518458\\
52	0.0059965381639666\\
53	0.00244471136731158\\
54	0.00313200290847656\\
55	0.00205459564569001\\
56	0.000345448678599428\\
57	0.00277689301162017\\
58	7.1616308689853e-05\\
59	3.47258290120557e-07\\
60	0.000443647150015856\\
61	6.09414888561866e-05\\
62	0.00205077922233657\\
63	0.000220664105462839\\
64	0.00839051899577579\\
65	0.0244010897393152\\
66	0.0196714253312987\\
67	0.00426781482622245\\
68	0.0457672289317638\\
69	0.0204811149215179\\
70	0.0164957324711829\\
71	0.0177648112501014\\
72	0.0115324784110788\\
73	0.00386300718323507\\
74	0.00637435414672362\\
75	0.00202462107689205\\
76	0.00025113329562952\\
77	0.00570999362983193\\
78	0.0165100737251513\\
79	0.00235377902246367\\
80	0.00306086708644751\\
81	0.0227818672790751\\
82	0.020779825692514\\
83	0.0137650008491609\\
84	0.0449598372135554\\
85	0.0558521303480859\\
86	0.0337265524550525\\
87	0.00977168016510489\\
88	0.128343229471846\\
89	0.0165123524795378\\
90	0.00664868160386133\\
91	0.0214433251519172\\
92	0.00593690397057355\\
93	0.0126891140134021\\
94	0.0107721794859714\\
95	0.0187824005233999\\
96	0.0212976330805722\\
97	0.00835658292652634\\
98	0.00932624066865983\\
99	0.00982505430815691\\
100	0.0095256563658969\\
101	0.0511894499006167\\
102	0.0253522661695751\\
103	0.00344562007271357\\
104	0.964706533021216\\
105	0.00322757975948466\\
106	0.0262008594195834\\
107	0.0521578107362184\\
108	0.00925685674771684\\
109	0.0106340650929862\\
110	0.0110747026333474\\
111	0.0078848990555535\\
112	0.020798876180188\\
113	0.0167690414481838\\
114	0.0129574727422194\\
115	0.0144693674563885\\
116	0.00663425438053088\\
117	0.0215249408502787\\
118	0.00566983910936556\\
119	0.0151976098700605\\
120	0.128316025941476\\
121	0.00908226052319764\\
122	0.0343371716305421\\
123	0.0561468093805549\\
124	0.0460160645429603\\
125	0.0145095966683589\\
126	0.0210848877574012\\
127	0.023510460294036\\
128	0.00233837659189184\\
129	0.00240483445077143\\
130	0.0170198055344602\\
131	0.00602914795038003\\
132	0.000147463003933395\\
133	0.000948433801317576\\
134	0.00685195698061763\\
135	0.00299500272931021\\
136	0.0105608026310638\\
137	0.0184397832130594\\
138	0.0159379572318389\\
139	0.0203849379972219\\
140	0.046888017967107\\
141	0.00324592605163559\\
142	0.0204866078478085\\
143	0.0256221653488439\\
144	0.00877758309746892\\
145	0.000305529352838491\\
146	0.00159874245044974\\
147	0.00056980957656693\\
148	0.00174728535333688\\
149	0.000376311421662746\\
150	3.99174203838044e-05\\
151	0.00373301740925754\\
152	0.000925983095359131\\
153	0.00169471304039054\\
154	0.0032893230371216\\
155	0.00294466698817524\\
156	0.00546029631704258\\
157	0.0033879669150071\\
158	0.00275860786607565\\
159	0.00734316146907357\\
160	0.00679892686713929\\
161	0.000103349648271569\\
162	0.000583030414136883\\
163	0.00362907374659817\\
164	0.00027143335620729\\
165	3.18021737808937e-05\\
166	0.00279829971217213\\
167	0.000686362631371691\\
168	0.0014033215716838\\
169	0.00198087439261431\\
170	6.95477080691908e-05\\
171	0.0002148406937378\\
172	0.00022345534676189\\
173	0.00101762446479953\\
174	0.00013184453464864\\
175	3.90018877537731e-05\\
176	0.000153545114530434\\
177	0.000116370889195017\\
178	0.00103559169952335\\
179	0.000936443310499437\\
180	0.000114276708594083\\
181	0.00111883354669928\\
182	4.33814673964467e-05\\
183	6.77289682812036e-05\\
184	8.31544325978231e-05\\
185	4.5577282136928e-05\\
186	4.34045082587209e-05\\
187	5.16725944503639e-05\\
188	5.04294837187161e-05\\
189	3.94666109816141e-05\\
190	3.0634586318995e-05\\
191	1.40756859981798e-05\\
192	5.09942124891525e-05\\
193	0.000158293799978512\\
194	3.14898923080061e-05\\
195	6.04604780889569e-05\\
196	0.000104042161761089\\
197	5.3713701894591e-05\\
198	1.50037789444863e-05\\
199	9.24348140034976e-06\\
200	4.60304853261443e-05\\
201	0.000100083407246949\\
202	3.96153219839828e-05\\
203	1.91430012713606e-05\\
204	2.16948233678173e-05\\
205	3.70229257897431e-05\\
206	5.13004604911655e-05\\
207	5.01718391674532e-05\\
208	6.28129951017064e-05\\
209	4.99249279331172e-05\\
210	3.44966090023913e-05\\
};
\addlegendentry{$\mathbf{\hat{h}_{2}}$}

\end{axis}
\end{tikzpicture}%