% This file was created by matlab2tikz.
%
%The latest updates can be retrieved from
%  http://www.mathworks.com/matlabcentral/fileexchange/22022-matlab2tikz-matlab2tikz
%where you can also make suggestions and rate matlab2tikz.
%
\definecolor{mycolor1}{rgb}{0.00000,0.44700,0.74100}%
\definecolor{mycolor2}{rgb}{0.85000,0.32500,0.09800}%
%
\begin{tikzpicture}

\begin{axis}[%
width=1.935in,
height=3.2in,
at={(0.758in,0.512in)},
scale only axis,
xmin=0,
xmax=200,
xlabel style={font=\color{white!15!black}, align=center},
xlabel={Sample Index\\[1ex](a) Actual},
ymin=0,
ymax=1,
axis background/.style={fill=white},
legend style={legend cell align=left, align=left, draw=white!15!black}
]
\addplot [color=mycolor1]
  table[row sep=crcr]{%
1	0.0167418731260698\\
2	0.018659722218203\\
3	0.0211495716349754\\
4	0.0245407494314006\\
5	0.029505643974117\\
6	0.0377161636169434\\
7	0.0550750576238134\\
8	0.131028403455825\\
9	0.141533477104454\\
10	0.158175166246243\\
11	0.163761757297189\\
12	0.600100605556833\\
13	0.118033417583129\\
14	0.0610914209628117\\
15	0.0426162246246858\\
16	0.0332715711707656\\
17	0.0321939439283243\\
18	0.0268871008873183\\
19	0.0316920608120786\\
20	0.0286771919664519\\
21	0.00773119825769845\\
22	0.0330073087209196\\
23	0.019415059292473\\
24	0.0177688778425817\\
25	0.0188194600762088\\
26	0.0237714798713867\\
27	0.0430806655948836\\
28	0.586023006720236\\
29	0.0970905103802927\\
30	0.0246981078960262\\
31	0.0780346253424249\\
32	0.0580455436901626\\
33	0.0681836526256362\\
34	0.163824852865525\\
35	0.0446106828365612\\
36	0.06119675966513\\
37	0.00907835157153909\\
38	0.0310093774848825\\
39	0.00125972832884384\\
40	0.005422098150711\\
41	0.0107374596162295\\
42	0.0165479326643041\\
43	0.024789327411243\\
44	0.0446277431282512\\
45	0.058019450740893\\
46	0.074843365423057\\
47	0.199666615467323\\
48	0.216838516027539\\
49	0.0783890355452335\\
50	0.0495529240878659\\
51	0.0370791446049236\\
52	0.0307530810094058\\
53	0.0155757068681131\\
54	0.0198807977432187\\
55	0.0179871495341263\\
56	0.0162887905400521\\
57	0.0148728268904216\\
58	0.0136909847461918\\
59	0.0126943671543235\\
60	0.011846112844806\\
61	0.0111233301448608\\
62	0.0105291449791113\\
63	0.0102108676347222\\
64	0.00751288118280402\\
65	0.00739035992869396\\
66	0.0116365722557393\\
67	0.00899390796280924\\
68	0.00831157148096884\\
69	0.00788086875151191\\
70	0.00754217236777393\\
71	0.00725475830161164\\
72	0.00700327644843893\\
73	0.006780818536885\\
74	0.00658453626015097\\
75	0.00641472878078445\\
76	0.00627599401250467\\
77	0.00618216997550965\\
78	0.00617516728867787\\
79	0.00642745729543014\\
80	0.00873051939586948\\
81	0.00471465923588381\\
82	0.00195996010568866\\
83	0.004980313957114\\
84	0.00475839614864904\\
85	0.00464733241660508\\
86	0.00455444244400457\\
87	0.00446749239384432\\
88	0.00438406292262191\\
89	0.00430366820355207\\
90	0.00422628355118023\\
91	0.00415201532524293\\
92	0.00408104289588831\\
93	0.00401365198230764\\
94	0.00395033763548775\\
95	0.00389203620501121\\
96	0.00384070443755282\\
97	0.00380107128140597\\
98	0.00378779867734327\\
99	0.00387836096292209\\
100	0.00228454900881806\\
101	0.00321909463290553\\
102	0.00328982387499096\\
103	0.00328100374444436\\
104	0.00325253146337885\\
105	0.00321692683031362\\
106	0.00317840637543852\\
107	0.00313876414674543\\
108	0.00309887602618152\\
109	0.00305920797263281\\
110	0.00302002111537278\\
111	0.00298146552488656\\
112	0.00294362726599965\\
113	0.0029065537719176\\
114	0.00287026833389302\\
115	0.00283477876811283\\
116	0.00280008280049957\\
117	0.00276617151884636\\
118	0.00273303164395387\\
119	0.00270064705586787\\
120	0.00266899983729428\\
121	0.00263807099659409\\
122	0.00260784097374635\\
123	0.00257828999668392\\
124	0.00254939833288439\\
125	0.00252114646667125\\
126	0.00249351522323938\\
127	0.00246648585412356\\
128	0.00244004009455901\\
129	0.00241416020024051\\
130	0.00238882896892876\\
131	0.0023640297508985\\
132	0.00233974645117835\\
133	0.00231596352577768\\
134	0.00229266597354371\\
135	0.00226983932488367\\
136	0.00224746962828519\\
137	0.00222554343533969\\
138	0.00220404778480324\\
139	0.00218297018609978\\
140	0.00216229860257188\\
141	0.00214202143470905\\
142	0.00212212750352594\\
143	0.00210260603421662\\
144	0.00208344664017788\\
145	0.00206463930746792\\
146	0.00204617437974413\\
147	0.00202804254371082\\
148	0.00201023481509265\\
149	0.00199274252514179\\
150	0.00197555730767936\\
151	0.0019586710866655\\
152	0.00194207606428942\\
153	0.00192576470956709\\
154	0.00190972974743187\\
155	0.00189396414830307\\
156	0.00187846111811499\\
157	0.00186321408878906\\
158	0.00184821670913216\\
159	0.00183346283614256\\
160	0.00181894652670628\\
161	0.00180466202966742\\
162	0.00179060377825436\\
163	0.00177676638284649\\
164	0.00176314462406556\\
165	0.00174973344617591\\
166	0.0017365279507797\\
167	0.00172352339079259\\
168	0.00171071516468654\\
169	0.00169809881098722\\
170	0.00168567000301325\\
171	0.00167342454384613\\
172	0.00166135836151948\\
173	0.00164946750441694\\
174	0.00163774813686889\\
175	0.00162619653493841\\
176	0.00161480908238697\\
177	0.00160358226681213\\
178	0.001592512675948\\
179	0.00158159699412143\\
180	0.00157083199885632\\
181	0.00156021455761888\\
182	0.00154974162469766\\
183	0.00153941023821136\\
184	0.00152921751723897\\
185	0.00151916065906659\\
186	0.00150923693654504\\
187	0.00149944369555362\\
188	0.00148977835256491\\
189	0.00148023839230615\\
190	0.0014708213655126\\
191	0.00146152488676917\\
192	0.00145234663243548\\
193	0.00144328433865201\\
194	0.00143433579942216\\
195	0.0014254988647679\\
196	0.00141677143895562\\
197	0.00140815147878894\\
198	0.00139963699196521\\
199	0\\
200	0\\
};
\addlegendentry{$\mathbf{h_1}$}

\addplot [color=mycolor2]
  table[row sep=crcr]{%
1	0.00495033386861547\\
2	0.00515738368500011\\
3	0.00538309861623286\\
4	0.00563019833310769\\
5	0.00590197136255583\\
6	0.00620243506959928\\
7	0.00653655369620811\\
8	0.00691054090538825\\
9	0.00733228812251618\\
10	0.00781198494389501\\
11	0.00836304134465097\\
12	0.0090034999823859\\
13	0.00975827527656913\\
14	0.0106628508662167\\
15	0.0117696896019869\\
16	0.0131600228416925\\
17	0.0149671880151623\\
18	0.0174273921400842\\
19	0.0210049332363351\\
20	0.0267613442180004\\
21	0.037792597580649\\
22	0.068721841139076\\
23	0.97572931769219\\
24	0.0649085399616321\\
25	0.0262918397391367\\
26	0.0126468169615953\\
27	0.00419508123086451\\
28	0.0214241856295046\\
29	0.0134643328328179\\
30	0.00412679327935559\\
31	0.0112712342656943\\
32	0.0282552508318709\\
33	0.111702725947746\\
34	0.12653020104749\\
35	0.0361926668223949\\
36	0.024130019396178\\
37	0.019518168382204\\
38	0.0163235660243771\\
39	0.0140849625225472\\
40	0.0124312948441269\\
41	0.0111552918846637\\
42	0.0101369616841952\\
43	0.00930266674553233\\
44	0.00860476970863487\\
45	0.00801105372801389\\
46	0.00749890841387189\\
47	0.00705196472677567\\
48	0.00665805661850076\\
49	0.0063079366485928\\
50	0.00599443852440938\\
51	0.00571191453485358\\
52	0.00545584764793091\\
53	0.0052225778141873\\
54	0.00500910486747672\\
55	0.00481294397681212\\
56	0.00463201789166602\\
57	0.00446457542356871\\
58	0.00430912894812168\\
59	0.00416440590497024\\
60	0.00402931074167137\\
61	0.00390289474814389\\
62	0.00378433192171684\\
63	0.00367289949042518\\
64	0.0035679620699816\\
65	0.00346895868109233\\
66	0.00337539203747226\\
67	0.00328681965070268\\
68	0.00320284639950925\\
69	0\\
70	0\\
71	0\\
72	0\\
73	0\\
74	0\\
75	0\\
76	0\\
77	0\\
78	0\\
79	0\\
80	0\\
81	0\\
82	0\\
83	0\\
84	0\\
85	0\\
86	0\\
87	0\\
88	0\\
89	0\\
90	0\\
91	0\\
92	0\\
93	0\\
94	0\\
95	0\\
96	0\\
97	0\\
98	0\\
99	0\\
100	0\\
101	0\\
102	0\\
103	0\\
104	0\\
105	0\\
106	0\\
107	0\\
108	0\\
109	0\\
110	0\\
111	0\\
112	0\\
113	0\\
114	0\\
115	0\\
116	0\\
117	0\\
118	0\\
119	0\\
120	0\\
121	0\\
122	0\\
123	0\\
124	0\\
125	0\\
126	0\\
127	0\\
128	0\\
129	0\\
130	0\\
131	0\\
132	0\\
133	0\\
134	0\\
135	0\\
136	0\\
137	0\\
138	0\\
139	0\\
140	0\\
141	0\\
142	0\\
143	0\\
144	0\\
145	0\\
146	0\\
147	0\\
148	0\\
149	0\\
150	0\\
151	0\\
152	0\\
153	0\\
154	0\\
155	0\\
156	0\\
157	0\\
158	0\\
159	0\\
160	0\\
161	0\\
162	0\\
163	0\\
164	0\\
165	0\\
166	0\\
167	0\\
168	0\\
169	0\\
170	0\\
171	0\\
172	0\\
173	0\\
174	0\\
175	0\\
176	0\\
177	0\\
178	0\\
179	0\\
180	0\\
181	0\\
182	0\\
183	0\\
184	0\\
185	0\\
186	0\\
187	0\\
188	0\\
189	0\\
190	0\\
191	0\\
192	0\\
193	0\\
194	0\\
195	0\\
196	0\\
197	0\\
198	0\\
199	0\\
200	0\\
};
\addlegendentry{$\mathbf{h_{2}}$}

\end{axis}

\begin{axis}[%
width=1.935in,
height=3.2in,
at={(3.327in,0.512in)},
scale only axis,
xmin=0,
xmax=100,
xlabel style={font=\color{white!15!black}, align=center},
xlabel={Sample Index\\[1ex](b) Estimated},
ymin=0,
ymax=1,
axis background/.style={fill=white},
legend style={legend cell align=left, align=left, draw=white!15!black}
]
\addplot [color=mycolor1]
  table[row sep=crcr]{%
0	0.0203861354815393\\
1	0.00824164322170239\\
2	0.0268945532601235\\
3	0.0013020923590235\\
4	0.0107168926326057\\
5	0.00438429279767546\\
6	0.00251118284313142\\
7	0.0067604728859599\\
8	0.000755933394247523\\
9	0.000264340657358674\\
10	0.000122330613975182\\
11	0.00132799711337419\\
12	0.0188254577579428\\
13	0.0107310241615698\\
14	0.00217861751804947\\
15	0.0213729101534343\\
16	0.0110353395615197\\
17	0.0112667625208665\\
18	0.0703030903544232\\
19	0.0333133702661983\\
20	0.0414170384379257\\
21	0.0028473348221546\\
22	0.0705226005298275\\
23	0.0192000725609773\\
24	0.0303694060993438\\
25	0.0323913406943964\\
26	0.0122775970013346\\
27	0.078719879082645\\
28	0.00289787184709522\\
29	0.00287553689516333\\
30	0.00664174919758229\\
31	0.0179864386827829\\
32	0.0445468749979926\\
33	0.0730726795823143\\
34	0.15209531156961\\
35	0.0907734206549875\\
36	0.133396818413999\\
37	0.215629787031578\\
38	0.564162564800568\\
39	0.125880570844972\\
40	0.0620725452406577\\
41	0.00625043247228702\\
42	0.0367518417965635\\
43	0.0477341741218808\\
44	0.0630835020939859\\
45	0.0143274294814622\\
46	0.0274036211947581\\
47	0.0171007524455035\\
48	0.0511828419760078\\
49	0.0374211758181272\\
50	0.0269537493059993\\
51	0.0468417754674165\\
52	0.0635895269572927\\
53	0.0709186121241659\\
54	0.575911692883577\\
55	0.134003138215274\\
56	0.0167257009586463\\
57	0.0607891348938706\\
58	0.0592363813671293\\
59	0.0728369465830009\\
60	0.16203281254722\\
61	0.0239802109336793\\
62	0.0403771867033276\\
63	0.0254249256011059\\
64	0.00143988728969025\\
65	0.0172373024323991\\
66	0.00276689094740894\\
67	0.0061871656580994\\
68	0.012360472403809\\
69	0.0197998169351006\\
70	0.104630842543269\\
71	0.0755216212393328\\
72	0.0809568235271819\\
73	0.217627801474072\\
74	0.166905426705163\\
75	0.078996693226733\\
76	0.0549730528200583\\
77	0.00508749023638734\\
78	0.0281073232433467\\
79	0.0235512864415699\\
80	0.00310692042418416\\
81	0.00560662166903217\\
82	0.0194585859478663\\
83	0.0139546696566716\\
84	8.79978126520821e-05\\
85	0.0170573238080056\\
86	0.0153636777679933\\
87	0.0105742622628313\\
88	0.0217740701365921\\
89	0.0523498366752994\\
90	0.0473478095398842\\
91	0.0145094521328096\\
92	0.0217635343110016\\
93	0.0208637133654412\\
94	0.0103794787799585\\
95	0.00909510000453489\\
96	0.0129982923750197\\
97	0.00523341259643812\\
98	0.00397910609984456\\
99	0.00315689008678018\\
100	0.00309503396465777\\
};
\addlegendentry{$\mathbf{\hat{h}_{1}}$}

\addplot [color=mycolor2]
  table[row sep=crcr]{%
0	0.00389864606539421\\
1	0.00134022497754378\\
2	0.00524078451688622\\
3	9.72775379972604e-05\\
4	0.00088555157512212\\
5	0.00209900652448587\\
6	0.00106315781286314\\
7	0.00408395540158358\\
8	0.00105425207812602\\
9	0.00873308298585173\\
10	0.0228377858183062\\
11	0.0231174119086896\\
12	0.00427921110982428\\
13	0.0465974788185311\\
14	0.0208638137168121\\
15	0.0188265269404269\\
16	0.0230073093924914\\
17	0.0146404789659032\\
18	0.00533106064235489\\
19	0.00880476981412187\\
20	0.00410220772302567\\
21	0.000551068382692212\\
22	0.00606250460040995\\
23	0.0167843652786306\\
24	0.00303682125727504\\
25	0.00336829084163075\\
26	0.0246393380157468\\
27	0.0238804067750316\\
28	0.0156790062170163\\
29	0.0476894151163086\\
30	0.0595569788945492\\
31	0.0381447030121727\\
32	0.0107648232316512\\
33	0.142584545396987\\
34	0.0197900814091655\\
35	0.00826352034778531\\
36	0.0246507493892323\\
37	0.00806561301770967\\
38	0.0186961122091505\\
39	0.0175694465545275\\
40	0.0223446573498697\\
41	0.0253424204628209\\
42	0.00785402275178558\\
43	0.0109426119915949\\
44	0.0127204501527426\\
45	0.013702193368942\\
46	0.055163946924081\\
47	0.0279838560346888\\
48	0.00564136364190522\\
49	0.956804652491075\\
50	0.00508553832914043\\
51	0.0288030973254686\\
52	0.0563460324956131\\
53	0.0135142734094288\\
54	0.0137325097897162\\
55	0.0128656057952916\\
56	0.00750847071689499\\
57	0.0247993360042244\\
58	0.0201910316891574\\
59	0.0203693877531468\\
60	0.0212360466593953\\
61	0.00922934767851658\\
62	0.0246645806963279\\
63	0.00732751332004043\\
64	0.0180253212873065\\
65	0.142756156416542\\
66	0.00984773240600147\\
67	0.0391047712726756\\
68	0.0597663570000903\\
69	0.0487298088973713\\
70	0.0164196957573891\\
71	0.0243937031964599\\
72	0.0253665250478049\\
73	0.002427822797948\\
74	0.00315902967030703\\
75	0.0168714859601552\\
76	0.00589787148448449\\
77	0.000699940176512639\\
78	0.00268286667730713\\
79	0.009437009999411\\
80	0.00424618756990739\\
81	0.0133878084872025\\
82	0.0221291679672822\\
83	0.0182712743246608\\
84	0.0222443006573051\\
85	0.0467980017871098\\
86	0.0026560023619722\\
87	0.0233583692899738\\
88	0.026185384349569\\
89	0.00943726229654667\\
90	0.00127895169734083\\
91	0.00384580093926705\\
92	0.00191676871763735\\
93	0.00377327793273109\\
94	0.00207291252472617\\
95	0.00101335302876965\\
96	0.00665231620364367\\
97	0.00294875969467702\\
98	0.00282408348778289\\
99	0.00479420387234009\\
100	0.006217528361415\\
};
\addlegendentry{$\mathbf{\hat{h}_{2}}$}

\end{axis}
\end{tikzpicture}%