% This file was created by matlab2tikz.
%
%The latest updates can be retrieved from
%  http://www.mathworks.com/matlabcentral/fileexchange/22022-matlab2tikz-matlab2tikz
%where you can also make suggestions and rate matlab2tikz.
%
\definecolor{mycolor1}{rgb}{0.00000,0.44700,0.74100}%
\definecolor{mycolor2}{rgb}{0.85000,0.32500,0.09800}%
%
\begin{tikzpicture}

\begin{axis}[%
width=1.935in,
height=3.2in,
at={(0.758in,0.512in)},
scale only axis,
xmin=0,
xmax=200,
xlabel style={font=\color{white!15!black}, align=center},
xlabel={Sample Index\\[1ex](a) Actual},
ymin=0,
ymax=0.8,
axis background/.style={fill=white},
legend style={legend cell align=left, align=left, draw=white!15!black}
]
\addplot [color=mycolor1]
  table[row sep=crcr]{%
1	0.0182020814388773\\
2	0.02012510100002\\
3	0.022545111927633\\
4	0.0257092221775269\\
5	0.0300926257860288\\
6	0.0368070113207646\\
7	0.0496139700658591\\
8	0.100781801849891\\
9	0.104249814301154\\
10	0.21590224856942\\
11	0.240903318316862\\
12	0.758685269567618\\
13	0.209267020187496\\
14	0.0771785197863095\\
15	0.0494891771958471\\
16	0.0356405661348903\\
17	0.15523755961894\\
18	0.0271597451025023\\
19	0.145703442549891\\
20	0.0520738574541381\\
21	0.0740609080662357\\
22	0.104935155821669\\
23	0.0417678670288507\\
24	0.0299752622866834\\
25	0.0250001918328842\\
26	0.0229720939063182\\
27	0.0247245078055356\\
28	0.00362513039017358\\
29	0.14722576142865\\
30	0.0387273782761153\\
31	0.131677926596125\\
32	0.0785526041407005\\
33	0.0810464121808255\\
34	0.160588901862689\\
35	0.0744890994278548\\
36	0.134536712627009\\
37	0.0173820440229542\\
38	0.137082339999381\\
39	0.0170525437502556\\
40	0.00749074921495884\\
41	0.00341378303693337\\
42	0.00620877458876847\\
43	0.0141607494626642\\
44	0.0397125400502968\\
45	0.0472710882981607\\
46	0.117933825228246\\
47	0.104860760134015\\
48	0.0231680488862733\\
49	0.0173960896964215\\
50	0.01565840529932\\
51	0.0158238796681408\\
52	0.0214800847634647\\
53	0.069515335423337\\
54	0.00705654101536576\\
55	0.0048265337253162\\
56	0.00444892816390271\\
57	0.00420482397187746\\
58	0.00394665996283891\\
59	0.00367152522573874\\
60	0.00340609944322399\\
61	0.00324100673075721\\
62	0.00352226036423774\\
63	0.00577590294104206\\
64	0.0646039488883014\\
65	0.0152053951030713\\
66	0.025205330150814\\
67	0.0111279282265277\\
68	0.00808273026447386\\
69	0.00668378513225385\\
70	0.0058444881598292\\
71	0.00526118842255355\\
72	0.00481495459253537\\
73	0.00444984685034709\\
74	0.00413772241899909\\
75	0.00386847400652643\\
76	0.00365640479604675\\
77	0.00358022933512563\\
78	0.0039436041841542\\
79	0.00596743145716452\\
80	0.0193053572626292\\
81	0.0244955947722078\\
82	0.0480492514955312\\
83	0.00881743040387132\\
84	0.00673618414357698\\
85	0.00583169570033062\\
86	0.00529290215994122\\
87	0.0049263520005684\\
88	0.00465711125291308\\
89	0.0044495340289191\\
90	0.00428463427284004\\
91	0.00415172046176833\\
92	0.00404487765081529\\
93	0.00396151732265935\\
94	0.00390215289068892\\
95	0.00387150614980524\\
96	0.00388240228065188\\
97	0.00396861770551536\\
98	0.0042393791899913\\
99	0.00529535495453836\\
100	0.0384422656208756\\
101	0.00196598430595653\\
102	0.00227127045262919\\
103	0.0024323424968646\\
104	0.0025024611202\\
105	0.00253048915714305\\
106	0.00253672908189185\\
107	0.00253067827009284\\
108	0.00251728582017171\\
109	0.00249934971595597\\
110	0.00247855194358738\\
111	0.00245595212950105\\
112	0.00243224240902919\\
113	0.0024078877120558\\
114	0.00238320712614353\\
115	0.00235842317784567\\
116	0.00233369278997705\\
117	0.00230912733940947\\
118	0.00228480600224308\\
119	0.00226078483862737\\
120	0.00223710310173484\\
121	0.00221378769593874\\
122	0.00219085637556591\\
123	0.00216832007097849\\
124	0.00214618460011501\\
125	0.00212445194095342\\
126	0.00210312118614787\\
127	0.002082189264892\\
128	0.00206165149248505\\
129	0.00204150199113677\\
130	0.00202173401371152\\
131	0.00200234019373144\\
132	0.00198331273896169\\
133	0.0019646435815544\\
134	0.00194632449455517\\
135	0.00192834718223092\\
136	0.00191070334993457\\
137	0.00189338475791222\\
138	0.00187638326246988\\
139	0.00185969084716353\\
140	0.00184329964609891\\
141	0.00182720196098313\\
142	0.00181139027322501\\
143	0.00179585725211227\\
144	0.00178059575988462\\
145	0.00176559885435432\\
146	0.00175085978959665\\
147	0.00173637201512792\\
148	0.00172212917390737\\
149	0.00170812509943172\\
150	0.00169435381214015\\
151	0.00168080951530347\\
152	0.00166748659053823\\
153	0.00165437959305814\\
154	0.00164148324675288\\
155	0.00162879243916746\\
156	0.00161630221643902\\
157	0.0016040077782369\\
158	0.00159190447274199\\
159	0.00157998779169339\\
160	0.00156825336552436\\
161	0.00155669695860377\\
162	0.00154531446459552\\
163	0.00153410190194422\\
164	0.00152305540949421\\
165	0.00151217124224425\\
166	0.00150144576724133\\
167	0.00149087545961318\\
168	0.00148045689873912\\
169	0.00147018676455811\\
170	0.00146006183401068\\
171	0.00145007897761323\\
172	0.00144023515616105\\
173	0.00143052741755604\\
174	0.0014209528937561\\
175	0.00141150879784194\\
176	0.00140219242119743\\
177	0.0013930011307999\\
178	0.00138393236661579\\
179	0.00137498363909773\\
180	0.0013661525267803\\
181	0.00135743667396858\\
182	0.00134883378851806\\
183	0.00134034163970044\\
184	0.00133195805615281\\
185	0.00132368092390639\\
186	0.00131550818449211\\
187	0.00130743783311859\\
188	0.00129946791692105\\
189	0.00129159653327689\\
190	0.00128382182818601\\
191	0.00127614199471266\\
192	0.00126855527148628\\
193	0.00126105994125928\\
194	0.00125365432951856\\
195	0.00124633680314903\\
196	0.00123910576914731\\
197	0.00123195967338265\\
198	0.00122489699940362\\
199	0\\
200	0\\
};
\addlegendentry{$\mathbf{h_1}$}

\addplot [color=mycolor2]
  table[row sep=crcr]{%
1	0.00774703480118937\\
2	0.00804603929146471\\
3	0.00836973275649019\\
4	0.00872140343539048\\
5	0.00910497030680877\\
6	0.00952514700926037\\
7	0.00998766130776543\\
8	0.0104995540104486\\
9	0.0110695940567668\\
10	0.0117088677650987\\
11	0.0124316367204608\\
12	0.013256623866012\\
13	0.0142090087041013\\
14	0.0153236507623596\\
15	0.0166505577523129\\
16	0.0182647317357061\\
17	0.0202852710510938\\
18	0.0229161572207696\\
19	0.0265452456738114\\
20	0.0320322468033177\\
21	0.0418192089559173\\
22	0.0672236903861102\\
23	0.764800043449489\\
24	0.0299885302146741\\
25	0.0061115763360554\\
26	0.0242678676400095\\
27	0.0514933555988865\\
28	0.195228919998726\\
29	0.085859180908406\\
30	0.0163105896710166\\
31	0.0145786853171939\\
32	0.0559865681218998\\
33	0.251050340252552\\
34	0.336624236311341\\
35	0.408546548232539\\
36	0.036057069833403\\
37	0.032029118563816\\
38	0.0279234399827533\\
39	0.024556464147634\\
40	0.0218789138558169\\
41	0.0197265840855051\\
42	0.0179656432193082\\
43	0.016499807231079\\
44	0.0152607166923053\\
45	0.0141992302040502\\
46	0.0132793478490471\\
47	0.0124741733162898\\
48	0.011763234520885\\
49	0.0111306817804915\\
50	0.0105640541254365\\
51	0.0100534184529814\\
52	0.00959075767384862\\
53	0.00916952821967447\\
54	0.00878433483782754\\
55	0.00843068801165144\\
56	0.00810482052737742\\
57	0.00780354701585278\\
58	0.00752415515294532\\
59	0.00726432048229959\\
60	0.00702203907403127\\
61	0.00679557379902244\\
62	0.00658341110359303\\
63	0.00638422595921995\\
64	0.00619685323339502\\
65	0.00602026414575953\\
66	0.00585354678274153\\
67	0.00569588987471922\\
68	0.00554656921368661\\
69	0\\
70	0\\
71	0\\
72	0\\
73	0\\
74	0\\
75	0\\
76	0\\
77	0\\
78	0\\
79	0\\
80	0\\
81	0\\
82	0\\
83	0\\
84	0\\
85	0\\
86	0\\
87	0\\
88	0\\
89	0\\
90	0\\
91	0\\
92	0\\
93	0\\
94	0\\
95	0\\
96	0\\
97	0\\
98	0\\
99	0\\
100	0\\
101	0\\
102	0\\
103	0\\
104	0\\
105	0\\
106	0\\
107	0\\
108	0\\
109	0\\
110	0\\
111	0\\
112	0\\
113	0\\
114	0\\
115	0\\
116	0\\
117	0\\
118	0\\
119	0\\
120	0\\
121	0\\
122	0\\
123	0\\
124	0\\
125	0\\
126	0\\
127	0\\
128	0\\
129	0\\
130	0\\
131	0\\
132	0\\
133	0\\
134	0\\
135	0\\
136	0\\
137	0\\
138	0\\
139	0\\
140	0\\
141	0\\
142	0\\
143	0\\
144	0\\
145	0\\
146	0\\
147	0\\
148	0\\
149	0\\
150	0\\
151	0\\
152	0\\
153	0\\
154	0\\
155	0\\
156	0\\
157	0\\
158	0\\
159	0\\
160	0\\
161	0\\
162	0\\
163	0\\
164	0\\
165	0\\
166	0\\
167	0\\
168	0\\
169	0\\
170	0\\
171	0\\
172	0\\
173	0\\
174	0\\
175	0\\
176	0\\
177	0\\
178	0\\
179	0\\
180	0\\
181	0\\
182	0\\
183	0\\
184	0\\
185	0\\
186	0\\
187	0\\
188	0\\
189	0\\
190	0\\
191	0\\
192	0\\
193	0\\
194	0\\
195	0\\
196	0\\
197	0\\
198	0\\
199	0\\
200	0\\
};
\addlegendentry{$\mathbf{h_{2}}$}

\end{axis}

\begin{axis}[%
width=1.935in,
height=3.2in,
at={(3.327in,0.512in)},
scale only axis,
xmin=0,
xmax=200,
xlabel style={font=\color{white!15!black}, align=center},
xlabel={Sample Index\\[1ex](b) Estimated},
ymin=0,
ymax=1,
axis background/.style={fill=white},
legend style={legend cell align=left, align=left, draw=white!15!black}
]
\addplot [color=mycolor1]
  table[row sep=crcr]{%
0	4.46840299878777e-05\\
1	0.000134707153444849\\
2	6.29973583205116e-05\\
3	5.72973369488517e-05\\
4	6.16249905824093e-05\\
5	3.49688865356658e-05\\
6	3.57350950684994e-05\\
7	0.00043975012587923\\
8	1.55497798340311e-05\\
9	9.56520949055265e-05\\
10	6.12569970522727e-05\\
11	3.23140705497837e-05\\
12	3.18660208813439e-05\\
13	3.25133536352546e-05\\
14	4.30276156612315e-05\\
15	0.000192900269343372\\
16	0.000108444015804611\\
17	7.62856342575131e-05\\
18	0.000101147628659437\\
19	0.000452197549025541\\
20	0.000130319930119805\\
21	5.4851451885742e-05\\
22	0.000199116042951093\\
23	0.00133671182655585\\
24	0.00312130482929109\\
25	0.000962654552008731\\
26	8.29243516793273e-05\\
27	0.000275514751676639\\
28	3.38165498940117e-05\\
29	6.13092793429339e-05\\
30	0.00011498085560343\\
31	5.39484644374989e-05\\
32	0.000132381514080558\\
33	0.000127959721944046\\
34	2.28560409339328e-05\\
35	0.000102308889130266\\
36	1.87322277761667e-05\\
37	0.000124529231697737\\
38	2.18206388995086e-05\\
39	0.000161065629002474\\
40	0.000506293142906385\\
41	0.0015899446084424\\
42	3.7958411489121e-05\\
43	7.88937543540168e-05\\
44	9.22302977618123e-05\\
45	0.00268246693755254\\
46	0.000158355958154822\\
47	0.00704075622796883\\
48	0.00349360045965092\\
49	0.00633940361304148\\
50	0.00691117994968341\\
51	0.00052384416460502\\
52	0.000607569781472123\\
53	0.0051802171550766\\
54	0.00771000132435245\\
55	0.0155318850449102\\
56	0.00145753439220562\\
57	0.00881726651212906\\
58	0.00544576738073565\\
59	0.00014235600242894\\
60	0.00372724468490772\\
61	0.0141726113732595\\
62	0.0163545001072363\\
63	0.00380876290299103\\
64	0.0468912236340273\\
65	0.03982072403482\\
66	0.0613354197914495\\
67	0.00595689756974644\\
68	0.0226267282803116\\
69	0.0398304685837247\\
70	0.0213535181726937\\
71	0.0602273461089639\\
72	0.0467081040913778\\
73	0.033207163140353\\
74	0.00209276103768502\\
75	0.16524054192055\\
76	0.386301207627566\\
77	0.339244932467913\\
78	0.116300998674354\\
79	0.0373286210117948\\
80	0.00346402082058792\\
81	0.0750213875419157\\
82	0.0581367445356896\\
83	0.0401668524583234\\
84	0.0352875486978528\\
85	0.0773100060505585\\
86	0.103910465834847\\
87	0.17695896377505\\
88	0.586602301293317\\
89	0.261400108827743\\
90	0.0947427755822269\\
91	0.0202086765165893\\
92	0.0379101899486771\\
93	0.078458807069561\\
94	0.0469672822540248\\
95	0.138503965987856\\
96	0.079361898715094\\
97	0.0175203372794685\\
98	0.136860077660166\\
99	0.0781761653520401\\
100	0.0177196652302814\\
101	0.0812886226056558\\
102	0.0725930326355784\\
103	0.0654327976984568\\
104	0.0425122762372893\\
105	0.103391725644372\\
106	0.0237612121509572\\
107	0.0342831703291079\\
108	0.0327633543630018\\
109	0.115729178875508\\
110	0.172440321847053\\
111	0.0747263811984112\\
112	0.0897604338421975\\
113	0.0228471293627291\\
114	0.111273186935186\\
115	0.0041854005402668\\
116	0.00036376185549151\\
117	0.0200639380789635\\
118	0.0438663030134635\\
119	0.0248491737100486\\
120	0.0323278430616447\\
121	0.0333123590154962\\
122	0.10024928410098\\
123	0.0951756978176592\\
124	0.00203219033971197\\
125	0.00116252598785959\\
126	0.00268911626783827\\
127	0.0121679821980182\\
128	0.00284065510920075\\
129	0.00260971179935901\\
130	0.0296339493062302\\
131	0.00281617252590774\\
132	0.00315147839359593\\
133	0.00806089312241361\\
134	0.00973697614167756\\
135	0.0204962403853982\\
136	0.00123457559934759\\
137	0.00934009683435857\\
138	0.012682765542015\\
139	0.00705694640965976\\
140	0.0503172673537104\\
141	0.00530477535480738\\
142	0.0138940300510862\\
143	0.00717799661580821\\
144	0.000830772401040859\\
145	0.00459547432399353\\
146	0.00910828302544778\\
147	0.0159533411771473\\
148	0.0071120488640654\\
149	0.00508744245496114\\
150	0.00537298185876926\\
151	0.00426156619454506\\
152	4.31019777657621e-05\\
153	0.00187830365158989\\
154	0.000115137730854659\\
155	0.00048005562503809\\
156	0.00184558579581965\\
157	0.0124033924648507\\
158	0.0341884809314662\\
159	0.00511791925909707\\
160	0.0042418652832535\\
161	0.0028884850554146\\
162	0.000212504741389775\\
163	5.25602214640572e-05\\
164	0.00247150369621773\\
165	0.0105998886001466\\
166	0.00250810525510768\\
167	0.000354260254127001\\
168	7.69824600903689e-05\\
169	6.52259182190602e-05\\
170	0.00111011069875673\\
171	0.000375166028654989\\
172	0.000195693497194192\\
173	2.9326467614568e-05\\
174	7.4552235423659e-06\\
175	3.49417784789655e-05\\
176	0.0254220599234547\\
177	0.00279058161739349\\
178	5.39315239760205e-05\\
179	0.00154964792227753\\
180	9.86470343604773e-05\\
181	8.56562924473852e-06\\
182	0.000139408660454874\\
183	6.13255293852123e-05\\
184	5.71361113739469e-05\\
185	9.40719463816347e-05\\
186	0.000532732503572731\\
187	1.38456910163915e-05\\
188	0.000118968318415164\\
189	0.000111173715951915\\
190	2.70005167315982e-05\\
191	0.000115060714327041\\
192	4.30453021549045e-05\\
193	1.72292368485831e-05\\
194	0.000148828453287394\\
195	2.09217944417321e-05\\
196	0.000110053734025129\\
197	3.36808383631834e-05\\
198	0.000706661304852607\\
199	1.57186649579134e-05\\
};
\addlegendentry{$\mathbf{\hat{h}_{1}}$}

\addplot [color=mycolor2]
  table[row sep=crcr]{%
0	2.49567517068451e-05\\
1	5.055247975724e-05\\
2	7.7354076087383e-05\\
3	7.05987558598325e-05\\
4	6.13545289162227e-05\\
5	9.52390514360583e-05\\
6	0.000215850778685933\\
7	7.98762647439645e-05\\
8	3.19290586714053e-05\\
9	9.93853577314662e-05\\
10	0.0011749155587402\\
11	0.00651595206909521\\
12	0.000580281816110209\\
13	4.76322738547926e-05\\
14	4.37584763311846e-05\\
15	7.77613643402268e-06\\
16	0.000133999424307153\\
17	0.000519043525971022\\
18	0.000185702004165199\\
19	0.00013189165617769\\
20	0.00153410184857113\\
21	2.08888304636431e-05\\
22	4.86658010387845e-05\\
23	0.00163386003522317\\
24	0.000104954792295809\\
25	0.000390939804417107\\
26	0.000335897560681765\\
27	9.54282430562794e-05\\
28	0.00107686266771988\\
29	0.00603691352459376\\
30	0.00964322955393451\\
31	4.33924693891795e-05\\
32	0.00156905754751856\\
33	0.00145472639280042\\
34	7.88273589116752e-05\\
35	0.00225234169046886\\
36	0.000862330180009797\\
37	0.00147321391479043\\
38	0.00232517833365356\\
39	5.60280434968723e-05\\
40	2.6415049970673e-05\\
41	0.0018220724328957\\
42	0.00241808123169941\\
43	0.000173640676100828\\
44	0.000568230986182831\\
45	0.00489642149967038\\
46	0.00953791386205492\\
47	0.0176460006667867\\
48	0.00535731526565759\\
49	0.00590641263071721\\
50	0.000464630955878154\\
51	0.00150649404309145\\
52	6.88771602548634e-05\\
53	0.00426572862521983\\
54	0.00429086560581724\\
55	0.00111304889619525\\
56	0.00357614408177536\\
57	0.00306455042729692\\
58	0.013344191113279\\
59	0.00711880422515864\\
60	0.00322351246430166\\
61	0.00187367966218469\\
62	0.00493584096766777\\
63	0.00596592925940224\\
64	0.0155283224463364\\
65	0.023890556118935\\
66	0.0260672673003051\\
67	0.00464712271648081\\
68	0.0118858800766589\\
69	0.0113829616313985\\
70	0.000668564048140344\\
71	4.51330911362542e-05\\
72	0.0209043736711716\\
73	0.0473898743850484\\
74	0.00325113689163676\\
75	0.0465940239226882\\
76	0.012712311750249\\
77	0.0381022295852173\\
78	0.0240927787598373\\
79	0.0212462466625605\\
80	0.0441703232494579\\
81	0.0231489187068945\\
82	0.0367118456321575\\
83	0.025628179533032\\
84	0.0110855402389597\\
85	0.003572617853959\\
86	0.00631504846057422\\
87	0.0335970316897076\\
88	0.0458547559583123\\
89	0.052544544995939\\
90	0.0127296298276184\\
91	0.0060253647474609\\
92	0.0498512350295287\\
93	0.0199711618479032\\
94	0.0788130259619374\\
95	0.030982458608046\\
96	0.0662199147493136\\
97	0.066183525342193\\
98	0.0333146089041845\\
99	0.957289454674176\\
100	0.032977987124146\\
101	0.0666939493777815\\
102	0.0653763649773366\\
103	0.030053744642976\\
104	0.0792720907226237\\
105	0.020335545440493\\
106	0.0498744147293319\\
107	0.00501696256879948\\
108	0.0129130893148013\\
109	0.0532162058121733\\
110	0.0455711188860455\\
111	0.0335156931871726\\
112	0.00664466560818964\\
113	0.0037188422314832\\
114	0.0100841332495596\\
115	0.0253799491659875\\
116	0.0380982051875096\\
117	0.023854124144486\\
118	0.0459988195547925\\
119	0.0217776234369923\\
120	0.0248750637821001\\
121	0.0396313426045355\\
122	0.0134796343401718\\
123	0.0473273382768022\\
124	0.00368759565946161\\
125	0.0487501449617499\\
126	0.0211725148077067\\
127	0.000149605976130537\\
128	0.00039224286556874\\
129	0.0111780484400689\\
130	0.0123767029632628\\
131	0.0045832881288511\\
132	0.0285595658327565\\
133	0.0252924447998994\\
134	0.0173589025669956\\
135	0.00627420129390806\\
136	0.00605277676254701\\
137	0.00086958705389975\\
138	0.00330182427007159\\
139	0.00833720461783026\\
140	0.0153526886260889\\
141	0.00478957680143069\\
142	0.0050165253972885\\
143	0.000878333897100514\\
144	0.00448712608258923\\
145	0.00500097384363958\\
146	8.52286023478317e-05\\
147	0.00208694506006159\\
148	0.000334932911014544\\
149	0.00647452326299875\\
150	0.00677454113603965\\
151	0.0192924510292475\\
152	0.0095211890373894\\
153	0.00566387513857633\\
154	0.00061839659319463\\
155	0.000210483389774247\\
156	0.00269039878574761\\
157	0.001840710838511\\
158	0.00146966347556929\\
159	5.92270863766701e-05\\
160	0.00301546195142448\\
161	0.00166571545920522\\
162	0.00117459157979026\\
163	0.00215470575420519\\
164	2.43296157414476e-05\\
165	0.000798136823097217\\
166	0.00208295169150024\\
167	0.000106618168059903\\
168	0.0122898550120575\\
169	0.00679696330330927\\
170	0.00338920366913492\\
171	0.000120106516918544\\
172	0.000931064040115417\\
173	0.00141476853082877\\
174	0.000248991066115691\\
175	0.00198998097377587\\
176	1.91009739397186e-05\\
177	1.09975391028454e-05\\
178	0.00235424322411005\\
179	0.000136069434277836\\
180	0.000788119973322546\\
181	0.000607463851960763\\
182	0.000167014341586257\\
183	1.18821655456955e-05\\
184	2.76006817243405e-05\\
185	4.7539135380428e-05\\
186	0.00137838281194126\\
187	0.00823033060097194\\
188	0.00274775687225231\\
189	8.35019926936856e-05\\
190	6.01254403678474e-05\\
191	6.59878626431264e-05\\
192	0.000233826963673259\\
193	2.9520953861864e-05\\
194	4.6113597987642e-05\\
195	8.9020647025253e-05\\
196	4.38464958604987e-05\\
197	0.000339035602793481\\
198	2.38130921572319e-05\\
199	0.000253423156679772\\
};
\addlegendentry{$\mathbf{\hat{h}_{2}}$}

\end{axis}
\end{tikzpicture}%