% This file was created by matlab2tikz.
%
%The latest updates can be retrieved from
%  http://www.mathworks.com/matlabcentral/fileexchange/22022-matlab2tikz-matlab2tikz
%where you can also make suggestions and rate matlab2tikz.
%
\definecolor{mycolor1}{rgb}{0.00000,0.44700,0.74100}%
\definecolor{mycolor2}{rgb}{0.85000,0.32500,0.09800}%
%
\begin{tikzpicture}

\begin{axis}[%
width=1.935in,
height=3.2in,
at={(0.758in,0.512in)},
scale only axis,
xmin=0,
xmax=100,
xlabel style={font=\color{white!15!black}, align=center},
xlabel={Sample Index\\[1ex](a) Actual},
ymin=0,
ymax=1,
axis background/.style={fill=white},
legend style={legend cell align=left, align=left, draw=white!15!black}
]
\addplot [color=mycolor1]
  table[row sep=crcr]{%
1	0.0216926152020066\\
2	0.0241183965289278\\
3	0.0267807478156139\\
4	0.0354280601095614\\
5	0.221828667704926\\
6	0.648965745595675\\
7	0.241270440438586\\
8	0.0776642628644082\\
9	0.0581044824071981\\
10	0.0611489366831747\\
11	0.0798140419847986\\
12	0.062735544320507\\
13	0.113011040425493\\
14	0.377485382687519\\
15	0.331649248845691\\
16	0.18615433793772\\
17	0.146493252817741\\
18	0.0847190801249442\\
19	0.0628278567269286\\
20	0.0148364296169451\\
21	0.0250471739922352\\
22	0.0344835915107885\\
23	0.116323790948646\\
24	0.279210940275387\\
25	0.101045410677318\\
26	0.0464379665429307\\
27	0.041398863205924\\
28	0.0263226969199998\\
29	0.0221848789960478\\
30	0.0197642774213948\\
31	0.0186496517239344\\
32	0.0219339353832985\\
33	0.018414044189717\\
34	0.00937919788338426\\
35	0.0100670783096178\\
36	0.0098135024549665\\
37	0.00937197330245933\\
38	0.00884810306396591\\
39	0.00821513429074651\\
40	0.00732026654240377\\
41	0.00945021173361951\\
42	0.0127255218727005\\
43	0.00946415089832864\\
44	0.00862800399957479\\
45	0.00816256372793386\\
46	0.00784857678072338\\
47	0.00764005346579914\\
48	0.00755773656417068\\
49	0.00776075567554332\\
50	0.00986938420958768\\
51	0.00319649311885596\\
52	0.00500292172051245\\
53	0.00524752973649041\\
54	0.00526667690567613\\
55	0.00521575322380608\\
56	0.00513704586881206\\
57	0.00504647235310817\\
58	0.00495116794332671\\
59	0.00485468351773321\\
60	0.00475890010347922\\
61	0.00466484578572566\\
62	0.00457308311118313\\
63	0.00448390798586452\\
64	0.0043974582605137\\
65	0.00431377595094964\\
66	0.00423284428954661\\
67	0.00415461047403326\\
68	0.00407899997367922\\
69	0.00400592569101114\\
70	0.00393529390404367\\
71	0.0038670081481966\\
72	0.00380097175500134\\
73	0.00373708950172093\\
74	0.00367526866536834\\
75	0.00361541967416126\\
76	0.00355745648532918\\
77	0.00350129677649243\\
78	0.00344686201027152\\
79	0.00339407741330312\\
80	0.00334287189828014\\
81	0.0032931779490063\\
82	0.00324493148246751\\
83	0.00319807169773062\\
84	0.003152540918526\\
85	0.00310828443427485\\
86	0.00306525034282854\\
87	0.00302338939712195\\
88	0.00298265485717807\\
89	0.00294300234835571\\
90	0.00290438972634362\\
91	0.0028667769491261\\
92	0.00283012595595264\\
93	0.0027944005532083\\
94	0.00275956630699144\\
95	0.0027255904421446\\
96	0.00269244174744817\\
97	0.00266009048666622\\
98	0.00262850831512411\\
99	0\\
100	0\\
};
\addlegendentry{$\mathbf{h_1}$}

\addplot [color=mycolor2]
  table[row sep=crcr]{%
1	0.00108294891904515\\
2	0.00115806441999571\\
3	0.00125656841390277\\
4	0.00139359850086552\\
5	0.00159676508941691\\
6	0.00191784013184518\\
7	0.00245777585368985\\
8	0.00342819163679349\\
9	0.00533730915065768\\
10	0.00974214709050295\\
11	0.0244449264542886\\
12	0.973731186814765\\
13	0.0500739614470277\\
14	0.0426946282907342\\
15	0.00536788790071817\\
16	0.0362080823589407\\
17	0.176144271962331\\
18	0.115663212635922\\
19	0.0234963057121139\\
20	0.0138738178597906\\
21	0.00966054585381422\\
22	0.00731818549393035\\
23	0.00584139575065055\\
24	0.0048330083027894\\
25	0.00410500747522503\\
26	0.00355723928842746\\
27	0.00313167065616096\\
28	0.00279247304593218\\
29	0.00251639833876938\\
30	0.00228774297450139\\
31	0.00209554142652578\\
32	0.00193191967393617\\
33	0.00179108704155738\\
34	0.00166869616651274\\
35	0\\
36	0\\
37	0\\
38	0\\
39	0\\
40	0\\
41	0\\
42	0\\
43	0\\
44	0\\
45	0\\
46	0\\
47	0\\
48	0\\
49	0\\
50	0\\
51	0\\
52	0\\
53	0\\
54	0\\
55	0\\
56	0\\
57	0\\
58	0\\
59	0\\
60	0\\
61	0\\
62	0\\
63	0\\
64	0\\
65	0\\
66	0\\
67	0\\
68	0\\
69	0\\
70	0\\
71	0\\
72	0\\
73	0\\
74	0\\
75	0\\
76	0\\
77	0\\
78	0\\
79	0\\
80	0\\
81	0\\
82	0\\
83	0\\
84	0\\
85	0\\
86	0\\
87	0\\
88	0\\
89	0\\
90	0\\
91	0\\
92	0\\
93	0\\
94	0\\
95	0\\
96	0\\
97	0\\
98	0\\
99	0\\
100	0\\
};
\addlegendentry{$\mathbf{h_{2}}$}

\end{axis}

\begin{axis}[%
width=1.935in,
height=3.2in,
at={(3.327in,0.512in)},
scale only axis,
xmin=0,
xmax=100,
xlabel style={font=\color{white!15!black}, align=center},
xlabel={Sample Index\\[1ex](b) Estimated},
ymin=0,
ymax=1,
axis background/.style={fill=white},
legend style={legend cell align=left, align=left, draw=white!15!black}
]
\addplot [color=mycolor1]
  table[row sep=crcr]{%
0	7.15583483104018e-05\\
1	9.13030556533806e-06\\
2	7.48064662167195e-05\\
3	4.42970779521041e-05\\
4	3.91291677562065e-05\\
5	7.37522416297199e-06\\
6	9.2514072426822e-05\\
7	3.5443883064244e-05\\
8	4.88726293354669e-05\\
9	5.10445004695823e-05\\
10	4.26387695337773e-05\\
11	3.90715042726929e-05\\
12	3.48645580858802e-05\\
13	9.03492661466214e-05\\
14	1.85653292038403e-05\\
15	8.33959380863131e-05\\
16	3.46985190878263e-05\\
17	2.41134881021127e-05\\
18	6.62182637155006e-05\\
19	6.11696362904319e-05\\
20	8.10227307591454e-05\\
21	7.06452934010607e-05\\
22	8.69693452429595e-05\\
23	3.23090085156961e-05\\
24	0.00338574867558383\\
25	0.024186586941862\\
26	7.5608545166956e-05\\
27	0.000568778361795034\\
28	7.17176288266523e-05\\
29	6.33211490423755e-05\\
30	4.5241997499289e-05\\
31	0.00170863007337561\\
32	0.0187378964481651\\
33	0.0441462883099328\\
34	0.0270066906352976\\
35	0.0353259982929854\\
36	0.0245210360156836\\
37	0.0256041018365101\\
38	0.0813624791958642\\
39	0.0145932895858093\\
40	0.0247569462717199\\
41	0.00768217387188695\\
42	0.183149436636491\\
43	0.686825873802354\\
44	0.204961854370334\\
45	0.0258885680635479\\
46	0.123413673191423\\
47	0.0707061814066178\\
48	0.109310384159951\\
49	0.022527146504985\\
50	0.0963460519948279\\
51	0.386464877145869\\
52	0.295197507183097\\
53	0.173384939640992\\
54	0.121222811815212\\
55	0.0685585795613883\\
56	0.0877487882219193\\
57	0.0374432585587898\\
58	0.0288652006401187\\
59	0.0516486998301974\\
60	0.124208839795177\\
61	0.271453376584174\\
62	0.0630079810259664\\
63	0.00271020468885313\\
64	0.00506403537318029\\
65	0.0105310160499279\\
66	0.00801750877503969\\
67	0.0231367750988038\\
68	0.0282422724832575\\
69	0.0509262235648559\\
70	0.0196545511075012\\
71	0.00681982705839081\\
72	7.79362523036705e-05\\
73	0.0106946976696533\\
74	0.00794251715453255\\
75	0.00106849200368915\\
76	7.54403387260129e-05\\
77	0.000740654117496582\\
78	0.0058861563456733\\
79	0.00121550283177495\\
80	0.0027846173638117\\
81	0.000289509185122508\\
82	5.99596846335918e-05\\
83	0.000183014261637233\\
84	0.000278765754562132\\
85	9.90762509754558e-05\\
86	0.000862858875054706\\
87	0.0024523928884056\\
88	5.61503320239735e-05\\
89	4.76698781658257e-05\\
90	7.20754727621751e-05\\
91	5.01957520648839e-05\\
92	0.000101611780533902\\
93	0.000115754225671093\\
94	1.41171609311782e-05\\
95	2.87486228849479e-05\\
96	0.00018602271193311\\
97	1.67008350791777e-05\\
98	6.97266453359216e-05\\
99	3.41330103313008e-05\\
};
\addlegendentry{$\mathbf{\hat{h}_{1}}$}

\addplot [color=mycolor2]
  table[row sep=crcr]{%
0	1.29267023971281e-05\\
1	4.1382725758269e-05\\
2	1.84290133196997e-05\\
3	2.95958072692105e-05\\
4	1.88663342394069e-05\\
5	1.92012154609044e-05\\
6	2.18776371737808e-06\\
7	9.02705385610755e-06\\
8	3.14457373927904e-05\\
9	2.08909846194925e-05\\
10	1.06100357270541e-05\\
11	2.2538700580961e-05\\
12	2.73783238043054e-05\\
13	7.11006218478794e-05\\
14	2.03272208651222e-05\\
15	0.000467546679846863\\
16	2.0773923717862e-05\\
17	2.7003842254923e-05\\
18	7.43154933822205e-06\\
19	1.67754395875884e-05\\
20	0.000340397230439877\\
21	0.0059701877397997\\
22	0.00221938142375509\\
23	0.010141791715933\\
24	0.0027082771634381\\
25	8.53636405725902e-06\\
26	0.00108718701722902\\
27	5.08421690037159e-05\\
28	0.00121978145977563\\
29	0.00219246051091253\\
30	0.00953929163231847\\
31	0.0677785612327722\\
32	0.00875217010986919\\
33	0.0177140418472741\\
34	0.0082253830154841\\
35	0.00486350844983196\\
36	0.0052209637545815\\
37	8.41112843154445e-05\\
38	0.0465224394424645\\
39	0.0722352585754161\\
40	0.0209037092202814\\
41	0.109487817732464\\
42	0.00307173268550094\\
43	0.00710238266711017\\
44	0.0245718734577413\\
45	0.0149982000820699\\
46	0.0232145005237317\\
47	0.039435663784078\\
48	0.00636356174157827\\
49	0.970965413835712\\
50	0.00527598392836945\\
51	0.0398961040306681\\
52	0.0257645763822769\\
53	0.0156654505694621\\
54	0.0250877966157575\\
55	0.00675798707355862\\
56	0.00214650488001542\\
57	0.109864993954686\\
58	0.021181388588848\\
59	0.0732164660335391\\
60	0.0483213336997198\\
61	5.07183887003339e-05\\
62	0.00564657194504432\\
63	0.00623865766113466\\
64	0.00957201964054307\\
65	0.0181050851746196\\
66	0.00881163819620869\\
67	0.0695111292256321\\
68	0.00910343917092987\\
69	0.00205485477819954\\
70	0.000238168211761997\\
71	5.07743158098767e-05\\
72	0.000625641828727322\\
73	1.55924633040225e-05\\
74	0.00309387134872615\\
75	0.00876605517596372\\
76	0.00240586023901337\\
77	0.00629034775913464\\
78	0.000466802736362856\\
79	4.41912959773486e-05\\
80	1.22789890409463e-05\\
81	0.000186693341350025\\
82	9.66195700123272e-05\\
83	0.0011889612884131\\
84	1.56600892202393e-05\\
85	8.12006061138416e-05\\
86	3.72409359922769e-05\\
87	2.35646986054669e-05\\
88	1.0728843934349e-05\\
89	1.45811655003168e-05\\
90	5.02019986851193e-05\\
91	1.64601240034457e-05\\
92	1.05313457048244e-05\\
93	1.86673612080319e-05\\
94	1.86664107025222e-05\\
95	4.85387180409822e-05\\
96	1.60288092602398e-05\\
97	4.22240694695243e-05\\
98	3.57527694516982e-05\\
99	3.85141188361502e-05\\
};
\addlegendentry{$\mathbf{\hat{h}_{2}}$}

\end{axis}
\end{tikzpicture}%