% This file was created by matlab2tikz.
%
%The latest updates can be retrieved from
%  http://www.mathworks.com/matlabcentral/fileexchange/22022-matlab2tikz-matlab2tikz
%where you can also make suggestions and rate matlab2tikz.
%
\definecolor{mycolor1}{rgb}{0.00000,0.44700,0.74100}%
\definecolor{mycolor2}{rgb}{0.85000,0.32500,0.09800}%
%
\begin{tikzpicture}

\begin{axis}[%
width=1.935in,
height=3.2in,
at={(0.758in,0.512in)},
scale only axis,
xmin=0,
xmax=200,
xlabel style={font=\color{white!15!black}, align=center},
xlabel={Sample Index\\[1ex](a) Actual},
ymin=0,
ymax=0.8,
axis background/.style={fill=white},
legend style={legend cell align=left, align=left, draw=white!15!black}
]
\addplot [color=mycolor1]
  table[row sep=crcr]{%
1	0.0182020814388773\\
2	0.02012510100002\\
3	0.022545111927633\\
4	0.0257092221775269\\
5	0.0300926257860288\\
6	0.0368070113207646\\
7	0.0496139700658591\\
8	0.100781801849891\\
9	0.104249814301154\\
10	0.21590224856942\\
11	0.240903318316862\\
12	0.758685269567618\\
13	0.209267020187496\\
14	0.0771785197863095\\
15	0.0494891771958471\\
16	0.0356405661348903\\
17	0.15523755961894\\
18	0.0271597451025023\\
19	0.145703442549891\\
20	0.0520738574541381\\
21	0.0740609080662357\\
22	0.104935155821669\\
23	0.0417678670288507\\
24	0.0299752622866834\\
25	0.0250001918328842\\
26	0.0229720939063182\\
27	0.0247245078055356\\
28	0.00362513039017358\\
29	0.14722576142865\\
30	0.0387273782761153\\
31	0.131677926596125\\
32	0.0785526041407005\\
33	0.0810464121808255\\
34	0.160588901862689\\
35	0.0744890994278548\\
36	0.134536712627009\\
37	0.0173820440229542\\
38	0.137082339999381\\
39	0.0170525437502556\\
40	0.00749074921495884\\
41	0.00341378303693337\\
42	0.00620877458876847\\
43	0.0141607494626642\\
44	0.0397125400502968\\
45	0.0472710882981607\\
46	0.117933825228246\\
47	0.104860760134015\\
48	0.0231680488862733\\
49	0.0173960896964215\\
50	0.01565840529932\\
51	0.0158238796681408\\
52	0.0214800847634647\\
53	0.069515335423337\\
54	0.00705654101536576\\
55	0.0048265337253162\\
56	0.00444892816390271\\
57	0.00420482397187746\\
58	0.00394665996283891\\
59	0.00367152522573874\\
60	0.00340609944322399\\
61	0.00324100673075721\\
62	0.00352226036423774\\
63	0.00577590294104206\\
64	0.0646039488883014\\
65	0.0152053951030713\\
66	0.025205330150814\\
67	0.0111279282265277\\
68	0.00808273026447386\\
69	0.00668378513225385\\
70	0.0058444881598292\\
71	0.00526118842255355\\
72	0.00481495459253537\\
73	0.00444984685034709\\
74	0.00413772241899909\\
75	0.00386847400652643\\
76	0.00365640479604675\\
77	0.00358022933512563\\
78	0.0039436041841542\\
79	0.00596743145716452\\
80	0.0193053572626292\\
81	0.0244955947722078\\
82	0.0480492514955312\\
83	0.00881743040387132\\
84	0.00673618414357698\\
85	0.00583169570033062\\
86	0.00529290215994122\\
87	0.0049263520005684\\
88	0.00465711125291308\\
89	0.0044495340289191\\
90	0.00428463427284004\\
91	0.00415172046176833\\
92	0.00404487765081529\\
93	0.00396151732265935\\
94	0.00390215289068892\\
95	0.00387150614980524\\
96	0.00388240228065188\\
97	0.00396861770551536\\
98	0.0042393791899913\\
99	0.00529535495453836\\
100	0.0384422656208756\\
101	0.00196598430595653\\
102	0.00227127045262919\\
103	0.0024323424968646\\
104	0.0025024611202\\
105	0.00253048915714305\\
106	0.00253672908189185\\
107	0.00253067827009284\\
108	0.00251728582017171\\
109	0.00249934971595597\\
110	0.00247855194358738\\
111	0.00245595212950105\\
112	0.00243224240902919\\
113	0.0024078877120558\\
114	0.00238320712614353\\
115	0.00235842317784567\\
116	0.00233369278997705\\
117	0.00230912733940947\\
118	0.00228480600224308\\
119	0.00226078483862737\\
120	0.00223710310173484\\
121	0.00221378769593874\\
122	0.00219085637556591\\
123	0.00216832007097849\\
124	0.00214618460011501\\
125	0.00212445194095342\\
126	0.00210312118614787\\
127	0.002082189264892\\
128	0.00206165149248505\\
129	0.00204150199113677\\
130	0.00202173401371152\\
131	0.00200234019373144\\
132	0.00198331273896169\\
133	0.0019646435815544\\
134	0.00194632449455517\\
135	0.00192834718223092\\
136	0.00191070334993457\\
137	0.00189338475791222\\
138	0.00187638326246988\\
139	0.00185969084716353\\
140	0.00184329964609891\\
141	0.00182720196098313\\
142	0.00181139027322501\\
143	0.00179585725211227\\
144	0.00178059575988462\\
145	0.00176559885435432\\
146	0.00175085978959665\\
147	0.00173637201512792\\
148	0.00172212917390737\\
149	0.00170812509943172\\
150	0.00169435381214015\\
151	0.00168080951530347\\
152	0.00166748659053823\\
153	0.00165437959305814\\
154	0.00164148324675288\\
155	0.00162879243916746\\
156	0.00161630221643902\\
157	0.0016040077782369\\
158	0.00159190447274199\\
159	0.00157998779169339\\
160	0.00156825336552436\\
161	0.00155669695860377\\
162	0.00154531446459552\\
163	0.00153410190194422\\
164	0.00152305540949421\\
165	0.00151217124224425\\
166	0.00150144576724133\\
167	0.00149087545961318\\
168	0.00148045689873912\\
169	0.00147018676455811\\
170	0.00146006183401068\\
171	0.00145007897761323\\
172	0.00144023515616105\\
173	0.00143052741755604\\
174	0.0014209528937561\\
175	0.00141150879784194\\
176	0.00140219242119743\\
177	0.0013930011307999\\
178	0.00138393236661579\\
179	0.00137498363909773\\
180	0.0013661525267803\\
181	0.00135743667396858\\
182	0.00134883378851806\\
183	0.00134034163970044\\
184	0.00133195805615281\\
185	0.00132368092390639\\
186	0.00131550818449211\\
187	0.00130743783311859\\
188	0.00129946791692105\\
189	0.00129159653327689\\
190	0.00128382182818601\\
191	0.00127614199471266\\
192	0.00126855527148628\\
193	0.00126105994125928\\
194	0.00125365432951856\\
195	0.00124633680314903\\
196	0.00123910576914731\\
197	0.00123195967338265\\
198	0.00122489699940362\\
199	0\\
200	0\\
};
\addlegendentry{$\mathbf{h_1}$}

\addplot [color=mycolor2]
  table[row sep=crcr]{%
1	0.00774703480118937\\
2	0.00804603929146471\\
3	0.00836973275649019\\
4	0.00872140343539048\\
5	0.00910497030680877\\
6	0.00952514700926037\\
7	0.00998766130776543\\
8	0.0104995540104486\\
9	0.0110695940567668\\
10	0.0117088677650987\\
11	0.0124316367204608\\
12	0.013256623866012\\
13	0.0142090087041013\\
14	0.0153236507623596\\
15	0.0166505577523129\\
16	0.0182647317357061\\
17	0.0202852710510938\\
18	0.0229161572207696\\
19	0.0265452456738114\\
20	0.0320322468033177\\
21	0.0418192089559173\\
22	0.0672236903861102\\
23	0.764800043449489\\
24	0.0299885302146741\\
25	0.0061115763360554\\
26	0.0242678676400095\\
27	0.0514933555988865\\
28	0.195228919998726\\
29	0.085859180908406\\
30	0.0163105896710166\\
31	0.0145786853171939\\
32	0.0559865681218998\\
33	0.251050340252552\\
34	0.336624236311341\\
35	0.408546548232539\\
36	0.036057069833403\\
37	0.032029118563816\\
38	0.0279234399827533\\
39	0.024556464147634\\
40	0.0218789138558169\\
41	0.0197265840855051\\
42	0.0179656432193082\\
43	0.016499807231079\\
44	0.0152607166923053\\
45	0.0141992302040502\\
46	0.0132793478490471\\
47	0.0124741733162898\\
48	0.011763234520885\\
49	0.0111306817804915\\
50	0.0105640541254365\\
51	0.0100534184529814\\
52	0.00959075767384862\\
53	0.00916952821967447\\
54	0.00878433483782754\\
55	0.00843068801165144\\
56	0.00810482052737742\\
57	0.00780354701585278\\
58	0.00752415515294532\\
59	0.00726432048229959\\
60	0.00702203907403127\\
61	0.00679557379902244\\
62	0.00658341110359303\\
63	0.00638422595921995\\
64	0.00619685323339502\\
65	0.00602026414575953\\
66	0.00585354678274153\\
67	0.00569588987471922\\
68	0.00554656921368661\\
69	0\\
70	0\\
71	0\\
72	0\\
73	0\\
74	0\\
75	0\\
76	0\\
77	0\\
78	0\\
79	0\\
80	0\\
81	0\\
82	0\\
83	0\\
84	0\\
85	0\\
86	0\\
87	0\\
88	0\\
89	0\\
90	0\\
91	0\\
92	0\\
93	0\\
94	0\\
95	0\\
96	0\\
97	0\\
98	0\\
99	0\\
100	0\\
101	0\\
102	0\\
103	0\\
104	0\\
105	0\\
106	0\\
107	0\\
108	0\\
109	0\\
110	0\\
111	0\\
112	0\\
113	0\\
114	0\\
115	0\\
116	0\\
117	0\\
118	0\\
119	0\\
120	0\\
121	0\\
122	0\\
123	0\\
124	0\\
125	0\\
126	0\\
127	0\\
128	0\\
129	0\\
130	0\\
131	0\\
132	0\\
133	0\\
134	0\\
135	0\\
136	0\\
137	0\\
138	0\\
139	0\\
140	0\\
141	0\\
142	0\\
143	0\\
144	0\\
145	0\\
146	0\\
147	0\\
148	0\\
149	0\\
150	0\\
151	0\\
152	0\\
153	0\\
154	0\\
155	0\\
156	0\\
157	0\\
158	0\\
159	0\\
160	0\\
161	0\\
162	0\\
163	0\\
164	0\\
165	0\\
166	0\\
167	0\\
168	0\\
169	0\\
170	0\\
171	0\\
172	0\\
173	0\\
174	0\\
175	0\\
176	0\\
177	0\\
178	0\\
179	0\\
180	0\\
181	0\\
182	0\\
183	0\\
184	0\\
185	0\\
186	0\\
187	0\\
188	0\\
189	0\\
190	0\\
191	0\\
192	0\\
193	0\\
194	0\\
195	0\\
196	0\\
197	0\\
198	0\\
199	0\\
200	0\\
};
\addlegendentry{$\mathbf{h_{2}}$}

\end{axis}

\begin{axis}[%
width=1.935in,
height=3.2in,
at={(3.327in,0.512in)},
scale only axis,
xmin=0,
xmax=200,
xlabel style={font=\color{white!15!black}, align=center},
xlabel={Sample Index\\[1ex](b) Estimated},
ymin=0,
ymax=1,
axis background/.style={fill=white},
legend style={legend cell align=left, align=left, draw=white!15!black}
]
\addplot [color=mycolor1]
  table[row sep=crcr]{%
0	2.86946789664508e-05\\
1	0.000120919529096383\\
2	2.78669309940216e-06\\
3	3.40420884788283e-05\\
4	4.15918815137343e-05\\
5	4.68305988056096e-05\\
6	6.75164861204381e-05\\
7	1.84745555727149e-05\\
8	3.30207746574841e-05\\
9	5.24883043576466e-05\\
10	0.000106496512197314\\
11	0.000111989308142744\\
12	1.88286022284341e-05\\
13	4.95968438465544e-05\\
14	7.85056711142349e-05\\
15	4.71935786043229e-05\\
16	5.10913431862587e-05\\
17	4.65185049836608e-05\\
18	7.61815843723375e-05\\
19	6.07237446307223e-05\\
20	9.56293793150335e-05\\
21	0.000100075265802969\\
22	9.42484618440599e-05\\
23	2.08969921946821e-05\\
24	6.75020888607176e-05\\
25	4.89851960395181e-05\\
26	0.000117324651502855\\
27	2.07842139413074e-05\\
28	9.23530778648154e-05\\
29	1.9248493302767e-06\\
30	4.37380449809362e-05\\
31	6.19014392913923e-05\\
32	4.68606122275002e-05\\
33	2.52596178035737e-05\\
34	8.67166119419843e-05\\
35	2.92025444652765e-05\\
36	9.65711111064669e-05\\
37	6.32688765805268e-05\\
38	6.10144342227489e-05\\
39	0.000105504197558095\\
40	7.25919068592837e-05\\
41	8.96265065345767e-05\\
42	5.64092294508461e-05\\
43	7.08904059120096e-05\\
44	5.85983470023675e-05\\
45	6.05870360165529e-05\\
46	5.27519096006644e-05\\
47	0.000196009889761614\\
48	3.4747780743457e-05\\
49	0.00011257307684488\\
50	0.000103971822880371\\
51	0.000187358519300494\\
52	2.91341226581162e-05\\
53	8.27631368030879e-05\\
54	0.000177173486502522\\
55	0.000127214171296474\\
56	4.05650293608644e-05\\
57	4.72388770668163e-05\\
58	8.31508351827779e-05\\
59	9.1141452456701e-05\\
60	6.05366743132301e-05\\
61	1.28173829792426e-05\\
62	0.000123879000960927\\
63	0.000125539323128318\\
64	0.00901037918460112\\
65	0.00343109977583868\\
66	0.0206900834593844\\
67	6.16865651463641e-05\\
68	0.00293271960351547\\
69	0.0134842145680906\\
70	0.00410951220178455\\
71	0.0349105777012559\\
72	0.0386101151534113\\
73	0.0166003151618501\\
74	0.0102488610920799\\
75	0.179353542165122\\
76	0.419307635461724\\
77	0.354532016331852\\
78	0.120004785199281\\
79	0.0346941396255628\\
80	7.78797290249903e-05\\
81	0.0499066340778595\\
82	0.0548105573037176\\
83	0.0192274200075186\\
84	0.0203147156239693\\
85	0.0644520274729042\\
86	0.111588576878542\\
87	0.19549826562305\\
88	0.606214304894806\\
89	0.226652279527893\\
90	0.0882109604924106\\
91	0.0298045283118956\\
92	0.019470823811873\\
93	0.0680868072094195\\
94	0.0414144344263592\\
95	0.128835120600843\\
96	0.0725279620252133\\
97	0.000148146175479677\\
98	0.147886798385087\\
99	0.0594754335258993\\
100	0.00021469902202154\\
101	0.067942178317339\\
102	0.0583797782893328\\
103	0.0454993240964044\\
104	0.0281486442606059\\
105	0.0811914113537421\\
106	0.0133110925673108\\
107	0.0456817429889303\\
108	0.0305258646301886\\
109	0.106861489812672\\
110	0.176489614209998\\
111	0.0726237857978714\\
112	0.0602485580868467\\
113	0.00483110537349271\\
114	0.109009687994355\\
115	8.00787339123299e-05\\
116	5.01785889354871e-06\\
117	0.00373789832438653\\
118	0.0308555310008848\\
119	0.00212834922101608\\
120	0.0164260638941231\\
121	0.0186646137698933\\
122	0.0891981876416445\\
123	0.0882650175558554\\
124	6.7572171704044e-05\\
125	2.47009454708389e-05\\
126	4.2924349774529e-05\\
127	0.000222663754823028\\
128	4.51377670515102e-05\\
129	3.83668596156441e-05\\
130	0.022181794023005\\
131	1.88199760855386e-05\\
132	8.32818454382165e-05\\
133	4.84331215390003e-05\\
134	6.07570643252591e-06\\
135	0.00476985750139474\\
136	6.17577609159391e-05\\
137	0.000270536350960465\\
138	1.10677540736567e-05\\
139	6.66461601968181e-05\\
140	0.040370247270964\\
141	6.72830864836032e-05\\
142	0.00450081075096965\\
143	0.000109930129376916\\
144	4.58926977036444e-05\\
145	8.41623905018923e-05\\
146	0.000131079574109866\\
147	0.00978548138058878\\
148	7.82074760005941e-05\\
149	0.000123816386140928\\
150	0.000247936588430012\\
151	0.000109408755526964\\
152	6.06846023357805e-05\\
153	3.74292936737709e-05\\
154	5.12885460468175e-05\\
155	5.15449082664845e-05\\
156	7.67492955782713e-05\\
157	0.00163397676149899\\
158	0.0196921383336392\\
159	0.00013820114920443\\
160	5.39868034002254e-05\\
161	0.000109873730602809\\
162	7.4065147815397e-05\\
163	2.54050650863189e-05\\
164	5.69198196033836e-05\\
165	0.000948543170777591\\
166	0.000143558393833503\\
167	8.81257768798723e-06\\
168	5.6239039123964e-05\\
169	0.000114882029841542\\
170	8.4722437184399e-05\\
171	4.07507387779377e-05\\
172	2.8964032125736e-05\\
173	8.31092658881809e-05\\
174	3.58065163063703e-05\\
175	4.11546024861211e-05\\
176	0.0148031367168618\\
177	5.44556396857486e-05\\
178	2.68898194654627e-05\\
179	7.19603355084514e-05\\
180	2.15490094509618e-05\\
181	2.79613379361044e-05\\
182	3.0893020844203e-05\\
183	4.24098900555697e-05\\
184	8.29023414482121e-05\\
185	2.52866350657106e-05\\
186	4.14419302979873e-05\\
187	3.21999791339965e-05\\
188	8.05926813325808e-05\\
189	3.46780784928033e-05\\
190	9.17227850747248e-05\\
191	3.58889072183849e-05\\
192	6.57202473989056e-05\\
193	4.73070024560773e-05\\
194	1.79311946759664e-05\\
195	4.45998518265415e-05\\
196	5.59956451771421e-05\\
197	3.7261831613657e-05\\
198	2.7230263640263e-05\\
199	5.36061887993222e-05\\
};
\addlegendentry{$\mathbf{\hat{h}_{1}}$}

\addplot [color=mycolor2]
  table[row sep=crcr]{%
0	2.57466115239429e-05\\
1	1.37717308405693e-05\\
2	2.52054207946969e-05\\
3	1.58793153485371e-05\\
4	1.69365195388417e-05\\
5	2.46220300677361e-05\\
6	2.86050542382761e-05\\
7	3.81179294035965e-05\\
8	1.84625906666302e-05\\
9	3.03085201008582e-05\\
10	3.65253452101476e-05\\
11	0.00212726436943042\\
12	2.30324293872937e-05\\
13	1.89440579723728e-05\\
14	1.85186584701253e-05\\
15	1.83881102696666e-05\\
16	6.59684721628943e-05\\
17	3.62804954234606e-05\\
18	3.18887802094035e-05\\
19	4.59409063310711e-05\\
20	2.98400964840771e-05\\
21	4.08317131365553e-05\\
22	1.34869227250619e-05\\
23	3.87375080658857e-05\\
24	1.23103657521114e-05\\
25	2.21177328649128e-05\\
26	2.88946060605586e-05\\
27	1.98610092019211e-05\\
28	3.13567610652348e-05\\
29	0.000846415068526008\\
30	0.00270542665408192\\
31	3.03592015534129e-05\\
32	9.81525315451515e-06\\
33	2.88957367588513e-05\\
34	5.57304692368421e-05\\
35	1.71147168116654e-05\\
36	1.29391333739418e-05\\
37	5.25795647544326e-05\\
38	3.86212662588212e-05\\
39	1.06965537815209e-05\\
40	4.47535403032871e-05\\
41	1.72679416159259e-05\\
42	1.83492568986746e-05\\
43	2.22728265623817e-05\\
44	2.58884520341037e-05\\
45	0.000727660310947808\\
46	0.00336944922612685\\
47	0.00809178387014037\\
48	5.10560434084171e-05\\
49	1.44791041671025e-05\\
50	8.47079516953518e-06\\
51	2.9805679521363e-05\\
52	9.84977723624712e-06\\
53	3.14342304153657e-05\\
54	4.30624477483541e-06\\
55	4.48993003726554e-05\\
56	0.000545937691599616\\
57	6.91682529853038e-05\\
58	0.00846474900085491\\
59	5.06164192857716e-05\\
60	5.06221349419457e-05\\
61	2.80503247685494e-05\\
62	0.00158370146714162\\
63	0.000669587851235548\\
64	0.0102883881925003\\
65	0.0130781552473757\\
66	0.00994082562209807\\
67	6.87915011701322e-05\\
68	0.0017354477366001\\
69	0.00380126078438531\\
70	1.61761394412442e-05\\
71	1.04627706056348e-05\\
72	0.0120423792968072\\
73	0.0253936794240934\\
74	9.90537897877095e-05\\
75	0.0241658995436439\\
76	0.00672099242288148\\
77	0.0243243291969021\\
78	0.0131849868542891\\
79	0.0106300245876837\\
80	0.0277217765339247\\
81	0.00683067826562334\\
82	0.0191669883197703\\
83	0.0123188926608376\\
84	0.00853210011310161\\
85	0.00374601039785606\\
86	9.77670390864333e-05\\
87	0.00234030214034675\\
88	0.0152864041027725\\
89	0.0257852976513702\\
90	0.00573709995308713\\
91	0.000121562520349728\\
92	0.0275182955933257\\
93	0.00495240790536714\\
94	0.0407164247278124\\
95	0.0139898364905784\\
96	0.0397860106611404\\
97	0.0394210434893904\\
98	0.0180168043530821\\
99	0.988448536275336\\
100	0.0178215845708426\\
101	0.0396527916424239\\
102	0.0392140107468443\\
103	0.0133011709080089\\
104	0.0412721698296903\\
105	0.00515186021555067\\
106	0.0274571206909822\\
107	4.75834496353527e-05\\
108	0.00573766012897693\\
109	0.0264993336027456\\
110	0.015204966951487\\
111	0.00222543283674286\\
112	0.00013495153805076\\
113	0.0033439086907797\\
114	0.00794412849122024\\
115	0.0123573683253427\\
116	0.019605147831727\\
117	0.00732254798027469\\
118	0.0288801076583821\\
119	0.0113257939979655\\
120	0.0137669379890239\\
121	0.025212740309825\\
122	0.00682007765196917\\
123	0.0247734421784056\\
124	0.000189861277640263\\
125	0.0261504998892539\\
126	0.0119888353719532\\
127	1.29086709197502e-05\\
128	1.18111381231788e-05\\
129	0.00350950337358786\\
130	0.00206077951136512\\
131	6.68706144354809e-05\\
132	0.0112149006689245\\
133	0.0138128637749884\\
134	0.0108797623082094\\
135	0.000619066359583259\\
136	0.00229199464009132\\
137	1.94926297312466e-05\\
138	5.67105740422789e-05\\
139	0.000600768120187253\\
140	0.00948333475758736\\
141	0.000118547938665682\\
142	0.000764710004013723\\
143	4.33901745366235e-05\\
144	1.76551358968585e-05\\
145	4.03765845071624e-05\\
146	1.11191594038038e-05\\
147	3.60383341574478e-05\\
148	9.97146874177806e-06\\
149	8.84970525810085e-06\\
150	6.92162999487017e-05\\
151	0.00850330242026304\\
152	0.00352850089770695\\
153	0.00118636174497123\\
154	2.14208187170485e-05\\
155	2.0645817780219e-05\\
156	1.62503407867281e-05\\
157	1.45892055899572e-05\\
158	6.85895306469943e-05\\
159	1.66590542028657e-05\\
160	5.46540677695441e-05\\
161	6.05255909144687e-05\\
162	1.2232981007707e-05\\
163	2.06249935140978e-05\\
164	3.89369011978109e-05\\
165	2.11565111905476e-05\\
166	2.10339200306609e-05\\
167	3.19170809370548e-05\\
168	0.00378971791319104\\
169	0.00143402227219265\\
170	3.05288032262913e-05\\
171	1.77810149799226e-05\\
172	1.73718790067983e-05\\
173	3.57139703595089e-05\\
174	3.39716987047131e-06\\
175	3.26870844582362e-05\\
176	2.466411761118e-05\\
177	3.11631215435154e-05\\
178	2.30774986514443e-05\\
179	2.71654654136676e-05\\
180	2.49693093642629e-05\\
181	3.85033524029049e-05\\
182	6.26551783503285e-05\\
183	2.17574057284504e-05\\
184	1.49127657467635e-05\\
185	2.59515560200021e-05\\
186	1.27017472853947e-05\\
187	0.00285292470280931\\
188	2.94424597651848e-05\\
189	4.5044424929846e-05\\
190	2.27453571628189e-05\\
191	3.15968943085931e-05\\
192	1.79238597410699e-05\\
193	2.76067314456067e-05\\
194	2.54411152455362e-05\\
195	2.42249671952871e-05\\
196	1.7979750862387e-05\\
197	7.32643054470603e-06\\
198	3.35474046526186e-05\\
199	3.10800222980571e-05\\
};
\addlegendentry{$\mathbf{\hat{h}_{2}}$}

\end{axis}
\end{tikzpicture}%