% This file was created by matlab2tikz.
%
%The latest updates can be retrieved from
%  http://www.mathworks.com/matlabcentral/fileexchange/22022-matlab2tikz-matlab2tikz
%where you can also make suggestions and rate matlab2tikz.
%
\definecolor{mycolor1}{rgb}{0.00000,0.44700,0.74100}%
\definecolor{mycolor2}{rgb}{0.85000,0.32500,0.09800}%
%
\begin{tikzpicture}

\begin{axis}[%
width=4.521in,
height=3.566in,
at={(0.758in,0.481in)},
scale only axis,
xmin=0,
xmax=40,
xlabel style={font=\color{white!15!black}},
xlabel={Samples (n)},
ymin=0,
ymax=1,
ylabel style={font=\color{white!15!black}},
ylabel={Magnitude},
axis background/.style={fill=white},
legend style={legend cell align=left, align=left, draw=white!15!black}
]
\addplot [color=mycolor1]
  table[row sep=crcr]{%
1	0.00292460318983157\\
2	0.00672795058362269\\
3	0.003780359144525\\
4	0.00740126495836212\\
5	0.00420823206863953\\
6	0.0105131492540159\\
7	0.0185420967877624\\
8	0.0206151131223593\\
9	0.0498217679275883\\
10	0.0550389435510849\\
11	0.0403979666629055\\
12	0.0748968127911092\\
13	0.0684666583702343\\
14	0.11369571794784\\
15	0.0875784390736598\\
16	0.433369593443961\\
17	0.540427646425827\\
18	0.375350389848361\\
19	0.477622783303365\\
20	0.145048025160569\\
21	0.15812737435768\\
22	0.0255950951350825\\
23	0.131512450944375\\
24	0.0400664417162779\\
25	0.0725164375968591\\
26	0.040580487195222\\
27	0.123166385119486\\
28	0.054297785328619\\
29	0.0856640300176745\\
30	0.0705876264761944\\
31	0.026875038146504\\
32	0.0698631213419687\\
33	0.0275907866030846\\
34	0.0307122439159495\\
35	0.0339129667267601\\
36	0.00485006464244213\\
37	0.01401265070611\\
38	0.0144744014106745\\
39	0.0109729568341621\\
40	0.0104303085743196\\
};
\addlegendentry{$\hat{\mathbf{h}_1}$}

\addplot [color=mycolor2]
  table[row sep=crcr]{%
1	0.0045536041822624\\
2	0.00510289088141352\\
3	0.00413210716241176\\
4	0.0043935511343715\\
5	0.00459236043070374\\
6	0.012850130380953\\
7	0.0116652684056385\\
8	0.00777666731528145\\
9	0.0218107397907497\\
10	0.00393489230976022\\
11	0.0027827032861974\\
12	0.0171295505701802\\
13	0.0101371656313692\\
14	0.0115175150890678\\
15	0.0304020622492657\\
16	0.0490915055198065\\
17	0.0397506877520354\\
18	0.0208197060488271\\
19	0.0515045301984256\\
20	0.990453043574163\\
21	0.0515263571895756\\
22	0.0208253113957538\\
23	0.0397712917539304\\
24	0.04911339295318\\
25	0.0304659041891586\\
26	0.0114855658016306\\
27	0.0101997103118628\\
28	0.0171660902288483\\
29	0.00281702607171123\\
30	0.00395451364315458\\
31	0.0218216991426432\\
32	0.00781675072194118\\
33	0.0116923149096888\\
34	0.0128636259141841\\
35	0.00465440049970648\\
36	0.00439558283244225\\
37	0.00413884147523903\\
38	0.00500492095360329\\
39	0.00447537503486348\\
40	0.00097051837297683\\
};
\addlegendentry{$\hat{\mathbf{h}_2}$}

\end{axis}
\end{tikzpicture}%