% This file was created by matlab2tikz.
%
%The latest updates can be retrieved from
%  http://www.mathworks.com/matlabcentral/fileexchange/22022-matlab2tikz-matlab2tikz
%where you can also make suggestions and rate matlab2tikz.
%
\definecolor{mycolor1}{rgb}{0.00000,0.44700,0.74100}%
\definecolor{mycolor2}{rgb}{0.85000,0.32500,0.09800}%
%
\begin{tikzpicture}

\begin{axis}[%
width=1.935in,
height=3.2in,
at={(0.758in,0.512in)},
scale only axis,
xmin=0,
xmax=200,
xlabel style={font=\color{white!15!black}, align=center},
xlabel={Sample Index\\[1ex](a) Actual},
ymin=0,
ymax=1,
axis background/.style={fill=white},
legend style={legend cell align=left, align=left, draw=white!15!black}
]
\addplot [color=mycolor1]
  table[row sep=crcr]{%
1	0.0167418731260698\\
2	0.018659722218203\\
3	0.0211495716349754\\
4	0.0245407494314006\\
5	0.029505643974117\\
6	0.0377161636169434\\
7	0.0550750576238134\\
8	0.131028403455825\\
9	0.141533477104454\\
10	0.158175166246243\\
11	0.163761757297189\\
12	0.600100605556833\\
13	0.118033417583129\\
14	0.0610914209628117\\
15	0.0426162246246858\\
16	0.0332715711707656\\
17	0.0321939439283243\\
18	0.0268871008873183\\
19	0.0316920608120786\\
20	0.0286771919664519\\
21	0.00773119825769845\\
22	0.0330073087209196\\
23	0.019415059292473\\
24	0.0177688778425817\\
25	0.0188194600762088\\
26	0.0237714798713867\\
27	0.0430806655948836\\
28	0.586023006720236\\
29	0.0970905103802927\\
30	0.0246981078960262\\
31	0.0780346253424249\\
32	0.0580455436901626\\
33	0.0681836526256362\\
34	0.163824852865525\\
35	0.0446106828365612\\
36	0.06119675966513\\
37	0.00907835157153909\\
38	0.0310093774848825\\
39	0.00125972832884384\\
40	0.005422098150711\\
41	0.0107374596162295\\
42	0.0165479326643041\\
43	0.024789327411243\\
44	0.0446277431282512\\
45	0.058019450740893\\
46	0.074843365423057\\
47	0.199666615467323\\
48	0.216838516027539\\
49	0.0783890355452335\\
50	0.0495529240878659\\
51	0.0370791446049236\\
52	0.0307530810094058\\
53	0.0155757068681131\\
54	0.0198807977432187\\
55	0.0179871495341263\\
56	0.0162887905400521\\
57	0.0148728268904216\\
58	0.0136909847461918\\
59	0.0126943671543235\\
60	0.011846112844806\\
61	0.0111233301448608\\
62	0.0105291449791113\\
63	0.0102108676347222\\
64	0.00751288118280402\\
65	0.00739035992869396\\
66	0.0116365722557393\\
67	0.00899390796280924\\
68	0.00831157148096884\\
69	0.00788086875151191\\
70	0.00754217236777393\\
71	0.00725475830161164\\
72	0.00700327644843893\\
73	0.006780818536885\\
74	0.00658453626015097\\
75	0.00641472878078445\\
76	0.00627599401250467\\
77	0.00618216997550965\\
78	0.00617516728867787\\
79	0.00642745729543014\\
80	0.00873051939586948\\
81	0.00471465923588381\\
82	0.00195996010568866\\
83	0.004980313957114\\
84	0.00475839614864904\\
85	0.00464733241660508\\
86	0.00455444244400457\\
87	0.00446749239384432\\
88	0.00438406292262191\\
89	0.00430366820355207\\
90	0.00422628355118023\\
91	0.00415201532524293\\
92	0.00408104289588831\\
93	0.00401365198230764\\
94	0.00395033763548775\\
95	0.00389203620501121\\
96	0.00384070443755282\\
97	0.00380107128140597\\
98	0.00378779867734327\\
99	0.00387836096292209\\
100	0.00228454900881806\\
101	0.00321909463290553\\
102	0.00328982387499096\\
103	0.00328100374444436\\
104	0.00325253146337885\\
105	0.00321692683031362\\
106	0.00317840637543852\\
107	0.00313876414674543\\
108	0.00309887602618152\\
109	0.00305920797263281\\
110	0.00302002111537278\\
111	0.00298146552488656\\
112	0.00294362726599965\\
113	0.0029065537719176\\
114	0.00287026833389302\\
115	0.00283477876811283\\
116	0.00280008280049957\\
117	0.00276617151884636\\
118	0.00273303164395387\\
119	0.00270064705586787\\
120	0.00266899983729428\\
121	0.00263807099659409\\
122	0.00260784097374635\\
123	0.00257828999668392\\
124	0.00254939833288439\\
125	0.00252114646667125\\
126	0.00249351522323938\\
127	0.00246648585412356\\
128	0.00244004009455901\\
129	0.00241416020024051\\
130	0.00238882896892876\\
131	0.0023640297508985\\
132	0.00233974645117835\\
133	0.00231596352577768\\
134	0.00229266597354371\\
135	0.00226983932488367\\
136	0.00224746962828519\\
137	0.00222554343533969\\
138	0.00220404778480324\\
139	0.00218297018609978\\
140	0.00216229860257188\\
141	0.00214202143470905\\
142	0.00212212750352594\\
143	0.00210260603421662\\
144	0.00208344664017788\\
145	0.00206463930746792\\
146	0.00204617437974413\\
147	0.00202804254371082\\
148	0.00201023481509265\\
149	0.00199274252514179\\
150	0.00197555730767936\\
151	0.0019586710866655\\
152	0.00194207606428942\\
153	0.00192576470956709\\
154	0.00190972974743187\\
155	0.00189396414830307\\
156	0.00187846111811499\\
157	0.00186321408878906\\
158	0.00184821670913216\\
159	0.00183346283614256\\
160	0.00181894652670628\\
161	0.00180466202966742\\
162	0.00179060377825436\\
163	0.00177676638284649\\
164	0.00176314462406556\\
165	0.00174973344617591\\
166	0.0017365279507797\\
167	0.00172352339079259\\
168	0.00171071516468654\\
169	0.00169809881098722\\
170	0.00168567000301325\\
171	0.00167342454384613\\
172	0.00166135836151948\\
173	0.00164946750441694\\
174	0.00163774813686889\\
175	0.00162619653493841\\
176	0.00161480908238697\\
177	0.00160358226681213\\
178	0.001592512675948\\
179	0.00158159699412143\\
180	0.00157083199885632\\
181	0.00156021455761888\\
182	0.00154974162469766\\
183	0.00153941023821136\\
184	0.00152921751723897\\
185	0.00151916065906659\\
186	0.00150923693654504\\
187	0.00149944369555362\\
188	0.00148977835256491\\
189	0.00148023839230615\\
190	0.0014708213655126\\
191	0.00146152488676917\\
192	0.00145234663243548\\
193	0.00144328433865201\\
194	0.00143433579942216\\
195	0.0014254988647679\\
196	0.00141677143895562\\
197	0.00140815147878894\\
198	0.00139963699196521\\
199	0\\
200	0\\
};
\addlegendentry{$\mathbf{h_1}$}

\addplot [color=mycolor2]
  table[row sep=crcr]{%
1	0.00495033386861547\\
2	0.00515738368500011\\
3	0.00538309861623286\\
4	0.00563019833310769\\
5	0.00590197136255583\\
6	0.00620243506959928\\
7	0.00653655369620811\\
8	0.00691054090538825\\
9	0.00733228812251618\\
10	0.00781198494389501\\
11	0.00836304134465097\\
12	0.0090034999823859\\
13	0.00975827527656913\\
14	0.0106628508662167\\
15	0.0117696896019869\\
16	0.0131600228416925\\
17	0.0149671880151623\\
18	0.0174273921400842\\
19	0.0210049332363351\\
20	0.0267613442180004\\
21	0.037792597580649\\
22	0.068721841139076\\
23	0.97572931769219\\
24	0.0649085399616321\\
25	0.0262918397391367\\
26	0.0126468169615953\\
27	0.00419508123086451\\
28	0.0214241856295046\\
29	0.0134643328328179\\
30	0.00412679327935559\\
31	0.0112712342656943\\
32	0.0282552508318709\\
33	0.111702725947746\\
34	0.12653020104749\\
35	0.0361926668223949\\
36	0.024130019396178\\
37	0.019518168382204\\
38	0.0163235660243771\\
39	0.0140849625225472\\
40	0.0124312948441269\\
41	0.0111552918846637\\
42	0.0101369616841952\\
43	0.00930266674553233\\
44	0.00860476970863487\\
45	0.00801105372801389\\
46	0.00749890841387189\\
47	0.00705196472677567\\
48	0.00665805661850076\\
49	0.0063079366485928\\
50	0.00599443852440938\\
51	0.00571191453485358\\
52	0.00545584764793091\\
53	0.0052225778141873\\
54	0.00500910486747672\\
55	0.00481294397681212\\
56	0.00463201789166602\\
57	0.00446457542356871\\
58	0.00430912894812168\\
59	0.00416440590497024\\
60	0.00402931074167137\\
61	0.00390289474814389\\
62	0.00378433192171684\\
63	0.00367289949042518\\
64	0.0035679620699816\\
65	0.00346895868109233\\
66	0.00337539203747226\\
67	0.00328681965070268\\
68	0.00320284639950925\\
69	0\\
70	0\\
71	0\\
72	0\\
73	0\\
74	0\\
75	0\\
76	0\\
77	0\\
78	0\\
79	0\\
80	0\\
81	0\\
82	0\\
83	0\\
84	0\\
85	0\\
86	0\\
87	0\\
88	0\\
89	0\\
90	0\\
91	0\\
92	0\\
93	0\\
94	0\\
95	0\\
96	0\\
97	0\\
98	0\\
99	0\\
100	0\\
101	0\\
102	0\\
103	0\\
104	0\\
105	0\\
106	0\\
107	0\\
108	0\\
109	0\\
110	0\\
111	0\\
112	0\\
113	0\\
114	0\\
115	0\\
116	0\\
117	0\\
118	0\\
119	0\\
120	0\\
121	0\\
122	0\\
123	0\\
124	0\\
125	0\\
126	0\\
127	0\\
128	0\\
129	0\\
130	0\\
131	0\\
132	0\\
133	0\\
134	0\\
135	0\\
136	0\\
137	0\\
138	0\\
139	0\\
140	0\\
141	0\\
142	0\\
143	0\\
144	0\\
145	0\\
146	0\\
147	0\\
148	0\\
149	0\\
150	0\\
151	0\\
152	0\\
153	0\\
154	0\\
155	0\\
156	0\\
157	0\\
158	0\\
159	0\\
160	0\\
161	0\\
162	0\\
163	0\\
164	0\\
165	0\\
166	0\\
167	0\\
168	0\\
169	0\\
170	0\\
171	0\\
172	0\\
173	0\\
174	0\\
175	0\\
176	0\\
177	0\\
178	0\\
179	0\\
180	0\\
181	0\\
182	0\\
183	0\\
184	0\\
185	0\\
186	0\\
187	0\\
188	0\\
189	0\\
190	0\\
191	0\\
192	0\\
193	0\\
194	0\\
195	0\\
196	0\\
197	0\\
198	0\\
199	0\\
200	0\\
};
\addlegendentry{$\mathbf{h_{2}}$}

\end{axis}

\begin{axis}[%
width=1.935in,
height=3.2in,
at={(3.327in,0.512in)},
scale only axis,
xmin=0,
xmax=200,
xlabel style={font=\color{white!15!black}, align=center},
xlabel={Sample Index\\[1ex](b) Estimated},
ymin=0,
ymax=1,
axis background/.style={fill=white},
legend style={legend cell align=left, align=left, draw=white!15!black}
]
\addplot [color=mycolor1]
  table[row sep=crcr]{%
0	6.94280933288874e-05\\
1	8.96210512644842e-06\\
2	0.000163073930186975\\
3	0.000153334327784768\\
4	2.43339972819125e-05\\
5	6.11317641258729e-05\\
6	6.96338711832019e-05\\
7	5.74664674841005e-05\\
8	5.33891493413804e-05\\
9	5.25462470607462e-05\\
10	6.2975616179398e-05\\
11	6.3446666554098e-05\\
12	2.99602226346236e-05\\
13	6.82035058804843e-05\\
14	5.62125591054028e-05\\
15	4.76517574459604e-05\\
16	5.12504936261308e-05\\
17	0.000121689385453927\\
18	4.52652732543114e-05\\
19	0.000127033891176917\\
20	5.40598493164753e-05\\
21	4.69565430344491e-05\\
22	5.53085571661916e-05\\
23	6.71586304493909e-05\\
24	5.87735967526846e-05\\
25	0.000147117190484208\\
26	0.000112421347671519\\
27	1.50164065073613e-05\\
28	3.48307053041759e-05\\
29	1.92197116357133e-05\\
30	7.65332993992306e-05\\
31	0.000232851830429917\\
32	0.000492816973456121\\
33	0.000389999414076881\\
34	0.000348547460034229\\
35	8.96042442343571e-05\\
36	0.000145901211648287\\
37	6.40756108816158e-05\\
38	7.26346248488695e-05\\
39	3.2063442330505e-05\\
40	2.57926396273319e-05\\
41	6.00831136498183e-05\\
42	0.00014908364952351\\
43	6.1801499660382e-05\\
44	4.86429946099996e-05\\
45	0.000125398997977524\\
46	0.000406219369303833\\
47	0.000179370154789478\\
48	5.15468068554855e-05\\
49	0.0116441225705804\\
50	0.0130165327538765\\
51	0.00292342239835776\\
52	0.0189218403071133\\
53	0.000193505698446799\\
54	0.00447250316779613\\
55	0.00202732077299672\\
56	0.000691138979790151\\
57	0.00253829845058287\\
58	0.000310176553200464\\
59	0.000161429689064693\\
60	0.000102215848393438\\
61	0.000502062615914525\\
62	0.0123549526763924\\
63	0.00542528706165136\\
64	0.000698958966657275\\
65	0.0159882642564239\\
66	0.00963821113261602\\
67	0.0065195129305525\\
68	0.0578104769081848\\
69	0.0266150313559596\\
70	0.0343860267909466\\
71	0.00168826077966914\\
72	0.0585899964969328\\
73	0.0148676208250724\\
74	0.0319201173130066\\
75	0.0334339123878196\\
76	0.0134586467399653\\
77	0.0814887840681122\\
78	0.000773993597278877\\
79	0.00438936368759121\\
80	0.0051543904653092\\
81	0.0136728077336682\\
82	0.0454411977953103\\
83	0.0669751323914696\\
84	0.149901859642277\\
85	0.0926502082862604\\
86	0.134171353423058\\
87	0.215617295333722\\
88	0.570646506929323\\
89	0.128067830481978\\
90	0.0628503428132905\\
91	0.00283683066253857\\
92	0.0382478339764893\\
93	0.0533020992678817\\
94	0.0628487098857248\\
95	0.0128358248281842\\
96	0.0268946689155029\\
97	0.0139477499820507\\
98	0.0465571868308472\\
99	0.0345034392226746\\
100	0.0270139430025864\\
101	0.0426441087291807\\
102	0.0569060908124627\\
103	0.0728535184188734\\
104	0.581374266215747\\
105	0.132157769710579\\
106	0.0187474328041008\\
107	0.0562079788284268\\
108	0.0563326138306009\\
109	0.0745711953630837\\
110	0.164627036561504\\
111	0.0216641155915644\\
112	0.0396702351101201\\
113	0.0264280192856706\\
114	6.16363681464109e-05\\
115	0.0134283069906797\\
116	0.000443322596900721\\
117	0.00283329714516973\\
118	0.0124669333316431\\
119	0.0172697769958818\\
120	0.0932265168559115\\
121	0.0717798867233975\\
122	0.0795864625905478\\
123	0.218474158337112\\
124	0.168775998207055\\
125	0.0756688488721875\\
126	0.0510614808262593\\
127	0.00655480567957189\\
128	0.0264153321433353\\
129	0.0212719938041108\\
130	0.0005886221229672\\
131	0.00327673459197593\\
132	0.0160148837138621\\
133	0.0103522169131042\\
134	5.23676645057553e-05\\
135	0.0138180297104996\\
136	0.0126521787462786\\
137	0.00527034434402929\\
138	0.0149417652017017\\
139	0.0409111192069002\\
140	0.0354008755155451\\
141	0.00870585474674148\\
142	0.0158934028367564\\
143	0.0111299435234193\\
144	0.0058469939355951\\
145	0.00276690892698081\\
146	0.00819957593466022\\
147	0.00201009562194705\\
148	0.000555718246573677\\
149	0.000378634254972375\\
150	0.00146173432512387\\
151	0.0016922159225391\\
152	0.00120758235011182\\
153	0.00148709046222017\\
154	7.72816874076684e-05\\
155	0.000204489902242784\\
156	0.0107842817357861\\
157	0.00406804647777386\\
158	0.00295288874889874\\
159	0.00481156918625472\\
160	6.20463821020243e-05\\
161	0.000153494275109678\\
162	0.000598213317792879\\
163	0.000321751761522109\\
164	0.000768022503339356\\
165	0.000217090467769497\\
166	9.06847447097425e-05\\
167	4.0965323221386e-05\\
168	8.68492238222354e-05\\
169	4.82040774305542e-05\\
170	5.09158404239323e-05\\
171	8.58902563805327e-05\\
172	0.000386657974513182\\
173	4.41591128757349e-05\\
174	8.57197480395494e-05\\
175	8.66275254119023e-05\\
176	8.0334537414618e-05\\
177	0.000445326441037616\\
178	2.28300600224602e-05\\
179	6.07099827729745e-05\\
180	1.68375871619594e-05\\
181	2.6531450989125e-05\\
182	1.83345103761557e-05\\
183	0.000137459225617726\\
184	8.63195767014097e-05\\
185	0.000212328631105834\\
186	0.000111060151610508\\
187	2.31726893825948e-05\\
188	2.26204626754595e-05\\
189	5.00528416335379e-05\\
190	5.09152103603704e-05\\
191	2.06381244022449e-05\\
192	0.00012145549321138\\
193	3.04244955228585e-05\\
194	0.000127199354566832\\
195	5.67426515805341e-05\\
196	6.29310010891755e-05\\
197	5.19363142230787e-05\\
198	3.63644907777221e-05\\
199	7.86970651983279e-05\\
};
\addlegendentry{$\mathbf{\hat{h}_{1}}$}

\addplot [color=mycolor2]
  table[row sep=crcr]{%
0	2.94745888909685e-05\\
1	2.13773449075394e-05\\
2	7.78964192647511e-05\\
3	4.84569979337855e-05\\
4	2.28374970699886e-05\\
5	2.36581656725925e-05\\
6	3.73268603080288e-05\\
7	4.9244912676332e-05\\
8	1.2425866851791e-05\\
9	8.36228594715057e-05\\
10	2.58205623563582e-05\\
11	2.42878850924511e-05\\
12	2.89256114710071e-05\\
13	3.70780937115412e-05\\
14	3.75750002019443e-05\\
15	1.71477657625444e-05\\
16	3.32976916453021e-05\\
17	0.00010401067009072\\
18	0.000107447849005123\\
19	3.37133901595816e-05\\
20	5.13717406750401e-05\\
21	2.41193246435274e-05\\
22	0.000132009459080949\\
23	0.000150637410878816\\
24	0.000131195920984327\\
25	0.000337377155047676\\
26	2.63280004074269e-05\\
27	0.000133929344575705\\
28	6.55702320395989e-05\\
29	0.000198820422742345\\
30	0.000582723621064208\\
31	0.000257844399822889\\
32	3.84325084381811e-05\\
33	1.19351308408881e-05\\
34	0.000582272269198537\\
35	0.000593244535157773\\
36	0.00025217378487335\\
37	0.00219694028514934\\
38	3.75236325867208e-05\\
39	8.85081071627686e-05\\
40	0.00223902995239291\\
41	0.000983374387131235\\
42	0.000245347198233375\\
43	0.0053079052805924\\
44	0.0077995908472615\\
45	0.00293728425553318\\
46	0.0039642616428514\\
47	0.00668130107601591\\
48	0.00314015839094628\\
49	0.00299161248555021\\
50	0.00229118834016981\\
51	0.000747787670685894\\
52	0.00180071393483706\\
53	6.11594305230968e-05\\
54	0.000168088019972892\\
55	0.000533728769365475\\
56	0.00022202363989201\\
57	0.00199606195264226\\
58	4.42586170633325e-06\\
59	0.00904871674834518\\
60	0.0247892890343895\\
61	0.0201257549952619\\
62	0.00521269515232237\\
63	0.046271661543637\\
64	0.0210389520829834\\
65	0.0163144525457554\\
66	0.0194155323131247\\
67	0.0112677130917787\\
68	0.00428743464319735\\
69	0.00659186282350116\\
70	0.00286687019777952\\
71	4.07883310831957e-05\\
72	0.00552073561712647\\
73	0.0166513653740107\\
74	0.00277607012361304\\
75	0.00321490662330763\\
76	0.0227377644384916\\
77	0.0210489301697448\\
78	0.0134543760210627\\
79	0.0449171186861801\\
80	0.0558652502690545\\
81	0.0337489478196937\\
82	0.00908530670551983\\
83	0.129295955188326\\
84	0.0173043221866085\\
85	0.00637825865963171\\
86	0.0216316466885556\\
87	0.00640446064146123\\
88	0.012906658050597\\
89	0.0109204139014166\\
90	0.0190359757892502\\
91	0.0219067067868715\\
92	0.00800860824021276\\
93	0.00924017188419565\\
94	0.0101200350857748\\
95	0.0102965911227569\\
96	0.0515887875315196\\
97	0.0262268554557619\\
98	0.00355328121326356\\
99	0.964059744421976\\
100	0.00331022289641053\\
101	0.0269795559835276\\
102	0.0526237807948837\\
103	0.00989734222757515\\
104	0.0109084268231868\\
105	0.0109499472936279\\
106	0.00756434164358019\\
107	0.0213551208790186\\
108	0.0169928319934906\\
109	0.0131478447673806\\
110	0.0149319800070574\\
111	0.00703933159575788\\
112	0.0216499129141067\\
113	0.00538558455932771\\
114	0.0159216106151391\\
115	0.129264652616738\\
116	0.00849270623006423\\
117	0.0343515190785312\\
118	0.0560893083068801\\
119	0.0460198697899268\\
120	0.014303874458719\\
121	0.0214568440047063\\
122	0.0232372428591518\\
123	0.00245813778431732\\
124	0.00271951644133603\\
125	0.0172791422168053\\
126	0.00590903026126967\\
127	4.59686547659794e-05\\
128	0.00169861751458467\\
129	0.00713028087952366\\
130	0.00339146161289962\\
131	0.0103729780546808\\
132	0.0198938119434194\\
133	0.0157729677998824\\
134	0.0209084640144358\\
135	0.0473298727765213\\
136	0.00401523367878239\\
137	0.0208836138587528\\
138	0.026278357025084\\
139	0.00942560594867149\\
140	1.2185462037253e-05\\
141	0.00153428267967381\\
142	0.000730672616112748\\
143	0.00190196510382505\\
144	0.00139220198672666\\
145	5.60657194968976e-05\\
146	0.00292731517239981\\
147	0.00139624496836981\\
148	0.00192277585768161\\
149	0.00319340295828937\\
150	0.00365215714290968\\
151	0.00630388538175597\\
152	0.00389457458262891\\
153	0.0029585499323199\\
154	0.00747699682035463\\
155	0.00687136961946938\\
156	4.6330055614817e-05\\
157	0.000651693144235054\\
158	0.00372210936199062\\
159	0.000161586797231793\\
160	2.98355414309936e-05\\
161	0.00307125222911924\\
162	0.000842936512326878\\
163	0.00124463455007308\\
164	0.00173490585946351\\
165	2.65902150360115e-05\\
166	8.0502903281145e-06\\
167	0.000122560969885614\\
168	0.000922893476694307\\
169	0.000148380520746652\\
170	5.53343954777298e-05\\
171	0.000130003547186886\\
172	1.97436438001918e-05\\
173	0.00103236685613751\\
174	0.000795999341192941\\
175	0.000400034153002504\\
176	0.00065149994959214\\
177	2.91285770789428e-05\\
178	6.37077294544936e-05\\
179	5.61003660913213e-05\\
180	0.00011290848962565\\
181	0.000193324302163334\\
182	2.72553965319649e-05\\
183	6.95324517527065e-05\\
184	3.09761204316472e-05\\
185	2.42719449533656e-05\\
186	3.84384644739745e-05\\
187	2.0429295255975e-05\\
188	0.000257214207423668\\
189	7.64117838582411e-05\\
190	1.11623013583124e-05\\
191	4.9258650687993e-05\\
192	0.000128715323791047\\
193	2.62543412324814e-05\\
194	7.38244588799999e-06\\
195	6.57082608251862e-05\\
196	7.07555797050883e-05\\
197	2.90955347890709e-05\\
198	4.95860704344803e-05\\
199	0.000140874286756713\\
};
\addlegendentry{$\mathbf{\hat{h}_{2}}$}

\end{axis}
\end{tikzpicture}%