% This file was created by matlab2tikz.
%
%The latest updates can be retrieved from
%  http://www.mathworks.com/matlabcentral/fileexchange/22022-matlab2tikz-matlab2tikz
%where you can also make suggestions and rate matlab2tikz.
%
\definecolor{mycolor1}{rgb}{0.00000,0.44700,0.74100}%
\definecolor{mycolor2}{rgb}{0.85000,0.32500,0.09800}%
%
\begin{tikzpicture}

\begin{axis}[%
width=1.952in,
height=3.2in,
at={(0.758in,0.512in)},
scale only axis,
xmin=0,
xmax=20,
xlabel style={font=\color{white!15!black}, align=center},
xlabel={Sample Index\\[1ex](a) Actual},
ymin=0,
ymax=0.9,
axis background/.style={fill=white},
legend style={legend cell align=left, align=left, draw=white!15!black}
]
\addplot [color=mycolor1]
  table[row sep=crcr]{%
1	0.0444337104356374\\
2	0.738127803558165\\
3	0.357839506790865\\
4	0.481268775571525\\
5	0.10955194752004\\
6	0.267783168107473\\
7	0.0769544524124665\\
8	0.0372836026936495\\
9	0.027789744685169\\
10	0.0196434178633453\\
11	0.0212138243269196\\
12	0.0147156812719569\\
13	0.0126517206023441\\
14	0.0111331007215966\\
15	0.00994473974674355\\
16	0.00898571135769806\\
17	0.00819466874468931\\
18	0.00753086667278431\\
19	0.00696589032366256\\
20	0.00647923877975415\\
};
\addlegendentry{$\mathbf{h_1}$}

\addplot [color=mycolor2]
  table[row sep=crcr]{%
1	0.0696363384444256\\
2	0.13399148454392\\
3	0.889181852408627\\
4	0.426869408918664\\
5	0.0527923084371181\\
6	0.0393468637154593\\
7	0\\
8	0\\
9	0\\
10	0\\
11	0\\
12	0\\
13	0\\
14	0\\
15	0\\
16	0\\
17	0\\
18	0\\
19	0\\
20	0\\
};
\addlegendentry{$\mathbf{h_{2}}$}

\end{axis}

\begin{axis}[%
width=1.952in,
height=3.2in,
at={(3.327in,0.512in)},
scale only axis,
xmin=0,
xmax=20,
xlabel style={font=\color{white!15!black}, align=center},
xlabel={Sample Index\\[1ex](b) Estimated},
ymin=0,
ymax=1,
axis background/.style={fill=white},
legend style={legend cell align=left, align=left, draw=white!15!black}
]
\addplot [color=mycolor1]
  table[row sep=crcr]{%
0	0.0117970689896582\\
1	0.0105907540390158\\
2	0.00314584655945067\\
3	0.0118879815161206\\
4	0.0104830242862521\\
5	0.0140633627703964\\
6	0.0577011332336087\\
7	0.273306786441123\\
8	0.737643418315652\\
9	0.376000748543139\\
10	0.374236155239376\\
11	0.216943989361884\\
12	0.194195329227068\\
13	0.0853482100875207\\
14	0.0404504698983017\\
15	0.0310432403902711\\
16	0.0210105781602974\\
17	0.00208639597818765\\
18	0.0218059308855651\\
19	0.0116025974405716\\
};
\addlegendentry{$\mathbf{\hat{h}_{1}}$}

\addplot [color=mycolor2]
  table[row sep=crcr]{%
0	0.000148505052898905\\
1	0.000813766584500524\\
2	0.000704477824237766\\
3	0.000944027813032004\\
4	0.00214353929125443\\
5	0.00531812354438812\\
6	0.00371474403698392\\
7	0.011399586140752\\
8	0.00850931460963386\\
9	0.999748804486938\\
10	0.00847964461408211\\
11	0.0113982790352343\\
12	0.00371023727798559\\
13	0.0053249181941626\\
14	0.00213899012751328\\
15	0.000938362740947202\\
16	0.000706948755453112\\
17	0.000803391907828492\\
18	0.000136121577147208\\
19	0.000809541103230846\\
};
\addlegendentry{$\mathbf{\hat{h}_{2}}$}

\end{axis}

\begin{axis}[%
width=5.833in,
height=4.375in,
at={(0in,0in)},
scale only axis,
xmin=0,
xmax=1,
ymin=0,
ymax=1,
axis line style={draw=none},
ticks=none,
axis x line*=bottom,
axis y line*=left,
legend style={legend cell align=left, align=left, draw=white!15!black}
]
\end{axis}
\end{tikzpicture}%