% This file was created by matlab2tikz.
%
%The latest updates can be retrieved from
%  http://www.mathworks.com/matlabcentral/fileexchange/22022-matlab2tikz-matlab2tikz
%where you can also make suggestions and rate matlab2tikz.
%
\definecolor{mycolor1}{rgb}{0.00000,0.44700,0.74100}%
\definecolor{mycolor2}{rgb}{0.85000,0.32500,0.09800}%
%
\begin{tikzpicture}

\begin{axis}[%
width=1.972in,
height=3.2in,
at={(0.772in,0.512in)},
scale only axis,
xmin=0,
xmax=200,
xlabel style={font=\color{white!15!black}, align=center},
xlabel={Sample Index\\[1ex](a) Actual},
ymin=0,
ymax=1,
axis background/.style={fill=white},
legend style={legend cell align=left, align=left, draw=white!15!black}
]
\addplot [color=mycolor1]
  table[row sep=crcr]{%
1	0.0167418731260698\\
2	0.018659722218203\\
3	0.0211495716349754\\
4	0.0245407494314006\\
5	0.029505643974117\\
6	0.0377161636169434\\
7	0.0550750576238134\\
8	0.131028403455825\\
9	0.141533477104454\\
10	0.158175166246243\\
11	0.163761757297189\\
12	0.600100605556833\\
13	0.118033417583129\\
14	0.0610914209628117\\
15	0.0426162246246858\\
16	0.0332715711707656\\
17	0.0321939439283243\\
18	0.0268871008873183\\
19	0.0316920608120786\\
20	0.0286771919664519\\
21	0.00773119825769845\\
22	0.0330073087209196\\
23	0.019415059292473\\
24	0.0177688778425817\\
25	0.0188194600762088\\
26	0.0237714798713867\\
27	0.0430806655948836\\
28	0.586023006720236\\
29	0.0970905103802927\\
30	0.0246981078960262\\
31	0.0780346253424249\\
32	0.0580455436901626\\
33	0.0681836526256362\\
34	0.163824852865525\\
35	0.0446106828365612\\
36	0.06119675966513\\
37	0.00907835157153909\\
38	0.0310093774848825\\
39	0.00125972832884384\\
40	0.005422098150711\\
41	0.0107374596162295\\
42	0.0165479326643041\\
43	0.024789327411243\\
44	0.0446277431282512\\
45	0.058019450740893\\
46	0.074843365423057\\
47	0.199666615467323\\
48	0.216838516027539\\
49	0.0783890355452335\\
50	0.0495529240878659\\
51	0.0370791446049236\\
52	0.0307530810094058\\
53	0.0155757068681131\\
54	0.0198807977432187\\
55	0.0179871495341263\\
56	0.0162887905400521\\
57	0.0148728268904216\\
58	0.0136909847461918\\
59	0.0126943671543235\\
60	0.011846112844806\\
61	0.0111233301448608\\
62	0.0105291449791113\\
63	0.0102108676347222\\
64	0.00751288118280402\\
65	0.00739035992869396\\
66	0.0116365722557393\\
67	0.00899390796280924\\
68	0.00831157148096884\\
69	0.00788086875151191\\
70	0.00754217236777393\\
71	0.00725475830161164\\
72	0.00700327644843893\\
73	0.006780818536885\\
74	0.00658453626015097\\
75	0.00641472878078445\\
76	0.00627599401250467\\
77	0.00618216997550965\\
78	0.00617516728867787\\
79	0.00642745729543014\\
80	0.00873051939586948\\
81	0.00471465923588381\\
82	0.00195996010568866\\
83	0.004980313957114\\
84	0.00475839614864904\\
85	0.00464733241660508\\
86	0.00455444244400457\\
87	0.00446749239384432\\
88	0.00438406292262191\\
89	0.00430366820355207\\
90	0.00422628355118023\\
91	0.00415201532524293\\
92	0.00408104289588831\\
93	0.00401365198230764\\
94	0.00395033763548775\\
95	0.00389203620501121\\
96	0.00384070443755282\\
97	0.00380107128140597\\
98	0.00378779867734327\\
99	0.00387836096292209\\
100	0.00228454900881806\\
101	0.00321909463290553\\
102	0.00328982387499096\\
103	0.00328100374444436\\
104	0.00325253146337885\\
105	0.00321692683031362\\
106	0.00317840637543852\\
107	0.00313876414674543\\
108	0.00309887602618152\\
109	0.00305920797263281\\
110	0.00302002111537278\\
111	0.00298146552488656\\
112	0.00294362726599965\\
113	0.0029065537719176\\
114	0.00287026833389302\\
115	0.00283477876811283\\
116	0.00280008280049957\\
117	0.00276617151884636\\
118	0.00273303164395387\\
119	0.00270064705586787\\
120	0.00266899983729428\\
121	0.00263807099659409\\
122	0.00260784097374635\\
123	0.00257828999668392\\
124	0.00254939833288439\\
125	0.00252114646667125\\
126	0.00249351522323938\\
127	0.00246648585412356\\
128	0.00244004009455901\\
129	0.00241416020024051\\
130	0.00238882896892876\\
131	0.0023640297508985\\
132	0.00233974645117835\\
133	0.00231596352577768\\
134	0.00229266597354371\\
135	0.00226983932488367\\
136	0.00224746962828519\\
137	0.00222554343533969\\
138	0.00220404778480324\\
139	0.00218297018609978\\
140	0.00216229860257188\\
141	0.00214202143470905\\
142	0.00212212750352594\\
143	0.00210260603421662\\
144	0.00208344664017788\\
145	0.00206463930746792\\
146	0.00204617437974413\\
147	0.00202804254371082\\
148	0.00201023481509265\\
149	0.00199274252514179\\
150	0.00197555730767936\\
151	0.0019586710866655\\
152	0.00194207606428942\\
153	0.00192576470956709\\
154	0.00190972974743187\\
155	0.00189396414830307\\
156	0.00187846111811499\\
157	0.00186321408878906\\
158	0.00184821670913216\\
159	0.00183346283614256\\
160	0.00181894652670628\\
161	0.00180466202966742\\
162	0.00179060377825436\\
163	0.00177676638284649\\
164	0.00176314462406556\\
165	0.00174973344617591\\
166	0.0017365279507797\\
167	0.00172352339079259\\
168	0.00171071516468654\\
169	0.00169809881098722\\
170	0.00168567000301325\\
171	0.00167342454384613\\
172	0.00166135836151948\\
173	0.00164946750441694\\
174	0.00163774813686889\\
175	0.00162619653493841\\
176	0.00161480908238697\\
177	0.00160358226681213\\
178	0.001592512675948\\
179	0.00158159699412143\\
180	0.00157083199885632\\
181	0.00156021455761888\\
182	0.00154974162469766\\
183	0.00153941023821136\\
184	0.00152921751723897\\
185	0.00151916065906659\\
186	0.00150923693654504\\
187	0.00149944369555362\\
188	0.00148977835256491\\
189	0.00148023839230615\\
190	0.0014708213655126\\
191	0.00146152488676917\\
192	0.00145234663243548\\
193	0.00144328433865201\\
194	0.00143433579942216\\
195	0.0014254988647679\\
196	0.00141677143895562\\
197	0.00140815147878894\\
198	0.00139963699196521\\
199	0\\
200	0\\
};
\addlegendentry{$\mathbf{h_1}$}

\addplot [color=mycolor2]
  table[row sep=crcr]{%
1	0.00495033386861547\\
2	0.00515738368500011\\
3	0.00538309861623286\\
4	0.00563019833310769\\
5	0.00590197136255583\\
6	0.00620243506959928\\
7	0.00653655369620811\\
8	0.00691054090538825\\
9	0.00733228812251618\\
10	0.00781198494389501\\
11	0.00836304134465097\\
12	0.0090034999823859\\
13	0.00975827527656913\\
14	0.0106628508662167\\
15	0.0117696896019869\\
16	0.0131600228416925\\
17	0.0149671880151623\\
18	0.0174273921400842\\
19	0.0210049332363351\\
20	0.0267613442180004\\
21	0.037792597580649\\
22	0.068721841139076\\
23	0.97572931769219\\
24	0.0649085399616321\\
25	0.0262918397391367\\
26	0.0126468169615953\\
27	0.00419508123086451\\
28	0.0214241856295046\\
29	0.0134643328328179\\
30	0.00412679327935559\\
31	0.0112712342656943\\
32	0.0282552508318709\\
33	0.111702725947746\\
34	0.12653020104749\\
35	0.0361926668223949\\
36	0.024130019396178\\
37	0.019518168382204\\
38	0.0163235660243771\\
39	0.0140849625225472\\
40	0.0124312948441269\\
41	0.0111552918846637\\
42	0.0101369616841952\\
43	0.00930266674553233\\
44	0.00860476970863487\\
45	0.00801105372801389\\
46	0.00749890841387189\\
47	0.00705196472677567\\
48	0.00665805661850076\\
49	0.0063079366485928\\
50	0.00599443852440938\\
51	0.00571191453485358\\
52	0.00545584764793091\\
53	0.0052225778141873\\
54	0.00500910486747672\\
55	0.00481294397681212\\
56	0.00463201789166602\\
57	0.00446457542356871\\
58	0.00430912894812168\\
59	0.00416440590497024\\
60	0.00402931074167137\\
61	0.00390289474814389\\
62	0.00378433192171684\\
63	0.00367289949042518\\
64	0.0035679620699816\\
65	0.00346895868109233\\
66	0.00337539203747226\\
67	0.00328681965070268\\
68	0.00320284639950925\\
69	0\\
70	0\\
71	0\\
72	0\\
73	0\\
74	0\\
75	0\\
76	0\\
77	0\\
78	0\\
79	0\\
80	0\\
81	0\\
82	0\\
83	0\\
84	0\\
85	0\\
86	0\\
87	0\\
88	0\\
89	0\\
90	0\\
91	0\\
92	0\\
93	0\\
94	0\\
95	0\\
96	0\\
97	0\\
98	0\\
99	0\\
100	0\\
101	0\\
102	0\\
103	0\\
104	0\\
105	0\\
106	0\\
107	0\\
108	0\\
109	0\\
110	0\\
111	0\\
112	0\\
113	0\\
114	0\\
115	0\\
116	0\\
117	0\\
118	0\\
119	0\\
120	0\\
121	0\\
122	0\\
123	0\\
124	0\\
125	0\\
126	0\\
127	0\\
128	0\\
129	0\\
130	0\\
131	0\\
132	0\\
133	0\\
134	0\\
135	0\\
136	0\\
137	0\\
138	0\\
139	0\\
140	0\\
141	0\\
142	0\\
143	0\\
144	0\\
145	0\\
146	0\\
147	0\\
148	0\\
149	0\\
150	0\\
151	0\\
152	0\\
153	0\\
154	0\\
155	0\\
156	0\\
157	0\\
158	0\\
159	0\\
160	0\\
161	0\\
162	0\\
163	0\\
164	0\\
165	0\\
166	0\\
167	0\\
168	0\\
169	0\\
170	0\\
171	0\\
172	0\\
173	0\\
174	0\\
175	0\\
176	0\\
177	0\\
178	0\\
179	0\\
180	0\\
181	0\\
182	0\\
183	0\\
184	0\\
185	0\\
186	0\\
187	0\\
188	0\\
189	0\\
190	0\\
191	0\\
192	0\\
193	0\\
194	0\\
195	0\\
196	0\\
197	0\\
198	0\\
199	0\\
200	0\\
};
\addlegendentry{$\mathbf{h_{2}}$}

\end{axis}

\begin{axis}[%
width=1.972in,
height=3.2in,
at={(3.386in,0.512in)},
scale only axis,
xmin=0,
xmax=200,
xlabel style={font=\color{white!15!black}, align=center},
xlabel={Sample Index\\[1ex](b) Estimated},
ymin=0,
ymax=1,
axis background/.style={fill=white},
legend style={legend cell align=left, align=left, draw=white!15!black}
]
\addplot [color=mycolor1]
  table[row sep=crcr]{%
0	4.49011929365563e-05\\
1	2.74651847566474e-05\\
2	2.40533930828302e-05\\
3	5.12415477195096e-05\\
4	4.5149790806696e-05\\
5	3.07996974760871e-05\\
6	4.97857732071013e-05\\
7	0.000227946519659163\\
8	0.000262784836990332\\
9	9.71965347200622e-05\\
10	0.000104454513647508\\
11	1.33354810935372e-05\\
12	5.07320994747386e-05\\
13	8.52972592970633e-05\\
14	9.7497876642662e-05\\
15	6.25157525854653e-05\\
16	0.00016813326975112\\
17	0.000111544170548966\\
18	0.00012855051336597\\
19	5.17841426045973e-05\\
20	3.65164449369768e-05\\
21	4.65351335255478e-05\\
22	0.000108501141451268\\
23	0.000128829614845841\\
24	2.6258836994519e-05\\
25	1.74177835534956e-05\\
26	8.69185465777716e-05\\
27	0.000174219467518839\\
28	4.7000129816663e-05\\
29	4.89562697896161e-05\\
30	3.89850550184943e-05\\
31	0.000445153903199519\\
32	0.00048670438916381\\
33	8.48287809334639e-05\\
34	0.000115227175362369\\
35	3.41208953125601e-05\\
36	8.59795826966356e-05\\
37	0.000125867235110008\\
38	9.18321542943845e-05\\
39	7.08619611678603e-05\\
40	0.000161248579278145\\
41	0.000108836627939623\\
42	0.000124049561514681\\
43	0.000153837912937596\\
44	4.15448682704316e-05\\
45	6.67688588995928e-05\\
46	0.00113452637450946\\
47	3.57054962307441e-05\\
48	0.000159866656461513\\
49	0.0107029307302995\\
50	0.0130363733937772\\
51	0.00395537503155897\\
52	0.0173778620723184\\
53	0.00011675352114426\\
54	0.00477510610513858\\
55	0.001827701448996\\
56	0.000536391547932773\\
57	0.00280304773199122\\
58	0.000258075009959552\\
59	0.000479366802535322\\
60	9.69723264639702e-05\\
61	0.00113242572734151\\
62	0.0119319404368196\\
63	0.0053571925204893\\
64	0.000324138522775034\\
65	0.0158259806048487\\
66	0.0090246718545324\\
67	0.00745423432131953\\
68	0.0583176672791417\\
69	0.0256539660032992\\
70	0.0331893701089225\\
71	0.000758322108805782\\
72	0.058506505648992\\
73	0.015581155400599\\
74	0.0307038284238907\\
75	0.0340802820996068\\
76	0.013122231123742\\
77	0.080816880831347\\
78	0.000701910297829585\\
79	0.0037540163538532\\
80	0.00500958435057447\\
81	0.0118537644322942\\
82	0.0445414775968597\\
83	0.0686816037211478\\
84	0.15080132506591\\
85	0.0931898539214248\\
86	0.132384573432586\\
87	0.214997828840818\\
88	0.570438876779337\\
89	0.126425600931953\\
90	0.0618855323465276\\
91	0.00252526410208166\\
92	0.0394652000569728\\
93	0.0535691334773613\\
94	0.064832907341444\\
95	0.0126766324877605\\
96	0.0283285980174883\\
97	0.0136248270604713\\
98	0.0460454921734153\\
99	0.0330625039257923\\
100	0.0274249205991703\\
101	0.0429942189578702\\
102	0.0566934884664329\\
103	0.0734276628094566\\
104	0.582006862567924\\
105	0.132603678847353\\
106	0.0172869872728892\\
107	0.05522858042749\\
108	0.0559310349345051\\
109	0.0733616000197263\\
110	0.165202987172977\\
111	0.0218353907656697\\
112	0.0415802753751496\\
113	0.0268746778917854\\
114	0.000108736019797244\\
115	0.0151979041988242\\
116	0.000935471688985804\\
117	0.00262418661930733\\
118	0.0128687715787743\\
119	0.0183649812295471\\
120	0.0945729798656284\\
121	0.0714730335437119\\
122	0.0791597411414046\\
123	0.21842243030459\\
124	0.167926100316201\\
125	0.0775449039442588\\
126	0.051043396669219\\
127	0.00748288621952437\\
128	0.0242224634768664\\
129	0.0198043714007367\\
130	0.00167555305945652\\
131	0.00400154995119183\\
132	0.0158691177625427\\
133	0.0111777538127141\\
134	0.00017726570965744\\
135	0.0135768628474008\\
136	0.0128809602385065\\
137	0.00510134181828715\\
138	0.0169036912502228\\
139	0.0397968365214309\\
140	0.0361349658861849\\
141	0.00884305984951118\\
142	0.0155541886944484\\
143	0.0105548700687352\\
144	0.00603302637653704\\
145	0.00470377584153354\\
146	0.00733568190904223\\
147	0.00132139407306204\\
148	0.00053338596741344\\
149	0.000106413314435063\\
150	0.000540317808846672\\
151	0.00109916820931078\\
152	0.000398849486731173\\
153	0.0018528396900221\\
154	0.000223067819929047\\
155	9.63798388953478e-05\\
156	0.0109217286290226\\
157	0.00526742924356692\\
158	0.00253116991631517\\
159	0.00447952455968551\\
160	0.000369977489333183\\
161	3.59569473221485e-05\\
162	0.000917359979968694\\
163	8.45923910586381e-06\\
164	0.000873526775196394\\
165	0.000731988817039883\\
166	1.22859129611307e-05\\
167	0.000105868600219131\\
168	5.62376740903863e-05\\
169	0.000252590884835834\\
170	5.80326204115885e-05\\
171	6.94668968159085e-05\\
172	6.97269899156705e-05\\
173	3.83852173975125e-05\\
174	2.97366401040914e-05\\
175	1.78112308211403e-05\\
176	5.47506983021327e-05\\
177	5.69088929687124e-05\\
178	0.00013121815914159\\
179	0.000163421292318161\\
180	6.29089771878969e-05\\
181	3.32993393459271e-05\\
182	6.21255464966994e-05\\
183	4.38758716273645e-05\\
184	0.000110475805344539\\
185	0.000225296584538463\\
186	0.00012133924300461\\
187	3.26659919091557e-05\\
188	6.43888987932119e-05\\
189	8.15632775330981e-05\\
190	5.04239999037707e-05\\
191	1.12440972047382e-05\\
192	0.000248487360160166\\
193	0.000142759621759219\\
194	3.35416979004339e-05\\
195	0.000170380635615826\\
196	1.79043136661448e-05\\
197	6.26531262788396e-05\\
198	0.00010205297004697\\
199	0.000221290754618832\\
};
\addlegendentry{$\mathbf{\hat{h}_{1}}$}

\addplot [color=mycolor2]
  table[row sep=crcr]{%
0	2.35246311691921e-05\\
1	2.44858837856926e-05\\
2	7.23178923465503e-05\\
3	0.000151267408196083\\
4	2.72604693961127e-05\\
5	3.46609905542504e-05\\
6	9.06191657032972e-07\\
7	3.11365512900916e-06\\
8	4.54334471634782e-05\\
9	1.69229782480211e-05\\
10	3.76100527666555e-05\\
11	6.47081274548143e-05\\
12	2.68682881069136e-05\\
13	1.15413220918549e-05\\
14	4.76319124250235e-05\\
15	3.52637715085407e-05\\
16	4.25765189455388e-05\\
17	2.41626931521477e-05\\
18	0.000189507349736505\\
19	1.22196933822168e-05\\
20	2.99932722331358e-05\\
21	5.40776250230841e-05\\
22	1.61493378032265e-05\\
23	0.00014393362863575\\
24	6.15927439980152e-05\\
25	0.000182295651287357\\
26	0.000123984573198823\\
27	9.52989823399446e-05\\
28	0.000100501965015464\\
29	0.000123483402534608\\
30	0.000528004499236791\\
31	0.000251396000994881\\
32	4.99265338718851e-05\\
33	1.19911159430498e-05\\
34	0.000785396682176916\\
35	0.000966709837866183\\
36	5.10018719107198e-05\\
37	0.00197782622923374\\
38	4.6040679149093e-05\\
39	7.76260167477428e-05\\
40	0.00234268482406717\\
41	0.00155275603642306\\
42	2.07527945378165e-05\\
43	0.00599917217481801\\
44	0.0078686950366616\\
45	0.00270159945507355\\
46	0.00316993160201159\\
47	0.00614512580104152\\
48	0.00291504685691152\\
49	0.00366112393706903\\
50	0.00192052919182702\\
51	0.000600515092718278\\
52	0.00262409604620146\\
53	3.15343349617443e-05\\
54	0.000363440889319917\\
55	0.000496361627900717\\
56	4.76033635869868e-05\\
57	0.00215420037946963\\
58	3.11048018642795e-05\\
59	0.00736859000376072\\
60	0.0244013960827369\\
61	0.0206152131637506\\
62	0.00428329699189478\\
63	0.0463979261295688\\
64	0.0204944885393814\\
65	0.0160509559978794\\
66	0.0184295521437972\\
67	0.0119122363282577\\
68	0.0045046641819825\\
69	0.00678880505699183\\
70	0.00265323787139943\\
71	0.000524190349073241\\
72	0.00617753359898154\\
73	0.0169196206270953\\
74	0.00296842492149671\\
75	0.00381906627466528\\
76	0.0230771761525975\\
77	0.0209323113300564\\
78	0.0138167220670019\\
79	0.04455257133376\\
80	0.0561603428386758\\
81	0.0336444725640278\\
82	0.00953990474337156\\
83	0.129438810580305\\
84	0.0165942813733888\\
85	0.00670530432295996\\
86	0.0219004073694327\\
87	0.00617025290883286\\
88	0.0133002776578858\\
89	0.010664084963613\\
90	0.0195743992394519\\
91	0.021861807165901\\
92	0.00791991283624891\\
93	0.00976354953045128\\
94	0.00990837784007254\\
95	0.0100976001545196\\
96	0.0513239671022522\\
97	0.0250156948368636\\
98	0.00407596634100486\\
99	0.964114544635446\\
100	0.00382473514951878\\
101	0.025831765489558\\
102	0.0523294571565334\\
103	0.00974366521026842\\
104	0.0107220597710331\\
105	0.011484336319426\\
106	0.0073550380719169\\
107	0.0214029442437362\\
108	0.0175376994134772\\
109	0.0129253133734017\\
110	0.0152908834336696\\
111	0.0067569853247458\\
112	0.0220540783371154\\
113	0.00568506603540215\\
114	0.0152786456608661\\
115	0.129407469009048\\
116	0.00902378163763818\\
117	0.0343296169397125\\
118	0.0564223313031054\\
119	0.045610727274408\\
120	0.0145466326187653\\
121	0.0213312824927946\\
122	0.0236908943152899\\
123	0.00304367662410017\\
124	0.0030832760388328\\
125	0.0173616996185749\\
126	0.00655731101294471\\
127	0.000238219389063255\\
128	0.00170379065873218\\
129	0.00715373601796934\\
130	0.00358965676950776\\
131	0.0110518677099008\\
132	0.0189405329342269\\
133	0.0154311953181794\\
134	0.0205104024618614\\
135	0.0474480173488811\\
136	0.00312171789926014\\
137	0.0214653446213109\\
138	0.0257007083307329\\
139	0.00818130527420235\\
140	6.35780688926651e-05\\
141	0.00180071084411069\\
142	0.000646124751157916\\
143	0.00187557840107504\\
144	0.00150490300235324\\
145	0.000244693342902729\\
146	0.00373100036865908\\
147	0.00115037765161447\\
148	0.00160906203273249\\
149	0.00385349076486684\\
150	0.00347031997750429\\
151	0.00582980258546653\\
152	0.00313518093426575\\
153	0.00281113857672831\\
154	0.00758247650394857\\
155	0.00750240500483457\\
156	5.16964872144872e-05\\
157	0.000786062282761061\\
158	0.00380911286188942\\
159	0.000380166027468865\\
160	2.98050760683675e-05\\
161	0.00291933546596839\\
162	0.000718859585159809\\
163	0.00160997737481317\\
164	0.00189616936406511\\
165	1.6098783524831e-05\\
166	7.86477794469082e-05\\
167	0.000160587252019837\\
168	0.00080305296025229\\
169	0.000113808035180528\\
170	6.58212307041884e-05\\
171	0.000105554491439369\\
172	0.000108634629516531\\
173	0.000553325256845601\\
174	0.000404306714069032\\
175	0.000423927395706033\\
176	0.000161693256535529\\
177	2.55621113661326e-06\\
178	0.000157556273466263\\
179	2.24039565605962e-05\\
180	0.000270879017433515\\
181	6.33277229857475e-05\\
182	4.62256481454186e-05\\
183	4.47393386016053e-05\\
184	4.67173390210776e-05\\
185	1.07271672297206e-05\\
186	8.75094680458477e-06\\
187	6.76392087333185e-05\\
188	6.16131669058171e-05\\
189	3.200445098989e-05\\
190	5.89087176175157e-05\\
191	3.02737848560618e-05\\
192	5.76600489822492e-06\\
193	5.16406451289786e-06\\
194	4.72617279827225e-05\\
195	0.00015660752800147\\
196	5.78941171178246e-05\\
197	5.22045280035947e-05\\
198	1.64797234125672e-05\\
199	1.14642981984681e-05\\
};
\addlegendentry{$\mathbf{\hat{h}_{2}}$}

\end{axis}
\end{tikzpicture}%