% This file was created by matlab2tikz.
%
%The latest updates can be retrieved from
%  http://www.mathworks.com/matlabcentral/fileexchange/22022-matlab2tikz-matlab2tikz
%where you can also make suggestions and rate matlab2tikz.
%
\definecolor{mycolor1}{rgb}{0.00000,0.44700,0.74100}%
\definecolor{mycolor2}{rgb}{0.85000,0.32500,0.09800}%
%
\begin{tikzpicture}

\begin{axis}[%
width=1.952in,
height=3.2in,
at={(0.758in,0.512in)},
scale only axis,
xmin=0,
xmax=20,
xlabel style={font=\color{white!15!black}, align=center},
xlabel={Sample Index\\[1ex](a) Actual},
ymin=0,
ymax=0.9,
axis background/.style={fill=white},
legend style={legend cell align=left, align=left, draw=white!15!black}
]
\addplot [color=mycolor1]
  table[row sep=crcr]{%
1	0.0444337104356374\\
2	0.738127803558165\\
3	0.357839506790865\\
4	0.481268775571525\\
5	0.10955194752004\\
6	0.267783168107473\\
7	0.0769544524124665\\
8	0.0372836026936495\\
9	0.027789744685169\\
10	0.0196434178633453\\
11	0.0212138243269196\\
12	0.0147156812719569\\
13	0.0126517206023441\\
14	0.0111331007215966\\
15	0.00994473974674355\\
16	0.00898571135769806\\
17	0.00819466874468931\\
18	0.00753086667278431\\
19	0.00696589032366256\\
20	0.00647923877975415\\
};
\addlegendentry{$\mathbf{h_1}$}

\addplot [color=mycolor2]
  table[row sep=crcr]{%
1	0.0696363384444256\\
2	0.13399148454392\\
3	0.889181852408627\\
4	0.426869408918664\\
5	0.0527923084371181\\
6	0.0393468637154593\\
7	0\\
8	0\\
9	0\\
10	0\\
11	0\\
12	0\\
13	0\\
14	0\\
15	0\\
16	0\\
17	0\\
18	0\\
19	0\\
20	0\\
};
\addlegendentry{$\mathbf{h_{2}}$}

\end{axis}

\begin{axis}[%
width=1.952in,
height=3.2in,
at={(3.327in,0.512in)},
scale only axis,
xmin=0,
xmax=30,
xlabel style={font=\color{white!15!black}, align=center},
xlabel={Sample Index\\[1ex](b) Estimated},
ymin=0,
ymax=1,
axis background/.style={fill=white},
legend style={legend cell align=left, align=left, draw=white!15!black}
]
\addplot [color=mycolor1]
  table[row sep=crcr]{%
0	2.28587120667061e-05\\
1	4.31142497522515e-05\\
2	0.000258894410903069\\
3	0.000963563575152718\\
4	0.00135691786547189\\
5	0.000411158638611289\\
6	0.0122805975702613\\
7	0.0204360463347657\\
8	0.0235379623017263\\
9	0.0357515310838861\\
10	0.0390246479930128\\
11	0.201953820501019\\
12	0.161380341570332\\
13	0.770843372316653\\
14	0.23056762119552\\
15	0.379496881713516\\
16	0.280848210032151\\
17	0.17872749926099\\
18	0.155764351816843\\
19	0.0244616071997006\\
20	0.0288291929198074\\
21	0.0233348673315818\\
22	0.0238571569181805\\
23	0.0137823691480967\\
24	0.00293771217136225\\
25	0.00247313621710019\\
26	0.00344194928270862\\
27	0.00363064032142776\\
28	0.00192685295533025\\
29	0.000812090465094219\\
30	0.00256844708963971\\
};
\addlegendentry{$\mathbf{\hat{h}_{1}}$}

\addplot [color=mycolor2]
  table[row sep=crcr]{%
0	0.00226838428218703\\
1	0.00272729523647199\\
2	0.00251816180345985\\
3	0.00313277569895152\\
4	0.0048059359317409\\
5	0.00965966083327849\\
6	0.0118512557390456\\
7	0.0214764779937761\\
8	0.0148164325391823\\
9	0.0509137979755084\\
10	0.071155661657577\\
11	0.0753376216811003\\
12	0.16873514891145\\
13	0.0311851323892733\\
14	0.954526496948393\\
15	0.0305454011263625\\
16	0.170393082775887\\
17	0.0763864986539981\\
18	0.0734230211161657\\
19	0.0515078803826357\\
20	0.0168008256511605\\
21	0.0235987844342643\\
22	0.0134778664505787\\
23	0.0115176631808802\\
24	0.00715488607142754\\
25	0.00531965114720483\\
26	0.00424076765786398\\
27	0.00345377524329568\\
28	0.00365400488368882\\
29	0.00303410790079068\\
30	0.00254477845991252\\
};
\addlegendentry{$\mathbf{\hat{h}_{2}}$}

\end{axis}
\end{tikzpicture}%