% This file was created by matlab2tikz.
%
%The latest updates can be retrieved from
%  http://www.mathworks.com/matlabcentral/fileexchange/22022-matlab2tikz-matlab2tikz
%where you can also make suggestions and rate matlab2tikz.
%
\definecolor{mycolor1}{rgb}{0.00000,0.44700,0.74100}%
\definecolor{mycolor2}{rgb}{0.85000,0.32500,0.09800}%
%
\begin{tikzpicture}

\begin{axis}[%
width=1.935in,
height=3.2in,
at={(0.758in,0.512in)},
scale only axis,
xmin=0,
xmax=100,
xlabel style={font=\color{white!15!black}, align=center},
xlabel={Sample Index\\[1ex](a) Actual},
ymin=0,
ymax=0.8,
axis background/.style={fill=white},
legend style={legend cell align=left, align=left, draw=white!15!black}
]
\addplot [color=mycolor1]
  table[row sep=crcr]{%
1	0.0129538532238509\\
2	0.0157278361368032\\
3	0.0191571608138802\\
4	0.0255923724575832\\
5	0.13057228915146\\
6	0.790598288418654\\
7	0.353827376030412\\
8	0.122418300101408\\
9	0.229084031593214\\
10	0.118243319340586\\
11	0.168368944374742\\
12	0.0163735399430034\\
13	0.0206849651924714\\
14	0.0262956791329175\\
15	0.151852199158411\\
16	0.152742171024721\\
17	0.110720168991091\\
18	0.123153341936425\\
19	0.125894992669405\\
20	0.0746063601393855\\
21	0.0186653655418556\\
22	0.0250643995407145\\
23	0.00974111680189212\\
24	0.0779603151980655\\
25	0.0307172164925168\\
26	0.0208261989317089\\
27	0.0752294272267323\\
28	0.0144668561504321\\
29	0.0123363814366294\\
30	0.0122598477519198\\
31	0.0155350862563734\\
32	0.0418132873290243\\
33	0.0573531042253119\\
34	0.0129196281383963\\
35	0.00895205820328393\\
36	0.00773833898796016\\
37	0.00748874666873079\\
38	0.00800183229182001\\
39	0.00975691772335202\\
40	0.0159028691535576\\
41	0.0384196893347397\\
42	0.0314876195631017\\
43	0.010044387559483\\
44	0.00616684731235577\\
45	0.00479175222070565\\
46	0.00437058826387638\\
47	0.00459828758875363\\
48	0.005652668265702\\
49	0.0087419213913912\\
50	0.0260232215344717\\
51	0.0227474232041571\\
52	0.00780973732786325\\
53	0.00473741257906885\\
54	0.00342802499502385\\
55	0.0027071673231627\\
56	0.00225206144341568\\
57	0.001938695300116\\
58	0.0017095024412107\\
59	0.00153423834592061\\
60	0.00139554782547471\\
61	0.00128278764759102\\
62	0.00118908147787501\\
63	0.00110979542168412\\
64	0.0010416958422628\\
65	0.000982458809342531\\
66	0.000930371514391801\\
67	0.000884143640819322\\
68	0.000842784330423255\\
69	0.000805519676312384\\
70	0.000771736027647173\\
71	0.000740940180026644\\
72	0.000712730877370764\\
73	0.000686778053613698\\
74	0.000662807472321918\\
75	0.000640589196550035\\
76	0.000619928819626308\\
77	0.000600660714929267\\
78	0.000582642781753098\\
79	0.000565752313398667\\
80	0.000549882716621264\\
81	0.000534940883763175\\
82	0.000520845070183068\\
83	0.000507523166470246\\
84	0.00049491128175685\\
85	0.000482952574159901\\
86	0.000471596279030148\\
87	0.000460796896662062\\
88	0.000450513509420678\\
89	0.000440709204573525\\
90	0.000431350583981088\\
91	0.000422407345569488\\
92	0.000413851924447944\\
93	0.000405659183842499\\
94	0.000397806147840094\\
95	0.000390271769389961\\
96	0.000383036728166029\\
97	0.00037608325382988\\
98	0.000369394970986201\\
99	0\\
100	0\\
};
\addlegendentry{$\mathbf{h_1}$}

\addplot [color=mycolor2]
  table[row sep=crcr]{%
1	0.0089849246842337\\
2	0.00955586856755047\\
3	0.0102000386246561\\
4	0.0109303448856752\\
5	0.0117611964369887\\
6	0.0127063869488681\\
7	0.013771787577086\\
8	0.0149309370172528\\
9	0.0160361992437888\\
10	0.0164244433772478\\
11	0.0125495760932937\\
12	0.664036312008792\\
13	0.0850193487524877\\
14	0.131745330322907\\
15	0.128609472347745\\
16	0.0491456993245761\\
17	0.382620258465008\\
18	0.593903782219221\\
19	0.0828507132426594\\
20	0.0515719011856109\\
21	0.0378681896084267\\
22	0.030017391607479\\
23	0.0248946679351547\\
24	0.0212776230780299\\
25	0.0185834085331559\\
26	0.0164971010401923\\
27	0.0148330326444681\\
28	0.0134744221797144\\
29	0.0123440432735997\\
30	0.0113887411741417\\
31	0.0105707107326117\\
32	0.00986231811042315\\
33	0.00924289003134423\\
34	0.00869664894813821\\
35	0\\
36	0\\
37	0\\
38	0\\
39	0\\
40	0\\
41	0\\
42	0\\
43	0\\
44	0\\
45	0\\
46	0\\
47	0\\
48	0\\
49	0\\
50	0\\
51	0\\
52	0\\
53	0\\
54	0\\
55	0\\
56	0\\
57	0\\
58	0\\
59	0\\
60	0\\
61	0\\
62	0\\
63	0\\
64	0\\
65	0\\
66	0\\
67	0\\
68	0\\
69	0\\
70	0\\
71	0\\
72	0\\
73	0\\
74	0\\
75	0\\
76	0\\
77	0\\
78	0\\
79	0\\
80	0\\
81	0\\
82	0\\
83	0\\
84	0\\
85	0\\
86	0\\
87	0\\
88	0\\
89	0\\
90	0\\
91	0\\
92	0\\
93	0\\
94	0\\
95	0\\
96	0\\
97	0\\
98	0\\
99	0\\
100	0\\
};
\addlegendentry{$\mathbf{h_{2}}$}

\end{axis}

\begin{axis}[%
width=1.935in,
height=3.2in,
at={(3.327in,0.512in)},
scale only axis,
xmin=0,
xmax=100,
xlabel style={font=\color{white!15!black}, align=center},
xlabel={Sample Index\\[1ex](b) Estimated},
ymin=0,
ymax=1,
axis background/.style={fill=white},
legend style={legend cell align=left, align=left, draw=white!15!black}
]
\addplot [color=mycolor1]
  table[row sep=crcr]{%
0	5.81159737601587e-05\\
1	1.50356349805163e-05\\
2	0.00158976966657571\\
3	0.00255738736480569\\
4	4.63150324737387e-05\\
5	5.48656045691056e-06\\
6	0.00440538217145838\\
7	0.000118230438657449\\
8	0.000847407832243951\\
9	0.000200081194484831\\
10	0.000115699774528501\\
11	0.0100757932566227\\
12	0.00862680015179136\\
13	0.00016802540354178\\
14	0.000109595550059198\\
15	0.00072132229259478\\
16	0.000138633221318928\\
17	0.000156679584272303\\
18	0.000507072736038185\\
19	0.00609776790411478\\
20	0.00922028545971273\\
21	0.00672834302651611\\
22	0.00903343939582528\\
23	0.00712094853223351\\
24	0.0230162055043449\\
25	0.0131091307896693\\
26	0.0321866671074363\\
27	0.0180859387964632\\
28	0.0115763201445034\\
29	0.0137579033887361\\
30	0.0269142687894722\\
31	0.0605424107569997\\
32	0.112350108622152\\
33	0.0428055893382695\\
34	0.00920687711582791\\
35	0.0535017684360407\\
36	0.0894383555844896\\
37	0.36737388392744\\
38	0.58531728554044\\
39	0.0640360019383711\\
40	0.0585387105678657\\
41	0.0426623180624686\\
42	0.11285108589258\\
43	0.54497487141067\\
44	0.144961457230202\\
45	0.103991586461959\\
46	0.172999107929106\\
47	0.126251213785979\\
48	0.115235139385645\\
49	0.130703074686545\\
50	0.0701336548954072\\
51	0.0433433244395686\\
52	0.117188531053628\\
53	0.087190846294974\\
54	0.0378482712133958\\
55	0.098746797217709\\
56	0.0863229090109184\\
57	0.0493713293827696\\
58	0.06161263743896\\
59	0.0140160585724154\\
60	0.00507995579792815\\
61	0.0660599945980328\\
62	0.0262105389584529\\
63	0.013118995864658\\
64	0.0168250420626477\\
65	0.00837562240353673\\
66	0.017048606234625\\
67	0.00427734039421765\\
68	0.0254961831731075\\
69	0.0288828814994057\\
70	0.0231042552848181\\
71	0.00269867243757092\\
72	0.0109978093468894\\
73	0.0205808725759096\\
74	0.00326814014312787\\
75	0.00258328643063642\\
76	0.0023714170117892\\
77	0.00493226865884813\\
78	0.0151945739287162\\
79	0.0069731774421483\\
80	0.00259958007577179\\
81	0.000121803191668599\\
82	0.0203788885744173\\
83	0.00137600395758489\\
84	0.0023851038212396\\
85	0.000346818429310293\\
86	0.000879352378177048\\
87	0.0100555338100227\\
88	0.00845465385343098\\
89	0.000188601910308441\\
90	0.001651013816483\\
91	4.15271173373975e-05\\
92	8.18542775407734e-05\\
93	0.000532774336619313\\
94	0.00136199233799874\\
95	9.07765053276515e-05\\
96	2.81228015815568e-05\\
97	0.000124916266067584\\
98	6.939394456415e-05\\
99	0.00158397889280952\\
};
\addlegendentry{$\mathbf{\hat{h}_{1}}$}

\addplot [color=mycolor2]
  table[row sep=crcr]{%
0	0.00018099700083401\\
1	6.82016493331116e-05\\
2	0.000124241743653145\\
3	4.24410354864737e-05\\
4	0.000417280031862431\\
5	0.00879050366510683\\
6	8.00717768438563e-05\\
7	0.000213724420893505\\
8	0.00132914276860081\\
9	0.000470415960401468\\
10	0.000124821673686723\\
11	0.00340036680846572\\
12	0.00134034788181917\\
13	0.00203415554383693\\
14	0.00780093822928359\\
15	0.00686821497955519\\
16	0.00363944529671959\\
17	0.00854947830594321\\
18	0.00139424745078695\\
19	0.000185009306229981\\
20	0.00119365980881614\\
21	0.00176028895697938\\
22	0.0143332463338546\\
23	0.0282597487543997\\
24	0.00668493920251305\\
25	0.00629094875043337\\
26	0.00240728968105649\\
27	0.00605551348978646\\
28	0.017041754545974\\
29	0.0171281669519971\\
30	0.0148636305915325\\
31	0.0175851465882424\\
32	0.00610967796683025\\
33	0.00929228623148377\\
34	0.000895099437480322\\
35	0.00341164335815233\\
36	0.0632281922715531\\
37	0.0670415523238167\\
38	0.0567333224037448\\
39	0.0521439909578904\\
40	0.066340769975163\\
41	0.0294257863137459\\
42	0.0102976410955139\\
43	0.0892411726922376\\
44	0.10388206355621\\
45	0.022928359360239\\
46	0.116423871215305\\
47	0.0184546171805902\\
48	0.0164051734286671\\
49	0.941760664113069\\
50	0.0170773697333929\\
51	0.0191956111815779\\
52	0.116325998881296\\
53	0.0227220720042268\\
54	0.104352582085942\\
55	0.0888827018741948\\
56	0.0107994300190273\\
57	0.029262249543773\\
58	0.0670429031706592\\
59	0.0519987891841684\\
60	0.0579089213932461\\
61	0.0677630338279833\\
62	0.0658418254003884\\
63	0.00416032621229265\\
64	0.00105881855664549\\
65	0.00935339856683585\\
66	0.00634601960375674\\
67	0.0183415471381474\\
68	0.0140131102888455\\
69	0.0180220935977115\\
70	0.0184007745632397\\
71	0.00643670258671192\\
72	0.00181155093640946\\
73	0.00793776180023611\\
74	0.00678897039233355\\
75	0.0307896797966187\\
76	0.0164617142214675\\
77	0.00051346300280957\\
78	0.00308007307127375\\
79	0.000786892908382925\\
80	0.00178372872599608\\
81	0.00853648907959261\\
82	0.00417016524939599\\
83	0.0097224368170151\\
84	0.0107927786716479\\
85	0.00385633714218222\\
86	0.00191754059911953\\
87	0.00255934315762986\\
88	0.000188190881909419\\
89	0.00126434710790959\\
90	0.000400561327470442\\
91	5.15374695898901e-05\\
92	0.000110853218784775\\
93	0.0122655696929432\\
94	0.00155196055568471\\
95	0.000119359154367241\\
96	0.000120562283630744\\
97	0.00037379822156043\\
98	0.000140143334927095\\
99	5.18678739810695e-05\\
};
\addlegendentry{$\mathbf{\hat{h}_{2}}$}

\end{axis}
\end{tikzpicture}%