% This file was created by matlab2tikz.
%
%The latest updates can be retrieved from
%  http://www.mathworks.com/matlabcentral/fileexchange/22022-matlab2tikz-matlab2tikz
%where you can also make suggestions and rate matlab2tikz.
%
\definecolor{mycolor1}{rgb}{0.00000,0.44700,0.74100}%
\definecolor{mycolor2}{rgb}{0.85000,0.32500,0.09800}%
%
\begin{tikzpicture}

\begin{axis}[%
width=1.935in,
height=3.2in,
at={(0.758in,0.512in)},
scale only axis,
xmin=0,
xmax=200,
xlabel style={font=\color{white!15!black}, align=center},
xlabel={Sample Index\\[1ex](a) Actual},
ymin=0,
ymax=0.8,
axis background/.style={fill=white},
legend style={legend cell align=left, align=left, draw=white!15!black}
]
\addplot [color=mycolor1]
  table[row sep=crcr]{%
1	0.0182020814388773\\
2	0.02012510100002\\
3	0.022545111927633\\
4	0.0257092221775269\\
5	0.0300926257860288\\
6	0.0368070113207646\\
7	0.0496139700658591\\
8	0.100781801849891\\
9	0.104249814301154\\
10	0.21590224856942\\
11	0.240903318316862\\
12	0.758685269567618\\
13	0.209267020187496\\
14	0.0771785197863095\\
15	0.0494891771958471\\
16	0.0356405661348903\\
17	0.15523755961894\\
18	0.0271597451025023\\
19	0.145703442549891\\
20	0.0520738574541381\\
21	0.0740609080662357\\
22	0.104935155821669\\
23	0.0417678670288507\\
24	0.0299752622866834\\
25	0.0250001918328842\\
26	0.0229720939063182\\
27	0.0247245078055356\\
28	0.00362513039017358\\
29	0.14722576142865\\
30	0.0387273782761153\\
31	0.131677926596125\\
32	0.0785526041407005\\
33	0.0810464121808255\\
34	0.160588901862689\\
35	0.0744890994278548\\
36	0.134536712627009\\
37	0.0173820440229542\\
38	0.137082339999381\\
39	0.0170525437502556\\
40	0.00749074921495884\\
41	0.00341378303693337\\
42	0.00620877458876847\\
43	0.0141607494626642\\
44	0.0397125400502968\\
45	0.0472710882981607\\
46	0.117933825228246\\
47	0.104860760134015\\
48	0.0231680488862733\\
49	0.0173960896964215\\
50	0.01565840529932\\
51	0.0158238796681408\\
52	0.0214800847634647\\
53	0.069515335423337\\
54	0.00705654101536576\\
55	0.0048265337253162\\
56	0.00444892816390271\\
57	0.00420482397187746\\
58	0.00394665996283891\\
59	0.00367152522573874\\
60	0.00340609944322399\\
61	0.00324100673075721\\
62	0.00352226036423774\\
63	0.00577590294104206\\
64	0.0646039488883014\\
65	0.0152053951030713\\
66	0.025205330150814\\
67	0.0111279282265277\\
68	0.00808273026447386\\
69	0.00668378513225385\\
70	0.0058444881598292\\
71	0.00526118842255355\\
72	0.00481495459253537\\
73	0.00444984685034709\\
74	0.00413772241899909\\
75	0.00386847400652643\\
76	0.00365640479604675\\
77	0.00358022933512563\\
78	0.0039436041841542\\
79	0.00596743145716452\\
80	0.0193053572626292\\
81	0.0244955947722078\\
82	0.0480492514955312\\
83	0.00881743040387132\\
84	0.00673618414357698\\
85	0.00583169570033062\\
86	0.00529290215994122\\
87	0.0049263520005684\\
88	0.00465711125291308\\
89	0.0044495340289191\\
90	0.00428463427284004\\
91	0.00415172046176833\\
92	0.00404487765081529\\
93	0.00396151732265935\\
94	0.00390215289068892\\
95	0.00387150614980524\\
96	0.00388240228065188\\
97	0.00396861770551536\\
98	0.0042393791899913\\
99	0.00529535495453836\\
100	0.0384422656208756\\
101	0.00196598430595653\\
102	0.00227127045262919\\
103	0.0024323424968646\\
104	0.0025024611202\\
105	0.00253048915714305\\
106	0.00253672908189185\\
107	0.00253067827009284\\
108	0.00251728582017171\\
109	0.00249934971595597\\
110	0.00247855194358738\\
111	0.00245595212950105\\
112	0.00243224240902919\\
113	0.0024078877120558\\
114	0.00238320712614353\\
115	0.00235842317784567\\
116	0.00233369278997705\\
117	0.00230912733940947\\
118	0.00228480600224308\\
119	0.00226078483862737\\
120	0.00223710310173484\\
121	0.00221378769593874\\
122	0.00219085637556591\\
123	0.00216832007097849\\
124	0.00214618460011501\\
125	0.00212445194095342\\
126	0.00210312118614787\\
127	0.002082189264892\\
128	0.00206165149248505\\
129	0.00204150199113677\\
130	0.00202173401371152\\
131	0.00200234019373144\\
132	0.00198331273896169\\
133	0.0019646435815544\\
134	0.00194632449455517\\
135	0.00192834718223092\\
136	0.00191070334993457\\
137	0.00189338475791222\\
138	0.00187638326246988\\
139	0.00185969084716353\\
140	0.00184329964609891\\
141	0.00182720196098313\\
142	0.00181139027322501\\
143	0.00179585725211227\\
144	0.00178059575988462\\
145	0.00176559885435432\\
146	0.00175085978959665\\
147	0.00173637201512792\\
148	0.00172212917390737\\
149	0.00170812509943172\\
150	0.00169435381214015\\
151	0.00168080951530347\\
152	0.00166748659053823\\
153	0.00165437959305814\\
154	0.00164148324675288\\
155	0.00162879243916746\\
156	0.00161630221643902\\
157	0.0016040077782369\\
158	0.00159190447274199\\
159	0.00157998779169339\\
160	0.00156825336552436\\
161	0.00155669695860377\\
162	0.00154531446459552\\
163	0.00153410190194422\\
164	0.00152305540949421\\
165	0.00151217124224425\\
166	0.00150144576724133\\
167	0.00149087545961318\\
168	0.00148045689873912\\
169	0.00147018676455811\\
170	0.00146006183401068\\
171	0.00145007897761323\\
172	0.00144023515616105\\
173	0.00143052741755604\\
174	0.0014209528937561\\
175	0.00141150879784194\\
176	0.00140219242119743\\
177	0.0013930011307999\\
178	0.00138393236661579\\
179	0.00137498363909773\\
180	0.0013661525267803\\
181	0.00135743667396858\\
182	0.00134883378851806\\
183	0.00134034163970044\\
184	0.00133195805615281\\
185	0.00132368092390639\\
186	0.00131550818449211\\
187	0.00130743783311859\\
188	0.00129946791692105\\
189	0.00129159653327689\\
190	0.00128382182818601\\
191	0.00127614199471266\\
192	0.00126855527148628\\
193	0.00126105994125928\\
194	0.00125365432951856\\
195	0.00124633680314903\\
196	0.00123910576914731\\
197	0.00123195967338265\\
198	0.00122489699940362\\
199	0\\
200	0\\
};
\addlegendentry{$\mathbf{h_1}$}

\addplot [color=mycolor2]
  table[row sep=crcr]{%
1	0.00774703480118937\\
2	0.00804603929146471\\
3	0.00836973275649019\\
4	0.00872140343539048\\
5	0.00910497030680877\\
6	0.00952514700926037\\
7	0.00998766130776543\\
8	0.0104995540104486\\
9	0.0110695940567668\\
10	0.0117088677650987\\
11	0.0124316367204608\\
12	0.013256623866012\\
13	0.0142090087041013\\
14	0.0153236507623596\\
15	0.0166505577523129\\
16	0.0182647317357061\\
17	0.0202852710510938\\
18	0.0229161572207696\\
19	0.0265452456738114\\
20	0.0320322468033177\\
21	0.0418192089559173\\
22	0.0672236903861102\\
23	0.764800043449489\\
24	0.0299885302146741\\
25	0.0061115763360554\\
26	0.0242678676400095\\
27	0.0514933555988865\\
28	0.195228919998726\\
29	0.085859180908406\\
30	0.0163105896710166\\
31	0.0145786853171939\\
32	0.0559865681218998\\
33	0.251050340252552\\
34	0.336624236311341\\
35	0.408546548232539\\
36	0.036057069833403\\
37	0.032029118563816\\
38	0.0279234399827533\\
39	0.024556464147634\\
40	0.0218789138558169\\
41	0.0197265840855051\\
42	0.0179656432193082\\
43	0.016499807231079\\
44	0.0152607166923053\\
45	0.0141992302040502\\
46	0.0132793478490471\\
47	0.0124741733162898\\
48	0.011763234520885\\
49	0.0111306817804915\\
50	0.0105640541254365\\
51	0.0100534184529814\\
52	0.00959075767384862\\
53	0.00916952821967447\\
54	0.00878433483782754\\
55	0.00843068801165144\\
56	0.00810482052737742\\
57	0.00780354701585278\\
58	0.00752415515294532\\
59	0.00726432048229959\\
60	0.00702203907403127\\
61	0.00679557379902244\\
62	0.00658341110359303\\
63	0.00638422595921995\\
64	0.00619685323339502\\
65	0.00602026414575953\\
66	0.00585354678274153\\
67	0.00569588987471922\\
68	0.00554656921368661\\
69	0\\
70	0\\
71	0\\
72	0\\
73	0\\
74	0\\
75	0\\
76	0\\
77	0\\
78	0\\
79	0\\
80	0\\
81	0\\
82	0\\
83	0\\
84	0\\
85	0\\
86	0\\
87	0\\
88	0\\
89	0\\
90	0\\
91	0\\
92	0\\
93	0\\
94	0\\
95	0\\
96	0\\
97	0\\
98	0\\
99	0\\
100	0\\
101	0\\
102	0\\
103	0\\
104	0\\
105	0\\
106	0\\
107	0\\
108	0\\
109	0\\
110	0\\
111	0\\
112	0\\
113	0\\
114	0\\
115	0\\
116	0\\
117	0\\
118	0\\
119	0\\
120	0\\
121	0\\
122	0\\
123	0\\
124	0\\
125	0\\
126	0\\
127	0\\
128	0\\
129	0\\
130	0\\
131	0\\
132	0\\
133	0\\
134	0\\
135	0\\
136	0\\
137	0\\
138	0\\
139	0\\
140	0\\
141	0\\
142	0\\
143	0\\
144	0\\
145	0\\
146	0\\
147	0\\
148	0\\
149	0\\
150	0\\
151	0\\
152	0\\
153	0\\
154	0\\
155	0\\
156	0\\
157	0\\
158	0\\
159	0\\
160	0\\
161	0\\
162	0\\
163	0\\
164	0\\
165	0\\
166	0\\
167	0\\
168	0\\
169	0\\
170	0\\
171	0\\
172	0\\
173	0\\
174	0\\
175	0\\
176	0\\
177	0\\
178	0\\
179	0\\
180	0\\
181	0\\
182	0\\
183	0\\
184	0\\
185	0\\
186	0\\
187	0\\
188	0\\
189	0\\
190	0\\
191	0\\
192	0\\
193	0\\
194	0\\
195	0\\
196	0\\
197	0\\
198	0\\
199	0\\
200	0\\
};
\addlegendentry{$\mathbf{h_{2}}$}

\end{axis}

\begin{axis}[%
width=1.935in,
height=3.2in,
at={(3.327in,0.512in)},
scale only axis,
xmin=0,
xmax=200,
xlabel style={font=\color{white!15!black}, align=center},
xlabel={Sample Index\\[1ex](b) Estimated},
ymin=0,
ymax=1,
axis background/.style={fill=white},
legend style={legend cell align=left, align=left, draw=white!15!black}
]
\addplot [color=mycolor1]
  table[row sep=crcr]{%
0	8.78239185399042e-05\\
1	0.000157501503332703\\
2	8.16112639363915e-05\\
3	0.000226771822882761\\
4	0.000124252981804638\\
5	6.22826346819682e-05\\
6	4.88531124123946e-05\\
7	6.3308593920678e-05\\
8	9.61295217448418e-05\\
9	0.000147735563274738\\
10	3.69090423543708e-05\\
11	0.00012614682423317\\
12	0.000229422946476339\\
13	2.9066017642126e-05\\
14	2.512465584724e-05\\
15	3.97346011944926e-05\\
16	5.59826495592618e-05\\
17	0.000271191571000327\\
18	3.6360435655971e-05\\
19	0.000534383222571252\\
20	0.000283584641190143\\
21	0.000274823575004303\\
22	6.64151596677634e-06\\
23	0.00260359394811675\\
24	0.00247886457973316\\
25	0.000694535169582741\\
26	0.000225669275031916\\
27	0.000167357135940794\\
28	7.44301297978855e-05\\
29	9.7917018685847e-05\\
30	4.84541341195457e-05\\
31	8.79897913644362e-05\\
32	7.21227089615158e-05\\
33	7.51900851706731e-05\\
34	0.000109143746704711\\
35	6.81181398191887e-05\\
36	0.000159566820574949\\
37	0.000203777420259768\\
38	4.28047841106455e-05\\
39	0.000505373136265622\\
40	0.000916090217486433\\
41	0.00115380138726066\\
42	0.000139250129710934\\
43	4.89166989863492e-05\\
44	2.80253190872008e-05\\
45	0.00324640816770299\\
46	0.000206606515613196\\
47	0.00795804663234143\\
48	0.00341310261917558\\
49	0.00759573774048967\\
50	0.0082580891052509\\
51	0.000349865731512138\\
52	0.00189220513728428\\
53	0.00619281821055616\\
54	0.00769550957134904\\
55	0.0153540811619407\\
56	0.000622566027096725\\
57	0.00899280123856487\\
58	0.00656715718166515\\
59	9.43175982418869e-06\\
60	0.00285889869899753\\
61	0.0143052986852314\\
62	0.0136297517913418\\
63	0.00300297177395222\\
64	0.0475234181227545\\
65	0.0412060878739088\\
66	0.06292804585439\\
67	0.00436542627662483\\
68	0.0265811832133963\\
69	0.0386882014179042\\
70	0.0195702253268913\\
71	0.0593982037559549\\
72	0.0431108627899744\\
73	0.0322374725769836\\
74	0.000431000190277006\\
75	0.169038401880155\\
76	0.380601965062483\\
77	0.337309614554141\\
78	0.111303611045927\\
79	0.0288040246058132\\
80	0.000815623101947004\\
81	0.0761541071075378\\
82	0.0586092935455672\\
83	0.0397513292675635\\
84	0.036101018649431\\
85	0.0815243873334686\\
86	0.105060908027893\\
87	0.177028867442992\\
88	0.591680192760153\\
89	0.259722872536961\\
90	0.094894953458301\\
91	0.0165506119217846\\
92	0.0412317096029543\\
93	0.0767389989522837\\
94	0.0469233845968484\\
95	0.139736904917507\\
96	0.0772596806858135\\
97	0.0181306936740128\\
98	0.136094556483095\\
99	0.0770107338754716\\
100	0.011438953495348\\
101	0.0793888980884901\\
102	0.0727257596395277\\
103	0.0646211932035473\\
104	0.038910964589426\\
105	0.104883032238282\\
106	0.0225531224728848\\
107	0.0342185588651105\\
108	0.031837073676209\\
109	0.113993112827055\\
110	0.175307050036368\\
111	0.0757859954234831\\
112	0.0951877071314874\\
113	0.0218770734701905\\
114	0.110121895551595\\
115	0.00492229337541393\\
116	6.57754238560922e-05\\
117	0.0208949097190293\\
118	0.0429259457576776\\
119	0.0248525723913003\\
120	0.0305449762842493\\
121	0.0333594206198458\\
122	0.0984419080218409\\
123	0.0957079413159598\\
124	0.00176389424549318\\
125	0.00136556803022163\\
126	0.00166238752181933\\
127	0.0137499554370581\\
128	0.00288979563078003\\
129	0.0018876112681076\\
130	0.0288527475065226\\
131	0.00328452614784036\\
132	0.00536418936390343\\
133	0.00751030884946284\\
134	0.0096135069094818\\
135	0.021373196202196\\
136	0.00187591060219086\\
137	0.00820577521428354\\
138	0.0131245887483612\\
139	0.00715741279861716\\
140	0.0488818156381595\\
141	0.00435085944635367\\
142	0.0153772029317205\\
143	0.00671034739008077\\
144	0.00122044882395019\\
145	0.00569666337046978\\
146	0.010581045599235\\
147	0.0165992370207751\\
148	0.00594493014923782\\
149	0.00458125969105238\\
150	0.00535770347567754\\
151	0.00481306240994026\\
152	6.92521715436476e-05\\
153	0.000426581837715745\\
154	4.93719918013261e-05\\
155	0.00106256931001121\\
156	0.00259417892689829\\
157	0.0127663252345927\\
158	0.0327076888509146\\
159	0.00775584755220571\\
160	0.00372035869175493\\
161	0.00410317040897018\\
162	0.000642754019051631\\
163	0.00012169746020228\\
164	8.14130401670779e-05\\
165	0.0115184043932334\\
166	0.0019555672439007\\
167	0.000274493152628229\\
168	4.86045167077643e-05\\
169	5.16431485436607e-05\\
170	0.0013637811487161\\
171	0.000188191928627754\\
172	2.03241287002339e-05\\
173	6.36992867684451e-05\\
174	0.000130223784487222\\
175	2.94411720510134e-05\\
176	0.027608243188805\\
177	0.00141511103938809\\
178	0.000105313276895299\\
179	0.00091672484526553\\
180	6.19866044802434e-05\\
181	6.27064120264425e-05\\
182	4.63600973943544e-05\\
183	0.000130607121044122\\
184	1.4617650565571e-05\\
185	8.40178951999182e-05\\
186	0.00020126559394662\\
187	0.000142402026514014\\
188	0.000176150848765012\\
189	0.000976823836054191\\
190	4.68497232470469e-05\\
191	2.68926615173688e-05\\
192	8.36479327468917e-05\\
193	5.72442164487476e-05\\
194	2.51228760767875e-05\\
195	5.71121098058296e-05\\
196	0.000151541115889774\\
197	0.000171880955030564\\
198	0.000208912067026012\\
199	3.34106801176883e-05\\
};
\addlegendentry{$\mathbf{\hat{h}_{1}}$}

\addplot [color=mycolor2]
  table[row sep=crcr]{%
0	6.98426101277517e-05\\
1	0.000160194536189031\\
2	3.99161995757443e-05\\
3	3.24640925593538e-05\\
4	6.18687873133419e-06\\
5	2.4930510746875e-05\\
6	1.18644753418611e-05\\
7	9.38707733228759e-05\\
8	4.46598386841659e-05\\
9	0.000125880092759168\\
10	0.00100619241846614\\
11	0.0065802176064793\\
12	0.00119215378416374\\
13	8.43195990575747e-05\\
14	7.10347143421077e-05\\
15	5.51763114279288e-05\\
16	0.000100218796725381\\
17	0.000170163318581218\\
18	9.10880458070601e-05\\
19	0.000238646896740407\\
20	0.000733238916271696\\
21	0.000153087753666099\\
22	5.30657563270572e-05\\
23	0.0021780903957996\\
24	0.000348229778713404\\
25	0.000863639823230161\\
26	0.000123368576764979\\
27	0.000124606476109059\\
28	0.00103632675451306\\
29	0.00671028807417675\\
30	0.00928255525083672\\
31	0.00010104667625585\\
32	0.00196629134574053\\
33	0.00107353764551765\\
34	0.00084113348369231\\
35	0.00198367269221225\\
36	0.00134157452964118\\
37	0.00210223196067444\\
38	0.00143526020337464\\
39	0.000124569185169163\\
40	0.000268675349040456\\
41	0.000615504824485987\\
42	0.0025899211474785\\
43	0.000758992705360044\\
44	0.00144874705851856\\
45	0.0059075752421047\\
46	0.00850745915782851\\
47	0.0174360717268831\\
48	0.00424482187650376\\
49	0.00613158718840275\\
50	0.000972402808690361\\
51	0.00197075289940689\\
52	0.000621297713806678\\
53	0.00469712861685141\\
54	0.00520089376524595\\
55	0.000370073156025781\\
56	0.00488554421628029\\
57	0.00225574608706877\\
58	0.0125276032580002\\
59	0.00736849180068984\\
60	0.00261007818399792\\
61	0.00215245485843596\\
62	0.00638042375327158\\
63	0.00846945725285501\\
64	0.0156164445001692\\
65	0.025731527062023\\
66	0.0269921884153685\\
67	0.00552405812189017\\
68	0.0132470662614533\\
69	0.0121120689613882\\
70	0.00329801144527702\\
71	0.000455168346185379\\
72	0.0186858154535763\\
73	0.0479661899323056\\
74	0.00474971900938848\\
75	0.0467031721469153\\
76	0.0131454296829832\\
77	0.0385972905483833\\
78	0.025113778507032\\
79	0.0194999430558007\\
80	0.0449748850904054\\
81	0.0227580383371627\\
82	0.0398353281834005\\
83	0.0247855750352236\\
84	0.0153153963894868\\
85	0.00421262834626658\\
86	0.00256194471723358\\
87	0.0374057235018105\\
88	0.0456412586843454\\
89	4.80733303485971e-06\\
90	0.0132064051495063\\
91	0.00437903499470636\\
92	0.0506567710080703\\
93	0.0220258214703549\\
94	0.0770363372972216\\
95	0.0311552854234811\\
96	0.0666419989174872\\
97	0.0656641703120785\\
98	0.0337868818274169\\
99	0.957860122343566\\
100	0.032680488714026\\
101	0.0673729380800299\\
102	0.0650482766217043\\
103	0.0297756458885251\\
104	0.080607273703496\\
105	0.0206205362111691\\
106	0.0517140241044647\\
107	0.00444960395926651\\
108	0.0149893232335811\\
109	0.0531373080163271\\
110	0.0463579680688264\\
111	0.0328653653977867\\
112	0.00499526280662184\\
113	0.00177313838087472\\
114	0.0113846549554382\\
115	0.0270024405242136\\
116	0.0382374393365068\\
117	0.0238384940866896\\
118	0.0462367847192078\\
119	0.0214053590826605\\
120	0.0252320247035175\\
121	0.0410369363990343\\
122	0.0149331857026513\\
123	0.0491231897065795\\
124	0.00367200742167561\\
125	0.0486621673552059\\
126	0.0207217418481169\\
127	4.64017763890761e-05\\
128	0.00108489753083018\\
129	0.0115014339698271\\
130	0.0118751030070978\\
131	0.00441997789751604\\
132	0.0293402782945584\\
133	0.0249324335444623\\
134	0.0173440381417718\\
135	0.00662093345999896\\
136	0.00646769864285676\\
137	0.000737064794169105\\
138	0.00277753716951281\\
139	0.0083339341398239\\
140	0.0147688077481993\\
141	0.00482187254389601\\
142	0.00525082308587793\\
143	0.000830574380830937\\
144	0.00545596029836197\\
145	0.00559176353536704\\
146	0.00081611981274368\\
147	0.00250891163837961\\
148	0.000794908481135485\\
149	0.00658486223296578\\
150	0.00616648751225903\\
151	0.0186180370533635\\
152	0.00859403035925199\\
153	0.00659939773934739\\
154	0.00147035186736052\\
155	0.000468577816869878\\
156	0.00296932980944309\\
157	0.000739543637962609\\
158	0.00136694555067475\\
159	9.79385231695149e-05\\
160	0.0022771776412551\\
161	0.002638634174042\\
162	0.00121890237595273\\
163	0.0022516181516258\\
164	0.000709892536806685\\
165	0.000686311659369272\\
166	0.00232757767838005\\
167	7.17306280428409e-05\\
168	0.0115719749682761\\
169	0.0074873981711484\\
170	0.00336106069181631\\
171	0.000118300638102889\\
172	4.18271508556317e-05\\
173	0.0015818041335864\\
174	0.000623826343157515\\
175	0.00226748360850525\\
176	2.48058973005904e-05\\
177	0.000195814423873037\\
178	0.00214944988547824\\
179	0.000371591933216507\\
180	0.000304520915434258\\
181	0.000119539237766035\\
182	0.000148200833905627\\
183	3.07051077162461e-05\\
184	3.9571980262749e-05\\
185	5.87812249767332e-05\\
186	0.00185629894062594\\
187	0.0080597751775073\\
188	0.00248141945599042\\
189	0.000109390097134547\\
190	7.97307647785749e-05\\
191	0.000485357461998209\\
192	2.08137709078723e-05\\
193	2.5327667288818e-05\\
194	6.3481262989575e-06\\
195	1.6976461181611e-05\\
196	3.48872323856878e-05\\
197	0.000905994725091095\\
198	5.12960909915301e-05\\
199	0.000151396704981534\\
};
\addlegendentry{$\mathbf{\hat{h}_{2}}$}

\end{axis}
\end{tikzpicture}%