\relax 
\providecommand\hyper@newdestlabel[2]{}
\@writefile{toc}{\contentsline {chapter}{\numberline {6}THE SINGLE CONSTRAINT METHOD}{53}{chapter.6}}
\newlabel{ch:7}{{6}{53}{THE SINGLE CONSTRAINT METHOD}{chapter.6}{}}
\newlabel{eq:SC_objective}{{6.1}{53}{THE SINGLE CONSTRAINT METHOD}{equation.6.0.1}{}}
\@writefile{toc}{\contentsline {section}{\numberline {6.1}Single Constraint Derivation}{53}{section.6.1}}
\newlabel{eq:SC-lagrangian}{{6.2}{53}{Single Constraint Derivation}{equation.6.1.2}{}}
\newlabel{eq:SC-update-lambda}{{6.4}{53}{Single Constraint Derivation}{equation.6.1.4}{}}
\@writefile{toc}{\contentsline {subsection}{\numberline {6.1.1}Algorithm Advantages, Implementations, and Modifications}{54}{subsection.6.1.1}}
\@writefile{toc}{\contentsline {section}{\numberline {6.2}Variations}{54}{section.6.2}}
\@writefile{toc}{\contentsline {subsection}{\numberline {6.2.1}Varied Single Constraint}{54}{subsection.6.2.1}}
\newlabel{eq:SC-varied-objective}{{6.7}{54}{Varied Single Constraint}{equation.6.2.7}{}}
\newlabel{eq:SC-varied-update-lambda}{{6.8}{54}{Varied Single Constraint}{equation.6.2.8}{}}
\@writefile{lof}{\contentsline {figure}{\numberline {6.1}{\ignorespaces Results of the SC algorithm with 250,000 data samples, with SNR = 60 dB, at various sampling rates for wideband simulation, (a) 20 MHz, (b) 100 MHz, (c) 150 MHz, and (d) 200 MHz, for transfer function set TF-1\relax }}{55}{figure.caption.40}}
\newlabel{fig:SC_ideal_30v3000}{{6.1}{55}{Results of the SC algorithm with 250,000 data samples, with SNR = 60 dB, at various sampling rates for wideband simulation, (a) 20 MHz, (b) 100 MHz, (c) 150 MHz, and (d) 200 MHz, for transfer function set TF-1\relax }{figure.caption.40}{}}
\@writefile{lof}{\contentsline {figure}{\numberline {6.2}{\ignorespaces Results of the SC algorithm with 250,000 data samples, with SNR = 60 dB, at various sampling rates for wideband simulation, (a) 20 MHz, (b) 100 MHz, (c) 150 MHz, and (d) 200 MHz, for transfer function set TF-2\relax }}{56}{figure.caption.41}}
\newlabel{fig:SC_NITF_30v3000}{{6.2}{56}{Results of the SC algorithm with 250,000 data samples, with SNR = 60 dB, at various sampling rates for wideband simulation, (a) 20 MHz, (b) 100 MHz, (c) 150 MHz, and (d) 200 MHz, for transfer function set TF-2\relax }{figure.caption.41}{}}
\@writefile{toc}{\contentsline {subsection}{\numberline {6.2.2}Dual-Fixed Peak Single Constraint}{56}{subsection.6.2.2}}
\@writefile{lof}{\contentsline {figure}{\numberline {6.3}{\ignorespaces Results of the SC algorithm with 250,000 data samples, with SNR = 60 dB, at various sampling rates for narrowband simulation, (a) 20 MHz, (b) 100 MHz, (c) 150 MHz, and (d) 200 MHz, for transfer function set TF-1\relax }}{57}{figure.caption.42}}
\newlabel{fig:SC_narrow_30v3000}{{6.3}{57}{Results of the SC algorithm with 250,000 data samples, with SNR = 60 dB, at various sampling rates for narrowband simulation, (a) 20 MHz, (b) 100 MHz, (c) 150 MHz, and (d) 200 MHz, for transfer function set TF-1\relax }{figure.caption.42}{}}
\newlabel{eq:SC-dfp-objective}{{6.11}{57}{Dual-Fixed Peak Single Constraint}{equation.6.2.11}{}}
\@writefile{lof}{\contentsline {figure}{\numberline {6.4}{\ignorespaces Results of the SC algorithm with 2,500 data samples, with SNR = 60 dB, at various sampling rates for wideband simulation, (a) 20 MHz, (b) 100 MHz, (c) 150 MHz, and (d) 200 MHz, for transfer function set TF-1\relax }}{58}{figure.caption.43}}
\newlabel{fig:SC_Nless_30v3000}{{6.4}{58}{Results of the SC algorithm with 2,500 data samples, with SNR = 60 dB, at various sampling rates for wideband simulation, (a) 20 MHz, (b) 100 MHz, (c) 150 MHz, and (d) 200 MHz, for transfer function set TF-1\relax }{figure.caption.43}{}}
\newlabel{eq:SC-dfp-lagrangian}{{6.12}{58}{Dual-Fixed Peak Single Constraint}{equation.6.2.12}{}}
\@writefile{lof}{\contentsline {figure}{\numberline {6.5}{\ignorespaces Results of the SC algorithm with 250,000 data samples, with SNR = 20 dB, at various sampling rates for wideband simulation, (a) 20 MHz, (b) 100 MHz, (c) 150 MHz, and (d) 200 MHz, for transfer function set TF-1\relax }}{59}{figure.caption.44}}
\newlabel{fig:SC_noisy_30v3000}{{6.5}{59}{Results of the SC algorithm with 250,000 data samples, with SNR = 20 dB, at various sampling rates for wideband simulation, (a) 20 MHz, (b) 100 MHz, (c) 150 MHz, and (d) 200 MHz, for transfer function set TF-1\relax }{figure.caption.44}{}}
\newlabel{eq:SC-dfp-update-lambda}{{6.14}{59}{Dual-Fixed Peak Single Constraint}{equation.6.2.14}{}}
\@writefile{lof}{\contentsline {figure}{\numberline {6.6}{\ignorespaces Results of the SC algorithm with 250,000 data samples, with SNR = 60 dB for wideband simulation at 200 MHz sampling rate for incorrect model order estimates (a) $L/2$, (b) $L-10$, (c) $2L$, and (d) $L + 10$, for transfer function set TF-1\relax }}{60}{figure.caption.45}}
\newlabel{fig:SC_wrongModel_30v3000}{{6.6}{60}{Results of the SC algorithm with 250,000 data samples, with SNR = 60 dB for wideband simulation at 200 MHz sampling rate for incorrect model order estimates (a) $L/2$, (b) $L-10$, (c) $2L$, and (d) $L + 10$, for transfer function set TF-1\relax }{figure.caption.45}{}}
\newlabel{eq:SC-dfp-tilde-lambda}{{6.15}{60}{Dual-Fixed Peak Single Constraint}{equation.6.2.15}{}}
\newlabel{eq:SC-dfp-update-complete}{{6.16}{60}{Dual-Fixed Peak Single Constraint}{equation.6.2.16}{}}
\@writefile{lof}{\contentsline {figure}{\numberline {6.7}{\ignorespaces Results of the VSC algorithm with 250,000 data samples, with SNR = 60 dB, at various sampling rates for wideband simulation, (a) 20 MHz, (b) 100 MHz, (c) 150 MHz, and (d) 200 MHz, for transfer function set TF-1\relax }}{61}{figure.caption.46}}
\newlabel{fig:VSC_ideal_30v3000}{{6.7}{61}{Results of the VSC algorithm with 250,000 data samples, with SNR = 60 dB, at various sampling rates for wideband simulation, (a) 20 MHz, (b) 100 MHz, (c) 150 MHz, and (d) 200 MHz, for transfer function set TF-1\relax }{figure.caption.46}{}}
\@writefile{toc}{\contentsline {section}{\numberline {6.3}Data Verification}{61}{section.6.3}}
\@writefile{toc}{\contentsline {subsection}{\numberline {6.3.1}Simulation}{61}{subsection.6.3.1}}
\@writefile{toc}{\contentsline {subsubsection}{Wideband vs Narrowband}{61}{section*.56}}
\@writefile{lof}{\contentsline {figure}{\numberline {6.8}{\ignorespaces Results of the VSC algorithm with 250,000 data samples, with SNR = 60 dB, at various sampling rates for wideband simulation, (a) 20 MHz, (b) 100 MHz, (c) 150 MHz, and (d) 200 MHz, for transfer function set TF-2\relax }}{62}{figure.caption.47}}
\newlabel{fig:VSC_NITF_30v3000}{{6.8}{62}{Results of the VSC algorithm with 250,000 data samples, with SNR = 60 dB, at various sampling rates for wideband simulation, (a) 20 MHz, (b) 100 MHz, (c) 150 MHz, and (d) 200 MHz, for transfer function set TF-2\relax }{figure.caption.47}{}}
\@writefile{toc}{\contentsline {subsection}{\numberline {6.3.2}Observed Data}{62}{subsection.6.3.2}}
\@writefile{toc}{\contentsline {subsubsection}{Wideband vs Narrowband}{62}{section*.57}}
\@writefile{toc}{\contentsline {section}{\numberline {6.4}Issues with the Algorithms}{62}{section.6.4}}
\@writefile{toc}{\contentsline {section}{\numberline {6.5}Possible Improvements}{62}{section.6.5}}
\@writefile{lof}{\contentsline {figure}{\numberline {6.9}{\ignorespaces Results of the VSC algorithm with 2,500 data samples, with SNR = 60 dB, at various sampling rates for wideband simulation, (a) 20 MHz, (b) 100 MHz, (c) 150 MHz, and (d) 200 MHz, for transfer function set TF-1\relax }}{63}{figure.caption.48}}
\newlabel{fig:VSC_Nless_30v3000}{{6.9}{63}{Results of the VSC algorithm with 2,500 data samples, with SNR = 60 dB, at various sampling rates for wideband simulation, (a) 20 MHz, (b) 100 MHz, (c) 150 MHz, and (d) 200 MHz, for transfer function set TF-1\relax }{figure.caption.48}{}}
\@writefile{lof}{\contentsline {figure}{\numberline {6.10}{\ignorespaces Results of the VSC algorithm with 250,000 data samples, with SNR = 20 dB, at various sampling rates for wideband simulation, (a) 20 MHz, (b) 100 MHz, (c) 150 MHz, and (d) 200 MHz, for transfer function set TF-1\relax }}{64}{figure.caption.49}}
\newlabel{fig:VSC_noisy_30v3000}{{6.10}{64}{Results of the VSC algorithm with 250,000 data samples, with SNR = 20 dB, at various sampling rates for wideband simulation, (a) 20 MHz, (b) 100 MHz, (c) 150 MHz, and (d) 200 MHz, for transfer function set TF-1\relax }{figure.caption.49}{}}
\@writefile{lof}{\contentsline {figure}{\numberline {6.11}{\ignorespaces Results of the VSC algorithm with 250,000 data samples, with SNR = 60 dB for wideband simulation at 200 MHz sampling rate for incorrect model order estimates (a) $L/2$, (b) $L-10$, (c) $2L$, and (d) $L + 10$, for transfer function set TF-1\relax }}{65}{figure.caption.50}}
\newlabel{fig:VSC_wrongModel_30v3000}{{6.11}{65}{Results of the VSC algorithm with 250,000 data samples, with SNR = 60 dB for wideband simulation at 200 MHz sampling rate for incorrect model order estimates (a) $L/2$, (b) $L-10$, (c) $2L$, and (d) $L + 10$, for transfer function set TF-1\relax }{figure.caption.50}{}}
\@writefile{lof}{\contentsline {figure}{\numberline {6.12}{\ignorespaces Results of the DFPSC algorithm with 250,000 data samples, with SNR = 60 dB, at various sampling rates for wideband simulation, (a) 20 MHz, (b) 100 MHz, (c) 150 MHz, and (d) 200 MHz, for transfer function set TF-1\relax }}{66}{figure.caption.51}}
\newlabel{fig:DFPSC_ideal_30v3000}{{6.12}{66}{Results of the DFPSC algorithm with 250,000 data samples, with SNR = 60 dB, at various sampling rates for wideband simulation, (a) 20 MHz, (b) 100 MHz, (c) 150 MHz, and (d) 200 MHz, for transfer function set TF-1\relax }{figure.caption.51}{}}
\@writefile{lof}{\contentsline {figure}{\numberline {6.13}{\ignorespaces Results of the DFPSC algorithm with 250,000 data samples, with SNR = 60 dB, at various sampling rates for wideband simulation, (a) 20 MHz, (b) 100 MHz, (c) 150 MHz, and (d) 200 MHz, for transfer function set TF-2\relax }}{67}{figure.caption.52}}
\newlabel{fig:DFPSC_NITF_30v3000}{{6.13}{67}{Results of the DFPSC algorithm with 250,000 data samples, with SNR = 60 dB, at various sampling rates for wideband simulation, (a) 20 MHz, (b) 100 MHz, (c) 150 MHz, and (d) 200 MHz, for transfer function set TF-2\relax }{figure.caption.52}{}}
\@writefile{lof}{\contentsline {figure}{\numberline {6.14}{\ignorespaces Results of the DFPSC algorithm with 2,500 data samples, with SNR = 60 dB, at various sampling rates for wideband simulation, (a) 20 MHz, (b) 100 MHz, (c) 150 MHz, and (d) 200 MHz, for transfer function set TF-1\relax }}{68}{figure.caption.53}}
\newlabel{fig:DFPSC_Nless_30v3000}{{6.14}{68}{Results of the DFPSC algorithm with 2,500 data samples, with SNR = 60 dB, at various sampling rates for wideband simulation, (a) 20 MHz, (b) 100 MHz, (c) 150 MHz, and (d) 200 MHz, for transfer function set TF-1\relax }{figure.caption.53}{}}
\@writefile{lof}{\contentsline {figure}{\numberline {6.15}{\ignorespaces Results of the DFPSC algorithm with 250,000 data samples, with SNR = 20 dB, at various sampling rates for wideband simulation, (a) 20 MHz, (b) 100 MHz, (c) 150 MHz, and (d) 200 MHz, for transfer function set TF-1\relax }}{69}{figure.caption.54}}
\newlabel{fig:DFPSC_noisy_30v3000}{{6.15}{69}{Results of the DFPSC algorithm with 250,000 data samples, with SNR = 20 dB, at various sampling rates for wideband simulation, (a) 20 MHz, (b) 100 MHz, (c) 150 MHz, and (d) 200 MHz, for transfer function set TF-1\relax }{figure.caption.54}{}}
\@writefile{lof}{\contentsline {figure}{\numberline {6.16}{\ignorespaces Results of the DFPSC algorithm with 250,000 data samples, with SNR = 60 dB for wideband simulation at 200 MHz sampling rate for incorrect model order estimates (a) $L/2$, (b) $L-10$, (c) $2L$, and (d) $L + 10$, for transfer function set TF-1\relax }}{70}{figure.caption.55}}
\newlabel{fig:DFPSC_wrongModel_30v3000}{{6.16}{70}{Results of the DFPSC algorithm with 250,000 data samples, with SNR = 60 dB for wideband simulation at 200 MHz sampling rate for incorrect model order estimates (a) $L/2$, (b) $L-10$, (c) $2L$, and (d) $L + 10$, for transfer function set TF-1\relax }{figure.caption.55}{}}
\@setckpt{Chapters/Chapter_7/ch_7_sc}{
\setcounter{page}{71}
\setcounter{equation}{16}
\setcounter{enumi}{2}
\setcounter{enumii}{0}
\setcounter{enumiii}{0}
\setcounter{enumiv}{0}
\setcounter{footnote}{0}
\setcounter{mpfootnote}{0}
\setcounter{part}{0}
\setcounter{chapter}{6}
\setcounter{section}{5}
\setcounter{subsection}{0}
\setcounter{subsubsection}{0}
\setcounter{paragraph}{0}
\setcounter{subparagraph}{0}
\setcounter{figure}{16}
\setcounter{table}{0}
\setcounter{savemainpageno}{0}
\setcounter{savefrontpageno}{11}
\setcounter{savetotalpageno}{0}
\setcounter{float@type}{16}
\setcounter{alg}{0}
\setcounter{parentequation}{0}
\setcounter{lstnumber}{1}
\setcounter{ContinuedFloat}{0}
\setcounter{subfigure}{4}
\setcounter{subtable}{0}
\setcounter{Item}{2}
\setcounter{Hfootnote}{6}
\setcounter{bookmark@seq@number}{57}
\setcounter{lstlisting}{0}
\setcounter{section@level}{1}
}
