% This file was created by matlab2tikz.
%
%The latest updates can be retrieved from
%  http://www.mathworks.com/matlabcentral/fileexchange/22022-matlab2tikz-matlab2tikz
%where you can also make suggestions and rate matlab2tikz.
%
\definecolor{mycolor1}{rgb}{0.00000,0.44700,0.74100}%
\definecolor{mycolor2}{rgb}{0.85000,0.32500,0.09800}%
%
\begin{tikzpicture}

\begin{axis}[%
width=1.935in,
height=3.2in,
at={(0.758in,0.512in)},
scale only axis,
xmin=0,
xmax=100,
xlabel style={font=\color{white!15!black}, align=center},
xlabel={Sample Index\\[1ex](a) Actual},
ymin=0,
ymax=1,
axis background/.style={fill=white},
legend style={legend cell align=left, align=left, draw=white!15!black}
]
\addplot [color=mycolor1]
  table[row sep=crcr]{%
1	0.0216926152020066\\
2	0.0241183965289278\\
3	0.0267807478156139\\
4	0.0354280601095614\\
5	0.221828667704926\\
6	0.648965745595675\\
7	0.241270440438586\\
8	0.0776642628644082\\
9	0.0581044824071981\\
10	0.0611489366831747\\
11	0.0798140419847986\\
12	0.062735544320507\\
13	0.113011040425493\\
14	0.377485382687519\\
15	0.331649248845691\\
16	0.18615433793772\\
17	0.146493252817741\\
18	0.0847190801249442\\
19	0.0628278567269286\\
20	0.0148364296169451\\
21	0.0250471739922352\\
22	0.0344835915107885\\
23	0.116323790948646\\
24	0.279210940275387\\
25	0.101045410677318\\
26	0.0464379665429307\\
27	0.041398863205924\\
28	0.0263226969199998\\
29	0.0221848789960478\\
30	0.0197642774213948\\
31	0.0186496517239344\\
32	0.0219339353832985\\
33	0.018414044189717\\
34	0.00937919788338426\\
35	0.0100670783096178\\
36	0.0098135024549665\\
37	0.00937197330245933\\
38	0.00884810306396591\\
39	0.00821513429074651\\
40	0.00732026654240377\\
41	0.00945021173361951\\
42	0.0127255218727005\\
43	0.00946415089832864\\
44	0.00862800399957479\\
45	0.00816256372793386\\
46	0.00784857678072338\\
47	0.00764005346579914\\
48	0.00755773656417068\\
49	0.00776075567554332\\
50	0.00986938420958768\\
51	0.00319649311885596\\
52	0.00500292172051245\\
53	0.00524752973649041\\
54	0.00526667690567613\\
55	0.00521575322380608\\
56	0.00513704586881206\\
57	0.00504647235310817\\
58	0.00495116794332671\\
59	0.00485468351773321\\
60	0.00475890010347922\\
61	0.00466484578572566\\
62	0.00457308311118313\\
63	0.00448390798586452\\
64	0.0043974582605137\\
65	0.00431377595094964\\
66	0.00423284428954661\\
67	0.00415461047403326\\
68	0.00407899997367922\\
69	0.00400592569101114\\
70	0.00393529390404367\\
71	0.0038670081481966\\
72	0.00380097175500134\\
73	0.00373708950172093\\
74	0.00367526866536834\\
75	0.00361541967416126\\
76	0.00355745648532918\\
77	0.00350129677649243\\
78	0.00344686201027152\\
79	0.00339407741330312\\
80	0.00334287189828014\\
81	0.0032931779490063\\
82	0.00324493148246751\\
83	0.00319807169773062\\
84	0.003152540918526\\
85	0.00310828443427485\\
86	0.00306525034282854\\
87	0.00302338939712195\\
88	0.00298265485717807\\
89	0.00294300234835571\\
90	0.00290438972634362\\
91	0.0028667769491261\\
92	0.00283012595595264\\
93	0.0027944005532083\\
94	0.00275956630699144\\
95	0.0027255904421446\\
96	0.00269244174744817\\
97	0.00266009048666622\\
98	0.00262850831512411\\
99	0\\
100	0\\
};
\addlegendentry{$\mathbf{h_1}$}

\addplot [color=mycolor2]
  table[row sep=crcr]{%
1	0.00108294891904515\\
2	0.00115806441999571\\
3	0.00125656841390277\\
4	0.00139359850086552\\
5	0.00159676508941691\\
6	0.00191784013184518\\
7	0.00245777585368985\\
8	0.00342819163679349\\
9	0.00533730915065768\\
10	0.00974214709050295\\
11	0.0244449264542886\\
12	0.973731186814765\\
13	0.0500739614470277\\
14	0.0426946282907342\\
15	0.00536788790071817\\
16	0.0362080823589407\\
17	0.176144271962331\\
18	0.115663212635922\\
19	0.0234963057121139\\
20	0.0138738178597906\\
21	0.00966054585381422\\
22	0.00731818549393035\\
23	0.00584139575065055\\
24	0.0048330083027894\\
25	0.00410500747522503\\
26	0.00355723928842746\\
27	0.00313167065616096\\
28	0.00279247304593218\\
29	0.00251639833876938\\
30	0.00228774297450139\\
31	0.00209554142652578\\
32	0.00193191967393617\\
33	0.00179108704155738\\
34	0.00166869616651274\\
35	0\\
36	0\\
37	0\\
38	0\\
39	0\\
40	0\\
41	0\\
42	0\\
43	0\\
44	0\\
45	0\\
46	0\\
47	0\\
48	0\\
49	0\\
50	0\\
51	0\\
52	0\\
53	0\\
54	0\\
55	0\\
56	0\\
57	0\\
58	0\\
59	0\\
60	0\\
61	0\\
62	0\\
63	0\\
64	0\\
65	0\\
66	0\\
67	0\\
68	0\\
69	0\\
70	0\\
71	0\\
72	0\\
73	0\\
74	0\\
75	0\\
76	0\\
77	0\\
78	0\\
79	0\\
80	0\\
81	0\\
82	0\\
83	0\\
84	0\\
85	0\\
86	0\\
87	0\\
88	0\\
89	0\\
90	0\\
91	0\\
92	0\\
93	0\\
94	0\\
95	0\\
96	0\\
97	0\\
98	0\\
99	0\\
100	0\\
};
\addlegendentry{$\mathbf{h_{2}}$}

\end{axis}

\begin{axis}[%
width=1.935in,
height=3.2in,
at={(3.327in,0.512in)},
scale only axis,
xmin=0,
xmax=100,
xlabel style={font=\color{white!15!black}, align=center},
xlabel={Sample Index\\[1ex](b) Estimated},
ymin=0,
ymax=1,
axis background/.style={fill=white},
legend style={legend cell align=left, align=left, draw=white!15!black}
]
\addplot [color=mycolor1]
  table[row sep=crcr]{%
0	0.000188805423444216\\
1	0.000695995938470596\\
2	0.00188442583158718\\
3	0.000874401572572684\\
4	0.000584768819544219\\
5	0.00266415614073138\\
6	0.00182122537746427\\
7	0.000697009635818957\\
8	0.00160832410669386\\
9	0.00267011963030424\\
10	0.00173138747714528\\
11	0.000816733211368741\\
12	0.00036766737330529\\
13	0.000971993436029159\\
14	0.00286118701294604\\
15	0.000606130558454807\\
16	0.00103215560061037\\
17	0.00171819512836219\\
18	0.000731605477862428\\
19	0.00271824413035129\\
20	0.00282898924334242\\
21	0.00243432589390693\\
22	0.00371130616875507\\
23	0.00510821929810374\\
24	0.00840933290868014\\
25	0.0201299593631044\\
26	0.00385852250208353\\
27	0.00810729482201822\\
28	0.00706242217947162\\
29	0.00673093079740176\\
30	0.00787103383375476\\
31	0.0101558992166973\\
32	0.0178804129555123\\
33	0.0329860955397442\\
34	0.0229922473826894\\
35	0.0223350906055852\\
36	0.0344561554222478\\
37	0.0463940425677366\\
38	0.105953731496513\\
39	0.0284445603056119\\
40	0.0343316154653328\\
41	0.024329780952303\\
42	0.190901258862686\\
43	0.66051998449092\\
44	0.208949963236007\\
45	0.0430970359794825\\
46	0.145520185860573\\
47	0.0723913653195267\\
48	0.105471775992529\\
49	0.0373722874388488\\
50	0.106961865789287\\
51	0.3922775094636\\
52	0.294228216891325\\
53	0.171284263461907\\
54	0.129415011453721\\
55	0.074688741408828\\
56	0.106539467474944\\
57	0.0355082725990672\\
58	0.0360848234970801\\
59	0.0517015959021203\\
60	0.117204503609971\\
61	0.27196096532152\\
62	0.079015405230389\\
63	0.0236973130715625\\
64	0.020471436673846\\
65	0.0243332881323894\\
66	0.0196349923412408\\
67	0.0268578168612145\\
68	0.0317580298283346\\
69	0.043633429822698\\
70	0.0231433237291047\\
71	0.00759663238891832\\
72	0.00820866836397166\\
73	0.0157604401040811\\
74	0.0151615137443632\\
75	0.00753173694153962\\
76	0.0086706356951069\\
77	0.00710011260573682\\
78	0.0132726988559008\\
79	0.00796146306921617\\
80	0.0112877334474029\\
81	0.00917466462829331\\
82	0.00818071067311684\\
83	0.00831207779681063\\
84	0.00814338309202512\\
85	0.00788400094127925\\
86	0.0109751933085687\\
87	0.0101945492939621\\
88	0.00223264700303278\\
89	0.0051356086499011\\
90	0.00666323037984365\\
91	0.00629317121844863\\
92	0.00500351022787953\\
93	0.00608756762799097\\
94	0.00619015290214295\\
95	0.00460640758094077\\
96	0.0070316771548286\\
97	0.00535176318547554\\
98	0.00557970403142563\\
99	0.00505069796122082\\
};
\addlegendentry{$\mathbf{\hat{h}_{1}}$}

\addplot [color=mycolor2]
  table[row sep=crcr]{%
0	0.000880054748243397\\
1	0.00131905053297686\\
2	0.000911940267946013\\
3	0.000200326583478509\\
4	0.000582633891144912\\
5	0.0019435511097229\\
6	0.00171971608927006\\
7	0.00109841416023976\\
8	0.000589409999241235\\
9	0.000864781096676448\\
10	0.00115929431757678\\
11	0.00136654897768081\\
12	0.000845967220204328\\
13	0.000871773899123194\\
14	0.000619681287791638\\
15	0.00235005655709578\\
16	0.00171544578038202\\
17	0.00158287693647898\\
18	0.00272336825315882\\
19	0.00244065859416192\\
20	0.000493033394235161\\
21	0.00383145964765238\\
22	0.00447332561902926\\
23	0.00614847745376001\\
24	0.00470834483362872\\
25	0.00263179000664597\\
26	0.00312157835356362\\
27	0.00204830774574532\\
28	0.00263972023131388\\
29	0.00673181804852058\\
30	0.00770108981637425\\
31	0.048993272582728\\
32	0.00818989076471146\\
33	0.011518526487888\\
34	0.00723093649424031\\
35	0.00685418093016493\\
36	0.00858588105030522\\
37	0.00128549910533827\\
38	0.0336420458257268\\
39	0.0519406096368056\\
40	0.0166458696589815\\
41	0.0742270619588728\\
42	0.00720890209061956\\
43	0.00499792094644007\\
44	0.016670792141396\\
45	0.0121387023626054\\
46	0.0210961138846685\\
47	0.0296873616826012\\
48	0.00703047962206257\\
49	0.985356021678904\\
50	0.00703101351246519\\
51	0.0296839367213765\\
52	0.0210983600195079\\
53	0.0121343370531735\\
54	0.0166652676613577\\
55	0.00499322136964755\\
56	0.00720883261557471\\
57	0.074229282184634\\
58	0.0166324366885278\\
59	0.0519356843978209\\
60	0.0336358390407301\\
61	0.00129111797234989\\
62	0.00858781101787703\\
63	0.0068412077834623\\
64	0.00721648881209772\\
65	0.0115028164016908\\
66	0.00818959040705358\\
67	0.0489838873212234\\
68	0.00772624807484689\\
69	0.00671074710061219\\
70	0.00262011895705755\\
71	0.00202234761536033\\
72	0.00309307983108177\\
73	0.00263499391442826\\
74	0.00471553406393214\\
75	0.00615646030523172\\
76	0.00443975661953494\\
77	0.00384201981521262\\
78	0.000506427290621926\\
79	0.00240422294068527\\
80	0.00267887729415814\\
81	0.00153858400849205\\
82	0.00167072716435344\\
83	0.00230620922456289\\
84	0.000637668573678512\\
85	0.000861932499751805\\
86	0.000820680170029741\\
87	0.00130907911039722\\
88	0.00117671820939157\\
89	0.000896823823004902\\
90	0.000599763358848862\\
91	0.0010623045358214\\
92	0.00169081654448927\\
93	0.00191259419460926\\
94	0.000541930676465154\\
95	0.000176955238655985\\
96	0.000867781955929754\\
97	0.00120446513908491\\
98	0.000873619280556673\\
99	0.00116002216435178\\
};
\addlegendentry{$\mathbf{\hat{h}_{2}}$}

\end{axis}
\end{tikzpicture}%