% This file was created by matlab2tikz.
%
%The latest updates can be retrieved from
%  http://www.mathworks.com/matlabcentral/fileexchange/22022-matlab2tikz-matlab2tikz
%where you can also make suggestions and rate matlab2tikz.
%
\definecolor{mycolor1}{rgb}{0.00000,0.44700,0.74100}%
\definecolor{mycolor2}{rgb}{0.85000,0.32500,0.09800}%
%
\begin{tikzpicture}

\begin{axis}[%
width=1.935in,
height=3.2in,
at={(0.758in,0.512in)},
scale only axis,
xmin=0,
xmax=100,
xlabel style={font=\color{white!15!black}, align=center},
xlabel={Sample Index\\[1ex](a) Actual},
ymin=0,
ymax=1,
axis background/.style={fill=white},
legend style={legend cell align=left, align=left, draw=white!15!black}
]
\addplot [color=mycolor1]
  table[row sep=crcr]{%
1	0.0216926152020066\\
2	0.0241183965289278\\
3	0.0267807478156139\\
4	0.0354280601095614\\
5	0.221828667704926\\
6	0.648965745595675\\
7	0.241270440438586\\
8	0.0776642628644082\\
9	0.0581044824071981\\
10	0.0611489366831747\\
11	0.0798140419847986\\
12	0.062735544320507\\
13	0.113011040425493\\
14	0.377485382687519\\
15	0.331649248845691\\
16	0.18615433793772\\
17	0.146493252817741\\
18	0.0847190801249442\\
19	0.0628278567269286\\
20	0.0148364296169451\\
21	0.0250471739922352\\
22	0.0344835915107885\\
23	0.116323790948646\\
24	0.279210940275387\\
25	0.101045410677318\\
26	0.0464379665429307\\
27	0.041398863205924\\
28	0.0263226969199998\\
29	0.0221848789960478\\
30	0.0197642774213948\\
31	0.0186496517239344\\
32	0.0219339353832985\\
33	0.018414044189717\\
34	0.00937919788338426\\
35	0.0100670783096178\\
36	0.0098135024549665\\
37	0.00937197330245933\\
38	0.00884810306396591\\
39	0.00821513429074651\\
40	0.00732026654240377\\
41	0.00945021173361951\\
42	0.0127255218727005\\
43	0.00946415089832864\\
44	0.00862800399957479\\
45	0.00816256372793386\\
46	0.00784857678072338\\
47	0.00764005346579914\\
48	0.00755773656417068\\
49	0.00776075567554332\\
50	0.00986938420958768\\
51	0.00319649311885596\\
52	0.00500292172051245\\
53	0.00524752973649041\\
54	0.00526667690567613\\
55	0.00521575322380608\\
56	0.00513704586881206\\
57	0.00504647235310817\\
58	0.00495116794332671\\
59	0.00485468351773321\\
60	0.00475890010347922\\
61	0.00466484578572566\\
62	0.00457308311118313\\
63	0.00448390798586452\\
64	0.0043974582605137\\
65	0.00431377595094964\\
66	0.00423284428954661\\
67	0.00415461047403326\\
68	0.00407899997367922\\
69	0.00400592569101114\\
70	0.00393529390404367\\
71	0.0038670081481966\\
72	0.00380097175500134\\
73	0.00373708950172093\\
74	0.00367526866536834\\
75	0.00361541967416126\\
76	0.00355745648532918\\
77	0.00350129677649243\\
78	0.00344686201027152\\
79	0.00339407741330312\\
80	0.00334287189828014\\
81	0.0032931779490063\\
82	0.00324493148246751\\
83	0.00319807169773062\\
84	0.003152540918526\\
85	0.00310828443427485\\
86	0.00306525034282854\\
87	0.00302338939712195\\
88	0.00298265485717807\\
89	0.00294300234835571\\
90	0.00290438972634362\\
91	0.0028667769491261\\
92	0.00283012595595264\\
93	0.0027944005532083\\
94	0.00275956630699144\\
95	0.0027255904421446\\
96	0.00269244174744817\\
97	0.00266009048666622\\
98	0.00262850831512411\\
99	0\\
100	0\\
};
\addlegendentry{$\mathbf{h_1}$}

\addplot [color=mycolor2]
  table[row sep=crcr]{%
1	0.00108294891904515\\
2	0.00115806441999571\\
3	0.00125656841390277\\
4	0.00139359850086552\\
5	0.00159676508941691\\
6	0.00191784013184518\\
7	0.00245777585368985\\
8	0.00342819163679349\\
9	0.00533730915065768\\
10	0.00974214709050295\\
11	0.0244449264542886\\
12	0.973731186814765\\
13	0.0500739614470277\\
14	0.0426946282907342\\
15	0.00536788790071817\\
16	0.0362080823589407\\
17	0.176144271962331\\
18	0.115663212635922\\
19	0.0234963057121139\\
20	0.0138738178597906\\
21	0.00966054585381422\\
22	0.00731818549393035\\
23	0.00584139575065055\\
24	0.0048330083027894\\
25	0.00410500747522503\\
26	0.00355723928842746\\
27	0.00313167065616096\\
28	0.00279247304593218\\
29	0.00251639833876938\\
30	0.00228774297450139\\
31	0.00209554142652578\\
32	0.00193191967393617\\
33	0.00179108704155738\\
34	0.00166869616651274\\
35	0\\
36	0\\
37	0\\
38	0\\
39	0\\
40	0\\
41	0\\
42	0\\
43	0\\
44	0\\
45	0\\
46	0\\
47	0\\
48	0\\
49	0\\
50	0\\
51	0\\
52	0\\
53	0\\
54	0\\
55	0\\
56	0\\
57	0\\
58	0\\
59	0\\
60	0\\
61	0\\
62	0\\
63	0\\
64	0\\
65	0\\
66	0\\
67	0\\
68	0\\
69	0\\
70	0\\
71	0\\
72	0\\
73	0\\
74	0\\
75	0\\
76	0\\
77	0\\
78	0\\
79	0\\
80	0\\
81	0\\
82	0\\
83	0\\
84	0\\
85	0\\
86	0\\
87	0\\
88	0\\
89	0\\
90	0\\
91	0\\
92	0\\
93	0\\
94	0\\
95	0\\
96	0\\
97	0\\
98	0\\
99	0\\
100	0\\
};
\addlegendentry{$\mathbf{h_{2}}$}

\end{axis}

\begin{axis}[%
width=1.935in,
height=3.2in,
at={(3.327in,0.512in)},
scale only axis,
xmin=0,
xmax=100,
xlabel style={font=\color{white!15!black}, align=center},
xlabel={Sample Index\\[1ex](b) Estimated},
ymin=0,
ymax=1,
axis background/.style={fill=white},
legend style={legend cell align=left, align=left, draw=white!15!black}
]
\addplot [color=mycolor1]
  table[row sep=crcr]{%
0	0.000250524339214516\\
1	0.00159163662012825\\
2	0.00215523701449315\\
3	0.000239267182322869\\
4	0.00145282738467261\\
5	0.000489626884206886\\
6	0.00236474602764713\\
7	0.00268523713682563\\
8	0.00173449520100427\\
9	0.00163716266906393\\
10	0.00144189887479639\\
11	0.000881150271153863\\
12	0.00137732812715765\\
13	0.00299544984161184\\
14	0.00170650479149129\\
15	0.0012448289836653\\
16	0.000942537834248964\\
17	0.00129576225898559\\
18	0.000710981767380436\\
19	0.00328182689540425\\
20	0.00256224272705457\\
21	0.00150238282125572\\
22	0.00166428304978078\\
23	0.00530385205814553\\
24	0.00836216774108959\\
25	0.0208439596505733\\
26	0.00248019038517808\\
27	0.00702506351958809\\
28	0.00658761854556258\\
29	0.00825344755077211\\
30	0.00666027260930921\\
31	0.00910548927089872\\
32	0.0161091797758309\\
33	0.0345953041032731\\
34	0.0220095016824803\\
35	0.0212292858057705\\
36	0.0341655487214682\\
37	0.0452355641342933\\
38	0.106964184612919\\
39	0.029934873333644\\
40	0.0330281458565162\\
41	0.0232068290753298\\
42	0.19196469334819\\
43	0.661412464542801\\
44	0.208720762245661\\
45	0.0440902019201196\\
46	0.143960519985955\\
47	0.0735484780911796\\
48	0.104007378484499\\
49	0.0359392839411684\\
50	0.105619783287188\\
51	0.392121932845085\\
52	0.293578092980466\\
53	0.172956308542292\\
54	0.130209597495045\\
55	0.0740690451966729\\
56	0.105808632036123\\
57	0.034469185202743\\
58	0.0377059119194473\\
59	0.0515280170254057\\
60	0.115744890803517\\
61	0.272479558344633\\
62	0.0762904320129522\\
63	0.0230125637078437\\
64	0.0203271854877263\\
65	0.0245985322599291\\
66	0.0210696942508828\\
67	0.0282088466412284\\
68	0.0296344049255214\\
69	0.043063105621545\\
70	0.0218914346700242\\
71	0.0073496621597405\\
72	0.00667676267570825\\
73	0.0169345187136689\\
74	0.0127599972236312\\
75	0.00864470449525799\\
76	0.00790353022037556\\
77	0.00819939644764489\\
78	0.0137109857135\\
79	0.00915951789822835\\
80	0.0132784608568107\\
81	0.00868890229897122\\
82	0.00873886448879449\\
83	0.00799201225203743\\
84	0.00875949833370606\\
85	0.00757812947529512\\
86	0.0107546338361519\\
87	0.00959815976039455\\
88	0.00541887764016961\\
89	0.00501138891779782\\
90	0.00638393562933992\\
91	0.00295370404525268\\
92	0.00558278066963321\\
93	0.00425546400608288\\
94	0.00622583097231173\\
95	0.00471999679269375\\
96	0.00684097535157782\\
97	0.00538879413021938\\
98	0.00413705452438326\\
99	0.00393915879534725\\
};
\addlegendentry{$\mathbf{\hat{h}_{1}}$}

\addplot [color=mycolor2]
  table[row sep=crcr]{%
0	0.00073229008585862\\
1	0.000578525404870126\\
2	0.00100153988556674\\
3	0.000817765260503374\\
4	0.00116984450910027\\
5	0.00113083709396116\\
6	0.00178968989767294\\
7	0.000847979984839222\\
8	0.000788395746351351\\
9	0.000925197913898392\\
10	0.00145570956042941\\
11	0.00151364284542119\\
12	0.00199214668558297\\
13	0.000780996718514009\\
14	0.000267412603455295\\
15	0.00266781425978802\\
16	0.00188104425751372\\
17	0.00171655659744672\\
18	0.00233246902611616\\
19	0.00221320191048904\\
20	0.00131796086282816\\
21	0.003644240142708\\
22	0.00400402294763177\\
23	0.00605243501704679\\
24	0.00419520401943257\\
25	0.00312329571942599\\
26	0.00291474313576318\\
27	0.00136922265124442\\
28	0.00253024845151834\\
29	0.0065658342930821\\
30	0.00765997430188958\\
31	0.0490996136177973\\
32	0.00771606823839671\\
33	0.0115957672960401\\
34	0.00771104550414235\\
35	0.0061681208799338\\
36	0.00848654219383701\\
37	0.00120267515881065\\
38	0.0341180053153887\\
39	0.0514780333774456\\
40	0.0169757602613052\\
41	0.0743999193488095\\
42	0.00765276416765572\\
43	0.00517782936971041\\
44	0.0165444900069754\\
45	0.0118730385807635\\
46	0.0211210793605293\\
47	0.029660637313073\\
48	0.00737548592698777\\
49	0.985342404484541\\
50	0.00737253689064774\\
51	0.0296595080502667\\
52	0.0211234751954618\\
53	0.0118657395602363\\
54	0.016542739397064\\
55	0.0051741424978753\\
56	0.00764666887436739\\
57	0.0744090996318469\\
58	0.0169691524688395\\
59	0.0514787153640233\\
60	0.0341132057182282\\
61	0.00121661805254333\\
62	0.0084993158164973\\
63	0.00615121072103807\\
64	0.00769947212372913\\
65	0.0115836575734587\\
66	0.00771712303591087\\
67	0.0490975413039668\\
68	0.00768634917245421\\
69	0.00655381518783743\\
70	0.00251597219563925\\
71	0.0013522346474211\\
72	0.0029029858545348\\
73	0.00311823090577293\\
74	0.00418776682793259\\
75	0.00606922917510544\\
76	0.0039670642900277\\
77	0.00367472804349427\\
78	0.00132664753032745\\
79	0.00219257205438104\\
80	0.0023053103324412\\
81	0.00167621358758065\\
82	0.00182972229549234\\
83	0.00262373709987403\\
84	0.000310165301099411\\
85	0.000804344855119214\\
86	0.00195694963439043\\
87	0.00145876143511077\\
88	0.00145226415491362\\
89	0.00094215622332857\\
90	0.000727033752593338\\
91	0.000801029124128007\\
92	0.00174629671724216\\
93	0.00116282885298554\\
94	0.00110498100326282\\
95	0.000723731822024866\\
96	0.000915719623432877\\
97	0.00070218817522928\\
98	0.000684138680247466\\
99	0.000580022364149568\\
};
\addlegendentry{$\mathbf{\hat{h}_{2}}$}

\end{axis}
\end{tikzpicture}%