% This file was created by matlab2tikz.
%
%The latest updates can be retrieved from
%  http://www.mathworks.com/matlabcentral/fileexchange/22022-matlab2tikz-matlab2tikz
%where you can also make suggestions and rate matlab2tikz.
%
\definecolor{mycolor1}{rgb}{0.00000,0.44700,0.74100}%
\definecolor{mycolor2}{rgb}{0.85000,0.32500,0.09800}%
%
\begin{tikzpicture}

\begin{axis}[%
width=1.935in,
height=3.2in,
at={(0.758in,0.512in)},
scale only axis,
xmin=0,
xmax=100,
xlabel style={font=\color{white!15!black}, align=center},
xlabel={Sample Index\\[1ex](a) Actual},
ymin=0,
ymax=1,
axis background/.style={fill=white},
legend style={legend cell align=left, align=left, draw=white!15!black}
]
\addplot [color=mycolor1]
  table[row sep=crcr]{%
1	0.0216926152020066\\
2	0.0241183965289278\\
3	0.0267807478156139\\
4	0.0354280601095614\\
5	0.221828667704926\\
6	0.648965745595675\\
7	0.241270440438586\\
8	0.0776642628644082\\
9	0.0581044824071981\\
10	0.0611489366831747\\
11	0.0798140419847986\\
12	0.062735544320507\\
13	0.113011040425493\\
14	0.377485382687519\\
15	0.331649248845691\\
16	0.18615433793772\\
17	0.146493252817741\\
18	0.0847190801249442\\
19	0.0628278567269286\\
20	0.0148364296169451\\
21	0.0250471739922352\\
22	0.0344835915107885\\
23	0.116323790948646\\
24	0.279210940275387\\
25	0.101045410677318\\
26	0.0464379665429307\\
27	0.041398863205924\\
28	0.0263226969199998\\
29	0.0221848789960478\\
30	0.0197642774213948\\
31	0.0186496517239344\\
32	0.0219339353832985\\
33	0.018414044189717\\
34	0.00937919788338426\\
35	0.0100670783096178\\
36	0.0098135024549665\\
37	0.00937197330245933\\
38	0.00884810306396591\\
39	0.00821513429074651\\
40	0.00732026654240377\\
41	0.00945021173361951\\
42	0.0127255218727005\\
43	0.00946415089832864\\
44	0.00862800399957479\\
45	0.00816256372793386\\
46	0.00784857678072338\\
47	0.00764005346579914\\
48	0.00755773656417068\\
49	0.00776075567554332\\
50	0.00986938420958768\\
51	0.00319649311885596\\
52	0.00500292172051245\\
53	0.00524752973649041\\
54	0.00526667690567613\\
55	0.00521575322380608\\
56	0.00513704586881206\\
57	0.00504647235310817\\
58	0.00495116794332671\\
59	0.00485468351773321\\
60	0.00475890010347922\\
61	0.00466484578572566\\
62	0.00457308311118313\\
63	0.00448390798586452\\
64	0.0043974582605137\\
65	0.00431377595094964\\
66	0.00423284428954661\\
67	0.00415461047403326\\
68	0.00407899997367922\\
69	0.00400592569101114\\
70	0.00393529390404367\\
71	0.0038670081481966\\
72	0.00380097175500134\\
73	0.00373708950172093\\
74	0.00367526866536834\\
75	0.00361541967416126\\
76	0.00355745648532918\\
77	0.00350129677649243\\
78	0.00344686201027152\\
79	0.00339407741330312\\
80	0.00334287189828014\\
81	0.0032931779490063\\
82	0.00324493148246751\\
83	0.00319807169773062\\
84	0.003152540918526\\
85	0.00310828443427485\\
86	0.00306525034282854\\
87	0.00302338939712195\\
88	0.00298265485717807\\
89	0.00294300234835571\\
90	0.00290438972634362\\
91	0.0028667769491261\\
92	0.00283012595595264\\
93	0.0027944005532083\\
94	0.00275956630699144\\
95	0.0027255904421446\\
96	0.00269244174744817\\
97	0.00266009048666622\\
98	0.00262850831512411\\
99	0\\
100	0\\
};
\addlegendentry{$\mathbf{h_1}$}

\addplot [color=mycolor2]
  table[row sep=crcr]{%
1	0.00108294891904515\\
2	0.00115806441999571\\
3	0.00125656841390277\\
4	0.00139359850086552\\
5	0.00159676508941691\\
6	0.00191784013184518\\
7	0.00245777585368985\\
8	0.00342819163679349\\
9	0.00533730915065768\\
10	0.00974214709050295\\
11	0.0244449264542886\\
12	0.973731186814765\\
13	0.0500739614470277\\
14	0.0426946282907342\\
15	0.00536788790071817\\
16	0.0362080823589407\\
17	0.176144271962331\\
18	0.115663212635922\\
19	0.0234963057121139\\
20	0.0138738178597906\\
21	0.00966054585381422\\
22	0.00731818549393035\\
23	0.00584139575065055\\
24	0.0048330083027894\\
25	0.00410500747522503\\
26	0.00355723928842746\\
27	0.00313167065616096\\
28	0.00279247304593218\\
29	0.00251639833876938\\
30	0.00228774297450139\\
31	0.00209554142652578\\
32	0.00193191967393617\\
33	0.00179108704155738\\
34	0.00166869616651274\\
35	0\\
36	0\\
37	0\\
38	0\\
39	0\\
40	0\\
41	0\\
42	0\\
43	0\\
44	0\\
45	0\\
46	0\\
47	0\\
48	0\\
49	0\\
50	0\\
51	0\\
52	0\\
53	0\\
54	0\\
55	0\\
56	0\\
57	0\\
58	0\\
59	0\\
60	0\\
61	0\\
62	0\\
63	0\\
64	0\\
65	0\\
66	0\\
67	0\\
68	0\\
69	0\\
70	0\\
71	0\\
72	0\\
73	0\\
74	0\\
75	0\\
76	0\\
77	0\\
78	0\\
79	0\\
80	0\\
81	0\\
82	0\\
83	0\\
84	0\\
85	0\\
86	0\\
87	0\\
88	0\\
89	0\\
90	0\\
91	0\\
92	0\\
93	0\\
94	0\\
95	0\\
96	0\\
97	0\\
98	0\\
99	0\\
100	0\\
};
\addlegendentry{$\mathbf{h_{2}}$}

\end{axis}

\begin{axis}[%
width=1.935in,
height=3.2in,
at={(3.327in,0.512in)},
scale only axis,
xmin=0,
xmax=200,
xlabel style={font=\color{white!15!black}, align=center},
xlabel={Sample Index\\[1ex](b) Estimated},
ymin=0,
ymax=1,
axis background/.style={fill=white},
legend style={legend cell align=left, align=left, draw=white!15!black}
]
\addplot [color=mycolor1]
  table[row sep=crcr]{%
0	0.00120804709840923\\
1	0.000731161682869025\\
2	0.00028943369759294\\
3	0.00101972561811133\\
4	0.00197099700718639\\
5	0.00162792665198045\\
6	0.00046492021997558\\
7	0.00129343948481154\\
8	0.0004811619443159\\
9	0.00106637512522262\\
10	0.00184726112767731\\
11	0.000935852954268587\\
12	0.00158282325156716\\
13	0.0016689500770453\\
14	0.000570608637968449\\
15	0.00224483032296098\\
16	0.00256049915792681\\
17	0.00143260619856172\\
18	0.0014276313911058\\
19	0.00105870315582268\\
20	0.000739349181519001\\
21	0.000368296764989175\\
22	0.00120970128241223\\
23	0.00100034495071445\\
24	0.000994467123636808\\
25	0.000307755833814825\\
26	0.000392083383172592\\
27	0.000662316505890138\\
28	0.000664984029858919\\
29	0.00260672391850995\\
30	0.000451192625629372\\
31	0.00185104894155355\\
32	0.00105774923444099\\
33	0.00122828913751278\\
34	0.000878313987594922\\
35	0.0011504153819884\\
36	0.00156394785066143\\
37	0.00111130383639906\\
38	0.00145148112063695\\
39	0.000271808741063426\\
40	0.000188042811471368\\
41	0.000984405790289236\\
42	0.000601121184157095\\
43	0.000430154293308151\\
44	0.000683632395160004\\
45	0.00194158563642712\\
46	0.00135162342163312\\
47	0.00100642132863263\\
48	0.00225806126674769\\
49	0.00141548951591909\\
50	0.000876412455570303\\
51	0.00221779791866988\\
52	0.00123032902406962\\
53	0.00199552006069532\\
54	0.00116260344577254\\
55	0.000889769548619471\\
56	0.00122632905675063\\
57	0.00274220191777845\\
58	0.000624440512485989\\
59	0.0012289366621554\\
60	0.00106290280998402\\
61	0.000863137553268056\\
62	0.000147385783738758\\
63	0.000779435690636972\\
64	0.00089652831531485\\
65	0.00166692298190053\\
66	0.000735932532254714\\
67	0.0023391312716986\\
68	0.000882351087923699\\
69	0.000802137769315875\\
70	0.000517494367586504\\
71	0.00146211424697663\\
72	0.00339733330214842\\
73	0.00356101652177767\\
74	0.00671214281647129\\
75	0.0168020718910568\\
76	0.00393483718168361\\
77	0.00776695651296638\\
78	0.00565958241134878\\
79	0.00702177147510344\\
80	0.00652200117778184\\
81	0.0081062626366268\\
82	0.0135477394876196\\
83	0.0275045998280985\\
84	0.0174380090342837\\
85	0.0174298051034782\\
86	0.0335456237646727\\
87	0.0456105015458696\\
88	0.109341575600521\\
89	0.0308573368017428\\
90	0.031314653206976\\
91	0.026588033096478\\
92	0.193686049978929\\
93	0.658580151670417\\
94	0.207681806597774\\
95	0.0470884796982069\\
96	0.146291959943527\\
97	0.0741069856359357\\
98	0.100516100040899\\
99	0.035393818687226\\
100	0.107233941289625\\
101	0.39376621047711\\
102	0.293744483320178\\
103	0.172984717200491\\
104	0.129204075225577\\
105	0.0713728229789064\\
106	0.110597331321817\\
107	0.0323670702263186\\
108	0.0380594880551258\\
109	0.0480117372960501\\
110	0.116133901782313\\
111	0.275240580576389\\
112	0.077262134560605\\
113	0.0262737239128763\\
114	0.0230059701022557\\
115	0.0240841774491974\\
116	0.0214378319291045\\
117	0.0258721727174346\\
118	0.029553454409512\\
119	0.0403896163062522\\
120	0.0215016917322987\\
121	0.00382627398543618\\
122	0.00659517434500439\\
123	0.015119931441933\\
124	0.0127401293805767\\
125	0.00914063429564791\\
126	0.00936057813183724\\
127	0.00733092820154438\\
128	0.0147888158322089\\
129	0.00977339937324496\\
130	0.0106561490556696\\
131	0.00876080265582884\\
132	0.00687463812471518\\
133	0.00846191084890048\\
134	0.00818348460724635\\
135	0.00762640276059363\\
136	0.00843708089663328\\
137	0.0106206748180362\\
138	0.00260107858744005\\
139	0.00473008599796918\\
140	0.00661514405701293\\
141	0.00560355047456577\\
142	0.0039072752029794\\
143	0.00448015660013491\\
144	0.00401378627700819\\
145	0.0051554344042028\\
146	0.00476086800341751\\
147	0.00386034301658406\\
148	0.00501484804341922\\
149	0.00558021095339659\\
150	0.0055748763554109\\
151	0.0036274984616493\\
152	0.00381357310281614\\
153	0.00356145241421015\\
154	0.00387722603178699\\
155	0.00434691010379947\\
156	0.00499446634981116\\
157	0.00398017281396031\\
158	0.00392856052417175\\
159	0.00400212939633083\\
160	0.00371158023941517\\
161	0.00376262316891891\\
162	0.00370680033229488\\
163	0.00479833913136709\\
164	0.00349961757870973\\
165	0.00428148597262557\\
166	0.0027546207878601\\
167	0.00292964714043231\\
168	0.00314228297031195\\
169	0.0031302121396096\\
170	0.00402315793245088\\
171	0.00503764255340981\\
172	0.00226326176477049\\
173	0.00285660742175564\\
174	0.00403731231154602\\
175	0.00345842501012136\\
176	0.00157780839645858\\
177	0.00296139713914955\\
178	0.00406865238541378\\
179	0.00408527931734938\\
180	0.00238877185922639\\
181	0.00304848995720242\\
182	0.00371884395690521\\
183	0.00212677431734669\\
184	0.00185367225996608\\
185	0.00233010399549903\\
186	0.00113966677462319\\
187	0.000151354842630175\\
188	0.002064150006546\\
189	0.00157205470035792\\
190	0.00140401256396254\\
191	0.0013735953029521\\
192	0.00138787612639734\\
193	0.000656687347122646\\
194	0.000921705503026623\\
195	0.00130393709238169\\
196	0.000737436032987991\\
197	0.000997159457228218\\
198	0.00108847736652553\\
199	0.000457536688653903\\
};
\addlegendentry{$\mathbf{\hat{h}_{1}}$}

\addplot [color=mycolor2]
  table[row sep=crcr]{%
0	0.000379826665468312\\
1	0.000251031251307964\\
2	0.000253732233572482\\
3	0.000499445715030436\\
4	0.000317864528629622\\
5	0.000270128034162707\\
6	0.000282923900331471\\
7	0.000354079611385259\\
8	0.000399644898731713\\
9	0.000327138059663343\\
10	0.000633101812034137\\
11	0.000575401706222292\\
12	0.000341412919988583\\
13	0.000786223479166096\\
14	0.000809527818216987\\
15	0.000550030193550506\\
16	0.000309371094365869\\
17	0.000580236714474232\\
18	0.000711638152130262\\
19	0.000812783132346438\\
20	0.000436932894337182\\
21	0.00123109523861482\\
22	0.0005810802033507\\
23	0.000149488717681722\\
24	0.000206965747821808\\
25	0.000789203610611628\\
26	0.000815868308721222\\
27	0.00054578692000901\\
28	0.000475722187643299\\
29	0.000675663563000204\\
30	0.000359695211390432\\
31	0.000526576415456331\\
32	0.000706188948533074\\
33	0.000248791991284151\\
34	0.000844540977951996\\
35	0.000580087042584417\\
36	0.000614580287470227\\
37	0.000416354935902949\\
38	0.000551376536124443\\
39	0.000645028014822858\\
40	0.000690586304923355\\
41	0.000434676561955131\\
42	0.000749421843599571\\
43	0.000433019686930929\\
44	0.000784135418526556\\
45	0.000773138587397546\\
46	0.000631119893873933\\
47	0.000518466463807305\\
48	0.000706826180335994\\
49	0.000434227408090604\\
50	0.000270078239803902\\
51	0.00106297808448945\\
52	0.000481172671078959\\
53	0.000498139556731416\\
54	0.000685371714354844\\
55	0.00153954566738332\\
56	0.000931019284208992\\
57	0.00083848016052606\\
58	0.000776715577387587\\
59	0.00120032545547683\\
60	0.00133095872529297\\
61	0.00120523908866275\\
62	0.000912272562005586\\
63	0.00156552792757179\\
64	0.000713504845399933\\
65	0.00242563629725678\\
66	0.00194179984795666\\
67	0.00194651841426528\\
68	0.00191800284978958\\
69	0.00179179855780494\\
70	0.000555968566944155\\
71	0.0021546355314208\\
72	0.0036567743091863\\
73	0.00470595892798882\\
74	0.00366498770953076\\
75	0.00253265992502028\\
76	0.00231647997015973\\
77	0.0016840010831893\\
78	0.00193141176511385\\
79	0.00646931004767125\\
80	0.00609665180533022\\
81	0.0436670039048813\\
82	0.00711340739735542\\
83	0.0092907752011914\\
84	0.00658576423428279\\
85	0.00532381192379885\\
86	0.00833266344558158\\
87	0.000680744944201894\\
88	0.0297188226210986\\
89	0.0462571205057363\\
90	0.0142219080720756\\
91	0.0652661549906076\\
92	0.0068536482712663\\
93	0.0042272027175888\\
94	0.0140228412196479\\
95	0.0107324542040026\\
96	0.0186414418596353\\
97	0.0267284480968375\\
98	0.0064350413239744\\
99	0.98858180165414\\
100	0.00643786123222677\\
101	0.0267316522169347\\
102	0.0186426093802436\\
103	0.0107265978546863\\
104	0.0140236603149164\\
105	0.00423180979117607\\
106	0.00685787525391969\\
107	0.0652596379059189\\
108	0.0142199682396171\\
109	0.0462534591159907\\
110	0.0297158786296229\\
111	0.000673828267346125\\
112	0.00833433291708806\\
113	0.00532587462082517\\
114	0.00658141778075945\\
115	0.00929695475432328\\
116	0.00712411732836728\\
117	0.043660848376454\\
118	0.00609581515509326\\
119	0.00646195404012486\\
120	0.00191929025380263\\
121	0.00167343786911173\\
122	0.00231173812329959\\
123	0.0025396117977406\\
124	0.00365299288621606\\
125	0.00470988661955333\\
126	0.00365801230697237\\
127	0.00216945433728944\\
128	0.000555480573042114\\
129	0.00179671715983981\\
130	0.00193829505278943\\
131	0.00194447179358109\\
132	0.00194883954406947\\
133	0.00241074815352797\\
134	0.000716529798458174\\
135	0.00155203688621204\\
136	0.000910817765978213\\
137	0.0012234137557906\\
138	0.00132654669850795\\
139	0.00118838815952683\\
140	0.000751974386841996\\
141	0.000820527485192187\\
142	0.000939815584183716\\
143	0.0015213418168618\\
144	0.000677365087300893\\
145	0.000508345758758875\\
146	0.000484530617161383\\
147	0.0010556332974165\\
148	0.000260592707822431\\
149	0.000430912602951704\\
150	0.000716112920413572\\
151	0.000514790884265398\\
152	0.000617663979513091\\
153	0.00077495686021722\\
154	0.000798371463789566\\
155	0.000450095574801853\\
156	0.000771337134731844\\
157	0.000419236343616731\\
158	0.00068468664669493\\
159	0.000641488672978958\\
160	0.000524852102337479\\
161	0.000415745242600259\\
162	0.000606948363656512\\
163	0.000585383279834634\\
164	0.000836001017714774\\
165	0.000208351670657916\\
166	0.000685427036153221\\
167	0.000528496397127187\\
168	0.00035221802767382\\
169	0.00066025077757993\\
170	0.000437102120862521\\
171	0.000531691118677638\\
172	0.000818465690565099\\
173	0.000808203475372449\\
174	0.000228564685748588\\
175	0.000171197832534284\\
176	0.000585097740492462\\
177	0.00121830215569063\\
178	0.000439753363337145\\
179	0.000833122264924225\\
180	0.00071188453563242\\
181	0.000606192127170747\\
182	0.000295013263622378\\
183	0.000543232867165062\\
184	0.000822185600685942\\
185	0.000801272466685039\\
186	0.0003436692798459\\
187	0.000542308598974145\\
188	0.000644744859143613\\
189	0.000342821335438347\\
190	0.000407566575493047\\
191	0.000380696587852978\\
192	0.000265602324419724\\
193	0.000256652151967906\\
194	0.000286404008503184\\
195	0.00047841408190365\\
196	0.000278092216128817\\
197	0.00025213352814144\\
198	0.000402005452080277\\
199	0.000445389965804856\\
};
\addlegendentry{$\mathbf{\hat{h}_{2}}$}

\end{axis}
\end{tikzpicture}%