% This file was created by matlab2tikz.
%
%The latest updates can be retrieved from
%  http://www.mathworks.com/matlabcentral/fileexchange/22022-matlab2tikz-matlab2tikz
%where you can also make suggestions and rate matlab2tikz.
%
\definecolor{mycolor1}{rgb}{0.00000,0.44700,0.74100}%
\definecolor{mycolor2}{rgb}{0.85000,0.32500,0.09800}%
%
\begin{tikzpicture}

\begin{axis}[%
width=1.935in,
height=3.2in,
at={(0.758in,0.512in)},
scale only axis,
xmin=0,
xmax=100,
xlabel style={font=\color{white!15!black}, align=center},
xlabel={Sample Index\\[1ex](a) Actual},
ymin=0,
ymax=1,
axis background/.style={fill=white},
legend style={legend cell align=left, align=left, draw=white!15!black}
]
\addplot [color=mycolor1]
  table[row sep=crcr]{%
1	0.0216926152020066\\
2	0.0241183965289278\\
3	0.0267807478156139\\
4	0.0354280601095614\\
5	0.221828667704926\\
6	0.648965745595675\\
7	0.241270440438586\\
8	0.0776642628644082\\
9	0.0581044824071981\\
10	0.0611489366831747\\
11	0.0798140419847986\\
12	0.062735544320507\\
13	0.113011040425493\\
14	0.377485382687519\\
15	0.331649248845691\\
16	0.18615433793772\\
17	0.146493252817741\\
18	0.0847190801249442\\
19	0.0628278567269286\\
20	0.0148364296169451\\
21	0.0250471739922352\\
22	0.0344835915107885\\
23	0.116323790948646\\
24	0.279210940275387\\
25	0.101045410677318\\
26	0.0464379665429307\\
27	0.041398863205924\\
28	0.0263226969199998\\
29	0.0221848789960478\\
30	0.0197642774213948\\
31	0.0186496517239344\\
32	0.0219339353832985\\
33	0.018414044189717\\
34	0.00937919788338426\\
35	0.0100670783096178\\
36	0.0098135024549665\\
37	0.00937197330245933\\
38	0.00884810306396591\\
39	0.00821513429074651\\
40	0.00732026654240377\\
41	0.00945021173361951\\
42	0.0127255218727005\\
43	0.00946415089832864\\
44	0.00862800399957479\\
45	0.00816256372793386\\
46	0.00784857678072338\\
47	0.00764005346579914\\
48	0.00755773656417068\\
49	0.00776075567554332\\
50	0.00986938420958768\\
51	0.00319649311885596\\
52	0.00500292172051245\\
53	0.00524752973649041\\
54	0.00526667690567613\\
55	0.00521575322380608\\
56	0.00513704586881206\\
57	0.00504647235310817\\
58	0.00495116794332671\\
59	0.00485468351773321\\
60	0.00475890010347922\\
61	0.00466484578572566\\
62	0.00457308311118313\\
63	0.00448390798586452\\
64	0.0043974582605137\\
65	0.00431377595094964\\
66	0.00423284428954661\\
67	0.00415461047403326\\
68	0.00407899997367922\\
69	0.00400592569101114\\
70	0.00393529390404367\\
71	0.0038670081481966\\
72	0.00380097175500134\\
73	0.00373708950172093\\
74	0.00367526866536834\\
75	0.00361541967416126\\
76	0.00355745648532918\\
77	0.00350129677649243\\
78	0.00344686201027152\\
79	0.00339407741330312\\
80	0.00334287189828014\\
81	0.0032931779490063\\
82	0.00324493148246751\\
83	0.00319807169773062\\
84	0.003152540918526\\
85	0.00310828443427485\\
86	0.00306525034282854\\
87	0.00302338939712195\\
88	0.00298265485717807\\
89	0.00294300234835571\\
90	0.00290438972634362\\
91	0.0028667769491261\\
92	0.00283012595595264\\
93	0.0027944005532083\\
94	0.00275956630699144\\
95	0.0027255904421446\\
96	0.00269244174744817\\
97	0.00266009048666622\\
98	0.00262850831512411\\
99	0\\
100	0\\
};
\addlegendentry{$\mathbf{h_1}$}

\addplot [color=mycolor2]
  table[row sep=crcr]{%
1	0.00108294891904515\\
2	0.00115806441999571\\
3	0.00125656841390277\\
4	0.00139359850086552\\
5	0.00159676508941691\\
6	0.00191784013184518\\
7	0.00245777585368985\\
8	0.00342819163679349\\
9	0.00533730915065768\\
10	0.00974214709050295\\
11	0.0244449264542886\\
12	0.973731186814765\\
13	0.0500739614470277\\
14	0.0426946282907342\\
15	0.00536788790071817\\
16	0.0362080823589407\\
17	0.176144271962331\\
18	0.115663212635922\\
19	0.0234963057121139\\
20	0.0138738178597906\\
21	0.00966054585381422\\
22	0.00731818549393035\\
23	0.00584139575065055\\
24	0.0048330083027894\\
25	0.00410500747522503\\
26	0.00355723928842746\\
27	0.00313167065616096\\
28	0.00279247304593218\\
29	0.00251639833876938\\
30	0.00228774297450139\\
31	0.00209554142652578\\
32	0.00193191967393617\\
33	0.00179108704155738\\
34	0.00166869616651274\\
35	0\\
36	0\\
37	0\\
38	0\\
39	0\\
40	0\\
41	0\\
42	0\\
43	0\\
44	0\\
45	0\\
46	0\\
47	0\\
48	0\\
49	0\\
50	0\\
51	0\\
52	0\\
53	0\\
54	0\\
55	0\\
56	0\\
57	0\\
58	0\\
59	0\\
60	0\\
61	0\\
62	0\\
63	0\\
64	0\\
65	0\\
66	0\\
67	0\\
68	0\\
69	0\\
70	0\\
71	0\\
72	0\\
73	0\\
74	0\\
75	0\\
76	0\\
77	0\\
78	0\\
79	0\\
80	0\\
81	0\\
82	0\\
83	0\\
84	0\\
85	0\\
86	0\\
87	0\\
88	0\\
89	0\\
90	0\\
91	0\\
92	0\\
93	0\\
94	0\\
95	0\\
96	0\\
97	0\\
98	0\\
99	0\\
100	0\\
};
\addlegendentry{$\mathbf{h_{2}}$}

\end{axis}

\begin{axis}[%
width=1.935in,
height=3.2in,
at={(3.327in,0.512in)},
scale only axis,
xmin=0,
xmax=100,
xlabel style={font=\color{white!15!black}, align=center},
xlabel={Sample Index\\[1ex](b) Estimated},
ymin=0,
ymax=1,
axis background/.style={fill=white},
legend style={legend cell align=left, align=left, draw=white!15!black}
]
\addplot [color=mycolor1]
  table[row sep=crcr]{%
0	0.000117663948755463\\
1	3.39362912474109e-05\\
2	3.89748469130289e-05\\
3	4.28978111129244e-05\\
4	0.000166456201192486\\
5	2.56411378281962e-05\\
6	9.05478490455694e-05\\
7	7.83777304222753e-05\\
8	1.59651470532621e-05\\
9	9.31616496553352e-05\\
10	7.05493588208973e-05\\
11	5.94914640146667e-05\\
12	9.17914974034771e-05\\
13	9.4614051928658e-05\\
14	5.35295772617554e-05\\
15	1.82199845248469e-05\\
16	8.37374655718798e-05\\
17	5.01741459973678e-05\\
18	6.45444058889874e-05\\
19	9.72955965316499e-05\\
20	9.47448673163607e-05\\
21	0.000133023626727188\\
22	3.39436219312772e-05\\
23	7.59937694965143e-05\\
24	0.000494982054726991\\
25	0.00419702844464268\\
26	0.000100369540244269\\
27	7.08447740542543e-05\\
28	1.98906955609036e-05\\
29	4.60388557625381e-05\\
30	7.43338501238492e-05\\
31	4.10659208907753e-05\\
32	0.00147979325698786\\
33	0.0134938187233864\\
34	0.00510385017436208\\
35	0.00819676174677537\\
36	0.0141736549714673\\
37	0.0303131464209862\\
38	0.0926623740728486\\
39	0.0112910023097358\\
40	0.015529005202411\\
41	0.00492114436519116\\
42	0.188233902994382\\
43	0.69255726743345\\
44	0.200798109682932\\
45	0.0276825835903593\\
46	0.136076084899109\\
47	0.058953059628368\\
48	0.0902250443354257\\
49	0.0177697795807444\\
50	0.0945980397893671\\
51	0.399758257940909\\
52	0.297808924668885\\
53	0.165139370198001\\
54	0.11987800093309\\
55	0.0556967039689168\\
56	0.0981778433664548\\
57	0.016025176749051\\
58	0.0156748318886493\\
59	0.0307171413860482\\
60	0.102882217792744\\
61	0.273075608680573\\
62	0.0613830868563299\\
63	0.00883237638986931\\
64	0.0015322919027284\\
65	0.00289691370871742\\
66	0.00111676766236161\\
67	0.0061190160109683\\
68	0.00800356433076911\\
69	0.0238652783221449\\
70	0.00666644593197641\\
71	0.000132297452619033\\
72	8.35103037962091e-05\\
73	2.1744902869488e-05\\
74	0.000444981875547012\\
75	5.42718816195569e-05\\
76	2.38617474705738e-05\\
77	7.91083420212161e-05\\
78	5.41542786083725e-05\\
79	0.00011620558544729\\
80	7.40523061794414e-05\\
81	1.55526310966427e-05\\
82	0.000136753215964907\\
83	6.98006194173263e-05\\
84	4.25708197212759e-05\\
85	0.000142174769793882\\
86	5.50229721754206e-05\\
87	0.000133891255119694\\
88	3.70937735896768e-05\\
89	8.34194737243905e-05\\
90	8.02271627607048e-05\\
91	0.000106646947803374\\
92	8.92389521192157e-05\\
93	0.000121171653848456\\
94	5.69394441980435e-05\\
95	7.59009788853307e-05\\
96	9.78178836163307e-05\\
97	7.40668910967827e-05\\
98	6.55287527866748e-05\\
99	8.49018172494829e-05\\
};
\addlegendentry{$\mathbf{\hat{h}_{1}}$}

\addplot [color=mycolor2]
  table[row sep=crcr]{%
0	1.27844127399424e-05\\
1	1.63475988621197e-05\\
2	1.86181002459697e-05\\
3	1.85745124707865e-05\\
4	2.45534306867643e-05\\
5	3.25455700419493e-05\\
6	2.04289381573352e-05\\
7	1.84215683452155e-05\\
8	7.16750501092712e-06\\
9	7.9096533310809e-06\\
10	3.44129390294016e-05\\
11	2.38559070159649e-05\\
12	3.52629700259759e-05\\
13	4.16643915344832e-05\\
14	3.07322375806331e-06\\
15	3.16661197973764e-05\\
16	1.50345895791218e-05\\
17	1.06725572664524e-05\\
18	4.50837894365406e-05\\
19	1.557580185384e-05\\
20	4.96918815851674e-05\\
21	6.00571938126437e-05\\
22	6.288170970219e-05\\
23	0.00151210714460976\\
24	1.63841541264262e-05\\
25	1.75566632606807e-05\\
26	2.52080812367539e-05\\
27	4.0533363783459e-05\\
28	2.10453733857222e-05\\
29	0.00176753386021434\\
30	0.00135638685997916\\
31	0.0437272281844394\\
32	0.00267548446134587\\
33	0.00614737639304245\\
34	0.0022931111122049\\
35	0.00133739009461946\\
36	0.00373910708112855\\
37	4.61950998346729e-06\\
38	0.0288114276353003\\
39	0.048392869686501\\
40	0.0106830762648032\\
41	0.0701991338048777\\
42	0.00276602593679473\\
43	0.000537141095341855\\
44	0.0121021846563581\\
45	0.00727416527343742\\
46	0.0156017951702894\\
47	0.0252831329845434\\
48	0.00278963566773709\\
49	0.988516257993908\\
50	0.0021453183556233\\
51	0.0254723534918159\\
52	0.0169816778884034\\
53	0.00752307775894997\\
54	0.0118157838694581\\
55	0.000293523388282203\\
56	0.00219943751537498\\
57	0.0702157254829239\\
58	0.010815328087748\\
59	0.0489052558361609\\
60	0.0297467135021568\\
61	1.9623391314481e-06\\
62	0.00388796168881354\\
63	0.0019091699135167\\
64	0.00311083737517704\\
65	0.00633501971754901\\
66	0.00280664254220161\\
67	0.0446070760332309\\
68	0.00109969585997053\\
69	0.00164990053986612\\
70	9.57660490417821e-06\\
71	4.29856279208754e-05\\
72	1.86222896463783e-05\\
73	2.01803635092722e-05\\
74	7.16506707353361e-05\\
75	0.00124585674787855\\
76	8.04532202255123e-05\\
77	6.22482722349171e-05\\
78	4.01417832886536e-05\\
79	1.59961400464063e-05\\
80	5.08619474989424e-05\\
81	1.74113930292595e-05\\
82	9.27595288773832e-06\\
83	3.32579630768561e-05\\
84	5.27206127140408e-06\\
85	3.6590316575037e-05\\
86	2.98831987800578e-05\\
87	2.09981680140577e-05\\
88	3.59483184202869e-05\\
89	3.56452257229131e-06\\
90	1.151096553101e-05\\
91	1.56893090208968e-05\\
92	1.01444084533551e-05\\
93	3.70519760096002e-05\\
94	1.65752967823994e-05\\
95	2.67809498400081e-05\\
96	2.64797799696042e-05\\
97	1.10183266100538e-05\\
98	8.65019419499438e-06\\
99	2.39678727520993e-05\\
};
\addlegendentry{$\mathbf{\hat{h}_{2}}$}

\end{axis}
\end{tikzpicture}%