% This file was created by matlab2tikz.
%
%The latest updates can be retrieved from
%  http://www.mathworks.com/matlabcentral/fileexchange/22022-matlab2tikz-matlab2tikz
%where you can also make suggestions and rate matlab2tikz.
%
\definecolor{mycolor1}{rgb}{0.00000,0.44700,0.74100}%
\definecolor{mycolor2}{rgb}{0.85000,0.32500,0.09800}%
%
\begin{tikzpicture}

\begin{axis}[%
width=1.935in,
height=3.2in,
at={(0.758in,0.512in)},
scale only axis,
xmin=0,
xmax=100,
xlabel style={font=\color{white!15!black}, align=center},
xlabel={Sample Index\\[1ex](a) Actual},
ymin=0,
ymax=1,
axis background/.style={fill=white},
legend style={legend cell align=left, align=left, draw=white!15!black}
]
\addplot [color=mycolor1]
  table[row sep=crcr]{%
1	0.0216926152020066\\
2	0.0241183965289278\\
3	0.0267807478156139\\
4	0.0354280601095614\\
5	0.221828667704926\\
6	0.648965745595675\\
7	0.241270440438586\\
8	0.0776642628644082\\
9	0.0581044824071981\\
10	0.0611489366831747\\
11	0.0798140419847986\\
12	0.062735544320507\\
13	0.113011040425493\\
14	0.377485382687519\\
15	0.331649248845691\\
16	0.18615433793772\\
17	0.146493252817741\\
18	0.0847190801249442\\
19	0.0628278567269286\\
20	0.0148364296169451\\
21	0.0250471739922352\\
22	0.0344835915107885\\
23	0.116323790948646\\
24	0.279210940275387\\
25	0.101045410677318\\
26	0.0464379665429307\\
27	0.041398863205924\\
28	0.0263226969199998\\
29	0.0221848789960478\\
30	0.0197642774213948\\
31	0.0186496517239344\\
32	0.0219339353832985\\
33	0.018414044189717\\
34	0.00937919788338426\\
35	0.0100670783096178\\
36	0.0098135024549665\\
37	0.00937197330245933\\
38	0.00884810306396591\\
39	0.00821513429074651\\
40	0.00732026654240377\\
41	0.00945021173361951\\
42	0.0127255218727005\\
43	0.00946415089832864\\
44	0.00862800399957479\\
45	0.00816256372793386\\
46	0.00784857678072338\\
47	0.00764005346579914\\
48	0.00755773656417068\\
49	0.00776075567554332\\
50	0.00986938420958768\\
51	0.00319649311885596\\
52	0.00500292172051245\\
53	0.00524752973649041\\
54	0.00526667690567613\\
55	0.00521575322380608\\
56	0.00513704586881206\\
57	0.00504647235310817\\
58	0.00495116794332671\\
59	0.00485468351773321\\
60	0.00475890010347922\\
61	0.00466484578572566\\
62	0.00457308311118313\\
63	0.00448390798586452\\
64	0.0043974582605137\\
65	0.00431377595094964\\
66	0.00423284428954661\\
67	0.00415461047403326\\
68	0.00407899997367922\\
69	0.00400592569101114\\
70	0.00393529390404367\\
71	0.0038670081481966\\
72	0.00380097175500134\\
73	0.00373708950172093\\
74	0.00367526866536834\\
75	0.00361541967416126\\
76	0.00355745648532918\\
77	0.00350129677649243\\
78	0.00344686201027152\\
79	0.00339407741330312\\
80	0.00334287189828014\\
81	0.0032931779490063\\
82	0.00324493148246751\\
83	0.00319807169773062\\
84	0.003152540918526\\
85	0.00310828443427485\\
86	0.00306525034282854\\
87	0.00302338939712195\\
88	0.00298265485717807\\
89	0.00294300234835571\\
90	0.00290438972634362\\
91	0.0028667769491261\\
92	0.00283012595595264\\
93	0.0027944005532083\\
94	0.00275956630699144\\
95	0.0027255904421446\\
96	0.00269244174744817\\
97	0.00266009048666622\\
98	0.00262850831512411\\
99	0\\
100	0\\
};
\addlegendentry{$\mathbf{h_1}$}

\addplot [color=mycolor2]
  table[row sep=crcr]{%
1	0.00108294891904515\\
2	0.00115806441999571\\
3	0.00125656841390277\\
4	0.00139359850086552\\
5	0.00159676508941691\\
6	0.00191784013184518\\
7	0.00245777585368985\\
8	0.00342819163679349\\
9	0.00533730915065768\\
10	0.00974214709050295\\
11	0.0244449264542886\\
12	0.973731186814765\\
13	0.0500739614470277\\
14	0.0426946282907342\\
15	0.00536788790071817\\
16	0.0362080823589407\\
17	0.176144271962331\\
18	0.115663212635922\\
19	0.0234963057121139\\
20	0.0138738178597906\\
21	0.00966054585381422\\
22	0.00731818549393035\\
23	0.00584139575065055\\
24	0.0048330083027894\\
25	0.00410500747522503\\
26	0.00355723928842746\\
27	0.00313167065616096\\
28	0.00279247304593218\\
29	0.00251639833876938\\
30	0.00228774297450139\\
31	0.00209554142652578\\
32	0.00193191967393617\\
33	0.00179108704155738\\
34	0.00166869616651274\\
35	0\\
36	0\\
37	0\\
38	0\\
39	0\\
40	0\\
41	0\\
42	0\\
43	0\\
44	0\\
45	0\\
46	0\\
47	0\\
48	0\\
49	0\\
50	0\\
51	0\\
52	0\\
53	0\\
54	0\\
55	0\\
56	0\\
57	0\\
58	0\\
59	0\\
60	0\\
61	0\\
62	0\\
63	0\\
64	0\\
65	0\\
66	0\\
67	0\\
68	0\\
69	0\\
70	0\\
71	0\\
72	0\\
73	0\\
74	0\\
75	0\\
76	0\\
77	0\\
78	0\\
79	0\\
80	0\\
81	0\\
82	0\\
83	0\\
84	0\\
85	0\\
86	0\\
87	0\\
88	0\\
89	0\\
90	0\\
91	0\\
92	0\\
93	0\\
94	0\\
95	0\\
96	0\\
97	0\\
98	0\\
99	0\\
100	0\\
};
\addlegendentry{$\mathbf{h_{2}}$}

\end{axis}

\begin{axis}[%
width=1.935in,
height=3.2in,
at={(3.327in,0.512in)},
scale only axis,
xmin=0,
xmax=200,
xlabel style={font=\color{white!15!black}, align=center},
xlabel={Sample Index\\[1ex](b) Estimated},
ymin=0,
ymax=0.14,
axis background/.style={fill=white},
legend style={legend cell align=left, align=left, draw=white!15!black}
]
\addplot [color=mycolor1]
  table[row sep=crcr]{%
0	0.00159199316304148\\
1	0.00277064259017028\\
2	0.00369392174373984\\
3	0.00282700552505736\\
4	0.0190430323297468\\
5	0.048898060302957\\
6	0.0475132070788346\\
7	0.0394799474838737\\
8	0.0544904931970023\\
9	0.0552943178269427\\
10	0.0448627372377821\\
11	0.0520354661679443\\
12	0.0596451903917003\\
13	0.0727181071697095\\
14	0.0535736878520541\\
15	0.0600605150624612\\
16	0.0691932599709298\\
17	0.0592372606142796\\
18	0.0675817162861892\\
19	0.0781027329901399\\
20	0.0737581598022198\\
21	0.0666524066667037\\
22	0.0819827214322502\\
23	0.105122827890536\\
24	0.0778625849279742\\
25	0.0946188584409117\\
26	0.1042527856894\\
27	0.0923677746420971\\
28	0.108535943733477\\
29	0.108444889099871\\
30	0.109633633928044\\
31	0.106780440417035\\
32	0.108898231942233\\
33	0.114536930801658\\
34	0.10066061597941\\
35	0.114887138997197\\
36	0.108809887099155\\
37	0.112918225244414\\
38	0.120629585708107\\
39	0.104050800692453\\
40	0.106779403842746\\
41	0.104535247234043\\
42	0.106327880173022\\
43	0.105633646746529\\
44	0.109215257943239\\
45	0.12015952494023\\
46	0.104904956464904\\
47	0.122679662466726\\
48	0.115813053987336\\
49	0.106143399678403\\
50	0.111230194628084\\
51	0.111847541097131\\
52	0.109463590525246\\
53	0.0962830571178448\\
54	0.104370904015488\\
55	0.0925210882397944\\
56	0.0748397998351854\\
57	0.0891927796653634\\
58	0.0658003665112073\\
59	0.0627035078926634\\
60	0.0690385841594283\\
61	0.0670463432496458\\
62	0.0662676682880181\\
63	0.0586828335034149\\
64	0.0753456324347074\\
65	0.0624031244738179\\
66	0.0686077151350364\\
67	0.0774907951862111\\
68	0.0664621919137728\\
69	0.0804956721060513\\
70	0.0851743460321008\\
71	0.0863390200041797\\
72	0.0812310041399937\\
73	0.0842854943342451\\
74	0.0895642818375235\\
75	0.0727964203556397\\
76	0.0892155975803731\\
77	0.0878288812934654\\
78	0.0811100336729905\\
79	0.0896041134446775\\
80	0.0915150327459428\\
81	0.0896286776124023\\
82	0.0817370405385156\\
83	0.0931751951916117\\
84	0.0990751392940347\\
85	0.0870770045680596\\
86	0.109457754682684\\
87	0.104982664925224\\
88	0.111185118461717\\
89	0.114001111251935\\
90	0.116399536143926\\
91	0.119111460147091\\
92	0.111674029472179\\
93	0.124829969830801\\
94	0.121699626320689\\
95	0.120515586892681\\
96	0.127453396150098\\
97	0.105185195434326\\
98	0.11874765806924\\
99	0.112620536504432\\
100	0.0961277141725564\\
101	0.102022273054221\\
102	0.107366848410061\\
103	0.102540954777245\\
104	0.0953025808385114\\
105	0.105970465838028\\
106	0.095576491361906\\
107	0.0781449952791547\\
108	0.119403568482777\\
109	0.108242067163723\\
110	0.0991070945754295\\
111	0.0957556433622227\\
112	0.104387984333199\\
113	0.097709258507483\\
114	0.0847542829348018\\
115	0.0913820379829585\\
116	0.0760052371478819\\
117	0.054453163698621\\
118	0.0476068365683259\\
119	0.0374523691317829\\
120	0.0279373532055558\\
121	0.0277957589125565\\
122	0.0282653314821083\\
123	0.0225607482316241\\
124	0.0250349365940991\\
125	0.0209884570285252\\
126	0.00951343680840234\\
127	0.00456897142591045\\
128	0.00325822457841867\\
129	0.00299898352737242\\
130	0.00310129332322881\\
131	0.00266539820404887\\
132	0.00268955590704037\\
133	0.00178992790581648\\
134	0.00153611315050695\\
135	0.000611654143102425\\
136	0.000358278668008693\\
137	0.00031208670061939\\
138	0.000969429435560467\\
139	0.00121001064418331\\
140	0.00117376119078746\\
141	0.00131285242772085\\
142	0.000985934339740957\\
143	0.00101013204557075\\
144	0.000516085322939487\\
145	0.000225698364572218\\
146	0.000540952126819298\\
147	0.00075542985039144\\
148	0.00102207515084913\\
149	0.00106619475011707\\
150	0.000978143460391435\\
151	0.000947537161536879\\
152	0.000468112494498499\\
153	0.000529554511291723\\
154	0.000486921159004632\\
155	0.000444518278124045\\
156	0.000499031605689098\\
157	0.000593518175270842\\
158	0.000698637850738808\\
159	0.000740513330284087\\
160	0.000700211099813079\\
161	0.00061527972468581\\
162	0.000423526157256595\\
163	0.000252000569598678\\
164	0.000270967461076166\\
165	0.000490672605534216\\
166	0.000726108590299139\\
167	0.000858123541127727\\
168	0.000934017485977253\\
169	0.000863688922769836\\
170	0.000745475978860247\\
171	0.000538690151326683\\
172	0.000252565357960741\\
173	7.6553665639891e-05\\
174	0.000365332656912852\\
175	0.000627426551228636\\
176	0.00080681360277474\\
177	0.000905473988251788\\
178	0.000868329436860906\\
179	0.000724876208367263\\
180	0.000532783918358118\\
181	0.000261780380535388\\
182	7.15663897698671e-05\\
183	0.000302106309291782\\
184	0.000540060043746007\\
185	0.000692743086381864\\
186	0.00077374914279655\\
187	0.000757232968314587\\
188	0.000623550698890511\\
189	0.000454024650719116\\
190	0.000213418361695351\\
191	1.47502530098193e-05\\
192	0.000186356005062625\\
193	0.000393526226958832\\
194	0.000526001890352019\\
195	0.000578897026538617\\
196	0.000585056101556257\\
197	0.000479263612980083\\
198	0.000351827276416965\\
199	0.000205408215923686\\
};
\addlegendentry{$\mathbf{\hat{h}_{1}}$}

\addplot [color=mycolor2]
  table[row sep=crcr]{%
0	9.10167079211519e-05\\
1	0.000162686056356497\\
2	0.000233148010820744\\
3	0.000309121825813551\\
4	0.000350105079713268\\
5	0.000387338189302248\\
6	0.000425139058656821\\
7	0.000447576284185496\\
8	0.000575943306673153\\
9	0.00104087222808751\\
10	0.00242313013801681\\
11	0.0830597887607731\\
12	0.0696709703453337\\
13	0.0569122721989921\\
14	0.0800386473014525\\
15	0.0785325840547222\\
16	0.0810586941398355\\
17	0.0910665300347835\\
18	0.0978499370982438\\
19	0.0892367886514336\\
20	0.0928851580434513\\
21	0.1195019191433\\
22	0.0990299963073604\\
23	0.0969402098272612\\
24	0.10904812306529\\
25	0.105285492547822\\
26	0.10932167274478\\
27	0.113912773046092\\
28	0.116927736740845\\
29	0.110884567436613\\
30	0.116659563493238\\
31	0.123337646198802\\
32	0.111555830662835\\
33	0.127255561646971\\
34	0.125951551829931\\
35	0.137738604005518\\
36	0.139848150653217\\
37	0.133852206244454\\
38	0.134565397629118\\
39	0.127799940156536\\
40	0.122677959000824\\
41	0.109465466097131\\
42	0.117495237606351\\
43	0.112674072421179\\
44	0.0955460587875984\\
45	0.11939046868727\\
46	0.10867339543182\\
47	0.0924268321160818\\
48	0.0907437643794349\\
49	0.0842271597304495\\
50	0.0731361478413562\\
51	0.0599074847090145\\
52	0.0757883212432107\\
53	0.0670590194027897\\
54	0.0561172350402183\\
55	0.0628170560812776\\
56	0.0533971959509226\\
57	0.0433762542177184\\
58	0.04209405641513\\
59	0.0468707631360511\\
60	0.0497687882743814\\
61	0.0409113060029362\\
62	0.0514405716564637\\
63	0.0416179694258185\\
64	0.0411428377223394\\
65	0.0407594181456012\\
66	0.0339902545905355\\
67	0.0406777890149269\\
68	0.0518954148385602\\
69	0.0585358633895531\\
70	0.0516008995296598\\
71	0.0541798694745805\\
72	0.072147059681725\\
73	0.0569859346638895\\
74	0.0636715229399473\\
75	0.0841039177106747\\
76	0.0906199079846021\\
77	0.0939481509635284\\
78	0.103393737857812\\
79	0.115802741442426\\
80	0.0927562555946466\\
81	0.105518443139829\\
82	0.12013854308308\\
83	0.107118478101489\\
84	0.120148497969115\\
85	0.126794942829372\\
86	0.132891627890664\\
87	0.132597619976612\\
88	0.132346093735671\\
89	0.135461641584461\\
90	0.1205936424988\\
91	0.132037098306116\\
92	0.119683662162582\\
93	0.123817106233255\\
94	0.12908900758814\\
95	0.115571529444026\\
96	0.120949309291048\\
97	0.118200399885833\\
98	0.109145554065678\\
99	0.106869003916744\\
100	0.112349472001096\\
101	0.110950700856299\\
102	0.10546650962325\\
103	0.123648712259779\\
104	0.0997615854680824\\
105	0.0894463229179849\\
106	0.100516935973062\\
107	0.0964605847736003\\
108	0.0817689983703894\\
109	0.0859794036325444\\
110	0.0973445082093193\\
111	0.0785637705461181\\
112	0.0802465586567084\\
113	0.0909954521963035\\
114	0.0173573270695121\\
115	0.0183573613978515\\
116	0.0106605810489858\\
117	0.00994749328744433\\
118	0.0115316063602855\\
119	0.0108802290323335\\
120	0.00307761809500485\\
121	0.00225951862008157\\
122	0.00160689122749655\\
123	0.00121093397704965\\
124	0.000283688128841637\\
125	0.00114987871629277\\
126	0.000324643091959487\\
127	0.000233706186574119\\
128	0.000258432999653868\\
129	0.000395130881900294\\
130	0.000481998068586805\\
131	0.000502973045344238\\
132	0.000489666182129177\\
133	0.000350352606940591\\
134	0.000282310528181324\\
135	0.000157393989498436\\
136	7.6716856968193e-06\\
137	3.36781921897775e-06\\
138	2.80039308714988e-06\\
139	5.60004041880993e-06\\
140	6.22913965674306e-06\\
141	1.54349601674415e-05\\
142	1.79992003082185e-05\\
143	1.06462958395982e-05\\
144	1.94599062981108e-06\\
145	5.97010451201112e-06\\
146	2.98078737059928e-06\\
147	3.50971188865062e-06\\
148	3.04818310198786e-06\\
149	2.98772536141042e-06\\
150	8.30215796302266e-06\\
151	1.32539687322561e-05\\
152	4.04972405814859e-06\\
153	1.92430374621081e-06\\
154	1.47604791232896e-06\\
155	4.00581535207048e-07\\
156	1.04912056323344e-06\\
157	1.63148414243778e-06\\
158	1.7109407709324e-07\\
159	1.37189946248883e-06\\
160	1.38304765893499e-06\\
161	8.94411761372372e-07\\
162	1.98186248384771e-06\\
163	1.32642242621357e-06\\
164	1.19222985538087e-06\\
165	1.23753516565231e-06\\
166	1.51890741599271e-06\\
167	1.78012534789238e-06\\
168	1.67394362420587e-06\\
169	1.95106117335736e-06\\
170	9.45391523727936e-07\\
171	1.96985710766147e-06\\
172	1.97877080337002e-06\\
173	1.43600703608529e-06\\
174	2.68830006510088e-06\\
175	2.82207650373598e-06\\
176	2.44635683687744e-06\\
177	2.6149895203144e-06\\
178	3.1387650024318e-06\\
179	3.09549458224884e-06\\
180	2.3483874107633e-06\\
181	3.38303243805334e-06\\
182	2.86719369059362e-06\\
183	2.32865666951008e-06\\
184	3.50664495222214e-06\\
185	3.20389382998892e-06\\
186	2.53295741172965e-06\\
187	2.79516491688353e-06\\
188	2.69229023742587e-06\\
189	2.12448666744044e-06\\
190	3.47839117821067e-06\\
191	3.9158334598249e-06\\
192	2.40088609502497e-06\\
193	3.51734955629313e-06\\
194	3.15392701048489e-06\\
195	3.30426754919105e-06\\
196	2.82360912335078e-06\\
197	2.96320704852029e-06\\
198	3.7746758063754e-06\\
199	4.92046906123993e-06\\
};
\addlegendentry{$\mathbf{\hat{h}_{2}}$}

\end{axis}
\end{tikzpicture}%