% This file was created by matlab2tikz.
%
%The latest updates can be retrieved from
%  http://www.mathworks.com/matlabcentral/fileexchange/22022-matlab2tikz-matlab2tikz
%where you can also make suggestions and rate matlab2tikz.
%
\definecolor{mycolor1}{rgb}{0.00000,0.44700,0.74100}%
\definecolor{mycolor2}{rgb}{0.85000,0.32500,0.09800}%
%
\begin{tikzpicture}

\begin{axis}[%
width=1.935in,
height=3.2in,
at={(0.758in,0.512in)},
scale only axis,
xmin=0,
xmax=150,
xlabel style={font=\color{white!15!black}, align=center},
xlabel={Sample Index\\[1ex](a) Actual},
ymin=0,
ymax=0.7,
axis background/.style={fill=white},
legend style={legend cell align=left, align=left, draw=white!15!black}
]
\addplot [color=mycolor1]
  table[row sep=crcr]{%
1	0.0234657806037261\\
2	0.0272334504034075\\
3	0.0326864300765018\\
4	0.0414541482980318\\
5	0.0586677033458464\\
6	0.117843438362983\\
7	0.159969331461504\\
8	0.174397116945152\\
9	0.616552810702634\\
10	0.0882137642931462\\
11	0.0472681903124796\\
12	0.0327587509505929\\
13	0.0272256709659274\\
14	0.0412344622245766\\
15	0.0186762848129325\\
16	0.0451940046978057\\
17	0.0153724087875252\\
18	0.0239672675363248\\
19	0.0400285717874473\\
20	0.0828333966509162\\
21	0.557624977131952\\
22	0.149414784250917\\
23	0.109138078132702\\
24	0.0381681231028791\\
25	0.032799759178118\\
26	0.191519461959093\\
27	0.0734580287558902\\
28	0.0358315656953253\\
29	0.0179563195827385\\
30	0.0169149242156914\\
31	0.0179798517146348\\
32	0.0199431506445131\\
33	0.0279225394655299\\
34	0.0908594243819801\\
35	0.0439964246924232\\
36	0.330890477505262\\
37	0.037800506563543\\
38	0.020261933748638\\
39	0.0138181229977315\\
40	0.0211497159554441\\
41	0.0112042208144458\\
42	0.00964538908702694\\
43	0.00864780826327016\\
44	0.00787736374270682\\
45	0.00720180133294831\\
46	0.00651453200193765\\
47	0.00565492088107664\\
48	0.0112814316241706\\
49	0.0075966567083061\\
50	0.0102713040739602\\
51	0.00787142060243747\\
52	0.00711780022683946\\
53	0.00668443537322835\\
54	0.00638223966522588\\
55	0.00615487020840034\\
56	0.00598242225636516\\
57	0.00586293416152974\\
58	0.00581626175933958\\
59	0.00593494184987807\\
60	0.00707647204853056\\
61	0.00861312572402681\\
62	0.00240649054353041\\
63	0.0036902508247688\\
64	0.0040125763148678\\
65	0.00408542983582614\\
66	0.00408934467211144\\
67	0.00406760360864643\\
68	0.00403657730104579\\
69	0.00400486664899167\\
70	0.00397913876457006\\
71	0.00396763365360209\\
72	0.00398577860522856\\
73	0.00407460869510253\\
74	0.00440882178496405\\
75	0.00852319154542653\\
76	0.00211982859547221\\
77	0.00279674481878385\\
78	0.00295234209521732\\
79	0.00299967450324673\\
80	0.00300734384297471\\
81	0.00299658049652506\\
82	0.00297609501762909\\
83	0.00295010695632826\\
84	0.00292089738309008\\
85	0.00288979839106794\\
86	0.00285763293534116\\
87	0.00282493110979805\\
88	0.00279204510261472\\
89	0.00275921420187501\\
90	0.00272660345813555\\
91	0.00269432766245323\\
92	0.00266246675038502\\
93	0.00263107599882434\\
94	0.00260019295165966\\
95	0.00256984222925479\\
96	0.00254003893333548\\
97	0.0025107910982644\\
98	0.00248210148178531\\
99	0.00245396889001376\\
100	0.00242638916874131\\
101	0.00239935595223708\\
102	0.00237286123354156\\
103	0.00234689580183488\\
104	0.00232144957979209\\
105	0.00229651188498403\\
106	0.00227207163310714\\
107	0.0022481174963278\\
108	0.00222463802675857\\
109	0.00220162175268604\\
110	0.00217905725339276\\
111	0.0021569332170867\\
112	0.00213523848544673\\
113	0.00211396208753109\\
114	0.00209309326520902\\
115	0.00207262149182518\\
116	0.00205253648545491\\
117	0.00203282821783402\\
118	0.00201348691983224\\
119	0.00199450308416773\\
120	0.00197586746592614\\
121	0.00195757108133911\\
122	0.0019396052051902\\
123	0.0019219613671484\\
124	0.00190463134727109\\
125	0.00188760717087541\\
126	0.00187088110293773\\
127	0.00185444564215264\\
128	0.0018382935147574\\
129	0.00182241766820821\\
130	0.00180681126477794\\
131	0.00179146767513212\\
132	0.00177638047192757\\
133	0.00176154342347035\\
134	0.00174695048746156\\
135	0.0017325958048528\\
136	0.00171847369382931\\
137	0.00170457864393352\\
138	0.0016909053103386\\
139	0.00167744850827835\\
140	0.00166420320763913\\
141	0.00165116452771496\\
142	0.00163832773212761\\
143	0.00162568822391149\\
144	0.00161324154076111\\
145	0.0016009833504405\\
146	0.00158890944635072\\
147	0.00157701574325256\\
148	0.00156529827314105\\
149	0\\
150	0\\
};
\addlegendentry{$\mathbf{h_1}$}

\addplot [color=mycolor2]
  table[row sep=crcr]{%
1	0.019775303219206\\
2	0.0210217764534023\\
3	0.0224372323963497\\
4	0.024058742711813\\
5	0.0259351263737046\\
6	0.0281320174688059\\
7	0.0307398096072034\\
8	0.0338865833958781\\
9	0.0377600935275399\\
10	0.0426472101764649\\
11	0.0490094599986528\\
12	0.0576401827385178\\
13	0.0700288298559564\\
14	0.0893407156606893\\
15	0.123700774100431\\
16	0.202175033398071\\
17	0.564479813098353\\
18	0.690442426104836\\
19	0.212260509632627\\
20	0.126132345068284\\
21	0.100380135781766\\
22	0.0378663697499036\\
23	0.0333199748773482\\
24	0.0149453064107011\\
25	0.10083899339379\\
26	0.161002397050911\\
27	0.0405118251764787\\
28	0.0383644765554957\\
29	0.0341227495803863\\
30	0.0306469105251072\\
31	0.0278570926171954\\
32	0.0255709383506331\\
33	0.0236574529195357\\
34	0.0220274984760589\\
35	0.0206190941704396\\
36	0.0193877726649002\\
37	0.0183006807256663\\
38	0.0173329207549748\\
39	0.016465211935799\\
40	0.0156823459816501\\
41	0.0149721364414517\\
42	0.0143246843629073\\
43	0.0137318527665838\\
44	0.0131868826449622\\
45	0.0126841071808284\\
46	0.0122187355837443\\
47	0.0117866872087634\\
48	0.0113844626077037\\
49	0.0110090421200206\\
50	0.0106578052804057\\
51	0\\
52	0\\
53	0\\
54	0\\
55	0\\
56	0\\
57	0\\
58	0\\
59	0\\
60	0\\
61	0\\
62	0\\
63	0\\
64	0\\
65	0\\
66	0\\
67	0\\
68	0\\
69	0\\
70	0\\
71	0\\
72	0\\
73	0\\
74	0\\
75	0\\
76	0\\
77	0\\
78	0\\
79	0\\
80	0\\
81	0\\
82	0\\
83	0\\
84	0\\
85	0\\
86	0\\
87	0\\
88	0\\
89	0\\
90	0\\
91	0\\
92	0\\
93	0\\
94	0\\
95	0\\
96	0\\
97	0\\
98	0\\
99	0\\
100	0\\
101	0\\
102	0\\
103	0\\
104	0\\
105	0\\
106	0\\
107	0\\
108	0\\
109	0\\
110	0\\
111	0\\
112	0\\
113	0\\
114	0\\
115	0\\
116	0\\
117	0\\
118	0\\
119	0\\
120	0\\
121	0\\
122	0\\
123	0\\
124	0\\
125	0\\
126	0\\
127	0\\
128	0\\
129	0\\
130	0\\
131	0\\
132	0\\
133	0\\
134	0\\
135	0\\
136	0\\
137	0\\
138	0\\
139	0\\
140	0\\
141	0\\
142	0\\
143	0\\
144	0\\
145	0\\
146	0\\
147	0\\
148	0\\
149	0\\
150	0\\
};
\addlegendentry{$\mathbf{h_{2}}$}

\end{axis}

\begin{axis}[%
width=1.935in,
height=3.2in,
at={(3.327in,0.512in)},
scale only axis,
xmin=0,
xmax=300,
xlabel style={font=\color{white!15!black}, align=center},
xlabel={Sample Index\\[1ex](b) Estimated},
ymin=0,
ymax=1,
axis background/.style={fill=white},
legend style={legend cell align=left, align=left, draw=white!15!black}
]
\addplot [color=mycolor1]
  table[row sep=crcr]{%
0	0.00119030392660119\\
1	0.00127510089708814\\
2	0.00109196176700773\\
3	0.00105450590585229\\
4	0.0016269026044908\\
5	0.00124055824526337\\
6	0.00128794470159812\\
7	0.000861562800918879\\
8	0.00110776649814527\\
9	0.00124445214683072\\
10	0.000770647748538984\\
11	0.00056824952196658\\
12	0.00102642516019515\\
13	0.00125837301202149\\
14	0.000629518287219366\\
15	0.000661441918187963\\
16	0.000768571595348923\\
17	0.000863164503401728\\
18	0.000547405012181054\\
19	0.00114241120735355\\
20	0.000792780429661141\\
21	0.000934059083900617\\
22	0.00127305833031285\\
23	0.00100380667770688\\
24	0.000959055396459183\\
25	0.00079650982349932\\
26	0.000866179249932155\\
27	0.000871426910212004\\
28	0.000547474205669745\\
29	0.000595986278859617\\
30	0.000907113042730726\\
31	0.000969576829759792\\
32	0.000731123156970664\\
33	0.00107413146841212\\
34	0.00118746226430928\\
35	0.00116186463812537\\
36	0.00132731677795213\\
37	0.00134341773915\\
38	0.00158872777973624\\
39	0.00115192350208245\\
40	0.00176576619719194\\
41	0.00149137029621602\\
42	0.00146052973735602\\
43	0.00118785406192208\\
44	0.00154614921492506\\
45	0.000998815281124913\\
46	0.00114656462657847\\
47	0.00175696845995518\\
48	0.00121531764311847\\
49	0.00123596064989588\\
50	0.000989375104432519\\
51	0.00173860135324895\\
52	0.00145463619663768\\
53	0.00191540531151269\\
54	0.00187872733015049\\
55	0.00206164281219567\\
56	0.00174475823945863\\
57	0.00210033456566299\\
58	0.00265300094765645\\
59	0.00176655120867988\\
60	0.00292337699846961\\
61	0.00229242031319071\\
62	0.00163992645817682\\
63	0.00157658639229359\\
64	0.00254676776973525\\
65	0.00201037152495128\\
66	0.00153795151635023\\
67	0.00216470364078044\\
68	0.00260737066158302\\
69	0.00312508559327609\\
70	0.00225404850500387\\
71	0.00423661021874371\\
72	0.00316970760387495\\
73	0.00272843320586727\\
74	0.00465229544308532\\
75	0.00402436475132237\\
76	0.00335005082748314\\
77	0.00387552276511785\\
78	0.00347121153670548\\
79	0.00424352899337333\\
80	0.00280089887059503\\
81	0.00249825459914471\\
82	0.0049181763052706\\
83	0.00270811099887877\\
84	0.00300291203544107\\
85	0.00605251558270598\\
86	0.00517044175689701\\
87	0.00659309878843027\\
88	0.00854201569000613\\
89	0.00292989583748935\\
90	0.00734613694908205\\
91	0.00575813798888523\\
92	0.00965455512844482\\
93	0.00835203249062021\\
94	0.00653541396042882\\
95	0.00849535223578347\\
96	0.012117789134786\\
97	0.0022238856955916\\
98	0.00699741074740713\\
99	0.0225193189771635\\
100	0.00146652503597761\\
101	0.013170081923513\\
102	0.000694054164697134\\
103	0.00943054491877888\\
104	0.00804643758033169\\
105	0.00978325577874012\\
106	0.0154572393904464\\
107	0.013775369588328\\
108	0.0182369888223005\\
109	0.0222570926481783\\
110	0.0175059133213685\\
111	0.0196328075947706\\
112	0.0363220577238893\\
113	0.0363968031239108\\
114	0.0282667998000091\\
115	0.0212478568924468\\
116	0.0330818168258236\\
117	0.0147968810301767\\
118	0.0167450964624607\\
119	0.0242118532694718\\
120	0.0242612304243481\\
121	0.00726916782643268\\
122	0.0187695109796809\\
123	0.0417903550239721\\
124	0.0157639597363342\\
125	0.0529599574133238\\
126	0.129662934466661\\
127	0.046736772797165\\
128	0.0441800682750492\\
129	0.0752231778729873\\
130	0.0208484931173558\\
131	0.0350153391856363\\
132	0.0980331860759074\\
133	0.0461058520831353\\
134	0.0395445613954599\\
135	0.0478359252573462\\
136	0.0513830414994209\\
137	0.043701288875082\\
138	0.133880427999056\\
139	0.0464137638755455\\
140	0.454636371812042\\
141	0.378453719105983\\
142	0.101830507212173\\
143	0.111429238245744\\
144	0.0285418969821157\\
145	0.0856215412053407\\
146	0.0420527809110541\\
147	0.0531584996289293\\
148	0.0406136876548135\\
149	0.104722878414002\\
150	0.116080009137857\\
151	0.137415346538654\\
152	0.232566250266802\\
153	0.442878839124523\\
154	0.193718840978969\\
155	0.111423284700184\\
156	0.0775761160048091\\
157	0.0980920874445778\\
158	0.112913464011507\\
159	0.102666543168631\\
160	0.0445667212641457\\
161	0.0502050858197746\\
162	0.0532504149563437\\
163	0.0436905286644223\\
164	0.041395689464299\\
165	0.134689656752891\\
166	0.0953730637112399\\
167	0.258684035667458\\
168	0.0983784300174174\\
169	0.0440825704993338\\
170	0.070727038719038\\
171	0.0265074487520097\\
172	0.0145099651213728\\
173	0.0377889587835884\\
174	0.0280534151642088\\
175	0.0310360939224988\\
176	0.0109673299277964\\
177	0.0475658357923779\\
178	0.0407609986210891\\
179	0.085055655807984\\
180	0.0540558473008984\\
181	0.00238951127814908\\
182	0.040838626996175\\
183	0.0117620103652948\\
184	0.0161015923905829\\
185	0.0166025355310586\\
186	0.00605992039658433\\
187	0.00849426148472779\\
188	0.0109374553109688\\
189	0.00576634926922579\\
190	0.0133783103941359\\
191	0.00721529671559339\\
192	0.0402782301460039\\
193	0.00968473675534427\\
194	0.0146828025769012\\
195	0.00899471309738036\\
196	0.0122490693728591\\
197	0.0102921096406356\\
198	0.00154443947410001\\
199	0.00614626094259814\\
200	0.00780869963139334\\
201	0.00724638900735746\\
202	0.00556615408680179\\
203	0.00161008405074093\\
204	0.0139220634125529\\
205	0.00741353902662645\\
206	0.00879989517442344\\
207	0.00731409095971657\\
208	0.00528932015600214\\
209	0.00952109844649923\\
210	0.00454060118285467\\
211	0.00638472745015578\\
212	0.00569520071971654\\
213	0.00112548748701267\\
214	0.00107249157334702\\
215	0.00302923870852869\\
216	0.00408589163194416\\
217	0.00390709546705865\\
218	0.00120458818965349\\
219	0.00623198327191302\\
220	0.00138729290619946\\
221	0.00493700146184865\\
222	0.00160793192083507\\
223	0.00246087738516195\\
224	0.00242372818894116\\
225	0.00226213740795049\\
226	0.00100724287548401\\
227	0.000870079107211784\\
228	0.00273315556996048\\
229	0.00328901535336684\\
230	0.000739737183425874\\
231	0.00106884549431407\\
232	0.00265530085219483\\
233	0.00179971515144512\\
234	0.00053128519843422\\
235	0.00071896173798762\\
236	0.00259248307878753\\
237	0.000641323563607001\\
238	0.00165326999523721\\
239	0.00143428355895829\\
240	0.000583366139153744\\
241	0.00110043654857892\\
242	0.00161221981102938\\
243	0.00181138789617293\\
244	0.000340288337020856\\
245	0.00151853723721993\\
246	0.0015185830717355\\
247	0.00144708340523891\\
248	0.000202440676468232\\
249	0.0017150947972871\\
250	0.000888024420790956\\
251	0.000544624006928251\\
252	0.00105678438917566\\
253	0.00102647205511743\\
254	0.00034999826558727\\
255	0.000276942616248181\\
256	0.000991915138979334\\
257	0.000183684408712334\\
258	0.000503530468808069\\
259	0.000400537717369898\\
260	0.000984276540968676\\
261	6.44035189916401e-05\\
262	0.000610172554562587\\
263	0.000818258899079129\\
264	0.000620517673582733\\
265	0.00058609182058473\\
266	0.000623858737912121\\
267	0.000328363434207364\\
268	0.000444310302303131\\
269	0.000410325366235343\\
270	7.7257052906366e-05\\
271	5.20026676542499e-05\\
272	0.000272020129943862\\
273	0.00046326176332148\\
274	0.000212891235167813\\
275	0.000456682035049281\\
276	0.00056839352142272\\
277	0.00033962278201538\\
278	0.0010508940001531\\
279	0.00131964063379688\\
280	0.00208261656428833\\
281	0.00162303632765384\\
282	0.000592102189462736\\
283	0.000746188252805993\\
284	0.00138091807053215\\
285	0.0012342447828579\\
286	0.000498104709590007\\
287	0.00125352448540645\\
288	0.000774498520687761\\
289	0.000543964446259523\\
290	0.00101106138812225\\
291	0.000819813672105528\\
292	0.00126033249721545\\
293	0.000653555386411634\\
294	0.00123561976886622\\
295	0.00070774334054189\\
296	0.00116471367083941\\
297	0.000732235670726099\\
298	0.000338466992799028\\
299	0.000692959246920221\\
};
\addlegendentry{$\mathbf{\hat{h}_{1}}$}

\addplot [color=mycolor2]
  table[row sep=crcr]{%
0	0.000751786309786183\\
1	0.00090819320416962\\
2	0.000742331978161288\\
3	0.00113041050440616\\
4	0.000989574651196903\\
5	0.000521895023466763\\
6	0.00119527325048735\\
7	0.00119388648405854\\
8	0.000716932341235692\\
9	0.00123621286217932\\
10	0.00126422373034509\\
11	0.00125049620375253\\
12	0.00125521693163512\\
13	0.00125884147185721\\
14	0.00123215889392383\\
15	0.00123397401582372\\
16	0.00139908753302045\\
17	0.00124656245256752\\
18	0.00136028056916142\\
19	0.00124383594876205\\
20	0.00146052692389757\\
21	0.00124933244537858\\
22	0.00164000967642859\\
23	0.00177309021980724\\
24	0.00151146769431256\\
25	0.00161523072716428\\
26	0.00167190313080014\\
27	0.001659230932866\\
28	0.00143519659016363\\
29	0.00179369743486855\\
30	0.00166245695003151\\
31	0.00154647734166529\\
32	0.00177442293741546\\
33	0.00193005899366948\\
34	0.00167885397428486\\
35	0.0017856280218092\\
36	0.00211335026161909\\
37	0.00194193279892865\\
38	0.00178774843486399\\
39	0.00220693882727144\\
40	0.00221676344571958\\
41	0.00159257902455011\\
42	0.00221811089797254\\
43	0.00226954298154526\\
44	0.00190672799292698\\
45	0.001788698889361\\
46	0.00242212386755608\\
47	0.00229709488213357\\
48	0.0019014056775582\\
49	0.00221568374608886\\
50	0.00247289333294071\\
51	0.00193739079502881\\
52	0.00210141266031925\\
53	0.00293364475074286\\
54	0.00202392965492769\\
55	0.00191538451562503\\
56	0.002916308292597\\
57	0.00232176353720047\\
58	0.00160224125989127\\
59	0.0021811460405934\\
60	0.00287015232123054\\
61	0.00223056931606389\\
62	0.00181648241735538\\
63	0.00240027317888441\\
64	0.00263443670585051\\
65	0.00224745052963708\\
66	0.00280049795965528\\
67	0.00285598966185637\\
68	0.00228454928462995\\
69	0.00331891371054092\\
70	0.00410388859054074\\
71	0.00254974134864683\\
72	0.00247252861160004\\
73	0.0036881897907208\\
74	0.0029901012285769\\
75	0.00279461574444823\\
76	0.00214738098976068\\
77	0.00332391280057621\\
78	0.00469482885990559\\
79	0.00159447547518634\\
80	0.00361899792557883\\
81	0.00416524817881703\\
82	0.00133859170695872\\
83	0.00387010291804581\\
84	0.00305025513462324\\
85	0.00294813901949321\\
86	0.00340295207849904\\
87	0.0040092323385237\\
88	0.00565959930095666\\
89	0.00273046680990814\\
90	0.00131273838552675\\
91	0.00476623028795867\\
92	0.00547831629022464\\
93	0.00327044392786046\\
94	0.00628137156755698\\
95	0.00984301184395427\\
96	0.00119837124133262\\
97	0.00913544431311582\\
98	0.00730184571569096\\
99	0.00681459318576789\\
100	0.00318164188788885\\
101	0.00446902930407235\\
102	0.00545595872837687\\
103	0.00315699496045511\\
104	0.0053982320020136\\
105	0.0128528136681231\\
106	0.00344986119987116\\
107	0.0139743403860908\\
108	0.0248196980331478\\
109	0.0177007378070029\\
110	0.0204642209298564\\
111	0.00968854861298343\\
112	0.0185430746138312\\
113	0.0119028830776359\\
114	0.00965092820041761\\
115	0.00928251667853602\\
116	0.0136388398021176\\
117	0.0163020466111221\\
118	0.00994155667780358\\
119	0.00339284614872197\\
120	0.0320015001792196\\
121	0.0169195552135913\\
122	0.0651685944985257\\
123	0.0158252819816955\\
124	0.0442316261378641\\
125	0.0218900884176377\\
126	0.00845859384740501\\
127	0.0023210636537642\\
128	0.00410704722091191\\
129	0.0104818134107991\\
130	0.0127887446583055\\
131	0.0134272228663544\\
132	0.0366121178908944\\
133	0.0347538572570304\\
134	0.0677533892310587\\
135	0.0302178717460759\\
136	0.0528282460265987\\
137	0.15681196886273\\
138	0.0365679697847507\\
139	0.0328508646613966\\
140	0.0135707930252751\\
141	0.0566723933112783\\
142	0.023369909527269\\
143	0.0314053912942719\\
144	0.0177545845041035\\
145	0.0277934052196989\\
146	0.034374804193901\\
147	0.0438966136090286\\
148	0.0456073670229799\\
149	0.936097444487384\\
150	0.0456116869169117\\
151	0.0439007613652833\\
152	0.0343693820460076\\
153	0.0277965308812855\\
154	0.0177547671672359\\
155	0.0314080493073061\\
156	0.0233760091685297\\
157	0.0566674044685231\\
158	0.0135798087885586\\
159	0.0328502958464154\\
160	0.0365698795798819\\
161	0.15681431709102\\
162	0.0528343326589538\\
163	0.0302275321566981\\
164	0.0677504335672687\\
165	0.0347506702210878\\
166	0.0366119566859101\\
167	0.0134205756153833\\
168	0.0127834339092295\\
169	0.0104818314746557\\
170	0.00410653634663571\\
171	0.00231890130536293\\
172	0.0084646161565228\\
173	0.0218947531937168\\
174	0.0442357737184574\\
175	0.0158280790339491\\
176	0.0651652170560591\\
177	0.0169249688832878\\
178	0.0319973594554178\\
179	0.00338924316065363\\
180	0.00992975714603441\\
181	0.0162921364398295\\
182	0.0136278047112912\\
183	0.00926816279888981\\
184	0.00963664937087897\\
185	0.011891594999412\\
186	0.0185274950836938\\
187	0.00967367639158347\\
188	0.0204768910273129\\
189	0.0176902755245501\\
190	0.0248134502247117\\
191	0.0139817109245466\\
192	0.00345459789646271\\
193	0.0128498626923094\\
194	0.00541118806664236\\
195	0.00317237581136378\\
196	0.00544572394203465\\
197	0.0044614362273552\\
198	0.00319013177337628\\
199	0.00680444626869205\\
200	0.00728333169986297\\
201	0.00915365725748427\\
202	0.00120416201215558\\
203	0.0098305302213378\\
204	0.00627495278416934\\
205	0.00328833229620341\\
206	0.00547430547044471\\
207	0.0047769704100989\\
208	0.00130794061454207\\
209	0.00272670948700233\\
210	0.00566566159983059\\
211	0.00403289889941306\\
212	0.00342179592493968\\
213	0.00293305612920355\\
214	0.00307205191475109\\
215	0.00388705579029251\\
216	0.00133234599885587\\
217	0.00414781720444263\\
218	0.00364329258834108\\
219	0.00158225007477887\\
220	0.00469446976227239\\
221	0.00333268585267759\\
222	0.00214449417240657\\
223	0.00277946604157332\\
224	0.00300077847249236\\
225	0.00370290994785979\\
226	0.00246596414263992\\
227	0.00256686956859062\\
228	0.00411579908235288\\
229	0.00333014562549172\\
230	0.00228025328163495\\
231	0.00287962195710536\\
232	0.00282371474504313\\
233	0.00225998974050773\\
234	0.00265260711592546\\
235	0.00243435344718496\\
236	0.00183156924015478\\
237	0.00225848472756289\\
238	0.00291704673238629\\
239	0.00218031258345718\\
240	0.00161858643812439\\
241	0.00236917678708188\\
242	0.00292735821330875\\
243	0.00193284343566444\\
244	0.00206135886112835\\
245	0.00295901269397256\\
246	0.00211338616568552\\
247	0.00195332458438817\\
248	0.00249400140099757\\
249	0.00227428909424693\\
250	0.00190479414570733\\
251	0.0023291581846345\\
252	0.00246092037765903\\
253	0.00181097793671559\\
254	0.00197957555844805\\
255	0.00231515436470372\\
256	0.00221776604981641\\
257	0.00165096252527126\\
258	0.00232118977886064\\
259	0.00228306203474551\\
260	0.00185158027440913\\
261	0.00200696369286658\\
262	0.00222563419226868\\
263	0.00186710049097618\\
264	0.00173681942708121\\
265	0.00206074866174546\\
266	0.0018735757570243\\
267	0.00164640363245567\\
268	0.00180241130780877\\
269	0.0019344676376509\\
270	0.0015712561616305\\
271	0.00182521985004655\\
272	0.0018109583488814\\
273	0.00177591844509917\\
274	0.00163520213417239\\
275	0.00194281105534558\\
276	0.00195846736721712\\
277	0.0014872464807255\\
278	0.00142649900047687\\
279	0.00149578647423252\\
280	0.00168080983394147\\
281	0.00140817780534169\\
282	0.00180117863875233\\
283	0.00116229272431292\\
284	0.00149622231763669\\
285	0.00172095231822724\\
286	0.00126142417617403\\
287	0.00129930520955945\\
288	0.00121855007069673\\
289	0.00118642856482088\\
290	0.00164227582012556\\
291	0.000964162061642986\\
292	0.000805098291184477\\
293	0.00126244731982425\\
294	0.000860870239780633\\
295	0.000597009166159975\\
296	0.00100327284452686\\
297	0.000745107598833075\\
298	0.000567778311314816\\
299	0.000575596474911999\\
};
\addlegendentry{$\mathbf{\hat{h}_{2}}$}

\end{axis}
\end{tikzpicture}%