% This file was created by matlab2tikz.
%
%The latest updates can be retrieved from
%  http://www.mathworks.com/matlabcentral/fileexchange/22022-matlab2tikz-matlab2tikz
%where you can also make suggestions and rate matlab2tikz.
%
\definecolor{mycolor1}{rgb}{0.00000,0.44700,0.74100}%
\definecolor{mycolor2}{rgb}{0.85000,0.32500,0.09800}%
%
\begin{tikzpicture}

\begin{axis}[%
width=1.935in,
height=3.2in,
at={(0.758in,0.512in)},
scale only axis,
xmin=0,
xmax=150,
xlabel style={font=\color{white!15!black}, align=center},
xlabel={Sample Index\\[1ex](a) Actual},
ymin=0,
ymax=0.7,
axis background/.style={fill=white},
legend style={legend cell align=left, align=left, draw=white!15!black}
]
\addplot [color=mycolor1]
  table[row sep=crcr]{%
1	0.0234657806037261\\
2	0.0272334504034075\\
3	0.0326864300765018\\
4	0.0414541482980318\\
5	0.0586677033458464\\
6	0.117843438362983\\
7	0.159969331461504\\
8	0.174397116945152\\
9	0.616552810702634\\
10	0.0882137642931462\\
11	0.0472681903124796\\
12	0.0327587509505929\\
13	0.0272256709659274\\
14	0.0412344622245766\\
15	0.0186762848129325\\
16	0.0451940046978057\\
17	0.0153724087875252\\
18	0.0239672675363248\\
19	0.0400285717874473\\
20	0.0828333966509162\\
21	0.557624977131952\\
22	0.149414784250917\\
23	0.109138078132702\\
24	0.0381681231028791\\
25	0.032799759178118\\
26	0.191519461959093\\
27	0.0734580287558902\\
28	0.0358315656953253\\
29	0.0179563195827385\\
30	0.0169149242156914\\
31	0.0179798517146348\\
32	0.0199431506445131\\
33	0.0279225394655299\\
34	0.0908594243819801\\
35	0.0439964246924232\\
36	0.330890477505262\\
37	0.037800506563543\\
38	0.020261933748638\\
39	0.0138181229977315\\
40	0.0211497159554441\\
41	0.0112042208144458\\
42	0.00964538908702694\\
43	0.00864780826327016\\
44	0.00787736374270682\\
45	0.00720180133294831\\
46	0.00651453200193765\\
47	0.00565492088107664\\
48	0.0112814316241706\\
49	0.0075966567083061\\
50	0.0102713040739602\\
51	0.00787142060243747\\
52	0.00711780022683946\\
53	0.00668443537322835\\
54	0.00638223966522588\\
55	0.00615487020840034\\
56	0.00598242225636516\\
57	0.00586293416152974\\
58	0.00581626175933958\\
59	0.00593494184987807\\
60	0.00707647204853056\\
61	0.00861312572402681\\
62	0.00240649054353041\\
63	0.0036902508247688\\
64	0.0040125763148678\\
65	0.00408542983582614\\
66	0.00408934467211144\\
67	0.00406760360864643\\
68	0.00403657730104579\\
69	0.00400486664899167\\
70	0.00397913876457006\\
71	0.00396763365360209\\
72	0.00398577860522856\\
73	0.00407460869510253\\
74	0.00440882178496405\\
75	0.00852319154542653\\
76	0.00211982859547221\\
77	0.00279674481878385\\
78	0.00295234209521732\\
79	0.00299967450324673\\
80	0.00300734384297471\\
81	0.00299658049652506\\
82	0.00297609501762909\\
83	0.00295010695632826\\
84	0.00292089738309008\\
85	0.00288979839106794\\
86	0.00285763293534116\\
87	0.00282493110979805\\
88	0.00279204510261472\\
89	0.00275921420187501\\
90	0.00272660345813555\\
91	0.00269432766245323\\
92	0.00266246675038502\\
93	0.00263107599882434\\
94	0.00260019295165966\\
95	0.00256984222925479\\
96	0.00254003893333548\\
97	0.0025107910982644\\
98	0.00248210148178531\\
99	0.00245396889001376\\
100	0.00242638916874131\\
101	0.00239935595223708\\
102	0.00237286123354156\\
103	0.00234689580183488\\
104	0.00232144957979209\\
105	0.00229651188498403\\
106	0.00227207163310714\\
107	0.0022481174963278\\
108	0.00222463802675857\\
109	0.00220162175268604\\
110	0.00217905725339276\\
111	0.0021569332170867\\
112	0.00213523848544673\\
113	0.00211396208753109\\
114	0.00209309326520902\\
115	0.00207262149182518\\
116	0.00205253648545491\\
117	0.00203282821783402\\
118	0.00201348691983224\\
119	0.00199450308416773\\
120	0.00197586746592614\\
121	0.00195757108133911\\
122	0.0019396052051902\\
123	0.0019219613671484\\
124	0.00190463134727109\\
125	0.00188760717087541\\
126	0.00187088110293773\\
127	0.00185444564215264\\
128	0.0018382935147574\\
129	0.00182241766820821\\
130	0.00180681126477794\\
131	0.00179146767513212\\
132	0.00177638047192757\\
133	0.00176154342347035\\
134	0.00174695048746156\\
135	0.0017325958048528\\
136	0.00171847369382931\\
137	0.00170457864393352\\
138	0.0016909053103386\\
139	0.00167744850827835\\
140	0.00166420320763913\\
141	0.00165116452771496\\
142	0.00163832773212761\\
143	0.00162568822391149\\
144	0.00161324154076111\\
145	0.0016009833504405\\
146	0.00158890944635072\\
147	0.00157701574325256\\
148	0.00156529827314105\\
149	0\\
150	0\\
};
\addlegendentry{$\mathbf{h_1}$}

\addplot [color=mycolor2]
  table[row sep=crcr]{%
1	0.019775303219206\\
2	0.0210217764534023\\
3	0.0224372323963497\\
4	0.024058742711813\\
5	0.0259351263737046\\
6	0.0281320174688059\\
7	0.0307398096072034\\
8	0.0338865833958781\\
9	0.0377600935275399\\
10	0.0426472101764649\\
11	0.0490094599986528\\
12	0.0576401827385178\\
13	0.0700288298559564\\
14	0.0893407156606893\\
15	0.123700774100431\\
16	0.202175033398071\\
17	0.564479813098353\\
18	0.690442426104836\\
19	0.212260509632627\\
20	0.126132345068284\\
21	0.100380135781766\\
22	0.0378663697499036\\
23	0.0333199748773482\\
24	0.0149453064107011\\
25	0.10083899339379\\
26	0.161002397050911\\
27	0.0405118251764787\\
28	0.0383644765554957\\
29	0.0341227495803863\\
30	0.0306469105251072\\
31	0.0278570926171954\\
32	0.0255709383506331\\
33	0.0236574529195357\\
34	0.0220274984760589\\
35	0.0206190941704396\\
36	0.0193877726649002\\
37	0.0183006807256663\\
38	0.0173329207549748\\
39	0.016465211935799\\
40	0.0156823459816501\\
41	0.0149721364414517\\
42	0.0143246843629073\\
43	0.0137318527665838\\
44	0.0131868826449622\\
45	0.0126841071808284\\
46	0.0122187355837443\\
47	0.0117866872087634\\
48	0.0113844626077037\\
49	0.0110090421200206\\
50	0.0106578052804057\\
51	0\\
52	0\\
53	0\\
54	0\\
55	0\\
56	0\\
57	0\\
58	0\\
59	0\\
60	0\\
61	0\\
62	0\\
63	0\\
64	0\\
65	0\\
66	0\\
67	0\\
68	0\\
69	0\\
70	0\\
71	0\\
72	0\\
73	0\\
74	0\\
75	0\\
76	0\\
77	0\\
78	0\\
79	0\\
80	0\\
81	0\\
82	0\\
83	0\\
84	0\\
85	0\\
86	0\\
87	0\\
88	0\\
89	0\\
90	0\\
91	0\\
92	0\\
93	0\\
94	0\\
95	0\\
96	0\\
97	0\\
98	0\\
99	0\\
100	0\\
101	0\\
102	0\\
103	0\\
104	0\\
105	0\\
106	0\\
107	0\\
108	0\\
109	0\\
110	0\\
111	0\\
112	0\\
113	0\\
114	0\\
115	0\\
116	0\\
117	0\\
118	0\\
119	0\\
120	0\\
121	0\\
122	0\\
123	0\\
124	0\\
125	0\\
126	0\\
127	0\\
128	0\\
129	0\\
130	0\\
131	0\\
132	0\\
133	0\\
134	0\\
135	0\\
136	0\\
137	0\\
138	0\\
139	0\\
140	0\\
141	0\\
142	0\\
143	0\\
144	0\\
145	0\\
146	0\\
147	0\\
148	0\\
149	0\\
150	0\\
};
\addlegendentry{$\mathbf{h_{2}}$}

\end{axis}

\begin{axis}[%
width=1.935in,
height=3.2in,
at={(3.327in,0.512in)},
scale only axis,
xmin=0,
xmax=150,
xlabel style={font=\color{white!15!black}, align=center},
xlabel={Sample Index\\[1ex](b) Estimated},
ymin=0,
ymax=0.6,
axis background/.style={fill=white},
legend style={legend cell align=left, align=left, draw=white!15!black}
]
\addplot [color=mycolor1]
  table[row sep=crcr]{%
0	0.0143345335378047\\
1	0.0211023996403692\\
2	0.0218153563742832\\
3	0.0272421562373022\\
4	0.0377502766190212\\
5	0.0745253498348075\\
6	0.0840481876816734\\
7	0.137401919730474\\
8	0.454210775261742\\
9	0.212403886651033\\
10	0.38907755809253\\
11	0.0500686537782657\\
12	0.0224063478834813\\
13	0.0223950795333067\\
14	0.0221052614436236\\
15	0.0238413539504332\\
16	0.0224976618774745\\
17	0.00997192382817249\\
18	0.0272749779208198\\
19	0.0447602973592463\\
20	0.32797848788173\\
21	0.28858363305624\\
22	0.434937842925083\\
23	0.127807329888053\\
24	0.0607029609118784\\
25	0.0903773451343912\\
26	0.0931961120964327\\
27	0.152543388827863\\
28	0.046252200363351\\
29	0.00816677746750562\\
30	0.0236622528012594\\
31	0.0145383695837147\\
32	0.0194800324961183\\
33	0.0431699200380474\\
34	0.0374904318253238\\
35	0.228568898846937\\
36	0.120538575733645\\
37	0.197886398110028\\
38	0.0167806021947311\\
39	0.0126187565156178\\
40	0.014717327567011\\
41	0.00814812125965565\\
42	0.00527747465660154\\
43	0.00572123884733594\\
44	0.00731759510250812\\
45	0.00469894593897118\\
46	0.00301434724621884\\
47	0.00301263881731285\\
48	0.00788977883104802\\
49	0.010112928225481\\
50	0.00263402494328733\\
51	0.00872957518504318\\
52	0.00547469640388263\\
53	0.00477251071258322\\
54	0.00495767614905897\\
55	0.00488498382076379\\
56	0.00444592644052753\\
57	0.00477311731827517\\
58	0.00509905010952715\\
59	0.00599867754694712\\
60	0.000565145713268846\\
61	0.00264690332843334\\
62	0.00472722499593002\\
63	0.004720265744344\\
64	0.00320635995810803\\
65	0.00340562447848346\\
66	0.00314489241435626\\
67	0.00303584626781809\\
68	0.00333228895445787\\
69	0.00305369674482929\\
70	0.00293991366049115\\
71	0.00308616774387598\\
72	0.00313782950832348\\
73	0.00320761846601955\\
74	0.00494854115790098\\
75	0.00468106738558119\\
76	0.00427866500382781\\
77	0.00213714684485381\\
78	0.00223695643903667\\
79	0.00237027244100356\\
80	0.00225865892994132\\
81	0.00228266652388385\\
82	0.00229099303893924\\
83	0.00226924666431623\\
84	0.00221347838406013\\
85	0.00221000277946671\\
86	0.00220185364229508\\
87	0.00217478755793693\\
88	0.00210542312543497\\
89	0.00208850842897189\\
90	0.00213852160044036\\
91	0.00204700175786901\\
92	0.00202655449089659\\
93	0.00201810091711709\\
94	0.00197219060486295\\
95	0.001970981410325\\
96	0.00195829648318075\\
97	0.0019167587721645\\
98	0.0018819511372628\\
99	0.00188870241691534\\
100	0.00186083121095004\\
101	0.00183180725241085\\
102	0.00180911994145035\\
103	0.00179555004799297\\
104	0.00178179119191329\\
105	0.00175578740038457\\
106	0.00173489019002778\\
107	0.00172354788997965\\
108	0.00170819370551464\\
109	0.00166885625193333\\
110	0.00167007951730749\\
111	0.00166537821656343\\
112	0.00162846781201294\\
113	0.00160918710377397\\
114	0.00159714912885098\\
115	0.00159948853069906\\
116	0.00157108073801214\\
117	0.0015471950857758\\
118	0.00154249833353178\\
119	0.00152088847633386\\
120	0.00151716925257827\\
121	0.00150236042857749\\
122	0.00148061640777567\\
123	0.00147217051399422\\
124	0.00145964939522259\\
125	0.00144032534416606\\
126	0.00142817737532141\\
127	0.00142982276116922\\
128	0.0014063093401529\\
129	0.00139050485492415\\
130	0.00137979265980078\\
131	0.00137076451926624\\
132	0.0013654263835396\\
133	0.00135187575674311\\
134	0.00133453121978363\\
135	0.0013217833382319\\
136	0.00131315525487872\\
137	0.00130528967857809\\
138	0.00129644556042607\\
139	0.00129069066238309\\
140	0.00127336250920956\\
141	0.0012562847154758\\
142	0.00125373235626141\\
143	0.00124765034816244\\
144	0.00123636194448618\\
145	0.00122453096975828\\
146	0.00121132963729547\\
147	0.00120524230165695\\
148	0.00128286679882356\\
149	0.000974041899179851\\
};
\addlegendentry{$\mathbf{\hat{h}_{1}}$}

\addplot [color=mycolor2]
  table[row sep=crcr]{%
0	0.0127555808590787\\
1	0.0176440523232488\\
2	0.0170716671936599\\
3	0.0182497073842608\\
4	0.0195560101583269\\
5	0.0211689667760116\\
6	0.0229935991581921\\
7	0.0251423555464568\\
8	0.0278053712390742\\
9	0.0311499281600088\\
10	0.0353701055772683\\
11	0.0409776894296189\\
12	0.0489078323311128\\
13	0.0610030437116452\\
14	0.0817819198754071\\
15	0.128335213374485\\
16	0.347687468485115\\
17	0.562503869339817\\
18	0.518884316855762\\
19	0.438332302588898\\
20	0.131392425440715\\
21	0.0880222155882833\\
22	0.0600962850166254\\
23	0.0237099452063177\\
24	0.0711004955930711\\
25	0.092945438600087\\
26	0.0920793724729192\\
27	0.0756774629883972\\
28	0.0383292498196064\\
29	0.0279037739092616\\
30	0.0302404052017239\\
31	0.0232772951427983\\
32	0.0155969589587572\\
33	0.022330137021141\\
34	0.0192510439498682\\
35	0.0151366663919425\\
36	0.0172222624337924\\
37	0.0143298190401938\\
38	0.0140855745000477\\
39	0.0133045960874759\\
40	0.0128695280831027\\
41	0.0122592094688444\\
42	0.0114828086942894\\
43	0.0110840597426535\\
44	0.0109150174159451\\
45	0.0101502371054919\\
46	0.00984178735934921\\
47	0.009718152922353\\
48	0.00913223652223819\\
49	0.00889188370163611\\
50	0.00935515384588355\\
51	0.00698979458962992\\
52	2.05841714696041e-05\\
53	2.96215533702998e-05\\
54	0.000102167709903727\\
55	8.52326220918144e-05\\
56	0.000132124550706644\\
57	0.000146452194129565\\
58	0.000114508838773075\\
59	0.000102502809583784\\
60	9.21613653357737e-05\\
61	5.39357758349108e-05\\
62	6.31613697012565e-05\\
63	1.44641304049494e-05\\
64	2.35028726120701e-05\\
65	1.4771376684542e-05\\
66	1.74269377067572e-05\\
67	2.30342591929648e-05\\
68	1.54339616731703e-05\\
69	5.36988821618885e-05\\
70	1.69697969287838e-05\\
71	7.83433520148135e-05\\
72	5.75443969914024e-05\\
73	2.81386921374721e-05\\
74	3.24434372127426e-05\\
75	3.46674420369387e-05\\
76	1.68527817778439e-05\\
77	2.84545176300855e-06\\
78	7.88872990891998e-06\\
79	9.50245597754658e-06\\
80	4.31319642335496e-06\\
81	5.10328362103037e-06\\
82	3.29248564889538e-06\\
83	3.83613486645419e-06\\
84	1.83642922569046e-06\\
85	1.2656103008357e-06\\
86	4.39578257078013e-06\\
87	4.3481245406363e-06\\
88	1.15498883194583e-06\\
89	4.61141748631571e-06\\
90	5.25911436341025e-06\\
91	1.9981470742092e-06\\
92	5.03115897776006e-06\\
93	5.32953810008527e-06\\
94	3.49310913683559e-06\\
95	1.63158943476301e-06\\
96	8.9108247414817e-06\\
97	6.41556216790448e-06\\
98	6.37972092808368e-06\\
99	8.9957038142222e-06\\
100	7.39709775728268e-06\\
101	4.46972677171823e-06\\
102	2.77064812515534e-06\\
103	9.37015083631457e-06\\
104	9.47981954781433e-06\\
105	1.80364028058054e-05\\
106	1.09933452519801e-05\\
107	1.14566207081272e-05\\
108	1.15303000475586e-05\\
109	4.06711482193032e-06\\
110	5.94250701635375e-06\\
111	4.17283873659501e-06\\
112	8.94631714134796e-06\\
113	6.71337298150412e-06\\
114	4.97191774082314e-06\\
115	4.75759317742436e-06\\
116	8.92234656043592e-06\\
117	6.18442842813014e-06\\
118	1.23356303098078e-05\\
119	4.41430676159927e-06\\
120	8.1955219952032e-06\\
121	1.18294605366138e-06\\
122	1.03028642720711e-05\\
123	1.11821364452018e-05\\
124	6.86776986173624e-06\\
125	4.06215560786856e-06\\
126	4.88176996218545e-06\\
127	1.54861518143612e-06\\
128	3.23730930029675e-06\\
129	3.41500684993441e-06\\
130	7.5712863486278e-06\\
131	4.63783539066773e-06\\
132	6.12957914864482e-06\\
133	1.95835832724458e-06\\
134	1.54211791264947e-06\\
135	6.39891646943992e-06\\
136	4.25759395564473e-06\\
137	5.10757808194472e-06\\
138	1.94344913327498e-06\\
139	4.9839549055648e-06\\
140	3.89937299409377e-06\\
141	4.73385178677022e-06\\
142	7.53415417523367e-06\\
143	9.16391772023838e-06\\
144	9.43142164632649e-06\\
145	1.47569087215516e-05\\
146	3.66758198217919e-06\\
147	5.75817143405615e-06\\
148	6.65866881497995e-06\\
149	4.10443652255913e-06\\
};
\addlegendentry{$\mathbf{\hat{h}_{2}}$}

\end{axis}
\end{tikzpicture}%