% This file was created by matlab2tikz.
%
%The latest updates can be retrieved from
%  http://www.mathworks.com/matlabcentral/fileexchange/22022-matlab2tikz-matlab2tikz
%where you can also make suggestions and rate matlab2tikz.
%
\definecolor{mycolor1}{rgb}{0.00000,0.44700,0.74100}%
\definecolor{mycolor2}{rgb}{0.85000,0.32500,0.09800}%
%
\begin{tikzpicture}

\begin{axis}[%
width=1.935in,
height=3.2in,
at={(0.758in,0.512in)},
scale only axis,
xmin=0,
xmax=150,
xlabel style={font=\color{white!15!black}, align=center},
xlabel={Sample Index\\[1ex](a) Actual},
ymin=0,
ymax=0.7,
axis background/.style={fill=white},
legend style={legend cell align=left, align=left, draw=white!15!black}
]
\addplot [color=mycolor1]
  table[row sep=crcr]{%
1	0.0234657806037261\\
2	0.0272334504034075\\
3	0.0326864300765018\\
4	0.0414541482980318\\
5	0.0586677033458464\\
6	0.117843438362983\\
7	0.159969331461504\\
8	0.174397116945152\\
9	0.616552810702634\\
10	0.0882137642931462\\
11	0.0472681903124796\\
12	0.0327587509505929\\
13	0.0272256709659274\\
14	0.0412344622245766\\
15	0.0186762848129325\\
16	0.0451940046978057\\
17	0.0153724087875252\\
18	0.0239672675363248\\
19	0.0400285717874473\\
20	0.0828333966509162\\
21	0.557624977131952\\
22	0.149414784250917\\
23	0.109138078132702\\
24	0.0381681231028791\\
25	0.032799759178118\\
26	0.191519461959093\\
27	0.0734580287558902\\
28	0.0358315656953253\\
29	0.0179563195827385\\
30	0.0169149242156914\\
31	0.0179798517146348\\
32	0.0199431506445131\\
33	0.0279225394655299\\
34	0.0908594243819801\\
35	0.0439964246924232\\
36	0.330890477505262\\
37	0.037800506563543\\
38	0.020261933748638\\
39	0.0138181229977315\\
40	0.0211497159554441\\
41	0.0112042208144458\\
42	0.00964538908702694\\
43	0.00864780826327016\\
44	0.00787736374270682\\
45	0.00720180133294831\\
46	0.00651453200193765\\
47	0.00565492088107664\\
48	0.0112814316241706\\
49	0.0075966567083061\\
50	0.0102713040739602\\
51	0.00787142060243747\\
52	0.00711780022683946\\
53	0.00668443537322835\\
54	0.00638223966522588\\
55	0.00615487020840034\\
56	0.00598242225636516\\
57	0.00586293416152974\\
58	0.00581626175933958\\
59	0.00593494184987807\\
60	0.00707647204853056\\
61	0.00861312572402681\\
62	0.00240649054353041\\
63	0.0036902508247688\\
64	0.0040125763148678\\
65	0.00408542983582614\\
66	0.00408934467211144\\
67	0.00406760360864643\\
68	0.00403657730104579\\
69	0.00400486664899167\\
70	0.00397913876457006\\
71	0.00396763365360209\\
72	0.00398577860522856\\
73	0.00407460869510253\\
74	0.00440882178496405\\
75	0.00852319154542653\\
76	0.00211982859547221\\
77	0.00279674481878385\\
78	0.00295234209521732\\
79	0.00299967450324673\\
80	0.00300734384297471\\
81	0.00299658049652506\\
82	0.00297609501762909\\
83	0.00295010695632826\\
84	0.00292089738309008\\
85	0.00288979839106794\\
86	0.00285763293534116\\
87	0.00282493110979805\\
88	0.00279204510261472\\
89	0.00275921420187501\\
90	0.00272660345813555\\
91	0.00269432766245323\\
92	0.00266246675038502\\
93	0.00263107599882434\\
94	0.00260019295165966\\
95	0.00256984222925479\\
96	0.00254003893333548\\
97	0.0025107910982644\\
98	0.00248210148178531\\
99	0.00245396889001376\\
100	0.00242638916874131\\
101	0.00239935595223708\\
102	0.00237286123354156\\
103	0.00234689580183488\\
104	0.00232144957979209\\
105	0.00229651188498403\\
106	0.00227207163310714\\
107	0.0022481174963278\\
108	0.00222463802675857\\
109	0.00220162175268604\\
110	0.00217905725339276\\
111	0.0021569332170867\\
112	0.00213523848544673\\
113	0.00211396208753109\\
114	0.00209309326520902\\
115	0.00207262149182518\\
116	0.00205253648545491\\
117	0.00203282821783402\\
118	0.00201348691983224\\
119	0.00199450308416773\\
120	0.00197586746592614\\
121	0.00195757108133911\\
122	0.0019396052051902\\
123	0.0019219613671484\\
124	0.00190463134727109\\
125	0.00188760717087541\\
126	0.00187088110293773\\
127	0.00185444564215264\\
128	0.0018382935147574\\
129	0.00182241766820821\\
130	0.00180681126477794\\
131	0.00179146767513212\\
132	0.00177638047192757\\
133	0.00176154342347035\\
134	0.00174695048746156\\
135	0.0017325958048528\\
136	0.00171847369382931\\
137	0.00170457864393352\\
138	0.0016909053103386\\
139	0.00167744850827835\\
140	0.00166420320763913\\
141	0.00165116452771496\\
142	0.00163832773212761\\
143	0.00162568822391149\\
144	0.00161324154076111\\
145	0.0016009833504405\\
146	0.00158890944635072\\
147	0.00157701574325256\\
148	0.00156529827314105\\
149	0\\
150	0\\
};
\addlegendentry{$\mathbf{h_1}$}

\addplot [color=mycolor2]
  table[row sep=crcr]{%
1	0.019775303219206\\
2	0.0210217764534023\\
3	0.0224372323963497\\
4	0.024058742711813\\
5	0.0259351263737046\\
6	0.0281320174688059\\
7	0.0307398096072034\\
8	0.0338865833958781\\
9	0.0377600935275399\\
10	0.0426472101764649\\
11	0.0490094599986528\\
12	0.0576401827385178\\
13	0.0700288298559564\\
14	0.0893407156606893\\
15	0.123700774100431\\
16	0.202175033398071\\
17	0.564479813098353\\
18	0.690442426104836\\
19	0.212260509632627\\
20	0.126132345068284\\
21	0.100380135781766\\
22	0.0378663697499036\\
23	0.0333199748773482\\
24	0.0149453064107011\\
25	0.10083899339379\\
26	0.161002397050911\\
27	0.0405118251764787\\
28	0.0383644765554957\\
29	0.0341227495803863\\
30	0.0306469105251072\\
31	0.0278570926171954\\
32	0.0255709383506331\\
33	0.0236574529195357\\
34	0.0220274984760589\\
35	0.0206190941704396\\
36	0.0193877726649002\\
37	0.0183006807256663\\
38	0.0173329207549748\\
39	0.016465211935799\\
40	0.0156823459816501\\
41	0.0149721364414517\\
42	0.0143246843629073\\
43	0.0137318527665838\\
44	0.0131868826449622\\
45	0.0126841071808284\\
46	0.0122187355837443\\
47	0.0117866872087634\\
48	0.0113844626077037\\
49	0.0110090421200206\\
50	0.0106578052804057\\
51	0\\
52	0\\
53	0\\
54	0\\
55	0\\
56	0\\
57	0\\
58	0\\
59	0\\
60	0\\
61	0\\
62	0\\
63	0\\
64	0\\
65	0\\
66	0\\
67	0\\
68	0\\
69	0\\
70	0\\
71	0\\
72	0\\
73	0\\
74	0\\
75	0\\
76	0\\
77	0\\
78	0\\
79	0\\
80	0\\
81	0\\
82	0\\
83	0\\
84	0\\
85	0\\
86	0\\
87	0\\
88	0\\
89	0\\
90	0\\
91	0\\
92	0\\
93	0\\
94	0\\
95	0\\
96	0\\
97	0\\
98	0\\
99	0\\
100	0\\
101	0\\
102	0\\
103	0\\
104	0\\
105	0\\
106	0\\
107	0\\
108	0\\
109	0\\
110	0\\
111	0\\
112	0\\
113	0\\
114	0\\
115	0\\
116	0\\
117	0\\
118	0\\
119	0\\
120	0\\
121	0\\
122	0\\
123	0\\
124	0\\
125	0\\
126	0\\
127	0\\
128	0\\
129	0\\
130	0\\
131	0\\
132	0\\
133	0\\
134	0\\
135	0\\
136	0\\
137	0\\
138	0\\
139	0\\
140	0\\
141	0\\
142	0\\
143	0\\
144	0\\
145	0\\
146	0\\
147	0\\
148	0\\
149	0\\
150	0\\
};
\addlegendentry{$\mathbf{h_{2}}$}

\end{axis}

\begin{axis}[%
width=1.935in,
height=3.2in,
at={(3.327in,0.512in)},
scale only axis,
xmin=0,
xmax=150,
xlabel style={font=\color{white!15!black}, align=center},
xlabel={Sample Index\\[1ex](b) Estimated},
ymin=0,
ymax=1,
axis background/.style={fill=white},
legend style={legend cell align=left, align=left, draw=white!15!black}
]
\addplot [color=mycolor1]
  table[row sep=crcr]{%
0	0.00308787975364764\\
1	0.0012043519385592\\
2	0.00312982494695766\\
3	0.00130338478879143\\
4	0.00149184250636303\\
5	0.00109319903253835\\
6	0.00176883914352705\\
7	0.00208507992110564\\
8	0.00082583946233165\\
9	0.00225372163525681\\
10	0.00148522233467503\\
11	0.00144314339572049\\
12	0.00332886307888729\\
13	0.00196924972437554\\
14	0.00106369365414603\\
15	0.000941369639696087\\
16	0.00197187250054205\\
17	0.00131088384550906\\
18	0.00141479472947544\\
19	0.0015319682135265\\
20	0.00107709365328225\\
21	0.00192534309268631\\
22	0.00165809660736356\\
23	0.00104331081283351\\
24	0.00242714457176409\\
25	0.00159750924771003\\
26	0.00276458977443546\\
27	0.00201981007532839\\
28	0.0024789461878582\\
29	0.00602336573082648\\
30	0.00176155398193465\\
31	0.00551457308203801\\
32	0.00271735544505808\\
33	0.00967524568469245\\
34	0.00893440240984118\\
35	0.009439503635849\\
36	0.00557039258430133\\
37	0.0125330729199914\\
38	0.0152572218772332\\
39	0.0162249740011236\\
40	0.0116155703607096\\
41	0.0134049927395292\\
42	0.0102211500024055\\
43	0.0150111695696111\\
44	0.0105614063650865\\
45	0.0187807758406105\\
46	0.014238528679778\\
47	0.0177416129372835\\
48	0.019502014431244\\
49	0.0188704725818066\\
50	0.0249719131432065\\
51	0.0508358453253525\\
52	0.0249369957579358\\
53	0.00775629698831339\\
54	0.0392214430073143\\
55	0.00667105170719686\\
56	0.0300889389116155\\
57	0.124186929067722\\
58	0.0508097202499177\\
59	0.0395388041732506\\
60	0.0391931392950791\\
61	0.0271254614705573\\
62	0.0528094034104625\\
63	0.159617108526745\\
64	0.0346328945554103\\
65	0.476859219551815\\
66	0.394650940418109\\
67	0.1143092124105\\
68	0.0786963346978662\\
69	0.0474723440075016\\
70	0.117736207326746\\
71	0.0333099064122774\\
72	0.0533255763819593\\
73	0.00559778184565227\\
74	0.0751161524248562\\
75	0.0802857967526685\\
76	0.110507824058529\\
77	0.261662973444857\\
78	0.469459874146955\\
79	0.180302027267627\\
80	0.062117477511191\\
81	0.0747109381067712\\
82	0.115127511418208\\
83	0.0964956128767555\\
84	0.11516241883164\\
85	0.0263336029366902\\
86	0.0335295658668262\\
87	0.0321211542605378\\
88	0.0217926967336403\\
89	0.040543621076033\\
90	0.0826978344925657\\
91	0.110661168647683\\
92	0.284404410911007\\
93	0.110428015609583\\
94	0.0429185951286696\\
95	0.0421103083141204\\
96	0.01992750838972\\
97	0.0030724933472547\\
98	0.0166363812940074\\
99	0.0167318218767216\\
100	0.02259727949078\\
101	0.00838914002765492\\
102	0.0138169384129356\\
103	0.020318855762599\\
104	0.0351020469340436\\
105	0.0202135129799373\\
106	0.00791955581130132\\
107	0.016201506048959\\
108	0.00866884247592166\\
109	0.00473895636956411\\
110	0.00548895223862976\\
111	0.00348981287529587\\
112	0.0034364642422536\\
113	0.00163345002398082\\
114	0.00187437554448429\\
115	0.000582100953220431\\
116	0.00247429186846511\\
117	0.0118724153799409\\
118	0.00716456890228302\\
119	0.00530154758862581\\
120	0.00423025689420671\\
121	0.00129651309010458\\
122	0.00115962546605259\\
123	0.000605100786391141\\
124	0.00105364306309219\\
125	0.00173139368589934\\
126	0.00184265501563853\\
127	0.000930185662629482\\
128	0.0033792792255218\\
129	0.00135692490689898\\
130	0.00276085607894132\\
131	0.00376618698473447\\
132	0.00468128310128895\\
133	0.00191865705927603\\
134	0.00187611450252508\\
135	0.000577700051145187\\
136	0.00213683580591218\\
137	0.00116775504516659\\
138	0.000304714432132177\\
139	0.00113034174112008\\
140	0.0021484372029953\\
141	0.00323840728621721\\
142	0.000434618179511092\\
143	0.00161184710529443\\
144	0.00171676067590304\\
145	0.00083975020324441\\
146	0.00187036769776371\\
147	0.00180810266853738\\
148	0.000972443799190046\\
149	0.00238950787793626\\
};
\addlegendentry{$\mathbf{\hat{h}_{1}}$}

\addplot [color=mycolor2]
  table[row sep=crcr]{%
0	0.000591809078119122\\
1	0.000284889993452073\\
2	0.000896726577722431\\
3	0.00117394060447573\\
4	0.000342850978010482\\
5	0.000563253060254536\\
6	0.000964341324519774\\
7	0.000281441086777511\\
8	0.00131862077687591\\
9	0.000396243450755146\\
10	0.000341350060700394\\
11	0.000639717744040896\\
12	0.00040394684623652\\
13	0.000247073957383554\\
14	9.36469790996724e-05\\
15	0.000392639230561679\\
16	0.000448573816186816\\
17	0.00089178898285984\\
18	0.000741510772814827\\
19	0.00118322418611379\\
20	0.000852192048014795\\
21	0.000660858200843035\\
22	0.00179877181118133\\
23	0.00106852224705674\\
24	0.00109789023907272\\
25	0.00108438982516148\\
26	0.000562916836679217\\
27	0.00120667409508658\\
28	0.00016614132653952\\
29	0.000724634031893186\\
30	0.00196706842817969\\
31	0.000856069864631457\\
32	0.00259231260024103\\
33	0.00434984043315949\\
34	0.00283419248023133\\
35	0.00404022239527131\\
36	0.0018140401471991\\
37	0.00363080629595019\\
38	0.00252569838550774\\
39	0.00173685537100199\\
40	0.00363192790897969\\
41	0.00373847491027288\\
42	0.00544074120949038\\
43	0.00393548947615074\\
44	0.00517075997701014\\
45	0.0125027983680185\\
46	0.00913341560961974\\
47	0.0372922493225273\\
48	0.00944020863291267\\
49	0.015597317253122\\
50	0.00893083473558526\\
51	0.0064387155477195\\
52	0.00312580896503011\\
53	0.00540132568547016\\
54	0.00687657656144581\\
55	0.00939291635928858\\
56	0.00710058884940617\\
57	0.0209705580899298\\
58	0.0135205714107182\\
59	0.0399983354623757\\
60	0.0247301181406514\\
61	0.0306036636031913\\
62	0.0731003617019954\\
63	0.0141017570837482\\
64	0.0180109629404154\\
65	0.00697112980071504\\
66	0.0062396117505593\\
67	0.011490359156911\\
68	0.0110601286423378\\
69	0.0119733352509885\\
70	0.0100087361819471\\
71	0.0178219464682663\\
72	0.0253099610335167\\
73	0.0226442717729371\\
74	0.985696676394435\\
75	0.022647756467075\\
76	0.0253074347800506\\
77	0.0178180128793584\\
78	0.0100075356441416\\
79	0.01197289297055\\
80	0.0110618586046295\\
81	0.0114851114246411\\
82	0.00624238321640951\\
83	0.00697545842606976\\
84	0.0180122171057731\\
85	0.0140971491944587\\
86	0.0731019551069883\\
87	0.0306000485055653\\
88	0.0247280354866075\\
89	0.0399931839199388\\
90	0.0135204739212115\\
91	0.0209643452947541\\
92	0.00708889064330874\\
93	0.0093947906556941\\
94	0.00686514684045945\\
95	0.00540491525146986\\
96	0.00311707344264952\\
97	0.00643629642737872\\
98	0.00892293416212885\\
99	0.015595002770453\\
100	0.00942841520784408\\
101	0.0372803764580752\\
102	0.00913192698773711\\
103	0.0124931484284173\\
104	0.00517523744837659\\
105	0.00393388937665742\\
106	0.00542763560751102\\
107	0.00373683725583099\\
108	0.00361637128652103\\
109	0.00172191205958913\\
110	0.00253458935875696\\
111	0.00363725874928419\\
112	0.00183182074064105\\
113	0.00405708411832037\\
114	0.00284584566594442\\
115	0.00436469315177931\\
116	0.00260050460950439\\
117	0.000867025268071127\\
118	0.00200376869127262\\
119	0.00071088767743615\\
120	0.000176352243922735\\
121	0.00118611155074651\\
122	0.000560417486705572\\
123	0.00108806503591421\\
124	0.00109858212684705\\
125	0.00105961664950712\\
126	0.00179803279365745\\
127	0.000675298803329628\\
128	0.000858398281667796\\
129	0.00118004002357108\\
130	0.000760281356147853\\
131	0.000901361994137568\\
132	0.000440867388152982\\
133	0.000405924584805633\\
134	0.000107780958561396\\
135	0.000216452502867698\\
136	0.000422766575910687\\
137	0.000638712479197112\\
138	0.000353314704630858\\
139	0.000396977661471047\\
140	0.00125911217906008\\
141	0.000240997693764337\\
142	0.000930379672164058\\
143	0.000568099533434579\\
144	0.000355388505329373\\
145	0.00115305991331149\\
146	0.000932342129416544\\
147	0.000261708944058262\\
148	0.000576683712970186\\
149	0.000199568997333232\\
};
\addlegendentry{$\mathbf{\hat{h}_{2}}$}

\end{axis}
\end{tikzpicture}%