% This file was created by matlab2tikz.
%
%The latest updates can be retrieved from
%  http://www.mathworks.com/matlabcentral/fileexchange/22022-matlab2tikz-matlab2tikz
%where you can also make suggestions and rate matlab2tikz.
%
\definecolor{mycolor1}{rgb}{0.00000,0.44700,0.74100}%
\definecolor{mycolor2}{rgb}{0.85000,0.32500,0.09800}%
%
\begin{tikzpicture}

\begin{axis}[%
width=1.935in,
height=3.2in,
at={(0.758in,0.512in)},
scale only axis,
xmin=0,
xmax=200,
xlabel style={font=\color{white!15!black}, align=center},
xlabel={Sample Index\\[1ex](a) Actual},
ymin=0,
ymax=1,
axis background/.style={fill=white},
legend style={legend cell align=left, align=left, draw=white!15!black}
]
\addplot [color=mycolor1]
  table[row sep=crcr]{%
1	0.0167418731260698\\
2	0.018659722218203\\
3	0.0211495716349754\\
4	0.0245407494314006\\
5	0.029505643974117\\
6	0.0377161636169434\\
7	0.0550750576238134\\
8	0.131028403455825\\
9	0.141533477104454\\
10	0.158175166246243\\
11	0.163761757297189\\
12	0.600100605556833\\
13	0.118033417583129\\
14	0.0610914209628117\\
15	0.0426162246246858\\
16	0.0332715711707656\\
17	0.0321939439283243\\
18	0.0268871008873183\\
19	0.0316920608120786\\
20	0.0286771919664519\\
21	0.00773119825769845\\
22	0.0330073087209196\\
23	0.019415059292473\\
24	0.0177688778425817\\
25	0.0188194600762088\\
26	0.0237714798713867\\
27	0.0430806655948836\\
28	0.586023006720236\\
29	0.0970905103802927\\
30	0.0246981078960262\\
31	0.0780346253424249\\
32	0.0580455436901626\\
33	0.0681836526256362\\
34	0.163824852865525\\
35	0.0446106828365612\\
36	0.06119675966513\\
37	0.00907835157153909\\
38	0.0310093774848825\\
39	0.00125972832884384\\
40	0.005422098150711\\
41	0.0107374596162295\\
42	0.0165479326643041\\
43	0.024789327411243\\
44	0.0446277431282512\\
45	0.058019450740893\\
46	0.074843365423057\\
47	0.199666615467323\\
48	0.216838516027539\\
49	0.0783890355452335\\
50	0.0495529240878659\\
51	0.0370791446049236\\
52	0.0307530810094058\\
53	0.0155757068681131\\
54	0.0198807977432187\\
55	0.0179871495341263\\
56	0.0162887905400521\\
57	0.0148728268904216\\
58	0.0136909847461918\\
59	0.0126943671543235\\
60	0.011846112844806\\
61	0.0111233301448608\\
62	0.0105291449791113\\
63	0.0102108676347222\\
64	0.00751288118280402\\
65	0.00739035992869396\\
66	0.0116365722557393\\
67	0.00899390796280924\\
68	0.00831157148096884\\
69	0.00788086875151191\\
70	0.00754217236777393\\
71	0.00725475830161164\\
72	0.00700327644843893\\
73	0.006780818536885\\
74	0.00658453626015097\\
75	0.00641472878078445\\
76	0.00627599401250467\\
77	0.00618216997550965\\
78	0.00617516728867787\\
79	0.00642745729543014\\
80	0.00873051939586948\\
81	0.00471465923588381\\
82	0.00195996010568866\\
83	0.004980313957114\\
84	0.00475839614864904\\
85	0.00464733241660508\\
86	0.00455444244400457\\
87	0.00446749239384432\\
88	0.00438406292262191\\
89	0.00430366820355207\\
90	0.00422628355118023\\
91	0.00415201532524293\\
92	0.00408104289588831\\
93	0.00401365198230764\\
94	0.00395033763548775\\
95	0.00389203620501121\\
96	0.00384070443755282\\
97	0.00380107128140597\\
98	0.00378779867734327\\
99	0.00387836096292209\\
100	0.00228454900881806\\
101	0.00321909463290553\\
102	0.00328982387499096\\
103	0.00328100374444436\\
104	0.00325253146337885\\
105	0.00321692683031362\\
106	0.00317840637543852\\
107	0.00313876414674543\\
108	0.00309887602618152\\
109	0.00305920797263281\\
110	0.00302002111537278\\
111	0.00298146552488656\\
112	0.00294362726599965\\
113	0.0029065537719176\\
114	0.00287026833389302\\
115	0.00283477876811283\\
116	0.00280008280049957\\
117	0.00276617151884636\\
118	0.00273303164395387\\
119	0.00270064705586787\\
120	0.00266899983729428\\
121	0.00263807099659409\\
122	0.00260784097374635\\
123	0.00257828999668392\\
124	0.00254939833288439\\
125	0.00252114646667125\\
126	0.00249351522323938\\
127	0.00246648585412356\\
128	0.00244004009455901\\
129	0.00241416020024051\\
130	0.00238882896892876\\
131	0.0023640297508985\\
132	0.00233974645117835\\
133	0.00231596352577768\\
134	0.00229266597354371\\
135	0.00226983932488367\\
136	0.00224746962828519\\
137	0.00222554343533969\\
138	0.00220404778480324\\
139	0.00218297018609978\\
140	0.00216229860257188\\
141	0.00214202143470905\\
142	0.00212212750352594\\
143	0.00210260603421662\\
144	0.00208344664017788\\
145	0.00206463930746792\\
146	0.00204617437974413\\
147	0.00202804254371082\\
148	0.00201023481509265\\
149	0.00199274252514179\\
150	0.00197555730767936\\
151	0.0019586710866655\\
152	0.00194207606428942\\
153	0.00192576470956709\\
154	0.00190972974743187\\
155	0.00189396414830307\\
156	0.00187846111811499\\
157	0.00186321408878906\\
158	0.00184821670913216\\
159	0.00183346283614256\\
160	0.00181894652670628\\
161	0.00180466202966742\\
162	0.00179060377825436\\
163	0.00177676638284649\\
164	0.00176314462406556\\
165	0.00174973344617591\\
166	0.0017365279507797\\
167	0.00172352339079259\\
168	0.00171071516468654\\
169	0.00169809881098722\\
170	0.00168567000301325\\
171	0.00167342454384613\\
172	0.00166135836151948\\
173	0.00164946750441694\\
174	0.00163774813686889\\
175	0.00162619653493841\\
176	0.00161480908238697\\
177	0.00160358226681213\\
178	0.001592512675948\\
179	0.00158159699412143\\
180	0.00157083199885632\\
181	0.00156021455761888\\
182	0.00154974162469766\\
183	0.00153941023821136\\
184	0.00152921751723897\\
185	0.00151916065906659\\
186	0.00150923693654504\\
187	0.00149944369555362\\
188	0.00148977835256491\\
189	0.00148023839230615\\
190	0.0014708213655126\\
191	0.00146152488676917\\
192	0.00145234663243548\\
193	0.00144328433865201\\
194	0.00143433579942216\\
195	0.0014254988647679\\
196	0.00141677143895562\\
197	0.00140815147878894\\
198	0.00139963699196521\\
199	0\\
200	0\\
};
\addlegendentry{$\mathbf{h_1}$}

\addplot [color=mycolor2]
  table[row sep=crcr]{%
1	0.00495033386861547\\
2	0.00515738368500011\\
3	0.00538309861623286\\
4	0.00563019833310769\\
5	0.00590197136255583\\
6	0.00620243506959928\\
7	0.00653655369620811\\
8	0.00691054090538825\\
9	0.00733228812251618\\
10	0.00781198494389501\\
11	0.00836304134465097\\
12	0.0090034999823859\\
13	0.00975827527656913\\
14	0.0106628508662167\\
15	0.0117696896019869\\
16	0.0131600228416925\\
17	0.0149671880151623\\
18	0.0174273921400842\\
19	0.0210049332363351\\
20	0.0267613442180004\\
21	0.037792597580649\\
22	0.068721841139076\\
23	0.97572931769219\\
24	0.0649085399616321\\
25	0.0262918397391367\\
26	0.0126468169615953\\
27	0.00419508123086451\\
28	0.0214241856295046\\
29	0.0134643328328179\\
30	0.00412679327935559\\
31	0.0112712342656943\\
32	0.0282552508318709\\
33	0.111702725947746\\
34	0.12653020104749\\
35	0.0361926668223949\\
36	0.024130019396178\\
37	0.019518168382204\\
38	0.0163235660243771\\
39	0.0140849625225472\\
40	0.0124312948441269\\
41	0.0111552918846637\\
42	0.0101369616841952\\
43	0.00930266674553233\\
44	0.00860476970863487\\
45	0.00801105372801389\\
46	0.00749890841387189\\
47	0.00705196472677567\\
48	0.00665805661850076\\
49	0.0063079366485928\\
50	0.00599443852440938\\
51	0.00571191453485358\\
52	0.00545584764793091\\
53	0.0052225778141873\\
54	0.00500910486747672\\
55	0.00481294397681212\\
56	0.00463201789166602\\
57	0.00446457542356871\\
58	0.00430912894812168\\
59	0.00416440590497024\\
60	0.00402931074167137\\
61	0.00390289474814389\\
62	0.00378433192171684\\
63	0.00367289949042518\\
64	0.0035679620699816\\
65	0.00346895868109233\\
66	0.00337539203747226\\
67	0.00328681965070268\\
68	0.00320284639950925\\
69	0\\
70	0\\
71	0\\
72	0\\
73	0\\
74	0\\
75	0\\
76	0\\
77	0\\
78	0\\
79	0\\
80	0\\
81	0\\
82	0\\
83	0\\
84	0\\
85	0\\
86	0\\
87	0\\
88	0\\
89	0\\
90	0\\
91	0\\
92	0\\
93	0\\
94	0\\
95	0\\
96	0\\
97	0\\
98	0\\
99	0\\
100	0\\
101	0\\
102	0\\
103	0\\
104	0\\
105	0\\
106	0\\
107	0\\
108	0\\
109	0\\
110	0\\
111	0\\
112	0\\
113	0\\
114	0\\
115	0\\
116	0\\
117	0\\
118	0\\
119	0\\
120	0\\
121	0\\
122	0\\
123	0\\
124	0\\
125	0\\
126	0\\
127	0\\
128	0\\
129	0\\
130	0\\
131	0\\
132	0\\
133	0\\
134	0\\
135	0\\
136	0\\
137	0\\
138	0\\
139	0\\
140	0\\
141	0\\
142	0\\
143	0\\
144	0\\
145	0\\
146	0\\
147	0\\
148	0\\
149	0\\
150	0\\
151	0\\
152	0\\
153	0\\
154	0\\
155	0\\
156	0\\
157	0\\
158	0\\
159	0\\
160	0\\
161	0\\
162	0\\
163	0\\
164	0\\
165	0\\
166	0\\
167	0\\
168	0\\
169	0\\
170	0\\
171	0\\
172	0\\
173	0\\
174	0\\
175	0\\
176	0\\
177	0\\
178	0\\
179	0\\
180	0\\
181	0\\
182	0\\
183	0\\
184	0\\
185	0\\
186	0\\
187	0\\
188	0\\
189	0\\
190	0\\
191	0\\
192	0\\
193	0\\
194	0\\
195	0\\
196	0\\
197	0\\
198	0\\
199	0\\
200	0\\
};
\addlegendentry{$\mathbf{h_{2}}$}

\end{axis}

\begin{axis}[%
width=1.935in,
height=3.2in,
at={(3.327in,0.512in)},
scale only axis,
xmin=0,
xmax=200,
xlabel style={font=\color{white!15!black}, align=center},
xlabel={Sample Index\\[1ex](b) Estimated},
ymin=0,
ymax=1,
axis background/.style={fill=white},
legend style={legend cell align=left, align=left, draw=white!15!black}
]
\addplot [color=mycolor1]
  table[row sep=crcr]{%
0	0.000799990083880098\\
1	0.0013322966670172\\
2	0.000734469216227692\\
3	0.00112807084516379\\
4	0.0023923648761792\\
5	0.00125472669498833\\
6	0.00293126557708812\\
7	0.00373934008287323\\
8	0.000965361407380491\\
9	0.00374180476175449\\
10	0.00405620769172941\\
11	0.00399776173494204\\
12	0.00174390957695485\\
13	0.00488143607527299\\
14	0.00256752251868759\\
15	0.00176571339011716\\
16	0.00173147185317083\\
17	6.06957026084884e-05\\
18	0.00556321522011925\\
19	0.00542350322467964\\
20	0.00194536837628695\\
21	0.00651247025836252\\
22	0.00357363950080507\\
23	0.00152037478841582\\
24	0.00947836320087428\\
25	0.00200811338088501\\
26	0.00846078905098054\\
27	0.0131087022981773\\
28	0.0122034977790211\\
29	0.00968950821574636\\
30	0.00527229894750394\\
31	0.00619430584854853\\
32	0.00494850068063683\\
33	0.00364535726032622\\
34	0.00526875269382078\\
35	0.00413644104794147\\
36	0.00731279848535444\\
37	0.00612783273642039\\
38	0.00493899890253759\\
39	0.00265384378793955\\
40	0.00395475388303733\\
41	0.0110041004164037\\
42	0.00838738630282375\\
43	0.00230561203615406\\
44	0.0255974861071589\\
45	0.0304597008566583\\
46	0.0118239667592731\\
47	0.0306189351519207\\
48	0.00217674079487228\\
49	0.0142128307538674\\
50	0.0122212502379186\\
51	0.00887654309540343\\
52	0.0104678076413148\\
53	0.00878092746835474\\
54	0.00813998227493888\\
55	0.00318977598043197\\
56	0.0025024897581868\\
57	0.0305500243929352\\
58	0.0206261615295149\\
59	0.00534649411897575\\
60	0.0329082823834295\\
61	0.0237811265519767\\
62	0.0195911500639333\\
63	0.0933746912333438\\
64	0.0451263696454717\\
65	0.0529259255769662\\
66	0.00742628901710355\\
67	0.0866930301437041\\
68	0.0248938210501255\\
69	0.0340015178767169\\
70	0.0308480696884571\\
71	0.0163492078170301\\
72	0.0753781774292609\\
73	0.0146006340048091\\
74	0.00802292060434848\\
75	0.0134672328074419\\
76	0.0325682149746276\\
77	0.0487615491444007\\
78	0.0849083109053977\\
79	0.153178166675561\\
80	0.0839020168231151\\
81	0.133704363276102\\
82	0.213806003794498\\
83	0.543845840376642\\
84	0.123463149124043\\
85	0.0625917968392997\\
86	0.0253609442069266\\
87	0.0386311197251337\\
88	0.0352055548389109\\
89	0.0691549765231794\\
90	0.0193065358046535\\
91	0.0278347818429734\\
92	0.023732189420924\\
93	0.0619776458145703\\
94	0.0481937488214631\\
95	0.0298834602704371\\
96	0.0535804544462903\\
97	0.080760184647229\\
98	0.070882139394087\\
99	0.558126217355419\\
100	0.139568292796905\\
101	0.0203245339573117\\
102	0.0810810057158866\\
103	0.0683667874230514\\
104	0.0773308461198126\\
105	0.155407662004932\\
106	0.0345075857911111\\
107	0.0389169468229854\\
108	0.0250910279531372\\
109	0.00863937382649019\\
110	0.0306769660487835\\
111	0.0123391328790786\\
112	0.00986538769571279\\
113	0.0137014011765014\\
114	0.02928192097335\\
115	0.124132663512452\\
116	0.0873540125696473\\
117	0.0807126472923001\\
118	0.211458049048701\\
119	0.161478313441068\\
120	0.0817251196274329\\
121	0.0566381565234154\\
122	0.00187114478575836\\
123	0.0393062416445724\\
124	0.0246182483524405\\
125	0.010037680563883\\
126	0.0139364542438782\\
127	0.0287250060026245\\
128	0.0235432800207791\\
129	0.00540370311802905\\
130	0.0261828251291426\\
131	0.0308697899560799\\
132	0.025050105149099\\
133	0.0307861558037005\\
134	0.066805184401892\\
135	0.0594054847297971\\
136	0.0289837029750413\\
137	0.0285290884412297\\
138	0.0249111871043793\\
139	0.0186199320664913\\
140	0.014490395688584\\
141	0.0213791594815369\\
142	0.00933700240898428\\
143	0.00857843969066282\\
144	0.00592402349993289\\
145	0.00619050328393621\\
146	0.0119155876637334\\
147	0.004331304945038\\
148	0.0159924095023482\\
149	0.00508214926839929\\
150	0.00737127599346182\\
151	0.028723140873471\\
152	0.0201654278277962\\
153	0.0135351271550265\\
154	0.0170712459929305\\
155	0.00428026944818377\\
156	0.00771908549639068\\
157	0.0156466560761288\\
158	0.00181803641590754\\
159	0.0100846832382197\\
160	0.00850387134809994\\
161	0.00115349037724626\\
162	0.00487979857975696\\
163	0.00526437342392099\\
164	0.0030444548688982\\
165	0.00368281232131935\\
166	0.00407356744233167\\
167	0.00928739786206141\\
168	0.00872513155417074\\
169	0.00459868165174224\\
170	0.00936438016452647\\
171	0.0056392701294255\\
172	0.0068370142828552\\
173	0.00681101341275646\\
174	0.00683386549735438\\
175	0.0043393241834837\\
176	0.00286612981394899\\
177	0.0040838986909902\\
178	0.00172737587387578\\
179	0.00508820405518837\\
180	0.00205460060009643\\
181	0.000458667647294493\\
182	0.0028074363445907\\
183	0.00179773530930953\\
184	0.00494541056115885\\
185	0.00162511148069374\\
186	0.00248517903251848\\
187	0.00482343821178177\\
188	0.00267107924879858\\
189	0.00220776544023851\\
};
\addlegendentry{$\mathbf{\hat{h}_{1}}$}

\addplot [color=mycolor2]
  table[row sep=crcr]{%
0	0.000787040190929047\\
1	0.00111783729888568\\
2	0.00210740340081369\\
3	0.00120060998431245\\
4	0.00136367051251228\\
5	0.00258155178033623\\
6	0.00136672304327302\\
7	0.001000903750571\\
8	0.00177102716322328\\
9	0.00159764939815235\\
10	0.00178818664670189\\
11	0.00278203877219868\\
12	0.00245545833262358\\
13	0.00142188375340107\\
14	0.00161689786347998\\
15	0.00150564315845867\\
16	0.00078620744095088\\
17	0.00285587176824825\\
18	0.00471549075632749\\
19	0.00145389737363693\\
20	0.00592201829507239\\
21	0.00308604893542454\\
22	0.00470804738281653\\
23	0.00364523628138357\\
24	0.00542005639463936\\
25	0.00627234326039741\\
26	0.00522970644508761\\
27	0.00320697782844881\\
28	0.00175607594379633\\
29	0.00762795562307149\\
30	0.00352951442399043\\
31	0.0031234372811547\\
32	0.00619346197230211\\
33	0.0010123270672292\\
34	0.00492100926132867\\
35	0.00726740710703972\\
36	0.00566687099913573\\
37	0.00395308949266149\\
38	0.0150191673993986\\
39	0.020306860041729\\
40	0.0115154314984437\\
41	0.0107763470555295\\
42	0.0160636727053143\\
43	0.0132665529645385\\
44	0.0104086941221946\\
45	0.0118155185945864\\
46	0.00657796570280363\\
47	0.00904184645943164\\
48	0.00514955137331353\\
49	0.00619084299157244\\
50	0.00856143856185272\\
51	0.00225658564618729\\
52	0.00869515925384019\\
53	0.00424944391057919\\
54	0.0164564986951434\\
55	0.0351860729594138\\
56	0.0313756446691056\\
57	0.00754952830234417\\
58	0.0566223404352983\\
59	0.0309359728663684\\
60	0.0279143849853874\\
61	0.0316087745482415\\
62	0.0221353053644284\\
63	0.00964491331922319\\
64	0.0143543949495533\\
65	0.00828769799676428\\
66	0.00411703043891617\\
67	0.00810493851509816\\
68	0.0200662160814393\\
69	0.00694283535479207\\
70	0.00523581806527978\\
71	0.0301815144812515\\
72	0.0313759086391634\\
73	0.0200262201250747\\
74	0.0520798854314748\\
75	0.0628761426325493\\
76	0.0457914744852843\\
77	0.0145490758077636\\
78	0.162406480502555\\
79	0.0271809211790062\\
80	0.0122673077415336\\
81	0.0309213463998117\\
82	0.0146567510843003\\
83	0.0372248356215787\\
84	0.0368101834372443\\
85	0.0274611077153284\\
86	0.0311278298577058\\
87	0.0108068392281428\\
88	0.0176521302235731\\
89	0.0243774222679166\\
90	0.0220709423002425\\
91	0.0569725844300759\\
92	0.0320189451458754\\
93	0.0133599396817999\\
94	0.935431100415837\\
95	0.0133618580652475\\
96	0.0320148606354667\\
97	0.0569730612611547\\
98	0.0220662181855933\\
99	0.0243727649687631\\
100	0.0176615951210213\\
101	0.0108080224186347\\
102	0.0311133052461545\\
103	0.0274431549610289\\
104	0.0368078878096521\\
105	0.0372485039134201\\
106	0.0146800726327631\\
107	0.0309175467285695\\
108	0.0122959126868439\\
109	0.0271923297130008\\
110	0.162419850814446\\
111	0.0145177954637959\\
112	0.0458381998959953\\
113	0.0628780692590335\\
114	0.0520902118879969\\
115	0.0200422304214496\\
116	0.0314002368347121\\
117	0.0301151075141551\\
118	0.00518922876294876\\
119	0.00695176364351816\\
120	0.0200197525157172\\
121	0.00808589382742646\\
122	0.00408088238217156\\
123	0.00824297664920173\\
124	0.0143712530408999\\
125	0.0096577208437545\\
126	0.0221200179489186\\
127	0.0316675524601679\\
128	0.0279260594377509\\
129	0.030952265407408\\
130	0.0565793488555331\\
131	0.00747253600422137\\
132	0.031231694585688\\
133	0.0351518259599626\\
134	0.016449695099534\\
135	0.0043412106527241\\
136	0.00868359695948626\\
137	0.00239627791450435\\
138	0.00863003672167607\\
139	0.00622852433109187\\
140	0.00506113373834268\\
141	0.00899917464127888\\
142	0.00662190039075175\\
143	0.0117266195214528\\
144	0.0103130609877584\\
145	0.0132588775178726\\
146	0.0160850846295616\\
147	0.0107971383141637\\
148	0.0116516231214071\\
149	0.0200681096891497\\
150	0.0151443729153235\\
151	0.00401908510332516\\
152	0.00545335988301806\\
153	0.00744157852194913\\
154	0.00507430705335118\\
155	0.00119944765870758\\
156	0.00626067995212701\\
157	0.00327826016499856\\
158	0.00366754814701935\\
159	0.00765736585403925\\
160	0.00165359067338089\\
161	0.00331499764175787\\
162	0.00499775177643349\\
163	0.00658591708542099\\
164	0.00521988892367062\\
165	0.00314377767865456\\
166	0.00412713263461765\\
167	0.00285906903582123\\
168	0.0052173702710291\\
169	0.00164486437723333\\
170	0.00408853465331846\\
171	0.00249265972320455\\
172	0.00134268722773975\\
173	0.00214572845784227\\
174	0.00199768396736501\\
175	0.00110354286663514\\
176	0.00204515316488672\\
177	0.00285219157310511\\
178	0.002673808851957\\
179	0.00159095403877682\\
180	0.0025077826815608\\
181	0.00186698904008626\\
182	0.00199611983794976\\
183	0.00322313380159266\\
184	0.00232769871459475\\
185	0.00174696127838329\\
186	0.00184698520275196\\
187	0.00150544041681396\\
188	0.00163894747799464\\
189	0.000395518076781224\\
};
\addlegendentry{$\mathbf{\hat{h}_{2}}$}

\end{axis}
\end{tikzpicture}%