% This file was created by matlab2tikz.
%
%The latest updates can be retrieved from
%  http://www.mathworks.com/matlabcentral/fileexchange/22022-matlab2tikz-matlab2tikz
%where you can also make suggestions and rate matlab2tikz.
%
\definecolor{mycolor1}{rgb}{0.00000,0.44700,0.74100}%
\definecolor{mycolor2}{rgb}{0.85000,0.32500,0.09800}%
%
\begin{tikzpicture}

\begin{axis}[%
width=1.952in,
height=3.2in,
at={(0.758in,0.512in)},
scale only axis,
xmin=0,
xmax=20,
xlabel style={font=\color{white!15!black}, align=center},
xlabel={Sample Index\\[1ex](a) Actual},
ymin=0,
ymax=0.9,
axis background/.style={fill=white},
legend style={legend cell align=left, align=left, draw=white!15!black}
]
\addplot [color=mycolor1]
  table[row sep=crcr]{%
1	0.0444337104356374\\
2	0.738127803558165\\
3	0.357839506790865\\
4	0.481268775571525\\
5	0.10955194752004\\
6	0.267783168107473\\
7	0.0769544524124665\\
8	0.0372836026936495\\
9	0.027789744685169\\
10	0.0196434178633453\\
11	0.0212138243269196\\
12	0.0147156812719569\\
13	0.0126517206023441\\
14	0.0111331007215966\\
15	0.00994473974674355\\
16	0.00898571135769806\\
17	0.00819466874468931\\
18	0.00753086667278431\\
19	0.00696589032366256\\
20	0.00647923877975415\\
};
\addlegendentry{$\mathbf{h_1}$}

\addplot [color=mycolor2]
  table[row sep=crcr]{%
1	0.0696363384444256\\
2	0.13399148454392\\
3	0.889181852408627\\
4	0.426869408918664\\
5	0.0527923084371181\\
6	0.0393468637154593\\
7	0\\
8	0\\
9	0\\
10	0\\
11	0\\
12	0\\
13	0\\
14	0\\
15	0\\
16	0\\
17	0\\
18	0\\
19	0\\
20	0\\
};
\addlegendentry{$\mathbf{h_{2}}$}

\end{axis}

\begin{axis}[%
width=1.952in,
height=3.2in,
at={(3.327in,0.512in)},
scale only axis,
xmin=0,
xmax=40,
xlabel style={font=\color{white!15!black}, align=center},
xlabel={Sample Index\\[1ex](b) Estimated},
ymin=0,
ymax=1,
axis background/.style={fill=white},
legend style={legend cell align=left, align=left, draw=white!15!black}
]
\addplot [color=mycolor1]
  table[row sep=crcr]{%
0	5.0638672166041e-05\\
1	5.28871920916376e-05\\
2	7.62053064360072e-05\\
3	6.17870287688908e-05\\
4	3.57696709767038e-05\\
5	0.000101369138228697\\
6	5.175046625892e-05\\
7	7.99437276486795e-06\\
8	4.59336638215347e-05\\
9	3.6602277261076e-05\\
10	0.000106752227842183\\
11	7.98895057683397e-05\\
12	6.90790784098278e-05\\
13	5.70362032869364e-05\\
14	0.000293231544096764\\
15	0.029932302316308\\
16	0.072018982074371\\
17	0.236377112498973\\
18	0.77904895927497\\
19	0.333890905811297\\
20	0.37596626355488\\
21	0.199979533564181\\
22	0.165675084320799\\
23	0.100715237403717\\
24	0.0265169410398225\\
25	0.00223208494941268\\
26	7.30390945351708e-05\\
27	0.000432869473993668\\
28	1.27229105304159e-05\\
29	0.000115051455787636\\
30	5.10735165150297e-05\\
31	5.1717085565097e-05\\
32	0.000133575685686394\\
33	6.85289792483721e-05\\
34	7.89666956238426e-05\\
35	2.19090139493247e-05\\
36	5.31131832016409e-05\\
37	7.21202371648533e-05\\
38	5.89565610474843e-05\\
39	3.79346876215764e-05\\
};
\addlegendentry{$\mathbf{\hat{h}_{1}}$}

\addplot [color=mycolor2]
  table[row sep=crcr]{%
0	1.93238016631035e-05\\
1	2.53259700956675e-05\\
2	3.1190768267243e-06\\
3	2.71494852948422e-05\\
4	1.34391495392939e-05\\
5	1.73819061263773e-05\\
6	1.78029306824877e-05\\
7	8.37397345071494e-06\\
8	1.92255871996946e-05\\
9	1.91157756941394e-06\\
10	0.00010833295284711\\
11	8.11894228708765e-06\\
12	0.0016172571231365\\
13	0.00444669412193688\\
14	0.0179356073103745\\
15	0.037171988082377\\
16	0.0218114887823207\\
17	0.0936689876107123\\
18	0.0553549157572931\\
19	0.985725427398487\\
20	0.0551702175482601\\
21	0.0945666142775173\\
22	0.0225882907825506\\
23	0.0381519109762381\\
24	0.0179245368548669\\
25	0.0051006429355776\\
26	0.00244458872145683\\
27	0.000147874485857407\\
28	0.0002113601003254\\
29	6.97680540113991e-06\\
30	2.75387867422616e-05\\
31	1.38789649659049e-05\\
32	1.54593506866869e-05\\
33	2.278867428216e-05\\
34	1.77970933206775e-05\\
35	2.71748981330977e-05\\
36	1.53529167880992e-06\\
37	2.6087275677058e-05\\
38	2.00222442374505e-05\\
39	3.32036073823045e-06\\
};
\addlegendentry{$\mathbf{\hat{h}_{2}}$}

\end{axis}
\end{tikzpicture}%