% This file was created by matlab2tikz.
%
%The latest updates can be retrieved from
%  http://www.mathworks.com/matlabcentral/fileexchange/22022-matlab2tikz-matlab2tikz
%where you can also make suggestions and rate matlab2tikz.
%
\definecolor{mycolor1}{rgb}{0.00000,0.44700,0.74100}%
\definecolor{mycolor2}{rgb}{0.85000,0.32500,0.09800}%
%
\begin{tikzpicture}

\begin{axis}[%
width=1.952in,
height=3.2in,
at={(0.758in,0.512in)},
scale only axis,
xmin=0,
xmax=20,
xlabel style={font=\color{white!15!black}, align=center},
xlabel={Sample Index\\[1ex](a) Actual},
ymin=0,
ymax=0.9,
axis background/.style={fill=white},
legend style={legend cell align=left, align=left, draw=white!15!black}
]
\addplot [color=mycolor1]
  table[row sep=crcr]{%
1	0.0444337104356374\\
2	0.738127803558165\\
3	0.357839506790865\\
4	0.481268775571525\\
5	0.10955194752004\\
6	0.267783168107473\\
7	0.0769544524124665\\
8	0.0372836026936495\\
9	0.027789744685169\\
10	0.0196434178633453\\
11	0.0212138243269196\\
12	0.0147156812719569\\
13	0.0126517206023441\\
14	0.0111331007215966\\
15	0.00994473974674355\\
16	0.00898571135769806\\
17	0.00819466874468931\\
18	0.00753086667278431\\
19	0.00696589032366256\\
20	0.00647923877975415\\
};
\addlegendentry{$\mathbf{h_1}$}

\addplot [color=mycolor2]
  table[row sep=crcr]{%
1	0.0696363384444256\\
2	0.13399148454392\\
3	0.889181852408627\\
4	0.426869408918664\\
5	0.0527923084371181\\
6	0.0393468637154593\\
7	0\\
8	0\\
9	0\\
10	0\\
11	0\\
12	0\\
13	0\\
14	0\\
15	0\\
16	0\\
17	0\\
18	0\\
19	0\\
20	0\\
};
\addlegendentry{$\mathbf{h_{2}}$}

\end{axis}

\begin{axis}[%
width=1.952in,
height=3.2in,
at={(3.327in,0.512in)},
scale only axis,
xmin=0,
xmax=20,
xlabel style={font=\color{white!15!black}, align=center},
xlabel={Sample Index\\[1ex](b) Estimated},
ymin=0,
ymax=0.9,
axis background/.style={fill=white},
legend style={legend cell align=left, align=left, draw=white!15!black}
]
\addplot [color=mycolor1]
  table[row sep=crcr]{%
0	0.0444513900363986\\
1	0.738375463303391\\
2	0.357267549406057\\
3	0.481606254673934\\
4	0.10892324565095\\
5	0.267478669907662\\
6	0.0769018550158225\\
7	0.0375066759376278\\
8	0.0278687685935106\\
9	0.0197157212330979\\
10	0.0211990494620395\\
11	0.0147140984521482\\
12	0.0126910875225829\\
13	0.0111254341740368\\
14	0.00995739860833777\\
15	0.00900044750228664\\
16	0.0082018868402046\\
17	0.00755567825961028\\
18	0.00695901499044922\\
19	0.00649908560184976\\
};
\addlegendentry{$\mathbf{\hat{h}_{1}}$}

\addplot [color=mycolor2]
  table[row sep=crcr]{%
0	0.0696481551640427\\
1	0.13401485560664\\
2	0.889362112741249\\
3	0.426643255606568\\
4	0.0512029724641668\\
5	0.0397234710137919\\
6	3.4490926003494e-05\\
7	9.78429677783596e-05\\
8	5.04161217997458e-05\\
9	2.18904937348609e-05\\
10	1.17913708281637e-05\\
11	6.1019989214417e-06\\
12	3.88921236110006e-05\\
13	4.75488091152027e-05\\
14	2.39279648553939e-05\\
15	3.76057993130735e-06\\
16	5.02878890965992e-06\\
17	1.19764405069602e-05\\
18	2.24145992126242e-05\\
19	1.72149518051938e-05\\
};
\addlegendentry{$\mathbf{\hat{h}_{2}}$}

\end{axis}
\end{tikzpicture}%