% This file was created by matlab2tikz.
%
%The latest updates can be retrieved from
%  http://www.mathworks.com/matlabcentral/fileexchange/22022-matlab2tikz-matlab2tikz
%where you can also make suggestions and rate matlab2tikz.
%
\definecolor{mycolor1}{rgb}{0.00000,0.44700,0.74100}%
\definecolor{mycolor2}{rgb}{0.85000,0.32500,0.09800}%
%
\begin{tikzpicture}

\begin{axis}[%
width=1.952in,
height=3.2in,
at={(0.758in,0.512in)},
scale only axis,
xmin=0,
xmax=20,
xlabel style={font=\color{white!15!black}, align=center},
xlabel={Sample Index\\[1ex](a) Actual},
ymin=0,
ymax=0.9,
axis background/.style={fill=white},
legend style={legend cell align=left, align=left, draw=white!15!black}
]
\addplot [color=mycolor1]
  table[row sep=crcr]{%
1	0.0444337104356374\\
2	0.738127803558165\\
3	0.357839506790865\\
4	0.481268775571525\\
5	0.10955194752004\\
6	0.267783168107473\\
7	0.0769544524124665\\
8	0.0372836026936495\\
9	0.027789744685169\\
10	0.0196434178633453\\
11	0.0212138243269196\\
12	0.0147156812719569\\
13	0.0126517206023441\\
14	0.0111331007215966\\
15	0.00994473974674355\\
16	0.00898571135769806\\
17	0.00819466874468931\\
18	0.00753086667278431\\
19	0.00696589032366256\\
20	0.00647923877975415\\
};
\addlegendentry{$\mathbf{h_1}$}

\addplot [color=mycolor2]
  table[row sep=crcr]{%
1	0.0696363384444256\\
2	0.13399148454392\\
3	0.889181852408627\\
4	0.426869408918664\\
5	0.0527923084371181\\
6	0.0393468637154593\\
7	0\\
8	0\\
9	0\\
10	0\\
11	0\\
12	0\\
13	0\\
14	0\\
15	0\\
16	0\\
17	0\\
18	0\\
19	0\\
20	0\\
};
\addlegendentry{$\mathbf{h_{2}}$}

\end{axis}

\begin{axis}[%
width=1.952in,
height=3.2in,
at={(3.327in,0.512in)},
scale only axis,
xmin=0,
xmax=40,
xlabel style={font=\color{white!15!black}, align=center},
xlabel={Sample Index\\[1ex](b) Estimated},
ymin=0,
ymax=0.3,
axis background/.style={fill=white},
legend style={legend cell align=left, align=left, draw=white!15!black}
]
\addplot [color=mycolor1]
  table[row sep=crcr]{%
0	0.00544818615952234\\
1	0.0951266200126645\\
2	0.0886468300658015\\
3	0.142767956053648\\
4	0.174915505228094\\
5	0.192564992780587\\
6	0.196004363056934\\
7	0.207931383144012\\
8	0.219385495775958\\
9	0.232175933499871\\
10	0.23529726442552\\
11	0.241146518654824\\
12	0.249058148768433\\
13	0.256225540665066\\
14	0.257059058645114\\
15	0.2613078804801\\
16	0.254602872701543\\
17	0.246172742563633\\
18	0.231011497298737\\
19	0.225220542931055\\
20	0.207110339396152\\
21	0.169226337174931\\
22	0.0937022303368937\\
23	0.119982313125682\\
24	0.069235457041091\\
25	0.0572132608821176\\
26	0.0322252395155175\\
27	0.0269038736259539\\
28	0.0228279458488594\\
29	0.0191636571273741\\
30	0.0166272976893781\\
31	0.0137197426886844\\
32	0.0115285275561178\\
33	0.009529308379729\\
34	0.00768818096716386\\
35	0.00595976580190077\\
36	0.00439613862334565\\
37	0.00305415232076053\\
38	0.0018568155923766\\
39	0.000775158180032688\\
};
\addlegendentry{$\mathbf{\hat{h}_{1}}$}

\addplot [color=mycolor2]
  table[row sep=crcr]{%
0	0.0155373576660922\\
1	0.0502549337846859\\
2	0.258208497404175\\
3	0.230476681165572\\
4	0.208038330873453\\
5	0.211844552420895\\
6	0.235501178214117\\
7	0.238217062855806\\
8	0.232901916165437\\
9	0.222675836120704\\
10	0.228081769239586\\
11	0.223526129713071\\
12	0.228525425440201\\
13	0.23758611804456\\
14	0.243041294384179\\
15	0.233306452508653\\
16	0.234597105837087\\
17	0.227002704354\\
18	0.207828403091569\\
19	0.180670350852289\\
20	0.174049051701684\\
21	0.145643995972618\\
22	0.0634714498629619\\
23	0.102781306597222\\
24	0.0228011802277033\\
25	0.00850855342476782\\
26	1.63955501954891e-05\\
27	2.03154208101904e-06\\
28	5.79071527479123e-06\\
29	1.37635423065299e-06\\
30	3.21899853529497e-06\\
31	1.4584082223473e-06\\
32	1.67695969435938e-06\\
33	1.37153253361278e-06\\
34	7.04153305884253e-07\\
35	6.46439625279419e-07\\
36	8.53320003334263e-07\\
37	4.95094281123769e-07\\
38	9.41852430328032e-07\\
39	2.6472306567862e-06\\
};
\addlegendentry{$\mathbf{\hat{h}_{2}}$}

\end{axis}
\end{tikzpicture}%