\begin{tikzpicture}[
roundnode/.style={circle, draw=black, very thick, minimum size=7mm},
squarednode/.style={rectangle, draw=black, very thick, minimum size=10mm},
]
%Nodes
%\node[squarednode]      (maintopic)                              {2};
%\node[roundnode]        (uppercircle)       [above=of maintopic] {1};
%\node[squarednode]      (rightsquare)       [right=of maintopic] {3};
%\node[roundnode]        (lowercircle)       [below=of maintopic] {4};

%Lines
%\draw[->] (uppercircle.south) -- (maintopic.north);
%\draw[->] (maintopic.east) -- (rightsquare.west);
%\draw[->] (rightsquare.south) .. controls +(down:7mm) and +(right:7mm) .. (lowercircle.east);

%Nodes
\node[]			(nd_0)					 {};
\node[]	    		(nd_1)		[above=of nd_0]		 {};
\node[]	     		(nd_2)		[above=of nd_1]		 {};
\node[]	    		(nd_3)		[above=of nd_2]		 {};
\node[]	     		(nd_4)		[above=of nd_3]		 {};
\node[]	     		(nd_-1)		[below=of nd_0]		 {};
\node[]	     		(nd_-2)		[below=of nd_-1]	 {};
\node[]	     		(nd_-3)		[below=of nd_-2]	 {};
\node[]	     		(nd_-4)		[below=of nd_-3]	 {};
\node[]	     		(nd_d)		[right=of nd_0]		 {$\vdots$};
\node[]	     		(input)		[left=of nd_0]  	 {$s(n)$};
\node[squarednode]	(ir_1)		[right=of nd_3]		 {$h_1(n)$};
\node[squarednode]	(ir_2)		[right=of nd_1]		 {$h_2(n)$};
\node[squarednode]	(ir_M-1)	[right=of nd_-1]	 {$h_{M-1}(n)$};
\node[squarednode]	(ir_M)		[right=of nd_-3]	 {$h_M(n)$};
\node[roundnode]	(sum_1)		[right=of ir_1]		 {$\Sigma$};
\node[roundnode]	(sum_2)		[right=of ir_2]		 {$\Sigma$};
\node[roundnode]	(sum_M-1)	[right=of ir_M-1]	 {$\Sigma$};
\node[roundnode]	(sum_M)		[right=of ir_M]		 {$\Sigma$};
\node[]			(w_1)		[above=of sum_1]	 {$w_1(n)$};
\node[]			(w_2)		[above=of sum_2]	 {$w_2(n)$};
\node[]			(w_M-1)		[above=of sum_M-1]	 {$w_{M-1}(n)$};
\node[]			(w_M)		[above=of sum_M]	 {$w_M(n)$};
\node[]			(x_1)		[right=of sum_1]	 {$x_1(n)$};
\node[]			(x_2)		[right=of sum_2]	 {$x_2(n)$};
\node[]			(x_M-1)		[right=of sum_M-1]	 {$x_{M-1}(n)$};
\node[]			(x_M)		[right=of sum_M]	 {$x_M(n)$};
%Lines
\draw[] (input.east) -- (nd_0.east);
\draw[->] (nd_0.east) -- (ir_2.west);
\draw[->] (nd_0.east) -- (ir_1.west);
\draw[->] (nd_0.east) -- (ir_M-1.west);
\draw[->] (nd_0.east) -- (ir_M.west);
\draw[->] (ir_1.east) -- (sum_1.west);
\draw[->] (ir_2.east) -- (sum_2.west);
\draw[->] (ir_M-1.east) -- (sum_M-1.west);
\draw[->] (ir_M.east) -- (sum_M.west);
\draw[->] (w_1.south) -- (sum_1.north);
\draw[->] (w_2.south) -- (sum_2.north);
\draw[->] (w_M-1.south) -- (sum_M-1.north);
\draw[->] (w_M.south) -- (sum_M.north);
\draw[->] (sum_1.east) -- (x_1.west);
\draw[->] (sum_2.east) -- (x_2.west);
\draw[->] (sum_M-1.east) -- (x_M-1.west);
\draw[->] (sum_M.east) -- (x_M.west);


\end{tikzpicture}

%	\node at (0, -1)	(input) {$s(n)$};
%	\node[draw] at (0,0)	(ndc)	{};
%	\node[draw] at (1,0)	(ndt1) 	{};
%	\node[draw] at (2, 0)	(ndt2)	{};
%	\node[draw] at (-1, 0)	(ndb1)	{};
%	\node[draw] at (-2, 0)	(ndb2)	{};
%	
%	\draw[]	input -- ndc;
%	\draw[] ndc -- ndt1;
%	\draw[] ndt1 -- ndt2;
%	\draw[] ndc -- ndb1;
%	\draw[] ndb1 -- ndb2;
%\end{tikzpicture}