\relax 
\providecommand\hyper@newdestlabel[2]{}
\citation{book:sourceLocal,thesis:Geolocation,conf:overviewGeo}
\citation{thesis:Geolocation}
\citation{book:sourceLocal,thesis:Geolocation,conf:overviewGeo,thesis:RSSI}
\citation{book:sourceLocal,thesis:Geolocation,conf:overviewGeo,art:ImpSourceLocal,art:CircArrayDOA,book:AcousticMIMOSigProc,art:AdaptiveTDEUsingFilterConstraints,art:AEDDecomp,art:MLEofTDinMulti}
\citation{book:sourceLocal,thesis:Geolocation,conf:overviewGeo,thesis:RSSI}
\@writefile{toc}{\contentsline {chapter}{\numberline {2}LITERATURE REVIEW}{3}{chapter.2}}
\newlabel{ch:2}{{2}{3}{LITERATURE REVIEW}{chapter.2}{}}
\@writefile{toc}{\contentsline {section}{\numberline {2.1}Source Localization}{3}{section.2.1}}
\@writefile{toc}{\contentsline {subsubsection}{TOA, RSS, DOA}{3}{section*.4}}
\citation{book:sourceLocal,thesis:Geolocation,conf:overviewGeo,thesis:RSSI}
\citation{book:sourceLocal,thesis:Geolocation,conf:overviewGeo,thesis:RSSI}
\citation{book:sourceLocal,thesis:Geolocation,conf:overviewGeo,thesis:RSSI}
\citation{book:sourceLocal,thesis:Geolocation,conf:overviewGeo,thesis:RSSI,art:CircArrayDOA}
\citation{book:sourceLocal,thesis:Geolocation,conf:overviewGeo,thesis:RSSI,art:TDOAGeo}
\citation{book:sourceLocal,thesis:Geolocation,conf:overviewGeo}
\citation{art:AdaptiveTDEUsingFilterConstraints,art:TDEviaMinEntropy,book:AcousticMIMOSigProc}
\citation{conf:AED,art:MLEofTDinMulti,book:AcousticMIMOSigProc,art:TDEviaMinEntropy,art:AdaptiveTDEUsingFilterConstraints,conf:MAPEofTD,art:AEDDecomp,art:ResearchTDE,work:BSNCID}
\@writefile{toc}{\contentsline {subsubsection}{TDOA}{5}{section*.5}}
\@writefile{toc}{\contentsline {section}{\numberline {2.2}Time Delay Estimation and Blind Channel Identification Algorithms}{5}{section.2.2}}
\citation{art:NN,work:TDOAacousticNN,conf:ImprovTDOAwML,conf:TDOAIndoorPositionML,conf:MLforSourceLocal}
\citation{conf:MAPEofTD,art:MLEofTDinMulti,art:MultiChannelBID,art:BSI,art:FastMLforBID,art:AlgBEwMultiAntennas,book:AcousticMIMOSigProc}
\citation{conf:AED,art:LS_Approach_BCID,art:BSI,art:Det_BID_Multi-FIRSystems,art:AdaptBESparse,work:BSNCID,art:MultiChannelBID,conf:MAPEofTD,art:AEDDecomp,book:AcousticMIMOSigProc}
\citation{conf:MAPEofTD,book:AcousticMIMOSigProc}
\citation{art:NN,work:TDOAacousticNN,conf:ImprovTDOAwML,conf:TDOAIndoorPositionML,conf:MLforSourceLocal}
\citation{book:AcousticMIMOSigProc}
\citation{book:AcousticMIMOSigProc,art:BSI,conf:MAPEofTD,art:MultiChannelBID,art:FastMLforBID}
\citation{conf:MAPEofTD}
\citation{book:AcousticMIMOSigProc,art:MultiChannelBID}
\citation{book:AcousticMIMOSigProc,conf:MAPEofTD,art:AEDDecomp,art:TDEviaMinEntropy,work:BSNCID}
\citation{art:AdaptiveTDEUsingFilterConstraints,art:AEDDecomp,conf:AED}
\citation{art:Det_BID_Multi-FIRSystems,art:MultiChannelBID,art:AlgBEwMultiAntennas,art:Det_BID_Multi-FIRSystems,art:AdaptBESparse,art:BSI,art:FastMLforBID}
\citation{art:MultiChannelBID,art:Det_BID_Multi-FIRSystems}
\citation{art:BSI,art:AEDDecomp,conf:AED,art:LS_Approach_BCID}
\citation{art:BSI,book:AcousticMIMOSigProc,conf:AED,art:Det_BID_Multi-FIRSystems,art:LS_Approach_BCID,art:AdaptBESparse,work:BSNCID,art:AdaptiveTDEUsingFilterConstraints,art:AEDDecomp,art:MultiChannelBID}
\citation{art:IDinBDeconv,art:SparseBDeConv,work:BSNCID,art:AdaptBESparse,conf:ETDOARoomRefl}
\citation{art:MultiChannelBID}
\@writefile{toc}{\contentsline {section}{\numberline {2.3}Cross-Relation Method}{7}{section.2.3}}
\newlabel{eq:system-1}{{2.1}{7}{Cross-Relation Method}{equation.2.3.1}{}}
\newlabel{eq:CR}{{2.2}{7}{Cross-Relation Method}{equation.2.3.2}{}}
\@setckpt{Chapters/Chapter_2/ch_2_lit_review}{
\setcounter{page}{9}
\setcounter{equation}{2}
\setcounter{enumi}{2}
\setcounter{enumii}{0}
\setcounter{enumiii}{0}
\setcounter{enumiv}{0}
\setcounter{footnote}{2}
\setcounter{mpfootnote}{0}
\setcounter{part}{0}
\setcounter{chapter}{2}
\setcounter{section}{3}
\setcounter{subsection}{0}
\setcounter{subsubsection}{0}
\setcounter{paragraph}{0}
\setcounter{subparagraph}{0}
\setcounter{figure}{0}
\setcounter{table}{0}
\setcounter{savemainpageno}{0}
\setcounter{savefrontpageno}{11}
\setcounter{savetotalpageno}{0}
\setcounter{float@type}{16}
\setcounter{alg}{0}
\setcounter{parentequation}{0}
\setcounter{lstnumber}{1}
\setcounter{ContinuedFloat}{0}
\setcounter{subfigure}{0}
\setcounter{subtable}{0}
\setcounter{Item}{2}
\setcounter{Hfootnote}{2}
\setcounter{bookmark@seq@number}{10}
\setcounter{lstlisting}{0}
\setcounter{section@level}{1}
}
