\relax 
\providecommand\hyper@newdestlabel[2]{}
\@writefile{toc}{\contentsline {chapter}{\textnormal  {APPENDICES}}{162}{chapter.9}}
\newlabel{ch:app}{{9}{163}{Future Work}{chapter.9}{}}
\@writefile{toc}{\contentsline {section}{A\hspace  {12pt} Math Derivations and Notation}{163}{appendix.A}}
\newlabel{app:maths}{{A}{163}{Future Work}{appendix.A}{}}
\@writefile{toc}{\contentsline {subsection}{\numberline {A.1}Notation}{163}{subsection.A.0.1}}
\newlabel{app:notation}{{A.1}{163}{Notation}{subsection.A.0.1}{}}
\citation{art:LS_Approach_BCID}
\@writefile{toc}{\contentsline {subsubsection}{Multiple Receiver Format}{166}{section*.147}}
\@writefile{toc}{\contentsline {subsection}{\numberline {A.2}Derivations}{167}{subsection.A.0.2}}
\@writefile{toc}{\contentsline {subsubsection}{Modified Adaptive Eigenvalue Decomposition}{168}{section*.148}}
\newlabel{app:AED}{{A.2}{168}{Modified Adaptive Eigenvalue Decomposition}{section*.148}{}}
\@writefile{toc}{\contentsline {subsubsection}{Modified Adaptive Eigenvalue Decomposition with Sparsity}{169}{section*.149}}
\newlabel{app:AEDS}{{A.2}{169}{Modified Adaptive Eigenvalue Decomposition with Sparsity}{section*.149}{}}
\@writefile{toc}{\contentsline {subsubsection}{Adaptive Cross-Channel Identification with Sparse Shift-Suppression}{170}{section*.150}}
\newlabel{app:AXIS}{{A.2}{170}{Adaptive Cross-Channel Identification with Sparse Shift-Suppression}{section*.150}{}}
\@writefile{toc}{\contentsline {subsubsection}{Varied AXIS}{172}{section*.151}}
\newlabel{app:VAXIS}{{A.2}{172}{Varied AXIS}{section*.151}{}}
\@writefile{toc}{\contentsline {subsubsection}{Dual-Fixed Peak AXIS}{174}{section*.152}}
\newlabel{app:DFPAXIS}{{A.2}{174}{Dual-Fixed Peak AXIS}{section*.152}{}}
\@writefile{toc}{\contentsline {subsubsection}{Single Constraint}{177}{section*.153}}
\newlabel{app:SC}{{A.2}{177}{Single Constraint}{section*.153}{}}
\@writefile{toc}{\contentsline {subsubsection}{Varied Single Constraint}{179}{section*.154}}
\newlabel{app:VSC}{{A.2}{179}{Varied Single Constraint}{section*.154}{}}
\@writefile{toc}{\contentsline {subsubsection}{Dual Fixed-Peak Single Constraint}{181}{section*.155}}
\newlabel{app:DFPSC}{{A.2}{181}{Dual Fixed-Peak Single Constraint}{section*.155}{}}
\@writefile{toc}{\contentsline {subsubsection}{Brute Force}{183}{section*.156}}
\newlabel{app:BF}{{A.2}{183}{Brute Force}{section*.156}{}}
\@writefile{toc}{\contentsline {subsubsection}{Varied Brute Force}{184}{section*.157}}
\newlabel{app:VBF}{{A.2}{184}{Varied Brute Force}{section*.157}{}}
\@writefile{toc}{\contentsline {subsubsection}{Dual Fixed-Peak Brute Force}{185}{section*.158}}
\newlabel{app:DFPBF}{{A.2}{185}{Dual Fixed-Peak Brute Force}{section*.158}{}}
\@writefile{toc}{\contentsline {section}{B\hspace  {12pt} Code Listings}{187}{appendix.B}}
\newlabel{app:code}{{B}{187}{Dual Fixed-Peak Brute Force}{appendix.B}{}}
\@writefile{toc}{\contentsline {subsection}{\numberline {B.1}Modifications}{187}{subsection.B.0.1}}
\newlabel{code:mods}{{B.1}{187}{Modifications}{subsection.B.0.1}{}}
\newlabel{eq:code_normal_modAEDUpdate}{{B.1}{187}{Modifications}{equation.B.0.1}{}}
\newlabel{eq:code_matMult_modAEDUpdate}{{B.2}{188}{Modifications}{equation.B.0.2}{}}
\newlabel{eq:code_modified_modAEDUpdate}{{B.3}{188}{Modifications}{equation.B.0.3}{}}
\newlabel{eq:code_matMult_modified_modAEDUpdate}{{B.4}{188}{Modifications}{equation.B.0.4}{}}
\@writefile{toc}{\contentsline {subsection}{\numberline {B.2}The Least Squares (SVD) Approach According to Xu et al.}{190}{subsection.B.0.2}}
\newlabel{code:LS}{{B.2}{190}{The Least Squares (SVD) Approach According to Xu et al}{subsection.B.0.2}{}}
\@writefile{lol}{\contentsline {lstlisting}{\numberline {B.1}LS Function}{190}{lstlisting.B.1}}
\@writefile{toc}{\contentsline {subsection}{\numberline {B.3}The Adaptive Eigenvalue Decomposition}{191}{subsection.B.0.3}}
\newlabel{code:AED}{{B.3}{191}{The Adaptive Eigenvalue Decomposition}{subsection.B.0.3}{}}
\@writefile{lol}{\contentsline {lstlisting}{\numberline {B.2}AED Function}{191}{lstlisting.B.2}}
\@writefile{toc}{\contentsline {subsection}{\numberline {B.4}The Modified Adaptive Eigenvalue Decomposition}{193}{subsection.B.0.4}}
\newlabel{code:modAED}{{B.4}{193}{The Modified Adaptive Eigenvalue Decomposition}{subsection.B.0.4}{}}
\@writefile{lol}{\contentsline {lstlisting}{\numberline {B.3}modAED Function}{193}{lstlisting.B.3}}
\@writefile{toc}{\contentsline {subsection}{\numberline {B.5}The Modified Adaptive Eigenvalue Decomposition with Sparsity}{195}{subsection.B.0.5}}
\newlabel{code:AEDS}{{B.5}{195}{The Modified Adaptive Eigenvalue Decomposition with Sparsity}{subsection.B.0.5}{}}
\@writefile{lol}{\contentsline {lstlisting}{\numberline {B.4}modAEDS Function}{195}{lstlisting.B.4}}
\@writefile{toc}{\contentsline {subsection}{\numberline {B.6}The Adaptive Cross-Channel Identification with Sparse Shift-Suppression}{197}{subsection.B.0.6}}
\newlabel{code:AXIS}{{B.6}{197}{The Adaptive Cross-Channel Identification with Sparse Shift-Suppression}{subsection.B.0.6}{}}
\@writefile{lol}{\contentsline {lstlisting}{\numberline {B.5}AXIS Function}{197}{lstlisting.B.5}}
\@writefile{toc}{\contentsline {subsection}{\numberline {B.7}The Varied Adaptive Cross-Channel Identification with Sparse Shift-Suppression}{199}{subsection.B.0.7}}
\newlabel{code:VAXIS}{{B.7}{199}{The Varied Adaptive Cross-Channel Identification with Sparse Shift-Suppression}{subsection.B.0.7}{}}
\@writefile{lol}{\contentsline {lstlisting}{\numberline {B.6}VAXIS Function}{199}{lstlisting.B.6}}
\@writefile{toc}{\contentsline {subsection}{\numberline {B.8}The Dual Fixed-Peak Adaptive Cross-Channel Identification with Sparse Shift-Suppression}{202}{subsection.B.0.8}}
\newlabel{code:DFPAXIS}{{B.8}{202}{The Dual Fixed-Peak Adaptive Cross-Channel Identification with Sparse Shift-Suppression}{subsection.B.0.8}{}}
\@writefile{lol}{\contentsline {lstlisting}{\numberline {B.7}DFPAXIS Function}{202}{lstlisting.B.7}}
\@writefile{toc}{\contentsline {subsection}{\numberline {B.9}The Single Constraint Method}{205}{subsection.B.0.9}}
\newlabel{code:SC}{{B.9}{205}{The Single Constraint Method}{subsection.B.0.9}{}}
\@writefile{lol}{\contentsline {lstlisting}{\numberline {B.8}SC Function}{205}{lstlisting.B.8}}
\@writefile{toc}{\contentsline {subsection}{\numberline {B.10}The Varied Single Constraint Method}{207}{subsection.B.0.10}}
\newlabel{code:VSC}{{B.10}{207}{The Varied Single Constraint Method}{subsection.B.0.10}{}}
\@writefile{lol}{\contentsline {lstlisting}{\numberline {B.9}VAXIS Function}{207}{lstlisting.B.9}}
\@writefile{toc}{\contentsline {subsection}{\numberline {B.11}The Dual Fixed-Peak Single Constraint Method}{210}{subsection.B.0.11}}
\newlabel{code:DFPSC}{{B.11}{210}{The Dual Fixed-Peak Single Constraint Method}{subsection.B.0.11}{}}
\@writefile{lol}{\contentsline {lstlisting}{\numberline {B.10}DFPSC Function}{210}{lstlisting.B.10}}
\@writefile{toc}{\contentsline {subsection}{\numberline {B.12}The Brute Force Method}{213}{subsection.B.0.12}}
\newlabel{code:BF}{{B.12}{213}{The Brute Force Method}{subsection.B.0.12}{}}
\@writefile{lol}{\contentsline {lstlisting}{\numberline {B.11}BF Function}{213}{lstlisting.B.11}}
\@writefile{toc}{\contentsline {subsection}{\numberline {B.13}The Varied Brute Force Method}{215}{subsection.B.0.13}}
\newlabel{code:VBF}{{B.13}{215}{The Varied Brute Force Method}{subsection.B.0.13}{}}
\@writefile{lol}{\contentsline {lstlisting}{\numberline {B.12}VBF Function}{215}{lstlisting.B.12}}
\@writefile{toc}{\contentsline {subsection}{\numberline {B.14}The Dual Fixed-Peak Brute Force Method}{217}{subsection.B.0.14}}
\newlabel{code:DFPBF}{{B.14}{217}{The Dual Fixed-Peak Brute Force Method}{subsection.B.0.14}{}}
\@writefile{lol}{\contentsline {lstlisting}{\numberline {B.13}DFPBF Function}{217}{lstlisting.B.13}}
\@writefile{toc}{\contentsline {subsection}{\numberline {B.15}The Cross Correlation Function}{220}{subsection.B.0.15}}
\newlabel{code:CC}{{B.15}{220}{The Cross Correlation Function}{subsection.B.0.15}{}}
\@writefile{lol}{\contentsline {lstlisting}{\numberline {B.14}CC Function}{220}{lstlisting.B.14}}
\@writefile{toc}{\contentsline {subsection}{\numberline {B.16}The Overhead File to Call the Algorithms}{221}{subsection.B.0.16}}
\newlabel{code:ov}{{B.16}{221}{The Overhead File to Call the Algorithms}{subsection.B.0.16}{}}
\@writefile{lol}{\contentsline {lstlisting}{\numberline {B.15}Overhead File}{221}{lstlisting.B.15}}
\@writefile{lol}{\contentsline {lstlisting}{\numberline {B.16}Select Algorithm}{225}{lstlisting.B.16}}
\@writefile{lol}{\contentsline {lstlisting}{\numberline {B.17}Read in Data}{230}{lstlisting.B.17}}
\@writefile{toc}{\contentsline {section}{C\hspace  {12pt} Oversized Figures}{232}{appendix.C}}
\newlabel{app:Figures}{{C}{232}{The Overhead File to Call the Algorithms}{appendix.C}{}}
\@writefile{lof}{\contentsline {figure}{\numberline {C.1}{\ignorespaces Comparison of the 20 MHz transfer functions for impulse response set IR-1 for each seed (0-20) for channels 30 vs 3000\relax }}{233}{figure.caption.159}}
\newlabel{fig:seedComp_20MHz_sim_TF-1}{{C.1}{233}{Comparison of the 20 MHz transfer functions for impulse response set IR-1 for each seed (0-20) for channels 30 vs 3000\relax }{figure.caption.159}{}}
\@writefile{lof}{\contentsline {figure}{\numberline {C.2}{\ignorespaces Comparison of the 40 MHz transfer functions for impulse response set IR-1 for each seed (0-20) for channels 30 vs 3000\relax }}{234}{figure.caption.160}}
\newlabel{fig:seedComp_40MHz_sim_TF-1}{{C.2}{234}{Comparison of the 40 MHz transfer functions for impulse response set IR-1 for each seed (0-20) for channels 30 vs 3000\relax }{figure.caption.160}{}}
\@writefile{lof}{\contentsline {figure}{\numberline {C.3}{\ignorespaces Comparison of the 60 MHz transfer functions for impulse response set IR-1 for each seed (0-20) for channels 30 vs 3000\relax }}{235}{figure.caption.161}}
\newlabel{fig:seedComp_60MHz_sim_TF-1}{{C.3}{235}{Comparison of the 60 MHz transfer functions for impulse response set IR-1 for each seed (0-20) for channels 30 vs 3000\relax }{figure.caption.161}{}}
\@writefile{lof}{\contentsline {figure}{\numberline {C.4}{\ignorespaces Comparison of the 80 MHz transfer functions for impulse response set IR-1 for each seed (0-20) for channels 30 vs 3000\relax }}{236}{figure.caption.162}}
\newlabel{fig:seedComp_80MHz_sim_TF-1}{{C.4}{236}{Comparison of the 80 MHz transfer functions for impulse response set IR-1 for each seed (0-20) for channels 30 vs 3000\relax }{figure.caption.162}{}}
\@writefile{lof}{\contentsline {figure}{\numberline {C.5}{\ignorespaces Comparison of the 100 MHz transfer functions for impulse response set IR-1 for each seed (0-20) for channels 30 vs 3000\relax }}{237}{figure.caption.163}}
\newlabel{fig:seedComp_100MHz_sim_TF-1}{{C.5}{237}{Comparison of the 100 MHz transfer functions for impulse response set IR-1 for each seed (0-20) for channels 30 vs 3000\relax }{figure.caption.163}{}}
\@writefile{lof}{\contentsline {figure}{\numberline {C.6}{\ignorespaces Comparison of the 120 MHz transfer functions for impulse response set IR-1 for each seed (0-20) for channels 30 vs 3000\relax }}{238}{figure.caption.164}}
\newlabel{fig:seedComp_120MHz_sim_TF-1}{{C.6}{238}{Comparison of the 120 MHz transfer functions for impulse response set IR-1 for each seed (0-20) for channels 30 vs 3000\relax }{figure.caption.164}{}}
\@writefile{lof}{\contentsline {figure}{\numberline {C.7}{\ignorespaces Comparison of the 140 MHz transfer functions for impulse response set IR-1 for each seed (0-20) for channels 30 vs 3000\relax }}{239}{figure.caption.165}}
\newlabel{fig:seedComp_140MHz_sim_TF-1}{{C.7}{239}{Comparison of the 140 MHz transfer functions for impulse response set IR-1 for each seed (0-20) for channels 30 vs 3000\relax }{figure.caption.165}{}}
\@writefile{lof}{\contentsline {figure}{\numberline {C.8}{\ignorespaces Comparison of the 150 MHz transfer functions for impulse response set IR-1 for each seed (0-20) for channels 30 vs 3000\relax }}{240}{figure.caption.166}}
\newlabel{fig:seedComp_150MHz_sim_TF-1}{{C.8}{240}{Comparison of the 150 MHz transfer functions for impulse response set IR-1 for each seed (0-20) for channels 30 vs 3000\relax }{figure.caption.166}{}}
\@writefile{lof}{\contentsline {figure}{\numberline {C.9}{\ignorespaces Comparison of the 160 MHz transfer functions for impulse response set IR-1 for each seed (0-20) for channels 30 vs 3000\relax }}{241}{figure.caption.167}}
\newlabel{fig:seedComp_160MHz_sim_TF-1}{{C.9}{241}{Comparison of the 160 MHz transfer functions for impulse response set IR-1 for each seed (0-20) for channels 30 vs 3000\relax }{figure.caption.167}{}}
\@writefile{lof}{\contentsline {figure}{\numberline {C.10}{\ignorespaces Comparison of the 180 MHz transfer functions for impulse response set IR-1 for each seed (0-20) for channels 30 vs 3000\relax }}{242}{figure.caption.168}}
\newlabel{fig:seedComp_180MHz_sim_TF-1}{{C.10}{242}{Comparison of the 180 MHz transfer functions for impulse response set IR-1 for each seed (0-20) for channels 30 vs 3000\relax }{figure.caption.168}{}}
\@writefile{lof}{\contentsline {figure}{\numberline {C.11}{\ignorespaces Comparison of the 200 MHz transfer functions for impulse response set IR-1 for each seed (0-20) for channels 30 vs 3000\relax }}{243}{figure.caption.169}}
\newlabel{fig:seedComp_200MHz_sim_TF-1}{{C.11}{243}{Comparison of the 200 MHz transfer functions for impulse response set IR-1 for each seed (0-20) for channels 30 vs 3000\relax }{figure.caption.169}{}}
\@writefile{lof}{\contentsline {figure}{\numberline {C.12}{\ignorespaces Comparison of the 20 MHz transfer functions for impulse response set IR-2 for each seed (0-20) for channels 30 vs 3000\relax }}{244}{figure.caption.170}}
\newlabel{fig:seedComp_20MHz_sim_TF-2}{{C.12}{244}{Comparison of the 20 MHz transfer functions for impulse response set IR-2 for each seed (0-20) for channels 30 vs 3000\relax }{figure.caption.170}{}}
\@writefile{lof}{\contentsline {figure}{\numberline {C.13}{\ignorespaces Comparison of the 40 MHz transfer functions for impulse response set IR-2 for each seed (0-20) for channels 30 vs 3000\relax }}{245}{figure.caption.171}}
\newlabel{fig:seedComp_40MHz_sim_TF-2}{{C.13}{245}{Comparison of the 40 MHz transfer functions for impulse response set IR-2 for each seed (0-20) for channels 30 vs 3000\relax }{figure.caption.171}{}}
\@writefile{lof}{\contentsline {figure}{\numberline {C.14}{\ignorespaces Comparison of the 60 MHz transfer functions for impulse response set IR-2 for each seed (0-20) for channels 30 vs 3000\relax }}{246}{figure.caption.172}}
\newlabel{fig:seedComp_60MHz_sim_TF-2}{{C.14}{246}{Comparison of the 60 MHz transfer functions for impulse response set IR-2 for each seed (0-20) for channels 30 vs 3000\relax }{figure.caption.172}{}}
\@writefile{lof}{\contentsline {figure}{\numberline {C.15}{\ignorespaces Comparison of the 80 MHz transfer functions for impulse response set IR-2 for each seed (0-20) for channels 30 vs 3000\relax }}{247}{figure.caption.173}}
\newlabel{fig:seedComp_80MHz_sim_TF-2}{{C.15}{247}{Comparison of the 80 MHz transfer functions for impulse response set IR-2 for each seed (0-20) for channels 30 vs 3000\relax }{figure.caption.173}{}}
\@writefile{lof}{\contentsline {figure}{\numberline {C.16}{\ignorespaces Comparison of the 100 MHz transfer functions for impulse response set IR-2 for each seed (0-20) for channels 30 vs 3000\relax }}{248}{figure.caption.174}}
\newlabel{fig:seedComp_100MHz_sim_TF-2}{{C.16}{248}{Comparison of the 100 MHz transfer functions for impulse response set IR-2 for each seed (0-20) for channels 30 vs 3000\relax }{figure.caption.174}{}}
\@writefile{lof}{\contentsline {figure}{\numberline {C.17}{\ignorespaces Comparison of the 120 MHz transfer functions for impulse response set IR-2 for each seed (0-20) for channels 30 vs 3000\relax }}{249}{figure.caption.175}}
\newlabel{fig:seedComp_120MHz_sim_TF-2}{{C.17}{249}{Comparison of the 120 MHz transfer functions for impulse response set IR-2 for each seed (0-20) for channels 30 vs 3000\relax }{figure.caption.175}{}}
\@writefile{lof}{\contentsline {figure}{\numberline {C.18}{\ignorespaces Comparison of the 140 MHz transfer functions for impulse response set IR-2 for each seed (0-20) for channels 30 vs 3000\relax }}{250}{figure.caption.176}}
\newlabel{fig:seedComp_140MHz_sim_TF-2}{{C.18}{250}{Comparison of the 140 MHz transfer functions for impulse response set IR-2 for each seed (0-20) for channels 30 vs 3000\relax }{figure.caption.176}{}}
\@writefile{lof}{\contentsline {figure}{\numberline {C.19}{\ignorespaces Comparison of the 150 MHz transfer functions for impulse response set IR-2 for each seed (0-20) for channels 30 vs 3000\relax }}{251}{figure.caption.177}}
\newlabel{fig:seedComp_150MHz_sim_TF-2}{{C.19}{251}{Comparison of the 150 MHz transfer functions for impulse response set IR-2 for each seed (0-20) for channels 30 vs 3000\relax }{figure.caption.177}{}}
\@writefile{lof}{\contentsline {figure}{\numberline {C.20}{\ignorespaces Comparison of the 160 MHz transfer functions for impulse response set IR-2 for each seed (0-20) for channels 30 vs 3000\relax }}{252}{figure.caption.178}}
\newlabel{fig:seedComp_160MHz_sim_TF-2}{{C.20}{252}{Comparison of the 160 MHz transfer functions for impulse response set IR-2 for each seed (0-20) for channels 30 vs 3000\relax }{figure.caption.178}{}}
\@writefile{lof}{\contentsline {figure}{\numberline {C.21}{\ignorespaces Comparison of the 180 MHz transfer functions for impulse response set IR-2 for each seed (0-20) for channels 30 vs 3000\relax }}{253}{figure.caption.179}}
\newlabel{fig:seedComp_180MHz_sim_TF-2}{{C.21}{253}{Comparison of the 180 MHz transfer functions for impulse response set IR-2 for each seed (0-20) for channels 30 vs 3000\relax }{figure.caption.179}{}}
\@writefile{lof}{\contentsline {figure}{\numberline {C.22}{\ignorespaces Comparison of the 200 MHz transfer functions for impulse response set IR-2 for each seed (0-20) for channels 30 vs 3000\relax }}{254}{figure.caption.180}}
\newlabel{fig:seedComp_200MHz_sim_TF-2}{{C.22}{254}{Comparison of the 200 MHz transfer functions for impulse response set IR-2 for each seed (0-20) for channels 30 vs 3000\relax }{figure.caption.180}{}}
\@writefile{toc}{\contentsline {section}{D\hspace  {12pt} Further Results}{255}{appendix.D}}
\newlabel{app:results}{{D}{255}{The Overhead File to Call the Algorithms}{appendix.D}{}}
\@writefile{toc}{\contentsline {subsection}{\numberline {D.1}Simulation}{255}{subsection.D.0.1}}
\gdef \LT@i {\LT@entry 
    {33}{119.40712pt}\LT@entry 
    {1}{78.05219pt}\LT@entry 
    {5}{69.10602pt}\LT@entry 
    {1}{55.41902pt}\LT@entry 
    {1}{67.94159pt}\LT@entry 
    {1}{70.23877pt}\LT@entry 
    {1}{70.50412pt}\LT@entry 
    {1}{71.487pt}\LT@entry 
    {17}{61.24075pt}}
\@setckpt{Chapters/Appendix/appendix}{
\setcounter{page}{368}
\setcounter{equation}{0}
\setcounter{enumi}{4}
\setcounter{enumii}{0}
\setcounter{enumiii}{0}
\setcounter{enumiv}{61}
\setcounter{footnote}{0}
\setcounter{mpfootnote}{0}
\setcounter{part}{0}
\setcounter{chapter}{4}
\setcounter{section}{0}
\setcounter{subsection}{1}
\setcounter{subsubsection}{0}
\setcounter{paragraph}{0}
\setcounter{subparagraph}{0}
\setcounter{figure}{0}
\setcounter{table}{1}
\setcounter{savemainpageno}{0}
\setcounter{savefrontpageno}{22}
\setcounter{savetotalpageno}{0}
\setcounter{float@type}{16}
\setcounter{alg}{0}
\setcounter{parentequation}{0}
\setcounter{lstnumber}{55}
\setcounter{LT@tables}{1}
\setcounter{LT@chunks}{172}
\setcounter{ContinuedFloat}{0}
\setcounter{subfigure}{0}
\setcounter{subtable}{0}
\setcounter{Item}{6}
\setcounter{Hfootnote}{10}
\setcounter{bookmark@seq@number}{96}
\setcounter{lstlisting}{0}
\setcounter{section@level}{2}
}
