% This file was created by matlab2tikz.
%
%The latest updates can be retrieved from
%  http://www.mathworks.com/matlabcentral/fileexchange/22022-matlab2tikz-matlab2tikz
%where you can also make suggestions and rate matlab2tikz.
%
\definecolor{mycolor1}{rgb}{0.00000,0.44700,0.74100}%
\definecolor{mycolor2}{rgb}{0.85000,0.32500,0.09800}%
%
\begin{tikzpicture}

\begin{axis}[%
width=4.521in,
height=3.566in,
at={(0.758in,0.481in)},
scale only axis,
xmin=0,
xmax=40,
xlabel style={font=\color{white!15!black}},
xlabel={Samples (n)},
ymin=0,
ymax=1,
ylabel style={font=\color{white!15!black}},
ylabel={Magnitude},
axis background/.style={fill=white},
legend style={legend cell align=left, align=left, draw=white!15!black}
]
\addplot [color=mycolor1]
  table[row sep=crcr]{%
1	0.0628750941240617\\
2	0.0621135902723331\\
3	0.860615052749236\\
4	0.20884861436874\\
5	0.1844448410269\\
6	0.168012234118847\\
7	0.250011231929481\\
8	0.158841516745064\\
9	0.0796005518974735\\
10	0.100348677182282\\
11	0.0900660981589444\\
12	0.0343051271084792\\
13	0.0122967517096138\\
14	0.143023582188866\\
15	0.0426103883230211\\
16	0.0376234226793575\\
17	0.0693946284607954\\
18	0.0143607688163735\\
19	0.0175684169989983\\
20	0.0205154330556015\\
21	0.0298075335952674\\
22	0.0130264178744082\\
23	0.0125479100398375\\
24	0.0120816831275892\\
25	0.0115936460491093\\
26	0.0111138409987446\\
27	0.0106559326492486\\
28	0.0102248310095552\\
29	0.00982147518033077\\
30	0.00944503520705696\\
31	0.00909393056094859\\
32	0.00876631365558981\\
33	0.00846030208510493\\
34	0.00817408826516828\\
35	0.00790598759064668\\
36	0.0076544553421152\\
37	0.00741808778860518\\
38	0.00719561556370092\\
39	0.00698589359317552\\
40	0.00678788984177431\\
};
\addlegendentry{$\mathbf{h}_1$}

\addplot [color=mycolor2]
  table[row sep=crcr]{%
1	0.0642405816598583\\
2	0.0814807123601974\\
3	0.111762881520041\\
4	0.180549547809817\\
5	0.549627845042057\\
6	0.581224977127673\\
7	0.522901103671488\\
8	0.0925623594040387\\
9	0.0891716461168399\\
10	0.0718864357359437\\
11	0.0587423467930309\\
12	0.0494528451635023\\
13	0.0426474672556848\\
14	0.0374708929770306\\
15	0\\
16	0\\
17	0\\
18	0\\
19	0\\
20	0\\
21	0\\
22	0\\
23	0\\
24	0\\
25	0\\
26	0\\
27	0\\
28	0\\
29	0\\
30	0\\
31	0\\
32	0\\
33	0\\
34	0\\
35	0\\
36	0\\
37	0\\
38	0\\
39	0\\
40	0\\
};
\addlegendentry{$\mathbf{h}_2$}

\end{axis}
\end{tikzpicture}%