\relax 
\providecommand\hyper@newdestlabel[2]{}
\providecommand\HyperFirstAtBeginDocument{\AtBeginDocument}
\HyperFirstAtBeginDocument{\ifx\hyper@anchor\@undefined
\global\let\oldcontentsline\contentsline
\gdef\contentsline#1#2#3#4{\oldcontentsline{#1}{#2}{#3}}
\global\let\oldnewlabel\newlabel
\gdef\newlabel#1#2{\newlabelxx{#1}#2}
\gdef\newlabelxx#1#2#3#4#5#6{\oldnewlabel{#1}{{#2}{#3}}}
\AtEndDocument{\ifx\hyper@anchor\@undefined
\let\contentsline\oldcontentsline
\let\newlabel\oldnewlabel
\fi}
\fi}
\global\let\hyper@last\relax 
\gdef\HyperFirstAtBeginDocument#1{#1}
\providecommand\HyField@AuxAddToFields[1]{}
\providecommand\HyField@AuxAddToCoFields[2]{}
\@input{abstract.aux}
\@input{publicabstract.aux}
\@input{acknowl.aux}
\@input{acronyms.aux}
\@input{Chapters/Chapter_1/ch_1_introduction.aux}
\@input{Chapters/Chapter_2/ch_2_lit_review.aux}
\@input{Chapters/Chapter_3/ch_3_problem_overview.aux}
\@input{Chapters/Chapter_4/ch_4_cross_relation_methods.aux}
\@input{Chapters/Chapter_5/ch_5_AXIS.aux}
\@input{Chapters/Chapter_6/ch_6_Brute.aux}
\@input{Chapters/Chapter_8/ch_8_results.aux}
\@input{Chapters/Chapter_9/ch_9_conclusion.aux}
\bibdata{IEEEabrv,sample}
\bibcite{book:sourceLocal}{1}
\bibcite{thesis:Geolocation}{2}
\bibcite{art:TDOAGeo}{3}
\bibcite{conf:overviewGeo}{4}
\bibcite{art:CircArrayDOA}{5}
\bibcite{art:InnovIndoorGeolocation}{6}
\bibcite{art:ImpSourceLocal}{7}
\bibcite{web:fmf}{8}
\bibcite{conf:RFID_livestock}{9}
\bibcite{art:IoD}{10}
\bibcite{thesis:RSSI}{11}
\bibcite{book:AcousticMIMOSigProc}{12}
\bibcite{art:AdaptiveTDEUsingFilterConstraints}{13}
\@writefile{toc}{\contentsline {chapter}{REFERENCES}{76}{section.8.2}}
\bibcite{art:TDEviaMinEntropy}{14}
\bibcite{art:AEDDecomp}{15}
\bibcite{art:MLEofTDinMulti}{16}
\bibcite{conf:AED}{17}
\bibcite{conf:MAPEofTD}{18}
\bibcite{art:ResearchTDE}{19}
\bibcite{work:BSNCID}{20}
\bibcite{art:NN}{21}
\bibcite{work:TDOAacousticNN}{22}
\bibcite{conf:ImprovTDOAwML}{23}
\bibcite{conf:TDOAIndoorPositionML}{24}
\bibcite{conf:MLforSourceLocal}{25}
\bibcite{art:MultiChannelBID}{26}
\bibcite{art:BSI}{27}
\bibcite{art:FastMLforBID}{28}
\bibcite{art:AlgBEwMultiAntennas}{29}
\bibcite{art:LS_Approach_BCID}{30}
\bibcite{art:Det_BID_Multi-FIRSystems}{31}
\bibcite{art:AdaptBESparse}{32}
\bibcite{art:IDinBDeconv}{33}
\bibcite{art:SparseBDeConv}{34}
\bibcite{conf:ETDOARoomRefl}{35}
\bibcite{thesis:SLvTDOA}{36}
\bibcite{web:subgradient}{37}
\bibstyle{IEEEtran}
\@input{Chapters/Appendix/appendix.aux}
\newlabel{totalpageno}{{150}{150}{}{}{}}
