% This file was created by matlab2tikz.
%
%The latest updates can be retrieved from
%  http://www.mathworks.com/matlabcentral/fileexchange/22022-matlab2tikz-matlab2tikz
%where you can also make suggestions and rate matlab2tikz.
%
\definecolor{mycolor1}{rgb}{0.00000,0.44700,0.74100}%
\definecolor{mycolor2}{rgb}{0.85000,0.32500,0.09800}%
%
\begin{tikzpicture}

\begin{axis}[%
width=1.935in,
height=3.2in,
at={(0.758in,0.512in)},
scale only axis,
xmin=0,
xmax=100,
xlabel style={font=\color{white!15!black}, align=center},
xlabel={Sample Index\\[1ex](a) Actual},
ymin=0,
ymax=1,
axis background/.style={fill=white},
legend style={legend cell align=left, align=left, draw=white!15!black}
]
\addplot [color=mycolor1]
  table[row sep=crcr]{%
1	0.0216926152020066\\
2	0.0241183965289278\\
3	0.0267807478156139\\
4	0.0354280601095614\\
5	0.221828667704926\\
6	0.648965745595675\\
7	0.241270440438586\\
8	0.0776642628644082\\
9	0.0581044824071981\\
10	0.0611489366831747\\
11	0.0798140419847986\\
12	0.062735544320507\\
13	0.113011040425493\\
14	0.377485382687519\\
15	0.331649248845691\\
16	0.18615433793772\\
17	0.146493252817741\\
18	0.0847190801249442\\
19	0.0628278567269286\\
20	0.0148364296169451\\
21	0.0250471739922352\\
22	0.0344835915107885\\
23	0.116323790948646\\
24	0.279210940275387\\
25	0.101045410677318\\
26	0.0464379665429307\\
27	0.041398863205924\\
28	0.0263226969199998\\
29	0.0221848789960478\\
30	0.0197642774213948\\
31	0.0186496517239344\\
32	0.0219339353832985\\
33	0.018414044189717\\
34	0.00937919788338426\\
35	0.0100670783096178\\
36	0.0098135024549665\\
37	0.00937197330245933\\
38	0.00884810306396591\\
39	0.00821513429074651\\
40	0.00732026654240377\\
41	0.00945021173361951\\
42	0.0127255218727005\\
43	0.00946415089832864\\
44	0.00862800399957479\\
45	0.00816256372793386\\
46	0.00784857678072338\\
47	0.00764005346579914\\
48	0.00755773656417068\\
49	0.00776075567554332\\
50	0.00986938420958768\\
51	0.00319649311885596\\
52	0.00500292172051245\\
53	0.00524752973649041\\
54	0.00526667690567613\\
55	0.00521575322380608\\
56	0.00513704586881206\\
57	0.00504647235310817\\
58	0.00495116794332671\\
59	0.00485468351773321\\
60	0.00475890010347922\\
61	0.00466484578572566\\
62	0.00457308311118313\\
63	0.00448390798586452\\
64	0.0043974582605137\\
65	0.00431377595094964\\
66	0.00423284428954661\\
67	0.00415461047403326\\
68	0.00407899997367922\\
69	0.00400592569101114\\
70	0.00393529390404367\\
71	0.0038670081481966\\
72	0.00380097175500134\\
73	0.00373708950172093\\
74	0.00367526866536834\\
75	0.00361541967416126\\
76	0.00355745648532918\\
77	0.00350129677649243\\
78	0.00344686201027152\\
79	0.00339407741330312\\
80	0.00334287189828014\\
81	0.0032931779490063\\
82	0.00324493148246751\\
83	0.00319807169773062\\
84	0.003152540918526\\
85	0.00310828443427485\\
86	0.00306525034282854\\
87	0.00302338939712195\\
88	0.00298265485717807\\
89	0.00294300234835571\\
90	0.00290438972634362\\
91	0.0028667769491261\\
92	0.00283012595595264\\
93	0.0027944005532083\\
94	0.00275956630699144\\
95	0.0027255904421446\\
96	0.00269244174744817\\
97	0.00266009048666622\\
98	0.00262850831512411\\
99	0\\
100	0\\
};
\addlegendentry{$\mathbf{h_1}$}

\addplot [color=mycolor2]
  table[row sep=crcr]{%
1	0.00108294891904515\\
2	0.00115806441999571\\
3	0.00125656841390277\\
4	0.00139359850086552\\
5	0.00159676508941691\\
6	0.00191784013184518\\
7	0.00245777585368985\\
8	0.00342819163679349\\
9	0.00533730915065768\\
10	0.00974214709050295\\
11	0.0244449264542886\\
12	0.973731186814765\\
13	0.0500739614470277\\
14	0.0426946282907342\\
15	0.00536788790071817\\
16	0.0362080823589407\\
17	0.176144271962331\\
18	0.115663212635922\\
19	0.0234963057121139\\
20	0.0138738178597906\\
21	0.00966054585381422\\
22	0.00731818549393035\\
23	0.00584139575065055\\
24	0.0048330083027894\\
25	0.00410500747522503\\
26	0.00355723928842746\\
27	0.00313167065616096\\
28	0.00279247304593218\\
29	0.00251639833876938\\
30	0.00228774297450139\\
31	0.00209554142652578\\
32	0.00193191967393617\\
33	0.00179108704155738\\
34	0.00166869616651274\\
35	0\\
36	0\\
37	0\\
38	0\\
39	0\\
40	0\\
41	0\\
42	0\\
43	0\\
44	0\\
45	0\\
46	0\\
47	0\\
48	0\\
49	0\\
50	0\\
51	0\\
52	0\\
53	0\\
54	0\\
55	0\\
56	0\\
57	0\\
58	0\\
59	0\\
60	0\\
61	0\\
62	0\\
63	0\\
64	0\\
65	0\\
66	0\\
67	0\\
68	0\\
69	0\\
70	0\\
71	0\\
72	0\\
73	0\\
74	0\\
75	0\\
76	0\\
77	0\\
78	0\\
79	0\\
80	0\\
81	0\\
82	0\\
83	0\\
84	0\\
85	0\\
86	0\\
87	0\\
88	0\\
89	0\\
90	0\\
91	0\\
92	0\\
93	0\\
94	0\\
95	0\\
96	0\\
97	0\\
98	0\\
99	0\\
100	0\\
};
\addlegendentry{$\mathbf{h_{2}}$}

\end{axis}

\begin{axis}[%
width=1.935in,
height=3.2in,
at={(3.327in,0.512in)},
scale only axis,
xmin=0,
xmax=100,
xlabel style={font=\color{white!15!black}, align=center},
xlabel={Sample Index\\[1ex](b) Estimated},
ymin=0,
ymax=1,
axis background/.style={fill=white},
legend style={legend cell align=left, align=left, draw=white!15!black}
]
\addplot [color=mycolor1]
  table[row sep=crcr]{%
0	0.000128140438681895\\
1	8.10921968639902e-05\\
2	0.000119514412296397\\
3	5.08832449899838e-05\\
4	4.12697292827511e-05\\
5	6.09602917598913e-05\\
6	2.75559060447951e-05\\
7	5.02255647829616e-05\\
8	9.31737273993297e-05\\
9	0.000143087934824391\\
10	2.94010372946774e-05\\
11	3.07654822230063e-05\\
12	9.1934497512997e-05\\
13	0.000131141413002674\\
14	0.00104812347951448\\
15	0.00329125501230944\\
16	0.00390838097788874\\
17	0.00299425577540724\\
18	0.000714032102001533\\
19	0.000127605659755511\\
20	0.000121156920992828\\
21	1.58901709865057e-05\\
22	0.00322807643952874\\
23	0.000122488858676009\\
24	0.013807409850069\\
25	0.0388672806689155\\
26	0.000419015894760379\\
27	0.0108928957889882\\
28	0.000304148541330243\\
29	0.00371741140596853\\
30	0.00534448092055148\\
31	0.00919289274871993\\
32	0.0338814058529609\\
33	0.073750023936345\\
34	0.0451399990023822\\
35	0.0572970276301024\\
36	0.0334586277336242\\
37	0.0184356229183192\\
38	0.0741130759228036\\
39	0.017303766971617\\
40	0.0348519586925768\\
41	0.00680156782283247\\
42	0.176935773861204\\
43	0.678572759272343\\
44	0.205094443289842\\
45	0.0265849316499501\\
46	0.111454352509008\\
47	0.0814961261119424\\
48	0.122368098090495\\
49	0.027629072497635\\
50	0.0977696154735711\\
51	0.370897298719412\\
52	0.289151770724671\\
53	0.184703410080089\\
54	0.123450438131424\\
55	0.077767940107452\\
56	0.0777058723961958\\
57	0.0545066187352832\\
58	0.0363748227520633\\
59	0.0664913048223555\\
60	0.139722192310612\\
61	0.267524267269827\\
62	0.062951454858921\\
63	0.00767117295353852\\
64	0.010947409777488\\
65	0.0128862281082708\\
66	0.0107768311753076\\
67	0.0326650920312611\\
68	0.046854309855549\\
69	0.0715063140866882\\
70	0.0310828138885422\\
71	0.0175094694784541\\
72	0.00412885771877796\\
73	0.0209346887073346\\
74	0.0156988635715178\\
75	0.0112931421789797\\
76	0.00489672780678563\\
77	0.0112270410479256\\
78	0.0206129890001052\\
79	0.0130477410779736\\
80	0.012613484086844\\
81	0.00343834393816254\\
82	0.00282455361900677\\
83	0.00664029524403068\\
84	0.00716244212833939\\
85	0.00670500900612526\\
86	0.00962556995815624\\
87	0.0116395750908404\\
88	3.64831406814434e-05\\
89	0.00282116022650149\\
90	0.00343439236058195\\
91	0.00311159938786787\\
92	0.0014211570877359\\
93	0.000255581454769929\\
94	0.00145350144871099\\
95	0.000677433915176209\\
96	0.00446256476921518\\
97	0.00301278631079336\\
98	0.00240530049370844\\
99	0.00188641872883478\\
};
\addlegendentry{$\mathbf{\hat{h}_{1}}$}

\addplot [color=mycolor2]
  table[row sep=crcr]{%
0	4.21402060433743e-05\\
1	9.80017471275175e-05\\
2	3.05600461081664e-05\\
3	1.83344356206305e-05\\
4	4.42126677471889e-05\\
5	0.0012571879503941\\
6	0.00120590906605849\\
7	5.39082414146145e-05\\
8	6.00826349377803e-05\\
9	6.54850517115484e-05\\
10	8.25371937614058e-05\\
11	5.97750758855868e-05\\
12	0.000897208474206939\\
13	0.00152827128471367\\
14	2.74121165575934e-05\\
15	0.00599052705634741\\
16	0.00255893183378749\\
17	0.00190096566903075\\
18	0.00240576357792665\\
19	0.00110894922864619\\
20	0.00320800794580767\\
21	0.0123914362326\\
22	0.00629695871472931\\
23	0.018029439858368\\
24	0.00947286335948044\\
25	0.000657082500101774\\
26	0.00345205432896469\\
27	0.00113594719981507\\
28	0.00435773623599016\\
29	0.00573220461954887\\
30	0.0159940165365513\\
31	0.0779683635918306\\
32	0.0175077794601216\\
33	0.0269897996994921\\
34	0.0130078795566606\\
35	0.00883983942675955\\
36	0.00665131922780354\\
37	0.000685220320278786\\
38	0.0566735315887845\\
39	0.0762565970286368\\
40	0.0279627294898785\\
41	0.125590967535394\\
42	0.00515417102759423\\
43	0.0183247881236293\\
44	0.0367320933100252\\
45	0.0228323152187418\\
46	0.0263719511048654\\
47	0.0438017045311357\\
48	0.00921764373606417\\
49	0.959740145336566\\
50	0.00840328940465537\\
51	0.0443140382074538\\
52	0.028963077504787\\
53	0.0233301227564126\\
54	0.0377229780050373\\
55	0.0183055152660309\\
56	0.00445299316896476\\
57	0.125966847585681\\
58	0.0283576849594041\\
59	0.0768419769636809\\
60	0.0583738037781566\\
61	0.000223782994872133\\
62	0.00714346470364047\\
63	0.0102186587745574\\
64	0.014012194712616\\
65	0.0277409727166947\\
66	0.0170179009060175\\
67	0.0798025643395478\\
68	0.0159582952453248\\
69	0.00552408493714272\\
70	0.00397930707457948\\
71	0.000929016946749323\\
72	0.00243516980804478\\
73	0.000960012380998343\\
74	0.00955748988038337\\
75	0.0171526873466566\\
76	0.00674352990168291\\
77	0.0137190502815798\\
78	0.00367284813630123\\
79	0.00128067544373515\\
80	0.00266383424904281\\
81	0.00326939654313308\\
82	0.00331265902169818\\
83	0.00648112831118911\\
84	3.54696330294132e-05\\
85	0.00115783865201619\\
86	0.000768334322086068\\
87	0.000294881976889891\\
88	4.41818029971827e-05\\
89	5.60721888498028e-05\\
90	9.53995724511405e-05\\
91	0.00013213305171922\\
92	0.00166838470381396\\
93	0.0014976619837195\\
94	0.000201992341934674\\
95	1.84923967205922e-05\\
96	2.98327661834121e-05\\
97	0.000217462577362678\\
98	8.34740865651298e-05\\
99	0.000158955086275383\\
};
\addlegendentry{$\mathbf{\hat{h}_{2}}$}

\end{axis}
\end{tikzpicture}%