% This file was created by matlab2tikz.
%
%The latest updates can be retrieved from
%  http://www.mathworks.com/matlabcentral/fileexchange/22022-matlab2tikz-matlab2tikz
%where you can also make suggestions and rate matlab2tikz.
%
\definecolor{mycolor1}{rgb}{0.00000,0.44700,0.74100}%
\definecolor{mycolor2}{rgb}{0.85000,0.32500,0.09800}%
%
\begin{tikzpicture}

\begin{axis}[%
width=1.935in,
height=3.2in,
at={(0.758in,0.512in)},
scale only axis,
xmin=0,
xmax=100,
xlabel style={font=\color{white!15!black}, align=center},
xlabel={Sample Index\\[1ex](a) Actual},
ymin=0,
ymax=1,
axis background/.style={fill=white},
legend style={legend cell align=left, align=left, draw=white!15!black}
]
\addplot [color=mycolor1]
  table[row sep=crcr]{%
1	0.0216926152020066\\
2	0.0241183965289278\\
3	0.0267807478156139\\
4	0.0354280601095614\\
5	0.221828667704926\\
6	0.648965745595675\\
7	0.241270440438586\\
8	0.0776642628644082\\
9	0.0581044824071981\\
10	0.0611489366831747\\
11	0.0798140419847986\\
12	0.062735544320507\\
13	0.113011040425493\\
14	0.377485382687519\\
15	0.331649248845691\\
16	0.18615433793772\\
17	0.146493252817741\\
18	0.0847190801249442\\
19	0.0628278567269286\\
20	0.0148364296169451\\
21	0.0250471739922352\\
22	0.0344835915107885\\
23	0.116323790948646\\
24	0.279210940275387\\
25	0.101045410677318\\
26	0.0464379665429307\\
27	0.041398863205924\\
28	0.0263226969199998\\
29	0.0221848789960478\\
30	0.0197642774213948\\
31	0.0186496517239344\\
32	0.0219339353832985\\
33	0.018414044189717\\
34	0.00937919788338426\\
35	0.0100670783096178\\
36	0.0098135024549665\\
37	0.00937197330245933\\
38	0.00884810306396591\\
39	0.00821513429074651\\
40	0.00732026654240377\\
41	0.00945021173361951\\
42	0.0127255218727005\\
43	0.00946415089832864\\
44	0.00862800399957479\\
45	0.00816256372793386\\
46	0.00784857678072338\\
47	0.00764005346579914\\
48	0.00755773656417068\\
49	0.00776075567554332\\
50	0.00986938420958768\\
51	0.00319649311885596\\
52	0.00500292172051245\\
53	0.00524752973649041\\
54	0.00526667690567613\\
55	0.00521575322380608\\
56	0.00513704586881206\\
57	0.00504647235310817\\
58	0.00495116794332671\\
59	0.00485468351773321\\
60	0.00475890010347922\\
61	0.00466484578572566\\
62	0.00457308311118313\\
63	0.00448390798586452\\
64	0.0043974582605137\\
65	0.00431377595094964\\
66	0.00423284428954661\\
67	0.00415461047403326\\
68	0.00407899997367922\\
69	0.00400592569101114\\
70	0.00393529390404367\\
71	0.0038670081481966\\
72	0.00380097175500134\\
73	0.00373708950172093\\
74	0.00367526866536834\\
75	0.00361541967416126\\
76	0.00355745648532918\\
77	0.00350129677649243\\
78	0.00344686201027152\\
79	0.00339407741330312\\
80	0.00334287189828014\\
81	0.0032931779490063\\
82	0.00324493148246751\\
83	0.00319807169773062\\
84	0.003152540918526\\
85	0.00310828443427485\\
86	0.00306525034282854\\
87	0.00302338939712195\\
88	0.00298265485717807\\
89	0.00294300234835571\\
90	0.00290438972634362\\
91	0.0028667769491261\\
92	0.00283012595595264\\
93	0.0027944005532083\\
94	0.00275956630699144\\
95	0.0027255904421446\\
96	0.00269244174744817\\
97	0.00266009048666622\\
98	0.00262850831512411\\
99	0\\
100	0\\
};
\addlegendentry{$\mathbf{h_1}$}

\addplot [color=mycolor2]
  table[row sep=crcr]{%
1	0.00108294891904515\\
2	0.00115806441999571\\
3	0.00125656841390277\\
4	0.00139359850086552\\
5	0.00159676508941691\\
6	0.00191784013184518\\
7	0.00245777585368985\\
8	0.00342819163679349\\
9	0.00533730915065768\\
10	0.00974214709050295\\
11	0.0244449264542886\\
12	0.973731186814765\\
13	0.0500739614470277\\
14	0.0426946282907342\\
15	0.00536788790071817\\
16	0.0362080823589407\\
17	0.176144271962331\\
18	0.115663212635922\\
19	0.0234963057121139\\
20	0.0138738178597906\\
21	0.00966054585381422\\
22	0.00731818549393035\\
23	0.00584139575065055\\
24	0.0048330083027894\\
25	0.00410500747522503\\
26	0.00355723928842746\\
27	0.00313167065616096\\
28	0.00279247304593218\\
29	0.00251639833876938\\
30	0.00228774297450139\\
31	0.00209554142652578\\
32	0.00193191967393617\\
33	0.00179108704155738\\
34	0.00166869616651274\\
35	0\\
36	0\\
37	0\\
38	0\\
39	0\\
40	0\\
41	0\\
42	0\\
43	0\\
44	0\\
45	0\\
46	0\\
47	0\\
48	0\\
49	0\\
50	0\\
51	0\\
52	0\\
53	0\\
54	0\\
55	0\\
56	0\\
57	0\\
58	0\\
59	0\\
60	0\\
61	0\\
62	0\\
63	0\\
64	0\\
65	0\\
66	0\\
67	0\\
68	0\\
69	0\\
70	0\\
71	0\\
72	0\\
73	0\\
74	0\\
75	0\\
76	0\\
77	0\\
78	0\\
79	0\\
80	0\\
81	0\\
82	0\\
83	0\\
84	0\\
85	0\\
86	0\\
87	0\\
88	0\\
89	0\\
90	0\\
91	0\\
92	0\\
93	0\\
94	0\\
95	0\\
96	0\\
97	0\\
98	0\\
99	0\\
100	0\\
};
\addlegendentry{$\mathbf{h_{2}}$}

\end{axis}

\begin{axis}[%
width=1.935in,
height=3.2in,
at={(3.327in,0.512in)},
scale only axis,
xmin=0,
xmax=110,
xlabel style={font=\color{white!15!black}, align=center},
xlabel={Sample Index\\[1ex](b) Estimated},
ymin=0,
ymax=1,
axis background/.style={fill=white},
legend style={legend cell align=left, align=left, draw=white!15!black}
]
\addplot [color=mycolor1]
  table[row sep=crcr]{%
0	0.000129947729625483\\
1	7.351508304707e-05\\
2	6.49762802843928e-05\\
3	1.49275275041536e-05\\
4	6.78365169913509e-05\\
5	4.58462055517936e-05\\
6	5.23306791214491e-05\\
7	5.49932161127994e-05\\
8	5.6755755790306e-05\\
9	2.33037868189508e-05\\
10	6.03810401930755e-05\\
11	2.77075943408187e-05\\
12	4.98363719043043e-05\\
13	0.000108801653834936\\
14	0.000684941563473637\\
15	5.79251925870179e-05\\
16	0.000119311774496316\\
17	0.000137967987056923\\
18	9.53248623713889e-05\\
19	0.000264909936383324\\
20	0.00280611611247551\\
21	0.0030885017342809\\
22	0.00290192570644389\\
23	0.000847785076740451\\
24	8.76369051577837e-05\\
25	0.000199926645829405\\
26	3.89583979083622e-05\\
27	0.00399959613082849\\
28	2.04402047730236e-05\\
29	0.013517564013607\\
30	0.038142446462683\\
31	6.85357985906277e-05\\
32	0.0108491264638413\\
33	0.000184354736691263\\
34	0.00290029337006437\\
35	0.00421629563274784\\
36	0.00895266188637058\\
37	0.0327470092280239\\
38	0.072315136476235\\
39	0.0442861708555581\\
40	0.0559856958513841\\
41	0.0329203908107855\\
42	0.0198662510094012\\
43	0.0757457291824211\\
44	0.0183412042588862\\
45	0.0346701472015261\\
46	0.00756669538279709\\
47	0.178255402133866\\
48	0.678886428947898\\
49	0.204412549763237\\
50	0.0267807141535434\\
51	0.112212020766522\\
52	0.080658752828462\\
53	0.121571135727206\\
54	0.0284533520485276\\
55	0.0980903500546724\\
56	0.371594977261151\\
57	0.289555772370326\\
58	0.184644705144438\\
59	0.123017580109703\\
60	0.0778861698964645\\
61	0.0792077180139325\\
62	0.0530713443481265\\
63	0.0362493233163042\\
64	0.0653311681031676\\
65	0.138227614400107\\
66	0.267825415794891\\
67	0.0625962219484224\\
68	0.00760837384284629\\
69	0.00992864128223427\\
70	0.0117704081431309\\
71	0.0108942994175951\\
72	0.0320133781389834\\
73	0.0465004436448836\\
74	0.0694958992809365\\
75	0.0305464299004178\\
76	0.0172868946988216\\
77	0.00392395762676087\\
78	0.0207456176249313\\
79	0.0155258953177094\\
80	0.0104021463721501\\
81	0.00370662158907971\\
82	0.0116822887249657\\
83	0.0198922464554086\\
84	0.0129097207638851\\
85	0.0126597456807002\\
86	0.00401377949498078\\
87	0.0035822292411816\\
88	0.00785530307691816\\
89	0.00622083620717042\\
90	0.00592434945757605\\
91	0.00990094367133853\\
92	0.0105074836197187\\
93	0.000313192777051106\\
94	0.00352225068819995\\
95	0.00175827627063543\\
96	0.00214677045378943\\
97	0.00141771952801327\\
98	0.000150057435361161\\
99	0.000569480388147208\\
100	0.000118706858334365\\
101	0.00355182905771181\\
102	0.00343209005753305\\
103	0.00226345698613732\\
104	0.00107061705138872\\
105	0.00162168993812275\\
106	0.00213536421995185\\
107	0.000381059520863905\\
108	0.00157997680694226\\
109	0.000995516849221195\\
110	0.000533931713384447\\
};
\addlegendentry{$\mathbf{\hat{h}_{1}}$}

\addplot [color=mycolor2]
  table[row sep=crcr]{%
0	3.33393084252341e-05\\
1	2.38559811490378e-05\\
2	2.15588015445938e-05\\
3	3.52357089762258e-05\\
4	1.58096249678085e-05\\
5	0.000108317059632817\\
6	2.14923015032978e-05\\
7	9.7480180745916e-06\\
8	5.00836008171755e-05\\
9	3.6348025430522e-05\\
10	0.000698355488833117\\
11	0.000722879119328403\\
12	4.79591271050154e-06\\
13	3.92816150304661e-05\\
14	1.73283175452989e-05\\
15	0.000105841918100382\\
16	0.000238460513616176\\
17	0.000349090586337027\\
18	0.00130202647718496\\
19	7.8216014349475e-05\\
20	0.00549672901876733\\
21	0.00259148264706197\\
22	0.00165752384747464\\
23	0.00283184013702062\\
24	0.000718379433017171\\
25	0.00347842871406536\\
26	0.0118141082873604\\
27	0.00685839483089761\\
28	0.0169790907847137\\
29	0.00822480174020975\\
30	0.000818488391970087\\
31	0.00372655533779466\\
32	0.00120512257771607\\
33	0.00348924248876541\\
34	0.00538390961034003\\
35	0.0155152330307429\\
36	0.0767712403501286\\
37	0.0169326528793458\\
38	0.0256857310855647\\
39	0.0129796773195042\\
40	0.00900144272779801\\
41	0.00665511009387747\\
42	0.000213834293566364\\
43	0.0552620171172467\\
44	0.0756796839128812\\
45	0.0277393247099827\\
46	0.123869643823405\\
47	0.00475161906347944\\
48	0.0171583168340505\\
49	0.0357672012526884\\
50	0.0221686423074272\\
51	0.0260644020251711\\
52	0.0436237577781357\\
53	0.00982531835985783\\
54	0.961024673168513\\
55	0.00892274185374305\\
56	0.0440682371983463\\
57	0.0285997861010597\\
58	0.0227303968764053\\
59	0.0366612163821997\\
60	0.0171196975294915\\
61	0.0040701526452831\\
62	0.124259812359231\\
63	0.0281288271711108\\
64	0.0763395304493036\\
65	0.0568603472417893\\
66	7.33812873085698e-05\\
67	0.0070984061189883\\
68	0.0102595455949021\\
69	0.014082470794548\\
70	0.0264648806073387\\
71	0.016469706370091\\
72	0.0785217601920986\\
73	0.0155514492766566\\
74	0.0051496197484122\\
75	0.0031398940009538\\
76	0.000850581163041652\\
77	0.00263748497935631\\
78	0.000897259860636276\\
79	0.00854166112970314\\
80	0.0163314369778462\\
81	0.00720295614933671\\
82	0.0132037450516722\\
83	0.00395822288146144\\
84	0.000909977808509463\\
85	0.00302865516742283\\
86	0.00282036384056097\\
87	0.00337116882148523\\
88	0.00606639637245466\\
89	6.20383962203521e-05\\
90	0.000921357112765932\\
91	0.000261809640197212\\
92	0.000545811692546258\\
93	4.89742505045725e-05\\
94	1.71934527006932e-05\\
95	0.000242963177950507\\
96	2.19640373707455e-06\\
97	0.0012312831894923\\
98	0.00113164058723119\\
99	0.000449075005065098\\
100	5.18860113781949e-06\\
101	3.57183417951164e-05\\
102	0.000292379815682473\\
103	0.000352064258759858\\
104	3.37379851967463e-05\\
105	3.44641277167647e-05\\
106	1.69074969787371e-05\\
107	1.66023801966257e-05\\
108	3.12071020670584e-05\\
109	3.02187030360489e-05\\
110	8.86251154189179e-06\\
};
\addlegendentry{$\mathbf{\hat{h}_{2}}$}

\end{axis}
\end{tikzpicture}%