% This file was created by matlab2tikz.
%
%The latest updates can be retrieved from
%  http://www.mathworks.com/matlabcentral/fileexchange/22022-matlab2tikz-matlab2tikz
%where you can also make suggestions and rate matlab2tikz.
%
\definecolor{mycolor1}{rgb}{0.00000,0.44700,0.74100}%
\definecolor{mycolor2}{rgb}{0.85000,0.32500,0.09800}%
%
\begin{tikzpicture}

\begin{axis}[%
width=1.935in,
height=3.2in,
at={(0.758in,0.512in)},
scale only axis,
xmin=0,
xmax=100,
xlabel style={font=\color{white!15!black}, align=center},
xlabel={Sample Index\\[1ex](a) Actual},
ymin=0,
ymax=1,
axis background/.style={fill=white},
legend style={legend cell align=left, align=left, draw=white!15!black}
]
\addplot [color=mycolor1]
  table[row sep=crcr]{%
1	0.0216926152020066\\
2	0.0241183965289278\\
3	0.0267807478156139\\
4	0.0354280601095614\\
5	0.221828667704926\\
6	0.648965745595675\\
7	0.241270440438586\\
8	0.0776642628644082\\
9	0.0581044824071981\\
10	0.0611489366831747\\
11	0.0798140419847986\\
12	0.062735544320507\\
13	0.113011040425493\\
14	0.377485382687519\\
15	0.331649248845691\\
16	0.18615433793772\\
17	0.146493252817741\\
18	0.0847190801249442\\
19	0.0628278567269286\\
20	0.0148364296169451\\
21	0.0250471739922352\\
22	0.0344835915107885\\
23	0.116323790948646\\
24	0.279210940275387\\
25	0.101045410677318\\
26	0.0464379665429307\\
27	0.041398863205924\\
28	0.0263226969199998\\
29	0.0221848789960478\\
30	0.0197642774213948\\
31	0.0186496517239344\\
32	0.0219339353832985\\
33	0.018414044189717\\
34	0.00937919788338426\\
35	0.0100670783096178\\
36	0.0098135024549665\\
37	0.00937197330245933\\
38	0.00884810306396591\\
39	0.00821513429074651\\
40	0.00732026654240377\\
41	0.00945021173361951\\
42	0.0127255218727005\\
43	0.00946415089832864\\
44	0.00862800399957479\\
45	0.00816256372793386\\
46	0.00784857678072338\\
47	0.00764005346579914\\
48	0.00755773656417068\\
49	0.00776075567554332\\
50	0.00986938420958768\\
51	0.00319649311885596\\
52	0.00500292172051245\\
53	0.00524752973649041\\
54	0.00526667690567613\\
55	0.00521575322380608\\
56	0.00513704586881206\\
57	0.00504647235310817\\
58	0.00495116794332671\\
59	0.00485468351773321\\
60	0.00475890010347922\\
61	0.00466484578572566\\
62	0.00457308311118313\\
63	0.00448390798586452\\
64	0.0043974582605137\\
65	0.00431377595094964\\
66	0.00423284428954661\\
67	0.00415461047403326\\
68	0.00407899997367922\\
69	0.00400592569101114\\
70	0.00393529390404367\\
71	0.0038670081481966\\
72	0.00380097175500134\\
73	0.00373708950172093\\
74	0.00367526866536834\\
75	0.00361541967416126\\
76	0.00355745648532918\\
77	0.00350129677649243\\
78	0.00344686201027152\\
79	0.00339407741330312\\
80	0.00334287189828014\\
81	0.0032931779490063\\
82	0.00324493148246751\\
83	0.00319807169773062\\
84	0.003152540918526\\
85	0.00310828443427485\\
86	0.00306525034282854\\
87	0.00302338939712195\\
88	0.00298265485717807\\
89	0.00294300234835571\\
90	0.00290438972634362\\
91	0.0028667769491261\\
92	0.00283012595595264\\
93	0.0027944005532083\\
94	0.00275956630699144\\
95	0.0027255904421446\\
96	0.00269244174744817\\
97	0.00266009048666622\\
98	0.00262850831512411\\
99	0\\
100	0\\
};
\addlegendentry{$\mathbf{h_1}$}

\addplot [color=mycolor2]
  table[row sep=crcr]{%
1	0.00108294891904515\\
2	0.00115806441999571\\
3	0.00125656841390277\\
4	0.00139359850086552\\
5	0.00159676508941691\\
6	0.00191784013184518\\
7	0.00245777585368985\\
8	0.00342819163679349\\
9	0.00533730915065768\\
10	0.00974214709050295\\
11	0.0244449264542886\\
12	0.973731186814765\\
13	0.0500739614470277\\
14	0.0426946282907342\\
15	0.00536788790071817\\
16	0.0362080823589407\\
17	0.176144271962331\\
18	0.115663212635922\\
19	0.0234963057121139\\
20	0.0138738178597906\\
21	0.00966054585381422\\
22	0.00731818549393035\\
23	0.00584139575065055\\
24	0.0048330083027894\\
25	0.00410500747522503\\
26	0.00355723928842746\\
27	0.00313167065616096\\
28	0.00279247304593218\\
29	0.00251639833876938\\
30	0.00228774297450139\\
31	0.00209554142652578\\
32	0.00193191967393617\\
33	0.00179108704155738\\
34	0.00166869616651274\\
35	0\\
36	0\\
37	0\\
38	0\\
39	0\\
40	0\\
41	0\\
42	0\\
43	0\\
44	0\\
45	0\\
46	0\\
47	0\\
48	0\\
49	0\\
50	0\\
51	0\\
52	0\\
53	0\\
54	0\\
55	0\\
56	0\\
57	0\\
58	0\\
59	0\\
60	0\\
61	0\\
62	0\\
63	0\\
64	0\\
65	0\\
66	0\\
67	0\\
68	0\\
69	0\\
70	0\\
71	0\\
72	0\\
73	0\\
74	0\\
75	0\\
76	0\\
77	0\\
78	0\\
79	0\\
80	0\\
81	0\\
82	0\\
83	0\\
84	0\\
85	0\\
86	0\\
87	0\\
88	0\\
89	0\\
90	0\\
91	0\\
92	0\\
93	0\\
94	0\\
95	0\\
96	0\\
97	0\\
98	0\\
99	0\\
100	0\\
};
\addlegendentry{$\mathbf{h_{2}}$}

\end{axis}

\begin{axis}[%
width=1.935in,
height=3.2in,
at={(3.327in,0.512in)},
scale only axis,
xmin=0,
xmax=100,
xlabel style={font=\color{white!15!black}, align=center},
xlabel={Sample Index\\[1ex](b) Estimated},
ymin=0,
ymax=1,
axis background/.style={fill=white},
legend style={legend cell align=left, align=left, draw=white!15!black}
]
\addplot [color=mycolor1]
  table[row sep=crcr]{%
0	3.83900453393116e-05\\
1	4.295657648681e-05\\
2	6.79905255867708e-05\\
3	0.00011487405601008\\
4	8.60121778147447e-06\\
5	9.42421314035603e-05\\
6	3.28722954242573e-05\\
7	4.74601391286553e-05\\
8	7.08442279541649e-05\\
9	0.000260518536315746\\
10	9.96371957252208e-05\\
11	9.31557529566425e-05\\
12	7.3069206523306e-05\\
13	0.000202917659856631\\
14	0.000244632534924109\\
15	0.00348336771396639\\
16	0.00442481183834841\\
17	0.00273302340368059\\
18	0.000754400973854825\\
19	0.000195726235599732\\
20	3.42805290509806e-05\\
21	0.000173326056969096\\
22	0.00311374985985194\\
23	0.000116591983739653\\
24	0.0140104424007136\\
25	0.0389785467188549\\
26	0.000286709801068024\\
27	0.0114776512045148\\
28	0.00179927219865328\\
29	0.00512725857938138\\
30	0.00459469111504995\\
31	0.00805049399156057\\
32	0.0333022001563663\\
33	0.0764802258637379\\
34	0.0464384484887975\\
35	0.0579213728718407\\
36	0.0332870868880787\\
37	0.0238491075186329\\
38	0.0632175742320609\\
39	0.0215293967338002\\
40	0.0354320649142199\\
41	0.00453500449818952\\
42	0.177859329139789\\
43	0.68039759717578\\
44	0.203303779460349\\
45	0.0239264939391956\\
46	0.105469938130487\\
47	0.0876203435551181\\
48	0.125011509343336\\
49	0.0320030360284982\\
50	0.0957013691931135\\
51	0.368732890755443\\
52	0.289273389867277\\
53	0.184948313221843\\
54	0.12343329547351\\
55	0.0788308629008315\\
56	0.0760665820077059\\
57	0.0559731283303798\\
58	0.0374282611309406\\
59	0.0672773920417843\\
60	0.139745158377054\\
61	0.26665854408363\\
62	0.0627014217293569\\
63	0.00982749835169901\\
64	0.0122577720774113\\
65	0.012371119268004\\
66	0.0104709718918948\\
67	0.0323395843546328\\
68	0.0467757902407009\\
69	0.0705233102747316\\
70	0.0316334832864426\\
71	0.0175691382810065\\
72	0.00552305915541323\\
73	0.0211979723998785\\
74	0.0155121514454988\\
75	0.0110564748951631\\
76	0.00579503527265208\\
77	0.0121769288475097\\
78	0.0209691053934582\\
79	0.0125314582918504\\
80	0.0127421782183496\\
81	0.00468854778598812\\
82	0.00229417183118674\\
83	0.00568864866965605\\
84	0.0075718487124308\\
85	0.00750514548955969\\
86	0.0104100960855786\\
87	0.0115339736195793\\
88	0.000364865924506466\\
89	0.00402332196127052\\
90	0.00354570938089664\\
91	0.00384805729398403\\
92	0.00194588851723029\\
93	0.00043601372728631\\
94	0.000430735687487697\\
95	0.000240099017147796\\
96	0.00397178672904685\\
97	0.00219591502416946\\
98	0.00150113770384648\\
99	0.00235374368150273\\
};
\addlegendentry{$\mathbf{\hat{h}_{1}}$}

\addplot [color=mycolor2]
  table[row sep=crcr]{%
0	3.92063739443695e-05\\
1	2.94147919905023e-05\\
2	4.2387645434175e-05\\
3	0.00010724231863441\\
4	0.000118663836807662\\
5	0.001672480087449\\
6	0.00103852282801659\\
7	1.0034973639399e-05\\
8	2.68870184054428e-05\\
9	5.48862502216187e-05\\
10	0.000113172829054893\\
11	0.000902520224006363\\
12	0.000895322280050567\\
13	0.00160920792371256\\
14	8.33665147882842e-05\\
15	0.00590814541937039\\
16	0.00344741888553638\\
17	0.00209569886376847\\
18	0.00212197585126724\\
19	0.000925844463170797\\
20	0.00324959717760935\\
21	0.0129383851201574\\
22	0.00652582705042107\\
23	0.0178528584105914\\
24	0.00898433385865365\\
25	0.000870143521683035\\
26	0.00422238554163879\\
27	0.00158153405654791\\
28	0.00387464567823805\\
29	0.0059332889902613\\
30	0.0163911853804727\\
31	0.0783499354410065\\
32	0.0176257584673558\\
33	0.0285730976121294\\
34	0.0154501298356039\\
35	0.0088133879558836\\
36	0.00452940852001938\\
37	0.000191015825560149\\
38	0.0566597690952312\\
39	0.0772291971069618\\
40	0.0288209822463344\\
41	0.124805315178289\\
42	0.00624563217690991\\
43	0.0176179496462616\\
44	4.81916151714649e-06\\
45	0.0231729711418763\\
46	0.0250946210530218\\
47	0.0431732502846299\\
48	0.00989969075502676\\
49	0.960217421231208\\
50	0.00838401575702639\\
51	0.0447627202840209\\
52	0.0252080763244758\\
53	0.0242472252882091\\
54	0.0400365655849072\\
55	0.0170399229839121\\
56	0.00443290445531406\\
57	0.125745245058458\\
58	0.0285644240913087\\
59	0.0777284431585543\\
60	0.0591457230772259\\
61	8.41091533928215e-05\\
62	0.00944408303612031\\
63	0.0102557883880399\\
64	0.0145526049076707\\
65	0.0277128567732456\\
66	0.0171463409328393\\
67	0.0799417696408541\\
68	0.0161863385805635\\
69	0.00599076013646529\\
70	0.00423205330631002\\
71	0.00136527783613721\\
72	0.0020631278143813\\
73	0.00129564988293537\\
74	0.0091779711540013\\
75	0.0170257291395735\\
76	0.00654753469120996\\
77	0.0147138556757977\\
78	0.00392978935049948\\
79	0.00160615431123652\\
80	0.00283410443892292\\
81	0.00363091318386498\\
82	0.00394784135600311\\
83	0.00620630065176071\\
84	0.000119441262997141\\
85	0.00105295162530382\\
86	0.000502495490837999\\
87	0.00102567033147093\\
88	0.00015139228655502\\
89	7.07164148482719e-05\\
90	6.00014125373091e-05\\
91	3.55802588251221e-05\\
92	0.00158377445189731\\
93	0.00170947773894273\\
94	0.000379928854839803\\
95	8.15952664388634e-05\\
96	1.2109868196362e-05\\
97	0.000166698608239243\\
98	0.000106414840954511\\
99	6.93130244375695e-05\\
};
\addlegendentry{$\mathbf{\hat{h}_{2}}$}

\end{axis}
\end{tikzpicture}%