% This file was created by matlab2tikz.
%
%The latest updates can be retrieved from
%  http://www.mathworks.com/matlabcentral/fileexchange/22022-matlab2tikz-matlab2tikz
%where you can also make suggestions and rate matlab2tikz.
%
\definecolor{mycolor1}{rgb}{0.00000,0.44700,0.74100}%
\definecolor{mycolor2}{rgb}{0.85000,0.32500,0.09800}%
%
\begin{tikzpicture}

\begin{axis}[%
width=1.935in,
height=3.2in,
at={(0.758in,0.512in)},
scale only axis,
xmin=0,
xmax=150,
xlabel style={font=\color{white!15!black}, align=center},
xlabel={Sample Index\\[1ex](a) Actual},
ymin=0,
ymax=0.7,
axis background/.style={fill=white},
legend style={legend cell align=left, align=left, draw=white!15!black}
]
\addplot [color=mycolor1]
  table[row sep=crcr]{%
1	0.0234657806037261\\
2	0.0272334504034075\\
3	0.0326864300765018\\
4	0.0414541482980318\\
5	0.0586677033458464\\
6	0.117843438362983\\
7	0.159969331461504\\
8	0.174397116945152\\
9	0.616552810702634\\
10	0.0882137642931462\\
11	0.0472681903124796\\
12	0.0327587509505929\\
13	0.0272256709659274\\
14	0.0412344622245766\\
15	0.0186762848129325\\
16	0.0451940046978057\\
17	0.0153724087875252\\
18	0.0239672675363248\\
19	0.0400285717874473\\
20	0.0828333966509162\\
21	0.557624977131952\\
22	0.149414784250917\\
23	0.109138078132702\\
24	0.0381681231028791\\
25	0.032799759178118\\
26	0.191519461959093\\
27	0.0734580287558902\\
28	0.0358315656953253\\
29	0.0179563195827385\\
30	0.0169149242156914\\
31	0.0179798517146348\\
32	0.0199431506445131\\
33	0.0279225394655299\\
34	0.0908594243819801\\
35	0.0439964246924232\\
36	0.330890477505262\\
37	0.037800506563543\\
38	0.020261933748638\\
39	0.0138181229977315\\
40	0.0211497159554441\\
41	0.0112042208144458\\
42	0.00964538908702694\\
43	0.00864780826327016\\
44	0.00787736374270682\\
45	0.00720180133294831\\
46	0.00651453200193765\\
47	0.00565492088107664\\
48	0.0112814316241706\\
49	0.0075966567083061\\
50	0.0102713040739602\\
51	0.00787142060243747\\
52	0.00711780022683946\\
53	0.00668443537322835\\
54	0.00638223966522588\\
55	0.00615487020840034\\
56	0.00598242225636516\\
57	0.00586293416152974\\
58	0.00581626175933958\\
59	0.00593494184987807\\
60	0.00707647204853056\\
61	0.00861312572402681\\
62	0.00240649054353041\\
63	0.0036902508247688\\
64	0.0040125763148678\\
65	0.00408542983582614\\
66	0.00408934467211144\\
67	0.00406760360864643\\
68	0.00403657730104579\\
69	0.00400486664899167\\
70	0.00397913876457006\\
71	0.00396763365360209\\
72	0.00398577860522856\\
73	0.00407460869510253\\
74	0.00440882178496405\\
75	0.00852319154542653\\
76	0.00211982859547221\\
77	0.00279674481878385\\
78	0.00295234209521732\\
79	0.00299967450324673\\
80	0.00300734384297471\\
81	0.00299658049652506\\
82	0.00297609501762909\\
83	0.00295010695632826\\
84	0.00292089738309008\\
85	0.00288979839106794\\
86	0.00285763293534116\\
87	0.00282493110979805\\
88	0.00279204510261472\\
89	0.00275921420187501\\
90	0.00272660345813555\\
91	0.00269432766245323\\
92	0.00266246675038502\\
93	0.00263107599882434\\
94	0.00260019295165966\\
95	0.00256984222925479\\
96	0.00254003893333548\\
97	0.0025107910982644\\
98	0.00248210148178531\\
99	0.00245396889001376\\
100	0.00242638916874131\\
101	0.00239935595223708\\
102	0.00237286123354156\\
103	0.00234689580183488\\
104	0.00232144957979209\\
105	0.00229651188498403\\
106	0.00227207163310714\\
107	0.0022481174963278\\
108	0.00222463802675857\\
109	0.00220162175268604\\
110	0.00217905725339276\\
111	0.0021569332170867\\
112	0.00213523848544673\\
113	0.00211396208753109\\
114	0.00209309326520902\\
115	0.00207262149182518\\
116	0.00205253648545491\\
117	0.00203282821783402\\
118	0.00201348691983224\\
119	0.00199450308416773\\
120	0.00197586746592614\\
121	0.00195757108133911\\
122	0.0019396052051902\\
123	0.0019219613671484\\
124	0.00190463134727109\\
125	0.00188760717087541\\
126	0.00187088110293773\\
127	0.00185444564215264\\
128	0.0018382935147574\\
129	0.00182241766820821\\
130	0.00180681126477794\\
131	0.00179146767513212\\
132	0.00177638047192757\\
133	0.00176154342347035\\
134	0.00174695048746156\\
135	0.0017325958048528\\
136	0.00171847369382931\\
137	0.00170457864393352\\
138	0.0016909053103386\\
139	0.00167744850827835\\
140	0.00166420320763913\\
141	0.00165116452771496\\
142	0.00163832773212761\\
143	0.00162568822391149\\
144	0.00161324154076111\\
145	0.0016009833504405\\
146	0.00158890944635072\\
147	0.00157701574325256\\
148	0.00156529827314105\\
149	0\\
150	0\\
};
\addlegendentry{$\mathbf{h_1}$}

\addplot [color=mycolor2]
  table[row sep=crcr]{%
1	0.019775303219206\\
2	0.0210217764534023\\
3	0.0224372323963497\\
4	0.024058742711813\\
5	0.0259351263737046\\
6	0.0281320174688059\\
7	0.0307398096072034\\
8	0.0338865833958781\\
9	0.0377600935275399\\
10	0.0426472101764649\\
11	0.0490094599986528\\
12	0.0576401827385178\\
13	0.0700288298559564\\
14	0.0893407156606893\\
15	0.123700774100431\\
16	0.202175033398071\\
17	0.564479813098353\\
18	0.690442426104836\\
19	0.212260509632627\\
20	0.126132345068284\\
21	0.100380135781766\\
22	0.0378663697499036\\
23	0.0333199748773482\\
24	0.0149453064107011\\
25	0.10083899339379\\
26	0.161002397050911\\
27	0.0405118251764787\\
28	0.0383644765554957\\
29	0.0341227495803863\\
30	0.0306469105251072\\
31	0.0278570926171954\\
32	0.0255709383506331\\
33	0.0236574529195357\\
34	0.0220274984760589\\
35	0.0206190941704396\\
36	0.0193877726649002\\
37	0.0183006807256663\\
38	0.0173329207549748\\
39	0.016465211935799\\
40	0.0156823459816501\\
41	0.0149721364414517\\
42	0.0143246843629073\\
43	0.0137318527665838\\
44	0.0131868826449622\\
45	0.0126841071808284\\
46	0.0122187355837443\\
47	0.0117866872087634\\
48	0.0113844626077037\\
49	0.0110090421200206\\
50	0.0106578052804057\\
51	0\\
52	0\\
53	0\\
54	0\\
55	0\\
56	0\\
57	0\\
58	0\\
59	0\\
60	0\\
61	0\\
62	0\\
63	0\\
64	0\\
65	0\\
66	0\\
67	0\\
68	0\\
69	0\\
70	0\\
71	0\\
72	0\\
73	0\\
74	0\\
75	0\\
76	0\\
77	0\\
78	0\\
79	0\\
80	0\\
81	0\\
82	0\\
83	0\\
84	0\\
85	0\\
86	0\\
87	0\\
88	0\\
89	0\\
90	0\\
91	0\\
92	0\\
93	0\\
94	0\\
95	0\\
96	0\\
97	0\\
98	0\\
99	0\\
100	0\\
101	0\\
102	0\\
103	0\\
104	0\\
105	0\\
106	0\\
107	0\\
108	0\\
109	0\\
110	0\\
111	0\\
112	0\\
113	0\\
114	0\\
115	0\\
116	0\\
117	0\\
118	0\\
119	0\\
120	0\\
121	0\\
122	0\\
123	0\\
124	0\\
125	0\\
126	0\\
127	0\\
128	0\\
129	0\\
130	0\\
131	0\\
132	0\\
133	0\\
134	0\\
135	0\\
136	0\\
137	0\\
138	0\\
139	0\\
140	0\\
141	0\\
142	0\\
143	0\\
144	0\\
145	0\\
146	0\\
147	0\\
148	0\\
149	0\\
150	0\\
};
\addlegendentry{$\mathbf{h_{2}}$}

\end{axis}

\begin{axis}[%
width=1.935in,
height=3.2in,
at={(3.327in,0.512in)},
scale only axis,
xmin=0,
xmax=150,
xlabel style={font=\color{white!15!black}, align=center},
xlabel={Sample Index\\[1ex](b) Estimated},
ymin=0,
ymax=1,
axis background/.style={fill=white},
legend style={legend cell align=left, align=left, draw=white!15!black}
]
\addplot [color=mycolor1]
  table[row sep=crcr]{%
0	6.86074731848701e-05\\
1	8.72819443836799e-05\\
2	5.89064326622998e-05\\
3	0.000101945674972696\\
4	3.30132134902136e-05\\
5	0.000160431339733516\\
6	0.000135360678727481\\
7	0.000137677700370619\\
8	0.000282855120616177\\
9	0.000179453502643434\\
10	5.04413517815185e-05\\
11	4.31802587805092e-05\\
12	7.14883652227634e-05\\
13	0.000210483670544317\\
14	4.11925280154855e-05\\
15	9.39125322438235e-05\\
16	0.00134569650212135\\
17	0.000101453189977179\\
18	7.00149896095706e-05\\
19	0.00551819881030589\\
20	4.81379117773365e-05\\
21	0.0033206844153862\\
22	9.12953319760808e-05\\
23	0.000409858871034374\\
24	0.000416549900689537\\
25	5.49808244571363e-05\\
26	0.00269150369767358\\
27	0.00157273241844155\\
28	0.00589581139958782\\
29	0.00835532999500276\\
30	0.00681709768653671\\
31	0.0081546344728512\\
32	0.0172551081586179\\
33	0.0238070806568804\\
34	0.0188940543143097\\
35	0.012126254779225\\
36	0.0178594350135104\\
37	0.0056769419434253\\
38	0.0107491997977402\\
39	0.0108781566228963\\
40	0.0146726044811026\\
41	0.000399568958630895\\
42	0.00999588946676367\\
43	0.0244758670020096\\
44	0.00837761509131024\\
45	0.0374692543201747\\
46	0.0927090134437392\\
47	0.0324712255478007\\
48	0.0244764036609303\\
49	0.0546807368084795\\
50	0.00921167385555525\\
51	0.0179598760212657\\
52	0.105434937675733\\
53	0.0326375870775991\\
54	0.0340276963787001\\
55	0.0380971074593461\\
56	0.0302241222982055\\
57	0.0459455545410739\\
58	0.146306470502102\\
59	0.0351166877077926\\
60	0.478063833014421\\
61	0.396791469206791\\
62	0.104236683062121\\
63	0.0925356174707052\\
64	0.0288579336086535\\
65	0.095749994632192\\
66	0.0334415793034773\\
67	0.0542688298484498\\
68	0.0220342619869548\\
69	0.0884780750120933\\
70	0.0962151437562552\\
71	0.119846258878188\\
72	0.248774067271436\\
73	0.468259702735095\\
74	0.189983756522635\\
75	0.0809413980859454\\
76	0.0773822350296782\\
77	0.102286410922857\\
78	0.100532711658657\\
79	0.107666375874069\\
80	0.0264896292878163\\
81	0.036818465289133\\
82	0.0385841661334396\\
83	0.027187871154066\\
84	0.0408391667529856\\
85	0.11355411901741\\
86	0.102006344306894\\
87	0.275318108397828\\
88	0.0985277964692685\\
89	0.0353595769399752\\
90	0.0522214263170727\\
91	0.0156334197184543\\
92	0.00671680994777032\\
93	0.0184466070556504\\
94	0.0144483570928033\\
95	0.025245464951459\\
96	0.00355406046799017\\
97	0.0201034329267516\\
98	0.0272815219668859\\
99	0.060754188837846\\
100	0.0383086292640196\\
101	9.28063630292126e-05\\
102	0.0280898861303783\\
103	0.000814907435522066\\
104	0.00529188442914661\\
105	0.00587841190330992\\
106	0.00110955568360408\\
107	0.00142683512259272\\
108	0.000959011124743932\\
109	8.58306654930119e-05\\
110	0.00254001489338293\\
111	0.00046137947029317\\
112	0.0210473524011737\\
113	0.00475520367844451\\
114	0.00550008771056479\\
115	0.00431619476865359\\
116	0.000289480889028683\\
117	0.00142974342361883\\
118	3.4076256186356e-05\\
119	0.00161906703210221\\
120	0.00127813639274915\\
121	1.5557225703588e-05\\
122	9.16599547350788e-05\\
123	3.82725378957307e-05\\
124	0.000308109453332424\\
125	0.000588050402127192\\
126	0.000743990153724331\\
127	0.00130818199104834\\
128	3.74042447673996e-05\\
129	0.000504627798044452\\
130	0.000134521506611168\\
131	8.39169771649284e-05\\
132	6.94808666802375e-05\\
133	7.70688915298783e-05\\
134	0.000113517130763055\\
135	0.000157618544044644\\
136	2.00090592343181e-05\\
137	8.8057746906351e-06\\
138	7.15146009816249e-05\\
139	0.000412867609166943\\
140	9.48263800354707e-05\\
};
\addlegendentry{$\mathbf{\hat{h}_{1}}$}

\addplot [color=mycolor2]
  table[row sep=crcr]{%
0	6.76654619373271e-05\\
1	4.91627886615801e-05\\
2	6.91821429488661e-05\\
3	8.08626554076986e-05\\
4	8.38643453887149e-05\\
5	6.56825650478455e-05\\
6	3.30819801786878e-05\\
7	3.67218815665236e-05\\
8	5.98902919982897e-05\\
9	7.67714440240801e-05\\
10	2.3085400602636e-05\\
11	0.000596638575352287\\
12	0.000369538608073372\\
13	4.42078837045701e-05\\
14	0.00151131810110558\\
15	0.00169615186367856\\
16	4.74918091540109e-05\\
17	0.0023959379094057\\
18	0.0016046078025642\\
19	0.000811758344281148\\
20	3.16952034619983e-05\\
21	0.0001225248728031\\
22	0.000345330221615841\\
23	1.91349320163898e-05\\
24	0.000178069918764596\\
25	0.0048457665043305\\
26	4.20920209181762e-05\\
27	0.00660638936086797\\
28	0.0121415460325107\\
29	0.00856128854392342\\
30	0.0112563037741246\\
31	0.00188795671523486\\
32	0.00859816401506858\\
33	0.00432802103824908\\
34	0.000499029865341222\\
35	0.00432287079943928\\
36	0.00538265226245154\\
37	0.00952465575758123\\
38	0.00353691366797016\\
39	0.00111931668117059\\
40	0.0206129850787605\\
41	0.0109443056211423\\
42	0.0548486956224146\\
43	0.0113138823853353\\
44	0.0296812377658001\\
45	0.0165989036306017\\
46	0.0080893490310537\\
47	0.000587008405124375\\
48	0.00359175276945234\\
49	0.0105592527893226\\
50	0.00816024525462074\\
51	0.00911006038411552\\
52	0.0318616803634719\\
53	0.0234265955956165\\
54	0.0615998456397831\\
55	0.0327774225510353\\
56	0.0464809749978204\\
57	0.132773004402289\\
58	0.028153500019299\\
59	0.0299214511061313\\
60	0.00713624093049018\\
61	0.0253935311881859\\
62	0.0193769880212006\\
63	0.0199196928962995\\
64	0.0107050946288233\\
65	0.0148295758243818\\
66	0.0289176350131606\\
67	0.0384154696135586\\
68	0.0359990659183465\\
69	0.96004832026593\\
70	0.0355987359226892\\
71	0.0377476651154986\\
72	0.0280757110213335\\
73	0.0157611440689659\\
74	0.0117909738786895\\
75	0.0207220643235982\\
76	0.019931133680978\\
77	0.0276013175394355\\
78	0.00785255935960075\\
79	0.0285597024246745\\
80	0.0278324002100783\\
81	0.132161962845357\\
82	0.0470140040793303\\
83	0.031809156528105\\
84	0.0626626906638918\\
85	0.0232225234578106\\
86	0.0325326786821957\\
87	0.00918074979562756\\
88	0.00866293852930977\\
89	0.00982117358364747\\
90	0.00327697764567078\\
91	0.000955126116699196\\
92	0.00720383961401175\\
93	0.0161080790614863\\
94	0.0291040154085018\\
95	0.0111588264708126\\
96	0.0554571709678768\\
97	0.0106446671257258\\
98	0.0200516108654128\\
99	0.00128012065029348\\
100	0.00336134358039267\\
101	0.00934745085394604\\
102	0.00541848176617166\\
103	0.00478370190240103\\
104	0.000941932408542265\\
105	0.00414570681581783\\
106	0.00795652295613439\\
107	0.0022641240281062\\
108	0.0102728081458172\\
109	0.00834753657925383\\
110	0.0125371680282817\\
111	0.00762407677220571\\
112	0.000100386125960554\\
113	0.00511075462404064\\
114	0.000460553172774723\\
115	0.000287873545001056\\
116	0.000522691163743758\\
117	4.50189219716883e-05\\
118	0.000161889722583502\\
119	0.000812748908780726\\
120	0.00146548405715301\\
121	0.00220808445909942\\
122	0.000111770623678452\\
123	0.00140650430151393\\
124	0.00162344135956971\\
125	5.34284843541278e-05\\
126	0.000103133339603923\\
127	0.000336598327236896\\
128	2.01773437884513e-05\\
129	5.1177153412128e-05\\
130	1.48903634907304e-05\\
131	4.81590648488684e-05\\
132	1.36207469157972e-05\\
133	7.18056443213674e-05\\
134	4.87839726856383e-05\\
135	0.000111807823274983\\
136	9.2277026770595e-05\\
137	7.86801543963052e-05\\
138	6.44726839496268e-05\\
139	1.12799738530287e-05\\
140	1.86852177992889e-05\\
};
\addlegendentry{$\mathbf{\hat{h}_{2}}$}

\end{axis}
\end{tikzpicture}%