% This file was created by matlab2tikz.
%
%The latest updates can be retrieved from
%  http://www.mathworks.com/matlabcentral/fileexchange/22022-matlab2tikz-matlab2tikz
%where you can also make suggestions and rate matlab2tikz.
%
\definecolor{mycolor1}{rgb}{0.00000,0.44700,0.74100}%
\definecolor{mycolor2}{rgb}{0.85000,0.32500,0.09800}%
%
\begin{tikzpicture}

\begin{axis}[%
width=1.935in,
height=3.2in,
at={(0.758in,0.512in)},
scale only axis,
xmin=0,
xmax=150,
xlabel style={font=\color{white!15!black}, align=center},
xlabel={Sample Index\\[1ex](a) Actual},
ymin=0,
ymax=0.7,
axis background/.style={fill=white},
legend style={legend cell align=left, align=left, draw=white!15!black}
]
\addplot [color=mycolor1]
  table[row sep=crcr]{%
1	0.0234657806037261\\
2	0.0272334504034075\\
3	0.0326864300765018\\
4	0.0414541482980318\\
5	0.0586677033458464\\
6	0.117843438362983\\
7	0.159969331461504\\
8	0.174397116945152\\
9	0.616552810702634\\
10	0.0882137642931462\\
11	0.0472681903124796\\
12	0.0327587509505929\\
13	0.0272256709659274\\
14	0.0412344622245766\\
15	0.0186762848129325\\
16	0.0451940046978057\\
17	0.0153724087875252\\
18	0.0239672675363248\\
19	0.0400285717874473\\
20	0.0828333966509162\\
21	0.557624977131952\\
22	0.149414784250917\\
23	0.109138078132702\\
24	0.0381681231028791\\
25	0.032799759178118\\
26	0.191519461959093\\
27	0.0734580287558902\\
28	0.0358315656953253\\
29	0.0179563195827385\\
30	0.0169149242156914\\
31	0.0179798517146348\\
32	0.0199431506445131\\
33	0.0279225394655299\\
34	0.0908594243819801\\
35	0.0439964246924232\\
36	0.330890477505262\\
37	0.037800506563543\\
38	0.020261933748638\\
39	0.0138181229977315\\
40	0.0211497159554441\\
41	0.0112042208144458\\
42	0.00964538908702694\\
43	0.00864780826327016\\
44	0.00787736374270682\\
45	0.00720180133294831\\
46	0.00651453200193765\\
47	0.00565492088107664\\
48	0.0112814316241706\\
49	0.0075966567083061\\
50	0.0102713040739602\\
51	0.00787142060243747\\
52	0.00711780022683946\\
53	0.00668443537322835\\
54	0.00638223966522588\\
55	0.00615487020840034\\
56	0.00598242225636516\\
57	0.00586293416152974\\
58	0.00581626175933958\\
59	0.00593494184987807\\
60	0.00707647204853056\\
61	0.00861312572402681\\
62	0.00240649054353041\\
63	0.0036902508247688\\
64	0.0040125763148678\\
65	0.00408542983582614\\
66	0.00408934467211144\\
67	0.00406760360864643\\
68	0.00403657730104579\\
69	0.00400486664899167\\
70	0.00397913876457006\\
71	0.00396763365360209\\
72	0.00398577860522856\\
73	0.00407460869510253\\
74	0.00440882178496405\\
75	0.00852319154542653\\
76	0.00211982859547221\\
77	0.00279674481878385\\
78	0.00295234209521732\\
79	0.00299967450324673\\
80	0.00300734384297471\\
81	0.00299658049652506\\
82	0.00297609501762909\\
83	0.00295010695632826\\
84	0.00292089738309008\\
85	0.00288979839106794\\
86	0.00285763293534116\\
87	0.00282493110979805\\
88	0.00279204510261472\\
89	0.00275921420187501\\
90	0.00272660345813555\\
91	0.00269432766245323\\
92	0.00266246675038502\\
93	0.00263107599882434\\
94	0.00260019295165966\\
95	0.00256984222925479\\
96	0.00254003893333548\\
97	0.0025107910982644\\
98	0.00248210148178531\\
99	0.00245396889001376\\
100	0.00242638916874131\\
101	0.00239935595223708\\
102	0.00237286123354156\\
103	0.00234689580183488\\
104	0.00232144957979209\\
105	0.00229651188498403\\
106	0.00227207163310714\\
107	0.0022481174963278\\
108	0.00222463802675857\\
109	0.00220162175268604\\
110	0.00217905725339276\\
111	0.0021569332170867\\
112	0.00213523848544673\\
113	0.00211396208753109\\
114	0.00209309326520902\\
115	0.00207262149182518\\
116	0.00205253648545491\\
117	0.00203282821783402\\
118	0.00201348691983224\\
119	0.00199450308416773\\
120	0.00197586746592614\\
121	0.00195757108133911\\
122	0.0019396052051902\\
123	0.0019219613671484\\
124	0.00190463134727109\\
125	0.00188760717087541\\
126	0.00187088110293773\\
127	0.00185444564215264\\
128	0.0018382935147574\\
129	0.00182241766820821\\
130	0.00180681126477794\\
131	0.00179146767513212\\
132	0.00177638047192757\\
133	0.00176154342347035\\
134	0.00174695048746156\\
135	0.0017325958048528\\
136	0.00171847369382931\\
137	0.00170457864393352\\
138	0.0016909053103386\\
139	0.00167744850827835\\
140	0.00166420320763913\\
141	0.00165116452771496\\
142	0.00163832773212761\\
143	0.00162568822391149\\
144	0.00161324154076111\\
145	0.0016009833504405\\
146	0.00158890944635072\\
147	0.00157701574325256\\
148	0.00156529827314105\\
149	0\\
150	0\\
};
\addlegendentry{$\mathbf{h_1}$}

\addplot [color=mycolor2]
  table[row sep=crcr]{%
1	0.019775303219206\\
2	0.0210217764534023\\
3	0.0224372323963497\\
4	0.024058742711813\\
5	0.0259351263737046\\
6	0.0281320174688059\\
7	0.0307398096072034\\
8	0.0338865833958781\\
9	0.0377600935275399\\
10	0.0426472101764649\\
11	0.0490094599986528\\
12	0.0576401827385178\\
13	0.0700288298559564\\
14	0.0893407156606893\\
15	0.123700774100431\\
16	0.202175033398071\\
17	0.564479813098353\\
18	0.690442426104836\\
19	0.212260509632627\\
20	0.126132345068284\\
21	0.100380135781766\\
22	0.0378663697499036\\
23	0.0333199748773482\\
24	0.0149453064107011\\
25	0.10083899339379\\
26	0.161002397050911\\
27	0.0405118251764787\\
28	0.0383644765554957\\
29	0.0341227495803863\\
30	0.0306469105251072\\
31	0.0278570926171954\\
32	0.0255709383506331\\
33	0.0236574529195357\\
34	0.0220274984760589\\
35	0.0206190941704396\\
36	0.0193877726649002\\
37	0.0183006807256663\\
38	0.0173329207549748\\
39	0.016465211935799\\
40	0.0156823459816501\\
41	0.0149721364414517\\
42	0.0143246843629073\\
43	0.0137318527665838\\
44	0.0131868826449622\\
45	0.0126841071808284\\
46	0.0122187355837443\\
47	0.0117866872087634\\
48	0.0113844626077037\\
49	0.0110090421200206\\
50	0.0106578052804057\\
51	0\\
52	0\\
53	0\\
54	0\\
55	0\\
56	0\\
57	0\\
58	0\\
59	0\\
60	0\\
61	0\\
62	0\\
63	0\\
64	0\\
65	0\\
66	0\\
67	0\\
68	0\\
69	0\\
70	0\\
71	0\\
72	0\\
73	0\\
74	0\\
75	0\\
76	0\\
77	0\\
78	0\\
79	0\\
80	0\\
81	0\\
82	0\\
83	0\\
84	0\\
85	0\\
86	0\\
87	0\\
88	0\\
89	0\\
90	0\\
91	0\\
92	0\\
93	0\\
94	0\\
95	0\\
96	0\\
97	0\\
98	0\\
99	0\\
100	0\\
101	0\\
102	0\\
103	0\\
104	0\\
105	0\\
106	0\\
107	0\\
108	0\\
109	0\\
110	0\\
111	0\\
112	0\\
113	0\\
114	0\\
115	0\\
116	0\\
117	0\\
118	0\\
119	0\\
120	0\\
121	0\\
122	0\\
123	0\\
124	0\\
125	0\\
126	0\\
127	0\\
128	0\\
129	0\\
130	0\\
131	0\\
132	0\\
133	0\\
134	0\\
135	0\\
136	0\\
137	0\\
138	0\\
139	0\\
140	0\\
141	0\\
142	0\\
143	0\\
144	0\\
145	0\\
146	0\\
147	0\\
148	0\\
149	0\\
150	0\\
};
\addlegendentry{$\mathbf{h_{2}}$}

\end{axis}

\begin{axis}[%
width=1.935in,
height=3.2in,
at={(3.327in,0.512in)},
scale only axis,
xmin=0,
xmax=150,
xlabel style={font=\color{white!15!black}, align=center},
xlabel={Sample Index\\[1ex](b) Estimated},
ymin=0,
ymax=1,
axis background/.style={fill=white},
legend style={legend cell align=left, align=left, draw=white!15!black}
]
\addplot [color=mycolor1]
  table[row sep=crcr]{%
0	7.82823484862217e-05\\
1	0.000110917872048433\\
2	7.31224900689639e-05\\
3	9.29892907931274e-05\\
4	0.00014498254976151\\
5	0.000123705994946565\\
6	9.72595278387212e-05\\
7	0.000110416703932346\\
8	0.000232238406288455\\
9	9.04898648108423e-05\\
10	0.000230449603505429\\
11	0.000139704094939878\\
12	2.21853853029004e-05\\
13	0.000140077813429518\\
14	8.99686248515754e-05\\
15	0.00017561780432874\\
16	5.90725437628155e-05\\
17	9.87293494694618e-05\\
18	9.40968030596989e-05\\
19	0.000130564902643974\\
20	0.000213859020877805\\
21	0.000622575423209694\\
22	8.92635133490455e-05\\
23	0.000109981753442282\\
24	0.00479778631878425\\
25	4.27856346065504e-05\\
26	0.00229226266322673\\
27	4.46091354447992e-05\\
28	0.00012547537846436\\
29	0.000356130359526629\\
30	0.000305859223477107\\
31	0.00175873492240112\\
32	0.00201290526782274\\
33	0.00628122248881461\\
34	0.00818507302718938\\
35	0.00474709150955146\\
36	0.00687702238987008\\
37	0.0168393175164335\\
38	0.0243058427385077\\
39	0.0191197748488447\\
40	0.0124481608213113\\
41	0.0170305427324804\\
42	0.00446023724012775\\
43	0.0110298304430466\\
44	0.0093179507150277\\
45	0.0133739461074438\\
46	0.00104116173133271\\
47	0.0102922581021386\\
48	0.0235611418902975\\
49	0.00898507860669387\\
50	0.0382164175275257\\
51	0.0921501069305502\\
52	0.0317075065201939\\
53	0.0262796671611484\\
54	0.0530229557208454\\
55	0.0110019553285774\\
56	0.0172003878743261\\
57	0.0984211707836083\\
58	0.0286734236189684\\
59	0.032891234362873\\
60	0.0378066965681205\\
61	0.0297714489910173\\
62	0.0468167543570452\\
63	0.145940444649027\\
64	0.0356809065763134\\
65	0.480006975645359\\
66	0.398306838194467\\
67	0.106020029112885\\
68	0.0937632590302447\\
69	0.0301996159706594\\
70	0.0907153745332915\\
71	0.0347063340986102\\
72	0.053925430760107\\
73	0.0213809675177062\\
74	0.086836258647958\\
75	0.097013093241015\\
76	0.123150657079885\\
77	0.247677365277295\\
78	0.468596752556686\\
79	0.188904466855901\\
80	0.0811029070763261\\
81	0.0763157275201066\\
82	0.103837922566106\\
83	0.100480697890453\\
84	0.105913138080982\\
85	0.0268116125366768\\
86	0.0367673473772666\\
87	0.0396131158456302\\
88	0.0273235885494612\\
89	0.0396291813452704\\
90	0.112960941011434\\
91	0.10177906742159\\
92	0.275959292141432\\
93	0.0970843284241996\\
94	0.0355882783880606\\
95	0.0514079662790467\\
96	0.0139811176968526\\
97	0.0076131545736182\\
98	0.0167581053027788\\
99	0.0154144219675974\\
100	0.0244440326652469\\
101	0.00310000114472113\\
102	0.0192300317503415\\
103	0.0268671704201662\\
104	0.0606587200487508\\
105	0.0377648297270787\\
106	0.000157758287028455\\
107	0.0262651970401792\\
108	0.000989258951279852\\
109	0.00484019373354696\\
110	0.00491696019800693\\
111	0.000709112440643755\\
112	0.00118788039035337\\
113	0.001732839365507\\
114	6.03883878620791e-05\\
115	0.00140837986562015\\
116	7.98053002944074e-05\\
117	0.0202395356241431\\
118	0.0052411669549197\\
119	0.00635026936431048\\
120	0.00320131254020647\\
121	0.00100546114087615\\
122	0.000774818764338983\\
123	7.73305420469561e-05\\
124	0.00121016161391486\\
125	1.54663009704878e-05\\
126	0.000112420958650265\\
127	0.000137411245473752\\
128	6.59854951280728e-05\\
129	0.00041974248303085\\
130	0.000363449577025039\\
131	0.00101681256649622\\
132	0.00083397379264747\\
133	0.000106584840716974\\
134	0.000996541351459584\\
135	0.00019159373913183\\
136	0.000179697734608241\\
137	2.28266166228165e-05\\
138	6.53788364223245e-05\\
139	5.71655613699717e-05\\
140	5.29932004221607e-05\\
141	0.000146695773277279\\
142	9.30718263237852e-05\\
143	1.3905949297393e-05\\
144	0.000191254656311393\\
145	0.000135586959354633\\
146	5.79794746600905e-05\\
147	9.69958298398231e-05\\
148	6.11885774837239e-05\\
149	9.89510479347428e-05\\
};
\addlegendentry{$\mathbf{\hat{h}_{1}}$}

\addplot [color=mycolor2]
  table[row sep=crcr]{%
0	2.07487519399868e-05\\
1	6.69833638651831e-05\\
2	4.84294863209092e-05\\
3	8.52457122754922e-05\\
4	7.99251846728565e-05\\
5	8.60037951379926e-05\\
6	4.90151011221684e-05\\
7	4.76391912210886e-05\\
8	0.000145875317792462\\
9	0.000116135124192545\\
10	3.98027792777962e-05\\
11	2.43279747282632e-05\\
12	0.000102460186309789\\
13	2.83284147499745e-05\\
14	0.000123482823427607\\
15	1.95807511678518e-05\\
16	0.000513907295595692\\
17	0.000613502287243841\\
18	0.000167241657904529\\
19	0.000753086534430358\\
20	0.00185078202932303\\
21	3.52390508356447e-05\\
22	0.00266439635278848\\
23	0.00155720465572615\\
24	0.00124957403012463\\
25	4.15731482041913e-05\\
26	0.000146403989275304\\
27	0.000701172594933819\\
28	3.83369713205761e-05\\
29	0.00016296388452083\\
30	0.00453003134429875\\
31	6.62226919013046e-05\\
32	0.00567188341247465\\
33	0.0123427794885233\\
34	0.00759236767838945\\
35	0.0114344344289563\\
36	0.00140915965794048\\
37	0.00867139182814905\\
38	0.00358683274528365\\
39	0.000163432625807167\\
40	0.00445196866480372\\
41	0.0059741442370446\\
42	0.00888754915146856\\
43	0.00314565458458962\\
44	0.000759186425044421\\
45	0.0205048719075673\\
46	0.0112568737162958\\
47	0.0543554472397548\\
48	0.0114541561960394\\
49	0.0301468223431552\\
50	0.0159536567896388\\
51	0.00932764786433571\\
52	0.00018135142561203\\
53	0.00247268933442136\\
54	0.0113036222510275\\
55	0.00860740778292195\\
56	0.00884799715078929\\
57	0.0319521695215551\\
58	0.0236282490802553\\
59	0.060629734920423\\
60	0.032304507113008\\
61	0.0462529690532092\\
62	0.131525207851921\\
63	0.0282821384087941\\
64	0.0288334584252908\\
65	0.00697768314434601\\
66	4.82304609876627e-06\\
67	0.0198875558610309\\
68	0.0212386206547684\\
69	0.0101354838024064\\
70	0.0148250707965866\\
71	0.0281872837756533\\
72	0.0387346816379326\\
73	0.0360862923139091\\
74	0.960991202755353\\
75	0.0354765354584688\\
76	0.0375169432008748\\
77	0.0276107925264244\\
78	0.0136118632919893\\
79	0.0107834445220599\\
80	0.020540222713438\\
81	0.0202835215156245\\
82	0.0263608269200753\\
83	0.00690408395486993\\
84	0.0278309562796663\\
85	0.0280583380071854\\
86	0.131142185949743\\
87	0.0468947949218023\\
88	0.031468149943175\\
89	0.0618818138676207\\
90	0.0239600601549266\\
91	0.0333187277976249\\
92	0.00922343183125943\\
93	0.00843549141511376\\
94	0.0107623760579618\\
95	0.00333459952323778\\
96	0.000326967418774654\\
97	0.00715741040219495\\
98	0.0148644243925627\\
99	0.0294203061490667\\
100	0.0113491228979517\\
101	0.0550623832275025\\
102	0.0110385017269058\\
103	0.0196443724423666\\
104	0.00109110496181568\\
105	0.00325782629855239\\
106	0.00912065538434851\\
107	0.00568632972681887\\
108	0.00458106894594578\\
109	0.00104894548731441\\
110	0.00332116355450634\\
111	0.0076450447473483\\
112	0.00172316834982411\\
113	0.0103708396502623\\
114	0.00759748918766586\\
115	0.0128855510905764\\
116	0.00705467957807673\\
117	4.18010219777562e-05\\
118	0.00479594176016369\\
119	0.000440718464435884\\
120	0.000145385212032344\\
121	0.000839635740486603\\
122	1.3543895798927e-05\\
123	0.000253056497786236\\
124	0.001097481098769\\
125	0.00146402811956222\\
126	0.00248101758583732\\
127	4.67277508133947e-05\\
128	0.00154711909448648\\
129	0.000902005530082311\\
130	0.000170020662873494\\
131	0.000268198535861199\\
132	0.000258380890762787\\
133	2.50244642060785e-06\\
134	0.000105725533011516\\
135	1.72684199243502e-05\\
136	8.32144748595613e-05\\
137	1.71878776449379e-05\\
138	3.59497021668963e-05\\
139	0.000109735412035085\\
140	0.000269841394378798\\
141	4.50897153630063e-05\\
142	0.000139734486652877\\
143	9.90795027994378e-05\\
144	7.82532420741776e-05\\
145	0.000101513530974768\\
146	3.24886843578452e-05\\
147	6.36112533075399e-05\\
148	1.19432928743882e-05\\
149	1.62918295747976e-05\\
};
\addlegendentry{$\mathbf{\hat{h}_{2}}$}

\end{axis}
\end{tikzpicture}%