% This file was created by matlab2tikz.
%
%The latest updates can be retrieved from
%  http://www.mathworks.com/matlabcentral/fileexchange/22022-matlab2tikz-matlab2tikz
%where you can also make suggestions and rate matlab2tikz.
%
\definecolor{mycolor1}{rgb}{0.00000,0.44700,0.74100}%
\definecolor{mycolor2}{rgb}{0.85000,0.32500,0.09800}%
%
\begin{tikzpicture}

\begin{axis}[%
width=1.935in,
height=3.2in,
at={(0.758in,0.512in)},
scale only axis,
xmin=0,
xmax=200,
xlabel style={font=\color{white!15!black}, align=center},
xlabel={Sample Index\\[1ex](a) Actual},
ymin=0,
ymax=1,
axis background/.style={fill=white},
legend style={legend cell align=left, align=left, draw=white!15!black}
]
\addplot [color=mycolor1]
  table[row sep=crcr]{%
1	0.0167418731260698\\
2	0.018659722218203\\
3	0.0211495716349754\\
4	0.0245407494314006\\
5	0.029505643974117\\
6	0.0377161636169434\\
7	0.0550750576238134\\
8	0.131028403455825\\
9	0.141533477104454\\
10	0.158175166246243\\
11	0.163761757297189\\
12	0.600100605556833\\
13	0.118033417583129\\
14	0.0610914209628117\\
15	0.0426162246246858\\
16	0.0332715711707656\\
17	0.0321939439283243\\
18	0.0268871008873183\\
19	0.0316920608120786\\
20	0.0286771919664519\\
21	0.00773119825769845\\
22	0.0330073087209196\\
23	0.019415059292473\\
24	0.0177688778425817\\
25	0.0188194600762088\\
26	0.0237714798713867\\
27	0.0430806655948836\\
28	0.586023006720236\\
29	0.0970905103802927\\
30	0.0246981078960262\\
31	0.0780346253424249\\
32	0.0580455436901626\\
33	0.0681836526256362\\
34	0.163824852865525\\
35	0.0446106828365612\\
36	0.06119675966513\\
37	0.00907835157153909\\
38	0.0310093774848825\\
39	0.00125972832884384\\
40	0.005422098150711\\
41	0.0107374596162295\\
42	0.0165479326643041\\
43	0.024789327411243\\
44	0.0446277431282512\\
45	0.058019450740893\\
46	0.074843365423057\\
47	0.199666615467323\\
48	0.216838516027539\\
49	0.0783890355452335\\
50	0.0495529240878659\\
51	0.0370791446049236\\
52	0.0307530810094058\\
53	0.0155757068681131\\
54	0.0198807977432187\\
55	0.0179871495341263\\
56	0.0162887905400521\\
57	0.0148728268904216\\
58	0.0136909847461918\\
59	0.0126943671543235\\
60	0.011846112844806\\
61	0.0111233301448608\\
62	0.0105291449791113\\
63	0.0102108676347222\\
64	0.00751288118280402\\
65	0.00739035992869396\\
66	0.0116365722557393\\
67	0.00899390796280924\\
68	0.00831157148096884\\
69	0.00788086875151191\\
70	0.00754217236777393\\
71	0.00725475830161164\\
72	0.00700327644843893\\
73	0.006780818536885\\
74	0.00658453626015097\\
75	0.00641472878078445\\
76	0.00627599401250467\\
77	0.00618216997550965\\
78	0.00617516728867787\\
79	0.00642745729543014\\
80	0.00873051939586948\\
81	0.00471465923588381\\
82	0.00195996010568866\\
83	0.004980313957114\\
84	0.00475839614864904\\
85	0.00464733241660508\\
86	0.00455444244400457\\
87	0.00446749239384432\\
88	0.00438406292262191\\
89	0.00430366820355207\\
90	0.00422628355118023\\
91	0.00415201532524293\\
92	0.00408104289588831\\
93	0.00401365198230764\\
94	0.00395033763548775\\
95	0.00389203620501121\\
96	0.00384070443755282\\
97	0.00380107128140597\\
98	0.00378779867734327\\
99	0.00387836096292209\\
100	0.00228454900881806\\
101	0.00321909463290553\\
102	0.00328982387499096\\
103	0.00328100374444436\\
104	0.00325253146337885\\
105	0.00321692683031362\\
106	0.00317840637543852\\
107	0.00313876414674543\\
108	0.00309887602618152\\
109	0.00305920797263281\\
110	0.00302002111537278\\
111	0.00298146552488656\\
112	0.00294362726599965\\
113	0.0029065537719176\\
114	0.00287026833389302\\
115	0.00283477876811283\\
116	0.00280008280049957\\
117	0.00276617151884636\\
118	0.00273303164395387\\
119	0.00270064705586787\\
120	0.00266899983729428\\
121	0.00263807099659409\\
122	0.00260784097374635\\
123	0.00257828999668392\\
124	0.00254939833288439\\
125	0.00252114646667125\\
126	0.00249351522323938\\
127	0.00246648585412356\\
128	0.00244004009455901\\
129	0.00241416020024051\\
130	0.00238882896892876\\
131	0.0023640297508985\\
132	0.00233974645117835\\
133	0.00231596352577768\\
134	0.00229266597354371\\
135	0.00226983932488367\\
136	0.00224746962828519\\
137	0.00222554343533969\\
138	0.00220404778480324\\
139	0.00218297018609978\\
140	0.00216229860257188\\
141	0.00214202143470905\\
142	0.00212212750352594\\
143	0.00210260603421662\\
144	0.00208344664017788\\
145	0.00206463930746792\\
146	0.00204617437974413\\
147	0.00202804254371082\\
148	0.00201023481509265\\
149	0.00199274252514179\\
150	0.00197555730767936\\
151	0.0019586710866655\\
152	0.00194207606428942\\
153	0.00192576470956709\\
154	0.00190972974743187\\
155	0.00189396414830307\\
156	0.00187846111811499\\
157	0.00186321408878906\\
158	0.00184821670913216\\
159	0.00183346283614256\\
160	0.00181894652670628\\
161	0.00180466202966742\\
162	0.00179060377825436\\
163	0.00177676638284649\\
164	0.00176314462406556\\
165	0.00174973344617591\\
166	0.0017365279507797\\
167	0.00172352339079259\\
168	0.00171071516468654\\
169	0.00169809881098722\\
170	0.00168567000301325\\
171	0.00167342454384613\\
172	0.00166135836151948\\
173	0.00164946750441694\\
174	0.00163774813686889\\
175	0.00162619653493841\\
176	0.00161480908238697\\
177	0.00160358226681213\\
178	0.001592512675948\\
179	0.00158159699412143\\
180	0.00157083199885632\\
181	0.00156021455761888\\
182	0.00154974162469766\\
183	0.00153941023821136\\
184	0.00152921751723897\\
185	0.00151916065906659\\
186	0.00150923693654504\\
187	0.00149944369555362\\
188	0.00148977835256491\\
189	0.00148023839230615\\
190	0.0014708213655126\\
191	0.00146152488676917\\
192	0.00145234663243548\\
193	0.00144328433865201\\
194	0.00143433579942216\\
195	0.0014254988647679\\
196	0.00141677143895562\\
197	0.00140815147878894\\
198	0.00139963699196521\\
199	0\\
200	0\\
};
\addlegendentry{$\mathbf{h_1}$}

\addplot [color=mycolor2]
  table[row sep=crcr]{%
1	0.00495033386861547\\
2	0.00515738368500011\\
3	0.00538309861623286\\
4	0.00563019833310769\\
5	0.00590197136255583\\
6	0.00620243506959928\\
7	0.00653655369620811\\
8	0.00691054090538825\\
9	0.00733228812251618\\
10	0.00781198494389501\\
11	0.00836304134465097\\
12	0.0090034999823859\\
13	0.00975827527656913\\
14	0.0106628508662167\\
15	0.0117696896019869\\
16	0.0131600228416925\\
17	0.0149671880151623\\
18	0.0174273921400842\\
19	0.0210049332363351\\
20	0.0267613442180004\\
21	0.037792597580649\\
22	0.068721841139076\\
23	0.97572931769219\\
24	0.0649085399616321\\
25	0.0262918397391367\\
26	0.0126468169615953\\
27	0.00419508123086451\\
28	0.0214241856295046\\
29	0.0134643328328179\\
30	0.00412679327935559\\
31	0.0112712342656943\\
32	0.0282552508318709\\
33	0.111702725947746\\
34	0.12653020104749\\
35	0.0361926668223949\\
36	0.024130019396178\\
37	0.019518168382204\\
38	0.0163235660243771\\
39	0.0140849625225472\\
40	0.0124312948441269\\
41	0.0111552918846637\\
42	0.0101369616841952\\
43	0.00930266674553233\\
44	0.00860476970863487\\
45	0.00801105372801389\\
46	0.00749890841387189\\
47	0.00705196472677567\\
48	0.00665805661850076\\
49	0.0063079366485928\\
50	0.00599443852440938\\
51	0.00571191453485358\\
52	0.00545584764793091\\
53	0.0052225778141873\\
54	0.00500910486747672\\
55	0.00481294397681212\\
56	0.00463201789166602\\
57	0.00446457542356871\\
58	0.00430912894812168\\
59	0.00416440590497024\\
60	0.00402931074167137\\
61	0.00390289474814389\\
62	0.00378433192171684\\
63	0.00367289949042518\\
64	0.0035679620699816\\
65	0.00346895868109233\\
66	0.00337539203747226\\
67	0.00328681965070268\\
68	0.00320284639950925\\
69	0\\
70	0\\
71	0\\
72	0\\
73	0\\
74	0\\
75	0\\
76	0\\
77	0\\
78	0\\
79	0\\
80	0\\
81	0\\
82	0\\
83	0\\
84	0\\
85	0\\
86	0\\
87	0\\
88	0\\
89	0\\
90	0\\
91	0\\
92	0\\
93	0\\
94	0\\
95	0\\
96	0\\
97	0\\
98	0\\
99	0\\
100	0\\
101	0\\
102	0\\
103	0\\
104	0\\
105	0\\
106	0\\
107	0\\
108	0\\
109	0\\
110	0\\
111	0\\
112	0\\
113	0\\
114	0\\
115	0\\
116	0\\
117	0\\
118	0\\
119	0\\
120	0\\
121	0\\
122	0\\
123	0\\
124	0\\
125	0\\
126	0\\
127	0\\
128	0\\
129	0\\
130	0\\
131	0\\
132	0\\
133	0\\
134	0\\
135	0\\
136	0\\
137	0\\
138	0\\
139	0\\
140	0\\
141	0\\
142	0\\
143	0\\
144	0\\
145	0\\
146	0\\
147	0\\
148	0\\
149	0\\
150	0\\
151	0\\
152	0\\
153	0\\
154	0\\
155	0\\
156	0\\
157	0\\
158	0\\
159	0\\
160	0\\
161	0\\
162	0\\
163	0\\
164	0\\
165	0\\
166	0\\
167	0\\
168	0\\
169	0\\
170	0\\
171	0\\
172	0\\
173	0\\
174	0\\
175	0\\
176	0\\
177	0\\
178	0\\
179	0\\
180	0\\
181	0\\
182	0\\
183	0\\
184	0\\
185	0\\
186	0\\
187	0\\
188	0\\
189	0\\
190	0\\
191	0\\
192	0\\
193	0\\
194	0\\
195	0\\
196	0\\
197	0\\
198	0\\
199	0\\
200	0\\
};
\addlegendentry{$\mathbf{h_{2}}$}

\end{axis}

\begin{axis}[%
width=1.935in,
height=3.2in,
at={(3.327in,0.512in)},
scale only axis,
xmin=0,
xmax=200,
xlabel style={font=\color{white!15!black}, align=center},
xlabel={Sample Index\\[1ex](b) Estimated},
ymin=0,
ymax=1,
axis background/.style={fill=white},
legend style={legend cell align=left, align=left, draw=white!15!black}
]
\addplot [color=mycolor1]
  table[row sep=crcr]{%
0	0.000118630417636583\\
1	3.27806538807371e-05\\
2	0.000110812576672018\\
3	7.00828328096367e-05\\
4	3.3125139591586e-05\\
5	3.80752156549391e-05\\
6	4.77618859634827e-05\\
7	0.000176585839631644\\
8	5.83932363097842e-05\\
9	6.53212081876168e-05\\
10	9.33841927258386e-05\\
11	9.56413295640913e-06\\
12	0.000140610579041292\\
13	7.04916503350375e-05\\
14	0.000139256615514245\\
15	0.000126222781645481\\
16	7.17824936652612e-05\\
17	6.15902346891987e-05\\
18	7.49373713436539e-05\\
19	8.27792322315047e-06\\
20	0.000137753468984042\\
21	2.69047937813559e-05\\
22	0.000100607735461263\\
23	7.2078068527278e-05\\
24	9.47105727350404e-05\\
25	3.75528376362659e-05\\
26	8.86452831313433e-05\\
27	4.94214428105616e-05\\
28	0.000189515051978576\\
29	0.000179953280610251\\
30	0.000212521545992974\\
31	0.000275356227998299\\
32	2.99368787410076e-05\\
33	3.39171276123659e-05\\
34	2.8020695317716e-05\\
35	0.000111661666538553\\
36	0.000161923834833615\\
37	0.000107497782374808\\
38	0.00011690930799982\\
39	0.000108321276603083\\
40	9.03894549460627e-05\\
41	0.00179827742663485\\
42	0.000376827374834084\\
43	0.000150402948216811\\
44	0.0122693214245407\\
45	0.0139486961700642\\
46	0.00348002234747861\\
47	0.0182227882699365\\
48	2.87406729557817e-05\\
49	0.00391798723904005\\
50	0.00153044760329277\\
51	0.000712868409327189\\
52	0.00347676708776139\\
53	0.000253709146176078\\
54	0.00125965413567006\\
55	0.000112467244940851\\
56	0.00034806409024023\\
57	0.0126066604595528\\
58	0.00712826686497809\\
59	0.000578761045620398\\
60	0.01745726261226\\
61	0.00905368806069449\\
62	0.00711063127956045\\
63	0.0583121845493936\\
64	0.026798566092727\\
65	0.0342262245674721\\
66	0.00174723641721206\\
67	0.0600200324931335\\
68	0.0146271784864028\\
69	0.0306023125304739\\
70	0.0337956200725152\\
71	0.0122834725940883\\
72	0.0818015734482277\\
73	0.000439352258522597\\
74	0.00319787854434347\\
75	0.0054160323497089\\
76	0.0134794034229398\\
77	0.0449323035161736\\
78	0.0673295131963033\\
79	0.150262303772719\\
80	0.0922202491282247\\
81	0.133716394499862\\
82	0.215077026683873\\
83	0.568463062662642\\
84	0.126296114871709\\
85	0.0622708614661061\\
86	0.00196933169095537\\
87	0.0393576522097564\\
88	0.0534782553856137\\
89	0.0645957639714393\\
90	0.0136394586798179\\
91	0.0283437334666395\\
92	0.0141247201140193\\
93	0.0473490509303812\\
94	0.0316603797528063\\
95	0.027592696405704\\
96	0.0453422078460596\\
97	0.0583049679692734\\
98	0.0720978659044431\\
99	0.582114590358449\\
100	0.132022635639337\\
101	0.0180240542388934\\
102	0.0550538949595758\\
103	0.0551567457005825\\
104	0.0736924632385481\\
105	0.1692318507372\\
106	0.0216322518513756\\
107	0.0412767401952976\\
108	0.0280638646698244\\
109	0.00016167566342332\\
110	0.0136925184752572\\
111	0.00281481127797581\\
112	0.00327712533207032\\
113	0.0124299825035946\\
114	0.0181484001645155\\
115	0.0949830195368355\\
116	0.0714182478202358\\
117	0.0796907146186538\\
118	0.217932848834851\\
119	0.16750787719337\\
120	0.0768149720458078\\
121	0.051936539043671\\
122	0.00439363125172688\\
123	0.0257697790168299\\
124	0.0187484240154605\\
125	0.00204840752669291\\
126	0.00381499622198839\\
127	0.0168418845308802\\
128	0.0119467104630758\\
129	0.000506867738780337\\
130	0.0148918963951554\\
131	0.0125327724871388\\
132	0.0053261700696593\\
133	0.0158481883796524\\
134	0.0428973941286009\\
135	0.0374078787016284\\
136	0.0079494160522766\\
137	0.017186339329707\\
138	0.0116942813880805\\
139	0.00625043003609729\\
140	0.00438075178992264\\
141	0.00683225264501175\\
142	0.00167695710185488\\
143	0.000645899309161372\\
144	0.000156985024838798\\
145	0.00152686861213941\\
146	0.00246417032272411\\
147	0.000643119524822445\\
148	0.00198153213073089\\
149	0.000184173942565492\\
150	0.000127534729130901\\
151	0.0105944660620132\\
152	0.00458340518656204\\
153	0.00267448318340144\\
154	0.00448932450563628\\
155	0.000589843442445676\\
156	5.69219254189745e-05\\
157	0.00107796157531684\\
158	9.6325029384741e-06\\
159	0.000977586053512842\\
160	0.00124474214031537\\
161	4.25382160236876e-05\\
162	8.01709528298066e-05\\
163	0.000108826215584505\\
164	0.000226651644404276\\
165	0.000156167412057086\\
166	0.000508100875538244\\
167	4.16471465657909e-05\\
168	7.18959535570065e-05\\
169	4.71233642648011e-05\\
170	0.000894913250012916\\
171	6.38448592534728e-05\\
172	8.9408949318871e-05\\
173	0.000128780974333017\\
174	5.78280523202204e-05\\
175	0.000110024229297085\\
176	2.73608322574579e-05\\
177	0.00013291564665924\\
178	0.000335293768175622\\
179	5.37314615861426e-05\\
180	4.8797471671326e-05\\
181	4.94425452393549e-05\\
182	0.000170113859460623\\
183	6.00650731085299e-05\\
184	7.89477475837677e-05\\
185	0.000102203904459634\\
186	4.11558054331602e-05\\
187	8.44628750453722e-05\\
188	1.65955452280225e-05\\
189	4.0320451132709e-05\\
190	3.362664195238e-05\\
};
\addlegendentry{$\mathbf{\hat{h}_{1}}$}

\addplot [color=mycolor2]
  table[row sep=crcr]{%
0	6.59148220284711e-05\\
1	3.43149008409566e-05\\
2	4.26565703666171e-05\\
3	2.86100077046528e-05\\
4	5.00618342883582e-06\\
5	1.45410568801711e-05\\
6	2.1394532552043e-05\\
7	5.44856262671072e-05\\
8	1.05421316326222e-05\\
9	6.25351529492711e-05\\
10	3.0287156483611e-05\\
11	4.03427824352158e-05\\
12	7.36465207005885e-05\\
13	3.72197458855225e-05\\
14	3.46719241174264e-05\\
15	0.000112255592338676\\
16	6.08434806013943e-05\\
17	0.000112502715826667\\
18	3.72305618229841e-05\\
19	2.21895520884049e-05\\
20	0.000282017272995308\\
21	0.000174810385408121\\
22	5.10036656042732e-05\\
23	6.41731624233506e-05\\
24	0.000329902745173063\\
25	0.00065953480646018\\
26	0.00085236983965929\\
27	4.52819300308494e-05\\
28	1.69721477347555e-05\\
29	0.00143162645763943\\
30	0.000491676501322416\\
31	0.000364792086917766\\
32	0.00177956548792452\\
33	0.000109894678961189\\
34	3.13335503674354e-05\\
35	0.0019807948013669\\
36	0.000945461614692784\\
37	0.000314802594743842\\
38	0.00661585278051439\\
39	0.00830143679300885\\
40	0.00364855053320634\\
41	0.00367292605038698\\
42	0.00722282361367181\\
43	0.00320651943496053\\
44	0.00303496841967679\\
45	0.00179588280942249\\
46	0.000312244555885305\\
47	0.00307922986061311\\
48	9.05023322309713e-05\\
49	0.000341212813081064\\
50	0.00064463043505442\\
51	0.000579545885084822\\
52	0.00159200549858004\\
53	5.07843501122772e-05\\
54	0.00855667255806984\\
55	0.0242808410170656\\
56	0.020449171206223\\
57	0.00499674814316032\\
58	0.0460161880271122\\
59	0.0204368076023657\\
60	0.0167374947812171\\
61	0.0187111549785521\\
62	0.0121761232546178\\
63	0.00437898093078511\\
64	0.00719408273472452\\
65	0.00171587980787151\\
66	0.000270528084467623\\
67	0.00601412645269926\\
68	0.0166980358842002\\
69	0.00223140252551873\\
70	0.00317996636832213\\
71	0.0231585342790658\\
72	0.0213983683633805\\
73	0.0139124249011301\\
74	0.0453023242460493\\
75	0.0567800575860903\\
76	0.03432385516865\\
77	0.010411203925786\\
78	0.131013882000628\\
79	0.0173021557069956\\
80	0.0065053434989466\\
81	0.022868703085014\\
82	0.00659976564683023\\
83	0.0131285452927243\\
84	0.0106968812412215\\
85	0.0197993468258653\\
86	0.0225697253467916\\
87	0.00790487466448155\\
88	0.00959838962212671\\
89	0.0107210737179515\\
90	0.0103189301641306\\
91	0.0510686388199565\\
92	0.0257043635395854\\
93	0.00388002548168206\\
94	0.963332120715004\\
95	0.00388316738053568\\
96	0.0267647110562764\\
97	0.0527097269999344\\
98	0.00994250742540901\\
99	0.0116254164871151\\
100	4.83479576720586e-06\\
101	0.00770445870565431\\
102	0.0217463071847502\\
103	0.017446276350368\\
104	0.0138255347258438\\
105	0.0151962190374432\\
106	0.00721355994882948\\
107	0.0226116111185964\\
108	0.00601498920586938\\
109	0.0160031973735003\\
110	0.130493175508648\\
111	0.00934889434211323\\
112	0.0350641469280919\\
113	0.0570591989099261\\
114	0.0464713853768197\\
115	0.0149436560515136\\
116	0.0232486522486814\\
117	0.0238348454494516\\
118	0.00277332561388098\\
119	0.00198517893072554\\
120	0.0172196456724644\\
121	0.00612601528181177\\
122	0.00029637891480335\\
123	0.000663744564684156\\
124	0.007898164600474\\
125	0.00329849369625715\\
126	0.0109894804493205\\
127	0.0196431351571142\\
128	0.0162952534559617\\
129	0.0205227181376334\\
130	0.0470113674383868\\
131	0.00398808140331493\\
132	0.0215650496588181\\
133	0.0253590927453503\\
134	0.00873338772647358\\
135	9.12654471838842e-05\\
136	0.00116288856581252\\
137	0.00100624346932053\\
138	0.00224809701737962\\
139	0.00141860450505301\\
140	0.000745341880490693\\
141	0.00390422333590631\\
142	0.00088045912150027\\
143	0.00153543806338408\\
144	0.00311544807295146\\
145	0.00368941347945053\\
146	0.00663681081488603\\
147	0.00353334859532176\\
148	0.0036752402186295\\
149	0.00798445542367313\\
150	0.00808138698086872\\
151	0.000216718375260886\\
152	0.000505613192424249\\
153	0.00358643728517658\\
154	0.000426087282609814\\
155	9.42412613370701e-05\\
156	0.00255171038972179\\
157	0.00136936723568366\\
158	0.00118417213590557\\
159	0.00248394491851522\\
160	2.89535904083257e-05\\
161	0.000182714535070109\\
162	0.000732654511081876\\
163	0.00102428482119433\\
164	0.000277964059377208\\
165	7.12196503330852e-05\\
166	3.77828365374498e-05\\
167	9.4358718293934e-05\\
168	0.000869469177034808\\
169	0.000203123986935926\\
170	0.0004454092430493\\
171	0.000342318295766192\\
172	5.58445424031502e-05\\
173	0.000187687544651485\\
174	0.000104183320937191\\
175	1.91456950800353e-05\\
176	7.29430638144749e-05\\
177	2.56110721082854e-05\\
178	2.21651294818817e-05\\
179	7.41769488751727e-05\\
180	2.56203060333302e-05\\
181	6.00722189586341e-05\\
182	2.77289737971409e-05\\
183	4.28548908002006e-05\\
184	1.64165907479884e-05\\
185	2.8489179334547e-05\\
186	5.4632179894374e-05\\
187	3.39424393873937e-05\\
188	8.14461354277925e-05\\
189	4.52594398428824e-05\\
190	1.34720926144024e-05\\
};
\addlegendentry{$\mathbf{\hat{h}_{2}}$}

\end{axis}
\end{tikzpicture}%