% This file was created by matlab2tikz.
%
%The latest updates can be retrieved from
%  http://www.mathworks.com/matlabcentral/fileexchange/22022-matlab2tikz-matlab2tikz
%where you can also make suggestions and rate matlab2tikz.
%
\definecolor{mycolor1}{rgb}{0.00000,0.44700,0.74100}%
\definecolor{mycolor2}{rgb}{0.85000,0.32500,0.09800}%
%
\begin{tikzpicture}

\begin{axis}[%
width=1.952in,
height=3.2in,
at={(0.758in,0.512in)},
scale only axis,
xmin=0,
xmax=20,
xlabel style={font=\color{white!15!black}, align=center},
xlabel={Sample Index\\[1ex](a) Actual},
ymin=0,
ymax=0.9,
axis background/.style={fill=white},
legend style={legend cell align=left, align=left, draw=white!15!black}
]
\addplot [color=mycolor1]
  table[row sep=crcr]{%
1	0.0444337104356374\\
2	0.738127803558165\\
3	0.357839506790865\\
4	0.481268775571525\\
5	0.10955194752004\\
6	0.267783168107473\\
7	0.0769544524124665\\
8	0.0372836026936495\\
9	0.027789744685169\\
10	0.0196434178633453\\
11	0.0212138243269196\\
12	0.0147156812719569\\
13	0.0126517206023441\\
14	0.0111331007215966\\
15	0.00994473974674355\\
16	0.00898571135769806\\
17	0.00819466874468931\\
18	0.00753086667278431\\
19	0.00696589032366256\\
20	0.00647923877975415\\
};
\addlegendentry{$\mathbf{h_1}$}

\addplot [color=mycolor2]
  table[row sep=crcr]{%
1	0.0696363384444256\\
2	0.13399148454392\\
3	0.889181852408627\\
4	0.426869408918664\\
5	0.0527923084371181\\
6	0.0393468637154593\\
7	0\\
8	0\\
9	0\\
10	0\\
11	0\\
12	0\\
13	0\\
14	0\\
15	0\\
16	0\\
17	0\\
18	0\\
19	0\\
20	0\\
};
\addlegendentry{$\mathbf{h_{2}}$}

\end{axis}

\begin{axis}[%
width=1.952in,
height=3.2in,
at={(3.327in,0.512in)},
scale only axis,
xmin=0,
xmax=20,
xlabel style={font=\color{white!15!black}, align=center},
xlabel={Sample Index\\[1ex](b) Estimated},
ymin=-0.2,
ymax=1,
axis background/.style={fill=white},
legend style={legend cell align=left, align=left, draw=white!15!black}
]
\addplot [color=mycolor1]
  table[row sep=crcr]{%
0	0.0245760547794053\\
0.25	0.0251649060204238\\
0.5	0.0258044171376705\\
0.75	0.0265052639867325\\
1	0.0272051817024661\\
1.25	0.0279161028041098\\
1.5	0.0281823847241428\\
1.75	0.0277135424043375\\
2	0.0263147626389329\\
2.25	0.0237005772444144\\
2.5	0.0204763801546532\\
2.75	0.0171533477779181\\
3	0.0143275706808487\\
3.25	0.0124284516701338\\
3.5	0.012154624422195\\
3.75	0.0138501027813639\\
4	0.017582266060264\\
4.25	0.0231787987537244\\
4.5	0.0301260336806283\\
4.75	0.0378638464923885\\
5	0.0458958701446728\\
5.25	0.0520999743579154\\
5.5	0.059372811907094\\
5.75	0.0688404167563208\\
6	0.0813602581238342\\
6.25	0.105805448578004\\
6.5	0.12930696703309\\
6.75	0.148977279560555\\
7	0.165386479161258\\
7.25	0.162176366161698\\
7.5	0.180473066906783\\
7.75	0.237596873112003\\
8	0.341470271244069\\
8.25	0.521179073749578\\
8.5	0.700887950137087\\
8.75	0.834743951736794\\
9	0.883992608209554\\
9.25	0.785653949898941\\
9.5	0.609273426312508\\
9.75	0.39906106927684\\
10	0.204246367665958\\
10.25	0.103626140062663\\
10.5	0.0626601165562821\\
10.75	0.0683486065666372\\
11	0.0976909307692497\\
11.25	0.10171998407036\\
11.5	0.0978874911994347\\
11.75	0.0855634349241016\\
12	0.0688536683465225\\
12.25	0.0643026747027616\\
12.5	0.0619170660908822\\
12.75	0.0612778463378813\\
13	0.0613123144817606\\
13.25	0.0582902938478932\\
13.5	0.0546772305049181\\
13.75	0.0505965461521613\\
14	0.0461804602199899\\
14.25	0.0415599887093496\\
14.5	0.0367662632077392\\
14.75	0.03182850811939\\
15	0.026795248667561\\
15.25	0.0214724812579052\\
15.5	0.0165387092727643\\
15.75	0.0123916580206083\\
16	0.00938111376349355\\
16.25	0.00782900487816413\\
16.5	0.00764320284723253\\
16.75	0.00864643912291378\\
17	0.0105085517495198\\
17.25	0.0127709353844646\\
17.5	0.015015998867102\\
17.75	0.0168314202918458\\
18	0.0179037265212563\\
18.25	0.0180245399485129\\
18.5	0.0172664026504168\\
18.75	0.0158185746041791\\
19	0.0139929688801934\\
19.25	0.0121616962560861\\
19.5	0.0107116166362687\\
19.75	0.00995573091175225\\
};
\addlegendentry{$\mathbf{\hat{h}_{1}}$}

\addplot [color=mycolor2]
  table[row sep=crcr]{%
0	0.00927696934370728\\
0.25	0.00918149120780465\\
0.5	0.00906708031131919\\
0.75	0.0089199504211664\\
1	0.00873600458414406\\
1.25	0.00852192157938799\\
1.5	0.00830497736909245\\
1.75	0.00812496504613238\\
2	0.00803347424825188\\
2.25	0.00806028197328286\\
2.5	0.00830929129494166\\
2.75	0.00884438981712994\\
3	0.00970602372287822\\
3.25	0.0108567434475034\\
3.5	0.0123427474170152\\
3.75	0.0141269930012746\\
4	0.0161362430470879\\
4.25	0.0182268474576027\\
4.5	0.0203640610865337\\
4.75	0.0224823615099631\\
5	0.0245480049268444\\
5.25	0.0228292971941802\\
5.5	0.0230891040614263\\
5.75	0.0267129671585155\\
6	0.033757094572797\\
6.25	0.0593195909408636\\
6.5	0.0756881264355132\\
6.75	0.0748843033379952\\
7	0.0564518399272099\\
7.25	-0.00980003337618452\\
7.5	-0.0451202746335419\\
7.75	-0.012873332298647\\
8	0.107937163695096\\
8.25	0.377095557598081\\
8.5	0.663841031273246\\
8.75	0.890160550517371\\
9	0.98851579146435\\
9.25	0.845352741526392\\
9.5	0.58227674040121\\
9.75	0.273307807006949\\
10	4.53922013088397e-06\\
10.25	-0.102985012961239\\
10.5	-0.105524996314985\\
10.75	-0.0368184825686704\\
11	0.0582205501163031\\
11.25	0.0888979225816705\\
11.5	0.0911232192929681\\
11.75	0.0683368122111519\\
12	0.0331608060119655\\
12.25	0.0225012995767907\\
12.5	0.017953849682239\\
12.75	0.0192849582718092\\
13	0.0239445056526112\\
13.25	0.0224298385010603\\
13.5	0.0204160645873543\\
13.75	0.0179385041922173\\
14	0.015269818765101\\
14.25	0.0132917363970885\\
14.5	0.0116134355443411\\
14.75	0.0103018717310351\\
15	0.00937359130169606\\
15.25	0.00875829008015913\\
15.5	0.00845219431287308\\
15.75	0.00838388132608201\\
16	0.00847073974222867\\
16.25	0.00856481523801424\\
16.5	0.00871394182469326\\
16.75	0.0089051201793412\\
17	0.00912419670727994\\
17.25	0.00939140470651408\\
17.5	0.00959518943506423\\
17.75	0.00966302020229307\\
18	0.00953098254324647\\
18.25	0.00911946335139206\\
18.5	0.0084871940691297\\
18.75	0.00768604896111757\\
19	0.00679368368995352\\
19.25	0.00589856709937622\\
19.5	0.00509632883673508\\
19.75	0.00446515270910173\\
};
\addlegendentry{$\mathbf{\hat{h}_{2}}$}

\end{axis}
\end{tikzpicture}%