% This file was created by matlab2tikz.
%
%The latest updates can be retrieved from
%  http://www.mathworks.com/matlabcentral/fileexchange/22022-matlab2tikz-matlab2tikz
%where you can also make suggestions and rate matlab2tikz.
%
\definecolor{mycolor1}{rgb}{0.00000,0.44700,0.74100}%
\definecolor{mycolor2}{rgb}{0.85000,0.32500,0.09800}%
%
\begin{tikzpicture}

\begin{axis}[%
width=1.935in,
height=3.2in,
at={(0.758in,0.512in)},
scale only axis,
xmin=0,
xmax=200,
xlabel style={font=\color{white!15!black}, align=center},
xlabel={Sample Index\\[1ex](a) Actual},
ymin=0,
ymax=1,
axis background/.style={fill=white},
legend style={legend cell align=left, align=left, draw=white!15!black}
]
\addplot [color=mycolor1]
  table[row sep=crcr]{%
1	0.0167418731260698\\
2	0.018659722218203\\
3	0.0211495716349754\\
4	0.0245407494314006\\
5	0.029505643974117\\
6	0.0377161636169434\\
7	0.0550750576238134\\
8	0.131028403455825\\
9	0.141533477104454\\
10	0.158175166246243\\
11	0.163761757297189\\
12	0.600100605556833\\
13	0.118033417583129\\
14	0.0610914209628117\\
15	0.0426162246246858\\
16	0.0332715711707656\\
17	0.0321939439283243\\
18	0.0268871008873183\\
19	0.0316920608120786\\
20	0.0286771919664519\\
21	0.00773119825769845\\
22	0.0330073087209196\\
23	0.019415059292473\\
24	0.0177688778425817\\
25	0.0188194600762088\\
26	0.0237714798713867\\
27	0.0430806655948836\\
28	0.586023006720236\\
29	0.0970905103802927\\
30	0.0246981078960262\\
31	0.0780346253424249\\
32	0.0580455436901626\\
33	0.0681836526256362\\
34	0.163824852865525\\
35	0.0446106828365612\\
36	0.06119675966513\\
37	0.00907835157153909\\
38	0.0310093774848825\\
39	0.00125972832884384\\
40	0.005422098150711\\
41	0.0107374596162295\\
42	0.0165479326643041\\
43	0.024789327411243\\
44	0.0446277431282512\\
45	0.058019450740893\\
46	0.074843365423057\\
47	0.199666615467323\\
48	0.216838516027539\\
49	0.0783890355452335\\
50	0.0495529240878659\\
51	0.0370791446049236\\
52	0.0307530810094058\\
53	0.0155757068681131\\
54	0.0198807977432187\\
55	0.0179871495341263\\
56	0.0162887905400521\\
57	0.0148728268904216\\
58	0.0136909847461918\\
59	0.0126943671543235\\
60	0.011846112844806\\
61	0.0111233301448608\\
62	0.0105291449791113\\
63	0.0102108676347222\\
64	0.00751288118280402\\
65	0.00739035992869396\\
66	0.0116365722557393\\
67	0.00899390796280924\\
68	0.00831157148096884\\
69	0.00788086875151191\\
70	0.00754217236777393\\
71	0.00725475830161164\\
72	0.00700327644843893\\
73	0.006780818536885\\
74	0.00658453626015097\\
75	0.00641472878078445\\
76	0.00627599401250467\\
77	0.00618216997550965\\
78	0.00617516728867787\\
79	0.00642745729543014\\
80	0.00873051939586948\\
81	0.00471465923588381\\
82	0.00195996010568866\\
83	0.004980313957114\\
84	0.00475839614864904\\
85	0.00464733241660508\\
86	0.00455444244400457\\
87	0.00446749239384432\\
88	0.00438406292262191\\
89	0.00430366820355207\\
90	0.00422628355118023\\
91	0.00415201532524293\\
92	0.00408104289588831\\
93	0.00401365198230764\\
94	0.00395033763548775\\
95	0.00389203620501121\\
96	0.00384070443755282\\
97	0.00380107128140597\\
98	0.00378779867734327\\
99	0.00387836096292209\\
100	0.00228454900881806\\
101	0.00321909463290553\\
102	0.00328982387499096\\
103	0.00328100374444436\\
104	0.00325253146337885\\
105	0.00321692683031362\\
106	0.00317840637543852\\
107	0.00313876414674543\\
108	0.00309887602618152\\
109	0.00305920797263281\\
110	0.00302002111537278\\
111	0.00298146552488656\\
112	0.00294362726599965\\
113	0.0029065537719176\\
114	0.00287026833389302\\
115	0.00283477876811283\\
116	0.00280008280049957\\
117	0.00276617151884636\\
118	0.00273303164395387\\
119	0.00270064705586787\\
120	0.00266899983729428\\
121	0.00263807099659409\\
122	0.00260784097374635\\
123	0.00257828999668392\\
124	0.00254939833288439\\
125	0.00252114646667125\\
126	0.00249351522323938\\
127	0.00246648585412356\\
128	0.00244004009455901\\
129	0.00241416020024051\\
130	0.00238882896892876\\
131	0.0023640297508985\\
132	0.00233974645117835\\
133	0.00231596352577768\\
134	0.00229266597354371\\
135	0.00226983932488367\\
136	0.00224746962828519\\
137	0.00222554343533969\\
138	0.00220404778480324\\
139	0.00218297018609978\\
140	0.00216229860257188\\
141	0.00214202143470905\\
142	0.00212212750352594\\
143	0.00210260603421662\\
144	0.00208344664017788\\
145	0.00206463930746792\\
146	0.00204617437974413\\
147	0.00202804254371082\\
148	0.00201023481509265\\
149	0.00199274252514179\\
150	0.00197555730767936\\
151	0.0019586710866655\\
152	0.00194207606428942\\
153	0.00192576470956709\\
154	0.00190972974743187\\
155	0.00189396414830307\\
156	0.00187846111811499\\
157	0.00186321408878906\\
158	0.00184821670913216\\
159	0.00183346283614256\\
160	0.00181894652670628\\
161	0.00180466202966742\\
162	0.00179060377825436\\
163	0.00177676638284649\\
164	0.00176314462406556\\
165	0.00174973344617591\\
166	0.0017365279507797\\
167	0.00172352339079259\\
168	0.00171071516468654\\
169	0.00169809881098722\\
170	0.00168567000301325\\
171	0.00167342454384613\\
172	0.00166135836151948\\
173	0.00164946750441694\\
174	0.00163774813686889\\
175	0.00162619653493841\\
176	0.00161480908238697\\
177	0.00160358226681213\\
178	0.001592512675948\\
179	0.00158159699412143\\
180	0.00157083199885632\\
181	0.00156021455761888\\
182	0.00154974162469766\\
183	0.00153941023821136\\
184	0.00152921751723897\\
185	0.00151916065906659\\
186	0.00150923693654504\\
187	0.00149944369555362\\
188	0.00148977835256491\\
189	0.00148023839230615\\
190	0.0014708213655126\\
191	0.00146152488676917\\
192	0.00145234663243548\\
193	0.00144328433865201\\
194	0.00143433579942216\\
195	0.0014254988647679\\
196	0.00141677143895562\\
197	0.00140815147878894\\
198	0.00139963699196521\\
199	0\\
200	0\\
};
\addlegendentry{$\mathbf{h_1}$}

\addplot [color=mycolor2]
  table[row sep=crcr]{%
1	0.00495033386861547\\
2	0.00515738368500011\\
3	0.00538309861623286\\
4	0.00563019833310769\\
5	0.00590197136255583\\
6	0.00620243506959928\\
7	0.00653655369620811\\
8	0.00691054090538825\\
9	0.00733228812251618\\
10	0.00781198494389501\\
11	0.00836304134465097\\
12	0.0090034999823859\\
13	0.00975827527656913\\
14	0.0106628508662167\\
15	0.0117696896019869\\
16	0.0131600228416925\\
17	0.0149671880151623\\
18	0.0174273921400842\\
19	0.0210049332363351\\
20	0.0267613442180004\\
21	0.037792597580649\\
22	0.068721841139076\\
23	0.97572931769219\\
24	0.0649085399616321\\
25	0.0262918397391367\\
26	0.0126468169615953\\
27	0.00419508123086451\\
28	0.0214241856295046\\
29	0.0134643328328179\\
30	0.00412679327935559\\
31	0.0112712342656943\\
32	0.0282552508318709\\
33	0.111702725947746\\
34	0.12653020104749\\
35	0.0361926668223949\\
36	0.024130019396178\\
37	0.019518168382204\\
38	0.0163235660243771\\
39	0.0140849625225472\\
40	0.0124312948441269\\
41	0.0111552918846637\\
42	0.0101369616841952\\
43	0.00930266674553233\\
44	0.00860476970863487\\
45	0.00801105372801389\\
46	0.00749890841387189\\
47	0.00705196472677567\\
48	0.00665805661850076\\
49	0.0063079366485928\\
50	0.00599443852440938\\
51	0.00571191453485358\\
52	0.00545584764793091\\
53	0.0052225778141873\\
54	0.00500910486747672\\
55	0.00481294397681212\\
56	0.00463201789166602\\
57	0.00446457542356871\\
58	0.00430912894812168\\
59	0.00416440590497024\\
60	0.00402931074167137\\
61	0.00390289474814389\\
62	0.00378433192171684\\
63	0.00367289949042518\\
64	0.0035679620699816\\
65	0.00346895868109233\\
66	0.00337539203747226\\
67	0.00328681965070268\\
68	0.00320284639950925\\
69	0\\
70	0\\
71	0\\
72	0\\
73	0\\
74	0\\
75	0\\
76	0\\
77	0\\
78	0\\
79	0\\
80	0\\
81	0\\
82	0\\
83	0\\
84	0\\
85	0\\
86	0\\
87	0\\
88	0\\
89	0\\
90	0\\
91	0\\
92	0\\
93	0\\
94	0\\
95	0\\
96	0\\
97	0\\
98	0\\
99	0\\
100	0\\
101	0\\
102	0\\
103	0\\
104	0\\
105	0\\
106	0\\
107	0\\
108	0\\
109	0\\
110	0\\
111	0\\
112	0\\
113	0\\
114	0\\
115	0\\
116	0\\
117	0\\
118	0\\
119	0\\
120	0\\
121	0\\
122	0\\
123	0\\
124	0\\
125	0\\
126	0\\
127	0\\
128	0\\
129	0\\
130	0\\
131	0\\
132	0\\
133	0\\
134	0\\
135	0\\
136	0\\
137	0\\
138	0\\
139	0\\
140	0\\
141	0\\
142	0\\
143	0\\
144	0\\
145	0\\
146	0\\
147	0\\
148	0\\
149	0\\
150	0\\
151	0\\
152	0\\
153	0\\
154	0\\
155	0\\
156	0\\
157	0\\
158	0\\
159	0\\
160	0\\
161	0\\
162	0\\
163	0\\
164	0\\
165	0\\
166	0\\
167	0\\
168	0\\
169	0\\
170	0\\
171	0\\
172	0\\
173	0\\
174	0\\
175	0\\
176	0\\
177	0\\
178	0\\
179	0\\
180	0\\
181	0\\
182	0\\
183	0\\
184	0\\
185	0\\
186	0\\
187	0\\
188	0\\
189	0\\
190	0\\
191	0\\
192	0\\
193	0\\
194	0\\
195	0\\
196	0\\
197	0\\
198	0\\
199	0\\
200	0\\
};
\addlegendentry{$\mathbf{h_{2}}$}

\end{axis}

\begin{axis}[%
width=1.935in,
height=3.2in,
at={(3.327in,0.512in)},
scale only axis,
xmin=0,
xmax=400,
xlabel style={font=\color{white!15!black}, align=center},
xlabel={Sample Index\\[1ex](b) Estimated},
ymin=0,
ymax=1,
axis background/.style={fill=white},
legend style={legend cell align=left, align=left, draw=white!15!black}
]
\addplot [color=mycolor1]
  table[row sep=crcr]{%
0	8.90230213022864e-05\\
1	9.24018469762068e-05\\
2	4.67836989206552e-05\\
3	8.2072250768786e-05\\
4	5.29343818087455e-05\\
5	4.50171038970546e-05\\
6	3.06817688460548e-05\\
7	7.72725869382948e-05\\
8	4.24261494947281e-05\\
9	0.000116257012011664\\
10	5.64965370180395e-05\\
11	0.000121488730431171\\
12	0.000112176298828957\\
13	7.81436477153713e-05\\
14	9.54539601640617e-06\\
15	2.49766182108408e-05\\
16	4.57771236084234e-05\\
17	0.000108473889460636\\
18	3.39609713786605e-05\\
19	0.000162007090969671\\
20	1.26905317253475e-05\\
21	0.000239666609252003\\
22	0.000110965079215623\\
23	3.71292615875696e-05\\
24	4.31038829443452e-05\\
25	0.000120259468632879\\
26	2.54489561083285e-05\\
27	3.70060132471614e-05\\
28	0.000210626973642682\\
29	7.47676444483053e-05\\
30	8.87524190425504e-05\\
31	7.19975639715229e-05\\
32	0.000103731438161897\\
33	5.4121149997034e-05\\
34	3.47256536453768e-05\\
35	6.05391185331609e-06\\
36	7.06366649915215e-05\\
37	0.000276725391830492\\
38	6.32849687133661e-05\\
39	9.85923854479165e-05\\
40	0.000139467883336813\\
41	1.28639547459326e-05\\
42	3.64867620879972e-05\\
43	6.54052201712444e-05\\
44	6.80974353827587e-05\\
45	0.00016666196920334\\
46	2.58864148870529e-05\\
47	0.000214787511012103\\
48	4.81657146093103e-05\\
49	3.35649582031555e-05\\
50	0.000130548162472546\\
51	8.44468038498561e-05\\
52	2.74414805373818e-05\\
53	0.000126480798345722\\
54	3.19188316431797e-05\\
55	2.59283891332533e-05\\
56	2.09171353544214e-05\\
57	0.00010633265387466\\
58	1.31735333414192e-05\\
59	4.14515956590569e-05\\
60	7.50756903894936e-05\\
61	0.000114023763705286\\
62	1.59356112866049e-05\\
63	8.54946304234182e-05\\
64	8.73293398720889e-05\\
65	7.93898225439454e-05\\
66	4.62565636565848e-05\\
67	2.8242259660755e-05\\
68	0.000110093110680106\\
69	6.20234456228459e-05\\
70	1.27229637465751e-05\\
71	4.66312918348592e-05\\
72	5.46042147093451e-05\\
73	0.000140034790459647\\
74	4.23866801676224e-06\\
75	2.88452198699302e-05\\
76	6.01971506001821e-05\\
77	5.33907677653834e-05\\
78	7.43906291056623e-06\\
79	0.000150920475916146\\
80	3.35270734141339e-05\\
81	8.94581902691783e-05\\
82	5.31324811831348e-05\\
83	9.55962121768916e-05\\
84	7.96193302648075e-05\\
85	0.000128380140873115\\
86	0.000163748879061649\\
87	7.71853401775024e-05\\
88	0.000227485956489908\\
89	7.62955966548639e-05\\
90	0.000144186933814258\\
91	6.71835457520056e-05\\
92	4.88166446618376e-05\\
93	6.04375544745852e-05\\
94	4.34400106372184e-05\\
95	6.0765600092779e-05\\
96	4.63350420447383e-05\\
97	4.20370323369474e-05\\
98	0.000124247029295914\\
99	0.000262046935099869\\
100	6.52746333197388e-05\\
101	7.77846233656096e-05\\
102	1.64750486422655e-05\\
103	3.04268333493713e-05\\
104	0.000120500469695204\\
105	7.86461147545674e-05\\
106	3.69446026443162e-05\\
107	7.7855942403034e-05\\
108	5.13398129795509e-05\\
109	0.000226850249595542\\
110	0.000135122740013816\\
111	8.99699076557727e-05\\
112	1.04010072480859e-05\\
113	0.000199998549905132\\
114	0.000163528589840442\\
115	6.81050176530728e-06\\
116	2.53222125422026e-05\\
117	1.0116729249935e-05\\
118	4.21424924493888e-05\\
119	2.0134279712955e-05\\
120	0.000128878226651925\\
121	7.26267580846247e-05\\
122	0.000181354456618507\\
123	5.19729757709037e-06\\
124	3.86122170733782e-05\\
125	0.000102864430531617\\
126	5.38900235625702e-05\\
127	2.568012436439e-05\\
128	1.04108229505903e-05\\
129	4.70447013585598e-05\\
130	7.58668101726989e-05\\
131	4.59281074840034e-05\\
132	0.000109204638601289\\
133	0.000206484497147638\\
134	2.50610354668023e-05\\
135	0.000225411273103071\\
136	0.000287966020982705\\
137	8.63653714643964e-05\\
138	7.31592834847384e-05\\
139	5.05947851578889e-05\\
140	2.99413319898515e-05\\
141	3.51979256331459e-05\\
142	6.33099703296201e-05\\
143	0.000111234182282298\\
144	4.44724432836721e-05\\
145	4.01570662426348e-05\\
146	0.0003881234252877\\
147	0.000105620763432149\\
148	0.000145033174565279\\
149	0.00516247496026913\\
150	0.00733990085491131\\
151	0.000275088046634896\\
152	0.0120263514179761\\
153	3.32227819627108e-05\\
154	0.00059880172462762\\
155	0.000107846512416682\\
156	0.00035396953025317\\
157	0.000186715140173718\\
158	6.84628967037742e-05\\
159	0.00011565160305288\\
160	6.10360504624881e-05\\
161	0.00111730033043277\\
162	0.00658915105624891\\
163	0.00161417054260634\\
164	0.000181694613676928\\
165	0.0110875559606859\\
166	0.0047263609016862\\
167	0.00294453461577093\\
168	0.0436363325164472\\
169	0.0189119505339122\\
170	0.0269657568549832\\
171	0.000104404158023573\\
172	0.0475548262442543\\
173	0.00852782605432757\\
174	0.0285198902212171\\
175	0.0358622120586954\\
176	0.014093221714708\\
177	0.0852640965521939\\
178	0.00108440335602062\\
179	0.00521295613676241\\
180	0.00462982238612641\\
181	0.00888752545053\\
182	0.042990465028495\\
183	0.0619493996195161\\
184	0.149728568771999\\
185	0.0965045222917829\\
186	0.132445260051226\\
187	0.212915350146482\\
188	0.576079582434631\\
189	0.129019319888394\\
190	0.0629888045585416\\
191	0.00549451139982957\\
192	0.0400797924743719\\
193	0.0591826026860306\\
194	0.0628059946231895\\
195	0.0112013612556513\\
196	0.0247629653901746\\
197	0.00947682233047125\\
198	0.041798973505724\\
199	0.0254958334094878\\
200	0.0293884730223168\\
201	0.0385794938767189\\
202	0.0489235455123024\\
203	0.0710180536615012\\
204	0.587075331799172\\
205	0.127915722415839\\
206	0.0197132825075567\\
207	0.0527516191454039\\
208	0.0540131975429829\\
209	0.0747100473713076\\
210	0.166769164275171\\
211	0.0179518433827571\\
212	0.0404487053007564\\
213	0.0280494682029052\\
214	0.00301731869668223\\
215	0.00869992041489677\\
216	0.00010201417683509\\
217	0.00023108524915667\\
218	0.0139187857879112\\
219	0.0133436604592484\\
220	0.0819296588351064\\
221	0.0657466464922284\\
222	0.0768977696221816\\
223	0.220474971991958\\
224	0.170444876885346\\
225	0.0752113718443065\\
226	0.0493527301267485\\
227	0.00943068661686544\\
228	0.0236121672358248\\
229	0.0176364741221359\\
230	5.90890997600883e-05\\
231	0.00412288157226282\\
232	0.0123778524680417\\
233	0.00870507663616085\\
234	0.000172343326517113\\
235	0.00949835104461347\\
236	0.00812129126058574\\
237	0.000893558971120028\\
238	0.00894473364124397\\
239	0.0299744852207975\\
240	0.0273819116332967\\
241	0.00425857169038366\\
242	0.00995632553834703\\
243	0.00486066100464617\\
244	0.00224710456843752\\
245	0.00077719089543895\\
246	0.00251689531162941\\
247	0.000799073909947665\\
248	0.000341664305229452\\
249	7.32322379200837e-05\\
250	0.000233309189939702\\
251	0.00033075797536648\\
252	0.000348440605001552\\
253	0.000727440674119688\\
254	0.000114596049171857\\
255	0.000295679597335748\\
256	0.00478398788003654\\
257	0.00102792386088071\\
258	0.00137240297745029\\
259	0.00167348585599223\\
260	2.81280033303066e-05\\
261	3.59520931377175e-05\\
262	0.000225773634573875\\
263	0.000286091372482191\\
264	5.96961020543172e-05\\
265	0.000399278918048271\\
266	6.75204349381847e-05\\
267	8.13148085416825e-05\\
268	8.63165877634626e-05\\
269	9.79689629502909e-05\\
270	0.000115838137643273\\
271	1.19044039933128e-05\\
272	3.51817552390288e-05\\
273	4.66250483918599e-05\\
274	2.92626498303419e-05\\
275	0.000159863666253075\\
276	7.4582732284365e-05\\
277	2.21660236312696e-05\\
278	6.082501587952e-05\\
279	9.65095085781875e-05\\
280	0.000109792167417606\\
281	1.57431651638372e-05\\
282	6.48950252710838e-06\\
283	0.000267716696524176\\
284	2.44339120694547e-05\\
285	0.000164420445536492\\
286	6.08854396008796e-05\\
287	9.2623966717301e-05\\
288	0.000107614458263416\\
289	5.09131197051253e-05\\
290	7.65767553823332e-05\\
291	5.05270410114442e-05\\
292	5.68895985924735e-05\\
293	0.00017992236748816\\
294	0.000169851592692462\\
295	8.08363365084812e-05\\
296	7.21634359551171e-06\\
297	5.70338023957137e-06\\
298	3.31603284560594e-05\\
299	9.32326393168677e-05\\
300	3.79453709057987e-05\\
301	1.82981662968533e-05\\
302	5.47434964609776e-05\\
303	8.51101561235269e-05\\
304	3.29217426458954e-05\\
305	9.01167988117048e-05\\
306	3.02095873353499e-05\\
307	0.00020328963807779\\
308	5.71015115979352e-05\\
309	4.19951871970314e-05\\
310	0.00010118913517723\\
311	2.58777631278708e-05\\
312	1.04289549992174e-05\\
313	0.000264270124004907\\
314	1.44530337592631e-05\\
315	1.23080502605418e-05\\
316	8.70982098553036e-05\\
317	3.59836499766268e-05\\
318	0.000129231533332874\\
319	9.19542310152084e-05\\
320	0.000100386859459\\
321	0.000105609385117369\\
322	0.000166244376261182\\
323	0.000245978231245329\\
324	0.000118568654540137\\
325	0.000130885205603579\\
326	8.72036900794181e-05\\
327	5.48248103187919e-06\\
328	3.16972880747234e-05\\
329	2.37253830619908e-05\\
330	0.000207207161995315\\
331	6.77112707746909e-05\\
332	3.68089936409737e-05\\
333	8.7859126534037e-05\\
334	1.54658351840519e-05\\
335	7.94195801151717e-05\\
336	0.000101227916871052\\
337	3.05353728011135e-05\\
338	8.24547407171811e-05\\
339	1.06999871783917e-05\\
340	4.44148832635276e-05\\
341	5.17996630185493e-05\\
342	0.000102715124313533\\
343	0.000192909956501213\\
344	7.40619345295372e-05\\
345	0.00016624808553394\\
346	2.6472304666197e-05\\
347	0.000252115718253664\\
348	1.6017667115415e-05\\
349	3.76918770545478e-05\\
350	2.73322473013038e-05\\
351	5.5901487413365e-05\\
352	6.7721489721958e-05\\
353	0.00023760213395845\\
354	5.23788029895545e-05\\
355	6.21219577325975e-05\\
356	1.93747249915825e-05\\
357	5.36272017417178e-05\\
358	8.0043642729296e-06\\
359	5.41661403617825e-05\\
360	2.03583988519683e-05\\
361	0.000156467130301832\\
362	1.83209288173106e-05\\
363	0.000141773265159593\\
364	0.000335415075440203\\
365	8.82283015932464e-05\\
366	7.95169017511687e-05\\
367	2.13816691313108e-05\\
368	4.02731650362402e-05\\
369	6.69777902878711e-05\\
370	0.000171922755185657\\
371	0.000143780788948323\\
372	5.86713130460479e-05\\
373	8.72657094184953e-05\\
374	2.34053162258977e-05\\
375	1.6311224801176e-05\\
376	8.04521114439345e-05\\
377	2.0533129728613e-05\\
378	1.63585803927249e-05\\
379	0.000171527745037261\\
380	0.00025695862892139\\
381	0.000127604575585849\\
382	3.68886031005927e-05\\
383	2.6745107063548e-05\\
384	4.9083695894817e-05\\
385	2.58041826930783e-05\\
386	2.3023491135802e-05\\
387	0.000124595322193443\\
388	0.000171378623187432\\
389	2.8042558595539e-05\\
390	6.3823005093332e-05\\
391	2.80128909632007e-05\\
392	0.000126349607584488\\
393	5.68944792558089e-06\\
394	0.000101553459709568\\
395	0.000186901483262444\\
396	0.000227340589159362\\
397	3.91641878081457e-05\\
398	4.92453567475346e-05\\
399	3.88574305497525e-05\\
};
\addlegendentry{$\mathbf{\hat{h}_{1}}$}

\addplot [color=mycolor2]
  table[row sep=crcr]{%
0	3.02874927309633e-05\\
1	1.65550514550811e-06\\
2	6.52829505769781e-06\\
3	3.08236958277404e-05\\
4	5.87079341056581e-05\\
5	7.47723883318658e-06\\
6	3.38479689090681e-05\\
7	9.15927561282219e-05\\
8	9.03882049634225e-05\\
9	1.08823236044637e-05\\
10	9.54860755818163e-06\\
11	4.37671221599861e-05\\
12	3.81250134565424e-05\\
13	9.4660747425362e-06\\
14	2.00122500178515e-05\\
15	2.33705907489274e-06\\
16	0.000172635404749793\\
17	3.48262641489849e-05\\
18	2.56937317345176e-06\\
19	1.98358598234204e-05\\
20	1.9153083046907e-06\\
21	1.54719478092377e-05\\
22	1.12716608563764e-06\\
23	0.000178899270851911\\
24	6.67076480462792e-06\\
25	1.34444797720783e-05\\
26	2.87708149046344e-06\\
27	1.12005730980819e-05\\
28	2.34512690699058e-05\\
29	1.8035831055103e-05\\
30	3.88244684670175e-05\\
31	2.27865421821714e-05\\
32	1.69165018817088e-05\\
33	1.65442421849942e-05\\
34	6.32833169644167e-05\\
35	4.4347844883824e-05\\
36	5.476956696935e-06\\
37	3.55790338597241e-05\\
38	9.63221699226667e-06\\
39	7.84031997554843e-05\\
40	0.000122541419383328\\
41	2.41307180337915e-05\\
42	3.2704511876515e-05\\
43	7.33502845038773e-05\\
44	3.1627993875569e-05\\
45	8.02264892464832e-06\\
46	1.81618903678767e-05\\
47	1.07548341887528e-05\\
48	2.73363044277395e-05\\
49	3.47491534689089e-05\\
50	4.98415853529062e-05\\
51	2.01782725274892e-05\\
52	5.57882467812019e-05\\
53	1.3976858171323e-05\\
54	7.29511949742886e-06\\
55	2.58538559200596e-05\\
56	7.75564399409533e-05\\
57	1.24130336499673e-05\\
58	5.05287942587304e-05\\
59	2.96734718957676e-05\\
60	3.64369629327541e-05\\
61	4.62148636712369e-05\\
62	3.53527188360617e-05\\
63	1.31100799545479e-05\\
64	9.05939496350048e-05\\
65	6.56853624356446e-05\\
66	2.1683314012533e-05\\
67	1.89826329174623e-05\\
68	1.91157924012144e-05\\
69	4.27788287432006e-05\\
70	1.62020543984688e-05\\
71	6.3421822317695e-05\\
72	2.68663415152663e-05\\
73	2.0237114632538e-05\\
74	1.40457973125058e-05\\
75	1.15654990441222e-05\\
76	1.3857748866651e-05\\
77	5.06676972750271e-05\\
78	1.62966261458188e-05\\
79	2.0310894228041e-05\\
80	6.5926986284999e-05\\
81	3.91136046805049e-05\\
82	4.41923812941492e-05\\
83	3.29946909548148e-05\\
84	8.69177001853656e-05\\
85	3.4333585045252e-05\\
86	3.98845894445619e-06\\
87	1.3710289648871e-05\\
88	1.0407507690599e-05\\
89	1.42561270332405e-05\\
90	6.31658438680678e-05\\
91	2.06683014978344e-05\\
92	4.45910908552996e-05\\
93	1.21874600358424e-05\\
94	0.00010284408192201\\
95	2.01834640161038e-05\\
96	0.000113900816840313\\
97	5.16749455547148e-05\\
98	3.00742830723378e-05\\
99	6.84842859492473e-05\\
100	7.60606444651843e-06\\
101	7.31797600354354e-06\\
102	5.94330841063665e-05\\
103	2.12108741290575e-06\\
104	0.000114190242330923\\
105	3.86727526793321e-05\\
106	9.84543927747917e-06\\
107	1.94853807139351e-05\\
108	2.86284625719413e-05\\
109	4.08476746024324e-05\\
110	6.89278840118133e-05\\
111	2.58498156882533e-05\\
112	5.75575478256193e-05\\
113	1.04836894614213e-05\\
114	1.41030694341404e-05\\
115	3.19493708747284e-05\\
116	4.47478947179448e-05\\
117	2.83369265108914e-05\\
118	9.49636756843544e-06\\
119	3.05494281135997e-05\\
120	0.000100833653136912\\
121	3.60298468538921e-05\\
122	0.000103981882644222\\
123	3.67774198686458e-06\\
124	6.96294439170512e-05\\
125	0.000137677168256669\\
126	2.21845637912294e-05\\
127	6.37468879715714e-06\\
128	6.25182317259722e-05\\
129	0.00014251260173732\\
130	2.03811498802654e-05\\
131	3.9170746009259e-05\\
132	3.89543814859473e-05\\
133	5.22460679723533e-05\\
134	3.74728127695486e-05\\
135	2.69888201963419e-05\\
136	5.50993414953274e-05\\
137	0.000895118239429191\\
138	3.01536034101372e-05\\
139	9.77305645926627e-06\\
140	0.00136605091654666\\
141	0.000241331563294647\\
142	0.000117100551948771\\
143	0.00320991802101637\\
144	0.00395669596910414\\
145	0.00133909127523497\\
146	0.00180713191612444\\
147	0.00371484115488056\\
148	0.000820711035485514\\
149	0.000810632406462718\\
150	0.000248709791044027\\
151	0.000143275638989486\\
152	0.000543820066679209\\
153	4.14465988935506e-05\\
154	7.42240762199028e-05\\
155	0.000232733546897687\\
156	0.000133933104169074\\
157	0.00053032049198312\\
158	4.27050358286991e-05\\
159	0.00654741351560193\\
160	0.0216849830848043\\
161	0.0170786757831267\\
162	0.00377313351364328\\
163	0.0413495619968577\\
164	0.017851572868445\\
165	0.0134142939276816\\
166	0.0145373901970007\\
167	0.00854390494565783\\
168	0.00278165596721842\\
169	0.0041861914291359\\
170	0.00113077387280054\\
171	5.90340937004951e-06\\
172	0.00481170153969713\\
173	0.0153222687039542\\
174	0.00188097259396684\\
175	0.00356555224219826\\
176	0.0199351603899608\\
177	0.0176552366086989\\
178	0.0110902962907472\\
179	0.040613580944854\\
180	0.0503717196639582\\
181	0.0286094042455537\\
182	0.00751966600305341\\
183	0.111953483518408\\
184	0.014403847242445\\
185	0.005457592264339\\
186	0.0179105035209266\\
187	0.00616303349973874\\
188	0.00860624346539468\\
189	0.00590879710470485\\
190	0.015072850804749\\
191	0.0180075583680584\\
192	0.0074129053033447\\
193	0.007995396850387\\
194	0.00819171882327763\\
195	0.00687916712042507\\
196	0.0461157261270382\\
197	0.0229617402659302\\
198	0.00150313870917798\\
199	0.973199766572773\\
200	0.00154512621005569\\
201	0.0236415540171047\\
202	0.046902608255303\\
203	0.00638088605802947\\
204	0.00885044984410088\\
205	0.00956544877564685\\
206	0.00687612890516237\\
207	0.0173528886991954\\
208	0.0133557270162154\\
209	0.00762808041874566\\
210	0.00962429580296609\\
211	0.0065722848732591\\
212	0.0180030394014105\\
213	0.00452067337517126\\
214	0.0132948631179312\\
215	0.111876825875292\\
216	0.0070917927337927\\
217	0.0290897664885303\\
218	0.0505876335494076\\
219	0.0415217502233863\\
220	0.0118778238537879\\
221	0.018202837236271\\
222	0.0204638211904268\\
223	0.00315410786257264\\
224	0.00146471900369559\\
225	0.0159490036166626\\
226	0.00520395650674424\\
227	1.93630872617799e-05\\
228	0.000291352122361849\\
229	0.00470803886317628\\
230	0.00215449956719953\\
231	0.00760765177992086\\
232	0.0151998826127848\\
233	0.0129564385438454\\
234	0.0176701908610168\\
235	0.0422835367136318\\
236	0.00271121249227543\\
237	0.0179062415458419\\
238	0.0229224801902014\\
239	0.00712356666490015\\
240	7.84896026609218e-05\\
241	6.57113678142528e-05\\
242	0.000620923335080208\\
243	0.00103627509763496\\
244	0.000560982931277333\\
245	4.45456529898893e-05\\
246	0.00146677372211065\\
247	0.000307555389883655\\
248	0.000219999390874232\\
249	0.00130965386051717\\
250	0.00135185748977658\\
251	0.00336762991263446\\
252	0.00190501612968348\\
253	0.00136014814203824\\
254	0.00358917795888858\\
255	0.0042166467147914\\
256	8.33089893955649e-05\\
257	0.000163134666188143\\
258	0.00231886674172506\\
259	2.40202409560781e-05\\
260	2.48805498694928e-05\\
261	0.0014854924041516\\
262	0.000275854395684001\\
263	0.00046730007368668\\
264	0.000441283230148281\\
265	4.82388685780457e-05\\
266	6.68233015755765e-05\\
267	3.00280091066832e-05\\
268	7.09445173981197e-06\\
269	0.000119672422640494\\
270	6.72897522921632e-05\\
271	1.73075953742857e-05\\
272	2.07669266148232e-05\\
273	0.000190238345395231\\
274	0.00016984637946983\\
275	1.56009599154092e-05\\
276	0.000161704340552811\\
277	2.18751053545478e-05\\
278	9.36993919181975e-05\\
279	2.4110223545707e-05\\
280	1.56412490728971e-05\\
281	3.14954653074012e-05\\
282	2.79067447872658e-05\\
283	3.81622837922106e-05\\
284	3.60049603600292e-05\\
285	4.57660217206787e-06\\
286	9.12084880430778e-05\\
287	4.06171788481197e-05\\
288	4.61545062926617e-05\\
289	3.69055761159079e-05\\
290	3.2726277808146e-05\\
291	3.11352590655512e-05\\
292	2.41903326945193e-06\\
293	3.38733820428445e-05\\
294	0.000143904526972976\\
295	1.01669797365773e-05\\
296	5.0563197360291e-05\\
297	1.95922437669166e-05\\
298	9.37429143595195e-06\\
299	8.56676177252374e-05\\
300	3.65929980116028e-05\\
301	5.60736458023673e-05\\
302	0.000150206062678676\\
303	2.33608918525089e-05\\
304	8.86196598962876e-05\\
305	1.06505252206307e-05\\
306	7.45044915292231e-05\\
307	1.60804074267704e-05\\
308	7.72707803521042e-05\\
309	1.12755982793828e-05\\
310	2.22753764510493e-05\\
311	1.26063601308855e-05\\
312	1.79507706384112e-05\\
313	5.22490918304825e-05\\
314	0.000114754482189137\\
315	5.77891584538417e-05\\
316	2.47361293188161e-05\\
317	7.2671041961284e-05\\
318	7.55942509185835e-05\\
319	4.19355001128028e-05\\
320	3.38569322978767e-05\\
321	6.17429404894411e-05\\
322	6.42150076004537e-06\\
323	1.33009910938316e-05\\
324	2.86174874449323e-05\\
325	3.04393754487486e-05\\
326	2.32765548054515e-05\\
327	7.78105864731461e-05\\
328	3.06027651206025e-05\\
329	6.66231784425201e-05\\
330	3.15427828989775e-05\\
331	4.87850739489072e-05\\
332	3.09320523748154e-05\\
333	8.13409465240744e-05\\
334	9.81406211494566e-05\\
335	2.26399468066962e-05\\
336	5.27344908714096e-05\\
337	6.02933805974022e-05\\
338	2.95708425563331e-05\\
339	3.14966506306224e-05\\
340	4.18098358108879e-05\\
341	1.64503086865692e-05\\
342	8.04725331913256e-05\\
343	1.22528612964228e-05\\
344	2.82666816233856e-05\\
345	1.20993190919778e-05\\
346	7.41798840297318e-05\\
347	2.48651240205703e-05\\
348	4.26485632462737e-05\\
349	3.77258564495978e-05\\
350	4.06198929825287e-05\\
351	1.51301186185808e-05\\
352	1.34304913402627e-05\\
353	1.58774728138684e-05\\
354	3.00160204189249e-05\\
355	6.95252104203951e-05\\
356	3.07194968416003e-05\\
357	1.51334402651685e-05\\
358	0.000154085175363275\\
359	9.82201350600618e-05\\
360	2.82160473598975e-05\\
361	4.63512020142269e-05\\
362	5.15124259329609e-06\\
363	5.82593675554539e-05\\
364	7.29589269525759e-05\\
365	2.2399866812724e-05\\
366	2.14739222539397e-05\\
367	2.58610329894915e-05\\
368	4.86936300703982e-05\\
369	2.37951863872002e-05\\
370	1.62530662097896e-05\\
371	2.29099886082491e-05\\
372	1.92341273113925e-05\\
373	3.36664469424631e-06\\
374	1.75701144666916e-05\\
375	0.000172973086304583\\
376	7.29518068058135e-06\\
377	8.53770960815365e-06\\
378	6.32895187518671e-06\\
379	2.21780246488572e-05\\
380	1.32127777564182e-05\\
381	4.0528019306812e-05\\
382	0.000154552326645521\\
383	1.04829217343282e-05\\
384	2.76052471380398e-05\\
385	1.14217120315755e-05\\
386	2.15986525888015e-05\\
387	2.52863958881892e-05\\
388	9.73230653025004e-06\\
389	2.68158388538573e-05\\
390	9.64632197737498e-05\\
391	0.0001045572416374\\
392	3.59501077805392e-05\\
393	2.08825364295469e-05\\
394	4.18482609246411e-05\\
395	4.13054174642075e-05\\
396	5.23816335851805e-06\\
397	1.21958766331626e-05\\
398	2.95933654817934e-05\\
399	1.59684039220684e-05\\
};
\addlegendentry{$\mathbf{\hat{h}_{2}}$}

\end{axis}
\end{tikzpicture}%