% This file was created by matlab2tikz.
%
%The latest updates can be retrieved from
%  http://www.mathworks.com/matlabcentral/fileexchange/22022-matlab2tikz-matlab2tikz
%where you can also make suggestions and rate matlab2tikz.
%
\definecolor{mycolor1}{rgb}{0.00000,0.44700,0.74100}%
\definecolor{mycolor2}{rgb}{0.85000,0.32500,0.09800}%
%
\begin{tikzpicture}

\begin{axis}[%
width=1.952in,
height=3.2in,
at={(0.758in,0.512in)},
scale only axis,
xmin=0,
xmax=20,
xlabel style={font=\color{white!15!black}, align=center},
xlabel={Sample Index\\[1ex](a) Actual},
ymin=0,
ymax=0.9,
axis background/.style={fill=white},
legend style={legend cell align=left, align=left, draw=white!15!black}
]
\addplot [color=mycolor1]
  table[row sep=crcr]{%
1	0.0444337104356374\\
2	0.738127803558165\\
3	0.357839506790865\\
4	0.481268775571525\\
5	0.10955194752004\\
6	0.267783168107473\\
7	0.0769544524124665\\
8	0.0372836026936495\\
9	0.027789744685169\\
10	0.0196434178633453\\
11	0.0212138243269196\\
12	0.0147156812719569\\
13	0.0126517206023441\\
14	0.0111331007215966\\
15	0.00994473974674355\\
16	0.00898571135769806\\
17	0.00819466874468931\\
18	0.00753086667278431\\
19	0.00696589032366256\\
20	0.00647923877975415\\
};
\addlegendentry{$\mathbf{h_1}$}

\addplot [color=mycolor2]
  table[row sep=crcr]{%
1	0.0696363384444256\\
2	0.13399148454392\\
3	0.889181852408627\\
4	0.426869408918664\\
5	0.0527923084371181\\
6	0.0393468637154593\\
7	0\\
8	0\\
9	0\\
10	0\\
11	0\\
12	0\\
13	0\\
14	0\\
15	0\\
16	0\\
17	0\\
18	0\\
19	0\\
20	0\\
};
\addlegendentry{$\mathbf{h_{2}}$}

\end{axis}

\begin{axis}[%
width=1.952in,
height=3.2in,
at={(3.327in,0.512in)},
scale only axis,
xmin=0,
xmax=40,
xlabel style={font=\color{white!15!black}, align=center},
xlabel={Sample Index\\[1ex](b) Estimated},
ymin=0,
ymax=1,
axis background/.style={fill=white},
legend style={legend cell align=left, align=left, draw=white!15!black}
]
\addplot [color=mycolor1]
  table[row sep=crcr]{%
0	2.88608472416275e-05\\
1	2.19713025391059e-05\\
2	3.47937155354996e-05\\
3	2.70997799756315e-05\\
4	2.99372883684767e-05\\
5	5.42753433314638e-05\\
6	4.31435923236221e-05\\
7	2.95304293809224e-05\\
8	0.000686723197377093\\
9	0.00172975427624342\\
10	0.000149556226022195\\
11	0.00967124198453198\\
12	0.0176006938058434\\
13	0.021464411224995\\
14	0.034253659637594\\
15	0.0405387088240199\\
16	0.196974178728032\\
17	0.164274166189162\\
18	0.772728942749302\\
19	0.235682067777135\\
20	0.378232348582556\\
21	0.277250044179578\\
22	0.177698444056826\\
23	0.154301523246683\\
24	0.0247072554145954\\
25	0.0266026240339308\\
26	0.0219995320733334\\
27	0.0225947795992278\\
28	0.0133915707238603\\
29	0.00339065458371913\\
30	0.00252197745189935\\
31	0.00304585356959107\\
32	0.00304053019083417\\
33	0.00144944687247203\\
34	0.000693094996504836\\
35	0.00249024083489244\\
36	0.00495437125198683\\
37	0.000320927600533412\\
38	0.000268062921864299\\
39	0.000139466499085289\\
};
\addlegendentry{$\mathbf{\hat{h}_{1}}$}

\addplot [color=mycolor2]
  table[row sep=crcr]{%
0	1.28531668417594e-05\\
1	3.16389218361125e-05\\
2	1.95054693211115e-05\\
3	8.57904176781483e-05\\
4	0.00119574409029143\\
5	0.00194639706072248\\
6	0.00203241509352949\\
7	0.00293456477326336\\
8	0.00342232329836484\\
9	0.00507940733772918\\
10	0.00904184329226144\\
11	0.0110506924330846\\
12	0.0202715145800552\\
13	0.0150595070561822\\
14	0.0497318581542094\\
15	0.0704754643408458\\
16	0.0731605428297285\\
17	0.166040325250149\\
18	0.0345061294984599\\
19	0.955902528372684\\
20	0.0339256438829695\\
21	0.167699256999314\\
22	0.0740868209066992\\
23	0.0725409848976363\\
24	0.0506564890886643\\
25	0.0170873450707279\\
26	0.022448695679993\\
27	0.0126901051254535\\
28	0.0109792566388562\\
29	0.00725712791436278\\
30	0.00521148933502702\\
31	0.00446143878816504\\
32	0.00354763417983219\\
33	0.00332964706349473\\
34	0.00263763479992085\\
35	0.00112303522197234\\
36	0.000383500698616416\\
37	0.000177811114145526\\
38	0.000426812166579684\\
39	0.000307836716851166\\
};
\addlegendentry{$\mathbf{\hat{h}_{2}}$}

\end{axis}
\end{tikzpicture}%