% This file was created by matlab2tikz.
%
%The latest updates can be retrieved from
%  http://www.mathworks.com/matlabcentral/fileexchange/22022-matlab2tikz-matlab2tikz
%where you can also make suggestions and rate matlab2tikz.
%
\definecolor{mycolor1}{rgb}{0.00000,0.44700,0.74100}%
\definecolor{mycolor2}{rgb}{0.85000,0.32500,0.09800}%
%
\begin{tikzpicture}

\begin{axis}[%
width=1.952in,
height=3.2in,
at={(0.758in,0.512in)},
scale only axis,
xmin=0,
xmax=20,
xlabel style={font=\color{white!15!black}, align=center},
xlabel={Sample Index\\[1ex](a) Actual},
ymin=0,
ymax=0.9,
axis background/.style={fill=white},
legend style={legend cell align=left, align=left, draw=white!15!black}
]
\addplot [color=mycolor1]
  table[row sep=crcr]{%
1	0.0444337104356374\\
2	0.738127803558165\\
3	0.357839506790865\\
4	0.481268775571525\\
5	0.10955194752004\\
6	0.267783168107473\\
7	0.0769544524124665\\
8	0.0372836026936495\\
9	0.027789744685169\\
10	0.0196434178633453\\
11	0.0212138243269196\\
12	0.0147156812719569\\
13	0.0126517206023441\\
14	0.0111331007215966\\
15	0.00994473974674355\\
16	0.00898571135769806\\
17	0.00819466874468931\\
18	0.00753086667278431\\
19	0.00696589032366256\\
20	0.00647923877975415\\
};
\addlegendentry{$\mathbf{h_1}$}

\addplot [color=mycolor2]
  table[row sep=crcr]{%
1	0.0696363384444256\\
2	0.13399148454392\\
3	0.889181852408627\\
4	0.426869408918664\\
5	0.0527923084371181\\
6	0.0393468637154593\\
7	0\\
8	0\\
9	0\\
10	0\\
11	0\\
12	0\\
13	0\\
14	0\\
15	0\\
16	0\\
17	0\\
18	0\\
19	0\\
20	0\\
};
\addlegendentry{$\mathbf{h_{2}}$}

\end{axis}

\begin{axis}[%
width=1.952in,
height=3.2in,
at={(3.327in,0.512in)},
scale only axis,
xmin=0,
xmax=20,
xlabel style={font=\color{white!15!black}, align=center},
xlabel={Sample Index\\[1ex](b) Estimated},
ymin=-0.2,
ymax=1,
axis background/.style={fill=white},
legend style={legend cell align=left, align=left, draw=white!15!black}
]
\addplot [color=mycolor1]
  table[row sep=crcr]{%
0	0.0244460170974941\\
0.25	0.0255332771419619\\
0.5	0.0265885546290065\\
0.75	0.0275561375198153\\
1	0.0283380915623352\\
1.25	0.0288216444076763\\
1.5	0.0287845724725218\\
1.75	0.0280451956529551\\
2	0.026480649175586\\
2.25	0.0241445327964661\\
2.5	0.0210764520946303\\
2.75	0.0175663420688722\\
3	0.0140975717894434\\
3.25	0.0105243060061085\\
3.5	0.00877699667653135\\
3.75	0.0098188702673751\\
4	0.0141631771907497\\
4.25	0.0226884523990616\\
4.5	0.0331494670359203\\
4.75	0.0440089277076879\\
5	0.0538989345867906\\
5.25	0.0591384107092616\\
5.5	0.0642848726536831\\
5.75	0.071415340439876\\
6	0.0824026820709042\\
6.25	0.108043327997401\\
6.5	0.134029885801687\\
6.75	0.156834228988585\\
7	0.176250276437579\\
7.25	0.17365011758356\\
7.5	0.192154411266122\\
7.75	0.249514897595793\\
8	0.353815665048514\\
8.25	0.536456455726571\\
8.5	0.716760380210627\\
8.75	0.846831120202731\\
9	0.886807989336514\\
9.25	0.770174169101626\\
9.5	0.574598557838892\\
9.75	0.349119642802767\\
10	0.147115307672056\\
10.25	0.0543779271566711\\
10.5	0.0288312430148797\\
10.75	0.0529265648330628\\
11	0.0986955339197763\\
11.25	0.108748775557374\\
11.5	0.10530405990833\\
11.75	0.0897076884069916\\
12	0.0688671653232666\\
12.25	0.0652015963130921\\
12.5	0.0654592273897745\\
12.75	0.0683491003196762\\
13	0.071468872418271\\
13.25	0.0679626463014412\\
13.5	0.0623382093577384\\
13.75	0.0553269744403377\\
14	0.0478926517393419\\
14.25	0.0418239710880074\\
14.5	0.0363911297402622\\
14.75	0.0314896665198025\\
15	0.0268801666447195\\
15.25	0.021631495855749\\
15.5	0.0167659131739134\\
15.75	0.0126738458527021\\
16	0.00972639558255004\\
16.25	0.00853365755765253\\
16.5	0.00857602711925343\\
16.75	0.00953751101728021\\
17	0.0110170622434854\\
17.25	0.0123698896352682\\
17.5	0.0136783982682034\\
17.75	0.014867397325632\\
18	0.0159402169460806\\
18.25	0.0170468467683452\\
18.5	0.0181009477930992\\
18.75	0.0191198958489793\\
19	0.0201212393994283\\
19.25	0.0211144342106801\\
19.5	0.0221301446083184\\
19.75	0.0231874832913142\\
};
\addlegendentry{$\mathbf{\hat{h}_{1}}$}

\addplot [color=mycolor2]
  table[row sep=crcr]{%
0	0.00870240765048715\\
0.25	0.0088615981225733\\
0.5	0.00897049223033972\\
0.75	0.00898820721521046\\
1	0.00889150968720427\\
1.25	0.00866240085757464\\
1.5	0.00835516923194035\\
1.75	0.00802823182143725\\
2	0.00775419332822937\\
2.25	0.00764370109794568\\
2.5	0.00772196700534064\\
2.75	0.00804426066082062\\
3	0.00866420033218712\\
3.25	0.00944018994897011\\
3.5	0.0107094122500405\\
3.75	0.012563990450793\\
4	0.0149981825234713\\
4.25	0.0181054018447929\\
4.5	0.0213176362166437\\
4.75	0.0242680260527076\\
5	0.0266767878144297\\
5.25	0.0243358056646119\\
5.5	0.0236127989909838\\
5.75	0.0262320722743743\\
6	0.0325773956612439\\
6.25	0.0578521692586234\\
6.5	0.0745358148120223\\
6.75	0.0745152605569981\\
7	0.056982707347786\\
7.25	-0.00698153911261122\\
7.5	-0.0417918400390467\\
7.75	-0.0116941858968289\\
8	0.104454268884717\\
8.25	0.363251113608565\\
8.5	0.643479091524181\\
8.75	0.871775410984634\\
9	0.983361913357137\\
9.25	0.871812607102837\\
9.5	0.643548251067847\\
9.75	0.363342710860153\\
10	0.104556253857324\\
10.25	-0.0115974170785124\\
10.5	-0.0417089589442312\\
10.75	-0.00691641311910681\\
11	0.0570307325152618\\
11.25	0.074555201005368\\
11.5	0.0745691305008209\\
11.75	0.0578768078736141\\
12	0.0325878928727482\\
12.25	0.0262148429505176\\
12.5	0.0235643548654245\\
12.75	0.0242580097061826\\
13	0.0265768660965256\\
13.25	0.0241623110770149\\
13.5	0.0212157733026476\\
13.75	0.0180136827956611\\
14	0.0149187630650624\\
14.25	0.0124916262933776\\
14.5	0.0106425912483181\\
14.75	0.00937881737576291\\
15	0.00861057230980376\\
15.25	0.00800657546229644\\
15.5	0.00770571245574733\\
15.75	0.00765456775987375\\
16	0.00779794349141024\\
16.25	0.00811229861404832\\
16.5	0.00848466492855277\\
16.75	0.00884169441862876\\
17	0.0091242128168007\\
17.25	0.00925925195099486\\
17.5	0.00928912468129013\\
17.75	0.00923849093803251\\
18	0.00914029536742395\\
18.25	0.0090344429177251\\
18.5	0.00893135075086018\\
18.75	0.00883847013427834\\
19	0.00875347579016292\\
19.25	0.00866493644616614\\
19.5	0.00857064732971638\\
19.75	0.00846896366271938\\
};
\addlegendentry{$\mathbf{\hat{h}_{2}}$}

\end{axis}
\end{tikzpicture}%