% This file was created by matlab2tikz.
%
%The latest updates can be retrieved from
%  http://www.mathworks.com/matlabcentral/fileexchange/22022-matlab2tikz-matlab2tikz
%where you can also make suggestions and rate matlab2tikz.
%
\definecolor{mycolor1}{rgb}{0.00000,0.44700,0.74100}%
\definecolor{mycolor2}{rgb}{0.85000,0.32500,0.09800}%
%
\begin{tikzpicture}

\begin{axis}[%
width=1.935in,
height=3.2in,
at={(0.758in,0.512in)},
scale only axis,
xmin=0,
xmax=200,
xlabel style={font=\color{white!15!black}, align=center},
xlabel={Sample Index\\[1ex](a) Actual},
ymin=0,
ymax=1,
axis background/.style={fill=white},
legend style={legend cell align=left, align=left, draw=white!15!black}
]
\addplot [color=mycolor1]
  table[row sep=crcr]{%
1	0.0167418731260698\\
2	0.018659722218203\\
3	0.0211495716349754\\
4	0.0245407494314006\\
5	0.029505643974117\\
6	0.0377161636169434\\
7	0.0550750576238134\\
8	0.131028403455825\\
9	0.141533477104454\\
10	0.158175166246243\\
11	0.163761757297189\\
12	0.600100605556833\\
13	0.118033417583129\\
14	0.0610914209628117\\
15	0.0426162246246858\\
16	0.0332715711707656\\
17	0.0321939439283243\\
18	0.0268871008873183\\
19	0.0316920608120786\\
20	0.0286771919664519\\
21	0.00773119825769845\\
22	0.0330073087209196\\
23	0.019415059292473\\
24	0.0177688778425817\\
25	0.0188194600762088\\
26	0.0237714798713867\\
27	0.0430806655948836\\
28	0.586023006720236\\
29	0.0970905103802927\\
30	0.0246981078960262\\
31	0.0780346253424249\\
32	0.0580455436901626\\
33	0.0681836526256362\\
34	0.163824852865525\\
35	0.0446106828365612\\
36	0.06119675966513\\
37	0.00907835157153909\\
38	0.0310093774848825\\
39	0.00125972832884384\\
40	0.005422098150711\\
41	0.0107374596162295\\
42	0.0165479326643041\\
43	0.024789327411243\\
44	0.0446277431282512\\
45	0.058019450740893\\
46	0.074843365423057\\
47	0.199666615467323\\
48	0.216838516027539\\
49	0.0783890355452335\\
50	0.0495529240878659\\
51	0.0370791446049236\\
52	0.0307530810094058\\
53	0.0155757068681131\\
54	0.0198807977432187\\
55	0.0179871495341263\\
56	0.0162887905400521\\
57	0.0148728268904216\\
58	0.0136909847461918\\
59	0.0126943671543235\\
60	0.011846112844806\\
61	0.0111233301448608\\
62	0.0105291449791113\\
63	0.0102108676347222\\
64	0.00751288118280402\\
65	0.00739035992869396\\
66	0.0116365722557393\\
67	0.00899390796280924\\
68	0.00831157148096884\\
69	0.00788086875151191\\
70	0.00754217236777393\\
71	0.00725475830161164\\
72	0.00700327644843893\\
73	0.006780818536885\\
74	0.00658453626015097\\
75	0.00641472878078445\\
76	0.00627599401250467\\
77	0.00618216997550965\\
78	0.00617516728867787\\
79	0.00642745729543014\\
80	0.00873051939586948\\
81	0.00471465923588381\\
82	0.00195996010568866\\
83	0.004980313957114\\
84	0.00475839614864904\\
85	0.00464733241660508\\
86	0.00455444244400457\\
87	0.00446749239384432\\
88	0.00438406292262191\\
89	0.00430366820355207\\
90	0.00422628355118023\\
91	0.00415201532524293\\
92	0.00408104289588831\\
93	0.00401365198230764\\
94	0.00395033763548775\\
95	0.00389203620501121\\
96	0.00384070443755282\\
97	0.00380107128140597\\
98	0.00378779867734327\\
99	0.00387836096292209\\
100	0.00228454900881806\\
101	0.00321909463290553\\
102	0.00328982387499096\\
103	0.00328100374444436\\
104	0.00325253146337885\\
105	0.00321692683031362\\
106	0.00317840637543852\\
107	0.00313876414674543\\
108	0.00309887602618152\\
109	0.00305920797263281\\
110	0.00302002111537278\\
111	0.00298146552488656\\
112	0.00294362726599965\\
113	0.0029065537719176\\
114	0.00287026833389302\\
115	0.00283477876811283\\
116	0.00280008280049957\\
117	0.00276617151884636\\
118	0.00273303164395387\\
119	0.00270064705586787\\
120	0.00266899983729428\\
121	0.00263807099659409\\
122	0.00260784097374635\\
123	0.00257828999668392\\
124	0.00254939833288439\\
125	0.00252114646667125\\
126	0.00249351522323938\\
127	0.00246648585412356\\
128	0.00244004009455901\\
129	0.00241416020024051\\
130	0.00238882896892876\\
131	0.0023640297508985\\
132	0.00233974645117835\\
133	0.00231596352577768\\
134	0.00229266597354371\\
135	0.00226983932488367\\
136	0.00224746962828519\\
137	0.00222554343533969\\
138	0.00220404778480324\\
139	0.00218297018609978\\
140	0.00216229860257188\\
141	0.00214202143470905\\
142	0.00212212750352594\\
143	0.00210260603421662\\
144	0.00208344664017788\\
145	0.00206463930746792\\
146	0.00204617437974413\\
147	0.00202804254371082\\
148	0.00201023481509265\\
149	0.00199274252514179\\
150	0.00197555730767936\\
151	0.0019586710866655\\
152	0.00194207606428942\\
153	0.00192576470956709\\
154	0.00190972974743187\\
155	0.00189396414830307\\
156	0.00187846111811499\\
157	0.00186321408878906\\
158	0.00184821670913216\\
159	0.00183346283614256\\
160	0.00181894652670628\\
161	0.00180466202966742\\
162	0.00179060377825436\\
163	0.00177676638284649\\
164	0.00176314462406556\\
165	0.00174973344617591\\
166	0.0017365279507797\\
167	0.00172352339079259\\
168	0.00171071516468654\\
169	0.00169809881098722\\
170	0.00168567000301325\\
171	0.00167342454384613\\
172	0.00166135836151948\\
173	0.00164946750441694\\
174	0.00163774813686889\\
175	0.00162619653493841\\
176	0.00161480908238697\\
177	0.00160358226681213\\
178	0.001592512675948\\
179	0.00158159699412143\\
180	0.00157083199885632\\
181	0.00156021455761888\\
182	0.00154974162469766\\
183	0.00153941023821136\\
184	0.00152921751723897\\
185	0.00151916065906659\\
186	0.00150923693654504\\
187	0.00149944369555362\\
188	0.00148977835256491\\
189	0.00148023839230615\\
190	0.0014708213655126\\
191	0.00146152488676917\\
192	0.00145234663243548\\
193	0.00144328433865201\\
194	0.00143433579942216\\
195	0.0014254988647679\\
196	0.00141677143895562\\
197	0.00140815147878894\\
198	0.00139963699196521\\
199	0\\
200	0\\
};
\addlegendentry{$\mathbf{h_1}$}

\addplot [color=mycolor2]
  table[row sep=crcr]{%
1	0.00495033386861547\\
2	0.00515738368500011\\
3	0.00538309861623286\\
4	0.00563019833310769\\
5	0.00590197136255583\\
6	0.00620243506959928\\
7	0.00653655369620811\\
8	0.00691054090538825\\
9	0.00733228812251618\\
10	0.00781198494389501\\
11	0.00836304134465097\\
12	0.0090034999823859\\
13	0.00975827527656913\\
14	0.0106628508662167\\
15	0.0117696896019869\\
16	0.0131600228416925\\
17	0.0149671880151623\\
18	0.0174273921400842\\
19	0.0210049332363351\\
20	0.0267613442180004\\
21	0.037792597580649\\
22	0.068721841139076\\
23	0.97572931769219\\
24	0.0649085399616321\\
25	0.0262918397391367\\
26	0.0126468169615953\\
27	0.00419508123086451\\
28	0.0214241856295046\\
29	0.0134643328328179\\
30	0.00412679327935559\\
31	0.0112712342656943\\
32	0.0282552508318709\\
33	0.111702725947746\\
34	0.12653020104749\\
35	0.0361926668223949\\
36	0.024130019396178\\
37	0.019518168382204\\
38	0.0163235660243771\\
39	0.0140849625225472\\
40	0.0124312948441269\\
41	0.0111552918846637\\
42	0.0101369616841952\\
43	0.00930266674553233\\
44	0.00860476970863487\\
45	0.00801105372801389\\
46	0.00749890841387189\\
47	0.00705196472677567\\
48	0.00665805661850076\\
49	0.0063079366485928\\
50	0.00599443852440938\\
51	0.00571191453485358\\
52	0.00545584764793091\\
53	0.0052225778141873\\
54	0.00500910486747672\\
55	0.00481294397681212\\
56	0.00463201789166602\\
57	0.00446457542356871\\
58	0.00430912894812168\\
59	0.00416440590497024\\
60	0.00402931074167137\\
61	0.00390289474814389\\
62	0.00378433192171684\\
63	0.00367289949042518\\
64	0.0035679620699816\\
65	0.00346895868109233\\
66	0.00337539203747226\\
67	0.00328681965070268\\
68	0.00320284639950925\\
69	0\\
70	0\\
71	0\\
72	0\\
73	0\\
74	0\\
75	0\\
76	0\\
77	0\\
78	0\\
79	0\\
80	0\\
81	0\\
82	0\\
83	0\\
84	0\\
85	0\\
86	0\\
87	0\\
88	0\\
89	0\\
90	0\\
91	0\\
92	0\\
93	0\\
94	0\\
95	0\\
96	0\\
97	0\\
98	0\\
99	0\\
100	0\\
101	0\\
102	0\\
103	0\\
104	0\\
105	0\\
106	0\\
107	0\\
108	0\\
109	0\\
110	0\\
111	0\\
112	0\\
113	0\\
114	0\\
115	0\\
116	0\\
117	0\\
118	0\\
119	0\\
120	0\\
121	0\\
122	0\\
123	0\\
124	0\\
125	0\\
126	0\\
127	0\\
128	0\\
129	0\\
130	0\\
131	0\\
132	0\\
133	0\\
134	0\\
135	0\\
136	0\\
137	0\\
138	0\\
139	0\\
140	0\\
141	0\\
142	0\\
143	0\\
144	0\\
145	0\\
146	0\\
147	0\\
148	0\\
149	0\\
150	0\\
151	0\\
152	0\\
153	0\\
154	0\\
155	0\\
156	0\\
157	0\\
158	0\\
159	0\\
160	0\\
161	0\\
162	0\\
163	0\\
164	0\\
165	0\\
166	0\\
167	0\\
168	0\\
169	0\\
170	0\\
171	0\\
172	0\\
173	0\\
174	0\\
175	0\\
176	0\\
177	0\\
178	0\\
179	0\\
180	0\\
181	0\\
182	0\\
183	0\\
184	0\\
185	0\\
186	0\\
187	0\\
188	0\\
189	0\\
190	0\\
191	0\\
192	0\\
193	0\\
194	0\\
195	0\\
196	0\\
197	0\\
198	0\\
199	0\\
200	0\\
};
\addlegendentry{$\mathbf{h_{2}}$}

\end{axis}

\begin{axis}[%
width=1.935in,
height=3.2in,
at={(3.327in,0.512in)},
scale only axis,
xmin=0,
xmax=200,
xlabel style={font=\color{white!15!black}, align=center},
xlabel={Sample Index\\[1ex](b) Estimated},
ymin=0,
ymax=1,
axis background/.style={fill=white},
legend style={legend cell align=left, align=left, draw=white!15!black}
]
\addplot [color=mycolor1]
  table[row sep=crcr]{%
0	5.87627649879925e-05\\
1	6.43002960953751e-05\\
2	3.21389207574047e-05\\
3	8.09598714243073e-05\\
4	0.000157803607464265\\
5	2.26712925636088e-05\\
6	0.000106776943592353\\
7	7.09660845661261e-05\\
8	2.09370709972454e-05\\
9	7.97951406110768e-05\\
10	8.92298987270755e-05\\
11	5.63587774307138e-05\\
12	7.58784263818635e-05\\
13	8.11521543615955e-05\\
14	8.13234709367045e-05\\
15	4.11394687246526e-05\\
16	5.46869415626706e-05\\
17	5.86092461503474e-05\\
18	0.000178780171085405\\
19	0.000227649738479939\\
20	0.00010874706218729\\
21	5.3004654840133e-05\\
22	4.83585753993048e-05\\
23	0.000132758416531668\\
24	9.25160909623217e-05\\
25	3.6081867600219e-05\\
26	0.0002560209870716\\
27	0.000131698451912471\\
28	0.000132303428125934\\
29	5.21489284841463e-05\\
30	0.000106446798555017\\
31	0.000200276568346231\\
32	6.45873619356319e-05\\
33	0.00026537793918435\\
34	0.00048952420005113\\
35	4.07244601605948e-05\\
36	0.000261786195258653\\
37	7.46024826403126e-05\\
38	4.7260491438815e-05\\
39	6.36619781105541e-05\\
40	0.000261848640525032\\
41	0.000104596534907123\\
42	1.36064242830354e-05\\
43	6.81030419901151e-05\\
44	0.000177690414045531\\
45	0.000141192187729732\\
46	0.000609894999391282\\
47	0.000128222203279549\\
48	0.000258312922535745\\
49	0.0114709404583333\\
50	0.0134782889957418\\
51	0.00318780329674379\\
52	0.0181367828246765\\
53	0.000547374282363223\\
54	0.00413442445301428\\
55	0.00167702221213073\\
56	0.000534782668361814\\
57	0.00290169192282166\\
58	0.00010368921711815\\
59	0.00032675277118825\\
60	8.30223771451292e-05\\
61	0.00111399070902016\\
62	0.0125870812434189\\
63	0.00641910993917252\\
64	0.00081617337297365\\
65	0.0156476559189395\\
66	0.00941160383356606\\
67	0.00759447700919928\\
68	0.0577358985095649\\
69	0.0253536823597946\\
70	0.0343519543857307\\
71	0.000937395389513771\\
72	0.057936874759204\\
73	0.0133217091484145\\
74	0.0288678891226562\\
75	0.0354796397130074\\
76	0.0115622451919144\\
77	0.0806004571478141\\
78	0.000768358826134676\\
79	0.00320309893038377\\
80	0.00532475578116922\\
81	0.0134040666327508\\
82	0.0438456302763278\\
83	0.0689870534928265\\
84	0.150714138901581\\
85	0.0939880278512404\\
86	0.133922151397593\\
87	0.214638862010658\\
88	0.570367007671319\\
89	0.127622341317584\\
90	0.0635826883127546\\
91	0.0023585036185369\\
92	0.0384295072185435\\
93	0.0537355384209767\\
94	0.0630452080083536\\
95	0.0132917031934513\\
96	0.0265907370513141\\
97	0.0144819519728499\\
98	0.0459652052255087\\
99	0.0332322177197505\\
100	0.0275030655962216\\
101	0.0438613221731163\\
102	0.0581450002932392\\
103	0.0714535144442729\\
104	0.581542080365017\\
105	0.132270640353746\\
106	0.0173548883327983\\
107	0.0547870824000265\\
108	0.0563252663418013\\
109	0.0727740588727804\\
110	0.165754049248035\\
111	0.0217474673677143\\
112	0.0417898175550109\\
113	0.0260455580539638\\
114	0.00021282705108106\\
115	0.0133686164784371\\
116	0.00224775950519563\\
117	0.00287125487733672\\
118	0.0130082233877219\\
119	0.0163424427341139\\
120	0.0934577254139809\\
121	0.0714200829244066\\
122	0.0795274649589805\\
123	0.21939906345065\\
124	0.16737882147734\\
125	0.0767670801560407\\
126	0.0529289137715152\\
127	0.00605011756533491\\
128	0.0263164572337595\\
129	0.0212559751196449\\
130	0.00128209296261775\\
131	0.00434291373349662\\
132	0.01720635678908\\
133	0.0101839600254007\\
134	0.000314386643959298\\
135	0.0134409193659034\\
136	0.0125687318836803\\
137	0.00550030131978419\\
138	0.0152037997942989\\
139	0.0412412356963156\\
140	0.0359346386754716\\
141	0.00972108279885982\\
142	0.0149986020100017\\
143	0.0114064492383383\\
144	0.00490603173855865\\
145	0.00239075330860509\\
146	0.00810242573448239\\
147	0.0025355878697251\\
148	0.000141137703289987\\
149	6.39041856095788e-05\\
150	0.00151563874305231\\
151	0.00216155422443677\\
152	0.000353134008671956\\
153	0.00226153321868492\\
154	8.01781723770265e-05\\
155	7.70721803486575e-05\\
156	0.0110675951558012\\
157	0.00365229523792919\\
158	0.00256641913132022\\
159	0.00418694691301793\\
160	0.000284544319659082\\
161	3.22428626934858e-05\\
162	0.00133115677394183\\
163	0.000109227459611028\\
164	0.00142886996230027\\
165	3.75370785688812e-05\\
166	1.8324515549475e-05\\
167	7.91048849542321e-05\\
168	0.00013388776771589\\
169	6.80613342719133e-05\\
170	9.43806152647762e-05\\
171	0.000397823418548178\\
172	0.000132383717543559\\
173	0.000205381345966416\\
174	9.25102552125692e-05\\
175	0.000244720755493908\\
176	2.15677260280687e-05\\
177	8.29730746169575e-05\\
178	1.42819816916426e-05\\
179	0.000128032742741305\\
180	7.49176174506065e-05\\
181	7.92256827240704e-05\\
182	0.000116875292510467\\
183	6.43794667116377e-06\\
184	5.66154892145917e-05\\
185	7.72396294642651e-05\\
186	4.85885389868257e-05\\
187	0.000172080983815005\\
188	0.000111942255402523\\
189	3.00110151111935e-05\\
190	2.59208662763794e-05\\
191	3.28488268265933e-05\\
192	0.000304809554847015\\
193	0.000191167270826011\\
194	8.79015897371156e-05\\
195	8.25606961522611e-05\\
196	6.94985878428431e-05\\
197	7.52796699143451e-05\\
198	4.08986583511167e-05\\
199	1.90193885421441e-05\\
};
\addlegendentry{$\mathbf{\hat{h}_{1}}$}

\addplot [color=mycolor2]
  table[row sep=crcr]{%
0	5.1265304206157e-05\\
1	1.63579280067543e-05\\
2	5.79391769351336e-06\\
3	3.18178392143566e-05\\
4	2.3067800724688e-05\\
5	5.30533369151062e-06\\
6	3.66652028889539e-05\\
7	4.27285588798915e-05\\
8	5.39118471531556e-05\\
9	5.37365711472542e-05\\
10	0.000123046751124228\\
11	6.77052438848151e-06\\
12	1.46759396133762e-05\\
13	5.90873850525278e-05\\
14	3.80051689755019e-05\\
15	5.51544492094787e-05\\
16	4.1735798510129e-05\\
17	2.65181041623791e-05\\
18	6.28860571326634e-05\\
19	3.73798003228632e-05\\
20	5.03154871620516e-05\\
21	7.86482564069293e-05\\
22	6.1254907568389e-05\\
23	0.000258808264724111\\
24	2.33486733818443e-05\\
25	0.000513523194011084\\
26	0.000143355623238284\\
27	7.39498352415167e-05\\
28	1.65448268492087e-05\\
29	0.000225812803095708\\
30	0.0002950329410682\\
31	0.000985180357527469\\
32	4.90545956948114e-05\\
33	1.99043119517397e-05\\
34	0.0014451226836654\\
35	0.000825945125554984\\
36	0.000931773362883627\\
37	0.00240257661937384\\
38	1.65780405409608e-05\\
39	8.54105017151887e-05\\
40	0.00197544772772536\\
41	0.00112844326183901\\
42	0.000511310914303548\\
43	0.00537325804100431\\
44	0.0083222321578486\\
45	0.00350102552154226\\
46	0.00347341258771697\\
47	0.00619759363937168\\
48	0.00366125936876305\\
49	0.00257757406395643\\
50	0.00204396780354295\\
51	0.000365550647266636\\
52	0.00303499903634029\\
53	8.52492431010495e-05\\
54	3.03879098454039e-05\\
55	0.00141818614734882\\
56	0.000495218690087025\\
57	0.00265249809151556\\
58	7.82528263343182e-05\\
59	0.00854524975583104\\
60	0.0243531705661009\\
61	0.0208182016566232\\
62	0.00378688639254172\\
63	0.0459901162292812\\
64	0.0209081238733345\\
65	0.0170385472444362\\
66	0.0184285102886151\\
67	0.0115678221971522\\
68	0.0044266276795496\\
69	0.00674845781796304\\
70	0.00292318644277716\\
71	0.000240166008623912\\
72	0.00593475535110089\\
73	0.016441409109383\\
74	0.00211862084167452\\
75	0.00312719466659436\\
76	0.0234577146688243\\
77	0.0218572616022833\\
78	0.0140577251219267\\
79	0.0451620065849916\\
80	0.0567830032273265\\
81	0.0338707672210286\\
82	0.00981979933053857\\
83	0.129835705774884\\
84	0.0178964007191223\\
85	0.00697834247436058\\
86	0.0214938236334231\\
87	0.00657841674224803\\
88	0.0132316022747058\\
89	4.83696127620615e-06\\
90	0.019352347752635\\
91	0.0222064695424554\\
92	0.00787378759191265\\
93	0.00965744727098786\\
94	0.0100187662502054\\
95	0.0103334813911869\\
96	0.0511202335054431\\
97	0.0256115591420511\\
98	0.00384736804212885\\
99	0.963763552800692\\
100	0.00345651527875596\\
101	0.0265397161456383\\
102	0.0521306342961093\\
103	0.00996106515071057\\
104	0.0109980484342253\\
105	0.0106986999778234\\
106	0.00751271241706192\\
107	0.0220978557446101\\
108	0.017345217541068\\
109	0.0136957745133602\\
110	0.0150827569028216\\
111	0.00724778894429165\\
112	0.0218437910932418\\
113	0.00609575832577127\\
114	0.0163869042880439\\
115	0.129767990162904\\
116	0.00922681405644083\\
117	0.0343030492279033\\
118	0.0570305042142415\\
119	0.046334630988853\\
120	0.0148677418291905\\
121	0.0223570052378412\\
122	0.0238526967745576\\
123	0.00241669217938501\\
124	0.00239472633968124\\
125	0.0178869378650422\\
126	0.00629127982425628\\
127	0.000121647425039678\\
128	0.00179463135530143\\
129	0.00690731110507358\\
130	0.00357479212230491\\
131	0.0105062910254323\\
132	0.0188571036187673\\
133	0.01656812942857\\
134	0.0209539057582792\\
135	0.0469544894825454\\
136	0.00282877570742175\\
137	0.0216866898835324\\
138	0.0257611272077921\\
139	0.00890923038772275\\
140	8.66316808460928e-05\\
141	0.0020088870199619\\
142	0.001085605805167\\
143	0.00286140357727679\\
144	0.000840598437264373\\
145	0.000333576436354428\\
146	0.00395449177463125\\
147	0.000908287714092337\\
148	0.00184789373855273\\
149	0.00295089844501053\\
150	0.00404971494369343\\
151	0.00577562066184943\\
152	0.00323987040635851\\
153	0.00354979958403909\\
154	0.00798287923006264\\
155	0.00701487225278139\\
156	0.000185845446500858\\
157	0.000472564370559803\\
158	0.00340550300807998\\
159	6.0100918631575e-05\\
160	8.36432584044657e-06\\
161	0.00327069507680977\\
162	0.00156457708664561\\
163	0.00159517060063423\\
164	0.00256940412427793\\
165	1.59654996159487e-05\\
166	6.55297286931387e-05\\
167	0.000880605633999488\\
168	0.000709863645122623\\
169	0.000170683550799813\\
170	3.73832090264268e-05\\
171	6.55933036713531e-05\\
172	0.000114389809567297\\
173	0.00125696077354987\\
174	0.000287651368763978\\
175	0.000878185476406663\\
176	0.000116219420086677\\
177	8.73285376596529e-05\\
178	3.10189607646592e-05\\
179	4.60752175759411e-05\\
180	4.75702177871694e-05\\
181	4.22704484955416e-05\\
182	8.33082239802753e-05\\
183	7.93018348551012e-05\\
184	1.25159546331868e-05\\
185	6.04348746752288e-05\\
186	5.58225785227286e-05\\
187	1.11116330449506e-05\\
188	0.000190737535651464\\
189	3.64794904994281e-05\\
190	4.42221286264559e-05\\
191	5.29762657315166e-05\\
192	5.11715244673548e-05\\
193	5.14170271410312e-05\\
194	1.08177514030386e-05\\
195	2.39090591541714e-05\\
196	1.50513239619122e-05\\
197	2.37562843519789e-05\\
198	5.96970437605346e-05\\
199	8.02303440597274e-05\\
};
\addlegendentry{$\mathbf{\hat{h}_{2}}$}

\end{axis}
\end{tikzpicture}%