% This file was created by matlab2tikz.
%
%The latest updates can be retrieved from
%  http://www.mathworks.com/matlabcentral/fileexchange/22022-matlab2tikz-matlab2tikz
%where you can also make suggestions and rate matlab2tikz.
%
\definecolor{mycolor1}{rgb}{0.00000,0.44700,0.74100}%
\definecolor{mycolor2}{rgb}{0.85000,0.32500,0.09800}%
%
\begin{tikzpicture}

\begin{axis}[%
width=1.987in,
height=3.2in,
at={(0.772in,0.512in)},
scale only axis,
xmin=0,
xmax=20,
xlabel style={font=\color{white!15!black}, align=center},
xlabel={Sample Index\\[1ex](a) Actual},
ymin=0,
ymax=1,
axis background/.style={fill=white},
legend style={legend cell align=left, align=left, draw=white!15!black}
]
\addplot [color=mycolor1]
  table[row sep=crcr]{%
1	0.113205605745861\\
2	0.919292270364926\\
3	0.256025577129562\\
4	0.221212160951117\\
5	0.110921817870281\\
6	0.0400328712358033\\
7	0.0687168441611535\\
8	0.0506014016738843\\
9	0.0552835931164163\\
10	0.0346525615393867\\
11	0.020191452822011\\
12	0.0185296152559968\\
13	0.0171404774442808\\
14	0.0156211388830756\\
15	0.0142945116316957\\
16	0.0131617720182863\\
17	0.0121914691582677\\
18	0.0113534257007881\\
19	0.0106231383936872\\
20	0.00998136168461187\\
};
\addlegendentry{$\mathbf{h_1}$}

\addplot [color=mycolor2]
  table[row sep=crcr]{%
1	0.0495723015654782\\
2	0.0685334241945042\\
3	0.511321702955238\\
4	0.765196656162612\\
5	0.358164812724738\\
6	0.132619444637821\\
7	0\\
8	0\\
9	0\\
10	0\\
11	0\\
12	0\\
13	0\\
14	0\\
15	0\\
16	0\\
17	0\\
18	0\\
19	0\\
20	0\\
};
\addlegendentry{$\mathbf{h_{2}}$}

\end{axis}

\begin{axis}[%
width=1.987in,
height=3.2in,
at={(3.386in,0.512in)},
scale only axis,
xmin=0,
xmax=20,
xlabel style={font=\color{white!15!black}, align=center},
xlabel={Sample Index\\[1ex](b) Estimated},
ymin=-0.2,
ymax=1,
axis background/.style={fill=white},
legend style={legend cell align=left, align=left, draw=white!15!black}
]
\addplot [color=mycolor1]
  table[row sep=crcr]{%
0	0.0215720786338243\\
0.25	0.0239528179281487\\
0.5	0.0263683827372669\\
0.75	0.0288310569161163\\
1	0.0313141070951886\\
1.25	0.0336767640090694\\
1.5	0.0358928305747173\\
1.75	0.0378169362786361\\
2	0.0392556836337353\\
2.25	0.0399741295729608\\
2.5	0.0397793484439814\\
2.75	0.0385128586934208\\
3	0.0361056136980784\\
3.25	0.0322535883465247\\
3.5	0.0277191714303051\\
3.75	0.022999369472262\\
4	0.0186081144318612\\
4.25	0.0144841122576571\\
4.5	0.0118597824686124\\
4.75	0.0113102077836769\\
5	0.0132308395070365\\
5.25	0.0197178546926683\\
5.5	0.0282150800672528\\
5.75	0.038553929956714\\
6	0.0516368213263357\\
6.25	0.0684876457127504\\
6.5	0.094349189177902\\
6.75	0.133586342708784\\
7	0.189815331324929\\
7.25	0.260108788347974\\
7.5	0.350169642481793\\
7.75	0.456589036334813\\
8	0.57041586769531\\
8.25	0.692124726194064\\
8.5	0.781435941618069\\
8.75	0.815089227323288\\
9	0.778488781374326\\
9.25	0.646839067823433\\
9.5	0.470304726923095\\
9.75	0.284278063759082\\
10	0.12425639603061\\
10.25	0.0424304106506156\\
10.5	0.0124493425490857\\
10.75	0.0209044333204512\\
11	0.0474617916314224\\
11.25	0.0525329537333855\\
11.5	0.0499812325626813\\
11.75	0.0403200509729616\\
12	0.0281556229126997\\
12.25	0.0293113225338028\\
12.5	0.0339928751203894\\
12.75	0.0410016500499526\\
13	0.0483270498755623\\
13.25	0.0506839193272562\\
13.5	0.0511426736035276\\
13.75	0.0500110017742964\\
14	0.0478112782400829\\
14.25	0.045519270320477\\
14.5	0.0429225182075516\\
14.75	0.040085708597325\\
15	0.0369679425700103\\
15.25	0.0330959157167521\\
15.5	0.0290392075408481\\
15.75	0.0249806463739818\\
16	0.0210844680172091\\
16.25	0.017691449069381\\
16.5	0.0145172821718159\\
16.75	0.0114881564046071\\
17	0.00857309066379184\\
17.25	0.00560419474552635\\
17.5	0.00308445803568268\\
17.75	0.00133652263633985\\
18	0.000646078399684392\\
18.25	0.00133988727043125\\
18.5	0.00316526324347865\\
18.75	0.00585745714745962\\
19	0.00901838181235641\\
19.25	0.0121756541952088\\
19.5	0.0148663969739572\\
19.75	0.0166932240722371\\
};
\addlegendentry{$\mathbf{\hat{h}_{1}}$}

\addplot [color=mycolor2]
  table[row sep=crcr]{%
0	0.00380789185043495\\
0.25	0.00364738817549301\\
0.5	0.00346082583900892\\
0.75	0.00322605060840006\\
1	0.0029280639234199\\
1.25	0.00258454399638839\\
1.5	0.00216995833473925\\
1.75	0.00170123384513364\\
2	0.00122017363389138\\
2.25	0.000751000185953135\\
2.5	0.000446218034369105\\
2.75	0.000415960834202226\\
3	0.000748619935757687\\
3.25	0.00142501232410538\\
3.5	0.00253844070196446\\
3.75	0.00404739267513026\\
4	0.00583535844371002\\
4.25	0.00801197533039348\\
4.5	0.00993186839683961\\
4.75	0.0113114507861314\\
5	0.0120450341063164\\
5.25	0.00726752561229372\\
5.5	0.00493207765708989\\
5.75	0.00721311281371295\\
6	0.0144597022405434\\
6.25	0.0440417807752388\\
6.5	0.0630457343574305\\
6.75	0.0610458918371975\\
7	0.0360890415818787\\
7.25	-0.0456492494946283\\
7.5	-0.0976502486817131\\
7.75	-0.0783841682708596\\
8	0.0376168135733647\\
8.25	0.316422426259207\\
8.5	0.622168105904305\\
8.75	0.873130148718577\\
9	0.996849930465963\\
9.25	0.873094112545281\\
9.5	0.622108799888517\\
9.75	0.316362420986541\\
10	0.0375829668863026\\
10.25	-0.0783610382676147\\
10.5	-0.0975587961597297\\
10.75	-0.0454949144967774\\
11	0.0362841484799962\\
11.25	0.0612410662501086\\
11.5	0.0632042784026046\\
11.75	0.0441324597618078\\
12	0.0144631587082533\\
12.25	0.0071244552507941\\
12.5	0.00476536801554842\\
12.75	0.00705180197392423\\
13	0.0118184495783717\\
13.25	0.0111219716339576\\
13.5	0.00980697027581423\\
13.75	0.00796192712293336\\
14	0.00585218742325209\\
14.25	0.00409731342053153\\
14.5	0.00259639116530504\\
14.75	0.00147006042465343\\
15	0.00076844630476437\\
15.25	0.000421229347119772\\
15.5	0.000437946301229842\\
15.75	0.000732674828106102\\
16	0.00119810928148003\\
16.25	0.00167364300521222\\
16.5	0.00215759683363024\\
16.75	0.00261611310848609\\
17	0.00303390594338368\\
17.25	0.00343386689521445\\
17.5	0.00377401213244926\\
17.75	0.00404234857989663\\
18	0.00423067395652885\\
18.25	0.00432145353901047\\
18.5	0.00434348902367558\\
18.75	0.00431630215431648\\
19	0.00426352470974749\\
19.25	0.00420902061453679\\
19.5	0.00418114771209386\\
19.75	0.0042038692298428\\
};
\addlegendentry{$\mathbf{\hat{h}_{2}}$}

\end{axis}
\end{tikzpicture}%