Var1 Var2 Var3 Var4 Var5 Var6 Var7 Var8 Var9 Var10 Var11 Var12 Var13 Var14 Var15 Var16 Var17
Special_Message & Sample_Rate & Algorithm & Actual_Dist_m & Estimate_m & Min_Est_m & Median_Est_m & Max_Est_m & Error_m
"TF-1: Ideal" & "20 MHz" & ABF & 21.7721347305388 & 15 & 15 & 15 & 15 & 6.77213473053879
"TF-1: Ideal" & "100 MHz" & CC & 21.7721347305388 & 16.8571428571735 & 6.00000000001091 & 18.0000000000327 & 36.0000000000655 & 4.91499187336527
"TF-1: Ideal" & "100 MHz" & ABF & 21.7721347305388 & 14.5714285714286 & 0 & 15 & 30 & 7.20070615911022
"TF-1: Ideal" & "150 MHz" & CC & 21.7721347305388 & 16.1904761905056 & 8.00000000001455 & 18.0000000000327 & 36.0000000000655 & 5.58165854003315
"TF-1: Ideal" & "150 MHz" & ABF & 21.7721347305388 & 14.3809523809524 & 2 & 14 & 36 & 7.39118234958641
"TF-1: Ideal" & "200 MHz" & CC & 21.7721347305388 & 14.0714285714542 & 7.50000000001364 & 16.50000000003 & 19.5000000000355 & 7.70070615908462
"TF-1: Ideal" & "200 MHz" & ABF & 21.7721347305388 & 31.4285714285714 & 1.5 & 19.5 & 124.5 & 9.65643669803264
"TF-1: Narrowband" & "20 MHz" & ABF & 21.7721347305388 & 62.8571428571429 & 0 & 60 & 240 & 41.0850081266041
"TF-1: Narrowband" & "100 MHz" & CC & 21.7721347305388 & 0.492762592443536 & 0 & 0.299923233280879 & 3.00000000000136 & 21.2793721380953
"TF-1: Narrowband" & "100 MHz" & ABF & 21.7721347305388 & 434.285714285714 & 0 & 0 & 4320 & 412.513579555176
"TF-1: Narrowband" & "150 MHz" & CC & 21.7721347305388 & 0.295182763477296 & 0 & 0.13330091724356 & 2.00000000000091 & 21.4769519670615
"TF-1: Narrowband" & "150 MHz" & ABF & 21.7721347305388 & 2494.28571428571 & 0 & 2580 & 6120 & 2472.51357955518
"TF-1: Narrowband" & "200 MHz" & CC & 21.7721347305388 & 0.212460693044306 & 0 & 0.112472276755653 & 1.50000000000068 & 21.5596740374945
"TF-1: Narrowband" & "200 MHz" & ABF & 21.7721347305388 & 5242.85714285714 & 180 & 5520 & 10680 & 5221.0850081266
"TF-1: Noisy" & "20 MHz" & ABF & 21.7721347305388 & 14.2857142857143 & 0 & 15 & 30 & 7.4864204448245
"TF-1: Noisy" & "100 MHz" & CC & 21.7721347305388 & 16.8571428571735 & 6.00000000001091 & 18.0000000000327 & 36.0000000000655 & 4.91499187336527
"TF-1: Noisy" & "100 MHz" & ABF & 21.7721347305388 & 15.8571428571429 & 6 & 18 & 36 & 5.91499187339593
"TF-1: Noisy" & "150 MHz" & CC & 21.7721347305388 & 16.1904761905056 & 8.00000000001455 & 18.0000000000327 & 36.0000000000655 & 5.58165854003315
"TF-1: Noisy" & "150 MHz" & ABF & 21.7721347305388 & 15.6190476190476 & 8 & 18 & 22 & 6.15308711149117
"TF-1: Noisy" & "200 MHz" & CC & 21.7721347305388 & 14.0714285714542 & 7.50000000001364 & 16.50000000003 & 19.5000000000355 & 7.70070615908462
"TF-1: Noisy" & "200 MHz" & ABF & 21.7721347305388 & 48.8571428571429 & 7.5 & 37.5 & 159 & 27.0850081266041
"TF-1: Less Samples" & "20 MHz" & ABF & 21.7721347305388 & 15 & 15 & 15 & 15 & 6.77213473053879
"TF-1: Less Samples" & "100 MHz" & CC & 21.7721347305388 & 17.4285714286031 & 6.00000000001091 & 18.0000000000327 & 36.0000000000655 & 4.34356330193566
"TF-1: Less Samples" & "100 MHz" & ABF & 21.7721347305388 & 16.1428571428571 & 6 & 15 & 30 & 5.62927758768165
"TF-1: Less Samples" & "150 MHz" & CC & 21.7721347305388 & 15.9047619047908 & 8.00000000001455 & 18.0000000000327 & 20.0000000000364 & 5.86737282574795
"TF-1: Less Samples" & "150 MHz" & ABF & 21.7721347305388 & 14.6666666666667 & 2 & 16 & 36 & 7.10546806387212
"TF-1: Less Samples" & "200 MHz" & CC & 21.7721347305388 & 13.5000000000246 & 7.50000000001364 & 15.0000000000273 & 19.5000000000355 & 8.27213473051423
"TF-1: Less Samples" & "200 MHz" & ABF & 21.7721347305388 & 42.9285714285714 & 0 & 31.5 & 153 & 21.1564366980326
"TF-1: L/2" & "20 MHz" & ABF & 21.7721347305388 & NaN & 0 & NaN & 30 & NaN
"TF-1: L/2" & "100 MHz" & CC & 21.7721347305388 & 16.8571428571735 & 6.00000000001091 & 18.0000000000327 & 36.0000000000655 & 4.91499187336527
"TF-1: L/2" & "100 MHz" & ABF & 21.7721347305388 & 17.8571428571429 & 6 & 18 & 45 & 3.91499187339593
"TF-1: L/2" & "150 MHz" & CC & 21.7721347305388 & 16.1904761905056 & 8.00000000001455 & 18.0000000000327 & 36.0000000000655 & 5.58165854003315
"TF-1: L/2" & "150 MHz" & ABF & 21.7721347305388 & 16.8571428571429 & 6 & 16 & 36 & 4.91499187339593
"TF-1: L/2" & "200 MHz" & CC & 21.7721347305388 & 14.0714285714542 & 7.50000000001364 & 16.50000000003 & 19.5000000000355 & 7.70070615908462
"TF-1: L/2" & "200 MHz" & ABF & 21.7721347305388 & 13.7857142857143 & 1.5 & 13.5 & 42 & 7.9864204448245
"TF-1: L-10 " & "20 MHz" & ABF & 21.7721347305388 & NaN & 0 & NaN & 30 & NaN
"TF-1: L-10 " & "100 MHz" & CC & 21.7721347305388 & 16.8571428571735 & 6.00000000001091 & 18.0000000000327 & 36.0000000000655 & 4.91499187336527
"TF-1: L-10 " & "100 MHz" & ABF & 21.7721347305388 & 15.8571428571429 & 6 & 18 & 36 & 5.91499187339593
"TF-1: L-10 " & "150 MHz" & CC & 21.7721347305388 & 16.1904761905056 & 8.00000000001455 & 18.0000000000327 & 36.0000000000655 & 5.58165854003315
"TF-1: L-10 " & "150 MHz" & ABF & 21.7721347305388 & 15.4285714285714 & 4 & 18 & 36 & 6.34356330196736
"TF-1: L-10 " & "200 MHz" & CC & 21.7721347305388 & 14.0714285714542 & 7.50000000001364 & 16.50000000003 & 19.5000000000355 & 7.70070615908462
"TF-1: L-10 " & "200 MHz" & ABF & 21.7721347305388 & 14.3571428571429 & 1.5 & 15 & 27 & 7.41499187339593
"TF-1: 2*L" & "20 MHz" & ABF & 21.7721347305388 & 152.142857142857 & 0 & 90 & 345 & 130.370722412318
"TF-1: 2*L" & "100 MHz" & CC & 21.7721347305388 & 16.8571428571735 & 6.00000000001091 & 18.0000000000327 & 36.0000000000655 & 4.91499187336527
"TF-1: 2*L" & "100 MHz" & ABF & 21.7721347305388 & 61.7142857142857 & 0 & 30 & 234 & 39.9421509837469
"TF-1: 2*L" & "150 MHz" & CC & 21.7721347305388 & 16.1904761905056 & 8.00000000001455 & 18.0000000000327 & 36.0000000000655 & 5.58165854003315
"TF-1: 2*L" & "150 MHz" & ABF & 21.7721347305388 & 220.47619047619 & 20 & 226 & 452 & 198.704055745652
"TF-1: 2*L" & "200 MHz" & CC & 21.7721347305388 & 14.0714285714542 & 7.50000000001364 & 16.50000000003 & 19.5000000000355 & 7.70070615908462
"TF-1: 2*L" & "200 MHz" & ABF & 21.7721347305388 & NaN & 93 & NaN & 340.5 & NaN
"TF-1: L+10" & "20 MHz" & ABF & 21.7721347305388 & 100.714285714286 & 0 & 135 & 195 & 78.9421509837469
"TF-1: L+10" & "100 MHz" & CC & 21.7721347305388 & 16.8571428571735 & 6.00000000001091 & 18.0000000000327 & 36.0000000000655 & 4.91499187336527
"TF-1: L+10" & "100 MHz" & ABF & 21.7721347305388 & 18.8571428571429 & 0 & 18 & 45 & 2.91499187339593
"TF-1: L+10" & "150 MHz" & CC & 21.7721347305388 & 16.1904761905056 & 8.00000000001455 & 18.0000000000327 & 36.0000000000655 & 5.58165854003315
"TF-1: L+10" & "150 MHz" & ABF & 21.7721347305388 & 15.9047619047619 & 0 & 14 & 38 & 5.86737282577688
"TF-1: L+10" & "200 MHz" & CC & 21.7721347305388 & 14.0714285714542 & 7.50000000001364 & 16.50000000003 & 19.5000000000355 & 7.70070615908462
"TF-1: L+10" & "200 MHz" & ABF & 21.7721347305388 & 76.5 & 6 & 66 & 136.5 & 54.7278652694612
"TF-1: Random Start" & "20 MHz" & ABF & 21.7721347305388 & 112.142857142857 & 0 & 135 & 195 & 90.3707224123183
"TF-1: Random Start" & "100 MHz" & CC & 21.7721347305388 & 16.8571428571735 & 6.00000000001091 & 18.0000000000327 & 36.0000000000655 & 4.91499187336527
"TF-1: Random Start" & "100 MHz" & ABF & 21.7721347305388 & 20.5714285714286 & 0 & 21 & 48 & 1.20070615911022
"TF-1: Random Start" & "150 MHz" & CC & 21.7721347305388 & 16.1904761905056 & 8.00000000001455 & 18.0000000000327 & 36.0000000000655 & 5.58165854003315
"TF-1: Random Start" & "150 MHz" & ABF & 21.7721347305388 & 20.6666666666667 & 2 & 18 & 44 & 1.10546806387212
"TF-1: Random Start" & "200 MHz" & CC & 21.7721347305388 & 14.0714285714542 & 7.50000000001364 & 16.50000000003 & 19.5000000000355 & 7.70070615908462
"TF-1: Random Start" & "200 MHz" & ABF & 21.7721347305388 & 48.2857142857143 & 4.5 & 27 & 150 & 26.5135795551755
"TF-2: Ideal" & "20 MHz" & ABF & 21.7721347305388 & 17.8571428571429 & 0 & 15 & 30 & 3.91499187339593
"TF-2: Ideal" & "100 MHz" & CC & 21.7721347305388 & 21.8571428571826 & 6.00000000001091 & 24.0000000000437 & 33.00000000006 & 0.0850081266438281
"TF-2: Ideal" & "100 MHz" & ABF & 21.7721347305388 & 20.7142857142857 & 3 & 15 & 72 & 1.05784901625307
"TF-2: Ideal" & "150 MHz" & CC & 21.7721347305388 & 19.4285714286068 & 4.00000000000728 & 20.0000000000364 & 34.0000000000618 & 2.34356330193202
"TF-2: Ideal" & "150 MHz" & ABF & 21.7721347305388 & 22.5714285714286 & 6 & 22 & 42 & 0.799293840889785
"TF-2: Ideal" & "200 MHz" & CC & 21.7721347305388 & 19.3571428571781 & 4.50000000000819 & 19.5000000000355 & 34.5000000000628 & 2.41499187336072
"TF-2: Ideal" & "200 MHz" & ABF & 21.7721347305388 & 53.0714285714286 & 0 & 52.5 & 133.5 & 31.2992938408898
"TF-2: Narrowband" & "20 MHz" & ABF & 21.7721347305388 & 68.5714285714286 & 0 & 0 & 420 & 46.7992938408898
"TF-2: Narrowband" & "100 MHz" & CC & 21.7721347305388 & 1.0998267381664 & 0 & 0.899728753131058 & 3.00000000000136 & 20.6723079923724
"TF-2: Narrowband" & "100 MHz" & ABF & 21.7721347305388 & 200 & 0 & 60 & 3060 & 178.227865269461
"TF-2: Narrowband" & "150 MHz" & CC & 21.7721347305388 & 0.714173379384831 & 0 & 0.533174419784245 & 2.00000000000091 & 21.057961351154
"TF-2: Narrowband" & "150 MHz" & ABF & 21.7721347305388 & 2302.85714285714 & 0 & 2100 & 5940 & 2281.0850081266
"TF-2: Narrowband" & "200 MHz" & CC & 21.7721347305388 & 0.526703133777947 & 0 & 0.337401716548641 & 1.50000000000068 & 21.2454315967608
"TF-2: Narrowband" & "200 MHz" & ABF & 21.7721347305388 & 3697.14285714286 & 60 & 3060 & 11280 & 3675.37072241232
"TF-2: Noisy" & "20 MHz" & ABF & 21.7721347305388 & 20 & 0 & 15 & 45 & 1.77213473053879
"TF-2: Noisy" & "100 MHz" & CC & 21.7721347305388 & 21.8571428571826 & 6.00000000001091 & 24.0000000000437 & 33.00000000006 & 0.0850081266438281
"TF-2: Noisy" & "100 MHz" & ABF & 21.7721347305388 & 19.8571428571429 & 3 & 21 & 33 & 1.91499187339593
"TF-2: Noisy" & "150 MHz" & CC & 21.7721347305388 & 19.4285714286068 & 4.00000000000728 & 20.0000000000364 & 34.0000000000618 & 2.34356330193202
"TF-2: Noisy" & "150 MHz" & ABF & 21.7721347305388 & 18.4761904761905 & 4 & 18 & 34 & 3.29594425434831
"TF-2: Noisy" & "200 MHz" & CC & 21.7721347305388 & 19.3571428571781 & 4.50000000000819 & 19.5000000000355 & 34.5000000000628 & 2.41499187336072
"TF-2: Noisy" & "200 MHz" & ABF & 21.7721347305388 & 48 & 1.5 & 39 & 148.5 & 26.2278652694612
"TF-2: Less Samples" & "20 MHz" & ABF & 21.7721347305388 & 17.8571428571429 & 0 & 15 & 30 & 3.91499187339593
"TF-2: Less Samples" & "100 MHz" & CC & 21.7721347305388 & 21.285714285753 & 3.00000000000546 & 24.0000000000437 & 33.00000000006 & 0.486420444785782
"TF-2: Less Samples" & "100 MHz" & ABF & 21.7721347305388 & 19 & 3 & 18 & 45 & 2.77213473053879
"TF-2: Less Samples" & "150 MHz" & CC & 21.7721347305388 & 19.7142857143216 & 4.00000000000728 & 20.0000000000364 & 34.0000000000618 & 2.05784901621722
"TF-2: Less Samples" & "150 MHz" & ABF & 21.7721347305388 & 23.5238095238095 & 4 & 24 & 58 & 1.75167479327074
"TF-2: Less Samples" & "200 MHz" & CC & 21.7721347305388 & 19.2857142857494 & 4.50000000000819 & 19.5000000000355 & 34.5000000000628 & 2.48642044478942
"TF-2: Less Samples" & "200 MHz" & ABF & 21.7721347305388 & 33.3571428571429 & 1.5 & 30 & 84 & 11.5850081266041
"TF-2: L/2" & "20 MHz" & ABF & 21.7721347305388 & 23.5714285714286 & 0 & 30 & 45 & 1.79929384088978
"TF-2: L/2" & "100 MHz" & CC & 21.7721347305388 & 21.8571428571826 & 6.00000000001091 & 24.0000000000437 & 33.00000000006 & 0.0850081266438281
"TF-2: L/2" & "100 MHz" & ABF & 21.7721347305388 & 26.4285714285714 & 0 & 27 & 51 & 4.65643669803264
"TF-2: L/2" & "150 MHz" & CC & 21.7721347305388 & 19.4285714286068 & 4.00000000000728 & 20.0000000000364 & 34.0000000000618 & 2.34356330193202
"TF-2: L/2" & "150 MHz" & ABF & 21.7721347305388 & 21.2380952380952 & 0 & 16 & 50 & 0.534039492443551
"TF-2: L/2" & "200 MHz" & CC & 21.7721347305388 & 19.3571428571781 & 4.50000000000819 & 19.5000000000355 & 34.5000000000628 & 2.41499187336072
"TF-2: L/2" & "200 MHz" & ABF & 21.7721347305388 & 19.1428571428571 & 1.5 & 16.5 & 49.5 & 2.62927758768165
"TF-2: L-10 " & "20 MHz" & ABF & 21.7721347305388 & 22.8571428571429 & 0 & 30 & 45 & 1.08500812660407
"TF-2: L-10 " & "100 MHz" & CC & 21.7721347305388 & 21.8571428571826 & 6.00000000001091 & 24.0000000000437 & 33.00000000006 & 0.0850081266438281
"TF-2: L-10 " & "100 MHz" & ABF & 21.7721347305388 & 14.1428571428571 & 0 & 15 & 27 & 7.62927758768165
"TF-2: L-10 " & "150 MHz" & CC & 21.7721347305388 & 19.4285714286068 & 4.00000000000728 & 20.0000000000364 & 34.0000000000618 & 2.34356330193202
"TF-2: L-10 " & "150 MHz" & ABF & 21.7721347305388 & 17.9047619047619 & 2 & 18 & 50 & 3.86737282577688
"TF-2: L-10 " & "200 MHz" & CC & 21.7721347305388 & 19.3571428571781 & 4.50000000000819 & 19.5000000000355 & 34.5000000000628 & 2.41499187336072
"TF-2: L-10 " & "200 MHz" & ABF & 21.7721347305388 & 33.7857142857143 & 4.5 & 27 & 120 & 12.0135795551755
"TF-2: 2*L" & "20 MHz" & ABF & 21.7721347305388 & 146.428571428571 & 0 & 120 & 315 & 124.656436698033
"TF-2: 2*L" & "100 MHz" & CC & 21.7721347305388 & 21.8571428571826 & 6.00000000001091 & 24.0000000000437 & 33.00000000006 & 0.0850081266438281
"TF-2: 2*L" & "100 MHz" & ABF & 21.7721347305388 & 96.4285714285714 & 0 & 93 & 267 & 74.6564366980326
"TF-2: 2*L" & "150 MHz" & CC & 21.7721347305388 & 19.4285714286068 & 4.00000000000728 & 20.0000000000364 & 34.0000000000618 & 2.34356330193202
"TF-2: 2*L" & "150 MHz" & ABF & 21.7721347305388 & NaN & 4 & NaN & 446 & NaN
"TF-2: 2*L" & "200 MHz" & CC & 21.7721347305388 & 19.3571428571781 & 4.50000000000819 & 19.5000000000355 & 34.5000000000628 & 2.41499187336072
"TF-2: 2*L" & "200 MHz" & ABF & 21.7721347305388 & NaN & 109.5 & NaN & 507 & NaN
"TF-2: L+10" & "20 MHz" & ABF & 21.7721347305388 & 56.4285714285714 & 0 & 30 & 165 & 34.6564366980326
"TF-2: L+10" & "100 MHz" & CC & 21.7721347305388 & 21.8571428571826 & 6.00000000001091 & 24.0000000000437 & 33.00000000006 & 0.0850081266438281
"TF-2: L+10" & "100 MHz" & ABF & 21.7721347305388 & 26.1428571428571 & 0 & 18 & 66 & 4.37072241231835
"TF-2: L+10" & "150 MHz" & CC & 21.7721347305388 & 19.4285714286068 & 4.00000000000728 & 20.0000000000364 & 34.0000000000618 & 2.34356330193202
"TF-2: L+10" & "150 MHz" & ABF & 21.7721347305388 & 18.6666666666667 & 4 & 16 & 44 & 3.10546806387212
"TF-2: L+10" & "200 MHz" & CC & 21.7721347305388 & 19.3571428571781 & 4.50000000000819 & 19.5000000000355 & 34.5000000000628 & 2.41499187336072
"TF-2: L+10" & "200 MHz" & ABF & 21.7721347305388 & 53.7142857142857 & 6 & 49.5 & 120 & 31.9421509837469
"TF-2: Random Start" & "20 MHz" & ABF & 21.7721347305388 & 84.2857142857143 & 15 & 105 & 180 & 62.5135795551755
"TF-2: Random Start" & "100 MHz" & CC & 21.7721347305388 & 21.8571428571826 & 6.00000000001091 & 24.0000000000437 & 33.00000000006 & 0.0850081266438281
"TF-2: Random Start" & "100 MHz" & ABF & 21.7721347305388 & 30.8571428571429 & 6 & 27 & 81 & 9.08500812660407
"TF-2: Random Start" & "150 MHz" & CC & 21.7721347305388 & 19.4285714286068 & 4.00000000000728 & 20.0000000000364 & 34.0000000000618 & 2.34356330193202
"TF-2: Random Start" & "150 MHz" & ABF & 21.7721347305388 & 24 & 4 & 22 & 44 & 2.22786526946121
"TF-2: Random Start" & "200 MHz" & CC & 21.7721347305388 & 19.3571428571781 & 4.50000000000819 & 19.5000000000355 & 34.5000000000628 & 2.41499187336072
"TF-2: Random Start" & "200 MHz" & ABF & 21.7721347305388 & 50.1428571428571 & 13.5 & 42 & 108 & 28.3707224123184
                
                
                
                
                
                
                
                
                
                
                
                
                
                
                
                
                
                
                
                
                
                
                
                
                
                
                
                
                
                
                
                
                
                
                
                
                
                
                
                
                
                
                
                
                
                
                
                
                
                
                
                
                
                
                
                
                
                
                
                
                
                
                
                
                
                
                
                
                
                
                
                
                
                
                
                
                
                
                
                
                
                
                
                
                
                
                
                
                
                
                
                
                
                
                
                
                
                
                
                
                
                
                
                
                
                
                
                
                
                
                
                
                
                
                
                
                
                
                
                
                
                
                
                
                
                
                
                
                
                
                
                
                
                
                
                
                
                
                
                
                
                
                
                
                
                
                
                
                
                
                
                
                
                
                
                
                
                
                
                
                
                
                
                
                
                
                
                
                
                
                
                
                
                
                
                
                
                
                
                
                
                
                
                
                
                
                
                
                
                
                
                
                
                
                
                
                
                
                
                
                
                
                
                
                
                
                
                
                
                
                
                
                
                
                
                
                
                
                
                
                
                
                
                
                
                
                
                
                
                
                
                
                
                
                
                
                
                
                
                
                
                
                
                
                
                
                
                
                
                
                
                
                
                
                
                
                
                
                
                
                
                
                
                
                
                
                
                
                
                
                
                
                
                
                
                
                
                
                
                
                
                
                
                
                
                
                
                
                
                
                
                
                
                
                
                
                
                
                
                
                
                
                
                
                
                
                
                
                
                
                
                
                
                
                
                
                
                
                
                
                
                
                
                
                
                
                
                
                
                
                
                
                
                
                
                
                
                
                
                
                
                
                
                
                
                
                
                
                
                
                
                
                
                
                
                
                
                
                
                
                
                
                
                
                
                
                
                
                
                
                
                
                
                
                
                
                
                
                
                
                
                
                
                
                
                
                
                
                
                
                
                
                
                
                
                
                
                
                
                
                
                
                
                
                
                
                
                
                
                
                
                
                
                
                
                
                
                
                
                
                
                
                
                
                
                
                
                
                
                
                
                
                
                
                
                
                
                
                
                
                
                
                
                
                
                
                
                
                
                
                
                
                
                
                
                
                
                
                
                
                
                
                
                
                
                
                
                
                
                
                
                
                
                
                
                
                
                
                
                
                
                
                
                
                
                
                
                
                
                
                
                
                
                
                
                
                
                
                
                
                
                
                
                
                
                
                
                
                
                
                
                
                
                
                
                
                
                
                
                
                
                
                
                
                
                
                
                
                
                
                
                
                
                
                
                
                
                
                
                
                
                
                
                
                
                
                
                
                
                
                
                
                
                
                
                
                
                
                
                
                
                
                
                
                
                
                
                
                
                
                
                
                
                
                
                
                
                
                
                
                
                
                
                
                
                
                
                
                
                
                
                
                
                
                
                
                
                
                
                
                
                
                
                
                
                
                
                
                
                
                
                
                
                
                
                
                
                
                
                
                
                
                
                
                
                
                
                
                
                
                
                
                
                
                
                
                
                
                
                
                
                
                
                
                
                
                
                
                
                
                
                
                
                
                
                
                
                
                
                
                
                
                
                
                
                
                
                
                
                
                
                
                
                
                
                
                
                
                
                
                
                
                
                
                
                
                
                
                
                
                
                
                
                
                
                
                
                
                
                
                
                
                
                
                
                
                
                
                
                
                
                
                
                
                
                
                
                
                
                
                
                
                
                
                
                
                
                
                
                
                
                
                
                
                
                
                
                
                
                
                
                
                
                
                
                
                
                
                
                
                
                
                
                
                
                
                
                
                
                
                
                
                
                
                
                
                
                
                
                
                
                
                
                
                
                
                
                
                
                
                
                
                
                
                
                
                
                
                
                
                
                
                
                
                
                
                
                
                
                
                
                
                
                
                
                
                
                
                
                
                
                
                
                
                
                
                
                
                
                
                
                
                
                
                
                
                
                
                
                
                
                
                
                
                
                
                
                
                
                
                
                
                
                
                
                
                
                
                
                
                
                
                
                
                
                
                
                
                
                
                
                
                
                
                
                
                
                
                
                
                
                
                
                
                
                
                
                
                
                
                
                
                
                
                
                
                
                
                
                
                
                
                
                
                
                
                
                
                
                
                
                
                
                
                
                
                
                
                
                
                
                
                
                
                
                
                
                
                
                
                
                
                
                
                
                
                
                
                
                
                
                
                
                
                
                
                
                
                
                
                
                
                
                
                
                
                
                
                
                
                
                
                
                
                
                
                
                
                
                
                
                
                
                
                
                
                
                
                
                
                
                
                
                
                
                
                
                
                
                
                
                
                
                
                
                
                
                
                
                
                
                
                
                
                
                
                
                
                
                
                
                
                
                
                
                
                
                
                
                
                
                
                
                
                
                
                
                
                
                
                
                
                
                
                
                
                
                
                
                
                
                
                
                
                
                
                
                
                
                
                
                
                
                
                
                
                
                
                
                
                
                
                
                
                
                
                
                
                
                
                
                
                
                
                
                
                
                
                
                
                
                
                
                
                
                
                
                
                
                
                
                
                
                
                
                
                
                
                
                
                
                
                
                
                
                
                
                
                
                
                
                
                
                
                
                
                
                
                
                
                
                
                
                
                
                
                
                
                
                
                
                
                
                
                
                
                
                
                
                
                
                
                
                
                
                
                
                
                
                
                
                
                
                
                
                
                
                
                
                
                
                
                
                
                
                
                
                
                
                
                
                
                
                
                
                
                
                
                
                
                
                
                
                
                
                
                
                
                
                
                
                
                
                
                
                
                
                
                
                
                
                
                
                
                
                
                
                
                
                
                
                
                
                
                
                
                
                
                
                
                
                
                
                
                
                
                
                
                
                
                
                
                
                
                
                
                
                
                
                
                
                
                
                
                
                
                
                
                
                
                
                
                
                
                
                
                
                
                
                
                
                
                
                
                
                
                
                
                
                
                
                
                
                
                
                
                
                
                
                
                
                
                
                
                
                
                
                
                
                
                
                
                
                
                
                
                
                
                
                
                
                
                
                
                
                
                
                
                
                
                
                
                
                
                
                
                
                
                
                
                
                
                
                
                
                
                
                
                
                
                
                
                
                
                
                
                
                
                
                
                
                
                
                
                
                
                
                
                
                
                
                
                
                
                
                
                
                
                
                
                
                
                
                
                
                
                
                
                
                
                
                
                
                
                
                
                
                
                
                
                
                
                
                
                
                
                
                
                
                
                
                
                
                
                
                
                
                
                
                
                
                
                
                
                
                
                
                
                
                
                
                
                
                
                
                
                
                
                
                
                
                
                
                
                
                
                
                
                
                
                
                
                
                
                
                
                
                
                
                
                
                
                
                
                
                
                
                
                
                
                
                
                
                
                
                
                
                
                
                
                
                
                
                
                
                
                
                
                
                
                
                
                
                
                
                
                
                
                
                
                
                
                
                
                
                
                
                
                
                
                
                
                
                
                
                
                
                
                
                
                
                
                
                
                
                
                
                
                
                
                
                
                
                
                
                
                
                
                
                
                
                
                
                
                
                
                
                
                
                
                
                
                
                
                
                
                
                
                
                
                
                
                
                
                
                
                
                
                
                
                
                
                
                
                
                
                
                
                
                
                
                
                
                
                
                
                
                
                
                
                
                
                
                
                
                
                
                
                
                
                
                
                
                
                
                
                
                
                
                
                
                
                
                
                
                
                
                
                
                
                
                
                
                
                
                
                
                
                
                
                
                
                
                
                
                
                
                
                
                
                
                
                
                
                
                
                
                
                
                
                
                
                
                
                
                
                
                
                
                
                
                
                
                
                
                
                
                
                
                
                
                
                
                
                
                
                
                
                
                
                
                
                
                
                
                
                
                
                
                
                
                
                
                
                
                
                
                
                
                
                
                
                
                
                
                
                
                
                
                
                
                
                
                
                
                
                
                
                
                
                
                
                
                
                
                
                
                
                
                
                
                
                
                
                
                
                
                
                
                
                
                
                
                
                
                
                
                
                
                
                
                
                
                
                
                
                
                
                
                
                
                
                
                
                
                
                
                
                
                
                
                
                
                
                
                
                
                
                
                
                
                
                
                
                
                
                
                
                
                
                
                
                
                
                
                
                
                
                
                
                
                
                
                
                
                
                
                
                
                
                
                
                
                
                
                
                
                
                
                
                
                
                
                
                
                
                
                
                
                
                
                
                
                
                
                
                
                
                
                
                
                
                
                
                
                
                
                
                
                
                
                
                
                
                
                
                
                
                
                
                
                
                
                
                
                
                
                
                
                
                
                
                
                
                
                
                
                
                
                
                
                
                
                
                
                
                
                
                
                
                
                
                
                
                
                
                
                
                
                
                
                
                
                
                
                
                
                
                
                
                
                
                
                
                
                
                
                
                
                
                
                
                
                
                
                
                
                
                
                
                
                
                
                
                
                
                
                
                
                
                
                
                
                
                
                
                
                
                
                
                
                
                
                
                
                
                
                
                
                
                
                
                
                
                
                
                
                
                
                
                
                
                
                
                
                
                
                
                
                
                
                
                
                
                
                
                
                
                
                
                
                
                
                
                
                
                
                
                
                
                
                
                
                
                
                
                
                
                
                
                
                
                
                
                
                
                
                
                
                
                
                
                
                
                
                
                
                
                
                
                
                
                
                
                
                
                
                
                
                
                
                
                
                
                
                
                
                
                
                
                
                
                
                
                
                
                
                
                
                
                
                
                
                
                
                
                
                
                
                
                
                
                
                
                
                
                
                
                
                
                
                
                
                
                
                
                
                
                
                
                
                
                
                
                
                
                
                
                
                
                
                
                
                
                
                
                
                
                
                
                
                
                
                
                
                
                
                
                
                
                
                
                
                
                
                
                
                
                
                
                
                
                
                
                
                
                
                
                
                
                
                
                
                
                
                
                
                
                
                
                
                
                
                
                
                
                
                
                
                
                
                
                
                
                
                
                
                
                
                
                
                
                
                
                
                
                
                
                
                
                
                
                
                
                
                
                
                
                
                
                
                
                
                
                
                
                
                
                
                
                
                
                
                
                
                
                
                
                
                
                
                
                
                
                
                
                
                
                
                
                
                
                
                
                
                
                
                
                
                
                
                
                
                
                
                
                
                
                
                
                
                
                
                
                
                
                
                
                
                
                
                
                
                
                
                
                
                
                
                
                
                
                
                
                
                
                
                
                
                
                
                
                
                
                
                
                
                
                
                
                
                
                
                
                
                
                
                
                
                
                
                
                
                
                
                
                
                
                
                
                
                
                
                
                
                
                
                
                
                
                
                
                
                
                
                
                
                
                
                
                
                
                
                
                
                
                
                
                
                
                
                
                
                
                
                
                
                
                
                
                
                
                
                
                
                
                
                
                
                
                
                
                
                
                
                
                
                
                
                
                
                
                
                
                
                
                
                
                
                
                
                
                
                
                
                
                
                
                
                
                
                
                
                
                
                
                
                
                
                
                
                
                
                
                
                
                
                
                
                
                
                
                
                
                
                
                
                
                
                
                
                
                
                
                
                
                
                
                
                
                
                
                
                
                
                
                
                
                
                
                
                
                
                
                
                
                
                
                
                
                
                
                
                
                
                
                
                
                
                
                
                
                
                
                
                
                
                
                
                
                
                
                
                
                
                
                
                
                
                
                
                
                
                
                
                
                
                
                
                
                
                
                
                
                
                
                
                
                
                
                
                
                
                
                
                
                
                
                
                
                
                
                
                
                
                
                
                
                
                
                
                
                
                
                
                
                
                
                
                
                
                
                
                
                
                
                
                
                
                
                
                
                
                
                
                
                
                
                
                
                
                
                
                
                
                
                
                
                
                
                
                
                
                
                
                
                
                
                
                
                
                
                
                
                
                
                
                
                
                
                
                
                
                
                
                
                
                
                
                
                
                
                
                
                
                
                
                
                
                
                
                
                
                
                
                
                
                
                
                
                
                
                
                
                
                
                
                
                
                
                
                
                
                
                
                
                
                
                
                
                
                
                
                
                
                
                
                
                
                
                
                
                
                
                
                
                
                
                
                
                
                
                
                
                
                
                
                
                
                
                
                
                
                
                
                
                
                
                
                
                
                
                
                
                
                
                
                
                
                
                
                
                
                
                
                
                
                
                
                
                
                
                
                
                
                
                
                
                
                
                
                
                
                
                
                
                
                
                
                
                
                
                
                
                
                
                
                
                
                
                
                
                
                
                
                
                
                
                
                
                
                
                
                
                
                
                
                
                
                
                
                
                
                
                
                
                
                
                
                
                
                
                
                
                
                
                
                
                
                
                
                
                
                
                
                
                
                
                
                
                
                
                
                
                
                
                
                
                
                
                
                
                
                
                
                
                
                
                
                
                
                
                
                
                
                
                
                
                
                
                
                
                
                
                
                
                
                
                
                
                
                
                
                
                
                
                
                
                
                
                
                
                
                
                
                
                
                
                
                
                
                
                
                
                
                
                
                
                
                
                
                
                
                
                
                
                
                
                
                
                
                
                
                
                
                
                
                
                
                
                
                
                
                
                
                
                
                
                
                
                
                
                
                
                
                
                
                
                
                
                
                
                
                
                
                
                
                
                
                
                
                
                
                
                
                
                
                
                
                
                
                
                
                
                
                
                
                
                
                
                
                
                
                
                
                
                
                
                
                
                
                
                
                
                
                
                
                
                
                
                
                
                
                
                
                
                
                
                
                
                
                
                
                
                
                
                
                
                
                
                
                
                
                
                
                
                
                
                
                
                
                
                
                
                
                
                
                
                
                
                
                
                
                
                
                
                
                
                
                
                
                
                
                
                
                
                
                
                
                
                
                
                
                
                
                
                
                
                
                
                
                
                
                
                
                
                
                
                
                
                
                
                
                
                
                
                
                
                
                
                
                
                
                
                
                
                
                
                
                
                
                
                
                
                
                
                
                
                
                
                
                
                
                
                
                
                
                
                
                
                
                
                
                
                
                
                
                
                
                
                
                
                
                
                
                
                
                
                
                
                
                
                
                
                
                
                
                
                
                
                
                
                
                
                
                
                
                
                
                
                
                
                
                
                
                
                
                
                
                
                
                
                
                
                
                
                
                
                
                
                
                
                
                
                
                
                
                
                
                
                
                
                
                
                
                
                
                
                
                
                
                
                
                
                
                
                
                
                
                
                
                
                
                
                
                
                
                
                
                
                
                
                
                
                
                
                
                
                
                
                
                
                
                
                
                
                
                
                
                
                
                
                
                
                
                
                
                
                
                
                
                
                
                
                
                
                
                
                
                
                
                
                
                
                
                
                
                
                
                
                
                
                
                
                
                
                
                
                
                
                
                
                
                
                
                
                
                
                
                
                
                
                
                
                
                
                
                
                
                
                
                
                
                
                
                
                
                
                
                
                
                
                
                
                
                
                
                
                
                
                
                
                
                
                
                
                
                
                
                
                
                
                
                
                
                
                
                
                
                
                
                
                
                
                
                
                
                
                
                
                
                
                
                
                
                
                
                
                
                
                
                
                
                
                
                
                
                
                
                
                
                
                
                
                
                
                
                
                
                
                
                
                
                
                
                
                
                
                
                
                
                
                
                
                
                
                
                
                
                
                
                
                
                
                
                
                
                
                
                
                
                
                
                
                
                
                
                
                
                
                
                
                
                
                
                
                
                
                
                
                
                
                
                
                
                
                
                
                
                
                
                
                
                
                
                
                
                
                
                
                
                
                
                
                
                
                
                
                
                
                
                
                
                
                
                
                
                
                
                
                
                
                
                
                
                
                
                
                
                
                
                
                
                
                
                
                
                
                
                
                
                
                
                
                
                
                
                
                
                
                
                
                
                
                
                
                
                
                
                
                
                
                
                
                
                
                
                
                
                
                
                
                
                
                
                
                
                
                
                
                
                
                
                
                
                
                
                
                
                
                
                
                
                
                
                
                
                
