\begin{thebibliography}{1}

\bibitem{bib:Kailath}
{Guanghan Xu}, {Hui Liu}, {Lang Tong}, and T.~{Kailath}, ``A least-squares
  approach to blind channel identification,'' {\em IEEE Transactions on Signal
  Processing}, vol.~43, pp.~2982--2993, Dec 1995.

\bibitem{bib:benesty}
J.~Benesty, ``Adaptive eigenvalue decomposition algorithm for passive acoustic
  source localization,'' {\em The Journal of the Acoustic Society of America},
  vol.~107, pp.~384--391, 2000.

\end{thebibliography}
