% This file was created by matlab2tikz.
%
%The latest updates can be retrieved from
%  http://www.mathworks.com/matlabcentral/fileexchange/22022-matlab2tikz-matlab2tikz
%where you can also make suggestions and rate matlab2tikz.
%
\definecolor{mycolor1}{rgb}{0.00000,0.44700,0.74100}%
\definecolor{mycolor2}{rgb}{0.85000,0.32500,0.09800}%
%
\begin{tikzpicture}

\begin{axis}[%
width=1.935in,
height=3.2in,
at={(0.758in,0.512in)},
scale only axis,
xmin=0,
xmax=100,
xlabel style={font=\color{white!15!black}, align=center},
xlabel={Sample Index\\[1ex](a) Actual},
ymin=0,
ymax=1,
axis background/.style={fill=white},
legend style={legend cell align=left, align=left, draw=white!15!black}
]
\addplot [color=mycolor1]
  table[row sep=crcr]{%
1	0.0216926152020066\\
2	0.0241183965289278\\
3	0.0267807478156139\\
4	0.0354280601095614\\
5	0.221828667704926\\
6	0.648965745595675\\
7	0.241270440438586\\
8	0.0776642628644082\\
9	0.0581044824071981\\
10	0.0611489366831747\\
11	0.0798140419847986\\
12	0.062735544320507\\
13	0.113011040425493\\
14	0.377485382687519\\
15	0.331649248845691\\
16	0.18615433793772\\
17	0.146493252817741\\
18	0.0847190801249442\\
19	0.0628278567269286\\
20	0.0148364296169451\\
21	0.0250471739922352\\
22	0.0344835915107885\\
23	0.116323790948646\\
24	0.279210940275387\\
25	0.101045410677318\\
26	0.0464379665429307\\
27	0.041398863205924\\
28	0.0263226969199998\\
29	0.0221848789960478\\
30	0.0197642774213948\\
31	0.0186496517239344\\
32	0.0219339353832985\\
33	0.018414044189717\\
34	0.00937919788338426\\
35	0.0100670783096178\\
36	0.0098135024549665\\
37	0.00937197330245933\\
38	0.00884810306396591\\
39	0.00821513429074651\\
40	0.00732026654240377\\
41	0.00945021173361951\\
42	0.0127255218727005\\
43	0.00946415089832864\\
44	0.00862800399957479\\
45	0.00816256372793386\\
46	0.00784857678072338\\
47	0.00764005346579914\\
48	0.00755773656417068\\
49	0.00776075567554332\\
50	0.00986938420958768\\
51	0.00319649311885596\\
52	0.00500292172051245\\
53	0.00524752973649041\\
54	0.00526667690567613\\
55	0.00521575322380608\\
56	0.00513704586881206\\
57	0.00504647235310817\\
58	0.00495116794332671\\
59	0.00485468351773321\\
60	0.00475890010347922\\
61	0.00466484578572566\\
62	0.00457308311118313\\
63	0.00448390798586452\\
64	0.0043974582605137\\
65	0.00431377595094964\\
66	0.00423284428954661\\
67	0.00415461047403326\\
68	0.00407899997367922\\
69	0.00400592569101114\\
70	0.00393529390404367\\
71	0.0038670081481966\\
72	0.00380097175500134\\
73	0.00373708950172093\\
74	0.00367526866536834\\
75	0.00361541967416126\\
76	0.00355745648532918\\
77	0.00350129677649243\\
78	0.00344686201027152\\
79	0.00339407741330312\\
80	0.00334287189828014\\
81	0.0032931779490063\\
82	0.00324493148246751\\
83	0.00319807169773062\\
84	0.003152540918526\\
85	0.00310828443427485\\
86	0.00306525034282854\\
87	0.00302338939712195\\
88	0.00298265485717807\\
89	0.00294300234835571\\
90	0.00290438972634362\\
91	0.0028667769491261\\
92	0.00283012595595264\\
93	0.0027944005532083\\
94	0.00275956630699144\\
95	0.0027255904421446\\
96	0.00269244174744817\\
97	0.00266009048666622\\
98	0.00262850831512411\\
99	0\\
100	0\\
};
\addlegendentry{$\mathbf{h_1}$}

\addplot [color=mycolor2]
  table[row sep=crcr]{%
1	0.00108294891904515\\
2	0.00115806441999571\\
3	0.00125656841390277\\
4	0.00139359850086552\\
5	0.00159676508941691\\
6	0.00191784013184518\\
7	0.00245777585368985\\
8	0.00342819163679349\\
9	0.00533730915065768\\
10	0.00974214709050295\\
11	0.0244449264542886\\
12	0.973731186814765\\
13	0.0500739614470277\\
14	0.0426946282907342\\
15	0.00536788790071817\\
16	0.0362080823589407\\
17	0.176144271962331\\
18	0.115663212635922\\
19	0.0234963057121139\\
20	0.0138738178597906\\
21	0.00966054585381422\\
22	0.00731818549393035\\
23	0.00584139575065055\\
24	0.0048330083027894\\
25	0.00410500747522503\\
26	0.00355723928842746\\
27	0.00313167065616096\\
28	0.00279247304593218\\
29	0.00251639833876938\\
30	0.00228774297450139\\
31	0.00209554142652578\\
32	0.00193191967393617\\
33	0.00179108704155738\\
34	0.00166869616651274\\
35	0\\
36	0\\
37	0\\
38	0\\
39	0\\
40	0\\
41	0\\
42	0\\
43	0\\
44	0\\
45	0\\
46	0\\
47	0\\
48	0\\
49	0\\
50	0\\
51	0\\
52	0\\
53	0\\
54	0\\
55	0\\
56	0\\
57	0\\
58	0\\
59	0\\
60	0\\
61	0\\
62	0\\
63	0\\
64	0\\
65	0\\
66	0\\
67	0\\
68	0\\
69	0\\
70	0\\
71	0\\
72	0\\
73	0\\
74	0\\
75	0\\
76	0\\
77	0\\
78	0\\
79	0\\
80	0\\
81	0\\
82	0\\
83	0\\
84	0\\
85	0\\
86	0\\
87	0\\
88	0\\
89	0\\
90	0\\
91	0\\
92	0\\
93	0\\
94	0\\
95	0\\
96	0\\
97	0\\
98	0\\
99	0\\
100	0\\
};
\addlegendentry{$\mathbf{h_{2}}$}

\end{axis}

\begin{axis}[%
width=1.935in,
height=3.2in,
at={(3.327in,0.512in)},
scale only axis,
xmin=0,
xmax=100,
xlabel style={font=\color{white!15!black}, align=center},
xlabel={Sample Index\\[1ex](b) Estimated},
ymin=0,
ymax=1,
axis background/.style={fill=white},
legend style={legend cell align=left, align=left, draw=white!15!black}
]
\addplot [color=mycolor1]
  table[row sep=crcr]{%
0	0.0235385240041219\\
1	0.00567038040637622\\
2	0.0124601593527175\\
3	0.0363123102422772\\
4	0.0128715922131734\\
5	0.0244677497842127\\
6	0.0108741981553476\\
7	0.0153789564134556\\
8	0.0153355323145837\\
9	0.01544818844115\\
10	0.0119780558980108\\
11	0.0236818091852737\\
12	0.0106731887995925\\
13	0.0301928565680852\\
14	0.00853998210786568\\
15	0.0125301953024553\\
16	0.0070924640104331\\
17	0.0126141346667171\\
18	0.0204248617698943\\
19	0.0049783673577285\\
20	0.0152043147208855\\
21	0.0239103611232333\\
22	0.0108488318770153\\
23	0.0176276116195854\\
24	0.0153895483992682\\
25	0.00932476209911858\\
26	0.0216783822871193\\
27	0.0111668313684465\\
28	0.0129125913851616\\
29	0.0059346746604397\\
30	0.029838093756159\\
31	0.0441299882131828\\
32	0.0104383337696636\\
33	0.0175695221106429\\
34	0.0238743806041976\\
35	0.0095259018049421\\
36	0.0363005694558401\\
37	0.054786635938796\\
38	0.0890694041174933\\
39	0.0463080120451613\\
40	0.0285134710097152\\
41	0.0439112559573264\\
42	0.192461996924486\\
43	0.652692337458156\\
44	0.21113030226237\\
45	0.062728854568476\\
46	0.155755841163048\\
47	0.0701949074546134\\
48	0.103451966253479\\
49	0.0356708557381282\\
50	0.102315811820266\\
51	0.396551292579441\\
52	0.278755480625622\\
53	0.178539706639934\\
54	0.121847910980288\\
55	0.0787332141324799\\
56	0.0870992649308379\\
57	0.0441568393624151\\
58	0.0340883626828419\\
59	0.0242595582285345\\
60	0.105103193737057\\
61	0.266101791604738\\
62	0.0908923387404561\\
63	0.0348915663720376\\
64	0.0128933269772452\\
65	0.0418366314524874\\
66	0.0221553214866881\\
67	0.0160297574056047\\
68	0.0242521470706505\\
69	0.0328062578983327\\
70	0.0202256731903039\\
71	0.00995874822631028\\
72	0.0119252531467145\\
73	0.0227183158362693\\
74	0.0313046853033556\\
75	0.0151215076338049\\
76	0.0146049297334897\\
77	0.0258521778405042\\
78	0.00874256955330511\\
79	0.00992858553668123\\
80	0.0226195027154661\\
81	0.0223393878681125\\
82	0.0384926288356006\\
83	0.0190117880721101\\
84	0.0179185708606445\\
85	0.0265646731708169\\
86	0.0110934306708218\\
87	0.027629463676629\\
88	0.0141466792767758\\
89	0.0174548039824554\\
90	0.0205050389644944\\
91	0.0155030630320478\\
92	0.0188774622522151\\
93	0.0240995330781434\\
94	0.0036943245454\\
95	0.0379883566305483\\
96	0.0152871738089028\\
97	0.0102569216115668\\
98	0.00854891771610114\\
99	0.0117525076893537\\
};
\addlegendentry{$\mathbf{\hat{h}_{1}}$}

\addplot [color=mycolor2]
  table[row sep=crcr]{%
0	0.000207455863191565\\
1	0.000394525339633854\\
2	0.000323376801978745\\
3	0.000213000105561762\\
4	0.000246977183641924\\
5	0.000329779107252442\\
6	0.00018174233491689\\
7	0.000357685489002838\\
8	0.000211334456647398\\
9	0.000540824280873144\\
10	0.000407966740491804\\
11	0.000380404688056692\\
12	9.64552029532945e-05\\
13	5.39182512495362e-05\\
14	0.000298196444167022\\
15	0.000366541512287122\\
16	0.000241107176933853\\
17	0.000260445061056232\\
18	0.000455429752728239\\
19	0.000545277272118202\\
20	0.000253837072829516\\
21	6.9599435574666e-05\\
22	0.000192229283975308\\
23	0.000375997856040806\\
24	0.000313081341938064\\
25	0.000241950763746718\\
26	0.000409231040937405\\
27	0.000448161193276082\\
28	0.000362729245135241\\
29	0.000350576894705475\\
30	0.000413554941566398\\
31	0.0025069583556814\\
32	0.000526693924908575\\
33	9.16202940509036e-05\\
34	0.000613991709774214\\
35	0.000576066079486644\\
36	0.00020369344545976\\
37	0.000521593598622727\\
38	0.00149058504626227\\
39	0.00273589487087791\\
40	0.00054514935468933\\
41	0.00384683288723454\\
42	0.000576222518349771\\
43	0.000238665688474054\\
44	0.00089833856032983\\
45	0.000575960296489479\\
46	0.00102152481310834\\
47	0.00168652550508474\\
48	0.000245121368410695\\
49	0.99995855882984\\
50	0.000240596168696961\\
51	0.00169771554661937\\
52	0.00102140865580472\\
53	0.000571862402254604\\
54	0.000888997401291281\\
55	0.000249434805074782\\
56	0.000568963519684103\\
57	0.00386225885478424\\
58	0.000548154798016177\\
59	0.00274262747326959\\
60	0.00148903319929516\\
61	0.000504191841026053\\
62	0.000189555392107311\\
63	0.000555974830530276\\
64	0.000639441977168706\\
65	7.52460726470559e-05\\
66	0.000549690247186595\\
67	0.00250219834655209\\
68	0.000406014574837083\\
69	0.000347914533831229\\
70	0.000400117926802492\\
71	0.000441915146526469\\
72	0.000443381755656651\\
73	0.000233541648681623\\
74	0.000314729410529301\\
75	0.00034598619295327\\
76	0.000183176354878224\\
77	4.32721896946013e-05\\
78	0.00029876553205054\\
79	0.000556555063727544\\
80	0.000507439585966415\\
81	0.000247432049355334\\
82	0.00021692576738975\\
83	0.00037985501039922\\
84	0.000229112219017261\\
85	1.74903859983386e-05\\
86	0.000101579310380812\\
87	0.000394113749023082\\
88	0.000472798448352485\\
89	0.000542539415301535\\
90	0.000220533622008371\\
91	0.000336479009819994\\
92	0.000166516568280388\\
93	0.000393705933986029\\
94	0.000257363714752756\\
95	0.000135928787692006\\
96	0.000342811437077362\\
97	0.000426618195617275\\
98	0.000182445427518598\\
99	0.000208093972456897\\
};
\addlegendentry{$\mathbf{\hat{h}_{2}}$}

\end{axis}
\end{tikzpicture}%