% This file was created by matlab2tikz.
%
%The latest updates can be retrieved from
%  http://www.mathworks.com/matlabcentral/fileexchange/22022-matlab2tikz-matlab2tikz
%where you can also make suggestions and rate matlab2tikz.
%
\definecolor{mycolor1}{rgb}{0.00000,0.44700,0.74100}%
\definecolor{mycolor2}{rgb}{0.85000,0.32500,0.09800}%
%
\begin{tikzpicture}

\begin{axis}[%
width=1.935in,
height=3.2in,
at={(0.758in,0.512in)},
scale only axis,
xmin=0,
xmax=100,
xlabel style={font=\color{white!15!black}, align=center},
xlabel={Sample Index\\[1ex](a) Actual},
ymin=0,
ymax=1,
axis background/.style={fill=white},
legend style={legend cell align=left, align=left, draw=white!15!black}
]
\addplot [color=mycolor1]
  table[row sep=crcr]{%
1	0.0216926152020066\\
2	0.0241183965289278\\
3	0.0267807478156139\\
4	0.0354280601095614\\
5	0.221828667704926\\
6	0.648965745595675\\
7	0.241270440438586\\
8	0.0776642628644082\\
9	0.0581044824071981\\
10	0.0611489366831747\\
11	0.0798140419847986\\
12	0.062735544320507\\
13	0.113011040425493\\
14	0.377485382687519\\
15	0.331649248845691\\
16	0.18615433793772\\
17	0.146493252817741\\
18	0.0847190801249442\\
19	0.0628278567269286\\
20	0.0148364296169451\\
21	0.0250471739922352\\
22	0.0344835915107885\\
23	0.116323790948646\\
24	0.279210940275387\\
25	0.101045410677318\\
26	0.0464379665429307\\
27	0.041398863205924\\
28	0.0263226969199998\\
29	0.0221848789960478\\
30	0.0197642774213948\\
31	0.0186496517239344\\
32	0.0219339353832985\\
33	0.018414044189717\\
34	0.00937919788338426\\
35	0.0100670783096178\\
36	0.0098135024549665\\
37	0.00937197330245933\\
38	0.00884810306396591\\
39	0.00821513429074651\\
40	0.00732026654240377\\
41	0.00945021173361951\\
42	0.0127255218727005\\
43	0.00946415089832864\\
44	0.00862800399957479\\
45	0.00816256372793386\\
46	0.00784857678072338\\
47	0.00764005346579914\\
48	0.00755773656417068\\
49	0.00776075567554332\\
50	0.00986938420958768\\
51	0.00319649311885596\\
52	0.00500292172051245\\
53	0.00524752973649041\\
54	0.00526667690567613\\
55	0.00521575322380608\\
56	0.00513704586881206\\
57	0.00504647235310817\\
58	0.00495116794332671\\
59	0.00485468351773321\\
60	0.00475890010347922\\
61	0.00466484578572566\\
62	0.00457308311118313\\
63	0.00448390798586452\\
64	0.0043974582605137\\
65	0.00431377595094964\\
66	0.00423284428954661\\
67	0.00415461047403326\\
68	0.00407899997367922\\
69	0.00400592569101114\\
70	0.00393529390404367\\
71	0.0038670081481966\\
72	0.00380097175500134\\
73	0.00373708950172093\\
74	0.00367526866536834\\
75	0.00361541967416126\\
76	0.00355745648532918\\
77	0.00350129677649243\\
78	0.00344686201027152\\
79	0.00339407741330312\\
80	0.00334287189828014\\
81	0.0032931779490063\\
82	0.00324493148246751\\
83	0.00319807169773062\\
84	0.003152540918526\\
85	0.00310828443427485\\
86	0.00306525034282854\\
87	0.00302338939712195\\
88	0.00298265485717807\\
89	0.00294300234835571\\
90	0.00290438972634362\\
91	0.0028667769491261\\
92	0.00283012595595264\\
93	0.0027944005532083\\
94	0.00275956630699144\\
95	0.0027255904421446\\
96	0.00269244174744817\\
97	0.00266009048666622\\
98	0.00262850831512411\\
99	0\\
100	0\\
};
\addlegendentry{$\mathbf{h_1}$}

\addplot [color=mycolor2]
  table[row sep=crcr]{%
1	0.00108294891904515\\
2	0.00115806441999571\\
3	0.00125656841390277\\
4	0.00139359850086552\\
5	0.00159676508941691\\
6	0.00191784013184518\\
7	0.00245777585368985\\
8	0.00342819163679349\\
9	0.00533730915065768\\
10	0.00974214709050295\\
11	0.0244449264542886\\
12	0.973731186814765\\
13	0.0500739614470277\\
14	0.0426946282907342\\
15	0.00536788790071817\\
16	0.0362080823589407\\
17	0.176144271962331\\
18	0.115663212635922\\
19	0.0234963057121139\\
20	0.0138738178597906\\
21	0.00966054585381422\\
22	0.00731818549393035\\
23	0.00584139575065055\\
24	0.0048330083027894\\
25	0.00410500747522503\\
26	0.00355723928842746\\
27	0.00313167065616096\\
28	0.00279247304593218\\
29	0.00251639833876938\\
30	0.00228774297450139\\
31	0.00209554142652578\\
32	0.00193191967393617\\
33	0.00179108704155738\\
34	0.00166869616651274\\
35	0\\
36	0\\
37	0\\
38	0\\
39	0\\
40	0\\
41	0\\
42	0\\
43	0\\
44	0\\
45	0\\
46	0\\
47	0\\
48	0\\
49	0\\
50	0\\
51	0\\
52	0\\
53	0\\
54	0\\
55	0\\
56	0\\
57	0\\
58	0\\
59	0\\
60	0\\
61	0\\
62	0\\
63	0\\
64	0\\
65	0\\
66	0\\
67	0\\
68	0\\
69	0\\
70	0\\
71	0\\
72	0\\
73	0\\
74	0\\
75	0\\
76	0\\
77	0\\
78	0\\
79	0\\
80	0\\
81	0\\
82	0\\
83	0\\
84	0\\
85	0\\
86	0\\
87	0\\
88	0\\
89	0\\
90	0\\
91	0\\
92	0\\
93	0\\
94	0\\
95	0\\
96	0\\
97	0\\
98	0\\
99	0\\
100	0\\
};
\addlegendentry{$\mathbf{h_{2}}$}

\end{axis}

\begin{axis}[%
width=1.935in,
height=3.2in,
at={(3.327in,0.512in)},
scale only axis,
xmin=0,
xmax=200,
xlabel style={font=\color{white!15!black}, align=center},
xlabel={Sample Index\\[1ex](b) Estimated},
ymin=0,
ymax=1,
axis background/.style={fill=white},
legend style={legend cell align=left, align=left, draw=white!15!black}
]
\addplot [color=mycolor1]
  table[row sep=crcr]{%
0	0.00022504203227318\\
1	0.000122577649678381\\
2	0.000183357786128467\\
3	2.05330749075637e-05\\
4	0.000129551858286426\\
5	4.80568746750659e-05\\
6	5.12582268969315e-05\\
7	9.2366387485837e-05\\
8	8.85696708192175e-05\\
9	6.97352257272908e-05\\
10	9.76447726022725e-05\\
11	5.18481042938484e-05\\
12	3.71592802902965e-05\\
13	0.000248418211726942\\
14	6.06890278605605e-05\\
15	4.15037427818674e-05\\
16	2.87934166503926e-05\\
17	3.61983341906715e-05\\
18	4.31779865163015e-05\\
19	2.32127874113709e-05\\
20	0.000113993429259853\\
21	1.96812866627941e-05\\
22	9.73424177459389e-05\\
23	7.98132573303749e-06\\
24	3.57798407243596e-05\\
25	3.76490845617278e-05\\
26	0.000114162193523569\\
27	2.85974100260094e-05\\
28	5.13672175395547e-05\\
29	4.30178293446541e-05\\
30	3.00286094724279e-05\\
31	6.65066501974191e-05\\
32	3.33633294486725e-05\\
33	3.61119392822288e-05\\
34	4.60343781169976e-05\\
35	9.38711160421998e-05\\
36	8.20879136084346e-05\\
37	0.000103734533735479\\
38	7.27031465962739e-05\\
39	6.45784193092874e-05\\
40	5.34461254361161e-05\\
41	9.76078496512731e-05\\
42	7.76627696337303e-05\\
43	0.00013761975662133\\
44	4.6500709748443e-05\\
45	4.4864948778469e-05\\
46	0.000107205368571739\\
47	0.00012360587782536\\
48	7.31581992534169e-05\\
49	4.59094309624581e-05\\
50	9.43617902039543e-05\\
51	5.00264323822093e-05\\
52	8.38759009819732e-05\\
53	5.29607431911489e-05\\
54	4.31332552749182e-05\\
55	3.13901521408538e-05\\
56	0.000167211294081075\\
57	0.000146672282982877\\
58	4.89904191645862e-05\\
59	0.000400165763909895\\
60	9.62421652074884e-06\\
61	4.6049218009438e-05\\
62	0.000111925642580123\\
63	6.32176022906241e-05\\
64	0.000124614647485804\\
65	0.000712477627493256\\
66	0.000721861259803297\\
67	0.000590991824024655\\
68	0.000312666928850259\\
69	4.16178027036649e-05\\
70	3.79163012825391e-05\\
71	9.99340890822444e-05\\
72	0.000784239688803008\\
73	7.55522076531136e-05\\
74	0.00985054533884717\\
75	0.0328851628366379\\
76	0.000280700433964554\\
77	0.00745021559106503\\
78	0.00188586519528656\\
79	0.00216995390020889\\
80	0.00106369154648054\\
81	0.00539692346115888\\
82	0.0255240895961874\\
83	0.0627089764301215\\
84	0.0376298840453624\\
85	0.0457490252032393\\
86	0.0294936845373982\\
87	0.0289016132129337\\
88	0.0759291184622512\\
89	0.0219868864106372\\
90	0.0329811202240201\\
91	0.00551254710573337\\
92	0.181024796304205\\
93	0.681607452522852\\
94	0.205512765216051\\
95	0.0240096498791519\\
96	0.117209517231699\\
97	0.0818746890679091\\
98	0.119395101066588\\
99	0.0290827267215091\\
100	0.097373929982392\\
101	0.378348718643109\\
102	0.291688999863637\\
103	0.177624341113856\\
104	0.123226611933681\\
105	0.0747995214767191\\
106	0.0837846525318789\\
107	0.0475386876651663\\
108	0.0352878869657489\\
109	0.0606199497346535\\
110	0.131484116388993\\
111	0.268353747715874\\
112	0.0632209953184811\\
113	0.00664851459980303\\
114	0.00821569734907152\\
115	0.0136504642500259\\
116	0.0113176367754708\\
117	0.028902812884114\\
118	0.0380054245169518\\
119	0.059887877005342\\
120	0.026857856384332\\
121	0.0132935043189139\\
122	0.00196214895562221\\
123	0.0172685971165887\\
124	0.0135030291572734\\
125	0.00753817705133111\\
126	0.00251549260374104\\
127	0.00855543840408331\\
128	0.0133067634192631\\
129	0.00893336470577233\\
130	0.00845512830373095\\
131	0.003345825585988\\
132	0.00294388620857259\\
133	0.00435692364586843\\
134	0.00353383458712048\\
135	0.00424144015517587\\
136	0.00587036744109319\\
137	0.00713175799361004\\
138	0.000121447788917389\\
139	0.000947418653137897\\
140	0.001254476885576\\
141	0.00114906867166254\\
142	0.000838426497547665\\
143	0.000194674764811626\\
144	0.000767205138694804\\
145	0.00018266096302851\\
146	0.00198460984516714\\
147	0.000512459462274732\\
148	0.000973259899282857\\
149	0.000115199107450814\\
150	0.000588397611710618\\
151	0.000186273349818927\\
152	0.00029694568013717\\
153	0.000247785331760372\\
154	0.000154982197720949\\
155	0.000173200482983634\\
156	0.000270419597471933\\
157	0.00027334460861587\\
158	0.00013761854171687\\
159	2.39507987056812e-05\\
160	0.000189429422979683\\
161	0.000216271551552674\\
162	0.000136775852322171\\
163	7.00712465428808e-05\\
164	0.000208250911571047\\
165	8.83104823018432e-05\\
166	2.20555170945218e-05\\
167	0.000115329355213379\\
168	0.000256409646768413\\
169	5.9873939235571e-05\\
170	0.000117561254879555\\
171	4.56265240242597e-05\\
172	0.000145294451659961\\
173	5.56393720956657e-05\\
174	6.26134584721165e-05\\
175	8.4384065478171e-05\\
176	2.52074666441983e-05\\
177	9.7536701605802e-05\\
178	8.78050126084651e-05\\
179	1.52306420848887e-05\\
180	9.02713411898422e-05\\
181	6.22915921364627e-05\\
182	0.000270351686051362\\
183	0.000350755351193544\\
184	5.58651708299085e-05\\
185	3.00853580348781e-05\\
186	5.97874569812575e-05\\
187	0.000131149271985283\\
188	4.14365426238704e-05\\
189	7.08307986997374e-05\\
190	1.82298825657278e-05\\
191	0.000163780092876314\\
192	0.000180689548245965\\
193	0.000114096154291287\\
194	2.27487459110773e-05\\
195	9.40366958912498e-05\\
196	0.000154853861835613\\
197	6.21770708875672e-05\\
198	8.2786001190124e-05\\
199	2.18417353927732e-05\\
};
\addlegendentry{$\mathbf{\hat{h}_{1}}$}

\addplot [color=mycolor2]
  table[row sep=crcr]{%
0	8.08610691947042e-05\\
1	2.15402887706585e-05\\
2	7.72736670972923e-06\\
3	0.000122755334001213\\
4	1.25601919292239e-05\\
5	6.53427516746623e-05\\
6	2.07980795934952e-05\\
7	3.56124999625565e-05\\
8	9.18531516732905e-05\\
9	3.06438989791608e-05\\
10	5.43114095548249e-05\\
11	8.9923974389259e-06\\
12	4.34794951153952e-05\\
13	5.55671738714009e-05\\
14	4.93614902851088e-05\\
15	2.26193301932852e-05\\
16	1.39752552659296e-05\\
17	4.42089415757246e-05\\
18	5.40038534750385e-05\\
19	4.93374787313799e-05\\
20	1.43259175332541e-05\\
21	2.17800380070135e-05\\
22	3.04307360431931e-05\\
23	7.22929725593515e-06\\
24	6.35812372882082e-05\\
25	1.75308889617918e-05\\
26	6.79697088170416e-05\\
27	1.91812503559772e-05\\
28	2.76749786533013e-05\\
29	1.13343783228047e-05\\
30	2.93892809986364e-05\\
31	5.66218856251944e-05\\
32	4.44650643424684e-05\\
33	1.53365884824699e-05\\
34	3.38144786964065e-05\\
35	2.99019778138239e-05\\
36	2.54950186547134e-05\\
37	4.41947559375807e-05\\
38	1.66199807220391e-05\\
39	1.78082016479373e-05\\
40	3.22770529945086e-05\\
41	2.2395247148864e-05\\
42	4.51459772825977e-05\\
43	3.92351954441494e-05\\
44	4.22865049984957e-05\\
45	1.01222276116045e-05\\
46	2.52808341921444e-05\\
47	3.61553535944586e-05\\
48	0.000156771169105824\\
49	3.96795437032972e-05\\
50	9.94299177449271e-05\\
51	7.6175251558008e-05\\
52	3.4198858887723e-05\\
53	0.000134452966555606\\
54	8.2889942672084e-06\\
55	0.000270882059095125\\
56	0.000183751605071513\\
57	4.48641928691985e-05\\
58	6.54615867995171e-05\\
59	7.70210293327553e-05\\
60	4.56714911051504e-05\\
61	2.67222423111569e-05\\
62	2.5007985012565e-05\\
63	0.000508653447603907\\
64	2.25414208325164e-05\\
65	0.00448536984731252\\
66	0.00116819139796087\\
67	0.00139859129605838\\
68	0.00139724650268132\\
69	6.38505117509423e-05\\
70	0.00252030168620249\\
71	0.00903281197096866\\
72	0.00545982574738868\\
73	0.0134718835059525\\
74	0.00630409160675909\\
75	0.000167815019145845\\
76	0.00303908993263866\\
77	0.000292453374232687\\
78	0.002791912013909\\
79	0.00461189805568873\\
80	0.0120641946207025\\
81	0.0714878710226031\\
82	0.0136393835678052\\
83	0.0226095936368481\\
84	0.0127643018743593\\
85	0.00723442913433219\\
86	0.00469856574440756\\
87	0.000327363895920534\\
88	0.0504130387089992\\
89	0.0722050766107409\\
90	0.0246229069181566\\
91	0.113753947438087\\
92	0.00556866620338353\\
93	0.0116463217199577\\
94	4.85789218532667e-06\\
95	0.0190305615391999\\
96	0.0238394452025695\\
97	0.0402177288153592\\
98	0.00870079123467977\\
99	0.967934021749766\\
100	0.00771141512259156\\
101	0.0413040552993294\\
102	0.0246344462920639\\
103	0.0200018097622498\\
104	0.030253743707308\\
105	0.0107958305740099\\
106	0.00402580075405893\\
107	0.114498880868971\\
108	0.0244252014843822\\
109	0.0731399101208674\\
110	0.0524287708825949\\
111	0.000217660636462786\\
112	0.00856926413265089\\
113	0.00861672405334195\\
114	0.0125641038704313\\
115	0.0220709760806834\\
116	0.013268323592797\\
117	0.0726936635479646\\
118	0.0117067294872772\\
119	0.00468637176052539\\
120	0.0026975118825665\\
121	0.000281249281051824\\
122	0.00151630778351198\\
123	0.000300263719269332\\
124	0.00645601814238147\\
125	0.0124702195631217\\
126	0.00556462219388021\\
127	0.00998334287100549\\
128	0.00269431974436855\\
129	0.000468607172993813\\
130	0.00171619068476358\\
131	0.00234908108403419\\
132	0.00171517900840863\\
133	0.00484209476996149\\
134	2.35117481307615e-06\\
135	2.35836340649215e-05\\
136	4.24259477534504e-05\\
137	0.00021393625304479\\
138	1.82928657967666e-05\\
139	0.000117709141626192\\
140	8.51463091440784e-05\\
141	4.79855999095619e-05\\
142	0.000286241415352373\\
143	0.000451122177201324\\
144	7.3975583583305e-05\\
145	0.000152923182624894\\
146	6.09708673639739e-05\\
147	0.000121326233018715\\
148	0.000345550391838398\\
149	6.11973336385904e-05\\
150	0.000148825587013264\\
151	3.62637955324686e-05\\
152	2.31546406367123e-05\\
153	0.000311703628924016\\
154	6.91607526476273e-05\\
155	4.34486885303047e-05\\
156	4.94438625051437e-05\\
157	1.29968204340038e-05\\
158	3.40140078918036e-05\\
159	3.20517461668867e-05\\
160	1.66773678360843e-05\\
161	4.45890483563083e-05\\
162	1.72065242518227e-05\\
163	2.03991291405547e-05\\
164	6.51228083272338e-05\\
165	1.76496906279856e-05\\
166	6.11224493270808e-05\\
167	6.34284150453593e-05\\
168	5.81597571954632e-05\\
169	2.77968431444134e-05\\
170	4.45429544858009e-05\\
171	2.46565784240437e-05\\
172	3.55422086890655e-05\\
173	3.3365151613347e-05\\
174	8.59612576895529e-05\\
175	2.02473559842793e-05\\
176	5.31546764947846e-05\\
177	1.49610642412993e-05\\
178	2.33601281964078e-05\\
179	3.57660911652473e-05\\
180	4.4260623214374e-05\\
181	5.08481626424231e-05\\
182	5.13137656262751e-07\\
183	1.19167735210974e-05\\
184	6.48235360090935e-05\\
185	3.79132259029112e-05\\
186	4.71785057918995e-05\\
187	1.22046649962507e-05\\
188	7.56540508935206e-05\\
189	4.95488128772747e-05\\
190	7.44348224471869e-05\\
191	2.48850224032657e-05\\
192	1.01971638026515e-05\\
193	7.22082911633198e-05\\
194	3.96829906099519e-05\\
195	0.000120935542255039\\
196	5.80070139575912e-06\\
197	2.15705395225319e-05\\
198	0.000101760031403158\\
199	0.000106562301808094\\
};
\addlegendentry{$\mathbf{\hat{h}_{2}}$}

\end{axis}
\end{tikzpicture}%