% This file was created by matlab2tikz.
%
%The latest updates can be retrieved from
%  http://www.mathworks.com/matlabcentral/fileexchange/22022-matlab2tikz-matlab2tikz
%where you can also make suggestions and rate matlab2tikz.
%
\definecolor{mycolor1}{rgb}{0.00000,0.44700,0.74100}%
\definecolor{mycolor2}{rgb}{0.85000,0.32500,0.09800}%
%
\begin{tikzpicture}

\begin{axis}[%
width=1.935in,
height=3.2in,
at={(0.758in,0.512in)},
scale only axis,
xmin=0,
xmax=100,
xlabel style={font=\color{white!15!black}, align=center},
xlabel={Sample Index\\[1ex](a) Actual},
ymin=0,
ymax=1,
axis background/.style={fill=white},
legend style={legend cell align=left, align=left, draw=white!15!black}
]
\addplot [color=mycolor1]
  table[row sep=crcr]{%
1	0.0216926152020066\\
2	0.0241183965289278\\
3	0.0267807478156139\\
4	0.0354280601095614\\
5	0.221828667704926\\
6	0.648965745595675\\
7	0.241270440438586\\
8	0.0776642628644082\\
9	0.0581044824071981\\
10	0.0611489366831747\\
11	0.0798140419847986\\
12	0.062735544320507\\
13	0.113011040425493\\
14	0.377485382687519\\
15	0.331649248845691\\
16	0.18615433793772\\
17	0.146493252817741\\
18	0.0847190801249442\\
19	0.0628278567269286\\
20	0.0148364296169451\\
21	0.0250471739922352\\
22	0.0344835915107885\\
23	0.116323790948646\\
24	0.279210940275387\\
25	0.101045410677318\\
26	0.0464379665429307\\
27	0.041398863205924\\
28	0.0263226969199998\\
29	0.0221848789960478\\
30	0.0197642774213948\\
31	0.0186496517239344\\
32	0.0219339353832985\\
33	0.018414044189717\\
34	0.00937919788338426\\
35	0.0100670783096178\\
36	0.0098135024549665\\
37	0.00937197330245933\\
38	0.00884810306396591\\
39	0.00821513429074651\\
40	0.00732026654240377\\
41	0.00945021173361951\\
42	0.0127255218727005\\
43	0.00946415089832864\\
44	0.00862800399957479\\
45	0.00816256372793386\\
46	0.00784857678072338\\
47	0.00764005346579914\\
48	0.00755773656417068\\
49	0.00776075567554332\\
50	0.00986938420958768\\
51	0.00319649311885596\\
52	0.00500292172051245\\
53	0.00524752973649041\\
54	0.00526667690567613\\
55	0.00521575322380608\\
56	0.00513704586881206\\
57	0.00504647235310817\\
58	0.00495116794332671\\
59	0.00485468351773321\\
60	0.00475890010347922\\
61	0.00466484578572566\\
62	0.00457308311118313\\
63	0.00448390798586452\\
64	0.0043974582605137\\
65	0.00431377595094964\\
66	0.00423284428954661\\
67	0.00415461047403326\\
68	0.00407899997367922\\
69	0.00400592569101114\\
70	0.00393529390404367\\
71	0.0038670081481966\\
72	0.00380097175500134\\
73	0.00373708950172093\\
74	0.00367526866536834\\
75	0.00361541967416126\\
76	0.00355745648532918\\
77	0.00350129677649243\\
78	0.00344686201027152\\
79	0.00339407741330312\\
80	0.00334287189828014\\
81	0.0032931779490063\\
82	0.00324493148246751\\
83	0.00319807169773062\\
84	0.003152540918526\\
85	0.00310828443427485\\
86	0.00306525034282854\\
87	0.00302338939712195\\
88	0.00298265485717807\\
89	0.00294300234835571\\
90	0.00290438972634362\\
91	0.0028667769491261\\
92	0.00283012595595264\\
93	0.0027944005532083\\
94	0.00275956630699144\\
95	0.0027255904421446\\
96	0.00269244174744817\\
97	0.00266009048666622\\
98	0.00262850831512411\\
99	0\\
100	0\\
};
\addlegendentry{$\mathbf{h_1}$}

\addplot [color=mycolor2]
  table[row sep=crcr]{%
1	0.00108294891904515\\
2	0.00115806441999571\\
3	0.00125656841390277\\
4	0.00139359850086552\\
5	0.00159676508941691\\
6	0.00191784013184518\\
7	0.00245777585368985\\
8	0.00342819163679349\\
9	0.00533730915065768\\
10	0.00974214709050295\\
11	0.0244449264542886\\
12	0.973731186814765\\
13	0.0500739614470277\\
14	0.0426946282907342\\
15	0.00536788790071817\\
16	0.0362080823589407\\
17	0.176144271962331\\
18	0.115663212635922\\
19	0.0234963057121139\\
20	0.0138738178597906\\
21	0.00966054585381422\\
22	0.00731818549393035\\
23	0.00584139575065055\\
24	0.0048330083027894\\
25	0.00410500747522503\\
26	0.00355723928842746\\
27	0.00313167065616096\\
28	0.00279247304593218\\
29	0.00251639833876938\\
30	0.00228774297450139\\
31	0.00209554142652578\\
32	0.00193191967393617\\
33	0.00179108704155738\\
34	0.00166869616651274\\
35	0\\
36	0\\
37	0\\
38	0\\
39	0\\
40	0\\
41	0\\
42	0\\
43	0\\
44	0\\
45	0\\
46	0\\
47	0\\
48	0\\
49	0\\
50	0\\
51	0\\
52	0\\
53	0\\
54	0\\
55	0\\
56	0\\
57	0\\
58	0\\
59	0\\
60	0\\
61	0\\
62	0\\
63	0\\
64	0\\
65	0\\
66	0\\
67	0\\
68	0\\
69	0\\
70	0\\
71	0\\
72	0\\
73	0\\
74	0\\
75	0\\
76	0\\
77	0\\
78	0\\
79	0\\
80	0\\
81	0\\
82	0\\
83	0\\
84	0\\
85	0\\
86	0\\
87	0\\
88	0\\
89	0\\
90	0\\
91	0\\
92	0\\
93	0\\
94	0\\
95	0\\
96	0\\
97	0\\
98	0\\
99	0\\
100	0\\
};
\addlegendentry{$\mathbf{h_{2}}$}

\end{axis}

\begin{axis}[%
width=1.935in,
height=3.2in,
at={(3.327in,0.512in)},
scale only axis,
xmin=0,
xmax=100,
xlabel style={font=\color{white!15!black}, align=center},
xlabel={Sample Index\\[1ex](b) Estimated},
ymin=0,
ymax=1,
axis background/.style={fill=white},
legend style={legend cell align=left, align=left, draw=white!15!black}
]
\addplot [color=mycolor1]
  table[row sep=crcr]{%
0	6.16729654241046e-05\\
1	5.98240119322056e-05\\
2	2.57750565080162e-05\\
3	6.29472684576928e-05\\
4	6.88144546575915e-05\\
5	5.29232227492778e-05\\
6	0.000100242698203583\\
7	6.65387532181245e-05\\
8	7.43518085273901e-05\\
9	0.000301996894765078\\
10	0.000178879036840067\\
11	7.33095992712271e-05\\
12	5.97002199753439e-05\\
13	3.40165125150424e-05\\
14	0.000438485837679299\\
15	0.00359085066638871\\
16	0.00388178539716446\\
17	0.00288119207489914\\
18	0.000744651113367886\\
19	6.19903130684484e-05\\
20	7.56064127263375e-05\\
21	0.000100230219782754\\
22	0.00390606175797025\\
23	7.64060836958514e-05\\
24	0.0134616524438416\\
25	0.0392568966725569\\
26	0.00114294828889461\\
27	0.0118532210749509\\
28	0.000961899257011567\\
29	0.004678921277724\\
30	0.00389156763469105\\
31	0.00815792637814818\\
32	0.0328093776175878\\
33	0.0761417621310935\\
34	0.0452111645516834\\
35	0.057567651978386\\
36	0.0330282666329557\\
37	0.0235670919850644\\
38	0.0630212369028954\\
39	0.0209935175601733\\
40	0.0362761620659552\\
41	0.00366883122315774\\
42	0.17833849934643\\
43	0.680332365397835\\
44	0.204108206146623\\
45	0.0244042321765634\\
46	0.105596494048552\\
47	0.0867299728676234\\
48	0.124986682564933\\
49	0.0316541705406279\\
50	0.0957619615157119\\
51	0.368559775414415\\
52	0.289152501229815\\
53	0.184916324662679\\
54	0.123629785381823\\
55	0.0785361700748577\\
56	0.0760160533827614\\
57	0.056828919735127\\
58	0.0366243852823029\\
59	0.0670369803519894\\
60	0.139058423184957\\
61	0.267908985369993\\
62	0.0612313962712314\\
63	0.00894136768175775\\
64	0.0126975004803711\\
65	0.0127167988318376\\
66	0.00966829450360874\\
67	0.0316972796392185\\
68	0.0467678850425144\\
69	0.0704240841632462\\
70	0.0314193643653123\\
71	0.0175428606018896\\
72	0.00441887200667776\\
73	0.0217853109799521\\
74	0.0157841406423355\\
75	0.0117840205767622\\
76	0.00517835818823745\\
77	0.0121418732821379\\
78	0.0207069236344982\\
79	0.0115886357838978\\
80	0.0135276979962561\\
81	0.00376721364701552\\
82	0.0029274129712978\\
83	0.00568981287377514\\
84	0.00710342853783169\\
85	0.00562935950814337\\
86	0.0105037929410031\\
87	0.0106069860901749\\
88	0.000139249641736947\\
89	0.00382110699167524\\
90	0.00336629445182063\\
91	0.00269308888683081\\
92	0.00213679859636153\\
93	0.00106158106573915\\
94	0.000558217844966554\\
95	0.00204933726705662\\
96	0.00370046679092036\\
97	0.00384414808771795\\
98	0.00214001468724326\\
99	0.00093502656446686\\
};
\addlegendentry{$\mathbf{\hat{h}_{1}}$}

\addplot [color=mycolor2]
  table[row sep=crcr]{%
0	3.35381503661988e-05\\
1	6.27597461787947e-05\\
2	1.45881261895673e-05\\
3	3.33697599370282e-05\\
4	0.000147950318718971\\
5	0.00133149429254428\\
6	0.000656715422267428\\
7	4.11771737095674e-05\\
8	8.95575955417283e-05\\
9	4.30058380832872e-05\\
10	0.000155804448540545\\
11	0.000275925979526356\\
12	0.00143549157901061\\
13	0.00117647092896264\\
14	5.26857411263392e-05\\
15	0.0060103354195065\\
16	0.00310030253047829\\
17	0.00238813087792704\\
18	0.00210486116524591\\
19	0.000992537571672182\\
20	0.00314102551453467\\
21	0.0120869382697947\\
22	0.00722108460942225\\
23	0.0183271387354098\\
24	0.00893961700741807\\
25	0.000697655402758656\\
26	0.00412160128324085\\
27	0.00142282377130305\\
28	0.0033734125596917\\
29	0.00555560286776115\\
30	0.0161644682317001\\
31	0.0784997440228691\\
32	0.0172677037519767\\
33	0.0289588194509909\\
34	0.0147788251223015\\
35	0.00940217092705391\\
36	0.00471696000795333\\
37	0.000404952613029654\\
38	0.0568469044631363\\
39	0.0769694272411256\\
40	0.0291813087176854\\
41	0.124780860046867\\
42	0.00640687383361487\\
43	0.0180550243798929\\
44	4.81917428736489e-06\\
45	0.0228314184805138\\
46	0.0248223876850669\\
47	0.0433125525724559\\
48	0.0100105877679512\\
49	0.96021996563078\\
50	0.008483425942392\\
51	0.0447416870645222\\
52	0.0250598083741439\\
53	0.0239480232562174\\
54	0.0396576898540496\\
55	0.0173893015696157\\
56	0.00460680656454589\\
57	0.125758278183837\\
58	0.0288611515506424\\
59	0.0775919863621111\\
60	0.0592768855409801\\
61	0.000186912283108114\\
62	0.00958100115400506\\
63	0.0107877836103273\\
64	0.0138398837598531\\
65	0.0279130837767992\\
66	0.0168057514467915\\
67	0.0801505575125266\\
68	0.0160819754858996\\
69	0.00556811323237645\\
70	0.00392463991599754\\
71	0.00130243425067026\\
72	0.00200523356363948\\
73	0.00114779772537738\\
74	0.00892397139299057\\
75	0.0175478688954802\\
76	0.00724301333351202\\
77	0.0137509181528819\\
78	0.00386501696889345\\
79	0.00125330206385092\\
80	0.00274037023371077\\
81	0.00381653478371313\\
82	0.00378042898880617\\
83	0.00644310471457592\\
84	9.32619535194881e-05\\
85	0.000940801332413116\\
86	0.000903877285688387\\
87	0.000590578147516238\\
88	0.00014528220720898\\
89	5.12585281261744e-05\\
90	7.33873258820803e-05\\
91	2.60153001211647e-05\\
92	0.00130343796422749\\
93	0.00153471799922513\\
94	0.000494528417906089\\
95	2.36226223161935e-05\\
96	5.615878996604e-05\\
97	0.000109558092843708\\
98	0.000242519133839373\\
99	8.1276152891303e-05\\
};
\addlegendentry{$\mathbf{\hat{h}_{2}}$}

\end{axis}
\end{tikzpicture}%