% This file was created by matlab2tikz.
%
%The latest updates can be retrieved from
%  http://www.mathworks.com/matlabcentral/fileexchange/22022-matlab2tikz-matlab2tikz
%where you can also make suggestions and rate matlab2tikz.
%
\definecolor{mycolor1}{rgb}{0.00000,0.44700,0.74100}%
\definecolor{mycolor2}{rgb}{0.85000,0.32500,0.09800}%
%
\begin{tikzpicture}

\begin{axis}[%
width=1.935in,
height=3.2in,
at={(0.758in,0.512in)},
scale only axis,
xmin=0,
xmax=100,
xlabel style={font=\color{white!15!black}, align=center},
xlabel={Sample Index\\[1ex](a) Actual},
ymin=0,
ymax=1,
axis background/.style={fill=white},
legend style={legend cell align=left, align=left, draw=white!15!black}
]
\addplot [color=mycolor1]
  table[row sep=crcr]{%
1	0.0216926152020066\\
2	0.0241183965289278\\
3	0.0267807478156139\\
4	0.0354280601095614\\
5	0.221828667704926\\
6	0.648965745595675\\
7	0.241270440438586\\
8	0.0776642628644082\\
9	0.0581044824071981\\
10	0.0611489366831747\\
11	0.0798140419847986\\
12	0.062735544320507\\
13	0.113011040425493\\
14	0.377485382687519\\
15	0.331649248845691\\
16	0.18615433793772\\
17	0.146493252817741\\
18	0.0847190801249442\\
19	0.0628278567269286\\
20	0.0148364296169451\\
21	0.0250471739922352\\
22	0.0344835915107885\\
23	0.116323790948646\\
24	0.279210940275387\\
25	0.101045410677318\\
26	0.0464379665429307\\
27	0.041398863205924\\
28	0.0263226969199998\\
29	0.0221848789960478\\
30	0.0197642774213948\\
31	0.0186496517239344\\
32	0.0219339353832985\\
33	0.018414044189717\\
34	0.00937919788338426\\
35	0.0100670783096178\\
36	0.0098135024549665\\
37	0.00937197330245933\\
38	0.00884810306396591\\
39	0.00821513429074651\\
40	0.00732026654240377\\
41	0.00945021173361951\\
42	0.0127255218727005\\
43	0.00946415089832864\\
44	0.00862800399957479\\
45	0.00816256372793386\\
46	0.00784857678072338\\
47	0.00764005346579914\\
48	0.00755773656417068\\
49	0.00776075567554332\\
50	0.00986938420958768\\
51	0.00319649311885596\\
52	0.00500292172051245\\
53	0.00524752973649041\\
54	0.00526667690567613\\
55	0.00521575322380608\\
56	0.00513704586881206\\
57	0.00504647235310817\\
58	0.00495116794332671\\
59	0.00485468351773321\\
60	0.00475890010347922\\
61	0.00466484578572566\\
62	0.00457308311118313\\
63	0.00448390798586452\\
64	0.0043974582605137\\
65	0.00431377595094964\\
66	0.00423284428954661\\
67	0.00415461047403326\\
68	0.00407899997367922\\
69	0.00400592569101114\\
70	0.00393529390404367\\
71	0.0038670081481966\\
72	0.00380097175500134\\
73	0.00373708950172093\\
74	0.00367526866536834\\
75	0.00361541967416126\\
76	0.00355745648532918\\
77	0.00350129677649243\\
78	0.00344686201027152\\
79	0.00339407741330312\\
80	0.00334287189828014\\
81	0.0032931779490063\\
82	0.00324493148246751\\
83	0.00319807169773062\\
84	0.003152540918526\\
85	0.00310828443427485\\
86	0.00306525034282854\\
87	0.00302338939712195\\
88	0.00298265485717807\\
89	0.00294300234835571\\
90	0.00290438972634362\\
91	0.0028667769491261\\
92	0.00283012595595264\\
93	0.0027944005532083\\
94	0.00275956630699144\\
95	0.0027255904421446\\
96	0.00269244174744817\\
97	0.00266009048666622\\
98	0.00262850831512411\\
99	0\\
100	0\\
};
\addlegendentry{$\mathbf{h_1}$}

\addplot [color=mycolor2]
  table[row sep=crcr]{%
1	0.00108294891904515\\
2	0.00115806441999571\\
3	0.00125656841390277\\
4	0.00139359850086552\\
5	0.00159676508941691\\
6	0.00191784013184518\\
7	0.00245777585368985\\
8	0.00342819163679349\\
9	0.00533730915065768\\
10	0.00974214709050295\\
11	0.0244449264542886\\
12	0.973731186814765\\
13	0.0500739614470277\\
14	0.0426946282907342\\
15	0.00536788790071817\\
16	0.0362080823589407\\
17	0.176144271962331\\
18	0.115663212635922\\
19	0.0234963057121139\\
20	0.0138738178597906\\
21	0.00966054585381422\\
22	0.00731818549393035\\
23	0.00584139575065055\\
24	0.0048330083027894\\
25	0.00410500747522503\\
26	0.00355723928842746\\
27	0.00313167065616096\\
28	0.00279247304593218\\
29	0.00251639833876938\\
30	0.00228774297450139\\
31	0.00209554142652578\\
32	0.00193191967393617\\
33	0.00179108704155738\\
34	0.00166869616651274\\
35	0\\
36	0\\
37	0\\
38	0\\
39	0\\
40	0\\
41	0\\
42	0\\
43	0\\
44	0\\
45	0\\
46	0\\
47	0\\
48	0\\
49	0\\
50	0\\
51	0\\
52	0\\
53	0\\
54	0\\
55	0\\
56	0\\
57	0\\
58	0\\
59	0\\
60	0\\
61	0\\
62	0\\
63	0\\
64	0\\
65	0\\
66	0\\
67	0\\
68	0\\
69	0\\
70	0\\
71	0\\
72	0\\
73	0\\
74	0\\
75	0\\
76	0\\
77	0\\
78	0\\
79	0\\
80	0\\
81	0\\
82	0\\
83	0\\
84	0\\
85	0\\
86	0\\
87	0\\
88	0\\
89	0\\
90	0\\
91	0\\
92	0\\
93	0\\
94	0\\
95	0\\
96	0\\
97	0\\
98	0\\
99	0\\
100	0\\
};
\addlegendentry{$\mathbf{h_{2}}$}

\end{axis}

\begin{axis}[%
width=1.935in,
height=3.2in,
at={(3.327in,0.512in)},
scale only axis,
xmin=0,
xmax=200,
xlabel style={font=\color{white!15!black}, align=center},
xlabel={Sample Index\\[1ex](b) Estimated},
ymin=0,
ymax=1,
axis background/.style={fill=white},
legend style={legend cell align=left, align=left, draw=white!15!black}
]
\addplot [color=mycolor1]
  table[row sep=crcr]{%
0	3.69900551952318e-05\\
1	2.40578281890479e-05\\
2	0.000118720468391124\\
3	0.000156115438668602\\
4	9.99674521190161e-05\\
5	0.000132891027164444\\
6	7.12341984066182e-05\\
7	2.41317544987746e-05\\
8	0.00017683669817674\\
9	6.5239089675518e-05\\
10	0.000218863265013156\\
11	9.55102355105158e-05\\
12	2.27428330389117e-05\\
13	1.60511091466203e-05\\
14	5.47931161241333e-05\\
15	0.000120739420264352\\
16	1.963381733866e-05\\
17	4.90232329573284e-05\\
18	4.18886563513701e-05\\
19	0.0001462053560874\\
20	0.000212659356159905\\
21	8.6638268295303e-05\\
22	8.12290778564723e-05\\
23	8.38860481978156e-05\\
24	9.93571887534302e-05\\
25	8.93582535595795e-05\\
26	4.41108849899117e-05\\
27	7.07470122423e-05\\
28	0.000178788124603853\\
29	0.000152773214089611\\
30	0.000229961327229713\\
31	5.23389528955991e-05\\
32	4.07866560100338e-05\\
33	7.35960482059715e-05\\
34	0.000132949645056432\\
35	8.28455878786034e-05\\
36	3.55249598760494e-05\\
37	0.000110943270325526\\
38	0.000128217255955302\\
39	4.10811839771483e-05\\
40	5.56985688663419e-05\\
41	7.20461516386798e-05\\
42	3.8756127581257e-05\\
43	8.75125015123946e-05\\
44	5.70722783289524e-05\\
45	5.60912663910265e-05\\
46	2.99073844084828e-05\\
47	6.12040497932745e-05\\
48	5.65615948908292e-05\\
49	5.88873959667188e-05\\
50	3.95996991008018e-05\\
51	7.14360876427874e-05\\
52	3.89811746330151e-05\\
53	0.000323887147321847\\
54	0.00011821083899607\\
55	0.000100725739561314\\
56	5.06733359516882e-05\\
57	4.21006737500258e-05\\
58	3.18659772419237e-05\\
59	0.000147083192897229\\
60	0.000111261925625789\\
61	4.15881385044474e-05\\
62	0.000180766146120268\\
63	2.57597071011444e-05\\
64	0.000275192343385396\\
65	0.000290641408486776\\
66	0.00137330033119159\\
67	0.00124617727897811\\
68	0.000101962635967465\\
69	6.43694159683579e-05\\
70	4.37060159699601e-05\\
71	0.000144999503843127\\
72	0.000277766274364685\\
73	6.3337146227018e-05\\
74	0.00849282876812446\\
75	0.0314587137255596\\
76	0.000305626670684278\\
77	0.00614264895781316\\
78	0.00149039256652518\\
79	0.00411908220319838\\
80	0.00228535984350432\\
81	0.0070010011334822\\
82	0.02686395752598\\
83	0.0608784351125101\\
84	0.0360932774987764\\
85	0.0450403385984107\\
86	0.0302989064793193\\
87	0.0260620802775454\\
88	0.081379827748017\\
89	0.0188693812657494\\
90	0.0314234332483954\\
91	0.00988586922636408\\
92	0.181892303533353\\
93	0.680666075317039\\
94	0.205647537730155\\
95	0.0272581032963242\\
96	0.119252949590258\\
97	0.0774141301829113\\
98	0.116668529859003\\
99	0.0263634998764414\\
100	0.0980118693974656\\
101	0.379369054543086\\
102	0.292123543928007\\
103	0.178522858740152\\
104	0.122947891488498\\
105	0.0738658604759388\\
106	0.0856720971775761\\
107	0.0460640907943505\\
108	0.0352966304112935\\
109	0.0599909875515233\\
110	0.131185700513631\\
111	0.268949282954451\\
112	0.0640096871840108\\
113	0.00646440486541693\\
114	0.00739687513333366\\
115	0.0144174532709229\\
116	0.0109674496614824\\
117	0.0280226919387193\\
118	0.0377590640122695\\
119	0.0599998595322743\\
120	0.0258248280787542\\
121	0.0129021117084941\\
122	0.00176008135424777\\
123	0.0169365760620846\\
124	0.0133175051857462\\
125	0.0060016279352626\\
126	0.00312003523245892\\
127	0.00658054209357643\\
128	0.0140184176832565\\
129	0.00867918610459006\\
130	0.00968349193477911\\
131	0.00353427260457516\\
132	0.00121656815275094\\
133	0.00322492998806277\\
134	0.00516537025640273\\
135	0.00475286888798969\\
136	0.00722685953992618\\
137	0.00889544859851987\\
138	0.000118186456864441\\
139	0.000539690331929186\\
140	0.00138032845124887\\
141	0.000371623093111203\\
142	0.000399721089209804\\
143	0.000105910728720343\\
144	7.74874526668486e-05\\
145	0.000108400915872994\\
146	0.000655274682835675\\
147	0.00108279532931703\\
148	0.00104240362269288\\
149	0.000274747798937744\\
150	0.000327991331387018\\
151	0.000500058844371493\\
152	7.99628175374466e-05\\
153	0.000188484104439549\\
154	0.000450064420210347\\
155	0.000109912357412675\\
156	0.000251792450173135\\
157	0.000174955513310129\\
158	0.000228742128057546\\
159	3.7625268515169e-05\\
160	5.76968892066366e-05\\
161	0.000120885315748646\\
162	6.40856610482907e-05\\
163	3.58040569491725e-05\\
164	0.00026987913353287\\
165	2.92226557893161e-05\\
166	0.000572595130559766\\
167	0.00021794243082529\\
168	0.000187340498787862\\
169	0.000175576639648599\\
170	5.23980629291742e-05\\
171	0.000110390491150914\\
172	0.000117670410463949\\
173	0.00029218586671762\\
174	3.48082303676098e-05\\
175	4.56523751624879e-05\\
176	3.896324163298e-05\\
177	0.000297507536584939\\
178	6.46117065587683e-05\\
179	7.8647239327794e-06\\
180	6.10567615455754e-05\\
181	7.11959301726326e-05\\
182	0.000210396024341999\\
183	0.000149155778732876\\
184	0.000193149797939657\\
185	0.000151519444866333\\
186	0.000260950281890277\\
187	4.93768871846929e-05\\
188	0.000106147340050312\\
189	0.00017043689654571\\
190	0.000101815843876763\\
191	8.59693104550147e-05\\
192	0.000215708111576801\\
193	0.000142871778151534\\
194	2.12227117295097e-05\\
195	4.61414640649709e-05\\
196	0.000107002072096214\\
197	0.000107069865764854\\
198	6.3645252178226e-05\\
199	7.64556662647891e-05\\
};
\addlegendentry{$\mathbf{\hat{h}_{1}}$}

\addplot [color=mycolor2]
  table[row sep=crcr]{%
0	4.89248399374377e-05\\
1	2.47230808096259e-05\\
2	1.62986535976029e-05\\
3	8.48973324702914e-05\\
4	2.07907775178603e-05\\
5	7.39534710185996e-06\\
6	5.5419585253652e-05\\
7	4.37720174977661e-05\\
8	2.96928356513258e-05\\
9	7.48898320942218e-05\\
10	4.70237876953296e-05\\
11	4.20361059571181e-05\\
12	5.0998011841204e-05\\
13	1.35673925984536e-05\\
14	6.85252649970465e-05\\
15	5.35857024456728e-05\\
16	2.3811415904438e-05\\
17	0.000145849009313106\\
18	1.8193711976085e-05\\
19	1.91285401225716e-05\\
20	1.25453451793586e-05\\
21	7.45250080663254e-05\\
22	3.49940023980303e-05\\
23	0.000102444912135373\\
24	4.10852363375764e-05\\
25	4.9312701719608e-05\\
26	4.57285123583815e-05\\
27	3.6176817018733e-05\\
28	6.33213532313038e-06\\
29	2.73937247534563e-05\\
30	5.63017224914944e-05\\
31	5.11025640350564e-05\\
32	1.09019257680169e-05\\
33	3.09835647930959e-05\\
34	7.86526604215929e-05\\
35	2.90872473919177e-05\\
36	0.000107019524409027\\
37	8.76167081613472e-06\\
38	1.23125532811704e-05\\
39	2.89336704106241e-05\\
40	5.23156921848094e-05\\
41	3.16051493526993e-05\\
42	3.72384338980604e-05\\
43	6.6766443346712e-05\\
44	7.23321067389832e-05\\
45	5.54928024427575e-05\\
46	1.22342764251937e-05\\
47	3.83957649376121e-05\\
48	3.14739315177481e-05\\
49	7.4165091422314e-05\\
50	6.92687834513372e-05\\
51	0.00015167503621743\\
52	8.11767707567619e-05\\
53	2.65086454037333e-05\\
54	2.95600440942285e-05\\
55	0.000585541204692731\\
56	0.000380521027378345\\
57	5.77279640955591e-05\\
58	6.33714980449818e-05\\
59	0.000111030393306544\\
60	4.95000588476616e-05\\
61	3.31632606984313e-05\\
62	0.00042347610329644\\
63	0.000359012378319538\\
64	3.39836704968334e-05\\
65	0.00296762777220891\\
66	0.00118918974371876\\
67	0.0010458445494181\\
68	0.00184980309487202\\
69	0.000279414516918916\\
70	0.00184783535902666\\
71	0.00901312994534394\\
72	0.00521018029767117\\
73	0.0134688423913537\\
74	0.00581258093194525\\
75	2.08914010201976e-05\\
76	0.00252402557469854\\
77	0.000223471307485539\\
78	0.00349761854330143\\
79	0.0056471849301314\\
80	0.0116323626414119\\
81	0.071516165967808\\
82	0.0133355387963051\\
83	0.0217726855863459\\
84	0.0107546943997658\\
85	0.00734958445039096\\
86	0.00692176001033355\\
87	0.000112291090443168\\
88	0.0504801039807204\\
89	0.0721842091287805\\
90	0.0245106659311649\\
91	0.114017041899797\\
92	0.00409372741936048\\
93	0.0118473307654914\\
94	0.0289330768592562\\
95	0.0190201005717448\\
96	0.0246435668171285\\
97	0.0414750648696736\\
98	0.00875851347280871\\
99	0.967443324033538\\
100	0.00799082633203581\\
101	0.0418833066286773\\
102	0.0267312551168617\\
103	0.0194693889071251\\
104	0.0294398045829622\\
105	0.0116671613252384\\
106	0.00338359854660658\\
107	0.114437996620774\\
108	0.024738083832037\\
109	0.0728413452620766\\
110	0.0519868505125057\\
111	0.000107623704595062\\
112	0.00729389183758339\\
113	0.00844065272973776\\
114	0.011807479107634\\
115	0.0222652455352333\\
116	0.0130388525408201\\
117	0.0729942658459578\\
118	0.0116290271823239\\
119	0.00542230526460645\\
120	0.00282453748535131\\
121	0.000157693912486587\\
122	0.00184129237463566\\
123	5.34331006785655e-05\\
124	0.0060294570589533\\
125	0.0124702767813851\\
126	0.00518361122947434\\
127	0.00974276853783654\\
128	0.00210768682243753\\
129	0.000542678296112679\\
130	0.00191659687620151\\
131	0.002018539838537\\
132	0.00193823753762791\\
133	0.00363642495621452\\
134	5.13481609692279e-05\\
135	0.000133913111004042\\
136	0.000436232331458057\\
137	0.000218453322906665\\
138	6.83640410837721e-05\\
139	0.000134207807764445\\
140	9.57121060904329e-05\\
141	5.78823830623562e-05\\
142	0.000667586079312252\\
143	0.000757295864563351\\
144	6.31817418154063e-05\\
145	3.2331624135413e-05\\
146	9.94825316683718e-05\\
147	0.000270976036695807\\
148	6.35234844614557e-05\\
149	7.20610572835288e-05\\
150	3.9972247176121e-05\\
151	5.72745924463068e-05\\
152	9.41340663633622e-06\\
153	8.51821048779069e-05\\
154	0.000112456175786418\\
155	0.00021386030147193\\
156	4.52857449005489e-05\\
157	2.05513274754616e-05\\
158	4.10159183715197e-05\\
159	6.47545156323519e-05\\
160	2.00300362011353e-05\\
161	8.26010641880394e-06\\
162	0.00010206249359522\\
163	2.12570722322785e-05\\
164	5.20553903347143e-05\\
165	1.19503986250827e-05\\
166	1.86076092779131e-05\\
167	7.06272438100288e-05\\
168	7.05208973890621e-05\\
169	1.16881477295567e-05\\
170	1.08850544130915e-05\\
171	4.74701202106398e-05\\
172	7.87687047711778e-05\\
173	7.10217525284616e-05\\
174	6.13095690573607e-05\\
175	0.000148311414160257\\
176	3.73368501557174e-05\\
177	6.89083049412227e-05\\
178	3.58308863854592e-06\\
179	2.07370913480802e-05\\
180	1.58979597616111e-05\\
181	0.000101025827837842\\
182	1.41129018020453e-05\\
183	0.000119932652503962\\
184	8.50199414974768e-05\\
185	2.5437636137351e-05\\
186	2.70850059536022e-05\\
187	3.89730615643389e-05\\
188	4.37469035277313e-05\\
189	8.30795183105052e-05\\
190	3.17202601391438e-05\\
191	4.89711860821736e-05\\
192	6.48037420328413e-05\\
193	1.03917098415094e-05\\
194	2.08201781337237e-05\\
195	7.573760122584e-05\\
196	2.01038733090166e-05\\
197	1.85522688029551e-05\\
198	7.03560412181411e-05\\
199	4.39529849192237e-05\\
};
\addlegendentry{$\mathbf{\hat{h}_{2}}$}

\end{axis}
\end{tikzpicture}%