% This file was created by matlab2tikz.
%
%The latest updates can be retrieved from
%  http://www.mathworks.com/matlabcentral/fileexchange/22022-matlab2tikz-matlab2tikz
%where you can also make suggestions and rate matlab2tikz.
%
\definecolor{mycolor1}{rgb}{0.00000,0.44700,0.74100}%
\definecolor{mycolor2}{rgb}{0.85000,0.32500,0.09800}%
%
\begin{tikzpicture}

\begin{axis}[%
width=1.935in,
height=3.2in,
at={(0.758in,0.512in)},
scale only axis,
xmin=0,
xmax=100,
xlabel style={font=\color{white!15!black}, align=center},
xlabel={Sample Index\\[1ex](a) Actual},
ymin=0,
ymax=1,
axis background/.style={fill=white},
legend style={legend cell align=left, align=left, draw=white!15!black}
]
\addplot [color=mycolor1]
  table[row sep=crcr]{%
1	0.0216926152020066\\
2	0.0241183965289278\\
3	0.0267807478156139\\
4	0.0354280601095614\\
5	0.221828667704926\\
6	0.648965745595675\\
7	0.241270440438586\\
8	0.0776642628644082\\
9	0.0581044824071981\\
10	0.0611489366831747\\
11	0.0798140419847986\\
12	0.062735544320507\\
13	0.113011040425493\\
14	0.377485382687519\\
15	0.331649248845691\\
16	0.18615433793772\\
17	0.146493252817741\\
18	0.0847190801249442\\
19	0.0628278567269286\\
20	0.0148364296169451\\
21	0.0250471739922352\\
22	0.0344835915107885\\
23	0.116323790948646\\
24	0.279210940275387\\
25	0.101045410677318\\
26	0.0464379665429307\\
27	0.041398863205924\\
28	0.0263226969199998\\
29	0.0221848789960478\\
30	0.0197642774213948\\
31	0.0186496517239344\\
32	0.0219339353832985\\
33	0.018414044189717\\
34	0.00937919788338426\\
35	0.0100670783096178\\
36	0.0098135024549665\\
37	0.00937197330245933\\
38	0.00884810306396591\\
39	0.00821513429074651\\
40	0.00732026654240377\\
41	0.00945021173361951\\
42	0.0127255218727005\\
43	0.00946415089832864\\
44	0.00862800399957479\\
45	0.00816256372793386\\
46	0.00784857678072338\\
47	0.00764005346579914\\
48	0.00755773656417068\\
49	0.00776075567554332\\
50	0.00986938420958768\\
51	0.00319649311885596\\
52	0.00500292172051245\\
53	0.00524752973649041\\
54	0.00526667690567613\\
55	0.00521575322380608\\
56	0.00513704586881206\\
57	0.00504647235310817\\
58	0.00495116794332671\\
59	0.00485468351773321\\
60	0.00475890010347922\\
61	0.00466484578572566\\
62	0.00457308311118313\\
63	0.00448390798586452\\
64	0.0043974582605137\\
65	0.00431377595094964\\
66	0.00423284428954661\\
67	0.00415461047403326\\
68	0.00407899997367922\\
69	0.00400592569101114\\
70	0.00393529390404367\\
71	0.0038670081481966\\
72	0.00380097175500134\\
73	0.00373708950172093\\
74	0.00367526866536834\\
75	0.00361541967416126\\
76	0.00355745648532918\\
77	0.00350129677649243\\
78	0.00344686201027152\\
79	0.00339407741330312\\
80	0.00334287189828014\\
81	0.0032931779490063\\
82	0.00324493148246751\\
83	0.00319807169773062\\
84	0.003152540918526\\
85	0.00310828443427485\\
86	0.00306525034282854\\
87	0.00302338939712195\\
88	0.00298265485717807\\
89	0.00294300234835571\\
90	0.00290438972634362\\
91	0.0028667769491261\\
92	0.00283012595595264\\
93	0.0027944005532083\\
94	0.00275956630699144\\
95	0.0027255904421446\\
96	0.00269244174744817\\
97	0.00266009048666622\\
98	0.00262850831512411\\
99	0\\
100	0\\
};
\addlegendentry{$\mathbf{h_1}$}

\addplot [color=mycolor2]
  table[row sep=crcr]{%
1	0.00108294891904515\\
2	0.00115806441999571\\
3	0.00125656841390277\\
4	0.00139359850086552\\
5	0.00159676508941691\\
6	0.00191784013184518\\
7	0.00245777585368985\\
8	0.00342819163679349\\
9	0.00533730915065768\\
10	0.00974214709050295\\
11	0.0244449264542886\\
12	0.973731186814765\\
13	0.0500739614470277\\
14	0.0426946282907342\\
15	0.00536788790071817\\
16	0.0362080823589407\\
17	0.176144271962331\\
18	0.115663212635922\\
19	0.0234963057121139\\
20	0.0138738178597906\\
21	0.00966054585381422\\
22	0.00731818549393035\\
23	0.00584139575065055\\
24	0.0048330083027894\\
25	0.00410500747522503\\
26	0.00355723928842746\\
27	0.00313167065616096\\
28	0.00279247304593218\\
29	0.00251639833876938\\
30	0.00228774297450139\\
31	0.00209554142652578\\
32	0.00193191967393617\\
33	0.00179108704155738\\
34	0.00166869616651274\\
35	0\\
36	0\\
37	0\\
38	0\\
39	0\\
40	0\\
41	0\\
42	0\\
43	0\\
44	0\\
45	0\\
46	0\\
47	0\\
48	0\\
49	0\\
50	0\\
51	0\\
52	0\\
53	0\\
54	0\\
55	0\\
56	0\\
57	0\\
58	0\\
59	0\\
60	0\\
61	0\\
62	0\\
63	0\\
64	0\\
65	0\\
66	0\\
67	0\\
68	0\\
69	0\\
70	0\\
71	0\\
72	0\\
73	0\\
74	0\\
75	0\\
76	0\\
77	0\\
78	0\\
79	0\\
80	0\\
81	0\\
82	0\\
83	0\\
84	0\\
85	0\\
86	0\\
87	0\\
88	0\\
89	0\\
90	0\\
91	0\\
92	0\\
93	0\\
94	0\\
95	0\\
96	0\\
97	0\\
98	0\\
99	0\\
100	0\\
};
\addlegendentry{$\mathbf{h_{2}}$}

\end{axis}

\begin{axis}[%
width=1.935in,
height=3.2in,
at={(3.327in,0.512in)},
scale only axis,
xmin=0,
xmax=100,
xlabel style={font=\color{white!15!black}, align=center},
xlabel={Sample Index\\[1ex](b) Estimated},
ymin=0,
ymax=0.45,
axis background/.style={fill=white},
legend style={legend cell align=left, align=left, draw=white!15!black}
]
\addplot [color=mycolor1]
  table[row sep=crcr]{%
0	0.115101228845763\\
1	0.0627521781222715\\
2	0.150846524297435\\
3	0.130742553961905\\
4	0.0510537259557386\\
5	0.102440142363388\\
6	0.0442209324114893\\
7	0.0957217312811373\\
8	0.194995081666591\\
9	0.104920483929813\\
10	0.167853569530065\\
11	0.100843540774414\\
12	0.154142620895013\\
13	0.0102938787649016\\
14	0.0459479858218682\\
15	0.114857313144249\\
16	0.0229801386930448\\
17	0.11303722672209\\
18	0.105430654982139\\
19	0.0532475114349216\\
20	0.0842713753176071\\
21	0.121820079252174\\
22	0.169503824638567\\
23	0.0495528579393656\\
24	0.0725765820754656\\
25	0.060306281338732\\
26	0.0878724042870205\\
27	0.101312205727933\\
28	0.0605456122211414\\
29	0.0777342770981715\\
30	0.111982272088515\\
31	0.0459385980441247\\
32	0.0894683569802617\\
33	0.0353581336191462\\
34	0.0799636220926431\\
35	0.148922867396592\\
36	0.104363136493745\\
37	0.0285162809923904\\
38	0.0496495703839787\\
39	0.0657638055164803\\
40	0.0807032560037304\\
41	0.0495620307475799\\
42	0.00318377618457709\\
43	0.220966771917732\\
44	0.0880441361719817\\
45	0.116763048179\\
46	0.138211614780438\\
47	0.0784465161095073\\
48	0.0633949224289377\\
49	0.169873003486105\\
50	0.121142297475282\\
51	0.145428128052513\\
52	0.0241819757257051\\
53	0.127558699495482\\
54	0.0356175740478894\\
55	0.0346434048242269\\
56	0.0815568411354774\\
57	0.0963087128179476\\
58	0.0856181441661041\\
59	0.147248820467337\\
60	0.0559425268930285\\
61	0.0720437650760654\\
62	0.0986600755492855\\
63	0.0616800874985938\\
64	0.0791461566386629\\
65	0.0323797733141916\\
66	0.0253155033614077\\
67	0.224837710923282\\
68	0.0925927647083745\\
69	0.124135360721043\\
70	0.0750392039088485\\
71	0.0755317504560558\\
72	0.124767514924269\\
73	0.044745099573893\\
74	0.177859786048677\\
75	0.127734676222084\\
76	0.0349870093259384\\
77	0.0969063209027907\\
78	0.0846976848930403\\
79	0.0421024182713009\\
80	0.0440803075584519\\
81	0.0683272893321686\\
82	0.137485155341933\\
83	0.113535121836326\\
84	0.159855378102221\\
85	0.0038766515297322\\
86	0.0566653856337166\\
87	0.0533889505963596\\
88	0.0589567758972963\\
89	0.0266498090221438\\
90	0.0252878962804294\\
91	0.110231706463156\\
92	0.0616341688381353\\
93	0.217551195153435\\
94	0.087906333534362\\
95	0.0514619447368942\\
96	0.0437223559890583\\
97	0.0659262946645703\\
98	0.0723354788383054\\
99	0.0778877457089507\\
};
\addlegendentry{$\mathbf{\hat{h}_{1}}$}

\addplot [color=mycolor2]
  table[row sep=crcr]{%
0	0.0513944859687837\\
1	0.0740543505147798\\
2	0.0541429543265514\\
3	0.0808005352841116\\
4	0.0904194080863835\\
5	0.107057071909794\\
6	0.181231567975078\\
7	0.0753678773157436\\
8	0.152235293252943\\
9	0.0746288578999945\\
10	0.155017013404321\\
11	0.0321941339759324\\
12	0.0698279425400941\\
13	0.0505476839296246\\
14	0.160324054260416\\
15	0.163069042497957\\
16	0.128755547808542\\
17	0.0622515446231688\\
18	0.0872591671030112\\
19	0.0638181963680854\\
20	0.112295374836403\\
21	0.221906277980117\\
22	0.0221822875885163\\
23	0.100248190828894\\
24	0.0825585389163601\\
25	0.0431778728196473\\
26	0.0978709051054705\\
27	0.0134450561453497\\
28	0.0358089042405282\\
29	0.0765885772589877\\
30	0.0287150254873131\\
31	0.0667332447662929\\
32	0.052121640893212\\
33	0.0460121474130009\\
34	0.0343859210305437\\
35	0.0619551495628179\\
36	0.0558492766738638\\
37	0.0150898345412389\\
38	0.0584312205123933\\
39	0.0223327241292308\\
40	0.0948632540989184\\
41	0.144443346831133\\
42	0.0713299381571823\\
43	0.0253882366047358\\
44	0.0573370898804799\\
45	0.124459490993064\\
46	0.0236931198780207\\
47	0.0161243205482267\\
48	0.0281737079635169\\
49	0.441490753988244\\
50	0.0458677511405981\\
51	0.0996251815166783\\
52	0.076976159725514\\
53	0.13295271174324\\
54	0.0618890087720309\\
55	0.0649636980950275\\
56	0.0663220622612286\\
57	0.110797680931577\\
58	0.121742855818874\\
59	0.166781705577473\\
60	0.109226870893347\\
61	0.00762334622499038\\
62	0.0594553953143915\\
63	0.045043163151463\\
64	0.0916210451497344\\
65	0.065696737656839\\
66	0.165936525523916\\
67	0.0331891857395778\\
68	0.282213051985249\\
69	0.0569924509978181\\
70	0.0409422740260309\\
71	0.0172071515890746\\
72	0.0792001597725838\\
73	0.0395990312693469\\
74	0.0893743026082335\\
75	0.132944132384262\\
76	0.0887475543297663\\
77	0.0496215157851877\\
78	0.0910767267443092\\
79	0.0133907212472223\\
80	0.0805686492552304\\
81	0.202176817065538\\
82	0.0799726702746495\\
83	0.0450333510083059\\
84	0.000808464082954493\\
85	0.0315997197090714\\
86	0.0177822836087104\\
87	0.102801884584379\\
88	0.063940307150412\\
89	0.0347990611933699\\
90	0.054376407148233\\
91	0.0705255543429375\\
92	0.0562124316386011\\
93	0.0185599250332172\\
94	0.0468823814356985\\
95	0.00530551216493632\\
96	0.0658251578065735\\
97	0.0789763330252987\\
98	0.036879674950196\\
99	0.0982823837831986\\
};
\addlegendentry{$\mathbf{\hat{h}_{2}}$}

\end{axis}
\end{tikzpicture}%