% This file was created by matlab2tikz.
%
%The latest updates can be retrieved from
%  http://www.mathworks.com/matlabcentral/fileexchange/22022-matlab2tikz-matlab2tikz
%where you can also make suggestions and rate matlab2tikz.
%
\definecolor{mycolor1}{rgb}{0.00000,0.44700,0.74100}%
\definecolor{mycolor2}{rgb}{0.85000,0.32500,0.09800}%
%
\begin{tikzpicture}

\begin{axis}[%
width=1.935in,
height=3.2in,
at={(0.758in,0.512in)},
scale only axis,
xmin=0,
xmax=150,
xlabel style={font=\color{white!15!black}, align=center},
xlabel={Sample Index\\[1ex](a) Actual},
ymin=0,
ymax=0.7,
axis background/.style={fill=white},
legend style={legend cell align=left, align=left, draw=white!15!black}
]
\addplot [color=mycolor1]
  table[row sep=crcr]{%
1	0.0234657806037261\\
2	0.0272334504034075\\
3	0.0326864300765018\\
4	0.0414541482980318\\
5	0.0586677033458464\\
6	0.117843438362983\\
7	0.159969331461504\\
8	0.174397116945152\\
9	0.616552810702634\\
10	0.0882137642931462\\
11	0.0472681903124796\\
12	0.0327587509505929\\
13	0.0272256709659274\\
14	0.0412344622245766\\
15	0.0186762848129325\\
16	0.0451940046978057\\
17	0.0153724087875252\\
18	0.0239672675363248\\
19	0.0400285717874473\\
20	0.0828333966509162\\
21	0.557624977131952\\
22	0.149414784250917\\
23	0.109138078132702\\
24	0.0381681231028791\\
25	0.032799759178118\\
26	0.191519461959093\\
27	0.0734580287558902\\
28	0.0358315656953253\\
29	0.0179563195827385\\
30	0.0169149242156914\\
31	0.0179798517146348\\
32	0.0199431506445131\\
33	0.0279225394655299\\
34	0.0908594243819801\\
35	0.0439964246924232\\
36	0.330890477505262\\
37	0.037800506563543\\
38	0.020261933748638\\
39	0.0138181229977315\\
40	0.0211497159554441\\
41	0.0112042208144458\\
42	0.00964538908702694\\
43	0.00864780826327016\\
44	0.00787736374270682\\
45	0.00720180133294831\\
46	0.00651453200193765\\
47	0.00565492088107664\\
48	0.0112814316241706\\
49	0.0075966567083061\\
50	0.0102713040739602\\
51	0.00787142060243747\\
52	0.00711780022683946\\
53	0.00668443537322835\\
54	0.00638223966522588\\
55	0.00615487020840034\\
56	0.00598242225636516\\
57	0.00586293416152974\\
58	0.00581626175933958\\
59	0.00593494184987807\\
60	0.00707647204853056\\
61	0.00861312572402681\\
62	0.00240649054353041\\
63	0.0036902508247688\\
64	0.0040125763148678\\
65	0.00408542983582614\\
66	0.00408934467211144\\
67	0.00406760360864643\\
68	0.00403657730104579\\
69	0.00400486664899167\\
70	0.00397913876457006\\
71	0.00396763365360209\\
72	0.00398577860522856\\
73	0.00407460869510253\\
74	0.00440882178496405\\
75	0.00852319154542653\\
76	0.00211982859547221\\
77	0.00279674481878385\\
78	0.00295234209521732\\
79	0.00299967450324673\\
80	0.00300734384297471\\
81	0.00299658049652506\\
82	0.00297609501762909\\
83	0.00295010695632826\\
84	0.00292089738309008\\
85	0.00288979839106794\\
86	0.00285763293534116\\
87	0.00282493110979805\\
88	0.00279204510261472\\
89	0.00275921420187501\\
90	0.00272660345813555\\
91	0.00269432766245323\\
92	0.00266246675038502\\
93	0.00263107599882434\\
94	0.00260019295165966\\
95	0.00256984222925479\\
96	0.00254003893333548\\
97	0.0025107910982644\\
98	0.00248210148178531\\
99	0.00245396889001376\\
100	0.00242638916874131\\
101	0.00239935595223708\\
102	0.00237286123354156\\
103	0.00234689580183488\\
104	0.00232144957979209\\
105	0.00229651188498403\\
106	0.00227207163310714\\
107	0.0022481174963278\\
108	0.00222463802675857\\
109	0.00220162175268604\\
110	0.00217905725339276\\
111	0.0021569332170867\\
112	0.00213523848544673\\
113	0.00211396208753109\\
114	0.00209309326520902\\
115	0.00207262149182518\\
116	0.00205253648545491\\
117	0.00203282821783402\\
118	0.00201348691983224\\
119	0.00199450308416773\\
120	0.00197586746592614\\
121	0.00195757108133911\\
122	0.0019396052051902\\
123	0.0019219613671484\\
124	0.00190463134727109\\
125	0.00188760717087541\\
126	0.00187088110293773\\
127	0.00185444564215264\\
128	0.0018382935147574\\
129	0.00182241766820821\\
130	0.00180681126477794\\
131	0.00179146767513212\\
132	0.00177638047192757\\
133	0.00176154342347035\\
134	0.00174695048746156\\
135	0.0017325958048528\\
136	0.00171847369382931\\
137	0.00170457864393352\\
138	0.0016909053103386\\
139	0.00167744850827835\\
140	0.00166420320763913\\
141	0.00165116452771496\\
142	0.00163832773212761\\
143	0.00162568822391149\\
144	0.00161324154076111\\
145	0.0016009833504405\\
146	0.00158890944635072\\
147	0.00157701574325256\\
148	0.00156529827314105\\
149	0\\
150	0\\
};
\addlegendentry{$\mathbf{h_1}$}

\addplot [color=mycolor2]
  table[row sep=crcr]{%
1	0.019775303219206\\
2	0.0210217764534023\\
3	0.0224372323963497\\
4	0.024058742711813\\
5	0.0259351263737046\\
6	0.0281320174688059\\
7	0.0307398096072034\\
8	0.0338865833958781\\
9	0.0377600935275399\\
10	0.0426472101764649\\
11	0.0490094599986528\\
12	0.0576401827385178\\
13	0.0700288298559564\\
14	0.0893407156606893\\
15	0.123700774100431\\
16	0.202175033398071\\
17	0.564479813098353\\
18	0.690442426104836\\
19	0.212260509632627\\
20	0.126132345068284\\
21	0.100380135781766\\
22	0.0378663697499036\\
23	0.0333199748773482\\
24	0.0149453064107011\\
25	0.10083899339379\\
26	0.161002397050911\\
27	0.0405118251764787\\
28	0.0383644765554957\\
29	0.0341227495803863\\
30	0.0306469105251072\\
31	0.0278570926171954\\
32	0.0255709383506331\\
33	0.0236574529195357\\
34	0.0220274984760589\\
35	0.0206190941704396\\
36	0.0193877726649002\\
37	0.0183006807256663\\
38	0.0173329207549748\\
39	0.016465211935799\\
40	0.0156823459816501\\
41	0.0149721364414517\\
42	0.0143246843629073\\
43	0.0137318527665838\\
44	0.0131868826449622\\
45	0.0126841071808284\\
46	0.0122187355837443\\
47	0.0117866872087634\\
48	0.0113844626077037\\
49	0.0110090421200206\\
50	0.0106578052804057\\
51	0\\
52	0\\
53	0\\
54	0\\
55	0\\
56	0\\
57	0\\
58	0\\
59	0\\
60	0\\
61	0\\
62	0\\
63	0\\
64	0\\
65	0\\
66	0\\
67	0\\
68	0\\
69	0\\
70	0\\
71	0\\
72	0\\
73	0\\
74	0\\
75	0\\
76	0\\
77	0\\
78	0\\
79	0\\
80	0\\
81	0\\
82	0\\
83	0\\
84	0\\
85	0\\
86	0\\
87	0\\
88	0\\
89	0\\
90	0\\
91	0\\
92	0\\
93	0\\
94	0\\
95	0\\
96	0\\
97	0\\
98	0\\
99	0\\
100	0\\
101	0\\
102	0\\
103	0\\
104	0\\
105	0\\
106	0\\
107	0\\
108	0\\
109	0\\
110	0\\
111	0\\
112	0\\
113	0\\
114	0\\
115	0\\
116	0\\
117	0\\
118	0\\
119	0\\
120	0\\
121	0\\
122	0\\
123	0\\
124	0\\
125	0\\
126	0\\
127	0\\
128	0\\
129	0\\
130	0\\
131	0\\
132	0\\
133	0\\
134	0\\
135	0\\
136	0\\
137	0\\
138	0\\
139	0\\
140	0\\
141	0\\
142	0\\
143	0\\
144	0\\
145	0\\
146	0\\
147	0\\
148	0\\
149	0\\
150	0\\
};
\addlegendentry{$\mathbf{h_{2}}$}

\end{axis}

\begin{axis}[%
width=1.935in,
height=3.2in,
at={(3.327in,0.512in)},
scale only axis,
xmin=0,
xmax=150,
xlabel style={font=\color{white!15!black}, align=center},
xlabel={Sample Index\\[1ex](b) Estimated},
ymin=0,
ymax=0.5,
axis background/.style={fill=white},
legend style={legend cell align=left, align=left, draw=white!15!black}
]
\addplot [color=mycolor1]
  table[row sep=crcr]{%
0	0.0278012398317732\\
1	0.0087578487732088\\
2	0.0868538139970005\\
3	0.0510604415607072\\
4	0.0906786113946025\\
5	0.0664235129574296\\
6	0.107739339711899\\
7	0.027085521934702\\
8	0.0229956589974142\\
9	0.079531663453203\\
10	0.121175084226025\\
11	0.136298575868772\\
12	0.0600374668090033\\
13	0.0351771598066158\\
14	0.0277311310721208\\
15	0.105234753643437\\
16	0.0172365253206196\\
17	0.0410873211853411\\
18	0.0707482735542799\\
19	0.0216066266433244\\
20	0.0341063746509947\\
21	0.0560406928126347\\
22	0.110111268909546\\
23	0.0713499289861362\\
24	0.0883014799406149\\
25	0.0687619051432374\\
26	0.0320602712996434\\
27	0.038698432006186\\
28	0.114876040225359\\
29	0.0829393826562205\\
30	0.00780133944673632\\
31	0.103912141226919\\
32	0.0417229631804748\\
33	0.12020971008984\\
34	0.0453439560298393\\
35	0.00738626317869392\\
36	0.0654872755909709\\
37	0.0780144273345426\\
38	0.0667796021344889\\
39	0.0487898004532073\\
40	0.152448583853474\\
41	0.00733391240447731\\
42	0.0285190315189213\\
43	0.0740618178809263\\
44	0.0473248291414044\\
45	0.0606740158555801\\
46	0.0268516461105307\\
47	0.15126975286191\\
48	0.10706376597506\\
49	0.181684723358249\\
50	0.0272718218864728\\
51	0.0176541984675745\\
52	0.0406658126462011\\
53	0.187559031811801\\
54	0.0942915689633569\\
55	0.0113379749468981\\
56	0.100417547240037\\
57	0.0193764604481671\\
58	0.103053325037726\\
59	0.035231312927355\\
60	0.144045446159295\\
61	0.0521894203105973\\
62	0.0266830767495212\\
63	0.128486565968622\\
64	0.0756872455409902\\
65	0.171989021283667\\
66	0.11868718402349\\
67	0.0516539167818452\\
68	0.0526846631299999\\
69	0.100157733804181\\
70	0.0749999494311371\\
71	0.0977947331267572\\
72	0.0621137388003702\\
73	0.121842049470402\\
74	0.0139446228312167\\
75	0.138583439715493\\
76	0.0427043362438932\\
77	0.0976949751496175\\
78	0.122917253150946\\
79	0.11323709786012\\
80	0.165204332920435\\
81	0.0833206342115445\\
82	0.0783444655679132\\
83	0.0337635537828738\\
84	0.0239768411365017\\
85	0.188855042109561\\
86	0.119011825805313\\
87	0.0145386083485678\\
88	0.0297614644831928\\
89	0.0521035637861558\\
90	0.0824942067675831\\
91	0.00329168986250483\\
92	0.146238827126072\\
93	0.0305617362455035\\
94	0.0662743065765886\\
95	0.139268185038602\\
96	0.0527887762751601\\
97	0.125219411885164\\
98	0.0360997599335273\\
99	0.0914989239127039\\
100	0.0639611690544796\\
101	0.0733840175384523\\
102	0.0784773280841781\\
103	0.0767800187169231\\
104	0.0601827805750598\\
105	0.0919880092254541\\
106	0.032980364352493\\
107	0.0868215014944416\\
108	0.109595788359313\\
109	0.055088538754724\\
110	0.0715588980423633\\
111	0.057430560601197\\
112	0.0817299438108389\\
113	0.0895630333486001\\
114	0.0519260979959333\\
115	0.096818328149788\\
116	0.0376282814240553\\
117	0.0392151659208915\\
118	0.111457333494698\\
119	0.0458892393462056\\
120	0.0737839854084592\\
121	0.0369644048602926\\
122	0.0810324984606902\\
123	0.011820172549882\\
124	0.0546392662520537\\
125	0.054780554817143\\
126	0.0266499267565859\\
127	0.084501962676813\\
128	0.0875097218699033\\
129	0.086026060708385\\
130	0.141907167401372\\
131	0.0319692802007986\\
132	0.112961774982373\\
133	0.0212595504994412\\
134	0.105193561303624\\
135	0.0771880849401755\\
136	0.0464941878994493\\
137	0.0628575548263057\\
138	0.0598170426797714\\
139	0.0220257929463846\\
140	0.0344407049667056\\
141	0.044192606773627\\
142	0.0219324416049684\\
143	0.0906696269755085\\
144	0.0532813226015255\\
145	0.0470274910631726\\
146	0.0845420205989531\\
147	0.0686140658867259\\
148	0.00325029391929195\\
149	0.0792366459185894\\
};
\addlegendentry{$\mathbf{\hat{h}_{1}}$}

\addplot [color=mycolor2]
  table[row sep=crcr]{%
0	0.0403885598759826\\
1	0.0709419075816424\\
2	0.0325267211062018\\
3	0.0213636817011819\\
4	0.0109016043078181\\
5	0.0923947285616289\\
6	0.0419702562916688\\
7	0.0525189810408487\\
8	0.011166865381638\\
9	0.0971849325783906\\
10	0.0635697083089991\\
11	0.0236107723188418\\
12	0.0425110019774267\\
13	0.0515308328177121\\
14	0.0818031753308549\\
15	0.0396040407962722\\
16	0.00646128946761732\\
17	0.011416400864801\\
18	0.0752925649719696\\
19	0.0618798723301241\\
20	0.0260189929181217\\
21	0.0397382737956272\\
22	0.0296262678145402\\
23	0.0535446006811082\\
24	0.03858211037973\\
25	0.072068549479719\\
26	0.00641454098050836\\
27	0.0315018083813557\\
28	0.0535464096754659\\
29	0.0594518241086365\\
30	0.0728761732018456\\
31	0.126490414015763\\
32	0.018494317773114\\
33	0.0174737147202221\\
34	0.0672764260010701\\
35	0.00913567269579062\\
36	0.0830810664008725\\
37	0.0585474322877006\\
38	0.0772961969763379\\
39	0.144084778240078\\
40	0.0610330254248098\\
41	0.0679320964069713\\
42	0.14061298678655\\
43	0.17756108098761\\
44	0.0410339814041375\\
45	0.0767307756333159\\
46	0.058903901308793\\
47	0.0517034794577705\\
48	0.0112302553567197\\
49	0.0335110223559289\\
50	0.126172361430094\\
51	0.0512579365371527\\
52	0.0213754408480045\\
53	0.0603203569558214\\
54	0.117173195326468\\
55	0.0637936122847187\\
56	0.0225432128041422\\
57	0.121289963911652\\
58	0.0259867879083327\\
59	0.128091686366869\\
60	0.0418040199649638\\
61	0.0665835329701265\\
62	0.155366143467376\\
63	0.0361724527473511\\
64	0.0535773629305415\\
65	0.0252074444393029\\
66	0.0502560541154667\\
67	0.143652446626101\\
68	0.0562627279969629\\
69	0.108680737962646\\
70	0.00795711039642477\\
71	0.10023556364266\\
72	0.0557020494872489\\
73	0.130328324588488\\
74	0.482849333743619\\
75	0.0642110843137749\\
76	0.153376992859279\\
77	0.057678717269534\\
78	0.0619176198931004\\
79	0.104840765728056\\
80	0.00477995859710517\\
81	0.043848352770321\\
82	0.0137099229615731\\
83	0.0421352468618582\\
84	0.0166347956077569\\
85	0.0586565795241894\\
86	0.102671001651885\\
87	0.112353127751491\\
88	0.0108114823710533\\
89	0.062941664596079\\
90	0.00788354889114676\\
91	0.0495817347867541\\
92	0.0338805355623019\\
93	0.0781142348279687\\
94	0.0742382000441433\\
95	0.0963586441525693\\
96	0.0174947604828628\\
97	0.0602946478428463\\
98	0.060517001791507\\
99	0.0585802077320013\\
100	0.0719064454540226\\
101	0.00549450083184271\\
102	0.0043910377475749\\
103	0.0356577118027957\\
104	0.0864836207562246\\
105	0.115357753760433\\
106	0.0637989858526852\\
107	0.117293878173917\\
108	0.109168689821967\\
109	0.0544359706650028\\
110	0.0836821990458478\\
111	0.0562420395269084\\
112	0.146686621090358\\
113	0.15039837885687\\
114	0.0930780696823093\\
115	0.0708817429535858\\
116	0.059180373788517\\
117	0.0686020135269451\\
118	0.0929427265541917\\
119	0.074720351464811\\
120	0.0142267061081657\\
121	0.0267354887689788\\
122	0.0251244070986605\\
123	0.0324062707501243\\
124	0.0412002957256564\\
125	0.0165014684355336\\
126	0.0838112335694491\\
127	0.0767595702622543\\
128	0.100820184263898\\
129	0.0370953716335007\\
130	0.0140152252829575\\
131	0.089949802753641\\
132	0.00895991628395939\\
133	0.0339731005557839\\
134	0.0494450816761977\\
135	0.0397065910455314\\
136	0.145390667962395\\
137	0.0457759475899337\\
138	0.0224805416351578\\
139	0.0182123433404013\\
140	0.0794640337912458\\
141	0.111613173952508\\
142	0.0552063272758895\\
143	0.096287620976222\\
144	0.0614935073184719\\
145	0.0339965684038819\\
146	0.0424775904537663\\
147	0.0501076189705514\\
148	0.014388909480452\\
149	0.0224187280538339\\
};
\addlegendentry{$\mathbf{\hat{h}_{2}}$}

\end{axis}
\end{tikzpicture}%