% This file was created by matlab2tikz.
%
%The latest updates can be retrieved from
%  http://www.mathworks.com/matlabcentral/fileexchange/22022-matlab2tikz-matlab2tikz
%where you can also make suggestions and rate matlab2tikz.
%
\definecolor{mycolor1}{rgb}{0.00000,0.44700,0.74100}%
\definecolor{mycolor2}{rgb}{0.85000,0.32500,0.09800}%
%
\begin{tikzpicture}

\begin{axis}[%
width=1.935in,
height=3.2in,
at={(0.758in,0.512in)},
scale only axis,
xmin=0,
xmax=150,
xlabel style={font=\color{white!15!black}, align=center},
xlabel={Sample Index\\[1ex](a) Actual},
ymin=0,
ymax=0.7,
axis background/.style={fill=white},
legend style={legend cell align=left, align=left, draw=white!15!black}
]
\addplot [color=mycolor1]
  table[row sep=crcr]{%
1	0.0234657806037261\\
2	0.0272334504034075\\
3	0.0326864300765018\\
4	0.0414541482980318\\
5	0.0586677033458464\\
6	0.117843438362983\\
7	0.159969331461504\\
8	0.174397116945152\\
9	0.616552810702634\\
10	0.0882137642931462\\
11	0.0472681903124796\\
12	0.0327587509505929\\
13	0.0272256709659274\\
14	0.0412344622245766\\
15	0.0186762848129325\\
16	0.0451940046978057\\
17	0.0153724087875252\\
18	0.0239672675363248\\
19	0.0400285717874473\\
20	0.0828333966509162\\
21	0.557624977131952\\
22	0.149414784250917\\
23	0.109138078132702\\
24	0.0381681231028791\\
25	0.032799759178118\\
26	0.191519461959093\\
27	0.0734580287558902\\
28	0.0358315656953253\\
29	0.0179563195827385\\
30	0.0169149242156914\\
31	0.0179798517146348\\
32	0.0199431506445131\\
33	0.0279225394655299\\
34	0.0908594243819801\\
35	0.0439964246924232\\
36	0.330890477505262\\
37	0.037800506563543\\
38	0.020261933748638\\
39	0.0138181229977315\\
40	0.0211497159554441\\
41	0.0112042208144458\\
42	0.00964538908702694\\
43	0.00864780826327016\\
44	0.00787736374270682\\
45	0.00720180133294831\\
46	0.00651453200193765\\
47	0.00565492088107664\\
48	0.0112814316241706\\
49	0.0075966567083061\\
50	0.0102713040739602\\
51	0.00787142060243747\\
52	0.00711780022683946\\
53	0.00668443537322835\\
54	0.00638223966522588\\
55	0.00615487020840034\\
56	0.00598242225636516\\
57	0.00586293416152974\\
58	0.00581626175933958\\
59	0.00593494184987807\\
60	0.00707647204853056\\
61	0.00861312572402681\\
62	0.00240649054353041\\
63	0.0036902508247688\\
64	0.0040125763148678\\
65	0.00408542983582614\\
66	0.00408934467211144\\
67	0.00406760360864643\\
68	0.00403657730104579\\
69	0.00400486664899167\\
70	0.00397913876457006\\
71	0.00396763365360209\\
72	0.00398577860522856\\
73	0.00407460869510253\\
74	0.00440882178496405\\
75	0.00852319154542653\\
76	0.00211982859547221\\
77	0.00279674481878385\\
78	0.00295234209521732\\
79	0.00299967450324673\\
80	0.00300734384297471\\
81	0.00299658049652506\\
82	0.00297609501762909\\
83	0.00295010695632826\\
84	0.00292089738309008\\
85	0.00288979839106794\\
86	0.00285763293534116\\
87	0.00282493110979805\\
88	0.00279204510261472\\
89	0.00275921420187501\\
90	0.00272660345813555\\
91	0.00269432766245323\\
92	0.00266246675038502\\
93	0.00263107599882434\\
94	0.00260019295165966\\
95	0.00256984222925479\\
96	0.00254003893333548\\
97	0.0025107910982644\\
98	0.00248210148178531\\
99	0.00245396889001376\\
100	0.00242638916874131\\
101	0.00239935595223708\\
102	0.00237286123354156\\
103	0.00234689580183488\\
104	0.00232144957979209\\
105	0.00229651188498403\\
106	0.00227207163310714\\
107	0.0022481174963278\\
108	0.00222463802675857\\
109	0.00220162175268604\\
110	0.00217905725339276\\
111	0.0021569332170867\\
112	0.00213523848544673\\
113	0.00211396208753109\\
114	0.00209309326520902\\
115	0.00207262149182518\\
116	0.00205253648545491\\
117	0.00203282821783402\\
118	0.00201348691983224\\
119	0.00199450308416773\\
120	0.00197586746592614\\
121	0.00195757108133911\\
122	0.0019396052051902\\
123	0.0019219613671484\\
124	0.00190463134727109\\
125	0.00188760717087541\\
126	0.00187088110293773\\
127	0.00185444564215264\\
128	0.0018382935147574\\
129	0.00182241766820821\\
130	0.00180681126477794\\
131	0.00179146767513212\\
132	0.00177638047192757\\
133	0.00176154342347035\\
134	0.00174695048746156\\
135	0.0017325958048528\\
136	0.00171847369382931\\
137	0.00170457864393352\\
138	0.0016909053103386\\
139	0.00167744850827835\\
140	0.00166420320763913\\
141	0.00165116452771496\\
142	0.00163832773212761\\
143	0.00162568822391149\\
144	0.00161324154076111\\
145	0.0016009833504405\\
146	0.00158890944635072\\
147	0.00157701574325256\\
148	0.00156529827314105\\
149	0\\
150	0\\
};
\addlegendentry{$\mathbf{h_1}$}

\addplot [color=mycolor2]
  table[row sep=crcr]{%
1	0.019775303219206\\
2	0.0210217764534023\\
3	0.0224372323963497\\
4	0.024058742711813\\
5	0.0259351263737046\\
6	0.0281320174688059\\
7	0.0307398096072034\\
8	0.0338865833958781\\
9	0.0377600935275399\\
10	0.0426472101764649\\
11	0.0490094599986528\\
12	0.0576401827385178\\
13	0.0700288298559564\\
14	0.0893407156606893\\
15	0.123700774100431\\
16	0.202175033398071\\
17	0.564479813098353\\
18	0.690442426104836\\
19	0.212260509632627\\
20	0.126132345068284\\
21	0.100380135781766\\
22	0.0378663697499036\\
23	0.0333199748773482\\
24	0.0149453064107011\\
25	0.10083899339379\\
26	0.161002397050911\\
27	0.0405118251764787\\
28	0.0383644765554957\\
29	0.0341227495803863\\
30	0.0306469105251072\\
31	0.0278570926171954\\
32	0.0255709383506331\\
33	0.0236574529195357\\
34	0.0220274984760589\\
35	0.0206190941704396\\
36	0.0193877726649002\\
37	0.0183006807256663\\
38	0.0173329207549748\\
39	0.016465211935799\\
40	0.0156823459816501\\
41	0.0149721364414517\\
42	0.0143246843629073\\
43	0.0137318527665838\\
44	0.0131868826449622\\
45	0.0126841071808284\\
46	0.0122187355837443\\
47	0.0117866872087634\\
48	0.0113844626077037\\
49	0.0110090421200206\\
50	0.0106578052804057\\
51	0\\
52	0\\
53	0\\
54	0\\
55	0\\
56	0\\
57	0\\
58	0\\
59	0\\
60	0\\
61	0\\
62	0\\
63	0\\
64	0\\
65	0\\
66	0\\
67	0\\
68	0\\
69	0\\
70	0\\
71	0\\
72	0\\
73	0\\
74	0\\
75	0\\
76	0\\
77	0\\
78	0\\
79	0\\
80	0\\
81	0\\
82	0\\
83	0\\
84	0\\
85	0\\
86	0\\
87	0\\
88	0\\
89	0\\
90	0\\
91	0\\
92	0\\
93	0\\
94	0\\
95	0\\
96	0\\
97	0\\
98	0\\
99	0\\
100	0\\
101	0\\
102	0\\
103	0\\
104	0\\
105	0\\
106	0\\
107	0\\
108	0\\
109	0\\
110	0\\
111	0\\
112	0\\
113	0\\
114	0\\
115	0\\
116	0\\
117	0\\
118	0\\
119	0\\
120	0\\
121	0\\
122	0\\
123	0\\
124	0\\
125	0\\
126	0\\
127	0\\
128	0\\
129	0\\
130	0\\
131	0\\
132	0\\
133	0\\
134	0\\
135	0\\
136	0\\
137	0\\
138	0\\
139	0\\
140	0\\
141	0\\
142	0\\
143	0\\
144	0\\
145	0\\
146	0\\
147	0\\
148	0\\
149	0\\
150	0\\
};
\addlegendentry{$\mathbf{h_{2}}$}

\end{axis}

\begin{axis}[%
width=1.935in,
height=3.2in,
at={(3.327in,0.512in)},
scale only axis,
xmin=0,
xmax=150,
xlabel style={font=\color{white!15!black}, align=center},
xlabel={Sample Index\\[1ex](b) Estimated},
ymin=0,
ymax=1,
axis background/.style={fill=white},
legend style={legend cell align=left, align=left, draw=white!15!black}
]
\addplot [color=mycolor1]
  table[row sep=crcr]{%
0	6.52406015703866e-05\\
1	6.2798585675141e-05\\
2	3.24392146300054e-05\\
3	6.11897846949779e-05\\
4	2.66072878062863e-05\\
5	0.000147641525048438\\
6	9.54238833784231e-05\\
7	8.11703478043611e-05\\
8	1.82060476824744e-05\\
9	4.45703200640404e-05\\
10	0.000218773262382586\\
11	5.43619602472643e-05\\
12	0.000310929399494139\\
13	0.000169028859364438\\
14	0.00013987210160045\\
15	0.000229412462566461\\
16	0.00032528672637066\\
17	0.000148998846103604\\
18	5.26719082631168e-05\\
19	0.000193361481331592\\
20	0.000101347738782618\\
21	0.000926010292143627\\
22	0.000114546261784409\\
23	0.000131298667741939\\
24	0.00521366478416063\\
25	3.93833108960983e-05\\
26	0.00192600177248132\\
27	5.49521145018867e-05\\
28	0.000169302744795466\\
29	0.000400205672955215\\
30	0.000227567160538973\\
31	0.00202358851469076\\
32	0.00278130964507364\\
33	0.00587307865636149\\
34	0.00815630952524785\\
35	0.00525665452993958\\
36	0.00871426528943959\\
37	0.0168421172545777\\
38	0.0238688834477863\\
39	0.0188906077879699\\
40	0.0118677608958214\\
41	0.0181444135156051\\
42	0.00378359973638424\\
43	0.00922421068887644\\
44	0.00996944951050883\\
45	0.0139863961548649\\
46	0.000812854609166536\\
47	0.01064435694012\\
48	0.0230301989364636\\
49	0.00788002321243682\\
50	0.0365754823207582\\
51	0.0922624954087613\\
52	0.0318302085219197\\
53	0.0251859726596178\\
54	0.0532432878841517\\
55	0.011137793961796\\
56	0.0180095802531444\\
57	0.100138859882502\\
58	0.0272522334361519\\
59	0.0332947113694875\\
60	0.0368617999574378\\
61	0.029330794529124\\
62	0.048411999294767\\
63	0.145719213470661\\
64	0.0354115714539761\\
65	0.477791209724675\\
66	0.399082334859577\\
67	0.106748799819557\\
68	0.0936470647088194\\
69	0.0303569928488481\\
70	0.092069808760232\\
71	0.0331459622558925\\
72	0.0539210857342839\\
73	0.0212180405449798\\
74	0.0868723953764056\\
75	0.0973018365551887\\
76	0.122799889362531\\
77	0.248493189033771\\
78	0.468421777313029\\
79	0.190514031214044\\
80	0.0806636915461283\\
81	0.0778658916796188\\
82	0.103725647931329\\
83	0.0997840348856683\\
84	0.104544201426819\\
85	0.0273666109324053\\
86	0.0363465892489794\\
87	0.0388959685503461\\
88	0.0261568971109215\\
89	0.0390851075365437\\
90	0.112020954550543\\
91	0.102180746269897\\
92	0.276867138974403\\
93	0.0990687551519453\\
94	0.034664787405442\\
95	0.0510492992834042\\
96	0.0156816193893663\\
97	0.00725633206540702\\
98	0.0161172480350961\\
99	0.0153169001825062\\
100	0.0240472973493395\\
101	0.00365912908585039\\
102	0.0205762364986889\\
103	0.0270779899357844\\
104	0.0599357345235617\\
105	0.0380293929584299\\
106	0.00017905828468713\\
107	0.0272613666260691\\
108	0.000843804473680769\\
109	0.00434077993097339\\
110	0.00619768790503204\\
111	0.000722611252886632\\
112	0.00183550112629538\\
113	0.0015723046731889\\
114	0.000114405037863637\\
115	0.00255905996057558\\
116	0.000220462717056648\\
117	0.019715466911698\\
118	0.00484462587730251\\
119	0.00561436334752534\\
120	0.00321458356348909\\
121	0.00123358383475753\\
122	0.000755555783813725\\
123	0.000106888750663464\\
124	0.00105922504511202\\
125	0.000206439767147624\\
126	0.000136740064916836\\
127	9.56143561289087e-05\\
128	6.81544164557499e-05\\
129	0.000480166438375343\\
130	0.000602633342943601\\
131	0.000881579928823601\\
132	0.000673901673463934\\
133	2.50037999388962e-05\\
134	0.000459651543602356\\
135	2.83218482524984e-05\\
136	1.30988207421568e-05\\
137	4.09585906620557e-05\\
138	7.62141253538565e-05\\
139	7.78330958610264e-05\\
140	0.000102434400180854\\
141	4.82893275018855e-05\\
142	3.36699054659077e-05\\
143	0.000110180147168327\\
144	0.00020100977785664\\
145	2.35876001480616e-05\\
146	8.32430856280931e-05\\
147	0.000124096942783126\\
148	6.67394302763975e-05\\
149	0.000115544888534636\\
};
\addlegendentry{$\mathbf{\hat{h}_{1}}$}

\addplot [color=mycolor2]
  table[row sep=crcr]{%
0	7.3899212822673e-05\\
1	6.39055242205607e-05\\
2	1.41639157631888e-05\\
3	2.42201597016467e-05\\
4	4.52570971473307e-05\\
5	0.000104500801013375\\
6	8.23468772836121e-05\\
7	3.16092711509666e-05\\
8	0.000306013419540549\\
9	6.22456049053776e-05\\
10	2.25484532199589e-05\\
11	6.40624073319944e-05\\
12	9.00656130272506e-05\\
13	9.06641960041311e-05\\
14	5.73917711171191e-05\\
15	5.2386783896099e-05\\
16	0.000248477393985323\\
17	0.000312310701395442\\
18	0.000241249391781493\\
19	0.00122158677476147\\
20	0.0024173935633466\\
21	2.04513367220817e-05\\
22	0.00302060629165095\\
23	0.000963761753691726\\
24	0.000809097879225889\\
25	0.000187339898443229\\
26	0.000134620097877121\\
27	0.000686205439291134\\
28	0.000106586684360156\\
29	0.000355415283986102\\
30	0.0045937862177311\\
31	9.4260871174721e-06\\
32	0.0062608918095608\\
33	0.0122301414884381\\
34	0.00840033378286458\\
35	0.011218481735225\\
36	0.00170259291124008\\
37	0.00869381329320783\\
38	0.00350625384438488\\
39	0.000145300843780316\\
40	0.00454660295357389\\
41	0.00568176345891278\\
42	0.00897507802777254\\
43	0.00232742618996934\\
44	0.00112378891490069\\
45	0.0204930152786639\\
46	0.0107925168591443\\
47	0.0550711094643363\\
48	0.0115606727147457\\
49	0.0296588856934965\\
50	0.0160501444093475\\
51	0.00993725967749173\\
52	0.000441479571418088\\
53	0.00234293681345159\\
54	0.0107375134672701\\
55	0.00716251398564413\\
56	0.00895083792632735\\
57	0.0318198303914066\\
58	0.0229477778586626\\
59	0.0611851733658883\\
60	0.0326045680090857\\
61	0.0466582058399009\\
62	0.132217305618912\\
63	0.0276327190855312\\
64	0.0291588304626764\\
65	0.0073297394949064\\
66	4.82202311897902e-06\\
67	0.0198683884463733\\
68	0.0205351482928976\\
69	0.00995695561875508\\
70	0.0142552710688562\\
71	0.0285343311004754\\
72	0.0384897254916436\\
73	0.0357100157473988\\
74	0.960787374073072\\
75	0.0351285606277831\\
76	0.0372340555214609\\
77	0.0279334084979896\\
78	0.0129485902490559\\
79	0.0109521722422656\\
80	0.019992028974542\\
81	0.0202242498150481\\
82	0.0264164754012352\\
83	0.00735125725592036\\
84	0.0282317088298961\\
85	0.0274489384384062\\
86	0.131648462546888\\
87	0.0473092918357561\\
88	0.0317242728058481\\
89	0.0625014078129243\\
90	0.0233338918939107\\
91	0.0332834423358125\\
92	0.00907613361704431\\
93	0.00714779337860126\\
94	0.0101535250217461\\
95	0.0031622632323434\\
96	0.000550336831354687\\
97	0.00775062868947628\\
98	0.0149205497711722\\
99	0.0288240858644514\\
100	0.0113512300289254\\
101	0.0557860658977317\\
102	0.0105059919467653\\
103	0.0197968444684058\\
104	0.00151789960921085\\
105	0.00244244102709512\\
106	0.00912828507567835\\
107	0.00556256831646153\\
108	0.00464677200777944\\
109	0.00103947530964664\\
110	0.00322087915910307\\
111	0.00767111317816481\\
112	0.00201529148181544\\
113	0.0100911813943987\\
114	0.00819055811999077\\
115	0.0125765177960511\\
116	0.00746042916126605\\
117	1.88940608439423e-05\\
118	0.00471813837172611\\
119	0.000745459533660264\\
120	0.000184101909009447\\
121	0.000868269380153015\\
122	0.000105972943893261\\
123	0.000346806783164547\\
124	0.000738448360207968\\
125	0.000994754607165899\\
126	0.00281394839261172\\
127	4.10498011694493e-05\\
128	0.00211578338235963\\
129	0.00131412948278742\\
130	0.000300106424492327\\
131	0.000144078374798767\\
132	0.000183465927657434\\
133	4.3592832588495e-05\\
134	7.1902519067264e-05\\
135	7.29972859121125e-05\\
136	7.70625825453934e-05\\
137	4.40993974961283e-05\\
138	2.52680800175005e-05\\
139	5.39552911162837e-05\\
140	0.000406640532629336\\
141	3.60948007614516e-05\\
142	0.000116946225069406\\
143	9.38180364078324e-05\\
144	4.22312361248439e-05\\
145	3.78237668683243e-05\\
146	8.66340709561888e-06\\
147	6.52048107177896e-05\\
148	7.0670893793295e-05\\
149	9.32345905848487e-05\\
};
\addlegendentry{$\mathbf{\hat{h}_{2}}$}

\end{axis}
\end{tikzpicture}%