% This file was created by matlab2tikz.
%
%The latest updates can be retrieved from
%  http://www.mathworks.com/matlabcentral/fileexchange/22022-matlab2tikz-matlab2tikz
%where you can also make suggestions and rate matlab2tikz.
%
\definecolor{mycolor1}{rgb}{0.00000,0.44700,0.74100}%
\definecolor{mycolor2}{rgb}{0.85000,0.32500,0.09800}%
%
\begin{tikzpicture}

\begin{axis}[%
width=1.935in,
height=3.2in,
at={(0.758in,0.512in)},
scale only axis,
xmin=0,
xmax=200,
xlabel style={font=\color{white!15!black}, align=center},
xlabel={Sample Index\\[1ex](a) Actual},
ymin=0,
ymax=1,
axis background/.style={fill=white},
legend style={legend cell align=left, align=left, draw=white!15!black}
]
\addplot [color=mycolor1]
  table[row sep=crcr]{%
1	0.0167418731260698\\
2	0.018659722218203\\
3	0.0211495716349754\\
4	0.0245407494314006\\
5	0.029505643974117\\
6	0.0377161636169434\\
7	0.0550750576238134\\
8	0.131028403455825\\
9	0.141533477104454\\
10	0.158175166246243\\
11	0.163761757297189\\
12	0.600100605556833\\
13	0.118033417583129\\
14	0.0610914209628117\\
15	0.0426162246246858\\
16	0.0332715711707656\\
17	0.0321939439283243\\
18	0.0268871008873183\\
19	0.0316920608120786\\
20	0.0286771919664519\\
21	0.00773119825769845\\
22	0.0330073087209196\\
23	0.019415059292473\\
24	0.0177688778425817\\
25	0.0188194600762088\\
26	0.0237714798713867\\
27	0.0430806655948836\\
28	0.586023006720236\\
29	0.0970905103802927\\
30	0.0246981078960262\\
31	0.0780346253424249\\
32	0.0580455436901626\\
33	0.0681836526256362\\
34	0.163824852865525\\
35	0.0446106828365612\\
36	0.06119675966513\\
37	0.00907835157153909\\
38	0.0310093774848825\\
39	0.00125972832884384\\
40	0.005422098150711\\
41	0.0107374596162295\\
42	0.0165479326643041\\
43	0.024789327411243\\
44	0.0446277431282512\\
45	0.058019450740893\\
46	0.074843365423057\\
47	0.199666615467323\\
48	0.216838516027539\\
49	0.0783890355452335\\
50	0.0495529240878659\\
51	0.0370791446049236\\
52	0.0307530810094058\\
53	0.0155757068681131\\
54	0.0198807977432187\\
55	0.0179871495341263\\
56	0.0162887905400521\\
57	0.0148728268904216\\
58	0.0136909847461918\\
59	0.0126943671543235\\
60	0.011846112844806\\
61	0.0111233301448608\\
62	0.0105291449791113\\
63	0.0102108676347222\\
64	0.00751288118280402\\
65	0.00739035992869396\\
66	0.0116365722557393\\
67	0.00899390796280924\\
68	0.00831157148096884\\
69	0.00788086875151191\\
70	0.00754217236777393\\
71	0.00725475830161164\\
72	0.00700327644843893\\
73	0.006780818536885\\
74	0.00658453626015097\\
75	0.00641472878078445\\
76	0.00627599401250467\\
77	0.00618216997550965\\
78	0.00617516728867787\\
79	0.00642745729543014\\
80	0.00873051939586948\\
81	0.00471465923588381\\
82	0.00195996010568866\\
83	0.004980313957114\\
84	0.00475839614864904\\
85	0.00464733241660508\\
86	0.00455444244400457\\
87	0.00446749239384432\\
88	0.00438406292262191\\
89	0.00430366820355207\\
90	0.00422628355118023\\
91	0.00415201532524293\\
92	0.00408104289588831\\
93	0.00401365198230764\\
94	0.00395033763548775\\
95	0.00389203620501121\\
96	0.00384070443755282\\
97	0.00380107128140597\\
98	0.00378779867734327\\
99	0.00387836096292209\\
100	0.00228454900881806\\
101	0.00321909463290553\\
102	0.00328982387499096\\
103	0.00328100374444436\\
104	0.00325253146337885\\
105	0.00321692683031362\\
106	0.00317840637543852\\
107	0.00313876414674543\\
108	0.00309887602618152\\
109	0.00305920797263281\\
110	0.00302002111537278\\
111	0.00298146552488656\\
112	0.00294362726599965\\
113	0.0029065537719176\\
114	0.00287026833389302\\
115	0.00283477876811283\\
116	0.00280008280049957\\
117	0.00276617151884636\\
118	0.00273303164395387\\
119	0.00270064705586787\\
120	0.00266899983729428\\
121	0.00263807099659409\\
122	0.00260784097374635\\
123	0.00257828999668392\\
124	0.00254939833288439\\
125	0.00252114646667125\\
126	0.00249351522323938\\
127	0.00246648585412356\\
128	0.00244004009455901\\
129	0.00241416020024051\\
130	0.00238882896892876\\
131	0.0023640297508985\\
132	0.00233974645117835\\
133	0.00231596352577768\\
134	0.00229266597354371\\
135	0.00226983932488367\\
136	0.00224746962828519\\
137	0.00222554343533969\\
138	0.00220404778480324\\
139	0.00218297018609978\\
140	0.00216229860257188\\
141	0.00214202143470905\\
142	0.00212212750352594\\
143	0.00210260603421662\\
144	0.00208344664017788\\
145	0.00206463930746792\\
146	0.00204617437974413\\
147	0.00202804254371082\\
148	0.00201023481509265\\
149	0.00199274252514179\\
150	0.00197555730767936\\
151	0.0019586710866655\\
152	0.00194207606428942\\
153	0.00192576470956709\\
154	0.00190972974743187\\
155	0.00189396414830307\\
156	0.00187846111811499\\
157	0.00186321408878906\\
158	0.00184821670913216\\
159	0.00183346283614256\\
160	0.00181894652670628\\
161	0.00180466202966742\\
162	0.00179060377825436\\
163	0.00177676638284649\\
164	0.00176314462406556\\
165	0.00174973344617591\\
166	0.0017365279507797\\
167	0.00172352339079259\\
168	0.00171071516468654\\
169	0.00169809881098722\\
170	0.00168567000301325\\
171	0.00167342454384613\\
172	0.00166135836151948\\
173	0.00164946750441694\\
174	0.00163774813686889\\
175	0.00162619653493841\\
176	0.00161480908238697\\
177	0.00160358226681213\\
178	0.001592512675948\\
179	0.00158159699412143\\
180	0.00157083199885632\\
181	0.00156021455761888\\
182	0.00154974162469766\\
183	0.00153941023821136\\
184	0.00152921751723897\\
185	0.00151916065906659\\
186	0.00150923693654504\\
187	0.00149944369555362\\
188	0.00148977835256491\\
189	0.00148023839230615\\
190	0.0014708213655126\\
191	0.00146152488676917\\
192	0.00145234663243548\\
193	0.00144328433865201\\
194	0.00143433579942216\\
195	0.0014254988647679\\
196	0.00141677143895562\\
197	0.00140815147878894\\
198	0.00139963699196521\\
199	0\\
200	0\\
};
\addlegendentry{$\mathbf{h_1}$}

\addplot [color=mycolor2]
  table[row sep=crcr]{%
1	0.00495033386861547\\
2	0.00515738368500011\\
3	0.00538309861623286\\
4	0.00563019833310769\\
5	0.00590197136255583\\
6	0.00620243506959928\\
7	0.00653655369620811\\
8	0.00691054090538825\\
9	0.00733228812251618\\
10	0.00781198494389501\\
11	0.00836304134465097\\
12	0.0090034999823859\\
13	0.00975827527656913\\
14	0.0106628508662167\\
15	0.0117696896019869\\
16	0.0131600228416925\\
17	0.0149671880151623\\
18	0.0174273921400842\\
19	0.0210049332363351\\
20	0.0267613442180004\\
21	0.037792597580649\\
22	0.068721841139076\\
23	0.97572931769219\\
24	0.0649085399616321\\
25	0.0262918397391367\\
26	0.0126468169615953\\
27	0.00419508123086451\\
28	0.0214241856295046\\
29	0.0134643328328179\\
30	0.00412679327935559\\
31	0.0112712342656943\\
32	0.0282552508318709\\
33	0.111702725947746\\
34	0.12653020104749\\
35	0.0361926668223949\\
36	0.024130019396178\\
37	0.019518168382204\\
38	0.0163235660243771\\
39	0.0140849625225472\\
40	0.0124312948441269\\
41	0.0111552918846637\\
42	0.0101369616841952\\
43	0.00930266674553233\\
44	0.00860476970863487\\
45	0.00801105372801389\\
46	0.00749890841387189\\
47	0.00705196472677567\\
48	0.00665805661850076\\
49	0.0063079366485928\\
50	0.00599443852440938\\
51	0.00571191453485358\\
52	0.00545584764793091\\
53	0.0052225778141873\\
54	0.00500910486747672\\
55	0.00481294397681212\\
56	0.00463201789166602\\
57	0.00446457542356871\\
58	0.00430912894812168\\
59	0.00416440590497024\\
60	0.00402931074167137\\
61	0.00390289474814389\\
62	0.00378433192171684\\
63	0.00367289949042518\\
64	0.0035679620699816\\
65	0.00346895868109233\\
66	0.00337539203747226\\
67	0.00328681965070268\\
68	0.00320284639950925\\
69	0\\
70	0\\
71	0\\
72	0\\
73	0\\
74	0\\
75	0\\
76	0\\
77	0\\
78	0\\
79	0\\
80	0\\
81	0\\
82	0\\
83	0\\
84	0\\
85	0\\
86	0\\
87	0\\
88	0\\
89	0\\
90	0\\
91	0\\
92	0\\
93	0\\
94	0\\
95	0\\
96	0\\
97	0\\
98	0\\
99	0\\
100	0\\
101	0\\
102	0\\
103	0\\
104	0\\
105	0\\
106	0\\
107	0\\
108	0\\
109	0\\
110	0\\
111	0\\
112	0\\
113	0\\
114	0\\
115	0\\
116	0\\
117	0\\
118	0\\
119	0\\
120	0\\
121	0\\
122	0\\
123	0\\
124	0\\
125	0\\
126	0\\
127	0\\
128	0\\
129	0\\
130	0\\
131	0\\
132	0\\
133	0\\
134	0\\
135	0\\
136	0\\
137	0\\
138	0\\
139	0\\
140	0\\
141	0\\
142	0\\
143	0\\
144	0\\
145	0\\
146	0\\
147	0\\
148	0\\
149	0\\
150	0\\
151	0\\
152	0\\
153	0\\
154	0\\
155	0\\
156	0\\
157	0\\
158	0\\
159	0\\
160	0\\
161	0\\
162	0\\
163	0\\
164	0\\
165	0\\
166	0\\
167	0\\
168	0\\
169	0\\
170	0\\
171	0\\
172	0\\
173	0\\
174	0\\
175	0\\
176	0\\
177	0\\
178	0\\
179	0\\
180	0\\
181	0\\
182	0\\
183	0\\
184	0\\
185	0\\
186	0\\
187	0\\
188	0\\
189	0\\
190	0\\
191	0\\
192	0\\
193	0\\
194	0\\
195	0\\
196	0\\
197	0\\
198	0\\
199	0\\
200	0\\
};
\addlegendentry{$\mathbf{h_{2}}$}

\end{axis}

\begin{axis}[%
width=1.935in,
height=3.2in,
at={(3.327in,0.512in)},
scale only axis,
xmin=0,
xmax=209,
xlabel style={font=\color{white!15!black}, align=center},
xlabel={Sample Index\\[1ex](b) Estimated},
ymin=0,
ymax=1,
axis background/.style={fill=white},
legend style={legend cell align=left, align=left, draw=white!15!black}
]
\addplot [color=mycolor1]
  table[row sep=crcr]{%
0	6.25550415860497e-05\\
1	3.66671494075522e-05\\
2	2.66500726898372e-05\\
3	0.000130515232537852\\
4	0.000130513672374387\\
5	0.000105207761630625\\
6	8.41946396898924e-05\\
7	3.45939264252311e-05\\
8	0.000122594638664958\\
9	7.77174131399986e-05\\
10	1.36822746668192e-05\\
11	9.36253379359021e-05\\
12	2.90078419605722e-05\\
13	3.6060242184247e-05\\
14	2.86254491856949e-05\\
15	4.83003320408633e-05\\
16	5.91126848016235e-05\\
17	2.38158779380377e-05\\
18	7.74295676856216e-05\\
19	2.14393244922912e-05\\
20	4.47565620719853e-05\\
21	7.275608084438e-05\\
22	8.05549595737432e-05\\
23	3.95788214945146e-05\\
24	4.96163725976117e-05\\
25	0.00013885870223845\\
26	4.47599861633871e-05\\
27	7.9882364423129e-05\\
28	0.000142671745243935\\
29	9.54804088284584e-05\\
30	3.60860267701431e-05\\
31	4.13782087349031e-05\\
32	3.4284995469193e-05\\
33	0.000202990516063519\\
34	0.000110490028825992\\
35	6.68477593794946e-05\\
36	8.45798971526756e-05\\
37	0.000873772933500908\\
38	0.000363999101424341\\
39	0.000126596664695252\\
40	0.000167861917844277\\
41	0.000340579538038596\\
42	4.33719870267178e-05\\
43	7.06961661118264e-05\\
44	5.63427597904136e-05\\
45	0.000192303382389602\\
46	9.04153638513654e-05\\
47	2.10722623083758e-05\\
48	9.51930850529591e-05\\
49	0.000232959601617129\\
50	5.68978141955815e-05\\
51	0.000838361747417856\\
52	4.44472882150575e-05\\
53	0.000315576315434321\\
54	0.0117946570971467\\
55	0.0123185148257345\\
56	0.00279110482313535\\
57	0.0175622068075732\\
58	2.0359535453547e-05\\
59	0.00338340763106257\\
60	0.00176672846076598\\
61	0.000307842644543743\\
62	0.00407365038459462\\
63	8.66846551668814e-05\\
64	0.000149107838665975\\
65	5.63448757579216e-05\\
66	0.000521189653635973\\
67	0.0120864873142617\\
68	0.00494446612827709\\
69	0.000975532911549812\\
70	0.0153409766225293\\
71	0.00836365847211018\\
72	0.00720969141767557\\
73	0.0574770894907309\\
74	0.025545893069496\\
75	0.0344554184444195\\
76	0.00154948154655349\\
77	0.0568961299232754\\
78	0.0134772590664069\\
79	0.0299776319132666\\
80	0.0350773985660759\\
81	0.0135959757323387\\
82	0.0824549716018569\\
83	0.000760157607081393\\
84	0.00370110632845164\\
85	0.00501129864957741\\
86	0.0122257567278168\\
87	0.0442859308524097\\
88	0.0675833320373387\\
89	0.150063105655129\\
90	0.0930215617546872\\
91	0.132078118534053\\
92	0.215194171045981\\
93	0.571080687981755\\
94	0.126737945668202\\
95	0.0627090513927863\\
96	0.00226080905055664\\
97	0.0396176854880819\\
98	0.0548535529606671\\
99	0.0636261094958562\\
100	0.0127895192052098\\
101	0.027033689776258\\
102	0.0120906178592371\\
103	0.045850882516664\\
104	0.0318945205497347\\
105	0.0275853849206677\\
106	0.0426992838235876\\
107	0.0550744255546505\\
108	0.0729128580938284\\
109	0.58292439598366\\
110	0.131967184261239\\
111	0.0179524793949005\\
112	0.0546609217605216\\
113	0.0554452965791429\\
114	0.0736702994551709\\
115	0.164401028607525\\
116	0.0219963804067195\\
117	0.0403225669062835\\
118	0.0265499387838464\\
119	5.62925140095603e-05\\
120	0.012577659118579\\
121	0.000325724195545925\\
122	0.0033758725237544\\
123	0.0129834845448625\\
124	0.0165595922811247\\
125	0.0936288008132755\\
126	0.0710605601026499\\
127	0.0801611065017771\\
128	0.218645809432182\\
129	0.167363378421896\\
130	0.0765408299385166\\
131	0.0507492063211607\\
132	0.00838696309930152\\
133	0.0256514839502916\\
134	0.0212377910343266\\
135	0.000871734573107039\\
136	0.00237070580793348\\
137	0.0160212299061182\\
138	0.0108833237100685\\
139	0.000194869849598097\\
140	0.0150279473161356\\
141	0.0125516497065863\\
142	0.0053078420172239\\
143	0.0156208600159533\\
144	0.0385448170288053\\
145	0.0348733834020922\\
146	0.00910250106713872\\
147	0.0167908799244559\\
148	0.0108729335870468\\
149	0.00500530359825045\\
150	0.00371756372863924\\
151	0.00657495674304582\\
152	0.00158582083760741\\
153	8.26930419285814e-05\\
154	6.00837604688941e-05\\
155	0.00167619219823189\\
156	0.00124023709687568\\
157	0.000517711132761254\\
158	0.00193628010334629\\
159	0.000293486522810307\\
160	0.000136773340119108\\
161	0.0114484098494128\\
162	0.00476089300886118\\
163	0.00259090451561356\\
164	0.0050223238637226\\
165	0.000164595365977391\\
166	0.000505443400941292\\
167	0.00064616805321355\\
168	0.00013233553753879\\
169	3.81199223009711e-05\\
170	0.000224765869705696\\
171	3.80076258156185e-05\\
172	5.90320798796462e-05\\
173	0.000171932871756623\\
174	4.96771236199223e-05\\
175	1.80723583749635e-05\\
176	0.000100378702133181\\
177	0.000211361031846935\\
178	0.000199996637985008\\
179	0.000174066005436054\\
180	0.000520200275112777\\
181	0.000280808412766124\\
182	0.000153823987824921\\
183	3.6763911295036e-05\\
184	0.000111935418622474\\
185	0.000149355704160911\\
186	2.20832140236772e-05\\
187	6.46289164322878e-05\\
188	4.36345108524552e-05\\
189	0.000101096170055191\\
190	7.01639363603416e-05\\
191	8.11374195530765e-05\\
192	6.08276375706247e-05\\
193	0.000118873219842808\\
194	0.000145434333701222\\
195	4.42375413054215e-05\\
196	4.44347115606433e-05\\
197	0.000204519411643506\\
198	1.48267395437391e-05\\
199	4.46533924117505e-05\\
200	5.75052177846027e-05\\
201	3.98684941794988e-05\\
202	2.28571312330504e-05\\
203	0.000201783584410874\\
204	3.46493627596206e-05\\
205	0.000207426930931814\\
206	5.19979076727139e-05\\
207	7.82869667857729e-05\\
208	7.43198920699229e-05\\
209	3.15951936666615e-05\\
};
\addlegendentry{$\mathbf{\hat{h}_{1}}$}

\addplot [color=mycolor2]
  table[row sep=crcr]{%
0	2.06723914940487e-05\\
1	7.49672146773819e-05\\
2	2.01530109284368e-05\\
3	0.000102552216224095\\
4	5.07495050654889e-05\\
5	2.33943388516161e-05\\
6	2.63689343940771e-05\\
7	1.57597274964571e-05\\
8	2.356561991878e-05\\
9	2.33686640274492e-05\\
10	7.46217784242429e-05\\
11	2.40030166162152e-05\\
12	5.27529663581004e-05\\
13	0.000139297278200281\\
14	2.29887712679713e-05\\
15	1.35116675062133e-05\\
16	7.62493242182645e-05\\
17	8.60382085362913e-06\\
18	1.37195831782982e-05\\
19	7.77748197225498e-05\\
20	1.81777701227162e-05\\
21	3.3931707782986e-05\\
22	6.34571399220381e-05\\
23	8.28258175679275e-05\\
24	5.00485167444477e-05\\
25	2.04114711726616e-05\\
26	2.50707908206193e-05\\
27	3.89618091041126e-05\\
28	2.42720340628451e-05\\
29	9.10494738302935e-05\\
30	0.000453394064561192\\
31	2.88228055032323e-05\\
32	9.68090988594172e-05\\
33	8.61511603089741e-05\\
34	6.30458977824788e-05\\
35	0.000686752463218899\\
36	0.000363410425424966\\
37	6.0931917060922e-05\\
38	0.000113875575281608\\
39	0.00108828669189784\\
40	0.000418595449657582\\
41	0.000179056590595884\\
42	0.00177738080109286\\
43	2.50686143978126e-05\\
44	4.71892257250473e-05\\
45	0.00136851336480005\\
46	0.000951399131006546\\
47	0.000263847332921274\\
48	0.00619745418251364\\
49	0.00754801934515365\\
50	0.00288648162240239\\
51	0.00388976529739625\\
52	0.00480939293890807\\
53	0.00288291802162016\\
54	0.00305732384983217\\
55	0.00182143513762577\\
56	0.000331795814296692\\
57	0.00314074670570625\\
58	3.90987182370291e-05\\
59	0.000149677565926451\\
60	0.000654022950947337\\
61	0.000212526655400657\\
62	0.00192788564700292\\
63	0.000226695147877179\\
64	0.007840540810797\\
65	0.0239228568561959\\
66	0.0204224052872668\\
67	0.00466634024002844\\
68	0.0453729394346397\\
69	0.0207362797515892\\
70	0.0165455589380317\\
71	0.0179979800520376\\
72	0.0114703765281863\\
73	0.00343646512822224\\
74	0.00633892466443607\\
75	0.00229299081876991\\
76	0.000563552485822013\\
77	0.00524235762542637\\
78	0.0170654539576025\\
79	0.00273629975531928\\
80	0.00337871394902857\\
81	0.0229499248282412\\
82	0.0208220797609096\\
83	0.0134585137592213\\
84	0.044601283421509\\
85	0.0555187934593961\\
86	0.0332703983660081\\
87	0.00900042031919472\\
88	0.128559693511661\\
89	0.0167998150726459\\
90	0.00670781000148622\\
91	0.0208968543575721\\
92	0.00626862488098676\\
93	0.0123045405586475\\
94	0.0102224812937614\\
95	0.0188750204427884\\
96	0.0217853171123381\\
97	0.0081868806925036\\
98	0.00943316529599511\\
99	0.010091460792111\\
100	0.00994430792779408\\
101	0.0512136598101751\\
102	0.0254879176821941\\
103	0.00309040566991835\\
104	0.964774763955591\\
105	0.00282930174188384\\
106	0.0262334779276541\\
107	0.0521962457836698\\
108	0.00955198060670636\\
109	0.0108360459832638\\
110	0.0112309325525857\\
111	0.00785990263319794\\
112	0.0212430311190902\\
113	0.0169404206285629\\
114	0.0124619110713848\\
115	0.0140892900390617\\
116	0.00688260673376146\\
117	0.0208141667606966\\
118	0.00562753375683353\\
119	0.0154326587451474\\
120	0.128450975473391\\
121	0.00841253225970391\\
122	0.0338491764798102\\
123	0.0557132499578564\\
124	0.045579441032236\\
125	0.0141825746480925\\
126	0.0213626171376415\\
127	0.0235694081107082\\
128	0.00279620776140407\\
129	0.00263971560640595\\
130	0.01770199579782\\
131	0.00562500818992904\\
132	0.000304107531897559\\
133	0.00122256795684929\\
134	0.0069113254910349\\
135	0.00276192834950479\\
136	0.0105152307378373\\
137	0.0186402323173484\\
138	0.0160373991768497\\
139	0.0208151715666291\\
140	0.0463081196353583\\
141	0.00358800414456157\\
142	0.0212606024899403\\
143	0.0252333374740929\\
144	0.00829018654003537\\
145	0.000265643201250391\\
146	0.00140300140778242\\
147	0.000646321527820234\\
148	0.00198529262919384\\
149	0.000528564734773928\\
150	0.000233006647738078\\
151	0.00395942960453089\\
152	0.000767472536893273\\
153	0.00145824788991388\\
154	0.00329027679063087\\
155	0.00342719013726414\\
156	0.00463521211430318\\
157	0.00377881037962845\\
158	0.0028900926784612\\
159	0.00735713083673912\\
160	0.00775795676886975\\
161	0.000161287969669837\\
162	0.000341164784889905\\
163	0.00275521262219011\\
164	3.78739296117615e-05\\
165	3.05634470152698e-05\\
166	0.00264323885358625\\
167	0.000826772614696502\\
168	0.00105378140045279\\
169	0.00208372167257383\\
170	0.000131191120008528\\
171	0.000399586181824563\\
172	0.000300958831135475\\
173	0.000950272513266335\\
174	3.51210918378069e-05\\
175	7.70659594892315e-05\\
176	8.70855754674503e-05\\
177	1.79187020844713e-05\\
178	0.00126712632206088\\
179	0.00081582705761797\\
180	0.000253636820481828\\
181	0.000158417640253091\\
182	2.08807304434363e-05\\
183	2.65148960553469e-05\\
184	4.57894801941832e-05\\
185	9.67964007639873e-05\\
186	4.82014678012882e-05\\
187	5.10264450147324e-05\\
188	5.24583873235085e-05\\
189	9.63702618449629e-05\\
190	0.000202962045243711\\
191	2.68812529141791e-05\\
192	7.25507881512215e-05\\
193	2.39049858947092e-05\\
194	3.01752436212657e-05\\
195	0.000210917501616983\\
196	0.000111522384283935\\
197	1.61830332496563e-05\\
198	8.83763689466204e-05\\
199	1.79220136354326e-05\\
200	3.93519784579471e-05\\
201	1.05300099269322e-05\\
202	1.92369657874602e-05\\
203	3.50745349544725e-05\\
204	3.26267794297596e-05\\
205	0.000115374116558917\\
206	3.98665830825269e-05\\
207	4.16534726674947e-05\\
208	2.69039820944503e-05\\
209	4.5697035302805e-05\\
};
\addlegendentry{$\mathbf{\hat{h}_{2}}$}

\end{axis}
\end{tikzpicture}%