% This file was created by matlab2tikz.
%
%The latest updates can be retrieved from
%  http://www.mathworks.com/matlabcentral/fileexchange/22022-matlab2tikz-matlab2tikz
%where you can also make suggestions and rate matlab2tikz.
%
\definecolor{mycolor1}{rgb}{0.00000,0.44700,0.74100}%
\definecolor{mycolor2}{rgb}{0.85000,0.32500,0.09800}%
%
\begin{tikzpicture}

\begin{axis}[%
width=1.935in,
height=3.2in,
at={(0.758in,0.512in)},
scale only axis,
xmin=0,
xmax=200,
xlabel style={font=\color{white!15!black}, align=center},
xlabel={Sample Index\\[1ex](a) Actual},
ymin=0,
ymax=1,
axis background/.style={fill=white},
legend style={legend cell align=left, align=left, draw=white!15!black}
]
\addplot [color=mycolor1]
  table[row sep=crcr]{%
1	0.0167418731260698\\
2	0.018659722218203\\
3	0.0211495716349754\\
4	0.0245407494314006\\
5	0.029505643974117\\
6	0.0377161636169434\\
7	0.0550750576238134\\
8	0.131028403455825\\
9	0.141533477104454\\
10	0.158175166246243\\
11	0.163761757297189\\
12	0.600100605556833\\
13	0.118033417583129\\
14	0.0610914209628117\\
15	0.0426162246246858\\
16	0.0332715711707656\\
17	0.0321939439283243\\
18	0.0268871008873183\\
19	0.0316920608120786\\
20	0.0286771919664519\\
21	0.00773119825769845\\
22	0.0330073087209196\\
23	0.019415059292473\\
24	0.0177688778425817\\
25	0.0188194600762088\\
26	0.0237714798713867\\
27	0.0430806655948836\\
28	0.586023006720236\\
29	0.0970905103802927\\
30	0.0246981078960262\\
31	0.0780346253424249\\
32	0.0580455436901626\\
33	0.0681836526256362\\
34	0.163824852865525\\
35	0.0446106828365612\\
36	0.06119675966513\\
37	0.00907835157153909\\
38	0.0310093774848825\\
39	0.00125972832884384\\
40	0.005422098150711\\
41	0.0107374596162295\\
42	0.0165479326643041\\
43	0.024789327411243\\
44	0.0446277431282512\\
45	0.058019450740893\\
46	0.074843365423057\\
47	0.199666615467323\\
48	0.216838516027539\\
49	0.0783890355452335\\
50	0.0495529240878659\\
51	0.0370791446049236\\
52	0.0307530810094058\\
53	0.0155757068681131\\
54	0.0198807977432187\\
55	0.0179871495341263\\
56	0.0162887905400521\\
57	0.0148728268904216\\
58	0.0136909847461918\\
59	0.0126943671543235\\
60	0.011846112844806\\
61	0.0111233301448608\\
62	0.0105291449791113\\
63	0.0102108676347222\\
64	0.00751288118280402\\
65	0.00739035992869396\\
66	0.0116365722557393\\
67	0.00899390796280924\\
68	0.00831157148096884\\
69	0.00788086875151191\\
70	0.00754217236777393\\
71	0.00725475830161164\\
72	0.00700327644843893\\
73	0.006780818536885\\
74	0.00658453626015097\\
75	0.00641472878078445\\
76	0.00627599401250467\\
77	0.00618216997550965\\
78	0.00617516728867787\\
79	0.00642745729543014\\
80	0.00873051939586948\\
81	0.00471465923588381\\
82	0.00195996010568866\\
83	0.004980313957114\\
84	0.00475839614864904\\
85	0.00464733241660508\\
86	0.00455444244400457\\
87	0.00446749239384432\\
88	0.00438406292262191\\
89	0.00430366820355207\\
90	0.00422628355118023\\
91	0.00415201532524293\\
92	0.00408104289588831\\
93	0.00401365198230764\\
94	0.00395033763548775\\
95	0.00389203620501121\\
96	0.00384070443755282\\
97	0.00380107128140597\\
98	0.00378779867734327\\
99	0.00387836096292209\\
100	0.00228454900881806\\
101	0.00321909463290553\\
102	0.00328982387499096\\
103	0.00328100374444436\\
104	0.00325253146337885\\
105	0.00321692683031362\\
106	0.00317840637543852\\
107	0.00313876414674543\\
108	0.00309887602618152\\
109	0.00305920797263281\\
110	0.00302002111537278\\
111	0.00298146552488656\\
112	0.00294362726599965\\
113	0.0029065537719176\\
114	0.00287026833389302\\
115	0.00283477876811283\\
116	0.00280008280049957\\
117	0.00276617151884636\\
118	0.00273303164395387\\
119	0.00270064705586787\\
120	0.00266899983729428\\
121	0.00263807099659409\\
122	0.00260784097374635\\
123	0.00257828999668392\\
124	0.00254939833288439\\
125	0.00252114646667125\\
126	0.00249351522323938\\
127	0.00246648585412356\\
128	0.00244004009455901\\
129	0.00241416020024051\\
130	0.00238882896892876\\
131	0.0023640297508985\\
132	0.00233974645117835\\
133	0.00231596352577768\\
134	0.00229266597354371\\
135	0.00226983932488367\\
136	0.00224746962828519\\
137	0.00222554343533969\\
138	0.00220404778480324\\
139	0.00218297018609978\\
140	0.00216229860257188\\
141	0.00214202143470905\\
142	0.00212212750352594\\
143	0.00210260603421662\\
144	0.00208344664017788\\
145	0.00206463930746792\\
146	0.00204617437974413\\
147	0.00202804254371082\\
148	0.00201023481509265\\
149	0.00199274252514179\\
150	0.00197555730767936\\
151	0.0019586710866655\\
152	0.00194207606428942\\
153	0.00192576470956709\\
154	0.00190972974743187\\
155	0.00189396414830307\\
156	0.00187846111811499\\
157	0.00186321408878906\\
158	0.00184821670913216\\
159	0.00183346283614256\\
160	0.00181894652670628\\
161	0.00180466202966742\\
162	0.00179060377825436\\
163	0.00177676638284649\\
164	0.00176314462406556\\
165	0.00174973344617591\\
166	0.0017365279507797\\
167	0.00172352339079259\\
168	0.00171071516468654\\
169	0.00169809881098722\\
170	0.00168567000301325\\
171	0.00167342454384613\\
172	0.00166135836151948\\
173	0.00164946750441694\\
174	0.00163774813686889\\
175	0.00162619653493841\\
176	0.00161480908238697\\
177	0.00160358226681213\\
178	0.001592512675948\\
179	0.00158159699412143\\
180	0.00157083199885632\\
181	0.00156021455761888\\
182	0.00154974162469766\\
183	0.00153941023821136\\
184	0.00152921751723897\\
185	0.00151916065906659\\
186	0.00150923693654504\\
187	0.00149944369555362\\
188	0.00148977835256491\\
189	0.00148023839230615\\
190	0.0014708213655126\\
191	0.00146152488676917\\
192	0.00145234663243548\\
193	0.00144328433865201\\
194	0.00143433579942216\\
195	0.0014254988647679\\
196	0.00141677143895562\\
197	0.00140815147878894\\
198	0.00139963699196521\\
199	0\\
200	0\\
};
\addlegendentry{$\mathbf{h_1}$}

\addplot [color=mycolor2]
  table[row sep=crcr]{%
1	0.00495033386861547\\
2	0.00515738368500011\\
3	0.00538309861623286\\
4	0.00563019833310769\\
5	0.00590197136255583\\
6	0.00620243506959928\\
7	0.00653655369620811\\
8	0.00691054090538825\\
9	0.00733228812251618\\
10	0.00781198494389501\\
11	0.00836304134465097\\
12	0.0090034999823859\\
13	0.00975827527656913\\
14	0.0106628508662167\\
15	0.0117696896019869\\
16	0.0131600228416925\\
17	0.0149671880151623\\
18	0.0174273921400842\\
19	0.0210049332363351\\
20	0.0267613442180004\\
21	0.037792597580649\\
22	0.068721841139076\\
23	0.97572931769219\\
24	0.0649085399616321\\
25	0.0262918397391367\\
26	0.0126468169615953\\
27	0.00419508123086451\\
28	0.0214241856295046\\
29	0.0134643328328179\\
30	0.00412679327935559\\
31	0.0112712342656943\\
32	0.0282552508318709\\
33	0.111702725947746\\
34	0.12653020104749\\
35	0.0361926668223949\\
36	0.024130019396178\\
37	0.019518168382204\\
38	0.0163235660243771\\
39	0.0140849625225472\\
40	0.0124312948441269\\
41	0.0111552918846637\\
42	0.0101369616841952\\
43	0.00930266674553233\\
44	0.00860476970863487\\
45	0.00801105372801389\\
46	0.00749890841387189\\
47	0.00705196472677567\\
48	0.00665805661850076\\
49	0.0063079366485928\\
50	0.00599443852440938\\
51	0.00571191453485358\\
52	0.00545584764793091\\
53	0.0052225778141873\\
54	0.00500910486747672\\
55	0.00481294397681212\\
56	0.00463201789166602\\
57	0.00446457542356871\\
58	0.00430912894812168\\
59	0.00416440590497024\\
60	0.00402931074167137\\
61	0.00390289474814389\\
62	0.00378433192171684\\
63	0.00367289949042518\\
64	0.0035679620699816\\
65	0.00346895868109233\\
66	0.00337539203747226\\
67	0.00328681965070268\\
68	0.00320284639950925\\
69	0\\
70	0\\
71	0\\
72	0\\
73	0\\
74	0\\
75	0\\
76	0\\
77	0\\
78	0\\
79	0\\
80	0\\
81	0\\
82	0\\
83	0\\
84	0\\
85	0\\
86	0\\
87	0\\
88	0\\
89	0\\
90	0\\
91	0\\
92	0\\
93	0\\
94	0\\
95	0\\
96	0\\
97	0\\
98	0\\
99	0\\
100	0\\
101	0\\
102	0\\
103	0\\
104	0\\
105	0\\
106	0\\
107	0\\
108	0\\
109	0\\
110	0\\
111	0\\
112	0\\
113	0\\
114	0\\
115	0\\
116	0\\
117	0\\
118	0\\
119	0\\
120	0\\
121	0\\
122	0\\
123	0\\
124	0\\
125	0\\
126	0\\
127	0\\
128	0\\
129	0\\
130	0\\
131	0\\
132	0\\
133	0\\
134	0\\
135	0\\
136	0\\
137	0\\
138	0\\
139	0\\
140	0\\
141	0\\
142	0\\
143	0\\
144	0\\
145	0\\
146	0\\
147	0\\
148	0\\
149	0\\
150	0\\
151	0\\
152	0\\
153	0\\
154	0\\
155	0\\
156	0\\
157	0\\
158	0\\
159	0\\
160	0\\
161	0\\
162	0\\
163	0\\
164	0\\
165	0\\
166	0\\
167	0\\
168	0\\
169	0\\
170	0\\
171	0\\
172	0\\
173	0\\
174	0\\
175	0\\
176	0\\
177	0\\
178	0\\
179	0\\
180	0\\
181	0\\
182	0\\
183	0\\
184	0\\
185	0\\
186	0\\
187	0\\
188	0\\
189	0\\
190	0\\
191	0\\
192	0\\
193	0\\
194	0\\
195	0\\
196	0\\
197	0\\
198	0\\
199	0\\
200	0\\
};
\addlegendentry{$\mathbf{h_{2}}$}

\end{axis}

\begin{axis}[%
width=1.935in,
height=3.2in,
at={(3.327in,0.512in)},
scale only axis,
xmin=0,
xmax=200,
xlabel style={font=\color{white!15!black}, align=center},
xlabel={Sample Index\\[1ex](b) Estimated},
ymin=0,
ymax=1,
axis background/.style={fill=white},
legend style={legend cell align=left, align=left, draw=white!15!black}
]
\addplot [color=mycolor1]
  table[row sep=crcr]{%
0	5.12601387346767e-05\\
1	1.11971840484709e-05\\
2	5.95005448260386e-05\\
3	6.21014270068902e-05\\
4	0.000130212284303962\\
5	6.06256473419998e-05\\
6	3.51824422885579e-05\\
7	0.000117236236879523\\
8	2.31961907775848e-05\\
9	5.69756289116955e-05\\
10	9.89419855133109e-05\\
11	8.60830183061389e-05\\
12	4.60697348195224e-05\\
13	0.000281072509290287\\
14	0.000268792905736048\\
15	0.000126416542817342\\
16	9.55889069191751e-06\\
17	8.33602050383113e-05\\
18	2.39526396864209e-05\\
19	0.000110838953673504\\
20	0.000224836145601279\\
21	2.5706043112997e-05\\
22	0.00015952765495949\\
23	0.000163865327284775\\
24	1.4663353973862e-05\\
25	4.42398670200307e-05\\
26	9.16729817489144e-05\\
27	0.000368655493212854\\
28	0.000149271680086068\\
29	0.00022892773251104\\
30	4.47600571059775e-05\\
31	0.000534948330937568\\
32	1.45104028473662e-05\\
33	2.28033814227054e-05\\
34	2.49206555227354e-05\\
35	0.000186837042010991\\
36	7.58180751592557e-05\\
37	0.000116417121649811\\
38	6.24608350465778e-05\\
39	8.31266178540394e-05\\
40	0.000150655175712527\\
41	0.000928305779821049\\
42	0.000209085643507319\\
43	0.000201399054815573\\
44	0.0118778800659611\\
45	0.0138193339432168\\
46	0.00494336244998281\\
47	0.0186217557464149\\
48	7.80168497185534e-05\\
49	0.00431957264576447\\
50	0.00243832073541657\\
51	0.000412634804297858\\
52	0.00335784547890874\\
53	4.58125578200994e-05\\
54	0.000186259284986748\\
55	0.000291529520495074\\
56	0.000411166434661948\\
57	0.0131198240381046\\
58	0.00565500999477939\\
59	0.00113033492002534\\
60	0.0179932210199486\\
61	0.00973072820182811\\
62	0.00839868394406908\\
63	0.0596293941346391\\
64	0.0261558827724523\\
65	0.0344592911215483\\
66	0.000420346743502476\\
67	0.0603024816311446\\
68	0.0136664078364697\\
69	0.0309817399021906\\
70	0.0348299275635372\\
71	0.0121624080693838\\
72	0.0813683737049996\\
73	0.000618952822830668\\
74	0.00426027654725229\\
75	0.00558015922959518\\
76	0.0137353603240162\\
77	0.0461324440787901\\
78	0.0686112689680962\\
79	0.150297160682839\\
80	0.0922055246691923\\
81	0.13285006162099\\
82	0.215327240645091\\
83	0.56914327762082\\
84	0.125800909245069\\
85	0.0615804606288001\\
86	0.00242893374555331\\
87	0.039361036192154\\
88	0.0539800018325926\\
89	0.0656781878901714\\
90	0.0139292724255921\\
91	0.0286754420194622\\
92	0.0139475356077218\\
93	0.0460763144049409\\
94	0.0317186801267826\\
95	0.0290361046298251\\
96	0.0448054457050887\\
97	0.0579965839581183\\
98	0.0727389509644223\\
99	0.581254383132025\\
100	0.13164452566528\\
101	0.0182709048002893\\
102	0.055044746045315\\
103	0.0555152005066251\\
104	0.0743115216703228\\
105	0.169101553845472\\
106	0.0222318129616337\\
107	0.0413712608671496\\
108	0.0272662362703849\\
109	0.000205296968610624\\
110	0.0139007790357275\\
111	0.00238347440113286\\
112	0.00257397401791042\\
113	0.0130094249958233\\
114	0.0161224729948279\\
115	0.0947148027961712\\
116	0.0709056795377303\\
117	0.0789087588800686\\
118	0.21853299525709\\
119	0.166982597363935\\
120	0.0776071306531678\\
121	0.0524103576558531\\
122	0.00583741269149446\\
123	0.0245450692307253\\
124	0.0195366264097634\\
125	0.00212141196735829\\
126	0.00478982949406171\\
127	0.0165969842327285\\
128	0.010103653620086\\
129	0.000105647156104728\\
130	0.0141645441324165\\
131	0.0130766071028142\\
132	0.00647739907163756\\
133	0.0165390049803969\\
134	0.0411143435151855\\
135	0.0377860654017584\\
136	0.0100856116875422\\
137	0.015945538588813\\
138	0.012468715375909\\
139	0.00624307337169998\\
140	0.00414315377577726\\
141	0.00708163054496815\\
142	0.00184586007094266\\
143	0.000419300274133056\\
144	0.000225352448693797\\
145	0.0013574409931546\\
146	0.00121559016953072\\
147	0.00039499472756505\\
148	0.00290636416395915\\
149	5.17754079616276e-05\\
150	0.000501930286277831\\
151	0.0112923024191993\\
152	0.00472252758210711\\
153	0.00300161460273933\\
154	0.00525243010762123\\
155	0.000139951883315553\\
156	6.13826300239643e-05\\
157	0.00129007730720626\\
158	5.49916470837992e-05\\
159	0.00126835286470432\\
160	0.000423161923811019\\
161	6.11934979475025e-05\\
162	0.000121510592873444\\
163	0.000275114445821675\\
164	0.000104472382469273\\
165	0.000218112560433906\\
166	0.000265719281227508\\
167	7.10497446414023e-05\\
168	0.000184665706838644\\
169	0.000125432290472017\\
170	0.000470466715866578\\
171	0.000460466869955041\\
172	0.000238305527127436\\
173	4.14274662393508e-05\\
174	6.66335053800109e-05\\
175	8.97449636679605e-05\\
176	5.26661760512739e-05\\
177	5.34564919666302e-05\\
178	6.30159702544154e-05\\
179	0.000322589683117636\\
180	0.000114624769251729\\
181	3.79827607854997e-05\\
182	0.00010157191270214\\
183	0.00015869710365799\\
184	7.41587356406059e-05\\
185	2.22434851094195e-05\\
186	9.91630287846286e-05\\
187	0.000118243720013733\\
188	5.30963136223665e-05\\
189	0.000172037639340008\\
};
\addlegendentry{$\mathbf{\hat{h}_{1}}$}

\addplot [color=mycolor2]
  table[row sep=crcr]{%
0	3.52553346113047e-05\\
1	2.16487491475609e-05\\
2	3.72538022349326e-05\\
3	4.63775664211328e-05\\
4	9.07253412214838e-06\\
5	4.03699407857012e-05\\
6	3.31400004599519e-05\\
7	2.14582083608218e-05\\
8	3.40529653122797e-05\\
9	8.87444460794955e-05\\
10	6.29376210800237e-05\\
11	2.79082559108016e-05\\
12	7.6223699863249e-05\\
13	5.86225014894359e-05\\
14	0.000212829325430801\\
15	0.000121045897622106\\
16	7.46854665800805e-05\\
17	5.08693904515812e-05\\
18	0.000218881419484388\\
19	1.01873357501124e-05\\
20	0.000376720024538072\\
21	4.08989707103936e-05\\
22	0.000190528118932393\\
23	4.96030546777813e-05\\
24	0.000318292518532159\\
25	0.000291620232722336\\
26	0.000536147377089212\\
27	0.000118763711795396\\
28	3.14855413717996e-05\\
29	0.000954924486322589\\
30	0.000186585616162483\\
31	0.0001928870775896\\
32	0.00211174012957285\\
33	2.76087505535951e-05\\
34	0.000196759312222178\\
35	0.00197233480035319\\
36	0.000510621095883637\\
37	0.000157865989579877\\
38	0.00595874136295864\\
39	0.00811797357784493\\
40	0.00289826335785746\\
41	0.00395536995014072\\
42	0.00655979752033279\\
43	0.00312334709633453\\
44	0.00316113515076135\\
45	0.00221325178440591\\
46	0.000323056299471904\\
47	0.00295231114887594\\
48	4.32492260109409e-05\\
49	0.000162493398264891\\
50	0.000877404867269382\\
51	0.000197394466108564\\
52	0.00201513663663293\\
53	4.52305254267961e-05\\
54	0.0081175464747101\\
55	0.0246393810833585\\
56	0.020461521910317\\
57	0.00386861904592733\\
58	0.045789464776449\\
59	0.0214764079817212\\
60	0.0163028869649569\\
61	0.0184044227495363\\
62	0.0123121272475519\\
63	0.00381175109578954\\
64	0.00650685082310455\\
65	0.00252852307263837\\
66	0.000881732245170039\\
67	0.006551765746376\\
68	0.0168405481773799\\
69	0.00247967653083109\\
70	0.00336064072649428\\
71	0.0232640826025738\\
72	0.0214582994853746\\
73	0.0143631032798867\\
74	0.0451139953636038\\
75	0.0566126469810784\\
76	0.0339706666656392\\
77	0.009912473418492\\
78	0.131315199925925\\
79	0.0175615808566324\\
80	0.00602872114599483\\
81	0.0228146926877521\\
82	0.00711443953129343\\
83	0.0129760078328205\\
84	0.0101157152210772\\
85	0.020227430473226\\
86	0.0225590019358148\\
87	0.00802559169983383\\
88	0.00934947175600558\\
89	0.0107750027395342\\
90	0.0103700444920613\\
91	0.050840042627174\\
92	0.0256927714668325\\
93	0.00368623165588586\\
94	0.963331182517938\\
95	0.00361304908383059\\
96	0.0266742122710291\\
97	0.0525120350531778\\
98	0.00993624782617465\\
99	0.011727608768625\\
100	4.83479103473932e-06\\
101	0.00781380921782063\\
102	0.0217443817642827\\
103	0.0177614982405837\\
104	0.013337987961027\\
105	0.0149364366709084\\
106	0.00769212973238717\\
107	0.0226548575238201\\
108	0.00541364509158595\\
109	0.0161798396033553\\
110	0.130913470861406\\
111	0.00891766979874015\\
112	0.0347836036892996\\
113	0.056912580030147\\
114	0.0463286865159368\\
115	0.0153801227652079\\
116	0.0231981228073719\\
117	0.0240324299954877\\
118	0.00262467327366976\\
119	0.0021314783051685\\
120	0.0170865566098823\\
121	0.00658938065456732\\
122	0.000700207373903944\\
123	0.00150690726831314\\
124	0.00714300614915291\\
125	0.00301312082260848\\
126	0.0110598922864681\\
127	0.0191609012502328\\
128	0.0159169078656944\\
129	0.0213588435586277\\
130	0.0467793505962743\\
131	0.00294794974214297\\
132	0.0214500379031575\\
133	0.0258164339791699\\
134	0.00837976436451949\\
135	3.74213866960602e-05\\
136	0.00142650816588474\\
137	0.000694736521922996\\
138	0.00247287309700317\\
139	0.00122260361685558\\
140	0.000103744575416279\\
141	0.00392066328912306\\
142	0.00081773961913728\\
143	0.00187920252909044\\
144	0.00300697005056718\\
145	0.00375344755590867\\
146	0.0061803688168964\\
147	0.00368916001171275\\
148	0.00282315214137091\\
149	0.00785574080784834\\
150	0.00766492674340472\\
151	9.71361166921922e-05\\
152	0.000339922062270415\\
153	0.00363705166434108\\
154	0.000409372779293798\\
155	4.54005988161897e-05\\
156	0.00296582187774158\\
157	0.00109392912917885\\
158	0.00096352421375197\\
159	0.00196454923949656\\
160	2.74860657830745e-05\\
161	0.000499132699937711\\
162	0.000277138589496865\\
163	0.000626589835314437\\
164	0.000226780934129706\\
165	3.02899112027986e-05\\
166	9.65603359944971e-05\\
167	4.45326111003491e-05\\
168	0.00102260446617541\\
169	0.000371909031854253\\
170	0.000772037992813608\\
171	0.000131502667020071\\
172	0.000115547200999511\\
173	0.00019992268982832\\
174	0.000372622954331948\\
175	0.000111543931245633\\
176	0.000134929240983141\\
177	4.25381769170031e-05\\
178	6.6745207189246e-05\\
179	0.000124137327394414\\
180	2.14602871208182e-05\\
181	6.77038363070051e-05\\
182	3.49099574617132e-05\\
183	0.000183054992145026\\
184	1.05974172415032e-05\\
185	3.04278198977618e-05\\
186	1.88251377280047e-05\\
187	2.2985474571671e-05\\
188	2.80296594551254e-05\\
189	6.12530561583404e-05\\
};
\addlegendentry{$\mathbf{\hat{h}_{2}}$}

\end{axis}
\end{tikzpicture}%