% This file was created by matlab2tikz.
%
%The latest updates can be retrieved from
%  http://www.mathworks.com/matlabcentral/fileexchange/22022-matlab2tikz-matlab2tikz
%where you can also make suggestions and rate matlab2tikz.
%
\definecolor{mycolor1}{rgb}{0.00000,0.44700,0.74100}%
\definecolor{mycolor2}{rgb}{0.85000,0.32500,0.09800}%
%
\begin{tikzpicture}

\begin{axis}[%
width=1.935in,
height=3.2in,
at={(0.758in,0.512in)},
scale only axis,
xmin=0,
xmax=200,
xlabel style={font=\color{white!15!black}, align=center},
xlabel={Sample Index\\[1ex](a) Actual},
ymin=0,
ymax=1,
axis background/.style={fill=white},
legend style={legend cell align=left, align=left, draw=white!15!black}
]
\addplot [color=mycolor1]
  table[row sep=crcr]{%
1	0.0167418731260698\\
2	0.018659722218203\\
3	0.0211495716349754\\
4	0.0245407494314006\\
5	0.029505643974117\\
6	0.0377161636169434\\
7	0.0550750576238134\\
8	0.131028403455825\\
9	0.141533477104454\\
10	0.158175166246243\\
11	0.163761757297189\\
12	0.600100605556833\\
13	0.118033417583129\\
14	0.0610914209628117\\
15	0.0426162246246858\\
16	0.0332715711707656\\
17	0.0321939439283243\\
18	0.0268871008873183\\
19	0.0316920608120786\\
20	0.0286771919664519\\
21	0.00773119825769845\\
22	0.0330073087209196\\
23	0.019415059292473\\
24	0.0177688778425817\\
25	0.0188194600762088\\
26	0.0237714798713867\\
27	0.0430806655948836\\
28	0.586023006720236\\
29	0.0970905103802927\\
30	0.0246981078960262\\
31	0.0780346253424249\\
32	0.0580455436901626\\
33	0.0681836526256362\\
34	0.163824852865525\\
35	0.0446106828365612\\
36	0.06119675966513\\
37	0.00907835157153909\\
38	0.0310093774848825\\
39	0.00125972832884384\\
40	0.005422098150711\\
41	0.0107374596162295\\
42	0.0165479326643041\\
43	0.024789327411243\\
44	0.0446277431282512\\
45	0.058019450740893\\
46	0.074843365423057\\
47	0.199666615467323\\
48	0.216838516027539\\
49	0.0783890355452335\\
50	0.0495529240878659\\
51	0.0370791446049236\\
52	0.0307530810094058\\
53	0.0155757068681131\\
54	0.0198807977432187\\
55	0.0179871495341263\\
56	0.0162887905400521\\
57	0.0148728268904216\\
58	0.0136909847461918\\
59	0.0126943671543235\\
60	0.011846112844806\\
61	0.0111233301448608\\
62	0.0105291449791113\\
63	0.0102108676347222\\
64	0.00751288118280402\\
65	0.00739035992869396\\
66	0.0116365722557393\\
67	0.00899390796280924\\
68	0.00831157148096884\\
69	0.00788086875151191\\
70	0.00754217236777393\\
71	0.00725475830161164\\
72	0.00700327644843893\\
73	0.006780818536885\\
74	0.00658453626015097\\
75	0.00641472878078445\\
76	0.00627599401250467\\
77	0.00618216997550965\\
78	0.00617516728867787\\
79	0.00642745729543014\\
80	0.00873051939586948\\
81	0.00471465923588381\\
82	0.00195996010568866\\
83	0.004980313957114\\
84	0.00475839614864904\\
85	0.00464733241660508\\
86	0.00455444244400457\\
87	0.00446749239384432\\
88	0.00438406292262191\\
89	0.00430366820355207\\
90	0.00422628355118023\\
91	0.00415201532524293\\
92	0.00408104289588831\\
93	0.00401365198230764\\
94	0.00395033763548775\\
95	0.00389203620501121\\
96	0.00384070443755282\\
97	0.00380107128140597\\
98	0.00378779867734327\\
99	0.00387836096292209\\
100	0.00228454900881806\\
101	0.00321909463290553\\
102	0.00328982387499096\\
103	0.00328100374444436\\
104	0.00325253146337885\\
105	0.00321692683031362\\
106	0.00317840637543852\\
107	0.00313876414674543\\
108	0.00309887602618152\\
109	0.00305920797263281\\
110	0.00302002111537278\\
111	0.00298146552488656\\
112	0.00294362726599965\\
113	0.0029065537719176\\
114	0.00287026833389302\\
115	0.00283477876811283\\
116	0.00280008280049957\\
117	0.00276617151884636\\
118	0.00273303164395387\\
119	0.00270064705586787\\
120	0.00266899983729428\\
121	0.00263807099659409\\
122	0.00260784097374635\\
123	0.00257828999668392\\
124	0.00254939833288439\\
125	0.00252114646667125\\
126	0.00249351522323938\\
127	0.00246648585412356\\
128	0.00244004009455901\\
129	0.00241416020024051\\
130	0.00238882896892876\\
131	0.0023640297508985\\
132	0.00233974645117835\\
133	0.00231596352577768\\
134	0.00229266597354371\\
135	0.00226983932488367\\
136	0.00224746962828519\\
137	0.00222554343533969\\
138	0.00220404778480324\\
139	0.00218297018609978\\
140	0.00216229860257188\\
141	0.00214202143470905\\
142	0.00212212750352594\\
143	0.00210260603421662\\
144	0.00208344664017788\\
145	0.00206463930746792\\
146	0.00204617437974413\\
147	0.00202804254371082\\
148	0.00201023481509265\\
149	0.00199274252514179\\
150	0.00197555730767936\\
151	0.0019586710866655\\
152	0.00194207606428942\\
153	0.00192576470956709\\
154	0.00190972974743187\\
155	0.00189396414830307\\
156	0.00187846111811499\\
157	0.00186321408878906\\
158	0.00184821670913216\\
159	0.00183346283614256\\
160	0.00181894652670628\\
161	0.00180466202966742\\
162	0.00179060377825436\\
163	0.00177676638284649\\
164	0.00176314462406556\\
165	0.00174973344617591\\
166	0.0017365279507797\\
167	0.00172352339079259\\
168	0.00171071516468654\\
169	0.00169809881098722\\
170	0.00168567000301325\\
171	0.00167342454384613\\
172	0.00166135836151948\\
173	0.00164946750441694\\
174	0.00163774813686889\\
175	0.00162619653493841\\
176	0.00161480908238697\\
177	0.00160358226681213\\
178	0.001592512675948\\
179	0.00158159699412143\\
180	0.00157083199885632\\
181	0.00156021455761888\\
182	0.00154974162469766\\
183	0.00153941023821136\\
184	0.00152921751723897\\
185	0.00151916065906659\\
186	0.00150923693654504\\
187	0.00149944369555362\\
188	0.00148977835256491\\
189	0.00148023839230615\\
190	0.0014708213655126\\
191	0.00146152488676917\\
192	0.00145234663243548\\
193	0.00144328433865201\\
194	0.00143433579942216\\
195	0.0014254988647679\\
196	0.00141677143895562\\
197	0.00140815147878894\\
198	0.00139963699196521\\
199	0\\
200	0\\
};
\addlegendentry{$\mathbf{h_1}$}

\addplot [color=mycolor2]
  table[row sep=crcr]{%
1	0.00495033386861547\\
2	0.00515738368500011\\
3	0.00538309861623286\\
4	0.00563019833310769\\
5	0.00590197136255583\\
6	0.00620243506959928\\
7	0.00653655369620811\\
8	0.00691054090538825\\
9	0.00733228812251618\\
10	0.00781198494389501\\
11	0.00836304134465097\\
12	0.0090034999823859\\
13	0.00975827527656913\\
14	0.0106628508662167\\
15	0.0117696896019869\\
16	0.0131600228416925\\
17	0.0149671880151623\\
18	0.0174273921400842\\
19	0.0210049332363351\\
20	0.0267613442180004\\
21	0.037792597580649\\
22	0.068721841139076\\
23	0.97572931769219\\
24	0.0649085399616321\\
25	0.0262918397391367\\
26	0.0126468169615953\\
27	0.00419508123086451\\
28	0.0214241856295046\\
29	0.0134643328328179\\
30	0.00412679327935559\\
31	0.0112712342656943\\
32	0.0282552508318709\\
33	0.111702725947746\\
34	0.12653020104749\\
35	0.0361926668223949\\
36	0.024130019396178\\
37	0.019518168382204\\
38	0.0163235660243771\\
39	0.0140849625225472\\
40	0.0124312948441269\\
41	0.0111552918846637\\
42	0.0101369616841952\\
43	0.00930266674553233\\
44	0.00860476970863487\\
45	0.00801105372801389\\
46	0.00749890841387189\\
47	0.00705196472677567\\
48	0.00665805661850076\\
49	0.0063079366485928\\
50	0.00599443852440938\\
51	0.00571191453485358\\
52	0.00545584764793091\\
53	0.0052225778141873\\
54	0.00500910486747672\\
55	0.00481294397681212\\
56	0.00463201789166602\\
57	0.00446457542356871\\
58	0.00430912894812168\\
59	0.00416440590497024\\
60	0.00402931074167137\\
61	0.00390289474814389\\
62	0.00378433192171684\\
63	0.00367289949042518\\
64	0.0035679620699816\\
65	0.00346895868109233\\
66	0.00337539203747226\\
67	0.00328681965070268\\
68	0.00320284639950925\\
69	0\\
70	0\\
71	0\\
72	0\\
73	0\\
74	0\\
75	0\\
76	0\\
77	0\\
78	0\\
79	0\\
80	0\\
81	0\\
82	0\\
83	0\\
84	0\\
85	0\\
86	0\\
87	0\\
88	0\\
89	0\\
90	0\\
91	0\\
92	0\\
93	0\\
94	0\\
95	0\\
96	0\\
97	0\\
98	0\\
99	0\\
100	0\\
101	0\\
102	0\\
103	0\\
104	0\\
105	0\\
106	0\\
107	0\\
108	0\\
109	0\\
110	0\\
111	0\\
112	0\\
113	0\\
114	0\\
115	0\\
116	0\\
117	0\\
118	0\\
119	0\\
120	0\\
121	0\\
122	0\\
123	0\\
124	0\\
125	0\\
126	0\\
127	0\\
128	0\\
129	0\\
130	0\\
131	0\\
132	0\\
133	0\\
134	0\\
135	0\\
136	0\\
137	0\\
138	0\\
139	0\\
140	0\\
141	0\\
142	0\\
143	0\\
144	0\\
145	0\\
146	0\\
147	0\\
148	0\\
149	0\\
150	0\\
151	0\\
152	0\\
153	0\\
154	0\\
155	0\\
156	0\\
157	0\\
158	0\\
159	0\\
160	0\\
161	0\\
162	0\\
163	0\\
164	0\\
165	0\\
166	0\\
167	0\\
168	0\\
169	0\\
170	0\\
171	0\\
172	0\\
173	0\\
174	0\\
175	0\\
176	0\\
177	0\\
178	0\\
179	0\\
180	0\\
181	0\\
182	0\\
183	0\\
184	0\\
185	0\\
186	0\\
187	0\\
188	0\\
189	0\\
190	0\\
191	0\\
192	0\\
193	0\\
194	0\\
195	0\\
196	0\\
197	0\\
198	0\\
199	0\\
200	0\\
};
\addlegendentry{$\mathbf{h_{2}}$}

\end{axis}

\begin{axis}[%
width=1.935in,
height=3.2in,
at={(3.327in,0.512in)},
scale only axis,
xmin=0,
xmax=100,
xlabel style={font=\color{white!15!black}, align=center},
xlabel={Sample Index\\[1ex](b) Estimated},
ymin=0,
ymax=1,
axis background/.style={fill=white},
legend style={legend cell align=left, align=left, draw=white!15!black}
]
\addplot [color=mycolor1]
  table[row sep=crcr]{%
0	0.0277564264048242\\
1	0.0137046546261002\\
2	0.033983734967758\\
3	0.00255264270821056\\
4	0.016480266390149\\
5	0.0103672437894441\\
6	0.0067860992980674\\
7	0.0120768051338186\\
8	0.00294735496422097\\
9	0.00462525540027307\\
10	0.00371032914240461\\
11	0.00304497440472783\\
12	0.0240578252776295\\
13	0.0162171810203441\\
14	0.00591409270471835\\
15	0.028692050731942\\
16	0.0188530138685378\\
17	0.0155638491154294\\
18	0.0770507974625441\\
19	0.0370821314971528\\
20	0.0473949500702328\\
21	0.00553557884434219\\
22	0.0741015510893166\\
23	0.0228315516047966\\
24	0.035474513748562\\
25	0.035053777816286\\
26	0.0168546606033069\\
27	0.0834983212328382\\
28	0.0051897371483881\\
29	0.00599440278017391\\
30	0.0105842990410418\\
31	0.0228847113709936\\
32	0.0500509503499828\\
33	0.0768346791798079\\
34	0.152611324751473\\
35	0.0924894823976154\\
36	0.133229196005123\\
37	0.215030264105687\\
38	0.554030375998519\\
39	0.127852175830409\\
40	0.0650986476052829\\
41	0.0107818104018112\\
42	0.0418068891025871\\
43	0.049569015502425\\
44	0.0684017302801443\\
45	0.0189093305556047\\
46	0.031063697470022\\
47	0.0226780044353722\\
48	0.0551723354956975\\
49	0.0425442488699307\\
50	0.0304463495062881\\
51	0.0505405743728859\\
52	0.0692531927638022\\
53	0.0755609114351625\\
54	0.565516982430727\\
55	0.136950374592061\\
56	0.021962952006954\\
57	0.0644758294364486\\
58	0.0625576421520748\\
59	0.0773105854187511\\
60	0.159429641607024\\
61	0.0293918590980304\\
62	0.0434564593013475\\
63	0.0305920375597516\\
64	0.00293774052396876\\
65	0.0248051694046597\\
66	0.00909356331013331\\
67	0.0100303935236311\\
68	0.0175765314546513\\
69	0.0268339096739122\\
70	0.106276375232253\\
71	0.0795510545753324\\
72	0.0823881975260219\\
73	0.215538278145656\\
74	0.167215465906263\\
75	0.0822664041582714\\
76	0.0579980755542578\\
77	0.00792740811359228\\
78	0.0342668835164064\\
79	0.0271794112625046\\
80	0.00714280248445802\\
81	0.0100821505458603\\
82	0.0246329289045977\\
83	0.0187786339403843\\
84	0.0016720796009072\\
85	0.021464391192269\\
86	0.0213307540629636\\
87	0.0168101044129155\\
88	0.0255728522976259\\
89	0.0609093724999518\\
90	0.0533974401571909\\
91	0.022372041466622\\
92	0.028215210110091\\
93	0.0264264806938668\\
94	0.0176480112817688\\
95	0.0120517990398352\\
96	0.0173694514921155\\
97	0.010661801905387\\
98	0.0074117081461059\\
99	0.00631301418221575\\
};
\addlegendentry{$\mathbf{\hat{h}_{1}}$}

\addplot [color=mycolor2]
  table[row sep=crcr]{%
0	0.00591038737028686\\
1	0.00476349865598772\\
2	0.00843253438802812\\
3	0.00252040564615696\\
4	0.00394977672559305\\
5	0.00603771515940369\\
6	0.00246951927476958\\
7	0.00654689428466403\\
8	0.00220446185562007\\
9	0.0136440875703359\\
10	0.02524150840145\\
11	0.0260359015291326\\
12	0.00722432312732595\\
13	0.0495503438144833\\
14	0.0250642806155029\\
15	0.0215936424730793\\
16	0.0258816776849997\\
17	0.0174661062747808\\
18	0.00823806050613495\\
19	0.0121330298482697\\
20	0.0068655834404981\\
21	0.00310919615180445\\
22	0.00820853927008723\\
23	0.0191591564268195\\
24	0.005065536621431\\
25	0.00572933992868279\\
26	0.0266353986517504\\
27	0.0273675762626181\\
28	0.0192855730150087\\
29	0.0502658217706348\\
30	0.0614650501108072\\
31	0.0406863456195591\\
32	0.0133740747623868\\
33	0.144699244567745\\
34	0.0230076854614178\\
35	0.010872471990539\\
36	0.02752042680312\\
37	0.0112884061781859\\
38	0.0230525525325247\\
39	0.0224558564418959\\
40	0.0235337397338953\\
41	0.0271894104612406\\
42	0.0112239280972859\\
43	0.0162123508085\\
44	0.0172674455174998\\
45	0.0171421030258117\\
46	0.0564344807534065\\
47	0.0301869198037469\\
48	0.0090970372722404\\
49	0.951803727233154\\
50	0.00923210889452845\\
51	0.0302016768754285\\
52	0.0562599912197542\\
53	0.0170869689414336\\
54	0.0172147053069277\\
55	0.0162767399485588\\
56	0.0111900577947826\\
57	0.0272306194917594\\
58	0.0234919437820816\\
59	0.0225173111335888\\
60	0.0230328467096861\\
61	0.0113228307566318\\
62	0.027588370323505\\
63	0.0106509959547486\\
64	0.0230040368402045\\
65	0.144778930324619\\
66	0.0130255500120087\\
67	0.0411289991528005\\
68	0.0615141770020285\\
69	0.0502337128463179\\
70	0.0192395732150069\\
71	0.0276117960221605\\
72	0.0266866844780418\\
73	0.00543944876803911\\
74	0.00432947958074591\\
75	0.0184477804117176\\
76	0.00781461772397962\\
77	0.00315125819844632\\
78	0.00630165464260673\\
79	0.0119543907892644\\
80	0.00777107500497166\\
81	0.0170815267199847\\
82	0.0238708980929614\\
83	0.0213048161654751\\
84	0.0258054128647263\\
85	0.048411053182665\\
86	0.00657332928558092\\
87	0.0250109623167233\\
88	0.0288212567854658\\
89	0.0140917822388603\\
90	0.0032389626762867\\
91	0.00669724678565577\\
92	0.0036936093835674\\
93	0.00683215793390151\\
94	0.00510648760333769\\
95	0.0041948415778394\\
96	0.0092727443597959\\
97	0.00628121715007461\\
98	0.0043807822403191\\
99	0.00707179414920558\\
};
\addlegendentry{$\mathbf{\hat{h}_{2}}$}

\end{axis}
\end{tikzpicture}%