% This file was created by matlab2tikz.
%
%The latest updates can be retrieved from
%  http://www.mathworks.com/matlabcentral/fileexchange/22022-matlab2tikz-matlab2tikz
%where you can also make suggestions and rate matlab2tikz.
%
\definecolor{mycolor1}{rgb}{0.00000,0.44700,0.74100}%
\definecolor{mycolor2}{rgb}{0.85000,0.32500,0.09800}%
%
\begin{tikzpicture}

\begin{axis}[%
width=1.935in,
height=3.2in,
at={(0.758in,0.512in)},
scale only axis,
xmin=0,
xmax=200,
xlabel style={font=\color{white!15!black}, align=center},
xlabel={Sample Index\\[1ex](a) Actual},
ymin=0,
ymax=0.8,
axis background/.style={fill=white},
legend style={legend cell align=left, align=left, draw=white!15!black}
]
\addplot [color=mycolor1]
  table[row sep=crcr]{%
1	0.0182020814388773\\
2	0.02012510100002\\
3	0.022545111927633\\
4	0.0257092221775269\\
5	0.0300926257860288\\
6	0.0368070113207646\\
7	0.0496139700658591\\
8	0.100781801849891\\
9	0.104249814301154\\
10	0.21590224856942\\
11	0.240903318316862\\
12	0.758685269567618\\
13	0.209267020187496\\
14	0.0771785197863095\\
15	0.0494891771958471\\
16	0.0356405661348903\\
17	0.15523755961894\\
18	0.0271597451025023\\
19	0.145703442549891\\
20	0.0520738574541381\\
21	0.0740609080662357\\
22	0.104935155821669\\
23	0.0417678670288507\\
24	0.0299752622866834\\
25	0.0250001918328842\\
26	0.0229720939063182\\
27	0.0247245078055356\\
28	0.00362513039017358\\
29	0.14722576142865\\
30	0.0387273782761153\\
31	0.131677926596125\\
32	0.0785526041407005\\
33	0.0810464121808255\\
34	0.160588901862689\\
35	0.0744890994278548\\
36	0.134536712627009\\
37	0.0173820440229542\\
38	0.137082339999381\\
39	0.0170525437502556\\
40	0.00749074921495884\\
41	0.00341378303693337\\
42	0.00620877458876847\\
43	0.0141607494626642\\
44	0.0397125400502968\\
45	0.0472710882981607\\
46	0.117933825228246\\
47	0.104860760134015\\
48	0.0231680488862733\\
49	0.0173960896964215\\
50	0.01565840529932\\
51	0.0158238796681408\\
52	0.0214800847634647\\
53	0.069515335423337\\
54	0.00705654101536576\\
55	0.0048265337253162\\
56	0.00444892816390271\\
57	0.00420482397187746\\
58	0.00394665996283891\\
59	0.00367152522573874\\
60	0.00340609944322399\\
61	0.00324100673075721\\
62	0.00352226036423774\\
63	0.00577590294104206\\
64	0.0646039488883014\\
65	0.0152053951030713\\
66	0.025205330150814\\
67	0.0111279282265277\\
68	0.00808273026447386\\
69	0.00668378513225385\\
70	0.0058444881598292\\
71	0.00526118842255355\\
72	0.00481495459253537\\
73	0.00444984685034709\\
74	0.00413772241899909\\
75	0.00386847400652643\\
76	0.00365640479604675\\
77	0.00358022933512563\\
78	0.0039436041841542\\
79	0.00596743145716452\\
80	0.0193053572626292\\
81	0.0244955947722078\\
82	0.0480492514955312\\
83	0.00881743040387132\\
84	0.00673618414357698\\
85	0.00583169570033062\\
86	0.00529290215994122\\
87	0.0049263520005684\\
88	0.00465711125291308\\
89	0.0044495340289191\\
90	0.00428463427284004\\
91	0.00415172046176833\\
92	0.00404487765081529\\
93	0.00396151732265935\\
94	0.00390215289068892\\
95	0.00387150614980524\\
96	0.00388240228065188\\
97	0.00396861770551536\\
98	0.0042393791899913\\
99	0.00529535495453836\\
100	0.0384422656208756\\
101	0.00196598430595653\\
102	0.00227127045262919\\
103	0.0024323424968646\\
104	0.0025024611202\\
105	0.00253048915714305\\
106	0.00253672908189185\\
107	0.00253067827009284\\
108	0.00251728582017171\\
109	0.00249934971595597\\
110	0.00247855194358738\\
111	0.00245595212950105\\
112	0.00243224240902919\\
113	0.0024078877120558\\
114	0.00238320712614353\\
115	0.00235842317784567\\
116	0.00233369278997705\\
117	0.00230912733940947\\
118	0.00228480600224308\\
119	0.00226078483862737\\
120	0.00223710310173484\\
121	0.00221378769593874\\
122	0.00219085637556591\\
123	0.00216832007097849\\
124	0.00214618460011501\\
125	0.00212445194095342\\
126	0.00210312118614787\\
127	0.002082189264892\\
128	0.00206165149248505\\
129	0.00204150199113677\\
130	0.00202173401371152\\
131	0.00200234019373144\\
132	0.00198331273896169\\
133	0.0019646435815544\\
134	0.00194632449455517\\
135	0.00192834718223092\\
136	0.00191070334993457\\
137	0.00189338475791222\\
138	0.00187638326246988\\
139	0.00185969084716353\\
140	0.00184329964609891\\
141	0.00182720196098313\\
142	0.00181139027322501\\
143	0.00179585725211227\\
144	0.00178059575988462\\
145	0.00176559885435432\\
146	0.00175085978959665\\
147	0.00173637201512792\\
148	0.00172212917390737\\
149	0.00170812509943172\\
150	0.00169435381214015\\
151	0.00168080951530347\\
152	0.00166748659053823\\
153	0.00165437959305814\\
154	0.00164148324675288\\
155	0.00162879243916746\\
156	0.00161630221643902\\
157	0.0016040077782369\\
158	0.00159190447274199\\
159	0.00157998779169339\\
160	0.00156825336552436\\
161	0.00155669695860377\\
162	0.00154531446459552\\
163	0.00153410190194422\\
164	0.00152305540949421\\
165	0.00151217124224425\\
166	0.00150144576724133\\
167	0.00149087545961318\\
168	0.00148045689873912\\
169	0.00147018676455811\\
170	0.00146006183401068\\
171	0.00145007897761323\\
172	0.00144023515616105\\
173	0.00143052741755604\\
174	0.0014209528937561\\
175	0.00141150879784194\\
176	0.00140219242119743\\
177	0.0013930011307999\\
178	0.00138393236661579\\
179	0.00137498363909773\\
180	0.0013661525267803\\
181	0.00135743667396858\\
182	0.00134883378851806\\
183	0.00134034163970044\\
184	0.00133195805615281\\
185	0.00132368092390639\\
186	0.00131550818449211\\
187	0.00130743783311859\\
188	0.00129946791692105\\
189	0.00129159653327689\\
190	0.00128382182818601\\
191	0.00127614199471266\\
192	0.00126855527148628\\
193	0.00126105994125928\\
194	0.00125365432951856\\
195	0.00124633680314903\\
196	0.00123910576914731\\
197	0.00123195967338265\\
198	0.00122489699940362\\
199	0\\
200	0\\
};
\addlegendentry{$\mathbf{h_1}$}

\addplot [color=mycolor2]
  table[row sep=crcr]{%
1	0.00774703480118937\\
2	0.00804603929146471\\
3	0.00836973275649019\\
4	0.00872140343539048\\
5	0.00910497030680877\\
6	0.00952514700926037\\
7	0.00998766130776543\\
8	0.0104995540104486\\
9	0.0110695940567668\\
10	0.0117088677650987\\
11	0.0124316367204608\\
12	0.013256623866012\\
13	0.0142090087041013\\
14	0.0153236507623596\\
15	0.0166505577523129\\
16	0.0182647317357061\\
17	0.0202852710510938\\
18	0.0229161572207696\\
19	0.0265452456738114\\
20	0.0320322468033177\\
21	0.0418192089559173\\
22	0.0672236903861102\\
23	0.764800043449489\\
24	0.0299885302146741\\
25	0.0061115763360554\\
26	0.0242678676400095\\
27	0.0514933555988865\\
28	0.195228919998726\\
29	0.085859180908406\\
30	0.0163105896710166\\
31	0.0145786853171939\\
32	0.0559865681218998\\
33	0.251050340252552\\
34	0.336624236311341\\
35	0.408546548232539\\
36	0.036057069833403\\
37	0.032029118563816\\
38	0.0279234399827533\\
39	0.024556464147634\\
40	0.0218789138558169\\
41	0.0197265840855051\\
42	0.0179656432193082\\
43	0.016499807231079\\
44	0.0152607166923053\\
45	0.0141992302040502\\
46	0.0132793478490471\\
47	0.0124741733162898\\
48	0.011763234520885\\
49	0.0111306817804915\\
50	0.0105640541254365\\
51	0.0100534184529814\\
52	0.00959075767384862\\
53	0.00916952821967447\\
54	0.00878433483782754\\
55	0.00843068801165144\\
56	0.00810482052737742\\
57	0.00780354701585278\\
58	0.00752415515294532\\
59	0.00726432048229959\\
60	0.00702203907403127\\
61	0.00679557379902244\\
62	0.00658341110359303\\
63	0.00638422595921995\\
64	0.00619685323339502\\
65	0.00602026414575953\\
66	0.00585354678274153\\
67	0.00569588987471922\\
68	0.00554656921368661\\
69	0\\
70	0\\
71	0\\
72	0\\
73	0\\
74	0\\
75	0\\
76	0\\
77	0\\
78	0\\
79	0\\
80	0\\
81	0\\
82	0\\
83	0\\
84	0\\
85	0\\
86	0\\
87	0\\
88	0\\
89	0\\
90	0\\
91	0\\
92	0\\
93	0\\
94	0\\
95	0\\
96	0\\
97	0\\
98	0\\
99	0\\
100	0\\
101	0\\
102	0\\
103	0\\
104	0\\
105	0\\
106	0\\
107	0\\
108	0\\
109	0\\
110	0\\
111	0\\
112	0\\
113	0\\
114	0\\
115	0\\
116	0\\
117	0\\
118	0\\
119	0\\
120	0\\
121	0\\
122	0\\
123	0\\
124	0\\
125	0\\
126	0\\
127	0\\
128	0\\
129	0\\
130	0\\
131	0\\
132	0\\
133	0\\
134	0\\
135	0\\
136	0\\
137	0\\
138	0\\
139	0\\
140	0\\
141	0\\
142	0\\
143	0\\
144	0\\
145	0\\
146	0\\
147	0\\
148	0\\
149	0\\
150	0\\
151	0\\
152	0\\
153	0\\
154	0\\
155	0\\
156	0\\
157	0\\
158	0\\
159	0\\
160	0\\
161	0\\
162	0\\
163	0\\
164	0\\
165	0\\
166	0\\
167	0\\
168	0\\
169	0\\
170	0\\
171	0\\
172	0\\
173	0\\
174	0\\
175	0\\
176	0\\
177	0\\
178	0\\
179	0\\
180	0\\
181	0\\
182	0\\
183	0\\
184	0\\
185	0\\
186	0\\
187	0\\
188	0\\
189	0\\
190	0\\
191	0\\
192	0\\
193	0\\
194	0\\
195	0\\
196	0\\
197	0\\
198	0\\
199	0\\
200	0\\
};
\addlegendentry{$\mathbf{h_{2}}$}

\end{axis}

\begin{axis}[%
width=1.935in,
height=3.2in,
at={(3.327in,0.512in)},
scale only axis,
xmin=0,
xmax=200,
xlabel style={font=\color{white!15!black}, align=center},
xlabel={Sample Index\\[1ex](b) Estimated},
ymin=0,
ymax=1,
axis background/.style={fill=white},
legend style={legend cell align=left, align=left, draw=white!15!black}
]
\addplot [color=mycolor1]
  table[row sep=crcr]{%
0	0.000360023814177662\\
1	4.62859216045572e-05\\
2	9.84931656359395e-05\\
3	1.5259230762391e-05\\
4	5.96714787705643e-05\\
5	1.83008092787804e-05\\
6	6.83445387990478e-05\\
7	0.000150736096635942\\
8	9.41125508121549e-05\\
9	7.73635247555736e-06\\
10	0.000107532580779845\\
11	0.000122033438498256\\
12	0.000202599071215105\\
13	0.000166102735928288\\
14	5.57333468838084e-05\\
15	3.03974782647335e-05\\
16	3.97083912198626e-05\\
17	2.91901341655938e-05\\
18	4.30781329946178e-05\\
19	0.00139598150476206\\
20	3.0210846342096e-05\\
21	0.000199759026205566\\
22	0.000268629054369025\\
23	0.0026012663773874\\
24	0.00334953791309392\\
25	0.00128346252698516\\
26	6.77092175087195e-05\\
27	4.17057562514942e-05\\
28	3.48863629591602e-05\\
29	2.80138077578393e-05\\
30	3.18388821034858e-05\\
31	6.13082603460631e-05\\
32	0.000101977932249188\\
33	0.000156478025326512\\
34	0.000108871579017291\\
35	7.10191055530042e-05\\
36	0.000114294656399186\\
37	0.000139503271663155\\
38	0.000446587908412652\\
39	0.000222053181246803\\
40	0.000540806985975096\\
41	0.00102251485617736\\
42	0.000109566521619518\\
43	2.60107529111046e-05\\
44	6.42105211129657e-05\\
45	0.0042328183895495\\
46	2.21328610094062e-05\\
47	0.00741744666471714\\
48	0.00373613850007383\\
49	0.00772227167105864\\
50	0.00719610631522723\\
51	0.00146330557020136\\
52	0.000871727836504502\\
53	0.00615656775514166\\
54	0.00814852294273812\\
55	0.0158095198715679\\
56	9.84698333990413e-05\\
57	0.00968139898036652\\
58	0.00597716255753614\\
59	2.39020298092226e-05\\
60	0.00302098600289613\\
61	0.0133202807272858\\
62	0.0138139424885927\\
63	0.00262724157161939\\
64	0.0477921481106727\\
65	0.0403154551722016\\
66	0.0641992834087784\\
67	0.00421543677973465\\
68	0.025497328928611\\
69	0.0382233892785677\\
70	0.0204526948462589\\
71	0.0602669755737332\\
72	0.0430651307672378\\
73	0.0338758323272719\\
74	0.000603073902399665\\
75	0.16787645241429\\
76	0.381747843920454\\
77	0.336127190896983\\
78	0.111449007901182\\
79	0.0285020439341106\\
80	0.000181779356353205\\
81	0.0758865498215663\\
82	0.0593415738634358\\
83	0.0390363671523278\\
84	0.0343330456234557\\
85	0.0821566026318859\\
86	0.105204692714111\\
87	0.177942378627837\\
88	0.592000955137315\\
89	0.259289815882198\\
90	0.0949659598840238\\
91	0.0184010059931747\\
92	0.0406076497081566\\
93	0.0774775505897764\\
94	0.0464071669970733\\
95	0.14027359334469\\
96	0.0777520277856962\\
97	0.0188407401690189\\
98	0.134759086720182\\
99	0.0782914262043119\\
100	0.0111138895556937\\
101	0.0784310657857846\\
102	0.0724970039399449\\
103	0.0651856217468541\\
104	0.0386139541033974\\
105	0.10382655266824\\
106	0.0225192864973279\\
107	0.0327482024935529\\
108	0.0309160770187001\\
109	0.11454809206756\\
110	0.17462653506826\\
111	0.0747753402479418\\
112	0.0952946566917001\\
113	0.0216313570386695\\
114	0.109394778674275\\
115	0.00427180310905969\\
116	0.000187817241552489\\
117	0.0195886558695433\\
118	0.0434950358564465\\
119	0.0252774445328499\\
120	0.0300752292326687\\
121	0.0328186365964353\\
122	0.0988603843405713\\
123	0.0965577048051425\\
124	0.00203865558312943\\
125	0.00152444644098106\\
126	0.00164118085117122\\
127	0.0135954370344702\\
128	0.0023615565873108\\
129	0.00200164034894474\\
130	0.0302592272384427\\
131	0.00324802605526287\\
132	0.0065944089200139\\
133	0.00637553805801503\\
134	0.0087447218969445\\
135	0.0206809083062824\\
136	0.00214901860289866\\
137	0.00957891827927521\\
138	0.0132775242319386\\
139	0.00640382795491809\\
140	0.0496308576470338\\
141	0.00529851780330014\\
142	0.0149477435031253\\
143	0.00763713521944839\\
144	0.00213642205955547\\
145	0.00462523985695962\\
146	0.010917043433942\\
147	0.0180316808306688\\
148	0.00671470019310331\\
149	0.00588185234172229\\
150	0.00457048625179538\\
151	0.00377317503706136\\
152	2.36179704198356e-05\\
153	0.000750503007168058\\
154	0.000197901092301115\\
155	6.18417624820067e-05\\
156	0.00298958133249766\\
157	0.0130860132907451\\
158	0.0321360669849897\\
159	0.00637296509035658\\
160	0.00516126554040008\\
161	0.00256259996785724\\
162	0.000553094885849356\\
163	6.26149525079461e-05\\
164	0.00203203258077196\\
165	0.0116156220151479\\
166	0.0024437306226364\\
167	0.000285426182351622\\
168	0.00032238354118143\\
169	7.32320003048048e-05\\
170	0.00130124536094667\\
171	0.000332795784336565\\
172	0.00016966343956248\\
173	6.39593340018635e-05\\
174	4.22583948811297e-05\\
175	7.24204991069457e-05\\
176	0.0268448159289334\\
177	0.00289499825542976\\
178	0.000156294803148002\\
179	0.000516790136929323\\
180	4.50434527760453e-05\\
181	3.20119510884714e-05\\
182	0.000285583785084857\\
183	0.000134182928141738\\
184	7.2412127905863e-05\\
185	0.000150037182335867\\
186	0.00104444224824466\\
187	0.000182712828914058\\
188	2.65302801334656e-05\\
189	0.00011908017755579\\
190	6.66243766456208e-05\\
191	0.000112170222530156\\
192	7.70162502131734e-05\\
193	2.38820684810671e-05\\
194	0.000101771823844094\\
195	8.61097500608052e-05\\
196	0.000109283337468415\\
197	4.03165548301013e-05\\
198	0.000482833750516951\\
199	8.73092795161426e-05\\
};
\addlegendentry{$\mathbf{\hat{h}_{1}}$}

\addplot [color=mycolor2]
  table[row sep=crcr]{%
0	3.29574763592023e-05\\
1	5.74870650537591e-05\\
2	3.01387043803321e-05\\
3	7.68841237543612e-05\\
4	6.9781603188726e-05\\
5	5.4978994851969e-05\\
6	8.44703341465594e-05\\
7	7.82320562582195e-05\\
8	4.20965410379984e-05\\
9	6.88706521196583e-05\\
10	0.000665563983008036\\
11	0.00720899321781438\\
12	0.000991295765088082\\
13	0.000121982672659195\\
14	8.54058070644487e-05\\
15	2.89764699577392e-05\\
16	6.11630057338357e-05\\
17	0.000289689416921215\\
18	0.000116730036931016\\
19	3.66412948474612e-05\\
20	0.000765925746328446\\
21	1.65553305928459e-05\\
22	5.54210225319992e-05\\
23	0.00239407454464144\\
24	2.1265553214372e-05\\
25	0.000495066973113434\\
26	3.93850724090018e-05\\
27	7.80116166120396e-05\\
28	0.00220676658920192\\
29	0.0057805538531051\\
30	0.0100437698149532\\
31	0.000112227853025233\\
32	0.00184714732377524\\
33	0.00178967640604589\\
34	0.000413182267648069\\
35	0.00227820893200662\\
36	0.000562529043609178\\
37	0.0012379662889824\\
38	0.0012451597085064\\
39	4.34724241065966e-05\\
40	0.000228090101140332\\
41	0.0012141099256443\\
42	0.00300976409667096\\
43	0.000185503728071026\\
44	0.00133151017967023\\
45	0.00526966056724355\\
46	0.00872224836977666\\
47	0.0187721666287636\\
48	0.00471757891553053\\
49	0.00577155345569128\\
50	0.000956046245763517\\
51	0.00185988293305962\\
52	0.000674853929357799\\
53	0.00462220326011125\\
54	0.00442352080493805\\
55	0.00106310122860169\\
56	0.00404553316333656\\
57	0.00236796271989446\\
58	0.0126326834567779\\
59	0.00667352091523559\\
60	0.0023753628991636\\
61	0.00214327734027456\\
62	0.00605608153268157\\
63	0.00827055940098846\\
64	0.0153746226747969\\
65	0.026704387344662\\
66	0.0264990093088174\\
67	0.00495404618426749\\
68	0.0135643084789073\\
69	0.0124078712274134\\
70	0.002781419419163\\
71	1.38888113850078e-05\\
72	0.0192204956843783\\
73	0.0480935810111397\\
74	0.00449309662986414\\
75	0.0473953958154368\\
76	0.0129329457932979\\
77	0.0377828377334071\\
78	0.0253978593490209\\
79	0.0191347957774017\\
80	0.0446440791003492\\
81	0.0229020743594054\\
82	0.0392599869932372\\
83	0.0249031445583016\\
84	0.0141905536683351\\
85	0.00495128776307285\\
86	0.00321377071425608\\
87	0.0363140041406442\\
88	0.0460919026574699\\
89	4.80741049822644e-06\\
90	0.0133796009393993\\
91	0.00372436259154739\\
92	0.0508421930186588\\
93	0.0216571332667211\\
94	0.0772249038834544\\
95	0.0315387274155704\\
96	0.067236722697457\\
97	0.0649387565077952\\
98	0.0338554955499544\\
99	0.957875556285384\\
100	0.0328412750467275\\
101	0.0666369249875209\\
102	0.0657024513614841\\
103	0.0302620821256062\\
104	0.0808122632715046\\
105	0.0201919037606468\\
106	0.0517115143093146\\
107	0.00397313846919002\\
108	0.0152234184918774\\
109	0.0525126837798113\\
110	0.0466835698585939\\
111	0.0318645504863178\\
112	0.00556978088029022\\
113	0.00236855107230086\\
114	0.0102807516262691\\
115	0.0269580013394075\\
116	0.0376239209518741\\
117	0.0239684570101318\\
118	0.0458967642019881\\
119	0.021128925932449\\
120	0.0255329017083413\\
121	0.0402898044980232\\
122	0.0148629747380154\\
123	0.0498564420678743\\
124	0.00352986323337743\\
125	0.0488858574369713\\
126	0.0214515426744569\\
127	0.00020765567531962\\
128	0.000905951351527502\\
129	0.0116737745560801\\
130	0.0122004490033496\\
131	0.00396849063241795\\
132	0.0287913268585878\\
133	0.0258458915342734\\
134	0.0172006682951135\\
135	0.00654310945472125\\
136	0.00615434675399646\\
137	0.000856721342380543\\
138	0.00241277524379618\\
139	0.00793939540858144\\
140	0.0150301672565755\\
141	0.00505289989097981\\
142	0.004486281275959\\
143	0.00172620330743906\\
144	0.00483306627091967\\
145	0.00532809094989543\\
146	0.000958131294922852\\
147	0.00259474223901285\\
148	0.000704996849417619\\
149	0.00649092577813807\\
150	0.00661734357395023\\
151	0.0197298766680477\\
152	0.00861922513381609\\
153	0.0060754788555999\\
154	0.00123450055358926\\
155	0.000206035845302114\\
156	0.00315867298622432\\
157	0.00128141569208646\\
158	0.00218166028957957\\
159	0.000158944842832549\\
160	0.00203056449421877\\
161	0.00176131565738757\\
162	0.000477542736670816\\
163	0.00203322488730676\\
164	0.000359062949563103\\
165	0.00130357152083991\\
166	0.00212340099097168\\
167	0.000139441090723312\\
168	0.0120378949880372\\
169	0.0064501161270831\\
170	0.00430651950379953\\
171	8.82739092937384e-05\\
172	0.000528607131815087\\
173	0.00111054062011232\\
174	0.000246284283653718\\
175	0.00268361972526278\\
176	0.000129809583174195\\
177	1.27354546191803e-05\\
178	0.00190109948146973\\
179	7.92459725510324e-05\\
180	0.000402125200290656\\
181	0.000238927566924725\\
182	0.000231118259189433\\
183	6.24691707316555e-05\\
184	0.000134347208589691\\
185	8.11394966435609e-05\\
186	0.0015527044271198\\
187	0.00870313952843909\\
188	0.00215940888726021\\
189	5.33291830293865e-05\\
190	6.37353007292786e-05\\
191	0.000355881814363538\\
192	9.36357917797786e-05\\
193	4.74942962766285e-05\\
194	0.000115481351399496\\
195	0.000109914864147776\\
196	1.88799605679383e-05\\
197	0.00037975428033513\\
198	1.4908680565798e-05\\
199	3.92697108560832e-05\\
};
\addlegendentry{$\mathbf{\hat{h}_{2}}$}

\end{axis}
\end{tikzpicture}%