% This file was created by matlab2tikz.
%
%The latest updates can be retrieved from
%  http://www.mathworks.com/matlabcentral/fileexchange/22022-matlab2tikz-matlab2tikz
%where you can also make suggestions and rate matlab2tikz.
%
\definecolor{mycolor1}{rgb}{0.00000,0.44700,0.74100}%
\definecolor{mycolor2}{rgb}{0.85000,0.32500,0.09800}%
%
\begin{tikzpicture}

\begin{axis}[%
width=1.935in,
height=3.2in,
at={(0.758in,0.512in)},
scale only axis,
xmin=0,
xmax=200,
xlabel style={font=\color{white!15!black}, align=center},
xlabel={Sample Index\\[1ex](a) Actual},
ymin=0,
ymax=1,
axis background/.style={fill=white},
legend style={legend cell align=left, align=left, draw=white!15!black}
]
\addplot [color=mycolor1]
  table[row sep=crcr]{%
1	0.0167418731260698\\
2	0.018659722218203\\
3	0.0211495716349754\\
4	0.0245407494314006\\
5	0.029505643974117\\
6	0.0377161636169434\\
7	0.0550750576238134\\
8	0.131028403455825\\
9	0.141533477104454\\
10	0.158175166246243\\
11	0.163761757297189\\
12	0.600100605556833\\
13	0.118033417583129\\
14	0.0610914209628117\\
15	0.0426162246246858\\
16	0.0332715711707656\\
17	0.0321939439283243\\
18	0.0268871008873183\\
19	0.0316920608120786\\
20	0.0286771919664519\\
21	0.00773119825769845\\
22	0.0330073087209196\\
23	0.019415059292473\\
24	0.0177688778425817\\
25	0.0188194600762088\\
26	0.0237714798713867\\
27	0.0430806655948836\\
28	0.586023006720236\\
29	0.0970905103802927\\
30	0.0246981078960262\\
31	0.0780346253424249\\
32	0.0580455436901626\\
33	0.0681836526256362\\
34	0.163824852865525\\
35	0.0446106828365612\\
36	0.06119675966513\\
37	0.00907835157153909\\
38	0.0310093774848825\\
39	0.00125972832884384\\
40	0.005422098150711\\
41	0.0107374596162295\\
42	0.0165479326643041\\
43	0.024789327411243\\
44	0.0446277431282512\\
45	0.058019450740893\\
46	0.074843365423057\\
47	0.199666615467323\\
48	0.216838516027539\\
49	0.0783890355452335\\
50	0.0495529240878659\\
51	0.0370791446049236\\
52	0.0307530810094058\\
53	0.0155757068681131\\
54	0.0198807977432187\\
55	0.0179871495341263\\
56	0.0162887905400521\\
57	0.0148728268904216\\
58	0.0136909847461918\\
59	0.0126943671543235\\
60	0.011846112844806\\
61	0.0111233301448608\\
62	0.0105291449791113\\
63	0.0102108676347222\\
64	0.00751288118280402\\
65	0.00739035992869396\\
66	0.0116365722557393\\
67	0.00899390796280924\\
68	0.00831157148096884\\
69	0.00788086875151191\\
70	0.00754217236777393\\
71	0.00725475830161164\\
72	0.00700327644843893\\
73	0.006780818536885\\
74	0.00658453626015097\\
75	0.00641472878078445\\
76	0.00627599401250467\\
77	0.00618216997550965\\
78	0.00617516728867787\\
79	0.00642745729543014\\
80	0.00873051939586948\\
81	0.00471465923588381\\
82	0.00195996010568866\\
83	0.004980313957114\\
84	0.00475839614864904\\
85	0.00464733241660508\\
86	0.00455444244400457\\
87	0.00446749239384432\\
88	0.00438406292262191\\
89	0.00430366820355207\\
90	0.00422628355118023\\
91	0.00415201532524293\\
92	0.00408104289588831\\
93	0.00401365198230764\\
94	0.00395033763548775\\
95	0.00389203620501121\\
96	0.00384070443755282\\
97	0.00380107128140597\\
98	0.00378779867734327\\
99	0.00387836096292209\\
100	0.00228454900881806\\
101	0.00321909463290553\\
102	0.00328982387499096\\
103	0.00328100374444436\\
104	0.00325253146337885\\
105	0.00321692683031362\\
106	0.00317840637543852\\
107	0.00313876414674543\\
108	0.00309887602618152\\
109	0.00305920797263281\\
110	0.00302002111537278\\
111	0.00298146552488656\\
112	0.00294362726599965\\
113	0.0029065537719176\\
114	0.00287026833389302\\
115	0.00283477876811283\\
116	0.00280008280049957\\
117	0.00276617151884636\\
118	0.00273303164395387\\
119	0.00270064705586787\\
120	0.00266899983729428\\
121	0.00263807099659409\\
122	0.00260784097374635\\
123	0.00257828999668392\\
124	0.00254939833288439\\
125	0.00252114646667125\\
126	0.00249351522323938\\
127	0.00246648585412356\\
128	0.00244004009455901\\
129	0.00241416020024051\\
130	0.00238882896892876\\
131	0.0023640297508985\\
132	0.00233974645117835\\
133	0.00231596352577768\\
134	0.00229266597354371\\
135	0.00226983932488367\\
136	0.00224746962828519\\
137	0.00222554343533969\\
138	0.00220404778480324\\
139	0.00218297018609978\\
140	0.00216229860257188\\
141	0.00214202143470905\\
142	0.00212212750352594\\
143	0.00210260603421662\\
144	0.00208344664017788\\
145	0.00206463930746792\\
146	0.00204617437974413\\
147	0.00202804254371082\\
148	0.00201023481509265\\
149	0.00199274252514179\\
150	0.00197555730767936\\
151	0.0019586710866655\\
152	0.00194207606428942\\
153	0.00192576470956709\\
154	0.00190972974743187\\
155	0.00189396414830307\\
156	0.00187846111811499\\
157	0.00186321408878906\\
158	0.00184821670913216\\
159	0.00183346283614256\\
160	0.00181894652670628\\
161	0.00180466202966742\\
162	0.00179060377825436\\
163	0.00177676638284649\\
164	0.00176314462406556\\
165	0.00174973344617591\\
166	0.0017365279507797\\
167	0.00172352339079259\\
168	0.00171071516468654\\
169	0.00169809881098722\\
170	0.00168567000301325\\
171	0.00167342454384613\\
172	0.00166135836151948\\
173	0.00164946750441694\\
174	0.00163774813686889\\
175	0.00162619653493841\\
176	0.00161480908238697\\
177	0.00160358226681213\\
178	0.001592512675948\\
179	0.00158159699412143\\
180	0.00157083199885632\\
181	0.00156021455761888\\
182	0.00154974162469766\\
183	0.00153941023821136\\
184	0.00152921751723897\\
185	0.00151916065906659\\
186	0.00150923693654504\\
187	0.00149944369555362\\
188	0.00148977835256491\\
189	0.00148023839230615\\
190	0.0014708213655126\\
191	0.00146152488676917\\
192	0.00145234663243548\\
193	0.00144328433865201\\
194	0.00143433579942216\\
195	0.0014254988647679\\
196	0.00141677143895562\\
197	0.00140815147878894\\
198	0.00139963699196521\\
199	0\\
200	0\\
};
\addlegendentry{$\mathbf{h_1}$}

\addplot [color=mycolor2]
  table[row sep=crcr]{%
1	0.00495033386861547\\
2	0.00515738368500011\\
3	0.00538309861623286\\
4	0.00563019833310769\\
5	0.00590197136255583\\
6	0.00620243506959928\\
7	0.00653655369620811\\
8	0.00691054090538825\\
9	0.00733228812251618\\
10	0.00781198494389501\\
11	0.00836304134465097\\
12	0.0090034999823859\\
13	0.00975827527656913\\
14	0.0106628508662167\\
15	0.0117696896019869\\
16	0.0131600228416925\\
17	0.0149671880151623\\
18	0.0174273921400842\\
19	0.0210049332363351\\
20	0.0267613442180004\\
21	0.037792597580649\\
22	0.068721841139076\\
23	0.97572931769219\\
24	0.0649085399616321\\
25	0.0262918397391367\\
26	0.0126468169615953\\
27	0.00419508123086451\\
28	0.0214241856295046\\
29	0.0134643328328179\\
30	0.00412679327935559\\
31	0.0112712342656943\\
32	0.0282552508318709\\
33	0.111702725947746\\
34	0.12653020104749\\
35	0.0361926668223949\\
36	0.024130019396178\\
37	0.019518168382204\\
38	0.0163235660243771\\
39	0.0140849625225472\\
40	0.0124312948441269\\
41	0.0111552918846637\\
42	0.0101369616841952\\
43	0.00930266674553233\\
44	0.00860476970863487\\
45	0.00801105372801389\\
46	0.00749890841387189\\
47	0.00705196472677567\\
48	0.00665805661850076\\
49	0.0063079366485928\\
50	0.00599443852440938\\
51	0.00571191453485358\\
52	0.00545584764793091\\
53	0.0052225778141873\\
54	0.00500910486747672\\
55	0.00481294397681212\\
56	0.00463201789166602\\
57	0.00446457542356871\\
58	0.00430912894812168\\
59	0.00416440590497024\\
60	0.00402931074167137\\
61	0.00390289474814389\\
62	0.00378433192171684\\
63	0.00367289949042518\\
64	0.0035679620699816\\
65	0.00346895868109233\\
66	0.00337539203747226\\
67	0.00328681965070268\\
68	0.00320284639950925\\
69	0\\
70	0\\
71	0\\
72	0\\
73	0\\
74	0\\
75	0\\
76	0\\
77	0\\
78	0\\
79	0\\
80	0\\
81	0\\
82	0\\
83	0\\
84	0\\
85	0\\
86	0\\
87	0\\
88	0\\
89	0\\
90	0\\
91	0\\
92	0\\
93	0\\
94	0\\
95	0\\
96	0\\
97	0\\
98	0\\
99	0\\
100	0\\
101	0\\
102	0\\
103	0\\
104	0\\
105	0\\
106	0\\
107	0\\
108	0\\
109	0\\
110	0\\
111	0\\
112	0\\
113	0\\
114	0\\
115	0\\
116	0\\
117	0\\
118	0\\
119	0\\
120	0\\
121	0\\
122	0\\
123	0\\
124	0\\
125	0\\
126	0\\
127	0\\
128	0\\
129	0\\
130	0\\
131	0\\
132	0\\
133	0\\
134	0\\
135	0\\
136	0\\
137	0\\
138	0\\
139	0\\
140	0\\
141	0\\
142	0\\
143	0\\
144	0\\
145	0\\
146	0\\
147	0\\
148	0\\
149	0\\
150	0\\
151	0\\
152	0\\
153	0\\
154	0\\
155	0\\
156	0\\
157	0\\
158	0\\
159	0\\
160	0\\
161	0\\
162	0\\
163	0\\
164	0\\
165	0\\
166	0\\
167	0\\
168	0\\
169	0\\
170	0\\
171	0\\
172	0\\
173	0\\
174	0\\
175	0\\
176	0\\
177	0\\
178	0\\
179	0\\
180	0\\
181	0\\
182	0\\
183	0\\
184	0\\
185	0\\
186	0\\
187	0\\
188	0\\
189	0\\
190	0\\
191	0\\
192	0\\
193	0\\
194	0\\
195	0\\
196	0\\
197	0\\
198	0\\
199	0\\
200	0\\
};
\addlegendentry{$\mathbf{h_{2}}$}

\end{axis}

\begin{axis}[%
width=1.935in,
height=3.2in,
at={(3.327in,0.512in)},
scale only axis,
xmin=0,
xmax=200,
xlabel style={font=\color{white!15!black}, align=center},
xlabel={Sample Index\\[1ex](b) Estimated},
ymin=0,
ymax=1,
axis background/.style={fill=white},
legend style={legend cell align=left, align=left, draw=white!15!black}
]
\addplot [color=mycolor1]
  table[row sep=crcr]{%
0	8.5573244031107e-05\\
1	0.000166821893585761\\
2	2.63890886022379e-05\\
3	8.07652145243409e-05\\
4	4.16140427574233e-05\\
5	6.8378437857529e-05\\
6	0.000172190376387741\\
7	0.000126776393863689\\
8	0.00021793628357271\\
9	9.60594268147143e-05\\
10	6.64421827932512e-05\\
11	0.000113194293868545\\
12	6.06951612726821e-05\\
13	4.73949964459744e-05\\
14	3.26957591371334e-05\\
15	8.32142610510928e-06\\
16	7.74755400425555e-05\\
17	0.000113170885480881\\
18	4.74986889127348e-06\\
19	8.76221656003643e-05\\
20	2.98018039858728e-05\\
21	1.25810914105101e-05\\
22	0.00012220350906901\\
23	0.00012134246145977\\
24	3.07035577763095e-05\\
25	0.000137103545060851\\
26	1.20481358579848e-05\\
27	4.75938512314897e-05\\
28	2.93292196521796e-05\\
29	0.000308935803465587\\
30	2.06691881739021e-05\\
31	2.62766848862569e-05\\
32	0.000465359054870637\\
33	0.000402622773579064\\
34	0.000259014706485794\\
35	0.000100929326682271\\
36	0.000953917158580833\\
37	0.000110208971578172\\
38	2.07383851864899e-05\\
39	8.37869175105339e-05\\
40	6.45686804539545e-05\\
41	7.85845185487642e-05\\
42	0.000209617268801734\\
43	0.000227111509565095\\
44	8.04096420048262e-05\\
45	3.07460709046238e-05\\
46	0.00124230602947672\\
47	8.98456691826413e-05\\
48	0.000151055793050295\\
49	0.010579810536995\\
50	0.0141796800210887\\
51	0.00299131461087879\\
52	0.0176406745492078\\
53	3.44642786177183e-05\\
54	0.00496245058403644\\
55	0.00178669560715487\\
56	0.000901889853144146\\
57	0.00449879050634276\\
58	0.000280901876958897\\
59	0.000532663474076187\\
60	0.000150432000295402\\
61	0.00125364651663853\\
62	0.0135981483580136\\
63	0.00579837075749908\\
64	5.8156587878971e-05\\
65	0.0155023429495646\\
66	0.0083732740642245\\
67	0.00724005246397415\\
68	0.0574249252291345\\
69	0.0257709421336235\\
70	0.0340450700805034\\
71	0.00131768166323735\\
72	0.0592491769451835\\
73	0.0142451378985413\\
74	0.0309830148684575\\
75	0.0350551799759261\\
76	0.0130191900928071\\
77	0.0822101269153502\\
78	0.00143928852144776\\
79	0.00306937189813609\\
80	0.00567962026466806\\
81	0.014220684724794\\
82	0.0442733621389459\\
83	0.0689793621974584\\
84	0.149923729491597\\
85	0.0940722797541886\\
86	0.134090453990009\\
87	0.213854860921368\\
88	0.570678614076704\\
89	0.126926468775439\\
90	0.0621579900699703\\
91	0.00268760894647125\\
92	0.0394681253100841\\
93	0.0541947171465603\\
94	0.0641620358265392\\
95	0.0125887618166461\\
96	0.027590266252766\\
97	0.014403934209585\\
98	0.0449985558378875\\
99	0.0324109709691677\\
100	0.0289083357468878\\
101	0.043869225086011\\
102	0.0583502385260839\\
103	0.0727750818085669\\
104	0.580875710847889\\
105	0.131654820966137\\
106	0.0184496435266371\\
107	0.056227674114218\\
108	0.0561647831933567\\
109	0.0744588805663696\\
110	0.16469811197148\\
111	0.0199050696980449\\
112	0.0418569251249807\\
113	0.0278827445274436\\
114	0.000370807699012153\\
115	0.0128751776002109\\
116	0.00115902632489604\\
117	0.00361861699463468\\
118	0.0135745066234497\\
119	0.0174952445243295\\
120	0.0944781621078725\\
121	0.0716025210610987\\
122	0.0789759273009162\\
123	0.219579350924164\\
124	0.16783729531284\\
125	0.0776757923254611\\
126	0.0508375392610426\\
127	0.00695177049044587\\
128	0.0266859234392935\\
129	0.0208531173287799\\
130	0.00176061984571999\\
131	0.00386004685411704\\
132	0.0150559551998431\\
133	0.0116435801450372\\
134	0.000158963010020495\\
135	0.0138688174481077\\
136	0.0132017289218936\\
137	0.00507051306254124\\
138	0.016930506500912\\
139	0.0407048943131584\\
140	0.0356530356308649\\
141	0.00929310833002475\\
142	0.0154165189424948\\
143	0.0111477650185183\\
144	0.00472967727105547\\
145	0.00490446070575101\\
146	0.00587781121667278\\
147	0.00177975560576272\\
148	0.000869392758802888\\
149	6.74729292741386e-05\\
150	0.0013328039423376\\
151	0.000911114003259405\\
152	0.00145172335539733\\
153	0.00191939654178088\\
154	4.65356103391598e-05\\
155	0.000256142107779783\\
156	0.0100719573631904\\
157	0.0042651293810668\\
158	0.00395525983099521\\
159	0.00395889199189019\\
160	8.12785857559295e-05\\
161	0.000223596150014065\\
162	0.000566577165000339\\
163	0.000108371700580911\\
164	0.00112608643143806\\
165	0.000779349040950724\\
166	0.00015539428141547\\
167	0.000214501795300564\\
168	6.96178494268595e-05\\
169	3.19407107486274e-05\\
170	0.000211630718876219\\
171	0.000316420499097931\\
172	0.00013502014422547\\
173	5.23161795508915e-05\\
174	6.81118130356706e-05\\
175	0.00030135127232243\\
176	5.92544321468751e-05\\
177	9.98496167529356e-05\\
178	0.000244863575999589\\
179	9.80071266612088e-05\\
180	8.84361629038556e-05\\
181	0.000131982372769448\\
182	0.000139679336877901\\
183	6.98078874460171e-05\\
184	3.46944796170952e-05\\
185	0.000126646076366134\\
186	0.000129095196315554\\
187	0.000187022721954954\\
188	6.52431608848169e-06\\
189	0.00018109163977294\\
190	0.000181318584747712\\
191	2.92522078772896e-05\\
192	7.16776212893777e-05\\
193	3.93820448873699e-05\\
194	9.53840994985007e-05\\
195	2.09800719833416e-05\\
196	5.05649377236162e-05\\
197	0.000227498796961294\\
198	5.29168127124579e-05\\
199	0.000141989531251928\\
};
\addlegendentry{$\mathbf{\hat{h}_{1}}$}

\addplot [color=mycolor2]
  table[row sep=crcr]{%
0	6.94915106147062e-05\\
1	5.54090781553699e-05\\
2	9.03964031997335e-05\\
3	5.86617730548926e-05\\
4	2.66353170107289e-05\\
5	2.18881024311059e-05\\
6	1.7680047447579e-05\\
7	5.12140074223115e-05\\
8	4.41787092194198e-05\\
9	6.65084327586874e-05\\
10	6.33509437721686e-05\\
11	5.22350857271698e-06\\
12	1.57635143753657e-05\\
13	3.86279983455234e-05\\
14	3.00722915313622e-05\\
15	1.15719936266617e-05\\
16	9.78831912529912e-05\\
17	9.92091705583302e-05\\
18	5.44491497427069e-05\\
19	5.04419816935732e-06\\
20	5.58414600986965e-05\\
21	2.98973138450414e-05\\
22	2.48325007175476e-05\\
23	0.000440824015324325\\
24	3.57746116715131e-05\\
25	0.000109852225540784\\
26	7.69184551659672e-05\\
27	9.84748598949427e-05\\
28	0.000148508785643905\\
29	0.000227008954563067\\
30	0.00054823675133608\\
31	0.000681696611569378\\
32	5.10933030260674e-05\\
33	4.34780530971033e-05\\
34	0.00091922211925621\\
35	0.00113746658953059\\
36	0.000488294476563195\\
37	0.00193914974347109\\
38	5.48786181254141e-05\\
39	2.82521563501662e-05\\
40	0.00162888285543718\\
41	0.000842637125446609\\
42	4.513962908241e-05\\
43	0.0063234382385524\\
44	0.00743846086176925\\
45	0.00312697698387326\\
46	0.00407502976031274\\
47	0.00595514000516319\\
48	0.00305837818392134\\
49	0.00336480777050808\\
50	0.00227821137372011\\
51	0.000375336137432154\\
52	0.0023776589689312\\
53	3.61455081660336e-05\\
54	0.000466059958025518\\
55	0.000863357425419945\\
56	0.000580302489162915\\
57	0.00181702688830897\\
58	6.97766835890731e-06\\
59	0.00840718868443619\\
60	0.0254097119333654\\
61	0.0202267786895905\\
62	0.0044420702818652\\
63	0.0460835221646076\\
64	0.0208484150376325\\
65	0.0161480733456775\\
66	0.0190053420203795\\
67	0.0116279350792491\\
68	0.00386199235068434\\
69	0.00639541040661413\\
70	0.0027806233993001\\
71	0.000265159632090832\\
72	0.00536221670073012\\
73	0.0167225908215726\\
74	0.0027788784524563\\
75	0.00359167728839381\\
76	0.0224144056532711\\
77	0.0213154922940149\\
78	0.0136173853209479\\
79	0.0452838704170422\\
80	0.0559567843467343\\
81	0.0338474414367106\\
82	0.00939190825742345\\
83	0.12908688461888\\
84	0.0169085621618222\\
85	0.00603934152250548\\
86	0.0216400005630121\\
87	0.00656986170267786\\
88	0.0124021547753278\\
89	0.0108283496522721\\
90	0.0189532901017795\\
91	0.0225313885911272\\
92	0.00797231591842203\\
93	0.00974741082120778\\
94	0.0107207685144622\\
95	0.00938838036704775\\
96	0.0514688061007469\\
97	0.0254751892507989\\
98	0.00347929682642985\\
99	0.964136440029856\\
100	0.00311919939093143\\
101	0.0263240411185707\\
102	0.0525145645267193\\
103	0.00894301160877659\\
104	0.011515995874394\\
105	0.0116418403520582\\
106	0.00741197718868764\\
107	0.0219775625058452\\
108	0.0169023622284259\\
109	0.0130646431026495\\
110	0.0142390071745484\\
111	0.00717206575454691\\
112	0.0218315052759582\\
113	0.00512591535810471\\
114	0.0154744481322464\\
115	0.129003289216403\\
116	0.00879989661896672\\
117	0.034589388687989\\
118	0.0562398456470357\\
119	0.0463777706073763\\
120	0.0143778246791404\\
121	0.0217083831224919\\
122	0.0229463198590537\\
123	0.00311317866650702\\
124	0.00301874341782209\\
125	0.0171962579764404\\
126	0.00573360393308201\\
127	5.96435058945248e-05\\
128	0.00192717368722102\\
129	0.00689030282651321\\
130	0.00303918298114689\\
131	0.0107884240497033\\
132	0.019313634978198\\
133	0.0155971720545253\\
134	0.020770244292969\\
135	0.0469992264434635\\
136	0.00334691952030958\\
137	0.021217729937234\\
138	0.0266510790943314\\
139	0.00888738008360561\\
140	2.73967074885477e-05\\
141	0.00156217588254362\\
142	0.00122005654701601\\
143	0.00244514224070912\\
144	0.00169187284846982\\
145	0.000186065573283606\\
146	0.00333041410489098\\
147	0.000671330258106794\\
148	0.0019001061998163\\
149	0.00339513441749654\\
150	0.00372537727273938\\
151	0.00552934521870014\\
152	0.00396755609522795\\
153	0.00326020187089199\\
154	0.00724517641558801\\
155	0.00780815401277402\\
156	3.21115334271917e-05\\
157	0.00054272454154726\\
158	0.00298521666315286\\
159	0.000356216360112028\\
160	7.79904795216152e-05\\
161	0.00291481430951104\\
162	0.00117522754156419\\
163	0.00193042204072989\\
164	0.001978809068632\\
165	7.80423601231354e-05\\
166	4.60911401109719e-05\\
167	0.000599959314985132\\
168	0.000917713851717642\\
169	0.000150440411546564\\
170	0.000121652497442509\\
171	8.08244522713331e-05\\
172	5.84303816943686e-05\\
173	0.000571004878947642\\
174	0.000475270583506864\\
175	0.00105654515642929\\
176	0.00011071383754719\\
177	3.56909039538311e-05\\
178	7.47704687576116e-05\\
179	1.03616802169359e-05\\
180	6.50158668894271e-05\\
181	0.000146067140811746\\
182	0.000167364413505887\\
183	6.64141675726222e-05\\
184	4.67746637219239e-05\\
185	8.28826230314749e-05\\
186	4.20857728827324e-05\\
187	1.0023898829818e-05\\
188	0.000146274099911919\\
189	8.31490109137895e-05\\
190	4.94643766386404e-05\\
191	4.19469125194901e-05\\
192	2.09731655346426e-05\\
193	9.2285604225658e-06\\
194	2.07886994475482e-05\\
195	5.24278896785411e-05\\
196	0.000153301568854198\\
197	4.10081160778067e-05\\
198	8.47511618553119e-05\\
199	5.43009249790974e-05\\
};
\addlegendentry{$\mathbf{\hat{h}_{2}}$}

\end{axis}
\end{tikzpicture}%