% This file was created by matlab2tikz.
%
%The latest updates can be retrieved from
%  http://www.mathworks.com/matlabcentral/fileexchange/22022-matlab2tikz-matlab2tikz
%where you can also make suggestions and rate matlab2tikz.
%
\definecolor{mycolor1}{rgb}{0.00000,0.44700,0.74100}%
\definecolor{mycolor2}{rgb}{0.85000,0.32500,0.09800}%
%
\begin{tikzpicture}

\begin{axis}[%
width=1.935in,
height=3.2in,
at={(0.758in,0.512in)},
scale only axis,
xmin=0,
xmax=200,
xlabel style={font=\color{white!15!black}, align=center},
xlabel={Sample Index\\[1ex](a) Actual},
ymin=0,
ymax=1,
axis background/.style={fill=white},
legend style={legend cell align=left, align=left, draw=white!15!black}
]
\addplot [color=mycolor1]
  table[row sep=crcr]{%
1	0.0167418731260698\\
2	0.018659722218203\\
3	0.0211495716349754\\
4	0.0245407494314006\\
5	0.029505643974117\\
6	0.0377161636169434\\
7	0.0550750576238134\\
8	0.131028403455825\\
9	0.141533477104454\\
10	0.158175166246243\\
11	0.163761757297189\\
12	0.600100605556833\\
13	0.118033417583129\\
14	0.0610914209628117\\
15	0.0426162246246858\\
16	0.0332715711707656\\
17	0.0321939439283243\\
18	0.0268871008873183\\
19	0.0316920608120786\\
20	0.0286771919664519\\
21	0.00773119825769845\\
22	0.0330073087209196\\
23	0.019415059292473\\
24	0.0177688778425817\\
25	0.0188194600762088\\
26	0.0237714798713867\\
27	0.0430806655948836\\
28	0.586023006720236\\
29	0.0970905103802927\\
30	0.0246981078960262\\
31	0.0780346253424249\\
32	0.0580455436901626\\
33	0.0681836526256362\\
34	0.163824852865525\\
35	0.0446106828365612\\
36	0.06119675966513\\
37	0.00907835157153909\\
38	0.0310093774848825\\
39	0.00125972832884384\\
40	0.005422098150711\\
41	0.0107374596162295\\
42	0.0165479326643041\\
43	0.024789327411243\\
44	0.0446277431282512\\
45	0.058019450740893\\
46	0.074843365423057\\
47	0.199666615467323\\
48	0.216838516027539\\
49	0.0783890355452335\\
50	0.0495529240878659\\
51	0.0370791446049236\\
52	0.0307530810094058\\
53	0.0155757068681131\\
54	0.0198807977432187\\
55	0.0179871495341263\\
56	0.0162887905400521\\
57	0.0148728268904216\\
58	0.0136909847461918\\
59	0.0126943671543235\\
60	0.011846112844806\\
61	0.0111233301448608\\
62	0.0105291449791113\\
63	0.0102108676347222\\
64	0.00751288118280402\\
65	0.00739035992869396\\
66	0.0116365722557393\\
67	0.00899390796280924\\
68	0.00831157148096884\\
69	0.00788086875151191\\
70	0.00754217236777393\\
71	0.00725475830161164\\
72	0.00700327644843893\\
73	0.006780818536885\\
74	0.00658453626015097\\
75	0.00641472878078445\\
76	0.00627599401250467\\
77	0.00618216997550965\\
78	0.00617516728867787\\
79	0.00642745729543014\\
80	0.00873051939586948\\
81	0.00471465923588381\\
82	0.00195996010568866\\
83	0.004980313957114\\
84	0.00475839614864904\\
85	0.00464733241660508\\
86	0.00455444244400457\\
87	0.00446749239384432\\
88	0.00438406292262191\\
89	0.00430366820355207\\
90	0.00422628355118023\\
91	0.00415201532524293\\
92	0.00408104289588831\\
93	0.00401365198230764\\
94	0.00395033763548775\\
95	0.00389203620501121\\
96	0.00384070443755282\\
97	0.00380107128140597\\
98	0.00378779867734327\\
99	0.00387836096292209\\
100	0.00228454900881806\\
101	0.00321909463290553\\
102	0.00328982387499096\\
103	0.00328100374444436\\
104	0.00325253146337885\\
105	0.00321692683031362\\
106	0.00317840637543852\\
107	0.00313876414674543\\
108	0.00309887602618152\\
109	0.00305920797263281\\
110	0.00302002111537278\\
111	0.00298146552488656\\
112	0.00294362726599965\\
113	0.0029065537719176\\
114	0.00287026833389302\\
115	0.00283477876811283\\
116	0.00280008280049957\\
117	0.00276617151884636\\
118	0.00273303164395387\\
119	0.00270064705586787\\
120	0.00266899983729428\\
121	0.00263807099659409\\
122	0.00260784097374635\\
123	0.00257828999668392\\
124	0.00254939833288439\\
125	0.00252114646667125\\
126	0.00249351522323938\\
127	0.00246648585412356\\
128	0.00244004009455901\\
129	0.00241416020024051\\
130	0.00238882896892876\\
131	0.0023640297508985\\
132	0.00233974645117835\\
133	0.00231596352577768\\
134	0.00229266597354371\\
135	0.00226983932488367\\
136	0.00224746962828519\\
137	0.00222554343533969\\
138	0.00220404778480324\\
139	0.00218297018609978\\
140	0.00216229860257188\\
141	0.00214202143470905\\
142	0.00212212750352594\\
143	0.00210260603421662\\
144	0.00208344664017788\\
145	0.00206463930746792\\
146	0.00204617437974413\\
147	0.00202804254371082\\
148	0.00201023481509265\\
149	0.00199274252514179\\
150	0.00197555730767936\\
151	0.0019586710866655\\
152	0.00194207606428942\\
153	0.00192576470956709\\
154	0.00190972974743187\\
155	0.00189396414830307\\
156	0.00187846111811499\\
157	0.00186321408878906\\
158	0.00184821670913216\\
159	0.00183346283614256\\
160	0.00181894652670628\\
161	0.00180466202966742\\
162	0.00179060377825436\\
163	0.00177676638284649\\
164	0.00176314462406556\\
165	0.00174973344617591\\
166	0.0017365279507797\\
167	0.00172352339079259\\
168	0.00171071516468654\\
169	0.00169809881098722\\
170	0.00168567000301325\\
171	0.00167342454384613\\
172	0.00166135836151948\\
173	0.00164946750441694\\
174	0.00163774813686889\\
175	0.00162619653493841\\
176	0.00161480908238697\\
177	0.00160358226681213\\
178	0.001592512675948\\
179	0.00158159699412143\\
180	0.00157083199885632\\
181	0.00156021455761888\\
182	0.00154974162469766\\
183	0.00153941023821136\\
184	0.00152921751723897\\
185	0.00151916065906659\\
186	0.00150923693654504\\
187	0.00149944369555362\\
188	0.00148977835256491\\
189	0.00148023839230615\\
190	0.0014708213655126\\
191	0.00146152488676917\\
192	0.00145234663243548\\
193	0.00144328433865201\\
194	0.00143433579942216\\
195	0.0014254988647679\\
196	0.00141677143895562\\
197	0.00140815147878894\\
198	0.00139963699196521\\
199	0\\
200	0\\
};
\addlegendentry{$\mathbf{h_1}$}

\addplot [color=mycolor2]
  table[row sep=crcr]{%
1	0.00495033386861547\\
2	0.00515738368500011\\
3	0.00538309861623286\\
4	0.00563019833310769\\
5	0.00590197136255583\\
6	0.00620243506959928\\
7	0.00653655369620811\\
8	0.00691054090538825\\
9	0.00733228812251618\\
10	0.00781198494389501\\
11	0.00836304134465097\\
12	0.0090034999823859\\
13	0.00975827527656913\\
14	0.0106628508662167\\
15	0.0117696896019869\\
16	0.0131600228416925\\
17	0.0149671880151623\\
18	0.0174273921400842\\
19	0.0210049332363351\\
20	0.0267613442180004\\
21	0.037792597580649\\
22	0.068721841139076\\
23	0.97572931769219\\
24	0.0649085399616321\\
25	0.0262918397391367\\
26	0.0126468169615953\\
27	0.00419508123086451\\
28	0.0214241856295046\\
29	0.0134643328328179\\
30	0.00412679327935559\\
31	0.0112712342656943\\
32	0.0282552508318709\\
33	0.111702725947746\\
34	0.12653020104749\\
35	0.0361926668223949\\
36	0.024130019396178\\
37	0.019518168382204\\
38	0.0163235660243771\\
39	0.0140849625225472\\
40	0.0124312948441269\\
41	0.0111552918846637\\
42	0.0101369616841952\\
43	0.00930266674553233\\
44	0.00860476970863487\\
45	0.00801105372801389\\
46	0.00749890841387189\\
47	0.00705196472677567\\
48	0.00665805661850076\\
49	0.0063079366485928\\
50	0.00599443852440938\\
51	0.00571191453485358\\
52	0.00545584764793091\\
53	0.0052225778141873\\
54	0.00500910486747672\\
55	0.00481294397681212\\
56	0.00463201789166602\\
57	0.00446457542356871\\
58	0.00430912894812168\\
59	0.00416440590497024\\
60	0.00402931074167137\\
61	0.00390289474814389\\
62	0.00378433192171684\\
63	0.00367289949042518\\
64	0.0035679620699816\\
65	0.00346895868109233\\
66	0.00337539203747226\\
67	0.00328681965070268\\
68	0.00320284639950925\\
69	0\\
70	0\\
71	0\\
72	0\\
73	0\\
74	0\\
75	0\\
76	0\\
77	0\\
78	0\\
79	0\\
80	0\\
81	0\\
82	0\\
83	0\\
84	0\\
85	0\\
86	0\\
87	0\\
88	0\\
89	0\\
90	0\\
91	0\\
92	0\\
93	0\\
94	0\\
95	0\\
96	0\\
97	0\\
98	0\\
99	0\\
100	0\\
101	0\\
102	0\\
103	0\\
104	0\\
105	0\\
106	0\\
107	0\\
108	0\\
109	0\\
110	0\\
111	0\\
112	0\\
113	0\\
114	0\\
115	0\\
116	0\\
117	0\\
118	0\\
119	0\\
120	0\\
121	0\\
122	0\\
123	0\\
124	0\\
125	0\\
126	0\\
127	0\\
128	0\\
129	0\\
130	0\\
131	0\\
132	0\\
133	0\\
134	0\\
135	0\\
136	0\\
137	0\\
138	0\\
139	0\\
140	0\\
141	0\\
142	0\\
143	0\\
144	0\\
145	0\\
146	0\\
147	0\\
148	0\\
149	0\\
150	0\\
151	0\\
152	0\\
153	0\\
154	0\\
155	0\\
156	0\\
157	0\\
158	0\\
159	0\\
160	0\\
161	0\\
162	0\\
163	0\\
164	0\\
165	0\\
166	0\\
167	0\\
168	0\\
169	0\\
170	0\\
171	0\\
172	0\\
173	0\\
174	0\\
175	0\\
176	0\\
177	0\\
178	0\\
179	0\\
180	0\\
181	0\\
182	0\\
183	0\\
184	0\\
185	0\\
186	0\\
187	0\\
188	0\\
189	0\\
190	0\\
191	0\\
192	0\\
193	0\\
194	0\\
195	0\\
196	0\\
197	0\\
198	0\\
199	0\\
200	0\\
};
\addlegendentry{$\mathbf{h_{2}}$}

\end{axis}

\begin{axis}[%
width=1.935in,
height=3.2in,
at={(3.327in,0.512in)},
scale only axis,
xmin=0,
xmax=200,
xlabel style={font=\color{white!15!black}, align=center},
xlabel={Sample Index\\[1ex](b) Estimated},
ymin=0,
ymax=1,
axis background/.style={fill=white},
legend style={legend cell align=left, align=left, draw=white!15!black}
]
\addplot [color=mycolor1]
  table[row sep=crcr]{%
0	2.09876057631004e-05\\
1	6.15821294839808e-05\\
2	9.45871451406778e-05\\
3	5.3307318239068e-06\\
4	4.95604653451035e-05\\
5	0.000104343247544613\\
6	4.60497210387944e-05\\
7	7.24718784728293e-05\\
8	4.28759697043933e-05\\
9	0.000159275742101972\\
10	0.000110333855434687\\
11	6.80713601228914e-05\\
12	2.38093559889129e-05\\
13	7.29500142845972e-05\\
14	7.87004278230665e-05\\
15	0.000140150166913058\\
16	0.000122683593040315\\
17	1.51663497044296e-05\\
18	0.00010217302933345\\
19	4.98777561151096e-05\\
20	7.6393939775237e-05\\
21	3.4959837760927e-05\\
22	4.28362141812166e-05\\
23	4.12357423695044e-05\\
24	9.25071238462987e-06\\
25	2.21789956674171e-05\\
26	4.62900274768311e-05\\
27	9.31353851898511e-05\\
28	0.000142165903998418\\
29	7.22633273378838e-05\\
30	4.71165330500262e-05\\
31	3.50258944918011e-05\\
32	0.000548605556079548\\
33	0.000802768475327101\\
34	2.83218800596634e-05\\
35	0.00018161447128533\\
36	0.000228036738481538\\
37	0.000112323924842945\\
38	0.000117228101215956\\
39	4.07786940093219e-05\\
40	3.90814670533254e-05\\
41	2.57042425137969e-05\\
42	9.74234658053387e-05\\
43	0.000116593226491682\\
44	0.00052781909020123\\
45	5.29869359581824e-05\\
46	0.00102744576914856\\
47	0.000269871821503782\\
48	6.69481495281492e-05\\
49	0.0103404004939289\\
50	0.0129965349985442\\
51	0.00292085912508694\\
52	0.0174653526509459\\
53	4.21954604819453e-05\\
54	0.00443042868285012\\
55	0.00104139081678709\\
56	0.000591244419149458\\
57	0.00364518606556668\\
58	0.000170323491846553\\
59	0.000354271476608555\\
60	0.000234709803312045\\
61	0.00010615371753975\\
62	0.0113660028795768\\
63	0.00610549859059405\\
64	0.000735962356682944\\
65	0.0168755253474353\\
66	0.00945052942534668\\
67	0.00696433365499579\\
68	0.0576505064020264\\
69	0.0266531359905235\\
70	0.0343840781759412\\
71	0.000895979806886133\\
72	0.0593896877685981\\
73	0.0139236691252764\\
74	0.0297604630385357\\
75	0.0348376540150016\\
76	0.0131508211279507\\
77	0.0819380249327719\\
78	0.000774111057701615\\
79	0.0036205876614773\\
80	0.00501561490079268\\
81	0.014012324062628\\
82	0.0448011576981696\\
83	0.0678166809238209\\
84	0.151296233598376\\
85	0.0924908009255561\\
86	0.133514523532466\\
87	0.21439714894575\\
88	0.56953803822775\\
89	0.12762006233996\\
90	0.061178864855743\\
91	0.00322583547534773\\
92	0.0403287514637729\\
93	0.0525558076181279\\
94	0.0641873823023131\\
95	0.0149084994013805\\
96	0.0287126787006802\\
97	0.0143894083376512\\
98	0.0469499741622375\\
99	0.0311255328995515\\
100	0.0286485959313386\\
101	0.0427779903320557\\
102	0.0579083368587079\\
103	0.0714466810763583\\
104	0.580766137193891\\
105	0.132424425246202\\
106	0.0184671922207608\\
107	0.0560398133303829\\
108	0.0564625758947361\\
109	0.0726253199510295\\
110	0.170561109878832\\
111	0.0215598873082188\\
112	0.0410739702602405\\
113	0.027576063018965\\
114	0.000458763124461196\\
115	0.0133851516488\\
116	0.00211041775862867\\
117	0.00369691284351275\\
118	0.0118973334572566\\
119	0.0169020850199177\\
120	0.0942797090010758\\
121	0.0715777703743245\\
122	0.0800310703321433\\
123	0.218167295685411\\
124	0.168380134768954\\
125	0.0777444367592418\\
126	0.0526309573500587\\
127	0.0063237847562333\\
128	0.0245202061842691\\
129	0.0182101229263685\\
130	0.000754772327182875\\
131	0.00347916025991888\\
132	0.0173340024767767\\
133	0.011033406765807\\
134	8.91071341154557e-05\\
135	0.0142754271458976\\
136	0.0126393574969464\\
137	0.00577512392320087\\
138	0.0163489578226035\\
139	0.0409517546322451\\
140	0.0355247747118221\\
141	0.00929620790050716\\
142	0.0164346298875281\\
143	0.0106529273664488\\
144	0.00570632865941512\\
145	0.0037575000744703\\
146	0.00663440245713874\\
147	0.00184852723711102\\
148	0.000329513319349596\\
149	0.000153297717265554\\
150	0.00205905413296175\\
151	0.00169279358662304\\
152	0.00014401096687354\\
153	0.00246351416081417\\
154	0.000126925051039236\\
155	0.000245528896526492\\
156	0.0104067904519524\\
157	0.00443718411541917\\
158	0.00309638936172989\\
159	0.00374515819859044\\
160	5.11779385173298e-05\\
161	6.56808407097603e-05\\
162	0.00136997113161446\\
163	0.00022462548459726\\
164	0.00155034317995483\\
165	0.000543947870106063\\
166	7.67953230276143e-05\\
167	6.46526934626496e-05\\
168	0.000158586828278637\\
169	1.87881424737063e-05\\
170	0.000132198215433173\\
171	8.73260447181943e-05\\
172	0.000366774401928975\\
173	0.000114805371957921\\
174	7.0386874233175e-05\\
175	0.000238963069177951\\
176	0.000180250183277422\\
177	7.24191661380052e-05\\
178	7.77203213194968e-05\\
179	0.000110241820234125\\
180	7.38723945648303e-05\\
181	6.41734668435805e-06\\
182	5.75474454518732e-05\\
183	0.000131829298090396\\
184	5.81242842118322e-05\\
185	0.000125042505067547\\
186	0.000100136879836427\\
187	3.32185558116293e-05\\
188	7.70932053799775e-05\\
189	0.000110585547330744\\
190	9.742377379502e-05\\
191	3.99447843603425e-05\\
192	6.63345861058561e-05\\
193	9.15535077483982e-05\\
194	1.38206761672075e-05\\
195	4.63888162488357e-05\\
196	0.000125213568879958\\
197	4.93904930150576e-05\\
198	8.16128585492774e-05\\
199	0.000253940717851441\\
};
\addlegendentry{$\mathbf{\hat{h}_{1}}$}

\addplot [color=mycolor2]
  table[row sep=crcr]{%
0	3.16361287446441e-05\\
1	7.40387567353823e-06\\
2	8.62754407819086e-05\\
3	7.14575564571705e-05\\
4	0.000155125056129322\\
5	7.12860731956894e-05\\
6	7.71186172480118e-06\\
7	6.81053443568195e-06\\
8	5.79673591952811e-05\\
9	8.19985969487103e-06\\
10	3.99280079974646e-05\\
11	4.4122251725763e-05\\
12	2.55909195396183e-05\\
13	5.05671863232841e-06\\
14	3.68412382952627e-05\\
15	3.90215676042861e-05\\
16	2.96596849614854e-06\\
17	3.84889823801177e-05\\
18	2.37195979090812e-05\\
19	1.73494469772066e-05\\
20	4.1277768225268e-05\\
21	1.01914210151465e-05\\
22	3.1638200611671e-05\\
23	9.14849668563536e-05\\
24	0.000210339407768927\\
25	0.000393362328794273\\
26	2.84209056726081e-05\\
27	3.61602961063116e-05\\
28	9.11791701593331e-05\\
29	0.000148694221247283\\
30	0.00058828357288031\\
31	0.00016157599020144\\
32	2.49994842083385e-05\\
33	1.68821375990878e-05\\
34	0.00119321028513512\\
35	0.000380187623087955\\
36	0.000104293391361046\\
37	0.00231925136571405\\
38	8.05106918903918e-05\\
39	8.09331192931532e-05\\
40	0.00190908201908035\\
41	0.000470750186634046\\
42	0.000300021158097049\\
43	0.00559797772174825\\
44	0.00846102119316764\\
45	0.00349107988786896\\
46	0.00356101908791567\\
47	0.00593282754582109\\
48	0.00356098703030963\\
49	0.0032750544643356\\
50	0.00165370358772616\\
51	0.000501447884146267\\
52	0.0028538432681896\\
53	3.22039028459211e-05\\
54	0.000240813134219825\\
55	0.00124529781018207\\
56	9.90698913694007e-05\\
57	0.00200547609092069\\
58	2.09530615293428e-05\\
59	0.00816992143689407\\
60	0.0246389647468554\\
61	0.0203474924409337\\
62	0.0045006803066716\\
63	0.0462528458259389\\
64	0.020705871822444\\
65	0.0164180116784929\\
66	0.0183709050765173\\
67	0.0118574710717265\\
68	0.00365713702701396\\
69	0.00619840663359941\\
70	0.00260021855966601\\
71	0.000428156943646801\\
72	0.0054431463064302\\
73	0.0167254036523802\\
74	0.00235021000489782\\
75	0.00299534074738492\\
76	0.0235179884237759\\
77	0.021229971224165\\
78	0.0137962496636062\\
79	0.0448499928974562\\
80	0.0560070586122732\\
81	0.0342391691278507\\
82	0.00997237414930743\\
83	0.129805319680394\\
84	0.017657815384353\\
85	0.0063951618695469\\
86	0.0212199280087412\\
87	0.00676775869975579\\
88	0.0126741754399364\\
89	0.0105904566625617\\
90	0.0200170234693885\\
91	0.0220834672041513\\
92	0.00774125456334335\\
93	0.0097280207886416\\
94	0.0103082296523952\\
95	0.00999436388963714\\
96	0.0516385146330352\\
97	0.0255164015483055\\
98	0.00400244121874827\\
99	0.963921268110275\\
100	0.00401248576200861\\
101	0.0265922559806963\\
102	0.0533690980441025\\
103	0.00954535845801542\\
104	0.0112462822764323\\
105	4.83775281374551e-06\\
106	0.0075262441026394\\
107	0.0213169821197112\\
108	0.017586492496429\\
109	0.0137735103422669\\
110	0.0145782163482348\\
111	0.00725681988352149\\
112	0.0209611356090689\\
113	0.005879940480537\\
114	0.0162359211184502\\
115	0.12928670396088\\
116	0.00904651770495321\\
117	0.0348706944616268\\
118	0.0563921497604708\\
119	0.0459700854392651\\
120	0.0148264247453663\\
121	0.0230347886061241\\
122	0.0240445256605989\\
123	0.00237358873733094\\
124	0.00184920693583209\\
125	0.0170766925922739\\
126	0.00540601960877776\\
127	0.000455934598656754\\
128	0.00161915965429034\\
129	0.00704712701513201\\
130	0.00265594294941022\\
131	0.0105306683294428\\
132	0.0190552476374533\\
133	0.0160249356314589\\
134	0.0208053910957508\\
135	0.0470251479093637\\
136	0.00349526354543421\\
137	0.0212111550256104\\
138	0.0259062677996889\\
139	0.00844016942149329\\
140	2.21789975201155e-05\\
141	0.00133685309263702\\
142	0.000432819180599693\\
143	0.00275626823633625\\
144	0.00120720054277872\\
145	0.000210896577443655\\
146	0.00371198786285745\\
147	0.000951699971574939\\
148	0.00133550461682689\\
149	0.00340596800420239\\
150	0.00404999301035507\\
151	0.00557347538750957\\
152	0.00341139600308019\\
153	0.00366016098849924\\
154	0.00814107857265228\\
155	0.00719122983137434\\
156	9.00775343754688e-05\\
157	0.000219271222464496\\
158	0.0034727950122434\\
159	0.000375962220463007\\
160	6.5112854061024e-05\\
161	0.00316730815687975\\
162	0.00037920891235372\\
163	0.00118490993348345\\
164	0.0022730120507482\\
165	1.08459652895332e-05\\
166	5.55182625887548e-05\\
167	9.26781788016193e-05\\
168	0.000876018004293141\\
169	0.000117889956442221\\
170	7.74173684820743e-05\\
171	2.78652572768475e-05\\
172	2.98427685395698e-05\\
173	0.00106303465581395\\
174	0.00052392439079646\\
175	0.000398151592054032\\
176	0.000107964659981365\\
177	2.9540379918766e-05\\
178	2.72927799229063e-05\\
179	5.53750363232195e-05\\
180	2.81169631046848e-05\\
181	7.12173144964264e-05\\
182	5.13859134043933e-05\\
183	1.62986700888866e-05\\
184	3.37834306000168e-05\\
185	1.91356649911934e-05\\
186	2.06167035621802e-05\\
187	2.90207935785572e-05\\
188	5.78751052523438e-05\\
189	1.42054447872338e-05\\
190	6.84302617296671e-05\\
191	1.45484784243305e-05\\
192	6.7300739581538e-05\\
193	6.92438304779652e-05\\
194	0.000118904848207164\\
195	9.57432826926297e-05\\
196	8.23699959083224e-05\\
197	1.28513265816146e-05\\
198	9.91937831416493e-06\\
199	3.71935282416729e-05\\
};
\addlegendentry{$\mathbf{\hat{h}_{2}}$}

\end{axis}
\end{tikzpicture}%