% This file was created by matlab2tikz.
%
%The latest updates can be retrieved from
%  http://www.mathworks.com/matlabcentral/fileexchange/22022-matlab2tikz-matlab2tikz
%where you can also make suggestions and rate matlab2tikz.
%
\definecolor{mycolor1}{rgb}{0.00000,0.44700,0.74100}%
\definecolor{mycolor2}{rgb}{0.85000,0.32500,0.09800}%
%
\begin{tikzpicture}

\begin{axis}[%
width=1.935in,
height=3.2in,
at={(0.758in,0.512in)},
scale only axis,
xmin=0,
xmax=200,
xlabel style={font=\color{white!15!black}, align=center},
xlabel={Sample Index\\[1ex](a) Actual},
ymin=0,
ymax=1,
axis background/.style={fill=white},
legend style={legend cell align=left, align=left, draw=white!15!black}
]
\addplot [color=mycolor1]
  table[row sep=crcr]{%
1	0.0167418731260698\\
2	0.018659722218203\\
3	0.0211495716349754\\
4	0.0245407494314006\\
5	0.029505643974117\\
6	0.0377161636169434\\
7	0.0550750576238134\\
8	0.131028403455825\\
9	0.141533477104454\\
10	0.158175166246243\\
11	0.163761757297189\\
12	0.600100605556833\\
13	0.118033417583129\\
14	0.0610914209628117\\
15	0.0426162246246858\\
16	0.0332715711707656\\
17	0.0321939439283243\\
18	0.0268871008873183\\
19	0.0316920608120786\\
20	0.0286771919664519\\
21	0.00773119825769845\\
22	0.0330073087209196\\
23	0.019415059292473\\
24	0.0177688778425817\\
25	0.0188194600762088\\
26	0.0237714798713867\\
27	0.0430806655948836\\
28	0.586023006720236\\
29	0.0970905103802927\\
30	0.0246981078960262\\
31	0.0780346253424249\\
32	0.0580455436901626\\
33	0.0681836526256362\\
34	0.163824852865525\\
35	0.0446106828365612\\
36	0.06119675966513\\
37	0.00907835157153909\\
38	0.0310093774848825\\
39	0.00125972832884384\\
40	0.005422098150711\\
41	0.0107374596162295\\
42	0.0165479326643041\\
43	0.024789327411243\\
44	0.0446277431282512\\
45	0.058019450740893\\
46	0.074843365423057\\
47	0.199666615467323\\
48	0.216838516027539\\
49	0.0783890355452335\\
50	0.0495529240878659\\
51	0.0370791446049236\\
52	0.0307530810094058\\
53	0.0155757068681131\\
54	0.0198807977432187\\
55	0.0179871495341263\\
56	0.0162887905400521\\
57	0.0148728268904216\\
58	0.0136909847461918\\
59	0.0126943671543235\\
60	0.011846112844806\\
61	0.0111233301448608\\
62	0.0105291449791113\\
63	0.0102108676347222\\
64	0.00751288118280402\\
65	0.00739035992869396\\
66	0.0116365722557393\\
67	0.00899390796280924\\
68	0.00831157148096884\\
69	0.00788086875151191\\
70	0.00754217236777393\\
71	0.00725475830161164\\
72	0.00700327644843893\\
73	0.006780818536885\\
74	0.00658453626015097\\
75	0.00641472878078445\\
76	0.00627599401250467\\
77	0.00618216997550965\\
78	0.00617516728867787\\
79	0.00642745729543014\\
80	0.00873051939586948\\
81	0.00471465923588381\\
82	0.00195996010568866\\
83	0.004980313957114\\
84	0.00475839614864904\\
85	0.00464733241660508\\
86	0.00455444244400457\\
87	0.00446749239384432\\
88	0.00438406292262191\\
89	0.00430366820355207\\
90	0.00422628355118023\\
91	0.00415201532524293\\
92	0.00408104289588831\\
93	0.00401365198230764\\
94	0.00395033763548775\\
95	0.00389203620501121\\
96	0.00384070443755282\\
97	0.00380107128140597\\
98	0.00378779867734327\\
99	0.00387836096292209\\
100	0.00228454900881806\\
101	0.00321909463290553\\
102	0.00328982387499096\\
103	0.00328100374444436\\
104	0.00325253146337885\\
105	0.00321692683031362\\
106	0.00317840637543852\\
107	0.00313876414674543\\
108	0.00309887602618152\\
109	0.00305920797263281\\
110	0.00302002111537278\\
111	0.00298146552488656\\
112	0.00294362726599965\\
113	0.0029065537719176\\
114	0.00287026833389302\\
115	0.00283477876811283\\
116	0.00280008280049957\\
117	0.00276617151884636\\
118	0.00273303164395387\\
119	0.00270064705586787\\
120	0.00266899983729428\\
121	0.00263807099659409\\
122	0.00260784097374635\\
123	0.00257828999668392\\
124	0.00254939833288439\\
125	0.00252114646667125\\
126	0.00249351522323938\\
127	0.00246648585412356\\
128	0.00244004009455901\\
129	0.00241416020024051\\
130	0.00238882896892876\\
131	0.0023640297508985\\
132	0.00233974645117835\\
133	0.00231596352577768\\
134	0.00229266597354371\\
135	0.00226983932488367\\
136	0.00224746962828519\\
137	0.00222554343533969\\
138	0.00220404778480324\\
139	0.00218297018609978\\
140	0.00216229860257188\\
141	0.00214202143470905\\
142	0.00212212750352594\\
143	0.00210260603421662\\
144	0.00208344664017788\\
145	0.00206463930746792\\
146	0.00204617437974413\\
147	0.00202804254371082\\
148	0.00201023481509265\\
149	0.00199274252514179\\
150	0.00197555730767936\\
151	0.0019586710866655\\
152	0.00194207606428942\\
153	0.00192576470956709\\
154	0.00190972974743187\\
155	0.00189396414830307\\
156	0.00187846111811499\\
157	0.00186321408878906\\
158	0.00184821670913216\\
159	0.00183346283614256\\
160	0.00181894652670628\\
161	0.00180466202966742\\
162	0.00179060377825436\\
163	0.00177676638284649\\
164	0.00176314462406556\\
165	0.00174973344617591\\
166	0.0017365279507797\\
167	0.00172352339079259\\
168	0.00171071516468654\\
169	0.00169809881098722\\
170	0.00168567000301325\\
171	0.00167342454384613\\
172	0.00166135836151948\\
173	0.00164946750441694\\
174	0.00163774813686889\\
175	0.00162619653493841\\
176	0.00161480908238697\\
177	0.00160358226681213\\
178	0.001592512675948\\
179	0.00158159699412143\\
180	0.00157083199885632\\
181	0.00156021455761888\\
182	0.00154974162469766\\
183	0.00153941023821136\\
184	0.00152921751723897\\
185	0.00151916065906659\\
186	0.00150923693654504\\
187	0.00149944369555362\\
188	0.00148977835256491\\
189	0.00148023839230615\\
190	0.0014708213655126\\
191	0.00146152488676917\\
192	0.00145234663243548\\
193	0.00144328433865201\\
194	0.00143433579942216\\
195	0.0014254988647679\\
196	0.00141677143895562\\
197	0.00140815147878894\\
198	0.00139963699196521\\
199	0\\
200	0\\
};
\addlegendentry{$\mathbf{h_1}$}

\addplot [color=mycolor2]
  table[row sep=crcr]{%
1	0.00495033386861547\\
2	0.00515738368500011\\
3	0.00538309861623286\\
4	0.00563019833310769\\
5	0.00590197136255583\\
6	0.00620243506959928\\
7	0.00653655369620811\\
8	0.00691054090538825\\
9	0.00733228812251618\\
10	0.00781198494389501\\
11	0.00836304134465097\\
12	0.0090034999823859\\
13	0.00975827527656913\\
14	0.0106628508662167\\
15	0.0117696896019869\\
16	0.0131600228416925\\
17	0.0149671880151623\\
18	0.0174273921400842\\
19	0.0210049332363351\\
20	0.0267613442180004\\
21	0.037792597580649\\
22	0.068721841139076\\
23	0.97572931769219\\
24	0.0649085399616321\\
25	0.0262918397391367\\
26	0.0126468169615953\\
27	0.00419508123086451\\
28	0.0214241856295046\\
29	0.0134643328328179\\
30	0.00412679327935559\\
31	0.0112712342656943\\
32	0.0282552508318709\\
33	0.111702725947746\\
34	0.12653020104749\\
35	0.0361926668223949\\
36	0.024130019396178\\
37	0.019518168382204\\
38	0.0163235660243771\\
39	0.0140849625225472\\
40	0.0124312948441269\\
41	0.0111552918846637\\
42	0.0101369616841952\\
43	0.00930266674553233\\
44	0.00860476970863487\\
45	0.00801105372801389\\
46	0.00749890841387189\\
47	0.00705196472677567\\
48	0.00665805661850076\\
49	0.0063079366485928\\
50	0.00599443852440938\\
51	0.00571191453485358\\
52	0.00545584764793091\\
53	0.0052225778141873\\
54	0.00500910486747672\\
55	0.00481294397681212\\
56	0.00463201789166602\\
57	0.00446457542356871\\
58	0.00430912894812168\\
59	0.00416440590497024\\
60	0.00402931074167137\\
61	0.00390289474814389\\
62	0.00378433192171684\\
63	0.00367289949042518\\
64	0.0035679620699816\\
65	0.00346895868109233\\
66	0.00337539203747226\\
67	0.00328681965070268\\
68	0.00320284639950925\\
69	0\\
70	0\\
71	0\\
72	0\\
73	0\\
74	0\\
75	0\\
76	0\\
77	0\\
78	0\\
79	0\\
80	0\\
81	0\\
82	0\\
83	0\\
84	0\\
85	0\\
86	0\\
87	0\\
88	0\\
89	0\\
90	0\\
91	0\\
92	0\\
93	0\\
94	0\\
95	0\\
96	0\\
97	0\\
98	0\\
99	0\\
100	0\\
101	0\\
102	0\\
103	0\\
104	0\\
105	0\\
106	0\\
107	0\\
108	0\\
109	0\\
110	0\\
111	0\\
112	0\\
113	0\\
114	0\\
115	0\\
116	0\\
117	0\\
118	0\\
119	0\\
120	0\\
121	0\\
122	0\\
123	0\\
124	0\\
125	0\\
126	0\\
127	0\\
128	0\\
129	0\\
130	0\\
131	0\\
132	0\\
133	0\\
134	0\\
135	0\\
136	0\\
137	0\\
138	0\\
139	0\\
140	0\\
141	0\\
142	0\\
143	0\\
144	0\\
145	0\\
146	0\\
147	0\\
148	0\\
149	0\\
150	0\\
151	0\\
152	0\\
153	0\\
154	0\\
155	0\\
156	0\\
157	0\\
158	0\\
159	0\\
160	0\\
161	0\\
162	0\\
163	0\\
164	0\\
165	0\\
166	0\\
167	0\\
168	0\\
169	0\\
170	0\\
171	0\\
172	0\\
173	0\\
174	0\\
175	0\\
176	0\\
177	0\\
178	0\\
179	0\\
180	0\\
181	0\\
182	0\\
183	0\\
184	0\\
185	0\\
186	0\\
187	0\\
188	0\\
189	0\\
190	0\\
191	0\\
192	0\\
193	0\\
194	0\\
195	0\\
196	0\\
197	0\\
198	0\\
199	0\\
200	0\\
};
\addlegendentry{$\mathbf{h_{2}}$}

\end{axis}

\begin{axis}[%
width=1.935in,
height=3.2in,
at={(3.327in,0.512in)},
scale only axis,
xmin=0,
xmax=200,
xlabel style={font=\color{white!15!black}, align=center},
xlabel={Sample Index\\[1ex](b) Estimated},
ymin=0,
ymax=1,
axis background/.style={fill=white},
legend style={legend cell align=left, align=left, draw=white!15!black}
]
\addplot [color=mycolor1]
  table[row sep=crcr]{%
0	0.0230345002031516\\
1	0.0138611775364088\\
2	0.0141045706259318\\
3	0.01093016977876\\
4	0.00607280508252944\\
5	0.0110989136385562\\
6	0.00698293618658515\\
7	0.0226095946744521\\
8	0.0138196397021384\\
9	0.0112437564153483\\
10	0.0255784339475128\\
11	0.0165429753517138\\
12	0.0305638380805518\\
13	0.00754425038211938\\
14	0.0332377175189743\\
15	0.0198897898550447\\
16	0.0157133012106862\\
17	0.0297571134379647\\
18	0.0155166912322187\\
19	0.00964723149288403\\
20	0.0223314233590238\\
21	0.00695437396706024\\
22	0.00289133485691387\\
23	0.0165999364972732\\
24	0.0276853164624079\\
25	0.0164158661712409\\
26	0.0303887670198142\\
27	0.0218342078358951\\
28	0.00966411779714709\\
29	0.00227605358962652\\
30	0.00702638471733949\\
31	0.00896167499036805\\
32	0.00518730818537947\\
33	0.0116622933195963\\
34	0.0170252836966012\\
35	0.00467208030705115\\
36	0.00558860559876486\\
37	0.0139221691752175\\
38	0.00911442542840721\\
39	0.0129584182118653\\
40	0.00873204269759383\\
41	0.0133550887199534\\
42	0.00963226952828046\\
43	0.0321008531900356\\
44	0.00383909798477629\\
45	0.007841193197271\\
46	0.0245531589113053\\
47	0.0110361814356386\\
48	0.00969029364859757\\
49	0.00413818749821704\\
50	0.0204900555107791\\
51	0.00256286140753364\\
52	0.00414754158871144\\
53	0.0100699510833096\\
54	0.018350223344202\\
55	0.0264446979929457\\
56	0.0113041342523234\\
57	0.0105510873976087\\
58	0.00873780876922091\\
59	0.0286115930751681\\
60	0.0177144355636968\\
61	0.0155334997783046\\
62	0.0255984943873723\\
63	0.0137236333477053\\
64	0.00469149368473369\\
65	0.0110422581866161\\
66	0.0238831813122719\\
67	0.0110152872249259\\
68	0.0174372127554541\\
69	0.0152238947563072\\
70	0.0112336766626767\\
71	0.0119671950035938\\
72	0.0236393032944597\\
73	0.00722903530405631\\
74	0.0541788188671258\\
75	0.0354561599010772\\
76	0.0170380326768898\\
77	0.0814331033258984\\
78	0.0210629084899606\\
79	0.0100459868886659\\
80	0.0380092742451039\\
81	0.0295569706020819\\
82	0.0320324294244329\\
83	0.0321545665670904\\
84	0.148162463380995\\
85	0.11109902555933\\
86	0.130689273993022\\
87	0.201411760249054\\
88	0.55887713784044\\
89	0.133836909132216\\
90	0.0531630574527325\\
91	0.0271388773893909\\
92	0.0682559591547903\\
93	0.0681312680901041\\
94	0.0727926634817278\\
95	0.0447082685263774\\
96	0.028831559130848\\
97	0.0263567009487102\\
98	0.0357695933710652\\
99	0.0269215601935643\\
100	0.0449472821705109\\
101	0.0385349364864844\\
102	0.0522695141190447\\
103	0.0797859867414694\\
104	0.558483977916477\\
105	0.105042751941\\
106	0.0508273649988639\\
107	0.0824426970045598\\
108	0.0464669908857007\\
109	0.082027646952141\\
110	0.164708593081538\\
111	0.0121987772098169\\
112	0.050567470470755\\
113	0.0438545009083162\\
114	0.0165250403085419\\
115	0.0275007265249078\\
116	0.0237632165066335\\
117	0.0157349820580447\\
118	0.0150744106034146\\
119	0.0349645745839254\\
120	0.035505740814884\\
121	0.0798008716048176\\
122	0.0606454378400581\\
123	0.212574224536196\\
124	0.192305811068819\\
125	0.0763147089250632\\
126	0.0399777782519801\\
127	0.0225164222113003\\
128	0.0210992388380894\\
129	0.00752599510853347\\
130	0.0382234126392207\\
131	0.0328786656792982\\
132	0.0112839912374595\\
133	0.0315828781379249\\
134	0.00750209896746722\\
135	0.0205695179324803\\
136	0.0348693362654936\\
137	0.0342370681980202\\
138	0.0122929001622162\\
139	0.0162246832270236\\
140	0.0171382261176579\\
141	0.0190421118153084\\
142	0.0211695356872151\\
143	0.0167702030880753\\
144	0.0118794920177978\\
145	0.00182372423576108\\
146	0.0304863289819291\\
147	0.0258919544150658\\
148	0.00729049895114935\\
149	0.0260289233867214\\
150	0.0193964440216934\\
151	0.0119966628580589\\
152	0.0164946755409486\\
153	0.00652010467690949\\
154	0.0193230429001155\\
155	0.00550136795803444\\
156	0.0079632414458501\\
157	0.0201283019145256\\
158	0.00781611995282235\\
159	0.0128896077760721\\
160	0.00538258275373639\\
161	0.0172729789977792\\
162	0.0106212056082851\\
163	0.012110180219925\\
164	0.00944137800088577\\
165	0.0240031992071796\\
166	0.0381218468657459\\
167	0.0238255508564862\\
168	0.00393620834310914\\
169	0.00849463144375346\\
170	0.0101991351811351\\
171	0.011026662584908\\
172	0.0314778759124705\\
173	0.0116850153019412\\
174	0.0469260984782561\\
175	0.0158163833310797\\
176	0.00288759853355446\\
177	0.00596407496402819\\
178	0.0280714049912098\\
179	0.0147681176723882\\
180	0.0355582070942865\\
181	0.00703896865162312\\
182	0.0292222107065679\\
183	0.00659549063887676\\
184	0.0231955901629318\\
185	0.000928404931280307\\
186	0.0116688693469629\\
187	0.00840418488073454\\
188	0.0155305124144242\\
189	0.00959425394626203\\
190	0.015557225965806\\
191	0.0212532074174027\\
192	0.0138015865313599\\
193	0.00949571674716687\\
194	0.0032290071192638\\
195	0.00469367097103605\\
196	0.0365392122393675\\
197	0.00373931217316728\\
198	0.0105233072107476\\
199	0.0229409133418136\\
};
\addlegendentry{$\mathbf{\hat{h}_{1}}$}

\addplot [color=mycolor2]
  table[row sep=crcr]{%
0	0.000166847071022797\\
1	8.45529608417339e-05\\
2	0.000169786481221671\\
3	0.000219201497965854\\
4	0.000184422223961622\\
5	0.000212471065687332\\
6	0.000109969893738842\\
7	0.000442348630685228\\
8	8.76734119994483e-05\\
9	0.000311745483029678\\
10	0.000232818509177729\\
11	8.3859416201905e-05\\
12	0.000328158299225215\\
13	9.21412004526502e-05\\
14	8.63790183448824e-05\\
15	0.000236312046168096\\
16	6.92827850098031e-05\\
17	9.39494026070519e-05\\
18	3.4371404270733e-05\\
19	5.75398879844989e-05\\
20	4.79321589489943e-05\\
21	0.00041876162436813\\
22	0.000107125268684116\\
23	0.000118887811721983\\
24	8.33417297196457e-05\\
25	0.000297500702379414\\
26	7.85002722002317e-05\\
27	6.81284130926924e-05\\
28	0.000138072215313441\\
29	8.17306146658644e-05\\
30	0.000230727957379774\\
31	0.000199884842979537\\
32	5.19227742904545e-05\\
33	8.12941340883749e-05\\
34	0.000270539509109553\\
35	4.16103741793242e-05\\
36	0.000192730486775948\\
37	0.000245155755653626\\
38	0.000321523048549809\\
39	0.000162456214764582\\
40	0.000115914372959737\\
41	0.000203628778455283\\
42	0.000175574538442166\\
43	9.60309257203827e-05\\
44	0.000131253839851028\\
45	9.50352587721248e-05\\
46	0.00012477504486783\\
47	0.000124453150782024\\
48	0.000129974324080263\\
49	0.000136027277114372\\
50	0.000116650541842795\\
51	0.000154511354883573\\
52	0.000207013765557065\\
53	9.48589711536593e-05\\
54	0.000327917016418952\\
55	0.000159697286284599\\
56	0.000164689677264336\\
57	0.000494089060062411\\
58	0.000133628668568336\\
59	0.000111959170929899\\
60	0.000661300092344922\\
61	0.000432820236459418\\
62	3.13189302073968e-05\\
63	0.00127523597378287\\
64	0.000601756056185356\\
65	0.000295442982852086\\
66	0.000593242383550728\\
67	0.00014482191547227\\
68	0.000210608933470829\\
69	8.86253864246231e-05\\
70	0.000157650758707853\\
71	2.69649316454218e-05\\
72	0.000428087386579042\\
73	0.000606731832364954\\
74	6.64198760426215e-05\\
75	0.000217470238910723\\
76	0.000448301058747401\\
77	0.000575377927787549\\
78	0.000539284739430066\\
79	0.00133578951613067\\
80	0.00137679687444768\\
81	0.000949747490942681\\
82	0.00021532372951061\\
83	0.0028520390759425\\
84	0.000383927004438981\\
85	0.000247328288204894\\
86	0.000466367405564075\\
87	0.000350109697671493\\
88	0.000290604019614938\\
89	6.54083926493955e-06\\
90	0.000294118734807023\\
91	0.000591084678693877\\
92	0.000151708142243102\\
93	0.000522340723153763\\
94	0.000204149294884725\\
95	0.000187816156748642\\
96	0.00135815386825436\\
97	0.000587880076700591\\
98	0.000100142487301161\\
99	0.999976943930429\\
100	0.000102987081636921\\
101	0.000589912461117965\\
102	0.00134807663742113\\
103	0.000179812019199051\\
104	0.000202872087818147\\
105	0.000519410539638779\\
106	0.000161812215514265\\
107	0.000596229735782447\\
108	0.00029911591023785\\
109	0.000167424847174254\\
110	0.000291429768712615\\
111	0.000351036586650205\\
112	0.000457292044225457\\
113	0.000254175205433545\\
114	0.000367421862770132\\
115	0.00283544100110286\\
116	0.000219095042094576\\
117	0.000928788929669495\\
118	0.00137568559268171\\
119	0.00135326459943175\\
120	0.000525362729433947\\
121	0.000569949741478243\\
122	0.000426820565098336\\
123	0.000239066947907995\\
124	5.3793569922907e-05\\
125	0.000595180366151585\\
126	0.000430360860836532\\
127	1.94371686506203e-05\\
128	0.000132628934051201\\
129	7.60215915090446e-05\\
130	0.00019349384212106\\
131	0.000143039712538943\\
132	0.000589171415302198\\
133	0.000310682660823073\\
134	0.000591943828003045\\
135	0.00127823193976897\\
136	4.67427884215178e-05\\
137	0.000425774031785933\\
138	0.000630416770331041\\
139	9.35659930543994e-05\\
140	0.000133140258375931\\
141	0.000477223177347173\\
142	0.000155125641841041\\
143	0.000169693307912707\\
144	0.000280067291560736\\
145	7.85674651657456e-05\\
146	0.000202308507436118\\
147	0.000178726173636599\\
148	0.000109938045531551\\
149	9.85516022281616e-05\\
150	0.000108910252320857\\
151	0.000166165906404869\\
152	0.000123428002249933\\
153	0.000124050168483265\\
154	0.000192205064639323\\
155	7.28404914105739e-05\\
156	0.000166439964337652\\
157	0.000150130359269467\\
158	0.000111937211721086\\
159	0.000119624826636688\\
160	0.000290736988443673\\
161	0.000186491620422033\\
162	0.000198316379348839\\
163	1.87515433996307e-05\\
164	0.000243888872578534\\
165	7.77424598036459e-05\\
166	8.65327056817843e-05\\
167	0.000209545279252738\\
168	0.000209583505412166\\
169	6.94085998840062e-05\\
170	0.000176803224438629\\
171	6.56828795394795e-05\\
172	4.36536970314454e-05\\
173	0.000288227579689679\\
174	7.16495694698605e-05\\
175	0.000173863062413492\\
176	7.93358511404268e-05\\
177	0.000367252543951008\\
178	8.20470053581417e-05\\
179	0.000105656704940417\\
180	3.7567619704696e-05\\
181	0.00015258910680824\\
182	8.93352585758098e-05\\
183	0.000235332324020888\\
184	6.82141684526081e-05\\
185	9.26324410731344e-05\\
186	0.000350161823265353\\
187	6.39057811494238e-05\\
188	0.000217897386802683\\
189	0.000310007069134995\\
190	0.000111763054770801\\
191	0.000489827772836014\\
192	8.82869887061543e-05\\
193	0.00017363899724195\\
194	0.000200245636587388\\
195	0.000198542362230642\\
196	0.000161511306767854\\
197	0.000109058632630883\\
198	0.000168054846783837\\
199	9.91552398032208e-05\\
};
\addlegendentry{$\mathbf{\hat{h}_{2}}$}

\end{axis}
\end{tikzpicture}%