% This file was created by matlab2tikz.
%
%The latest updates can be retrieved from
%  http://www.mathworks.com/matlabcentral/fileexchange/22022-matlab2tikz-matlab2tikz
%where you can also make suggestions and rate matlab2tikz.
%
\definecolor{mycolor1}{rgb}{0.00000,0.44700,0.74100}%
\definecolor{mycolor2}{rgb}{0.85000,0.32500,0.09800}%
%
\begin{tikzpicture}

\begin{axis}[%
width=1.952in,
height=3.2in,
at={(0.758in,0.512in)},
scale only axis,
xmin=0,
xmax=20,
xlabel style={font=\color{white!15!black}, align=center},
xlabel={Sample Index\\[1ex](a) Actual},
ymin=0,
ymax=0.9,
axis background/.style={fill=white},
legend style={legend cell align=left, align=left, draw=white!15!black}
]
\addplot [color=mycolor1]
  table[row sep=crcr]{%
1	0.0444337104356374\\
2	0.738127803558165\\
3	0.357839506790865\\
4	0.481268775571525\\
5	0.10955194752004\\
6	0.267783168107473\\
7	0.0769544524124665\\
8	0.0372836026936495\\
9	0.027789744685169\\
10	0.0196434178633453\\
11	0.0212138243269196\\
12	0.0147156812719569\\
13	0.0126517206023441\\
14	0.0111331007215966\\
15	0.00994473974674355\\
16	0.00898571135769806\\
17	0.00819466874468931\\
18	0.00753086667278431\\
19	0.00696589032366256\\
20	0.00647923877975415\\
};
\addlegendentry{$\mathbf{h_1}$}

\addplot [color=mycolor2]
  table[row sep=crcr]{%
1	0.0696363384444256\\
2	0.13399148454392\\
3	0.889181852408627\\
4	0.426869408918664\\
5	0.0527923084371181\\
6	0.0393468637154593\\
7	0\\
8	0\\
9	0\\
10	0\\
11	0\\
12	0\\
13	0\\
14	0\\
15	0\\
16	0\\
17	0\\
18	0\\
19	0\\
20	0\\
};
\addlegendentry{$\mathbf{h_{2}}$}

\end{axis}

\begin{axis}[%
width=1.952in,
height=3.2in,
at={(3.327in,0.512in)},
scale only axis,
xmin=0,
xmax=40,
xlabel style={font=\color{white!15!black}, align=center},
xlabel={Sample Index\\[1ex](b) Estimated},
ymin=0,
ymax=1,
axis background/.style={fill=white},
legend style={legend cell align=left, align=left, draw=white!15!black}
]
\addplot [color=mycolor1]
  table[row sep=crcr]{%
0	0.00160777079884679\\
1	0.000904395559761906\\
2	0.00222580678793371\\
3	0.00214506408082848\\
4	0.00291099741134006\\
5	0.00347357599338922\\
6	0.00434022663002802\\
7	0.00490158356375273\\
8	0.00585651260997741\\
9	0.00704514583750476\\
10	0.00495492872100294\\
11	0.0169632260288197\\
12	0.0245065257296095\\
13	0.0261491166570146\\
14	0.0380443035402955\\
15	0.0451833964025139\\
16	0.201761039738884\\
17	0.167011864007731\\
18	0.766618231109079\\
19	0.236350892745061\\
20	0.379539669180751\\
21	0.277965904399108\\
22	0.18154123557743\\
23	0.156903992026713\\
24	0.0281356552271027\\
25	0.0297941271789503\\
26	0.02578383308527\\
27	0.0270136035848815\\
28	0.0173835096819022\\
29	0.00663394921150093\\
30	0.00557249876365782\\
31	0.00697124803496048\\
32	0.00692104914454926\\
33	0.0055139838575896\\
34	0.00419886377232897\\
35	0.00587657504233064\\
36	0.00675097269352197\\
37	0.00260967661375951\\
38	0.00274084624293669\\
39	0.00262006329515304\\
};
\addlegendentry{$\mathbf{\hat{h}_{1}}$}

\addplot [color=mycolor2]
  table[row sep=crcr]{%
0	0.00160488884297807\\
1	0.00300255698422354\\
2	0.00255314350497475\\
3	0.00278650188031218\\
4	0.00424941715483591\\
5	0.0048193515990864\\
6	0.0050439864990066\\
7	0.00538364100973371\\
8	0.00636331199266896\\
9	0.00860584799189983\\
10	0.0129373535709494\\
11	0.0141867670152889\\
12	0.0233647997359779\\
13	0.0180942373451249\\
14	0.0541916887978646\\
15	0.0752506558129784\\
16	0.0756849876280982\\
17	0.167603550686964\\
18	0.0366351861672424\\
19	0.953685775525866\\
20	0.0366397562622522\\
21	0.167598229334768\\
22	0.0756827899697179\\
23	0.0752510931893037\\
24	0.0541990821787097\\
25	0.0180830327953072\\
26	0.0233780125527963\\
27	0.0141855317975131\\
28	0.0129469350888346\\
29	0.00862346126315062\\
30	0.00635221069666522\\
31	0.0053718818711032\\
32	0.00501035510918609\\
33	0.00481216431913287\\
34	0.00428847009400415\\
35	0.00280054397956966\\
36	0.0022292843754364\\
37	0.0027189286202304\\
38	0.00233532234132619\\
39	0.00256780168505279\\
};
\addlegendentry{$\mathbf{\hat{h}_{2}}$}

\end{axis}
\end{tikzpicture}%