\relax 
\providecommand\hyper@newdestlabel[2]{}
\@writefile{toc}{\contentsline {chapter}{\textnormal  {APPENDICES}}{79}{chapter.9}}
\newlabel{ch:app}{{9}{80}{Future Work}{chapter.9}{}}
\@writefile{toc}{\contentsline {section}{A\hspace  {12pt} Math Derivations and Notation}{80}{appendix.A}}
\newlabel{app:maths}{{A}{80}{Future Work}{appendix.A}{}}
\@writefile{toc}{\contentsline {subsection}{\numberline {A.1}Notation}{80}{subsection.A.0.1}}
\newlabel{app:notation}{{A.1}{80}{Notation}{subsection.A.0.1}{}}
\citation{art:LS_Approach_BCID}
\@writefile{toc}{\contentsline {subsubsection}{Multiple Receiver Format}{82}{section*.62}}
\@writefile{toc}{\contentsline {subsection}{\numberline {A.2}Derivations}{83}{subsection.A.0.2}}
\@writefile{toc}{\contentsline {subsubsection}{Modified Adaptive Eigenvalue Decomposition}{84}{section*.63}}
\newlabel{app:AED}{{A.2}{84}{Modified Adaptive Eigenvalue Decomposition}{section*.63}{}}
\@writefile{toc}{\contentsline {subsubsection}{Modified Adaptive Eigenvalue Decomposition with Sparsity}{85}{section*.64}}
\newlabel{app:AEDS}{{A.2}{85}{Modified Adaptive Eigenvalue Decomposition with Sparsity}{section*.64}{}}
\@writefile{toc}{\contentsline {subsubsection}{Adaptive Cross-Channel Identification with Sparse Shift-Suppression}{86}{section*.65}}
\newlabel{app:AXIS}{{A.2}{86}{Adaptive Cross-Channel Identification with Sparse Shift-Suppression}{section*.65}{}}
\@writefile{toc}{\contentsline {subsubsection}{Varied AXIS}{88}{section*.66}}
\newlabel{app:VAXIS}{{A.2}{88}{Varied AXIS}{section*.66}{}}
\@writefile{toc}{\contentsline {subsubsection}{Dual-Fixed Peak AXIS}{90}{section*.67}}
\newlabel{app:DFPAXIS}{{A.2}{90}{Dual-Fixed Peak AXIS}{section*.67}{}}
\@writefile{toc}{\contentsline {subsubsection}{Brute Force}{94}{section*.68}}
\newlabel{app:BF}{{A.2}{94}{Brute Force}{section*.68}{}}
\@writefile{toc}{\contentsline {subsubsection}{Varied Brute Force}{95}{section*.69}}
\newlabel{app:VBF}{{A.2}{95}{Varied Brute Force}{section*.69}{}}
\@writefile{toc}{\contentsline {subsubsection}{Dual Fixed-Peak Brute Force}{96}{section*.70}}
\newlabel{app:DFPBF}{{A.2}{96}{Dual Fixed-Peak Brute Force}{section*.70}{}}
\@writefile{toc}{\contentsline {subsubsection}{Single Constraint}{98}{section*.71}}
\newlabel{app:SC}{{A.2}{98}{Single Constraint}{section*.71}{}}
\@writefile{toc}{\contentsline {subsubsection}{Varied Single Constraint}{100}{section*.72}}
\newlabel{app:VSC}{{A.2}{100}{Varied Single Constraint}{section*.72}{}}
\@writefile{toc}{\contentsline {subsubsection}{Dual Fixed-Peak Single Constraint}{102}{section*.73}}
\newlabel{app:DFPSC}{{A.2}{102}{Dual Fixed-Peak Single Constraint}{section*.73}{}}
\@writefile{toc}{\contentsline {section}{B\hspace  {12pt} Code Listings}{104}{appendix.B}}
\newlabel{app:code}{{B}{104}{Dual Fixed-Peak Single Constraint}{appendix.B}{}}
\@writefile{toc}{\contentsline {subsection}{\numberline {B.1}Modifications}{104}{subsection.B.0.1}}
\newlabel{code:mods}{{B.1}{104}{Modifications}{subsection.B.0.1}{}}
\newlabel{eq:code_normal_modAEDUpdate}{{B.1}{104}{Modifications}{equation.B.0.1}{}}
\newlabel{eq:code_matMult_modAEDUpdate}{{B.2}{105}{Modifications}{equation.B.0.2}{}}
\newlabel{eq:code_modified_modAEDUpdate}{{B.3}{105}{Modifications}{equation.B.0.3}{}}
\newlabel{eq:code_matMult_modified_modAEDUpdate}{{B.4}{105}{Modifications}{equation.B.0.4}{}}
\@writefile{toc}{\contentsline {subsection}{\numberline {B.2}The Least Squares Approach According to Xu et. al.}{107}{subsection.B.0.2}}
\newlabel{code:LS}{{B.2}{107}{The Least Squares Approach According to Xu et. al}{subsection.B.0.2}{}}
\@writefile{lol}{\contentsline {lstlisting}{\numberline {B.1}LS Function}{107}{lstlisting.B.1}}
\@writefile{toc}{\contentsline {subsection}{\numberline {B.3}The Adaptive Eigenvalue Decomposition}{108}{subsection.B.0.3}}
\newlabel{code:AED}{{B.3}{108}{The Adaptive Eigenvalue Decomposition}{subsection.B.0.3}{}}
\@writefile{lol}{\contentsline {lstlisting}{\numberline {B.2}AED Function}{108}{lstlisting.B.2}}
\@writefile{toc}{\contentsline {subsection}{\numberline {B.4}The Modified Adaptive Eigenvalue Decomposition}{110}{subsection.B.0.4}}
\newlabel{code:modAED}{{B.4}{110}{The Modified Adaptive Eigenvalue Decomposition}{subsection.B.0.4}{}}
\@writefile{lol}{\contentsline {lstlisting}{\numberline {B.3}modAED Function}{110}{lstlisting.B.3}}
\@writefile{toc}{\contentsline {subsection}{\numberline {B.5}The Modified Adaptive Eigenvalue Decomposition with Sparsity}{112}{subsection.B.0.5}}
\newlabel{code:AEDS}{{B.5}{112}{The Modified Adaptive Eigenvalue Decomposition with Sparsity}{subsection.B.0.5}{}}
\@writefile{lol}{\contentsline {lstlisting}{\numberline {B.4}modAEDS Function}{112}{lstlisting.B.4}}
\@writefile{toc}{\contentsline {subsection}{\numberline {B.6}The Adaptive Cross-Channel Identification with Sparse Shift-Suppression}{114}{subsection.B.0.6}}
\newlabel{code:AXIS}{{B.6}{114}{The Adaptive Cross-Channel Identification with Sparse Shift-Suppression}{subsection.B.0.6}{}}
\@writefile{lol}{\contentsline {lstlisting}{\numberline {B.5}AXIS Function}{114}{lstlisting.B.5}}
\@writefile{toc}{\contentsline {subsection}{\numberline {B.7}The Varied Adaptive Cross-Channel Identification with Sparse \\ Shift-Suppression}{116}{subsection.B.0.7}}
\newlabel{code:VAXIS}{{B.7}{116}{The Varied Adaptive Cross-Channel Identification with Sparse \\ Shift-Suppression}{subsection.B.0.7}{}}
\@writefile{lol}{\contentsline {lstlisting}{\numberline {B.6}VAXIS Function}{116}{lstlisting.B.6}}
\@writefile{toc}{\contentsline {subsection}{\numberline {B.8}The Dual Fixed-Peak Adaptive Cross-Channel Identification with Sparse Shift-Suppression}{119}{subsection.B.0.8}}
\newlabel{code:DFPAXIS}{{B.8}{119}{The Dual Fixed-Peak Adaptive Cross-Channel Identification with Sparse Shift-Suppression}{subsection.B.0.8}{}}
\@writefile{lol}{\contentsline {lstlisting}{\numberline {B.7}DFPAXIS Function}{119}{lstlisting.B.7}}
\@writefile{toc}{\contentsline {subsection}{\numberline {B.9}The Brute Force Method}{122}{subsection.B.0.9}}
\newlabel{code:BF}{{B.9}{122}{The Brute Force Method}{subsection.B.0.9}{}}
\@writefile{lol}{\contentsline {lstlisting}{\numberline {B.8}BF Function}{122}{lstlisting.B.8}}
\@writefile{toc}{\contentsline {subsection}{\numberline {B.10}The Varied Brute Force Method}{124}{subsection.B.0.10}}
\newlabel{code:VBF}{{B.10}{124}{The Varied Brute Force Method}{subsection.B.0.10}{}}
\@writefile{lol}{\contentsline {lstlisting}{\numberline {B.9}VBF Function}{124}{lstlisting.B.9}}
\@writefile{toc}{\contentsline {subsection}{\numberline {B.11}The Dual Fixed-Peak Brute Force Method}{126}{subsection.B.0.11}}
\newlabel{code:DFPBF}{{B.11}{126}{The Dual Fixed-Peak Brute Force Method}{subsection.B.0.11}{}}
\@writefile{lol}{\contentsline {lstlisting}{\numberline {B.10}DFPBF Function}{126}{lstlisting.B.10}}
\@writefile{toc}{\contentsline {subsection}{\numberline {B.12}The Single Constraint Method}{129}{subsection.B.0.12}}
\newlabel{code:SC}{{B.12}{129}{The Single Constraint Method}{subsection.B.0.12}{}}
\@writefile{lol}{\contentsline {lstlisting}{\numberline {B.11}SC Function}{129}{lstlisting.B.11}}
\@writefile{toc}{\contentsline {subsection}{\numberline {B.13}The Varied Single Constraint Method}{131}{subsection.B.0.13}}
\newlabel{code:VSC}{{B.13}{131}{The Varied Single Constraint Method}{subsection.B.0.13}{}}
\@writefile{lol}{\contentsline {lstlisting}{\numberline {B.12}VAXIS Function}{131}{lstlisting.B.12}}
\@writefile{toc}{\contentsline {subsection}{\numberline {B.14}The Dual Fixed-Peak Single Constraint Method}{134}{subsection.B.0.14}}
\newlabel{code:DFPSC}{{B.14}{134}{The Dual Fixed-Peak Single Constraint Method}{subsection.B.0.14}{}}
\@writefile{lol}{\contentsline {lstlisting}{\numberline {B.13}DFPSC Function}{134}{lstlisting.B.13}}
\@writefile{toc}{\contentsline {subsection}{\numberline {B.15}The Cross Correlation Function}{137}{subsection.B.0.15}}
\newlabel{code:CC}{{B.15}{137}{The Cross Correlation Function}{subsection.B.0.15}{}}
\@writefile{lol}{\contentsline {lstlisting}{\numberline {B.14}CC Function}{137}{lstlisting.B.14}}
\@writefile{toc}{\contentsline {subsection}{\numberline {B.16}The Overhead File to Call the Algorithms}{138}{subsection.B.0.16}}
\newlabel{code:ov}{{B.16}{138}{The Overhead File to Call the Algorithms}{subsection.B.0.16}{}}
\@writefile{toc}{\contentsline {section}{C\hspace  {12pt} Further Results}{139}{appendix.C}}
\newlabel{app:results}{{C}{139}{The Overhead File to Call the Algorithms}{appendix.C}{}}
\@setckpt{Chapters/Appendix/appendix}{
\setcounter{page}{140}
\setcounter{equation}{0}
\setcounter{enumi}{2}
\setcounter{enumii}{0}
\setcounter{enumiii}{0}
\setcounter{enumiv}{37}
\setcounter{footnote}{0}
\setcounter{mpfootnote}{0}
\setcounter{part}{0}
\setcounter{chapter}{3}
\setcounter{section}{0}
\setcounter{subsection}{0}
\setcounter{subsubsection}{0}
\setcounter{paragraph}{0}
\setcounter{subparagraph}{0}
\setcounter{figure}{0}
\setcounter{table}{0}
\setcounter{savemainpageno}{0}
\setcounter{savefrontpageno}{11}
\setcounter{savetotalpageno}{0}
\setcounter{float@type}{16}
\setcounter{alg}{0}
\setcounter{parentequation}{0}
\setcounter{lstnumber}{16}
\setcounter{ContinuedFloat}{0}
\setcounter{subfigure}{0}
\setcounter{subtable}{0}
\setcounter{Item}{2}
\setcounter{Hfootnote}{6}
\setcounter{bookmark@seq@number}{90}
\setcounter{lstlisting}{0}
\setcounter{section@level}{2}
}
