% This file was created by matlab2tikz.
%
%The latest updates can be retrieved from
%  http://www.mathworks.com/matlabcentral/fileexchange/22022-matlab2tikz-matlab2tikz
%where you can also make suggestions and rate matlab2tikz.
%
\definecolor{mycolor1}{rgb}{0.00000,0.44700,0.74100}%
\definecolor{mycolor2}{rgb}{0.85000,0.32500,0.09800}%
%
\begin{tikzpicture}

\begin{axis}[%
width=1.935in,
height=3.2in,
at={(0.758in,0.512in)},
scale only axis,
xmin=0,
xmax=150,
xlabel style={font=\color{white!15!black}, align=center},
xlabel={Sample Index\\[1ex](a) Actual},
ymin=0,
ymax=0.7,
axis background/.style={fill=white},
legend style={legend cell align=left, align=left, draw=white!15!black}
]
\addplot [color=mycolor1]
  table[row sep=crcr]{%
1	0.0234657806037261\\
2	0.0272334504034075\\
3	0.0326864300765018\\
4	0.0414541482980318\\
5	0.0586677033458464\\
6	0.117843438362983\\
7	0.159969331461504\\
8	0.174397116945152\\
9	0.616552810702634\\
10	0.0882137642931462\\
11	0.0472681903124796\\
12	0.0327587509505929\\
13	0.0272256709659274\\
14	0.0412344622245766\\
15	0.0186762848129325\\
16	0.0451940046978057\\
17	0.0153724087875252\\
18	0.0239672675363248\\
19	0.0400285717874473\\
20	0.0828333966509162\\
21	0.557624977131952\\
22	0.149414784250917\\
23	0.109138078132702\\
24	0.0381681231028791\\
25	0.032799759178118\\
26	0.191519461959093\\
27	0.0734580287558902\\
28	0.0358315656953253\\
29	0.0179563195827385\\
30	0.0169149242156914\\
31	0.0179798517146348\\
32	0.0199431506445131\\
33	0.0279225394655299\\
34	0.0908594243819801\\
35	0.0439964246924232\\
36	0.330890477505262\\
37	0.037800506563543\\
38	0.020261933748638\\
39	0.0138181229977315\\
40	0.0211497159554441\\
41	0.0112042208144458\\
42	0.00964538908702694\\
43	0.00864780826327016\\
44	0.00787736374270682\\
45	0.00720180133294831\\
46	0.00651453200193765\\
47	0.00565492088107664\\
48	0.0112814316241706\\
49	0.0075966567083061\\
50	0.0102713040739602\\
51	0.00787142060243747\\
52	0.00711780022683946\\
53	0.00668443537322835\\
54	0.00638223966522588\\
55	0.00615487020840034\\
56	0.00598242225636516\\
57	0.00586293416152974\\
58	0.00581626175933958\\
59	0.00593494184987807\\
60	0.00707647204853056\\
61	0.00861312572402681\\
62	0.00240649054353041\\
63	0.0036902508247688\\
64	0.0040125763148678\\
65	0.00408542983582614\\
66	0.00408934467211144\\
67	0.00406760360864643\\
68	0.00403657730104579\\
69	0.00400486664899167\\
70	0.00397913876457006\\
71	0.00396763365360209\\
72	0.00398577860522856\\
73	0.00407460869510253\\
74	0.00440882178496405\\
75	0.00852319154542653\\
76	0.00211982859547221\\
77	0.00279674481878385\\
78	0.00295234209521732\\
79	0.00299967450324673\\
80	0.00300734384297471\\
81	0.00299658049652506\\
82	0.00297609501762909\\
83	0.00295010695632826\\
84	0.00292089738309008\\
85	0.00288979839106794\\
86	0.00285763293534116\\
87	0.00282493110979805\\
88	0.00279204510261472\\
89	0.00275921420187501\\
90	0.00272660345813555\\
91	0.00269432766245323\\
92	0.00266246675038502\\
93	0.00263107599882434\\
94	0.00260019295165966\\
95	0.00256984222925479\\
96	0.00254003893333548\\
97	0.0025107910982644\\
98	0.00248210148178531\\
99	0.00245396889001376\\
100	0.00242638916874131\\
101	0.00239935595223708\\
102	0.00237286123354156\\
103	0.00234689580183488\\
104	0.00232144957979209\\
105	0.00229651188498403\\
106	0.00227207163310714\\
107	0.0022481174963278\\
108	0.00222463802675857\\
109	0.00220162175268604\\
110	0.00217905725339276\\
111	0.0021569332170867\\
112	0.00213523848544673\\
113	0.00211396208753109\\
114	0.00209309326520902\\
115	0.00207262149182518\\
116	0.00205253648545491\\
117	0.00203282821783402\\
118	0.00201348691983224\\
119	0.00199450308416773\\
120	0.00197586746592614\\
121	0.00195757108133911\\
122	0.0019396052051902\\
123	0.0019219613671484\\
124	0.00190463134727109\\
125	0.00188760717087541\\
126	0.00187088110293773\\
127	0.00185444564215264\\
128	0.0018382935147574\\
129	0.00182241766820821\\
130	0.00180681126477794\\
131	0.00179146767513212\\
132	0.00177638047192757\\
133	0.00176154342347035\\
134	0.00174695048746156\\
135	0.0017325958048528\\
136	0.00171847369382931\\
137	0.00170457864393352\\
138	0.0016909053103386\\
139	0.00167744850827835\\
140	0.00166420320763913\\
141	0.00165116452771496\\
142	0.00163832773212761\\
143	0.00162568822391149\\
144	0.00161324154076111\\
145	0.0016009833504405\\
146	0.00158890944635072\\
147	0.00157701574325256\\
148	0.00156529827314105\\
149	0\\
150	0\\
};
\addlegendentry{$\mathbf{h_1}$}

\addplot [color=mycolor2]
  table[row sep=crcr]{%
1	0.019775303219206\\
2	0.0210217764534023\\
3	0.0224372323963497\\
4	0.024058742711813\\
5	0.0259351263737046\\
6	0.0281320174688059\\
7	0.0307398096072034\\
8	0.0338865833958781\\
9	0.0377600935275399\\
10	0.0426472101764649\\
11	0.0490094599986528\\
12	0.0576401827385178\\
13	0.0700288298559564\\
14	0.0893407156606893\\
15	0.123700774100431\\
16	0.202175033398071\\
17	0.564479813098353\\
18	0.690442426104836\\
19	0.212260509632627\\
20	0.126132345068284\\
21	0.100380135781766\\
22	0.0378663697499036\\
23	0.0333199748773482\\
24	0.0149453064107011\\
25	0.10083899339379\\
26	0.161002397050911\\
27	0.0405118251764787\\
28	0.0383644765554957\\
29	0.0341227495803863\\
30	0.0306469105251072\\
31	0.0278570926171954\\
32	0.0255709383506331\\
33	0.0236574529195357\\
34	0.0220274984760589\\
35	0.0206190941704396\\
36	0.0193877726649002\\
37	0.0183006807256663\\
38	0.0173329207549748\\
39	0.016465211935799\\
40	0.0156823459816501\\
41	0.0149721364414517\\
42	0.0143246843629073\\
43	0.0137318527665838\\
44	0.0131868826449622\\
45	0.0126841071808284\\
46	0.0122187355837443\\
47	0.0117866872087634\\
48	0.0113844626077037\\
49	0.0110090421200206\\
50	0.0106578052804057\\
51	0\\
52	0\\
53	0\\
54	0\\
55	0\\
56	0\\
57	0\\
58	0\\
59	0\\
60	0\\
61	0\\
62	0\\
63	0\\
64	0\\
65	0\\
66	0\\
67	0\\
68	0\\
69	0\\
70	0\\
71	0\\
72	0\\
73	0\\
74	0\\
75	0\\
76	0\\
77	0\\
78	0\\
79	0\\
80	0\\
81	0\\
82	0\\
83	0\\
84	0\\
85	0\\
86	0\\
87	0\\
88	0\\
89	0\\
90	0\\
91	0\\
92	0\\
93	0\\
94	0\\
95	0\\
96	0\\
97	0\\
98	0\\
99	0\\
100	0\\
101	0\\
102	0\\
103	0\\
104	0\\
105	0\\
106	0\\
107	0\\
108	0\\
109	0\\
110	0\\
111	0\\
112	0\\
113	0\\
114	0\\
115	0\\
116	0\\
117	0\\
118	0\\
119	0\\
120	0\\
121	0\\
122	0\\
123	0\\
124	0\\
125	0\\
126	0\\
127	0\\
128	0\\
129	0\\
130	0\\
131	0\\
132	0\\
133	0\\
134	0\\
135	0\\
136	0\\
137	0\\
138	0\\
139	0\\
140	0\\
141	0\\
142	0\\
143	0\\
144	0\\
145	0\\
146	0\\
147	0\\
148	0\\
149	0\\
150	0\\
};
\addlegendentry{$\mathbf{h_{2}}$}

\end{axis}

\begin{axis}[%
width=1.935in,
height=3.2in,
at={(3.327in,0.512in)},
scale only axis,
xmin=0,
xmax=150,
xlabel style={font=\color{white!15!black}, align=center},
xlabel={Sample Index\\[1ex](b) Estimated},
ymin=0,
ymax=0.5,
axis background/.style={fill=white},
legend style={legend cell align=left, align=left, draw=white!15!black}
]
\addplot [color=mycolor1]
  table[row sep=crcr]{%
0	0.00434336756363218\\
1	0.00551777431711635\\
2	0.004721075968606\\
3	0.00234494525391758\\
4	0.00594241709673159\\
5	0.0059695648135642\\
6	0.0576005447416398\\
7	0.0826782121076687\\
8	0.157101296110745\\
9	0.333810456982065\\
10	0.327118618674148\\
11	0.244659364253948\\
12	0.268444996944902\\
13	0.3089155350936\\
14	0.269224814053187\\
15	0.214336497575778\\
16	0.188068048283816\\
17	0.131541504912389\\
18	0.0426246720082707\\
19	0.028021718560835\\
20	0.0451598896523224\\
21	0.183808282231284\\
22	0.208217872692279\\
23	0.125215131689456\\
24	0.111876857793\\
25	0.185528619090753\\
26	0.206832082920756\\
27	0.133631994586193\\
28	0.10671331258222\\
29	0.103781255627286\\
30	0.0448477036031683\\
31	0.0360870012639759\\
32	0.0197226116265643\\
33	0.0434975421606569\\
34	0.0660872656778615\\
35	0.0632639459430484\\
36	0.139058478221061\\
37	0.135193537130814\\
38	0.0967832230616215\\
39	0.10189816383563\\
40	0.119235256553008\\
41	0.102760671598915\\
42	0.0729450734015482\\
43	0.0764909245024012\\
44	0.0599139363218814\\
45	0.0163959573832374\\
46	0.0218669967477707\\
47	0.0185581250153846\\
48	0.0255200224400603\\
49	0.0316976897793155\\
50	0.0297605367005641\\
51	0.0257607553785216\\
52	0.0208767027098504\\
53	0.0122105299802048\\
54	0.00466443992776155\\
55	0.00156883746579494\\
56	0.00317098707310468\\
57	0.00918781932027182\\
58	0.0159125784100142\\
59	0.0196097460678777\\
60	0.0359088415987767\\
61	0.0342627766148961\\
62	0.0167449037099273\\
63	0.00931109086833275\\
64	0.00924980013364451\\
65	0.00811063083944985\\
66	0.00579103017535747\\
67	0.00320110362317328\\
68	0.00642980014551457\\
69	0.00407839189565762\\
70	0.0012325655628174\\
71	0.00320021150329355\\
72	0.0180148096671175\\
73	0.0207179397609423\\
74	0.00453698030570608\\
75	0.00122815612475023\\
76	0.00701524482994326\\
77	0.00927879183746733\\
78	0.00705050602958868\\
79	0.00280547195835006\\
80	0.00244999738836914\\
81	0.00328290628183813\\
82	0.00207853834397199\\
83	0.0021081502883076\\
84	0.00130084425413826\\
85	0.00522281712735594\\
86	0.00319069676157641\\
87	0.0127150593491629\\
88	0.0108045671407244\\
89	0.00181820338257432\\
90	0.000598566933832088\\
91	0.00119264108607617\\
92	0.00106517262950265\\
93	0.0013168120684403\\
94	0.000452724849753234\\
95	0.00238221787575448\\
96	0.0023169013876387\\
97	0.000751423639153978\\
98	0.000343352828121452\\
99	0.000663558753815941\\
100	0.000945299043142772\\
101	0.000597660759357677\\
102	0.000280944697476107\\
103	0.000689907189893508\\
104	0.000616828914879776\\
105	0.000444892170675899\\
106	0.00034783184357571\\
107	0.00037798785911832\\
108	0.000303768502974162\\
109	0.000256090496326173\\
110	0.000171193331381516\\
111	0.000117534163678798\\
112	8.18003842144764e-05\\
113	0.000323176962518409\\
114	0.000475047489688214\\
115	0.000219333369176655\\
116	0.000157255807963966\\
117	0.000310262266033572\\
118	0.000379834605553683\\
119	0.000673156544940334\\
120	0.000508509628612541\\
121	0.000691767653130406\\
122	0.00104572640795134\\
123	0.000887721951482661\\
124	0.000498824913556817\\
125	0.000555658157174336\\
126	0.000775471175589094\\
127	0.00065343694409726\\
128	0.000582035955213261\\
129	0.000644671474156375\\
130	0.000347994394367435\\
131	0.000232273104810872\\
132	0.000221127948413872\\
133	0.000382404038268684\\
134	0.000666776292677551\\
135	0.000504936036836341\\
136	0.000287002587082478\\
137	0.000388251386069719\\
138	0.000527205993701682\\
139	0.000486008805429733\\
};
\addlegendentry{$\mathbf{\hat{h}_{1}}$}

\addplot [color=mycolor2]
  table[row sep=crcr]{%
0	0.00358550929860366\\
1	0.00490436863986858\\
2	0.00382851952774908\\
3	0.00247312057787356\\
4	0.00387069474598603\\
5	0.00326677045380991\\
6	0.00298888139546639\\
7	0.00102480634381253\\
8	0.00250740952830617\\
9	0.00036607670381755\\
10	0.00027922104114535\\
11	0.00187291543287268\\
12	0.000667793406787524\\
13	0.00334792475100232\\
14	0.00300414521661942\\
15	0.00985571795932358\\
16	0.0512830633608013\\
17	0.306560957877318\\
18	0.478054539097056\\
19	0.39152859597639\\
20	0.305643856043022\\
21	0.340531172249715\\
22	0.346044423147888\\
23	0.253440025709634\\
24	0.191491589875829\\
25	0.22442883481539\\
26	0.173839639727915\\
27	0.0580407577191081\\
28	0.00625811966979068\\
29	0.00920649244875159\\
30	0.0190722640228272\\
31	0.0205536007632938\\
32	0.0208344163375615\\
33	0.0213081387557108\\
34	0.0229986638430789\\
35	0.022319658543278\\
36	0.0168408822181861\\
37	0.0107729067641469\\
38	0.00933676595771513\\
39	0.00827022339302608\\
40	0.00928190406773965\\
41	0.011766369813081\\
42	0.0135743001582313\\
43	0.0141328755291525\\
44	0.0120570748771739\\
45	0.0102974866887632\\
46	0.00990788445211225\\
47	0.00898035396032435\\
48	0.00676048913794243\\
49	0.00511349481389746\\
50	0.00468227913605105\\
51	0.00628568497586271\\
52	0.00424620977897995\\
53	0.0016889021028261\\
54	0.00286598369317638\\
55	0.00327307034733204\\
56	0.00480985977616452\\
57	0.00801010835611342\\
58	0.00774054542479031\\
59	0.00605215102550297\\
60	0.00601614474088676\\
61	0.00617090385551348\\
62	0.0050849988534595\\
63	0.00365283563262149\\
64	0.003675512212842\\
65	0.00323758297172354\\
66	0.00139422838615549\\
67	0.000113447279828187\\
68	0.0200889269231161\\
69	0.040262317174396\\
70	0.0201048083922224\\
71	5.1418033065737e-05\\
72	4.4951344300735e-05\\
73	0.00012863189545214\\
74	0.000140415526629289\\
75	0.000124583718976364\\
76	0.00015270136130641\\
77	9.01342087407575e-05\\
78	3.57777159175165e-05\\
79	8.72790065610252e-05\\
80	0.000116736907213908\\
81	6.9589855060699e-05\\
82	7.16132813763656e-05\\
83	9.74700092570196e-05\\
84	0.000120651560167562\\
85	4.51425596145519e-05\\
86	0.000142007702693643\\
87	2.62718970382706e-05\\
88	6.41906306612686e-05\\
89	6.35860574693755e-05\\
90	0.000119237974501688\\
91	0.000192993413185466\\
92	0.000216118353916957\\
93	0.000179005038907591\\
94	0.000145518443917953\\
95	0.00012562750586656\\
96	6.14557168284828e-05\\
97	5.62648212433177e-05\\
98	8.28928339906281e-05\\
99	6.63201850001058e-05\\
100	6.64223914849137e-05\\
101	0.00011900497352035\\
102	0.000127406987648686\\
103	2.71839970831344e-05\\
104	0.000152200751928651\\
105	0.000149182871113617\\
106	6.04394079185826e-05\\
107	5.76433253484551e-05\\
108	8.98502177710335e-05\\
109	0.000116674028881922\\
110	0.000135659885600278\\
111	0.000196547522118514\\
112	0.000197909478718049\\
113	0.000121310233654981\\
114	0.000174657613105799\\
115	0.000243649443251411\\
116	0.000103444494831611\\
117	0.000125470988902495\\
118	0.000138693236319167\\
119	0.000150526029742173\\
120	0.000221668940238422\\
121	0.000490971903629205\\
122	0.000720071292689916\\
123	0.000577336667460211\\
124	0.000165104075313982\\
125	0.000327899524313675\\
126	0.000282641033833421\\
127	0.000342160045065411\\
128	0.000488088593950633\\
129	0.000476809475149894\\
130	0.001137857383427\\
131	0.00125290804908406\\
132	0.000846874555373924\\
133	0.00085188425198976\\
134	0.000900506679804786\\
135	0.000834178288016522\\
136	0.000526798697132772\\
137	0.000475518301044209\\
138	0.000555494880598404\\
139	0.000299047145910661\\
};
\addlegendentry{$\mathbf{\hat{h}_{2}}$}

\end{axis}
\end{tikzpicture}%