% This file was created by matlab2tikz.
%
%The latest updates can be retrieved from
%  http://www.mathworks.com/matlabcentral/fileexchange/22022-matlab2tikz-matlab2tikz
%where you can also make suggestions and rate matlab2tikz.
%
\definecolor{mycolor1}{rgb}{0.00000,0.44700,0.74100}%
\definecolor{mycolor2}{rgb}{0.85000,0.32500,0.09800}%
%
\begin{tikzpicture}

\begin{axis}[%
width=1.935in,
height=3.2in,
at={(0.758in,0.512in)},
scale only axis,
xmin=0,
xmax=150,
xlabel style={font=\color{white!15!black}, align=center},
xlabel={Sample Index\\[1ex](a) Actual},
ymin=0,
ymax=0.7,
axis background/.style={fill=white},
legend style={legend cell align=left, align=left, draw=white!15!black}
]
\addplot [color=mycolor1]
  table[row sep=crcr]{%
1	0.0234657806037261\\
2	0.0272334504034075\\
3	0.0326864300765018\\
4	0.0414541482980318\\
5	0.0586677033458464\\
6	0.117843438362983\\
7	0.159969331461504\\
8	0.174397116945152\\
9	0.616552810702634\\
10	0.0882137642931462\\
11	0.0472681903124796\\
12	0.0327587509505929\\
13	0.0272256709659274\\
14	0.0412344622245766\\
15	0.0186762848129325\\
16	0.0451940046978057\\
17	0.0153724087875252\\
18	0.0239672675363248\\
19	0.0400285717874473\\
20	0.0828333966509162\\
21	0.557624977131952\\
22	0.149414784250917\\
23	0.109138078132702\\
24	0.0381681231028791\\
25	0.032799759178118\\
26	0.191519461959093\\
27	0.0734580287558902\\
28	0.0358315656953253\\
29	0.0179563195827385\\
30	0.0169149242156914\\
31	0.0179798517146348\\
32	0.0199431506445131\\
33	0.0279225394655299\\
34	0.0908594243819801\\
35	0.0439964246924232\\
36	0.330890477505262\\
37	0.037800506563543\\
38	0.020261933748638\\
39	0.0138181229977315\\
40	0.0211497159554441\\
41	0.0112042208144458\\
42	0.00964538908702694\\
43	0.00864780826327016\\
44	0.00787736374270682\\
45	0.00720180133294831\\
46	0.00651453200193765\\
47	0.00565492088107664\\
48	0.0112814316241706\\
49	0.0075966567083061\\
50	0.0102713040739602\\
51	0.00787142060243747\\
52	0.00711780022683946\\
53	0.00668443537322835\\
54	0.00638223966522588\\
55	0.00615487020840034\\
56	0.00598242225636516\\
57	0.00586293416152974\\
58	0.00581626175933958\\
59	0.00593494184987807\\
60	0.00707647204853056\\
61	0.00861312572402681\\
62	0.00240649054353041\\
63	0.0036902508247688\\
64	0.0040125763148678\\
65	0.00408542983582614\\
66	0.00408934467211144\\
67	0.00406760360864643\\
68	0.00403657730104579\\
69	0.00400486664899167\\
70	0.00397913876457006\\
71	0.00396763365360209\\
72	0.00398577860522856\\
73	0.00407460869510253\\
74	0.00440882178496405\\
75	0.00852319154542653\\
76	0.00211982859547221\\
77	0.00279674481878385\\
78	0.00295234209521732\\
79	0.00299967450324673\\
80	0.00300734384297471\\
81	0.00299658049652506\\
82	0.00297609501762909\\
83	0.00295010695632826\\
84	0.00292089738309008\\
85	0.00288979839106794\\
86	0.00285763293534116\\
87	0.00282493110979805\\
88	0.00279204510261472\\
89	0.00275921420187501\\
90	0.00272660345813555\\
91	0.00269432766245323\\
92	0.00266246675038502\\
93	0.00263107599882434\\
94	0.00260019295165966\\
95	0.00256984222925479\\
96	0.00254003893333548\\
97	0.0025107910982644\\
98	0.00248210148178531\\
99	0.00245396889001376\\
100	0.00242638916874131\\
101	0.00239935595223708\\
102	0.00237286123354156\\
103	0.00234689580183488\\
104	0.00232144957979209\\
105	0.00229651188498403\\
106	0.00227207163310714\\
107	0.0022481174963278\\
108	0.00222463802675857\\
109	0.00220162175268604\\
110	0.00217905725339276\\
111	0.0021569332170867\\
112	0.00213523848544673\\
113	0.00211396208753109\\
114	0.00209309326520902\\
115	0.00207262149182518\\
116	0.00205253648545491\\
117	0.00203282821783402\\
118	0.00201348691983224\\
119	0.00199450308416773\\
120	0.00197586746592614\\
121	0.00195757108133911\\
122	0.0019396052051902\\
123	0.0019219613671484\\
124	0.00190463134727109\\
125	0.00188760717087541\\
126	0.00187088110293773\\
127	0.00185444564215264\\
128	0.0018382935147574\\
129	0.00182241766820821\\
130	0.00180681126477794\\
131	0.00179146767513212\\
132	0.00177638047192757\\
133	0.00176154342347035\\
134	0.00174695048746156\\
135	0.0017325958048528\\
136	0.00171847369382931\\
137	0.00170457864393352\\
138	0.0016909053103386\\
139	0.00167744850827835\\
140	0.00166420320763913\\
141	0.00165116452771496\\
142	0.00163832773212761\\
143	0.00162568822391149\\
144	0.00161324154076111\\
145	0.0016009833504405\\
146	0.00158890944635072\\
147	0.00157701574325256\\
148	0.00156529827314105\\
149	0\\
150	0\\
};
\addlegendentry{$\mathbf{h_1}$}

\addplot [color=mycolor2]
  table[row sep=crcr]{%
1	0.019775303219206\\
2	0.0210217764534023\\
3	0.0224372323963497\\
4	0.024058742711813\\
5	0.0259351263737046\\
6	0.0281320174688059\\
7	0.0307398096072034\\
8	0.0338865833958781\\
9	0.0377600935275399\\
10	0.0426472101764649\\
11	0.0490094599986528\\
12	0.0576401827385178\\
13	0.0700288298559564\\
14	0.0893407156606893\\
15	0.123700774100431\\
16	0.202175033398071\\
17	0.564479813098353\\
18	0.690442426104836\\
19	0.212260509632627\\
20	0.126132345068284\\
21	0.100380135781766\\
22	0.0378663697499036\\
23	0.0333199748773482\\
24	0.0149453064107011\\
25	0.10083899339379\\
26	0.161002397050911\\
27	0.0405118251764787\\
28	0.0383644765554957\\
29	0.0341227495803863\\
30	0.0306469105251072\\
31	0.0278570926171954\\
32	0.0255709383506331\\
33	0.0236574529195357\\
34	0.0220274984760589\\
35	0.0206190941704396\\
36	0.0193877726649002\\
37	0.0183006807256663\\
38	0.0173329207549748\\
39	0.016465211935799\\
40	0.0156823459816501\\
41	0.0149721364414517\\
42	0.0143246843629073\\
43	0.0137318527665838\\
44	0.0131868826449622\\
45	0.0126841071808284\\
46	0.0122187355837443\\
47	0.0117866872087634\\
48	0.0113844626077037\\
49	0.0110090421200206\\
50	0.0106578052804057\\
51	0\\
52	0\\
53	0\\
54	0\\
55	0\\
56	0\\
57	0\\
58	0\\
59	0\\
60	0\\
61	0\\
62	0\\
63	0\\
64	0\\
65	0\\
66	0\\
67	0\\
68	0\\
69	0\\
70	0\\
71	0\\
72	0\\
73	0\\
74	0\\
75	0\\
76	0\\
77	0\\
78	0\\
79	0\\
80	0\\
81	0\\
82	0\\
83	0\\
84	0\\
85	0\\
86	0\\
87	0\\
88	0\\
89	0\\
90	0\\
91	0\\
92	0\\
93	0\\
94	0\\
95	0\\
96	0\\
97	0\\
98	0\\
99	0\\
100	0\\
101	0\\
102	0\\
103	0\\
104	0\\
105	0\\
106	0\\
107	0\\
108	0\\
109	0\\
110	0\\
111	0\\
112	0\\
113	0\\
114	0\\
115	0\\
116	0\\
117	0\\
118	0\\
119	0\\
120	0\\
121	0\\
122	0\\
123	0\\
124	0\\
125	0\\
126	0\\
127	0\\
128	0\\
129	0\\
130	0\\
131	0\\
132	0\\
133	0\\
134	0\\
135	0\\
136	0\\
137	0\\
138	0\\
139	0\\
140	0\\
141	0\\
142	0\\
143	0\\
144	0\\
145	0\\
146	0\\
147	0\\
148	0\\
149	0\\
150	0\\
};
\addlegendentry{$\mathbf{h_{2}}$}

\end{axis}

\begin{axis}[%
width=1.935in,
height=3.2in,
at={(3.327in,0.512in)},
scale only axis,
xmin=0,
xmax=150,
xlabel style={font=\color{white!15!black}, align=center},
xlabel={Sample Index\\[1ex](b) Estimated},
ymin=0,
ymax=0.45,
axis background/.style={fill=white},
legend style={legend cell align=left, align=left, draw=white!15!black}
]
\addplot [color=mycolor1]
  table[row sep=crcr]{%
0	0.00339637729178945\\
1	0.00400525935426519\\
2	0.00399435195749058\\
3	0.00568022416867364\\
4	0.00370521325657732\\
5	0.00887507810677451\\
6	0.043370972020874\\
7	0.0467754421870124\\
8	0.0799560396364455\\
9	0.215720657584305\\
10	0.225782265948394\\
11	0.236098572073652\\
12	0.279908915500931\\
13	0.266562140456356\\
14	0.223770717472621\\
15	0.148651848218135\\
16	0.128165179045328\\
17	0.13336666801804\\
18	0.0646290295672299\\
19	0.0816210632050626\\
20	0.145783945284785\\
21	0.258863976633555\\
22	0.273632357717647\\
23	0.256398520928204\\
24	0.275679186747684\\
25	0.245311738481996\\
26	0.162499951398771\\
27	0.0960146668349358\\
28	0.0415469871885997\\
29	0.0230088188319052\\
30	0.0163560663793664\\
31	0.0579019521495016\\
32	0.0596337092084245\\
33	0.0476527231640766\\
34	0.0499161033978366\\
35	0.0519336917111525\\
36	0.142411438441435\\
37	0.151983781296709\\
38	0.153064972846834\\
39	0.170430962014964\\
40	0.153602491901762\\
41	0.125487030267075\\
42	0.0863943698674529\\
43	0.0466716754522313\\
44	0.0425585326516141\\
45	0.0149310184297393\\
46	0.0319563379363471\\
47	0.0370414330842038\\
48	0.0294334765489728\\
49	0.0235954685925189\\
50	0.0165986077571833\\
51	0.00992395019648921\\
52	0.0132456027507554\\
53	0.00860916233084546\\
54	0.00944224966602009\\
55	0.00940986827942426\\
56	0.00860700352918856\\
57	0.00747208498391271\\
58	0.00414184610662369\\
59	0.0012011225392992\\
60	0.00575247809348311\\
61	0.00617648215479823\\
62	0.00331496863676349\\
63	0.00404191313226186\\
64	0.00500327570181059\\
65	0.00304569055179287\\
66	0.00203322806084713\\
67	0.00149071902987455\\
68	0.00104659485796326\\
69	0.00122758435480086\\
70	0.00241806922112157\\
71	0.0021316782854493\\
72	0.00104619799543264\\
73	0.000717304435263897\\
74	0.000609875501134609\\
75	0.00298432056902855\\
76	0.00376259287853701\\
77	0.00364362633947844\\
78	0.0046436796093054\\
79	0.00485281566781689\\
80	0.00386966300473875\\
81	0.00280760068413848\\
82	0.00177719276735212\\
83	0.00144086570074859\\
84	0.000659258291493357\\
85	0.000879991327571986\\
86	0.00110576536816336\\
87	0.00102217864131867\\
88	0.000838454258333944\\
89	0.000491738094357053\\
90	0.000138373589335212\\
91	0.000248754698880352\\
92	0.000279231720649835\\
93	0.000461472274234819\\
94	0.000573404498993419\\
95	0.000586142050434557\\
96	0.000364235280799576\\
97	0.00024849701082453\\
98	0.000258023012163628\\
99	0.000365431088091867\\
100	0.00040985910856396\\
101	0.000311991230209746\\
102	0.000279779166788311\\
103	0.000302202584465823\\
104	0.000388366377130884\\
105	0.000371134180143532\\
106	0.000148122468628877\\
107	8.14979031331025e-05\\
108	0.000175111741915995\\
109	0.000221711446375724\\
110	0.000317539957329859\\
111	0.000530745612155768\\
112	0.00054023144562357\\
113	0.000460025457523387\\
114	0.000571170477487583\\
115	0.000443363436296668\\
116	3.7178389182269e-05\\
117	0.000351551362853038\\
118	0.000340229861835369\\
119	0.000210974243781135\\
120	0.000285735532310807\\
121	0.000574068312896344\\
122	0.000629506613198603\\
123	0.000597618165032025\\
124	0.000674118765203422\\
125	0.000748378102200289\\
126	0.000618507483073572\\
127	0.000367155477326761\\
128	8.87583551173618e-05\\
129	0.00027241213829149\\
130	0.00019509009841165\\
131	0.000334016800823538\\
132	0.000357175364877292\\
133	0.000418899004378714\\
134	0.000470679329596021\\
135	0.000479460872091368\\
136	0.000490871917530413\\
137	0.000559732294826909\\
138	0.000421681887443877\\
139	0.000183351934871319\\
};
\addlegendentry{$\mathbf{\hat{h}_{1}}$}

\addplot [color=mycolor2]
  table[row sep=crcr]{%
0	0.00292372660659741\\
1	0.00368007271795121\\
2	0.00357127943435514\\
3	0.00459242881398864\\
4	0.00442131317534502\\
5	0.00397254605234739\\
6	0.00311270313185001\\
7	0.00152480134393427\\
8	0.0019274813651196\\
9	0.00156149918784729\\
10	0.000767128200734873\\
11	0.000797255410199697\\
12	0.00214524281070194\\
13	0.00132959579799362\\
14	0.00337857065446814\\
15	0.00799199401719282\\
16	0.0433888131149382\\
17	0.241798496335631\\
18	0.352844836462039\\
19	0.341774789280389\\
20	0.398405137622247\\
21	0.434600312210164\\
22	0.380069052880772\\
23	0.293426376894864\\
24	0.210657025658679\\
25	0.207301246179392\\
26	0.170131994955847\\
27	0.050487111627925\\
28	0.00589054122660375\\
29	0.00257844626314929\\
30	0.0065496175254314\\
31	0.00434552924288564\\
32	0.00648676170561901\\
33	0.0126382326660331\\
34	0.0126597241219668\\
35	0.00857011975575736\\
36	0.00331547926227828\\
37	0.00802262186830371\\
38	0.00950869006051953\\
39	0.00668475640794277\\
40	0.00387309075972177\\
41	0.00255773065735968\\
42	0.00630607867765851\\
43	0.00525132039088513\\
44	0.00233904075623771\\
45	0.00347549007876053\\
46	0.00423773634812116\\
47	0.00419644894678232\\
48	0.00471039373134455\\
49	0.00330101274999004\\
50	0.00185892757823516\\
51	0.00284402296089269\\
52	0.00206806685368011\\
53	0.000633981455108526\\
54	0.00168335953062568\\
55	0.00214140690149514\\
56	0.00295422019362429\\
57	0.00383598211784038\\
58	0.00375766709116528\\
59	0.00493503707947066\\
60	0.0063163507006617\\
61	0.0059778920530014\\
62	0.00456142086262785\\
63	0.00331966365187856\\
64	0.00330982098418674\\
65	0.00311748813794607\\
66	0.0013969460042625\\
67	0.0001685379724285\\
68	0.00026625970540139\\
69	0.000212345863427298\\
70	0.000274232307581383\\
71	0.000339178798567337\\
72	0.000282356002899148\\
73	0.000137430146712357\\
74	0.000106433860537709\\
75	0.0001003565200942\\
76	0.000124170861698368\\
77	6.35297846081486e-05\\
78	0.000108127212197454\\
79	0.000203378577333633\\
80	0.00020602960152014\\
81	4.25167648491683e-05\\
82	6.57506119164462e-05\\
83	8.50324110087753e-05\\
84	0.00011962524930659\\
85	0.000206507321938254\\
86	0.000263096392228201\\
87	0.000349042765570807\\
88	0.000420617978900822\\
89	0.000414445966068011\\
90	0.000321006116968087\\
91	0.000353592159520947\\
92	0.000341551242880394\\
93	0.00036967640469439\\
94	0.000303232818670895\\
95	0.000233933246654799\\
96	0.000292050126128985\\
97	0.000174857319956102\\
98	0.000187672712509445\\
99	0.000255987499237808\\
100	0.00023604635072439\\
101	0.000323462121989229\\
102	0.000373677331526121\\
103	0.000329663117176043\\
104	0.000142508532270205\\
105	2.94628686428014e-05\\
106	5.42659150644501e-05\\
107	0.000318643296856438\\
108	0.000517355240340828\\
109	0.000442001126282624\\
110	0.000307534194332597\\
111	0.000378574093537578\\
112	0.000362038327593709\\
113	0.000249443805663188\\
114	0.000123468126599922\\
115	5.8604877981878e-05\\
116	5.82308260555652e-05\\
117	8.73940121771017e-05\\
118	0.000168141818416916\\
119	0.000255832276260698\\
120	0.000296085521123926\\
121	0.000320877397548511\\
122	0.000418905339833729\\
123	0.000414596979871484\\
124	0.000242999395230081\\
125	0.000217297857613457\\
126	0.000301101103525318\\
127	0.000282066555654797\\
128	0.000294549021716929\\
129	0.000367073438357313\\
130	0.000596353106828181\\
131	0.000628203308570002\\
132	0.000716797832360056\\
133	0.000987499282413053\\
134	0.0010453558087762\\
135	0.000836984369256351\\
136	0.000551025860593986\\
137	0.000499617503673912\\
138	0.000568049498849088\\
139	0.000321539845664316\\
};
\addlegendentry{$\mathbf{\hat{h}_{2}}$}

\end{axis}
\end{tikzpicture}%