% This file was created by matlab2tikz.
%
%The latest updates can be retrieved from
%  http://www.mathworks.com/matlabcentral/fileexchange/22022-matlab2tikz-matlab2tikz
%where you can also make suggestions and rate matlab2tikz.
%
\definecolor{mycolor1}{rgb}{0.00000,0.44700,0.74100}%
\definecolor{mycolor2}{rgb}{0.85000,0.32500,0.09800}%
%
\begin{tikzpicture}

\begin{axis}[%
width=1.935in,
height=3.2in,
at={(0.758in,0.512in)},
scale only axis,
xmin=0,
xmax=150,
xlabel style={font=\color{white!15!black}, align=center},
xlabel={Sample Index\\[1ex](a) Actual},
ymin=0,
ymax=0.7,
axis background/.style={fill=white},
legend style={legend cell align=left, align=left, draw=white!15!black}
]
\addplot [color=mycolor1]
  table[row sep=crcr]{%
1	0.0234657806037261\\
2	0.0272334504034075\\
3	0.0326864300765018\\
4	0.0414541482980318\\
5	0.0586677033458464\\
6	0.117843438362983\\
7	0.159969331461504\\
8	0.174397116945152\\
9	0.616552810702634\\
10	0.0882137642931462\\
11	0.0472681903124796\\
12	0.0327587509505929\\
13	0.0272256709659274\\
14	0.0412344622245766\\
15	0.0186762848129325\\
16	0.0451940046978057\\
17	0.0153724087875252\\
18	0.0239672675363248\\
19	0.0400285717874473\\
20	0.0828333966509162\\
21	0.557624977131952\\
22	0.149414784250917\\
23	0.109138078132702\\
24	0.0381681231028791\\
25	0.032799759178118\\
26	0.191519461959093\\
27	0.0734580287558902\\
28	0.0358315656953253\\
29	0.0179563195827385\\
30	0.0169149242156914\\
31	0.0179798517146348\\
32	0.0199431506445131\\
33	0.0279225394655299\\
34	0.0908594243819801\\
35	0.0439964246924232\\
36	0.330890477505262\\
37	0.037800506563543\\
38	0.020261933748638\\
39	0.0138181229977315\\
40	0.0211497159554441\\
41	0.0112042208144458\\
42	0.00964538908702694\\
43	0.00864780826327016\\
44	0.00787736374270682\\
45	0.00720180133294831\\
46	0.00651453200193765\\
47	0.00565492088107664\\
48	0.0112814316241706\\
49	0.0075966567083061\\
50	0.0102713040739602\\
51	0.00787142060243747\\
52	0.00711780022683946\\
53	0.00668443537322835\\
54	0.00638223966522588\\
55	0.00615487020840034\\
56	0.00598242225636516\\
57	0.00586293416152974\\
58	0.00581626175933958\\
59	0.00593494184987807\\
60	0.00707647204853056\\
61	0.00861312572402681\\
62	0.00240649054353041\\
63	0.0036902508247688\\
64	0.0040125763148678\\
65	0.00408542983582614\\
66	0.00408934467211144\\
67	0.00406760360864643\\
68	0.00403657730104579\\
69	0.00400486664899167\\
70	0.00397913876457006\\
71	0.00396763365360209\\
72	0.00398577860522856\\
73	0.00407460869510253\\
74	0.00440882178496405\\
75	0.00852319154542653\\
76	0.00211982859547221\\
77	0.00279674481878385\\
78	0.00295234209521732\\
79	0.00299967450324673\\
80	0.00300734384297471\\
81	0.00299658049652506\\
82	0.00297609501762909\\
83	0.00295010695632826\\
84	0.00292089738309008\\
85	0.00288979839106794\\
86	0.00285763293534116\\
87	0.00282493110979805\\
88	0.00279204510261472\\
89	0.00275921420187501\\
90	0.00272660345813555\\
91	0.00269432766245323\\
92	0.00266246675038502\\
93	0.00263107599882434\\
94	0.00260019295165966\\
95	0.00256984222925479\\
96	0.00254003893333548\\
97	0.0025107910982644\\
98	0.00248210148178531\\
99	0.00245396889001376\\
100	0.00242638916874131\\
101	0.00239935595223708\\
102	0.00237286123354156\\
103	0.00234689580183488\\
104	0.00232144957979209\\
105	0.00229651188498403\\
106	0.00227207163310714\\
107	0.0022481174963278\\
108	0.00222463802675857\\
109	0.00220162175268604\\
110	0.00217905725339276\\
111	0.0021569332170867\\
112	0.00213523848544673\\
113	0.00211396208753109\\
114	0.00209309326520902\\
115	0.00207262149182518\\
116	0.00205253648545491\\
117	0.00203282821783402\\
118	0.00201348691983224\\
119	0.00199450308416773\\
120	0.00197586746592614\\
121	0.00195757108133911\\
122	0.0019396052051902\\
123	0.0019219613671484\\
124	0.00190463134727109\\
125	0.00188760717087541\\
126	0.00187088110293773\\
127	0.00185444564215264\\
128	0.0018382935147574\\
129	0.00182241766820821\\
130	0.00180681126477794\\
131	0.00179146767513212\\
132	0.00177638047192757\\
133	0.00176154342347035\\
134	0.00174695048746156\\
135	0.0017325958048528\\
136	0.00171847369382931\\
137	0.00170457864393352\\
138	0.0016909053103386\\
139	0.00167744850827835\\
140	0.00166420320763913\\
141	0.00165116452771496\\
142	0.00163832773212761\\
143	0.00162568822391149\\
144	0.00161324154076111\\
145	0.0016009833504405\\
146	0.00158890944635072\\
147	0.00157701574325256\\
148	0.00156529827314105\\
149	0\\
150	0\\
};
\addlegendentry{$\mathbf{h_1}$}

\addplot [color=mycolor2]
  table[row sep=crcr]{%
1	0.019775303219206\\
2	0.0210217764534023\\
3	0.0224372323963497\\
4	0.024058742711813\\
5	0.0259351263737046\\
6	0.0281320174688059\\
7	0.0307398096072034\\
8	0.0338865833958781\\
9	0.0377600935275399\\
10	0.0426472101764649\\
11	0.0490094599986528\\
12	0.0576401827385178\\
13	0.0700288298559564\\
14	0.0893407156606893\\
15	0.123700774100431\\
16	0.202175033398071\\
17	0.564479813098353\\
18	0.690442426104836\\
19	0.212260509632627\\
20	0.126132345068284\\
21	0.100380135781766\\
22	0.0378663697499036\\
23	0.0333199748773482\\
24	0.0149453064107011\\
25	0.10083899339379\\
26	0.161002397050911\\
27	0.0405118251764787\\
28	0.0383644765554957\\
29	0.0341227495803863\\
30	0.0306469105251072\\
31	0.0278570926171954\\
32	0.0255709383506331\\
33	0.0236574529195357\\
34	0.0220274984760589\\
35	0.0206190941704396\\
36	0.0193877726649002\\
37	0.0183006807256663\\
38	0.0173329207549748\\
39	0.016465211935799\\
40	0.0156823459816501\\
41	0.0149721364414517\\
42	0.0143246843629073\\
43	0.0137318527665838\\
44	0.0131868826449622\\
45	0.0126841071808284\\
46	0.0122187355837443\\
47	0.0117866872087634\\
48	0.0113844626077037\\
49	0.0110090421200206\\
50	0.0106578052804057\\
51	0\\
52	0\\
53	0\\
54	0\\
55	0\\
56	0\\
57	0\\
58	0\\
59	0\\
60	0\\
61	0\\
62	0\\
63	0\\
64	0\\
65	0\\
66	0\\
67	0\\
68	0\\
69	0\\
70	0\\
71	0\\
72	0\\
73	0\\
74	0\\
75	0\\
76	0\\
77	0\\
78	0\\
79	0\\
80	0\\
81	0\\
82	0\\
83	0\\
84	0\\
85	0\\
86	0\\
87	0\\
88	0\\
89	0\\
90	0\\
91	0\\
92	0\\
93	0\\
94	0\\
95	0\\
96	0\\
97	0\\
98	0\\
99	0\\
100	0\\
101	0\\
102	0\\
103	0\\
104	0\\
105	0\\
106	0\\
107	0\\
108	0\\
109	0\\
110	0\\
111	0\\
112	0\\
113	0\\
114	0\\
115	0\\
116	0\\
117	0\\
118	0\\
119	0\\
120	0\\
121	0\\
122	0\\
123	0\\
124	0\\
125	0\\
126	0\\
127	0\\
128	0\\
129	0\\
130	0\\
131	0\\
132	0\\
133	0\\
134	0\\
135	0\\
136	0\\
137	0\\
138	0\\
139	0\\
140	0\\
141	0\\
142	0\\
143	0\\
144	0\\
145	0\\
146	0\\
147	0\\
148	0\\
149	0\\
150	0\\
};
\addlegendentry{$\mathbf{h_{2}}$}

\end{axis}

\begin{axis}[%
width=1.935in,
height=3.2in,
at={(3.327in,0.512in)},
scale only axis,
xmin=0,
xmax=150,
xlabel style={font=\color{white!15!black}, align=center},
xlabel={Sample Index\\[1ex](b) Estimated},
ymin=0,
ymax=0.6,
axis background/.style={fill=white},
legend style={legend cell align=left, align=left, draw=white!15!black}
]
\addplot [color=mycolor1]
  table[row sep=crcr]{%
0	0.00533458934245338\\
1	0.000819881621077986\\
2	0.00622375790617655\\
3	0.00389713095459327\\
4	0.00850085681269398\\
5	0.0152543694403934\\
6	0.0570778818666887\\
7	0.0314751864311536\\
8	0.153238132185864\\
9	0.193021872059032\\
10	0.193236606258238\\
11	0.340107687652663\\
12	0.299814809118351\\
13	0.107458027747443\\
14	0.0509428591128119\\
15	0.118116296268485\\
16	0.150218267364407\\
17	0.0914298309998453\\
18	0.0509797795795418\\
19	0.0189364713791633\\
20	0.0974107489927691\\
21	0.15777511608998\\
22	0.140914032582111\\
23	0.212598358931346\\
24	0.256645431024751\\
25	0.192748529321627\\
26	0.252032898071011\\
27	0.221059657151965\\
28	0.168514930221584\\
29	0.0892035976365402\\
30	0.0697676217455548\\
31	0.0824740379752407\\
32	0.0062307224353392\\
33	0.0834352943221032\\
34	0.0988385981636092\\
35	0.0159127243996813\\
36	0.0449991471909594\\
37	0.10054518153726\\
38	0.317732467501658\\
39	0.263867073976679\\
40	0.0700357784852782\\
41	0.025231067535022\\
42	0.0782867224685201\\
43	0.11422430130091\\
44	0.0624507035538063\\
45	0.0193526106684445\\
46	0.025559844229811\\
47	0.0363465016361962\\
48	0.0233728238051719\\
49	0.0275065024668401\\
50	0.0613131912334808\\
51	0.0729225756787328\\
52	0.0439402881938747\\
53	0.114826097187852\\
54	0.0852467903809176\\
55	0.0255110146731908\\
56	0.0131161659129099\\
57	0.0151711393928071\\
58	0.0182093762206693\\
59	0.0140521989187443\\
60	0.00861746654381418\\
61	0.0238018066733377\\
62	0.019366958406526\\
63	0.00885991541428806\\
64	0.00523930468255826\\
65	0.00596995307208461\\
66	0.0124489896812894\\
67	0.0107077768650062\\
68	0.00489455423615596\\
69	0.00613306184418051\\
70	0.00601862757931034\\
71	0.00379826132657383\\
72	0.000962798337220481\\
73	0.000981066042035013\\
74	0.00235841048718939\\
75	0.00257009165492632\\
76	0.00221002607679685\\
77	0.00767416902919323\\
78	0.01053608062202\\
79	0.00627327091727302\\
80	0.00243759513261077\\
81	0.00112876364752686\\
82	0.00206022147259901\\
83	0.00151674660382708\\
84	0.000667191398244657\\
85	0.00119835083838524\\
86	0.00202215331150396\\
87	0.0014636422057994\\
88	0.00149910474662151\\
89	0.000939577328901067\\
90	0.00149804511337453\\
91	0.00112067452498767\\
92	0.00338756226305297\\
93	0.00370616091251063\\
94	0.00151689262521093\\
95	0.000793177119293118\\
96	0.000408655859359328\\
97	0.000681162456088267\\
98	0.000239567046508252\\
99	0.000136692644386184\\
100	0.000926722597449067\\
101	0.000618178057432337\\
102	0.000584544794774269\\
103	3.39164258873375e-05\\
104	0.000430129887511467\\
105	0.000140101945872225\\
106	0.000368461724442109\\
107	0.000169159374544527\\
108	4.43567612535572e-05\\
109	0.000375610961959472\\
110	7.93118381047454e-05\\
111	0.000261684002598664\\
112	0.000110535563380116\\
113	0.000238424712975013\\
114	9.99620043771286e-05\\
115	0.000188776659456077\\
116	0.000129785049881211\\
117	0.000205020924888325\\
118	0.000116838299287662\\
119	0.000174352060961936\\
120	0.00014549945816748\\
121	0.000149870750234965\\
122	0.000140218845742207\\
123	0.000321769086239587\\
124	0.000118341824012632\\
125	0.000221138122446319\\
126	0.000208648264515116\\
127	0.000157906841675259\\
128	0.000157387334312906\\
129	0.000137116063088982\\
130	0.000219040526874671\\
131	9.86965207968693e-05\\
132	0.000217575459364026\\
133	0.000216474134705523\\
134	0.000168025299549836\\
135	0.000328872389783865\\
136	0.000275319274888585\\
137	0.000110514251752106\\
138	0.00076806248540491\\
139	0.000660521355891588\\
140	0.000414891313737613\\
141	0.000129198508591462\\
142	0.000241684250773858\\
143	8.34219339612247e-05\\
144	0.000221967424113005\\
145	0.000122884685771799\\
146	0.000261442143988595\\
147	0.000311970396943331\\
148	0.000461206115321973\\
149	8.17976163189714e-05\\
};
\addlegendentry{$\mathbf{\hat{h}_{1}}$}

\addplot [color=mycolor2]
  table[row sep=crcr]{%
0	0.00484971027640649\\
1	0.000278587721903791\\
2	0.00489365546384517\\
3	0.00492831759429247\\
4	0.0045533838903679\\
5	0.00205124819335962\\
6	0.00313582629620928\\
7	0.00157960500419991\\
8	0.00476507753377736\\
9	0.00368853346222412\\
10	0.00427218743995516\\
11	0.00529227039955438\\
12	0.00703400744600739\\
13	0.00816233244429491\\
14	0.0138788825454733\\
15	0.0256967720633423\\
16	0.0972492955141377\\
17	0.292091356472871\\
18	0.195392888331434\\
19	0.330297554794389\\
20	0.507098526728462\\
21	0.293472673054143\\
22	0.0705133578819103\\
23	0.0624728074950078\\
24	0.160898100882733\\
25	0.187017031932329\\
26	0.12129959866421\\
27	0.115575036109479\\
28	0.092197391310633\\
29	0.0669431877707316\\
30	0.078802084937617\\
31	0.0763771044905157\\
32	0.085217246917249\\
33	0.0195606232842456\\
34	0.302888353059607\\
35	0.388841416534475\\
36	0.192259070727241\\
37	0.0320538571633918\\
38	0.0104275340357927\\
39	0.010686331853717\\
40	0.0104369837144632\\
41	0.00756504397749332\\
42	0.0072491374337244\\
43	0.00618551822283617\\
44	0.00721450621048176\\
45	0.00782765954193309\\
46	0.0134674551838894\\
47	0.0224122425157779\\
48	0.0170220552587547\\
49	0.0104275983698931\\
50	0.00622682730617737\\
51	0.00234383483829996\\
52	0.00207032431560315\\
53	0.00140745222997179\\
54	0.00165712191080522\\
55	0.00255341214152592\\
56	0.00262955481676354\\
57	0.00242704529490733\\
58	0.00408439055572496\\
59	0.00818958760097883\\
60	0.00959176074570767\\
61	0.0078138034123072\\
62	0.00357007015860941\\
63	0.000838683311916524\\
64	0.000350314604739931\\
65	0.000838553107007821\\
66	0.00129644204376002\\
67	0.0011847493450433\\
68	0.00112399407236772\\
69	0.00145958223119266\\
70	0.00147398283619616\\
71	0.00114455711370877\\
72	0.00109183466051416\\
73	0.00446823194615253\\
74	0.00710140886857999\\
75	0.00457265129258309\\
76	0.00106685007232258\\
77	2.68249935829252e-05\\
78	1.15304696819845e-05\\
79	2.08326836955096e-06\\
80	1.68796830356683e-06\\
81	4.8601576190206e-06\\
82	5.16737935540408e-06\\
83	4.68755446219631e-06\\
84	3.83309518283325e-06\\
85	3.96750102970549e-06\\
86	1.50172377927849e-06\\
87	3.40497877875956e-06\\
88	6.19894126307607e-06\\
89	6.09712463555174e-06\\
90	4.28499857195996e-06\\
91	2.48646166989182e-06\\
92	1.21016331007641e-06\\
93	2.78012722935459e-06\\
94	2.46813416250711e-06\\
95	3.17538827471369e-06\\
96	4.19607434176471e-06\\
97	4.54272281695123e-06\\
98	5.10050927255965e-06\\
99	6.18179378106994e-06\\
100	4.77319739263141e-06\\
101	2.40191386981747e-06\\
102	1.26246830526973e-06\\
103	4.2133261312523e-06\\
104	1.07595205117828e-05\\
105	1.02414283710939e-05\\
106	2.41536960180641e-06\\
107	7.27732635301942e-06\\
108	1.05601570349983e-05\\
109	7.77560633640783e-06\\
110	4.61135097209081e-06\\
111	5.8245576241126e-06\\
112	8.93052871436898e-06\\
113	1.03704128971669e-05\\
114	9.72020717242263e-06\\
115	1.08927448771971e-05\\
116	1.47723342485857e-05\\
117	1.76959431803708e-05\\
118	2.37885403153896e-05\\
119	3.02349494556298e-05\\
120	2.94490538892665e-05\\
121	1.93082123302119e-05\\
122	1.70599145653416e-05\\
123	2.66538855443287e-05\\
124	5.44470927338253e-05\\
125	4.87726384189589e-05\\
126	1.17556125871822e-05\\
127	5.91012525550723e-05\\
128	6.06068193374548e-05\\
129	4.30888640190035e-05\\
130	4.73301891517416e-05\\
131	0.000138887600126555\\
132	0.00028619471507906\\
133	0.000255750982262348\\
134	2.05213239137485e-05\\
135	0.000165147790205087\\
136	0.000122906258841685\\
137	3.2996978231732e-05\\
138	8.77851902464077e-05\\
139	0.000192256257270033\\
140	0.000189621498171321\\
141	0.000144801020369621\\
142	0.000197870781945196\\
143	0.00023609021644943\\
144	0.000171123194753166\\
145	0.000136581064605427\\
146	0.000410552239679122\\
147	0.0010628090421542\\
148	0.000841195162382254\\
149	0.000194703251055542\\
};
\addlegendentry{$\mathbf{\hat{h}_{2}}$}

\end{axis}
\end{tikzpicture}%