% This file was created by matlab2tikz.
%
%The latest updates can be retrieved from
%  http://www.mathworks.com/matlabcentral/fileexchange/22022-matlab2tikz-matlab2tikz
%where you can also make suggestions and rate matlab2tikz.
%
\definecolor{mycolor1}{rgb}{0.00000,0.44700,0.74100}%
\definecolor{mycolor2}{rgb}{0.85000,0.32500,0.09800}%
%
\begin{tikzpicture}

\begin{axis}[%
width=1.935in,
height=3.2in,
at={(0.758in,0.512in)},
scale only axis,
xmin=0,
xmax=200,
xlabel style={font=\color{white!15!black}, align=center},
xlabel={Sample Index\\[1ex](a) Actual},
ymin=0,
ymax=1,
axis background/.style={fill=white},
legend style={legend cell align=left, align=left, draw=white!15!black}
]
\addplot [color=mycolor1]
  table[row sep=crcr]{%
1	0.0167418731260698\\
2	0.018659722218203\\
3	0.0211495716349754\\
4	0.0245407494314006\\
5	0.029505643974117\\
6	0.0377161636169434\\
7	0.0550750576238134\\
8	0.131028403455825\\
9	0.141533477104454\\
10	0.158175166246243\\
11	0.163761757297189\\
12	0.600100605556833\\
13	0.118033417583129\\
14	0.0610914209628117\\
15	0.0426162246246858\\
16	0.0332715711707656\\
17	0.0321939439283243\\
18	0.0268871008873183\\
19	0.0316920608120786\\
20	0.0286771919664519\\
21	0.00773119825769845\\
22	0.0330073087209196\\
23	0.019415059292473\\
24	0.0177688778425817\\
25	0.0188194600762088\\
26	0.0237714798713867\\
27	0.0430806655948836\\
28	0.586023006720236\\
29	0.0970905103802927\\
30	0.0246981078960262\\
31	0.0780346253424249\\
32	0.0580455436901626\\
33	0.0681836526256362\\
34	0.163824852865525\\
35	0.0446106828365612\\
36	0.06119675966513\\
37	0.00907835157153909\\
38	0.0310093774848825\\
39	0.00125972832884384\\
40	0.005422098150711\\
41	0.0107374596162295\\
42	0.0165479326643041\\
43	0.024789327411243\\
44	0.0446277431282512\\
45	0.058019450740893\\
46	0.074843365423057\\
47	0.199666615467323\\
48	0.216838516027539\\
49	0.0783890355452335\\
50	0.0495529240878659\\
51	0.0370791446049236\\
52	0.0307530810094058\\
53	0.0155757068681131\\
54	0.0198807977432187\\
55	0.0179871495341263\\
56	0.0162887905400521\\
57	0.0148728268904216\\
58	0.0136909847461918\\
59	0.0126943671543235\\
60	0.011846112844806\\
61	0.0111233301448608\\
62	0.0105291449791113\\
63	0.0102108676347222\\
64	0.00751288118280402\\
65	0.00739035992869396\\
66	0.0116365722557393\\
67	0.00899390796280924\\
68	0.00831157148096884\\
69	0.00788086875151191\\
70	0.00754217236777393\\
71	0.00725475830161164\\
72	0.00700327644843893\\
73	0.006780818536885\\
74	0.00658453626015097\\
75	0.00641472878078445\\
76	0.00627599401250467\\
77	0.00618216997550965\\
78	0.00617516728867787\\
79	0.00642745729543014\\
80	0.00873051939586948\\
81	0.00471465923588381\\
82	0.00195996010568866\\
83	0.004980313957114\\
84	0.00475839614864904\\
85	0.00464733241660508\\
86	0.00455444244400457\\
87	0.00446749239384432\\
88	0.00438406292262191\\
89	0.00430366820355207\\
90	0.00422628355118023\\
91	0.00415201532524293\\
92	0.00408104289588831\\
93	0.00401365198230764\\
94	0.00395033763548775\\
95	0.00389203620501121\\
96	0.00384070443755282\\
97	0.00380107128140597\\
98	0.00378779867734327\\
99	0.00387836096292209\\
100	0.00228454900881806\\
101	0.00321909463290553\\
102	0.00328982387499096\\
103	0.00328100374444436\\
104	0.00325253146337885\\
105	0.00321692683031362\\
106	0.00317840637543852\\
107	0.00313876414674543\\
108	0.00309887602618152\\
109	0.00305920797263281\\
110	0.00302002111537278\\
111	0.00298146552488656\\
112	0.00294362726599965\\
113	0.0029065537719176\\
114	0.00287026833389302\\
115	0.00283477876811283\\
116	0.00280008280049957\\
117	0.00276617151884636\\
118	0.00273303164395387\\
119	0.00270064705586787\\
120	0.00266899983729428\\
121	0.00263807099659409\\
122	0.00260784097374635\\
123	0.00257828999668392\\
124	0.00254939833288439\\
125	0.00252114646667125\\
126	0.00249351522323938\\
127	0.00246648585412356\\
128	0.00244004009455901\\
129	0.00241416020024051\\
130	0.00238882896892876\\
131	0.0023640297508985\\
132	0.00233974645117835\\
133	0.00231596352577768\\
134	0.00229266597354371\\
135	0.00226983932488367\\
136	0.00224746962828519\\
137	0.00222554343533969\\
138	0.00220404778480324\\
139	0.00218297018609978\\
140	0.00216229860257188\\
141	0.00214202143470905\\
142	0.00212212750352594\\
143	0.00210260603421662\\
144	0.00208344664017788\\
145	0.00206463930746792\\
146	0.00204617437974413\\
147	0.00202804254371082\\
148	0.00201023481509265\\
149	0.00199274252514179\\
150	0.00197555730767936\\
151	0.0019586710866655\\
152	0.00194207606428942\\
153	0.00192576470956709\\
154	0.00190972974743187\\
155	0.00189396414830307\\
156	0.00187846111811499\\
157	0.00186321408878906\\
158	0.00184821670913216\\
159	0.00183346283614256\\
160	0.00181894652670628\\
161	0.00180466202966742\\
162	0.00179060377825436\\
163	0.00177676638284649\\
164	0.00176314462406556\\
165	0.00174973344617591\\
166	0.0017365279507797\\
167	0.00172352339079259\\
168	0.00171071516468654\\
169	0.00169809881098722\\
170	0.00168567000301325\\
171	0.00167342454384613\\
172	0.00166135836151948\\
173	0.00164946750441694\\
174	0.00163774813686889\\
175	0.00162619653493841\\
176	0.00161480908238697\\
177	0.00160358226681213\\
178	0.001592512675948\\
179	0.00158159699412143\\
180	0.00157083199885632\\
181	0.00156021455761888\\
182	0.00154974162469766\\
183	0.00153941023821136\\
184	0.00152921751723897\\
185	0.00151916065906659\\
186	0.00150923693654504\\
187	0.00149944369555362\\
188	0.00148977835256491\\
189	0.00148023839230615\\
190	0.0014708213655126\\
191	0.00146152488676917\\
192	0.00145234663243548\\
193	0.00144328433865201\\
194	0.00143433579942216\\
195	0.0014254988647679\\
196	0.00141677143895562\\
197	0.00140815147878894\\
198	0.00139963699196521\\
199	0\\
200	0\\
};
\addlegendentry{$\mathbf{h_1}$}

\addplot [color=mycolor2]
  table[row sep=crcr]{%
1	0.00495033386861547\\
2	0.00515738368500011\\
3	0.00538309861623286\\
4	0.00563019833310769\\
5	0.00590197136255583\\
6	0.00620243506959928\\
7	0.00653655369620811\\
8	0.00691054090538825\\
9	0.00733228812251618\\
10	0.00781198494389501\\
11	0.00836304134465097\\
12	0.0090034999823859\\
13	0.00975827527656913\\
14	0.0106628508662167\\
15	0.0117696896019869\\
16	0.0131600228416925\\
17	0.0149671880151623\\
18	0.0174273921400842\\
19	0.0210049332363351\\
20	0.0267613442180004\\
21	0.037792597580649\\
22	0.068721841139076\\
23	0.97572931769219\\
24	0.0649085399616321\\
25	0.0262918397391367\\
26	0.0126468169615953\\
27	0.00419508123086451\\
28	0.0214241856295046\\
29	0.0134643328328179\\
30	0.00412679327935559\\
31	0.0112712342656943\\
32	0.0282552508318709\\
33	0.111702725947746\\
34	0.12653020104749\\
35	0.0361926668223949\\
36	0.024130019396178\\
37	0.019518168382204\\
38	0.0163235660243771\\
39	0.0140849625225472\\
40	0.0124312948441269\\
41	0.0111552918846637\\
42	0.0101369616841952\\
43	0.00930266674553233\\
44	0.00860476970863487\\
45	0.00801105372801389\\
46	0.00749890841387189\\
47	0.00705196472677567\\
48	0.00665805661850076\\
49	0.0063079366485928\\
50	0.00599443852440938\\
51	0.00571191453485358\\
52	0.00545584764793091\\
53	0.0052225778141873\\
54	0.00500910486747672\\
55	0.00481294397681212\\
56	0.00463201789166602\\
57	0.00446457542356871\\
58	0.00430912894812168\\
59	0.00416440590497024\\
60	0.00402931074167137\\
61	0.00390289474814389\\
62	0.00378433192171684\\
63	0.00367289949042518\\
64	0.0035679620699816\\
65	0.00346895868109233\\
66	0.00337539203747226\\
67	0.00328681965070268\\
68	0.00320284639950925\\
69	0\\
70	0\\
71	0\\
72	0\\
73	0\\
74	0\\
75	0\\
76	0\\
77	0\\
78	0\\
79	0\\
80	0\\
81	0\\
82	0\\
83	0\\
84	0\\
85	0\\
86	0\\
87	0\\
88	0\\
89	0\\
90	0\\
91	0\\
92	0\\
93	0\\
94	0\\
95	0\\
96	0\\
97	0\\
98	0\\
99	0\\
100	0\\
101	0\\
102	0\\
103	0\\
104	0\\
105	0\\
106	0\\
107	0\\
108	0\\
109	0\\
110	0\\
111	0\\
112	0\\
113	0\\
114	0\\
115	0\\
116	0\\
117	0\\
118	0\\
119	0\\
120	0\\
121	0\\
122	0\\
123	0\\
124	0\\
125	0\\
126	0\\
127	0\\
128	0\\
129	0\\
130	0\\
131	0\\
132	0\\
133	0\\
134	0\\
135	0\\
136	0\\
137	0\\
138	0\\
139	0\\
140	0\\
141	0\\
142	0\\
143	0\\
144	0\\
145	0\\
146	0\\
147	0\\
148	0\\
149	0\\
150	0\\
151	0\\
152	0\\
153	0\\
154	0\\
155	0\\
156	0\\
157	0\\
158	0\\
159	0\\
160	0\\
161	0\\
162	0\\
163	0\\
164	0\\
165	0\\
166	0\\
167	0\\
168	0\\
169	0\\
170	0\\
171	0\\
172	0\\
173	0\\
174	0\\
175	0\\
176	0\\
177	0\\
178	0\\
179	0\\
180	0\\
181	0\\
182	0\\
183	0\\
184	0\\
185	0\\
186	0\\
187	0\\
188	0\\
189	0\\
190	0\\
191	0\\
192	0\\
193	0\\
194	0\\
195	0\\
196	0\\
197	0\\
198	0\\
199	0\\
200	0\\
};
\addlegendentry{$\mathbf{h_{2}}$}

\end{axis}

\begin{axis}[%
width=1.935in,
height=3.2in,
at={(3.327in,0.512in)},
scale only axis,
xmin=0,
xmax=400,
xlabel style={font=\color{white!15!black}, align=center},
xlabel={Sample Index\\[1ex](b) Estimated},
ymin=0,
ymax=0.14,
axis background/.style={fill=white},
legend style={legend cell align=left, align=left, draw=white!15!black}
]
\addplot [color=mycolor1]
  table[row sep=crcr]{%
0	0.0959712481902754\\
1	0.0132564891397921\\
2	0.0135177792436751\\
3	0.0686455051346019\\
4	0.0543143407008102\\
5	0.0377122734294543\\
6	0.0496311325657372\\
7	0.0311153364110573\\
8	0.034019179691583\\
9	0.0531807179651693\\
10	0.0575694842623623\\
11	0.0782716935257747\\
12	0.0349262389439049\\
13	0.0527119139693755\\
14	0.0403566556143716\\
15	0.0151078035377125\\
16	0.0344735908608337\\
17	0.0489542282936116\\
18	0.0599869210552922\\
19	0.0311965566616991\\
20	0.0171882074142401\\
21	0.0312544791784879\\
22	0.0329707866295918\\
23	0.0366762193657658\\
24	0.0192839268647487\\
25	0.0141300255289601\\
26	0.0175188980252739\\
27	0.0826283353832293\\
28	0.0244583952935548\\
29	0.00940656367709215\\
30	0.0172247206571073\\
31	0.0703011882833694\\
32	0.00262134263641852\\
33	0.0556063958113855\\
34	0.0651385851740802\\
35	0.0306772712931002\\
36	0.023399685321285\\
37	0.0299086091236573\\
38	0.073369370189485\\
39	0.0298389278429323\\
40	0.0264394560677342\\
41	0.109706169167391\\
42	0.0475817772164996\\
43	0.0359568848452358\\
44	0.0146703977343009\\
45	0.0657577666621785\\
46	0.014170409564919\\
47	0.0216733809156047\\
48	0.0248878156630054\\
49	0.0375831283162116\\
50	0.0405125596513282\\
51	0.072196959353952\\
52	0.0300975944289064\\
53	0.0695575581317825\\
54	0.0967318630424499\\
55	0.0263593878096405\\
56	0.0457747062900784\\
57	0.0411797452803199\\
58	0.0313857038225855\\
59	0.0139731111636846\\
60	0.071440552464485\\
61	0.0164861679575295\\
62	0.0655779884606235\\
63	0.0538255342308927\\
64	0.0312623599946992\\
65	0.00558018983609532\\
66	0.0569547694719195\\
67	0.0871154998997988\\
68	0.0170708512311962\\
69	0.0202774668879229\\
70	0.0317109637176248\\
71	0.044545937854525\\
72	0.0587478767583867\\
73	0.0271233165962686\\
74	0.0286077751136511\\
75	0.0377758968932986\\
76	0.00328725128063296\\
77	0.0387810946737773\\
78	0.0250006316117776\\
79	0.0402251249820773\\
80	0.0266293880447078\\
81	0.000719315646117181\\
82	0.0271962590737628\\
83	0.0482315802623277\\
84	0.0652453629483924\\
85	0.0167594904690447\\
86	0.0559748713076118\\
87	0.0645868936914544\\
88	0.0325755328072992\\
89	0.0741442279035733\\
90	0.0217993246290209\\
91	0.0219516168918458\\
92	0.041302839954538\\
93	0.0216985627574161\\
94	0.0474627039968937\\
95	0.0350641791457617\\
96	0.0437609274183584\\
97	0.0231568505956163\\
98	0.0341078519517218\\
99	0.0754640108826412\\
100	0.0319166509877646\\
101	0.0245920258956913\\
102	0.0600605165874797\\
103	0.0347372341096822\\
104	0.0516743469318623\\
105	0.0594265572969176\\
106	0.0690621924776081\\
107	0.0555829963994113\\
108	0.0505302788427115\\
109	0.0442738525935259\\
110	0.0839752089468064\\
111	0.0174859888779316\\
112	0.0344023049544104\\
113	0.0184441898972973\\
114	0.0667975802751817\\
115	0.0217278425507444\\
116	0.038205904769231\\
117	0.038578390708348\\
118	0.0247489925594852\\
119	0.00687376437866443\\
120	0.00998208100668574\\
121	0.0376220607219832\\
122	0.0370298288683927\\
123	0.0606666205291786\\
124	0.0734673524211197\\
125	0.0226628846585158\\
126	0.0116139712458164\\
127	0.0243676592127995\\
128	0.0578776207261184\\
129	0.0225707929196412\\
130	0.0112011406049364\\
131	0.0336730056590271\\
132	0.104310362492004\\
133	0.0444827939862885\\
134	0.0546237811785145\\
135	0.0315632093522909\\
136	0.0500198553049295\\
137	0.0498010845836769\\
138	0.00764317398786125\\
139	0.0514501388412832\\
140	0.0483913229838424\\
141	0.0404292093417492\\
142	0.0404093393256273\\
143	0.00544957247803288\\
144	0.0147250054082848\\
145	0.00845228448361106\\
146	0.0368324879321174\\
147	0.0330657486308002\\
148	0.0322100593545926\\
149	0.0212399283027128\\
150	0.0160043193430887\\
151	0.0177891021293888\\
152	0.068956320235838\\
153	0.035697995584707\\
154	0.0804288081117723\\
155	0.0534187359327307\\
156	0.0682121956599043\\
157	0.0880032304195633\\
158	0.0297630012696931\\
159	0.0932233977672461\\
160	0.0634575843326509\\
161	0.0224764310880002\\
162	0.054824842166702\\
163	0.0443650029542514\\
164	0.0262400885757109\\
165	0.0416200319200008\\
166	0.0252780849802342\\
167	0.095309044811378\\
168	0.0324938396948603\\
169	0.049349635516105\\
170	0.0388384562465444\\
171	0.103328281133532\\
172	0.0481301139904412\\
173	0.0567833136230149\\
174	0.0778758139748782\\
175	0.0431060841372354\\
176	0.0754859374546529\\
177	0.0426398302935973\\
178	0.041422952995833\\
179	0.0365959520653938\\
180	0.0892234855283935\\
181	0.0376981857412047\\
182	0.000131022412803993\\
183	0.0293075845048426\\
184	0.0997608531779313\\
185	0.0323932864043249\\
186	0.0560617972369406\\
187	0.0991518426106975\\
188	0.0393154227122552\\
189	0.0232952818847592\\
190	0.0159954516080202\\
191	0.0578429009717921\\
192	0.0957360792010619\\
193	0.0356690110727094\\
194	0.0881338896643236\\
195	0.0108136057469762\\
196	0.0888532895759858\\
197	0.0399889500356081\\
198	0.0724403399095842\\
199	0.0597886917340666\\
200	0.0275948384942338\\
201	0.0603888060878246\\
202	0.102141812814918\\
203	0.07888581253914\\
204	0.0814880462615045\\
205	0.0693754384577563\\
206	0.0598508853498574\\
207	0.069261861273666\\
208	0.0445958322435275\\
209	0.0712563868799119\\
210	0.0303245431783154\\
211	0.0307737562466481\\
212	0.129607280217386\\
213	0.0583079409634552\\
214	0.0198497456835671\\
215	0.0202713626426036\\
216	0.0876775795830708\\
217	0.0321330968716694\\
218	0.0822430605537727\\
219	0.0104623649720048\\
220	0.057148706237721\\
221	0.0477730175751199\\
222	0.0336422518907324\\
223	0.021479517550078\\
224	0.058653402850524\\
225	0.0488523846860707\\
226	0.0801275604194563\\
227	0.0455830977886775\\
228	0.0646110296913508\\
229	0.0200581815674016\\
230	0.0583268423962944\\
231	0.0316707915622373\\
232	0.048405659531626\\
233	0.106466176281556\\
234	0.0572917807996602\\
235	0.0345403324749438\\
236	0.0366314500194338\\
237	0.0189927411748696\\
238	0.0725225134119453\\
239	0.0633875766446865\\
240	0.0309720451507629\\
241	0.0270999763131914\\
242	0.041414308848567\\
243	0.0842312207992027\\
244	0.0533826048623348\\
245	0.0437327692712397\\
246	0.0851807795643215\\
247	0.0390779246623695\\
248	0.0880179549444198\\
249	0.092492576689528\\
250	0.0151649273391589\\
251	0.0581797115827346\\
252	0.0497270414451948\\
253	0.0213631492877645\\
254	0.0744463530113578\\
255	0.0479490235826869\\
256	0.0543965889527608\\
257	0.0264122435324148\\
258	0.0277986102339557\\
259	0.0337263178917323\\
260	0.0148177398093287\\
261	0.00496839981279525\\
262	0.0231555957976502\\
263	0.0503948676402432\\
264	0.0341709804698267\\
265	0.038586565759186\\
266	0.0632372732780952\\
267	0.0436935928545902\\
268	0.0302200186389822\\
269	0.0558386356514689\\
270	0.0248707313645757\\
271	0.0263272160091122\\
272	0.016706332613299\\
273	0.0230382325788439\\
274	0.0580996839471848\\
275	0.064109163329689\\
276	0.0770362747133508\\
277	0.0327036663506417\\
278	0.0339611144542524\\
279	0.0930760707198086\\
280	0.0250066657054815\\
281	0.0245822934872191\\
282	0.0327559120562892\\
283	0.061625913124358\\
284	0.0491934794980765\\
285	0.0276141237630102\\
286	0.00838043822683091\\
287	0.0211977328072932\\
288	0.0550483231216165\\
289	0.0448100778049771\\
290	0.0192918364965276\\
291	0.041911046981407\\
292	0.0690486853242457\\
293	0.0446295373292062\\
294	0.0231860962461504\\
295	0.0193572728974398\\
296	0.0147642105060531\\
297	0.0585916281274078\\
298	0.0682044067286197\\
299	0.0404689978186841\\
300	0.0149490059592419\\
301	0.0945013539711449\\
302	0.0724149895988645\\
303	0.033557268754965\\
304	0.0214802531485951\\
305	0.0495754093008956\\
306	0.0398918149564004\\
307	0.02694267413089\\
308	0.0822125722959251\\
309	0.0443030013297764\\
310	0.0682955678872365\\
311	0.0705727062503493\\
312	0.076907928829126\\
313	0.0572001991910794\\
314	0.0198284955651726\\
315	0.0366405233025979\\
316	0.00951381328988352\\
317	0.0232982825571679\\
318	0.00972625175133193\\
319	0.0469208689473437\\
320	0.0240975872197623\\
321	0.0643319524895178\\
322	0.0148257210455023\\
323	0.0581189393675351\\
324	0.0223557038987258\\
325	0.0279803612228743\\
326	0.0221162387307553\\
327	0.0546453676984296\\
328	0.0404248156113138\\
329	0.0307685277160682\\
330	0.0375043228084986\\
331	0.0197872880417297\\
332	0.0297076524232757\\
333	0.0823071691112917\\
334	0.00855817319575415\\
335	0.0621478473655531\\
336	0.026905372320926\\
337	0.0771409879527981\\
338	0.0711864228964675\\
339	0.0837767608246619\\
340	0.0666069788739091\\
341	0.057200482053646\\
342	0.0642298365608994\\
343	0.0379660357823437\\
344	0.0734328689754544\\
345	0.0611010782147256\\
346	0.072835323973762\\
347	0.0252894017373162\\
348	0.0137399339194355\\
349	0.0352836168607712\\
350	0.0632181504084501\\
351	0.0470560323559195\\
352	0.065916504282192\\
353	0.119883583663629\\
354	0.0924851057742052\\
355	0.0118844130570271\\
356	0.0222987246148917\\
357	0.0488782478447791\\
358	0.038555720310054\\
359	0.0105665100494173\\
360	0.0648784075435281\\
361	0.0195726125278672\\
362	0.0416635885924056\\
363	0.0262690039910179\\
364	0.02368175405238\\
365	0.0435804341602067\\
366	0.0432188500560024\\
367	0.0170990514463533\\
368	0.0681371974365316\\
369	0.00606810597246139\\
370	0.0416036243423018\\
371	0.0604951571149447\\
372	0.00962093379304949\\
373	0.042350577895202\\
374	0.0265708375191099\\
375	0.018269626634755\\
376	0.00873694138867401\\
377	0.0288111905702174\\
378	0.040907307361573\\
379	0.0155058454017694\\
380	0.0310662005356085\\
381	0.0440342189621394\\
382	0.0285115161123102\\
383	0.0471547052823433\\
384	0.0297199030342297\\
385	0.103571498988538\\
386	0.0312738655067242\\
387	0.024427840115876\\
388	0.0727013075035839\\
389	0.0137281830166238\\
390	0.0475006049663933\\
391	0.0407632073475308\\
392	0.0219170173337409\\
393	0.0579718974366754\\
394	0.0496627698974379\\
395	0.00703786297810235\\
396	0.0407071903544093\\
397	0.0400193437627516\\
398	0.0297421570402745\\
399	0.0158420783362625\\
};
\addlegendentry{$\mathbf{\hat{h}_{1}}$}

\addplot [color=mycolor2]
  table[row sep=crcr]{%
0	0.0673834734943217\\
1	0.0637400173341427\\
2	0.00496769207642539\\
3	0.0212248247892526\\
4	0.038785243613478\\
5	0.0430255255914906\\
6	0.0556951627653776\\
7	0.0561391012799051\\
8	0.0213526093108647\\
9	0.0449786760492511\\
10	0.0359965289445781\\
11	0.0237567214168828\\
12	0.0429008457104638\\
13	0.0217318154951731\\
14	0.0984713578686489\\
15	0.0386046679966095\\
16	0.0316849475120129\\
17	0.0125736341916273\\
18	0.0418319212662772\\
19	0.0055767748819059\\
20	0.0135555263615908\\
21	0.0490813552009767\\
22	0.0234919599480038\\
23	0.0486347193716533\\
24	0.0282824358453383\\
25	0.0450638590982432\\
26	0.020546211186138\\
27	0.0192693770957455\\
28	0.0329152313810215\\
29	0.076697676241393\\
30	0.0866367555424672\\
31	0.038315559821556\\
32	0.0709396729852576\\
33	0.0374431392782142\\
34	0.0455016620267967\\
35	0.0101016975541228\\
36	0.0116491351850867\\
37	0.00932925036537857\\
38	0.0716649946426878\\
39	0.0809677083483338\\
40	0.0669953000826702\\
41	0.0409116520843938\\
42	0.0690095505806086\\
43	0.0797382630006863\\
44	0.02862583550678\\
45	0.057933679885365\\
46	0.0176693657869037\\
47	0.0192389729925046\\
48	0.0369955257929114\\
49	0.0428909545710687\\
50	0.0256553500282689\\
51	0.0300521788340479\\
52	0.025785375877174\\
53	0.032092521959714\\
54	0.0533271610862936\\
55	0.0230736606314354\\
56	0.0786730898440167\\
57	0.0511516588850803\\
58	0.031140351888748\\
59	0.0585098080868412\\
60	0.0805907411747867\\
61	0.025668965066885\\
62	0.0245052745657011\\
63	0.0157687665969504\\
64	0.101820100756306\\
65	0.0289905953960018\\
66	0.0264823352776563\\
67	0.0477862659286994\\
68	0.0216786440797169\\
69	0.0359469686635912\\
70	0.00849053722950469\\
71	0.0690238715649876\\
72	0.0566662793480514\\
73	0.0439698512510406\\
74	0.0537923748113524\\
75	0.0426271863641414\\
76	0.0155974073459356\\
77	0.0476896832935598\\
78	0.0159606566823878\\
79	0.038503088090657\\
80	0.0258093192317246\\
81	0.0132223879821303\\
82	0.0523577506620306\\
83	0.0215647191088333\\
84	0.045499374423813\\
85	0.0200488226977266\\
86	0.0149947873811876\\
87	0.0324674885353568\\
88	0.0180262552526863\\
89	0.00451318814256327\\
90	0.053957753927903\\
91	0.0539017920840675\\
92	0.0105707474278075\\
93	0.0198763640052778\\
94	0.0864743769700696\\
95	0.064633526142127\\
96	0.021776651086815\\
97	0.0533591503977648\\
98	0.0265163524801183\\
99	0.0305789847842234\\
100	0.0374355567580874\\
101	0.138770327018789\\
102	0.0585398156463109\\
103	0.0506177882512131\\
104	0.0642917920840051\\
105	0.107168278683961\\
106	0.0142407649025482\\
107	0.0185278783039791\\
108	0.0268037751539375\\
109	0.0183106074519216\\
110	0.0231767132970969\\
111	0.0732968242068568\\
112	0.0259150820747427\\
113	0.047203127228022\\
114	0.0963529305400851\\
115	0.0591197500477878\\
116	0.107268013665093\\
117	0.0471880828998461\\
118	0.0498413210953299\\
119	0.00707877703837991\\
120	0.0611110911989822\\
121	0.0184054895829471\\
122	0.0326212400183366\\
123	0.0301465023987571\\
124	0.0285250388447296\\
125	0.0130978872135896\\
126	0.0156964863485089\\
127	0.10564614746802\\
128	0.0611101859434409\\
129	0.0113136064089348\\
130	0.0605594099085079\\
131	0.0142099044632525\\
132	0.059380627197784\\
133	0.0552245165173062\\
134	0.0733162380439256\\
135	0.0337402804782705\\
136	0.0589886898155503\\
137	0.00902077031172073\\
138	0.0352729308402662\\
139	0.0406835540031251\\
140	0.00834078072333429\\
141	0.0561577812457087\\
142	0.0691200687294272\\
143	0.0640870311145124\\
144	0.0615036646880791\\
145	0.0335561852123721\\
146	0.0860456926596654\\
147	0.0376406850252352\\
148	0.0335329270487307\\
149	0.00652527416780099\\
150	0.0761926703733545\\
151	0.0445723672842659\\
152	0.0516540889214435\\
153	0.040016062451894\\
154	0.0311578186832585\\
155	0.0470642787139249\\
156	0.0454599039390336\\
157	0.033784333750048\\
158	0.0199421977918908\\
159	0.108041424927132\\
160	0.0246882564150614\\
161	0.0756028479337622\\
162	0.0639233782410049\\
163	0.0680428391258023\\
164	0.0463240754022975\\
165	0.0338184472212533\\
166	0.0273858051817084\\
167	0.0544506728727241\\
168	0.127317439813819\\
169	0.00770430016621608\\
170	0.0755542346659718\\
171	0.0354901661227827\\
172	0.0351994467899782\\
173	0.0367887109571693\\
174	0.0929556473821859\\
175	0.064421560871067\\
176	0.057956768196765\\
177	0.0330836444826575\\
178	0.0848746182251888\\
179	0.0629856197649882\\
180	0.057576318115927\\
181	0.0411446795830686\\
182	0.0321222077247257\\
183	0.0636258282138509\\
184	0.0507936199786231\\
185	0.0434475920692874\\
186	0.0536998818144442\\
187	0.0590112740453785\\
188	0.0542140773214505\\
189	0.0519992210348761\\
190	0.0208064945143354\\
191	0.0295285880204189\\
192	0.0264363470721887\\
193	0.0785126937603623\\
194	0.0366335841146081\\
195	0.0123667145498284\\
196	0.0877032351552288\\
197	0.0656533767082707\\
198	0.0443699846308823\\
199	0.0508458387455969\\
200	0.0183240408383902\\
201	0.0213546984141332\\
202	0.0421006305666274\\
203	0.0647258557346078\\
204	0.0928560151120876\\
205	0.0819037182212752\\
206	0.0268649217162657\\
207	0.062983009397116\\
208	0.0664221789692826\\
209	0.0366985721437836\\
210	0.049988165252583\\
211	0.0442229999670175\\
212	0.0600378416996126\\
213	0.0261960473018109\\
214	0.0594028510714957\\
215	0.0621564871557697\\
216	0.0822627186467397\\
217	0.0141455057971211\\
218	0.0613715614150442\\
219	0.0278725886785885\\
220	0.0538019490393029\\
221	0.0547038062444857\\
222	0.0744755696382079\\
223	0.0708352616226915\\
224	0.0493586531581042\\
225	0.0357880102186428\\
226	0.0596684497850109\\
227	0.0533964968707991\\
228	0.0453374278474504\\
229	0.02824726382495\\
230	0.0559605190173\\
231	0.00868066786697332\\
232	0.0730688068809884\\
233	0.0121751595077296\\
234	0.0832200286929437\\
235	0.0524591437332065\\
236	0.0500115776107962\\
237	0.0708968903163988\\
238	0.0282812479455966\\
239	0.0106100348714294\\
240	0.0149373850680399\\
241	0.00727239103617272\\
242	0.0476721272978053\\
243	0.0174811243623924\\
244	0.0239932572113266\\
245	0.0468452243007653\\
246	0.0219677442956205\\
247	0.0958546016929245\\
248	0.0629587451134419\\
249	0.0529349335822895\\
250	0.0388496229918981\\
251	0.0701424746494541\\
252	0.0264058207863778\\
253	0.0209717626352006\\
254	0.0480678922708985\\
255	0.0519550369212809\\
256	0.064114550341034\\
257	0.055419703738931\\
258	0.07860098301219\\
259	0.0425829938105536\\
260	0.056810690928761\\
261	0.040450826474365\\
262	0.0334139448933954\\
263	0.0926574387105601\\
264	0.03792764249861\\
265	0.0347667349264115\\
266	0.0473421983039912\\
267	0.0283757992522413\\
268	0.0377530275016503\\
269	0.0197001140215654\\
270	0.0243077900059502\\
271	0.0790086332861944\\
272	0.0711477655236452\\
273	0.0375360723916808\\
274	0.0409820470961319\\
275	0.0109898581978722\\
276	0.0721963980771635\\
277	0.055953211926051\\
278	0.0287860225418365\\
279	0.0373787891700073\\
280	0.0244866081126836\\
281	0.0263843806046671\\
282	0.0588359906664511\\
283	0.0636324546717649\\
284	0.0244973637764271\\
285	0.0212367561791956\\
286	0.036277146632348\\
287	0.0251128116974781\\
288	0.0336114590656124\\
289	0.0417864751866607\\
290	0.0483998263384748\\
291	0.0661704589535427\\
292	0.042600638847584\\
293	0.0382479872180375\\
294	0.0232666807913393\\
295	0.0497230229895101\\
296	0.0540625345560074\\
297	0.0509367266773052\\
298	0.0258482715543199\\
299	0.0478902247002994\\
300	0.0468390343577488\\
301	0.0646835443447762\\
302	0.0295955255649797\\
303	0.0649041185675734\\
304	0.0542612082395183\\
305	0.0164648866175567\\
306	0.0239735317642132\\
307	0.0215110112519347\\
308	0.0605403955630702\\
309	0.0108427678073305\\
310	0.0934470848594393\\
311	0.0290984007513696\\
312	0.037722504951284\\
313	0.0125869190635232\\
314	0.0151830147640304\\
315	0.0161296580365957\\
316	0.0352478971810414\\
317	0.0358588132751886\\
318	0.0167934801525851\\
319	0.0666290952136004\\
320	0.02985461415919\\
321	0.0624008156956299\\
322	0.0273295183326733\\
323	0.00387754804592668\\
324	0.00721578355169929\\
325	0.0361900573742555\\
326	0.0438179374977638\\
327	0.059568346666575\\
328	0.0952375424175429\\
329	0.0394541659524477\\
330	0.0293009535572105\\
331	0.056662374985974\\
332	0.030014090761257\\
333	0.0261030428473468\\
334	0.00999941164838037\\
335	0.0796717538163902\\
336	0.0192256573818963\\
337	0.0891452406314106\\
338	0.0331462934676216\\
339	0.0456121561575315\\
340	0.0280397632339205\\
341	0.0274618350925166\\
342	0.0953646626910851\\
343	0.0201506457907283\\
344	0.0327466643183917\\
345	0.00384319386705454\\
346	0.0639074994805299\\
347	0.0195219891680573\\
348	0.0559732113867149\\
349	0.0658036930640989\\
350	0.0492318353127632\\
351	0.0362322198565303\\
352	0.0378106849818466\\
353	0.0587386019006283\\
354	0.014938043751614\\
355	0.0399988822868512\\
356	0.0357977039312457\\
357	0.0637662333407252\\
358	0.0510194469190687\\
359	0.043207189061265\\
360	0.0183727917621688\\
361	0.0433252419780736\\
362	0.0139525939777785\\
363	0.0244337674541892\\
364	0.072670630737215\\
365	0.0394905870592925\\
366	0.0662199725681385\\
367	0.0173933134794474\\
368	0.0622678212160302\\
369	0.0627858841895924\\
370	0.0708133583038158\\
371	0.0610995301361026\\
372	0.0463091601087203\\
373	0.0989995287657311\\
374	0.0442461812091092\\
375	0.010379767469288\\
376	0.0529367303532793\\
377	0.0185518572326441\\
378	0.0861612880609526\\
379	0.0608005513452488\\
380	0.0335799109318169\\
381	0.0438201338569148\\
382	0.081567081198988\\
383	0.0479947187564966\\
384	0.0427005377800206\\
385	0.00592464929363176\\
386	0.0224387882674988\\
387	0.0100224776801888\\
388	0.0286620553999994\\
389	0.0161362644285832\\
390	0.0108462309612638\\
391	0.0650314550205957\\
392	0.0151035363437731\\
393	0.0474290508048209\\
394	0.0750333875172855\\
395	0.0426051542457787\\
396	0.0613311600936528\\
397	0.0098855176227619\\
398	0.0783863138614024\\
399	0.0552491984973394\\
};
\addlegendentry{$\mathbf{\hat{h}_{2}}$}

\end{axis}
\end{tikzpicture}%