% This file was created by matlab2tikz.
%
%The latest updates can be retrieved from
%  http://www.mathworks.com/matlabcentral/fileexchange/22022-matlab2tikz-matlab2tikz
%where you can also make suggestions and rate matlab2tikz.
%
\definecolor{mycolor1}{rgb}{0.00000,0.44700,0.74100}%
\definecolor{mycolor2}{rgb}{0.85000,0.32500,0.09800}%
%
\begin{tikzpicture}

\begin{axis}[%
width=1.935in,
height=3.2in,
at={(0.758in,0.512in)},
scale only axis,
xmin=0,
xmax=200,
xlabel style={font=\color{white!15!black}, align=center},
xlabel={Sample Index\\[1ex](a) Actual},
ymin=0,
ymax=1,
axis background/.style={fill=white},
legend style={legend cell align=left, align=left, draw=white!15!black}
]
\addplot [color=mycolor1]
  table[row sep=crcr]{%
1	0.0167418731260698\\
2	0.018659722218203\\
3	0.0211495716349754\\
4	0.0245407494314006\\
5	0.029505643974117\\
6	0.0377161636169434\\
7	0.0550750576238134\\
8	0.131028403455825\\
9	0.141533477104454\\
10	0.158175166246243\\
11	0.163761757297189\\
12	0.600100605556833\\
13	0.118033417583129\\
14	0.0610914209628117\\
15	0.0426162246246858\\
16	0.0332715711707656\\
17	0.0321939439283243\\
18	0.0268871008873183\\
19	0.0316920608120786\\
20	0.0286771919664519\\
21	0.00773119825769845\\
22	0.0330073087209196\\
23	0.019415059292473\\
24	0.0177688778425817\\
25	0.0188194600762088\\
26	0.0237714798713867\\
27	0.0430806655948836\\
28	0.586023006720236\\
29	0.0970905103802927\\
30	0.0246981078960262\\
31	0.0780346253424249\\
32	0.0580455436901626\\
33	0.0681836526256362\\
34	0.163824852865525\\
35	0.0446106828365612\\
36	0.06119675966513\\
37	0.00907835157153909\\
38	0.0310093774848825\\
39	0.00125972832884384\\
40	0.005422098150711\\
41	0.0107374596162295\\
42	0.0165479326643041\\
43	0.024789327411243\\
44	0.0446277431282512\\
45	0.058019450740893\\
46	0.074843365423057\\
47	0.199666615467323\\
48	0.216838516027539\\
49	0.0783890355452335\\
50	0.0495529240878659\\
51	0.0370791446049236\\
52	0.0307530810094058\\
53	0.0155757068681131\\
54	0.0198807977432187\\
55	0.0179871495341263\\
56	0.0162887905400521\\
57	0.0148728268904216\\
58	0.0136909847461918\\
59	0.0126943671543235\\
60	0.011846112844806\\
61	0.0111233301448608\\
62	0.0105291449791113\\
63	0.0102108676347222\\
64	0.00751288118280402\\
65	0.00739035992869396\\
66	0.0116365722557393\\
67	0.00899390796280924\\
68	0.00831157148096884\\
69	0.00788086875151191\\
70	0.00754217236777393\\
71	0.00725475830161164\\
72	0.00700327644843893\\
73	0.006780818536885\\
74	0.00658453626015097\\
75	0.00641472878078445\\
76	0.00627599401250467\\
77	0.00618216997550965\\
78	0.00617516728867787\\
79	0.00642745729543014\\
80	0.00873051939586948\\
81	0.00471465923588381\\
82	0.00195996010568866\\
83	0.004980313957114\\
84	0.00475839614864904\\
85	0.00464733241660508\\
86	0.00455444244400457\\
87	0.00446749239384432\\
88	0.00438406292262191\\
89	0.00430366820355207\\
90	0.00422628355118023\\
91	0.00415201532524293\\
92	0.00408104289588831\\
93	0.00401365198230764\\
94	0.00395033763548775\\
95	0.00389203620501121\\
96	0.00384070443755282\\
97	0.00380107128140597\\
98	0.00378779867734327\\
99	0.00387836096292209\\
100	0.00228454900881806\\
101	0.00321909463290553\\
102	0.00328982387499096\\
103	0.00328100374444436\\
104	0.00325253146337885\\
105	0.00321692683031362\\
106	0.00317840637543852\\
107	0.00313876414674543\\
108	0.00309887602618152\\
109	0.00305920797263281\\
110	0.00302002111537278\\
111	0.00298146552488656\\
112	0.00294362726599965\\
113	0.0029065537719176\\
114	0.00287026833389302\\
115	0.00283477876811283\\
116	0.00280008280049957\\
117	0.00276617151884636\\
118	0.00273303164395387\\
119	0.00270064705586787\\
120	0.00266899983729428\\
121	0.00263807099659409\\
122	0.00260784097374635\\
123	0.00257828999668392\\
124	0.00254939833288439\\
125	0.00252114646667125\\
126	0.00249351522323938\\
127	0.00246648585412356\\
128	0.00244004009455901\\
129	0.00241416020024051\\
130	0.00238882896892876\\
131	0.0023640297508985\\
132	0.00233974645117835\\
133	0.00231596352577768\\
134	0.00229266597354371\\
135	0.00226983932488367\\
136	0.00224746962828519\\
137	0.00222554343533969\\
138	0.00220404778480324\\
139	0.00218297018609978\\
140	0.00216229860257188\\
141	0.00214202143470905\\
142	0.00212212750352594\\
143	0.00210260603421662\\
144	0.00208344664017788\\
145	0.00206463930746792\\
146	0.00204617437974413\\
147	0.00202804254371082\\
148	0.00201023481509265\\
149	0.00199274252514179\\
150	0.00197555730767936\\
151	0.0019586710866655\\
152	0.00194207606428942\\
153	0.00192576470956709\\
154	0.00190972974743187\\
155	0.00189396414830307\\
156	0.00187846111811499\\
157	0.00186321408878906\\
158	0.00184821670913216\\
159	0.00183346283614256\\
160	0.00181894652670628\\
161	0.00180466202966742\\
162	0.00179060377825436\\
163	0.00177676638284649\\
164	0.00176314462406556\\
165	0.00174973344617591\\
166	0.0017365279507797\\
167	0.00172352339079259\\
168	0.00171071516468654\\
169	0.00169809881098722\\
170	0.00168567000301325\\
171	0.00167342454384613\\
172	0.00166135836151948\\
173	0.00164946750441694\\
174	0.00163774813686889\\
175	0.00162619653493841\\
176	0.00161480908238697\\
177	0.00160358226681213\\
178	0.001592512675948\\
179	0.00158159699412143\\
180	0.00157083199885632\\
181	0.00156021455761888\\
182	0.00154974162469766\\
183	0.00153941023821136\\
184	0.00152921751723897\\
185	0.00151916065906659\\
186	0.00150923693654504\\
187	0.00149944369555362\\
188	0.00148977835256491\\
189	0.00148023839230615\\
190	0.0014708213655126\\
191	0.00146152488676917\\
192	0.00145234663243548\\
193	0.00144328433865201\\
194	0.00143433579942216\\
195	0.0014254988647679\\
196	0.00141677143895562\\
197	0.00140815147878894\\
198	0.00139963699196521\\
199	0\\
200	0\\
};
\addlegendentry{$\mathbf{h_1}$}

\addplot [color=mycolor2]
  table[row sep=crcr]{%
1	0.00495033386861547\\
2	0.00515738368500011\\
3	0.00538309861623286\\
4	0.00563019833310769\\
5	0.00590197136255583\\
6	0.00620243506959928\\
7	0.00653655369620811\\
8	0.00691054090538825\\
9	0.00733228812251618\\
10	0.00781198494389501\\
11	0.00836304134465097\\
12	0.0090034999823859\\
13	0.00975827527656913\\
14	0.0106628508662167\\
15	0.0117696896019869\\
16	0.0131600228416925\\
17	0.0149671880151623\\
18	0.0174273921400842\\
19	0.0210049332363351\\
20	0.0267613442180004\\
21	0.037792597580649\\
22	0.068721841139076\\
23	0.97572931769219\\
24	0.0649085399616321\\
25	0.0262918397391367\\
26	0.0126468169615953\\
27	0.00419508123086451\\
28	0.0214241856295046\\
29	0.0134643328328179\\
30	0.00412679327935559\\
31	0.0112712342656943\\
32	0.0282552508318709\\
33	0.111702725947746\\
34	0.12653020104749\\
35	0.0361926668223949\\
36	0.024130019396178\\
37	0.019518168382204\\
38	0.0163235660243771\\
39	0.0140849625225472\\
40	0.0124312948441269\\
41	0.0111552918846637\\
42	0.0101369616841952\\
43	0.00930266674553233\\
44	0.00860476970863487\\
45	0.00801105372801389\\
46	0.00749890841387189\\
47	0.00705196472677567\\
48	0.00665805661850076\\
49	0.0063079366485928\\
50	0.00599443852440938\\
51	0.00571191453485358\\
52	0.00545584764793091\\
53	0.0052225778141873\\
54	0.00500910486747672\\
55	0.00481294397681212\\
56	0.00463201789166602\\
57	0.00446457542356871\\
58	0.00430912894812168\\
59	0.00416440590497024\\
60	0.00402931074167137\\
61	0.00390289474814389\\
62	0.00378433192171684\\
63	0.00367289949042518\\
64	0.0035679620699816\\
65	0.00346895868109233\\
66	0.00337539203747226\\
67	0.00328681965070268\\
68	0.00320284639950925\\
69	0\\
70	0\\
71	0\\
72	0\\
73	0\\
74	0\\
75	0\\
76	0\\
77	0\\
78	0\\
79	0\\
80	0\\
81	0\\
82	0\\
83	0\\
84	0\\
85	0\\
86	0\\
87	0\\
88	0\\
89	0\\
90	0\\
91	0\\
92	0\\
93	0\\
94	0\\
95	0\\
96	0\\
97	0\\
98	0\\
99	0\\
100	0\\
101	0\\
102	0\\
103	0\\
104	0\\
105	0\\
106	0\\
107	0\\
108	0\\
109	0\\
110	0\\
111	0\\
112	0\\
113	0\\
114	0\\
115	0\\
116	0\\
117	0\\
118	0\\
119	0\\
120	0\\
121	0\\
122	0\\
123	0\\
124	0\\
125	0\\
126	0\\
127	0\\
128	0\\
129	0\\
130	0\\
131	0\\
132	0\\
133	0\\
134	0\\
135	0\\
136	0\\
137	0\\
138	0\\
139	0\\
140	0\\
141	0\\
142	0\\
143	0\\
144	0\\
145	0\\
146	0\\
147	0\\
148	0\\
149	0\\
150	0\\
151	0\\
152	0\\
153	0\\
154	0\\
155	0\\
156	0\\
157	0\\
158	0\\
159	0\\
160	0\\
161	0\\
162	0\\
163	0\\
164	0\\
165	0\\
166	0\\
167	0\\
168	0\\
169	0\\
170	0\\
171	0\\
172	0\\
173	0\\
174	0\\
175	0\\
176	0\\
177	0\\
178	0\\
179	0\\
180	0\\
181	0\\
182	0\\
183	0\\
184	0\\
185	0\\
186	0\\
187	0\\
188	0\\
189	0\\
190	0\\
191	0\\
192	0\\
193	0\\
194	0\\
195	0\\
196	0\\
197	0\\
198	0\\
199	0\\
200	0\\
};
\addlegendentry{$\mathbf{h_{2}}$}

\end{axis}

\begin{axis}[%
width=1.935in,
height=3.2in,
at={(3.327in,0.512in)},
scale only axis,
xmin=0,
xmax=200,
xlabel style={font=\color{white!15!black}, align=center},
xlabel={Sample Index\\[1ex](b) Estimated},
ymin=0,
ymax=0.18,
axis background/.style={fill=white},
legend style={legend cell align=left, align=left, draw=white!15!black}
]
\addplot [color=mycolor1]
  table[row sep=crcr]{%
0	0.0179871760752701\\
1	0.0188195484488668\\
2	0.00572406586294517\\
3	0.0177836282480316\\
4	0.0083784442157364\\
5	0.0483504540503493\\
6	0.0048772644385878\\
7	0.0305219475793299\\
8	0.0591847132406959\\
9	0.0288386001360025\\
10	0.0423195200152695\\
11	0.00246526830602357\\
12	0.0412852700747908\\
13	0.108636192733609\\
14	0.128057187879675\\
15	0.0464353346261229\\
16	0.082476216495954\\
17	0.0547338867244618\\
18	0.0693519157373595\\
19	0.132001485663718\\
20	0.050166381286828\\
21	0.0946766945590709\\
22	0.0980734427861566\\
23	0.0574384617477066\\
24	0.0877020859029263\\
25	0.149642372761277\\
26	0.0470564745517932\\
27	0.0863055910488918\\
28	0.0702339135149873\\
29	0.0881644176138782\\
30	0.106564421951058\\
31	0.0911620906245599\\
32	0.0492887663511565\\
33	0.0369456761413061\\
34	0.114747509519687\\
35	0.093383900679279\\
36	0.119879874429184\\
37	0.0520466560537699\\
38	0.0151482549431138\\
39	0.0963495242661252\\
40	0.0907339742759981\\
41	0.0582617476228056\\
42	0.0495862524642788\\
43	0.0704906375574594\\
44	0.115478164356014\\
45	0.036404461679208\\
46	0.0502892202307692\\
47	0.0422411336619194\\
48	0.128713723290558\\
49	0.0443629998842517\\
50	0.0520869710057735\\
51	0.0507210043506347\\
52	0.0730769346968068\\
53	0.153290599601983\\
54	0.144208650955484\\
55	0.0909809954405907\\
56	0.076723591049714\\
57	0.122992265177989\\
58	0.0285737815496764\\
59	0.0606212212165079\\
60	0.0743405339327513\\
61	0.088514826544336\\
62	0.0753658267836936\\
63	0.0421983439628252\\
64	0.0491811355855947\\
65	0.0580821125380953\\
66	0.0583136534380362\\
67	0.0447422685341586\\
68	0.0950296812176966\\
69	0.0441592125395927\\
70	0.163441046845392\\
71	0.0547662381697281\\
72	0.157457198535461\\
73	0.0847371710317213\\
74	0.103140553610787\\
75	0.100829694229383\\
76	0.135242028627745\\
77	0.11397706008268\\
78	0.143414204914976\\
79	0.0334984466244172\\
80	0.0470007119476375\\
81	0.0883944793023453\\
82	0.0243873363848764\\
83	0.0180900043400687\\
84	0.0268788636671287\\
85	0.0649967653634957\\
86	0.0394053060672132\\
87	0.0122451041844986\\
88	0.0671156067039371\\
89	0.0831411176766207\\
90	0.0333585275023129\\
91	0.0207404848876228\\
92	0.0840118174466521\\
93	0.0618588641031081\\
94	0.0549940507145759\\
95	0.0449459322429084\\
96	0.0297960760848636\\
97	0.0720617484818007\\
98	0.0347976176639098\\
99	0.0543260631904747\\
100	0.0702512806760801\\
101	0.0729095688449966\\
102	0.0310438005533577\\
103	0.017797196963261\\
104	0.0891880695342994\\
105	0.069590860574632\\
106	0.108079551154202\\
107	0.0890697221364647\\
108	0.0286648842198346\\
109	0.0737158924278821\\
110	0.0579374955792276\\
111	0.0229890165507705\\
112	0.0335787181279151\\
113	0.0813552178505888\\
114	0.0623393452602211\\
115	0.102338340294616\\
116	0.117808496036538\\
117	0.0607634689654603\\
118	0.0820294105426633\\
119	0.0606861283419352\\
120	0.0640665258851001\\
121	0.0378486050155125\\
122	0.0485217144552378\\
123	0.128506347004441\\
124	0.0269882491076255\\
125	0.114312217842919\\
126	0.0548409726441038\\
127	0.0670232173402669\\
128	0.0886383784252907\\
129	0.0959502024056461\\
130	0.0710513040866697\\
131	0.0796545136720784\\
132	0.0334776951906528\\
133	0.128507239249795\\
134	0.139300398287475\\
135	0.148029150848458\\
136	0.0622108989847847\\
137	0.064620499452323\\
138	0.102810464026843\\
139	0.120105695519978\\
140	0.0350844012510909\\
141	0.07065716764311\\
142	0.0957679970078863\\
143	0.0488329605053143\\
144	0.0485367849820408\\
145	0.0529835343377886\\
146	0.0287429633368252\\
147	0.0965785454039831\\
148	0.103832071315072\\
149	0.0136080386337643\\
150	0.0522739033685256\\
151	0.0312335111909248\\
152	0.125147807417537\\
153	0.0505428088843194\\
154	0.020872881433199\\
155	0.0700042658292597\\
156	0.0240622575848498\\
157	0.059829376556646\\
158	0.107352628736824\\
159	0.0919070839492308\\
160	0.0230748132725927\\
161	0.0194635574594671\\
162	0.076155742689875\\
163	0.0303275783280336\\
164	0.0606430185001062\\
165	0.0146282877584687\\
166	0.0609702500221823\\
167	0.0437231894057203\\
168	0.0309371553401933\\
169	0.0323336475156582\\
170	0.0149973799034815\\
171	0.0591225507084058\\
172	0.0132699264591711\\
173	0.0255210679087571\\
174	0.0212089965158149\\
175	0.0295635970514773\\
176	0.0360425074425486\\
177	0.0264377157827622\\
178	0.0294336361854983\\
179	0.0143449891849874\\
180	0.00699964312036081\\
181	0.0142008874522787\\
182	0.0163812887475084\\
183	0.00430211463682565\\
184	0.0145429666245873\\
185	0.010074456223261\\
186	0.00601089750572572\\
187	0.0157828010553882\\
188	0.0134200256913966\\
189	0.00509898289547708\\
190	0.00440424541948975\\
191	0.00476909985865907\\
192	0.00635273179350539\\
193	0.00922947990559109\\
194	0.0151084968864458\\
195	0.0169636712374319\\
196	0.0124348621378347\\
197	0.00476632157804721\\
198	0.00503031534212929\\
199	0.00641472643935508\\
};
\addlegendentry{$\mathbf{\hat{h}_{1}}$}

\addplot [color=mycolor2]
  table[row sep=crcr]{%
0	0.000394230197449169\\
1	0.000849339697152478\\
2	0.00178729145578319\\
3	0.00149461815231\\
4	0.00329544195483339\\
5	0.00413613519063685\\
6	0.00173816408452927\\
7	0.00481510352724153\\
8	0.00358905168530083\\
9	0.00565010051651971\\
10	0.0124041574433734\\
11	0.0100215030595891\\
12	0.0105387647298034\\
13	0.0238099055803598\\
14	0.0326554381313504\\
15	0.0296450719831252\\
16	0.00941705858347802\\
17	0.0517909150001394\\
18	0.0210165696245086\\
19	0.0987687358811142\\
20	0.0701963331963603\\
21	0.0833063098561918\\
22	0.0491588491055437\\
23	0.0892478573887121\\
24	0.143857181436718\\
25	0.146686580572514\\
26	0.0661047279843016\\
27	0.11296162901254\\
28	0.0734365932609841\\
29	0.124463229894957\\
30	0.174425673914477\\
31	0.116066444281179\\
32	0.0762237287827406\\
33	0.0982981156972253\\
34	0.0500374757623261\\
35	0.0873986993608165\\
36	0.0890313585642719\\
37	0.153360213246578\\
38	0.0340184728484895\\
39	0.0790780976608443\\
40	0.0364381212587064\\
41	0.0881282130081381\\
42	0.161096245694916\\
43	0.150404431189837\\
44	0.061693382237736\\
45	0.0870053892879161\\
46	0.0865173797312895\\
47	0.147292412973021\\
48	0.102420190454273\\
49	0.0691806599987896\\
50	0.0236967156076985\\
51	0.0487218090269629\\
52	0.0323131838451636\\
53	0.0383858486947104\\
54	0.125605677671213\\
55	0.0496204928371823\\
56	0.0582716676674956\\
57	0.0795535598395225\\
58	0.0561385879049803\\
59	0.0294402022169954\\
60	0.0729205396559155\\
61	0.0887337051430679\\
62	0.0519507555293567\\
63	0.0668689545421129\\
64	0.0105988432095381\\
65	0.10254970136381\\
66	0.111581523535619\\
67	0.0697395887149572\\
68	0.057431487658367\\
69	0.105977298580358\\
70	0.0445518419537913\\
71	0.133984511562031\\
72	0.17877798556741\\
73	0.129278458400558\\
74	0.0704505749294895\\
75	0.0414383504830075\\
76	0.0445388008106572\\
77	0.0706924167304607\\
78	0.0470724358773309\\
79	0.0695455042354064\\
80	0.0474851798382013\\
81	0.0862856414997847\\
82	0.0954355967334183\\
83	0.0849755615620054\\
84	0.0533915423171374\\
85	0.0608660066361165\\
86	0.064789402607433\\
87	0.0673921350182312\\
88	0.0560364146508853\\
89	0.0427170943651778\\
90	0.0139460984872861\\
91	0.0311407598240963\\
92	0.0623842607421986\\
93	0.0554517520747278\\
94	0.0623898290709425\\
95	0.0942314366006125\\
96	0.0215417596579536\\
97	0.077728135478836\\
98	0.041450080725849\\
99	0.0508399258613798\\
100	0.0175132468533194\\
101	0.102790922675646\\
102	0.0670937286159859\\
103	0.0566326829860519\\
104	0.017975166182755\\
105	0.0612479845353483\\
106	0.0309896493815835\\
107	0.0277669651238711\\
108	0.0570217523640359\\
109	0.0600337681267498\\
110	0.113075779057042\\
111	0.0296804874306023\\
112	0.0935970547033355\\
113	0.0520860126196763\\
114	0.115865553591454\\
115	0.0482828225788768\\
116	0.0944439289207478\\
117	0.173068007207293\\
118	0.100810333678999\\
119	0.0730692273409391\\
120	0.104178372150457\\
121	0.0803285048413819\\
122	0.148840950021744\\
123	0.0097156646926504\\
124	0.0551399238665598\\
125	0.0934650504822965\\
126	0.122854826792208\\
127	0.0479066467513846\\
128	0.0587632932657241\\
129	0.0623408098190419\\
130	0.152712753125489\\
131	0.0814667512892982\\
132	0.121617473367416\\
133	0.0203301581398568\\
134	0.123358065245778\\
135	0.0631113650074494\\
136	0.108581179721556\\
137	0.105118890082317\\
138	0.0641616515628384\\
139	0.0523637034671104\\
140	0.127207320636824\\
141	0.0343056881462072\\
142	0.0639257443763101\\
143	0.0613602124985938\\
144	0.0320674742724831\\
145	0.0773692294066758\\
146	0.0701917327868095\\
147	0.103637660342409\\
148	0.0540700697434796\\
149	0.0648646666098838\\
150	0.0122353835079995\\
151	0.0368446592554076\\
152	0.0793973960424694\\
153	0.0863093041468634\\
154	0.0841779025226193\\
155	0.0247647758990501\\
156	0.0287229510702257\\
157	0.00440064321215636\\
158	0.0326409066405751\\
159	0.0319217622112795\\
160	0.0350123774310875\\
161	0.0579977842986818\\
162	0.0468134955377443\\
163	0.00408553034673323\\
164	0.0283428963375304\\
165	0.0200596908504333\\
166	0.0273558140738374\\
167	0.0254869956357454\\
168	0.0360981487473988\\
169	0.0288910515943489\\
170	0.0302431029085706\\
171	0.0122113908038911\\
172	0.0281212123677857\\
173	0.00819179845568237\\
174	0.0185328009848769\\
175	0.0156699421107647\\
176	0.00294144672899444\\
177	0.00218905672124612\\
178	0.00552448035254195\\
179	0.0144025832008856\\
180	0.0070948051487212\\
181	0.00789978339279913\\
182	0.00329484820107595\\
183	0.00294616802380997\\
184	0.0062156688785301\\
185	0.00504452998451095\\
186	0.00114430479623267\\
187	0.00267336861191816\\
188	0.00312380239927446\\
189	0.00311799284589889\\
190	0.00042403847146011\\
191	0.000777921306713684\\
192	0.00163297528182986\\
193	0.00239361793815883\\
194	0.00281600054656938\\
195	0.00113686655799218\\
196	0.00256760296467443\\
197	0.00288018899387593\\
198	0.00151817080603891\\
199	0.00293795223162818\\
};
\addlegendentry{$\mathbf{\hat{h}_{2}}$}

\end{axis}
\end{tikzpicture}%