% This file was created by matlab2tikz.
%
%The latest updates can be retrieved from
%  http://www.mathworks.com/matlabcentral/fileexchange/22022-matlab2tikz-matlab2tikz
%where you can also make suggestions and rate matlab2tikz.
%
\definecolor{mycolor1}{rgb}{0.00000,0.44700,0.74100}%
\definecolor{mycolor2}{rgb}{0.85000,0.32500,0.09800}%
%
\begin{tikzpicture}

\begin{axis}[%
width=1.935in,
height=3.2in,
at={(0.758in,0.512in)},
scale only axis,
xmin=0,
xmax=200,
xlabel style={font=\color{white!15!black}, align=center},
xlabel={Sample Index\\[1ex](a) Actual},
ymin=0,
ymax=0.8,
axis background/.style={fill=white},
legend style={legend cell align=left, align=left, draw=white!15!black}
]
\addplot [color=mycolor1]
  table[row sep=crcr]{%
1	0.0182020814388773\\
2	0.02012510100002\\
3	0.022545111927633\\
4	0.0257092221775269\\
5	0.0300926257860288\\
6	0.0368070113207646\\
7	0.0496139700658591\\
8	0.100781801849891\\
9	0.104249814301154\\
10	0.21590224856942\\
11	0.240903318316862\\
12	0.758685269567618\\
13	0.209267020187496\\
14	0.0771785197863095\\
15	0.0494891771958471\\
16	0.0356405661348903\\
17	0.15523755961894\\
18	0.0271597451025023\\
19	0.145703442549891\\
20	0.0520738574541381\\
21	0.0740609080662357\\
22	0.104935155821669\\
23	0.0417678670288507\\
24	0.0299752622866834\\
25	0.0250001918328842\\
26	0.0229720939063182\\
27	0.0247245078055356\\
28	0.00362513039017358\\
29	0.14722576142865\\
30	0.0387273782761153\\
31	0.131677926596125\\
32	0.0785526041407005\\
33	0.0810464121808255\\
34	0.160588901862689\\
35	0.0744890994278548\\
36	0.134536712627009\\
37	0.0173820440229542\\
38	0.137082339999381\\
39	0.0170525437502556\\
40	0.00749074921495884\\
41	0.00341378303693337\\
42	0.00620877458876847\\
43	0.0141607494626642\\
44	0.0397125400502968\\
45	0.0472710882981607\\
46	0.117933825228246\\
47	0.104860760134015\\
48	0.0231680488862733\\
49	0.0173960896964215\\
50	0.01565840529932\\
51	0.0158238796681408\\
52	0.0214800847634647\\
53	0.069515335423337\\
54	0.00705654101536576\\
55	0.0048265337253162\\
56	0.00444892816390271\\
57	0.00420482397187746\\
58	0.00394665996283891\\
59	0.00367152522573874\\
60	0.00340609944322399\\
61	0.00324100673075721\\
62	0.00352226036423774\\
63	0.00577590294104206\\
64	0.0646039488883014\\
65	0.0152053951030713\\
66	0.025205330150814\\
67	0.0111279282265277\\
68	0.00808273026447386\\
69	0.00668378513225385\\
70	0.0058444881598292\\
71	0.00526118842255355\\
72	0.00481495459253537\\
73	0.00444984685034709\\
74	0.00413772241899909\\
75	0.00386847400652643\\
76	0.00365640479604675\\
77	0.00358022933512563\\
78	0.0039436041841542\\
79	0.00596743145716452\\
80	0.0193053572626292\\
81	0.0244955947722078\\
82	0.0480492514955312\\
83	0.00881743040387132\\
84	0.00673618414357698\\
85	0.00583169570033062\\
86	0.00529290215994122\\
87	0.0049263520005684\\
88	0.00465711125291308\\
89	0.0044495340289191\\
90	0.00428463427284004\\
91	0.00415172046176833\\
92	0.00404487765081529\\
93	0.00396151732265935\\
94	0.00390215289068892\\
95	0.00387150614980524\\
96	0.00388240228065188\\
97	0.00396861770551536\\
98	0.0042393791899913\\
99	0.00529535495453836\\
100	0.0384422656208756\\
101	0.00196598430595653\\
102	0.00227127045262919\\
103	0.0024323424968646\\
104	0.0025024611202\\
105	0.00253048915714305\\
106	0.00253672908189185\\
107	0.00253067827009284\\
108	0.00251728582017171\\
109	0.00249934971595597\\
110	0.00247855194358738\\
111	0.00245595212950105\\
112	0.00243224240902919\\
113	0.0024078877120558\\
114	0.00238320712614353\\
115	0.00235842317784567\\
116	0.00233369278997705\\
117	0.00230912733940947\\
118	0.00228480600224308\\
119	0.00226078483862737\\
120	0.00223710310173484\\
121	0.00221378769593874\\
122	0.00219085637556591\\
123	0.00216832007097849\\
124	0.00214618460011501\\
125	0.00212445194095342\\
126	0.00210312118614787\\
127	0.002082189264892\\
128	0.00206165149248505\\
129	0.00204150199113677\\
130	0.00202173401371152\\
131	0.00200234019373144\\
132	0.00198331273896169\\
133	0.0019646435815544\\
134	0.00194632449455517\\
135	0.00192834718223092\\
136	0.00191070334993457\\
137	0.00189338475791222\\
138	0.00187638326246988\\
139	0.00185969084716353\\
140	0.00184329964609891\\
141	0.00182720196098313\\
142	0.00181139027322501\\
143	0.00179585725211227\\
144	0.00178059575988462\\
145	0.00176559885435432\\
146	0.00175085978959665\\
147	0.00173637201512792\\
148	0.00172212917390737\\
149	0.00170812509943172\\
150	0.00169435381214015\\
151	0.00168080951530347\\
152	0.00166748659053823\\
153	0.00165437959305814\\
154	0.00164148324675288\\
155	0.00162879243916746\\
156	0.00161630221643902\\
157	0.0016040077782369\\
158	0.00159190447274199\\
159	0.00157998779169339\\
160	0.00156825336552436\\
161	0.00155669695860377\\
162	0.00154531446459552\\
163	0.00153410190194422\\
164	0.00152305540949421\\
165	0.00151217124224425\\
166	0.00150144576724133\\
167	0.00149087545961318\\
168	0.00148045689873912\\
169	0.00147018676455811\\
170	0.00146006183401068\\
171	0.00145007897761323\\
172	0.00144023515616105\\
173	0.00143052741755604\\
174	0.0014209528937561\\
175	0.00141150879784194\\
176	0.00140219242119743\\
177	0.0013930011307999\\
178	0.00138393236661579\\
179	0.00137498363909773\\
180	0.0013661525267803\\
181	0.00135743667396858\\
182	0.00134883378851806\\
183	0.00134034163970044\\
184	0.00133195805615281\\
185	0.00132368092390639\\
186	0.00131550818449211\\
187	0.00130743783311859\\
188	0.00129946791692105\\
189	0.00129159653327689\\
190	0.00128382182818601\\
191	0.00127614199471266\\
192	0.00126855527148628\\
193	0.00126105994125928\\
194	0.00125365432951856\\
195	0.00124633680314903\\
196	0.00123910576914731\\
197	0.00123195967338265\\
198	0.00122489699940362\\
199	0\\
200	0\\
};
\addlegendentry{$\mathbf{h_1}$}

\addplot [color=mycolor2]
  table[row sep=crcr]{%
1	0.00774703480118937\\
2	0.00804603929146471\\
3	0.00836973275649019\\
4	0.00872140343539048\\
5	0.00910497030680877\\
6	0.00952514700926037\\
7	0.00998766130776543\\
8	0.0104995540104486\\
9	0.0110695940567668\\
10	0.0117088677650987\\
11	0.0124316367204608\\
12	0.013256623866012\\
13	0.0142090087041013\\
14	0.0153236507623596\\
15	0.0166505577523129\\
16	0.0182647317357061\\
17	0.0202852710510938\\
18	0.0229161572207696\\
19	0.0265452456738114\\
20	0.0320322468033177\\
21	0.0418192089559173\\
22	0.0672236903861102\\
23	0.764800043449489\\
24	0.0299885302146741\\
25	0.0061115763360554\\
26	0.0242678676400095\\
27	0.0514933555988865\\
28	0.195228919998726\\
29	0.085859180908406\\
30	0.0163105896710166\\
31	0.0145786853171939\\
32	0.0559865681218998\\
33	0.251050340252552\\
34	0.336624236311341\\
35	0.408546548232539\\
36	0.036057069833403\\
37	0.032029118563816\\
38	0.0279234399827533\\
39	0.024556464147634\\
40	0.0218789138558169\\
41	0.0197265840855051\\
42	0.0179656432193082\\
43	0.016499807231079\\
44	0.0152607166923053\\
45	0.0141992302040502\\
46	0.0132793478490471\\
47	0.0124741733162898\\
48	0.011763234520885\\
49	0.0111306817804915\\
50	0.0105640541254365\\
51	0.0100534184529814\\
52	0.00959075767384862\\
53	0.00916952821967447\\
54	0.00878433483782754\\
55	0.00843068801165144\\
56	0.00810482052737742\\
57	0.00780354701585278\\
58	0.00752415515294532\\
59	0.00726432048229959\\
60	0.00702203907403127\\
61	0.00679557379902244\\
62	0.00658341110359303\\
63	0.00638422595921995\\
64	0.00619685323339502\\
65	0.00602026414575953\\
66	0.00585354678274153\\
67	0.00569588987471922\\
68	0.00554656921368661\\
69	0\\
70	0\\
71	0\\
72	0\\
73	0\\
74	0\\
75	0\\
76	0\\
77	0\\
78	0\\
79	0\\
80	0\\
81	0\\
82	0\\
83	0\\
84	0\\
85	0\\
86	0\\
87	0\\
88	0\\
89	0\\
90	0\\
91	0\\
92	0\\
93	0\\
94	0\\
95	0\\
96	0\\
97	0\\
98	0\\
99	0\\
100	0\\
101	0\\
102	0\\
103	0\\
104	0\\
105	0\\
106	0\\
107	0\\
108	0\\
109	0\\
110	0\\
111	0\\
112	0\\
113	0\\
114	0\\
115	0\\
116	0\\
117	0\\
118	0\\
119	0\\
120	0\\
121	0\\
122	0\\
123	0\\
124	0\\
125	0\\
126	0\\
127	0\\
128	0\\
129	0\\
130	0\\
131	0\\
132	0\\
133	0\\
134	0\\
135	0\\
136	0\\
137	0\\
138	0\\
139	0\\
140	0\\
141	0\\
142	0\\
143	0\\
144	0\\
145	0\\
146	0\\
147	0\\
148	0\\
149	0\\
150	0\\
151	0\\
152	0\\
153	0\\
154	0\\
155	0\\
156	0\\
157	0\\
158	0\\
159	0\\
160	0\\
161	0\\
162	0\\
163	0\\
164	0\\
165	0\\
166	0\\
167	0\\
168	0\\
169	0\\
170	0\\
171	0\\
172	0\\
173	0\\
174	0\\
175	0\\
176	0\\
177	0\\
178	0\\
179	0\\
180	0\\
181	0\\
182	0\\
183	0\\
184	0\\
185	0\\
186	0\\
187	0\\
188	0\\
189	0\\
190	0\\
191	0\\
192	0\\
193	0\\
194	0\\
195	0\\
196	0\\
197	0\\
198	0\\
199	0\\
200	0\\
};
\addlegendentry{$\mathbf{h_{2}}$}

\end{axis}

\begin{axis}[%
width=1.935in,
height=3.2in,
at={(3.327in,0.512in)},
scale only axis,
xmin=0,
xmax=200,
xlabel style={font=\color{white!15!black}, align=center},
xlabel={Sample Index\\[1ex](b) Estimated},
ymin=0,
ymax=0.5,
axis background/.style={fill=white},
legend style={legend cell align=left, align=left, draw=white!15!black}
]
\addplot [color=mycolor1]
  table[row sep=crcr]{%
0	0.00777322572789187\\
1	0.0012443045796516\\
2	0.00775945492230505\\
3	0.00689810244974157\\
4	0.0115605527665142\\
5	0.0103228149039984\\
6	0.0168697025955974\\
7	0.0331901597996349\\
8	0.0688493254025029\\
9	0.0193049644284346\\
10	0.163040995528934\\
11	0.49919612195426\\
12	0.365784645756735\\
13	0.31250169456923\\
14	0.177230479612714\\
15	0.205818672163043\\
16	0.230575165304576\\
17	0.217879704578928\\
18	0.218831706685973\\
19	0.163520370430303\\
20	0.175885068975234\\
21	0.151657283253082\\
22	0.164333955903948\\
23	0.120800683729351\\
24	0.094445883940208\\
25	0.0534894585885768\\
26	0.0135367256954607\\
27	0.0101491349993493\\
28	0.0263217422992386\\
29	0.0166973590813303\\
30	0.0548624939750053\\
31	0.0362572913016005\\
32	0.0745784283660946\\
33	0.136022251791484\\
34	0.106176282343871\\
35	0.0834041706003784\\
36	0.0648428952170923\\
37	0.0602970181860995\\
38	0.0856246912939302\\
39	0.0967298480648943\\
40	0.0611026402153636\\
41	0.0682457154259408\\
42	0.0813039137541429\\
43	0.058102448147112\\
44	0.0182147748746317\\
45	0.0509880273374798\\
46	0.057229193443362\\
47	0.0847374826634649\\
48	0.0335671916791978\\
49	0.030276295698199\\
50	0.0374425443393369\\
51	0.0459010949494838\\
52	0.0298290532326541\\
53	0.0225347294160121\\
54	0.0345658909809657\\
55	0.03273732456529\\
56	0.0311819714773679\\
57	0.0335495229937378\\
58	0.0347429899682432\\
59	0.0297767346863654\\
60	0.0163537945490682\\
61	0.0047758609830903\\
62	0.0117635268253919\\
63	0.0125303297462704\\
64	0.0272236736426643\\
65	0.0474932823271972\\
66	0.0276607017094427\\
67	0.0192248092360085\\
68	0.00464874891275959\\
69	0.0112443621048569\\
70	0.00654453908802964\\
71	0.00736913368406136\\
72	0.0137382648056226\\
73	0.0267479642624423\\
74	0.0195476352205642\\
75	0.00513427239460733\\
76	0.0127799414452325\\
77	0.0036577832957582\\
78	0.00657938775197193\\
79	0.00651056623049457\\
80	0.0130191327981524\\
81	0.0193868689238447\\
82	0.021276008538843\\
83	0.0194449375577794\\
84	0.0169335607838471\\
85	0.014061547893602\\
86	0.0141853237587864\\
87	0.0153353277051037\\
88	0.0172227749464541\\
89	0.0137232991426364\\
90	0.0109768258021779\\
91	0.00293292876255832\\
92	0.00543211130896059\\
93	0.00449332946463131\\
94	0.00545435416638416\\
95	0.0150217924393801\\
96	0.00791404777470622\\
97	0.00487770119631056\\
98	0.00653276097566892\\
99	0.0103848562093744\\
100	0.013385570142071\\
101	0.0140625695668309\\
102	0.0102823957089089\\
103	0.0147329312048733\\
104	0.0151974913305094\\
105	0.0112723818721085\\
106	0.00861409546812531\\
107	0.00765985040512816\\
108	0.00739759642237209\\
109	0.00891978800328662\\
110	0.0100539858593988\\
111	0.00919050629138488\\
112	0.00984898574190503\\
113	0.00367810169732751\\
114	0.00126296340793623\\
115	0.0024376580495955\\
116	0.000643997540630862\\
117	0.00489720276105152\\
118	0.00677359181042753\\
119	0.00210952248187562\\
120	0.00483845842967979\\
121	0.00332275915793411\\
122	0.00336510765032766\\
123	0.00242690018873743\\
124	0.00344074964949905\\
125	0.00162103377378419\\
126	0.00382829438696381\\
127	0.00336200567517612\\
128	0.0040156394836538\\
129	0.0040527001651669\\
130	0.00553106445399179\\
131	0.00263405879486833\\
132	0.00251855679983506\\
133	0.00168757284244741\\
134	0.0016007252320223\\
135	0.00103072687427661\\
136	0.00186226394289798\\
137	0.000588531195847584\\
138	0.00168403560083705\\
139	0.00164881957010788\\
140	0.00214111463602495\\
141	0.00183309387263114\\
142	0.00267467872346195\\
143	0.00162304645731863\\
144	0.00174168169635369\\
145	0.000896114871863326\\
146	0.00111068235647095\\
147	0.00222627561133649\\
148	0.000699165523616111\\
149	0.00108269943379624\\
150	0.00101145929721976\\
151	0.00115753229802558\\
152	0.000872292356057349\\
153	0.000981613129442932\\
154	0.00119106976930686\\
155	0.000651516961791091\\
156	0.000597014458580535\\
157	0.000611729028839419\\
158	0.00109613718509699\\
159	0.000631932673083632\\
160	0.000860733845781827\\
161	0.000112209257153197\\
162	0.00109713721286927\\
163	0.000405464639259971\\
164	0.000588748118095856\\
165	0.00119088335458328\\
166	0.000556534078613552\\
167	0.000369772393741595\\
168	0.000639773493091935\\
169	0.000628709772116848\\
170	0.00047192542061717\\
171	0.000786606822568117\\
172	0.000584237667878894\\
173	0.000413751232023575\\
174	0.000768388640891458\\
175	0.00030220153177896\\
176	0.000637127150761828\\
177	0.000722573724974975\\
178	0.000415021023167407\\
179	0.000450488404228477\\
180	0.000713202713507887\\
181	0.000311166936295113\\
182	0.00062935904687644\\
183	0.000461707984104341\\
184	0.00042841830771165\\
185	0.000498806514332941\\
186	0.000601653463883606\\
187	0.000430078057795576\\
188	0.000572797165633829\\
189	0.000432931552998626\\
190	0.000388343809676628\\
191	0.000613643652679304\\
192	0.000334691264423569\\
193	0.000643098291733574\\
194	0.000358630732430887\\
195	0.000516235885517431\\
196	0.000404990925943113\\
197	0.000567934957024456\\
198	0.000235201502343208\\
199	0.000667005484343748\\
};
\addlegendentry{$\mathbf{\hat{h}_{1}}$}

\addplot [color=mycolor2]
  table[row sep=crcr]{%
0	0.00337494783993685\\
1	0.000452711593329236\\
2	0.00306942337381025\\
3	0.00241297458693353\\
4	0.00400500052615739\\
5	0.00271737074940285\\
6	0.00405457432675036\\
7	0.00344277482711294\\
8	0.00447469413843241\\
9	0.00400603164526608\\
10	0.00490913715560422\\
11	0.00430095869133147\\
12	0.00529535915944258\\
13	0.00522307960235994\\
14	0.0059230056654708\\
15	0.00649329656761761\\
16	0.00702550859843088\\
17	0.00806379789360969\\
18	0.00911723518665705\\
19	0.0108666681179678\\
20	0.0140033776233\\
21	0.0228239707332373\\
22	0.319055588073559\\
23	0.32974671807583\\
24	0.3154569097729\\
25	0.0926463487567323\\
26	0.163654944418458\\
27	0.0756412904784049\\
28	0.0188879154221946\\
29	0.0269706349580791\\
30	0.0499915991633716\\
31	0.0242661579892541\\
32	0.133180655287657\\
33	0.306191357614491\\
34	0.44060268972173\\
35	0.354977497030159\\
36	0.253237947503663\\
37	0.117499543860671\\
38	0.108808952775996\\
39	0.103399969383837\\
40	0.110423200575741\\
41	0.129820128554032\\
42	0.110535511885619\\
43	0.0917261544470908\\
44	0.0895917963861223\\
45	0.0988261760766452\\
46	0.0630493603382937\\
47	0.0350032327981799\\
48	0.0112319488138662\\
49	0.0258529673564356\\
50	0.0231730588317308\\
51	0.027322157765496\\
52	0.0207532264872926\\
53	0.0314168267657546\\
54	0.0364544277460195\\
55	0.0443359681203061\\
56	0.0338241754043352\\
57	0.0362015228178341\\
58	0.0292316694866978\\
59	0.0375591461534321\\
60	0.0321461175521942\\
61	0.0314664520762979\\
62	0.0413622575829919\\
63	0.0643537497777198\\
64	0.0536905515817148\\
65	0.0422844505849066\\
66	0.0282972962577812\\
67	0.0287228663005358\\
68	0.0275864247041171\\
69	0.024447349113982\\
70	0.0164702872086902\\
71	0.00975043267177624\\
72	0.0130720422217365\\
73	0.0234357694957771\\
74	0.0303901470043239\\
75	0.0365826152515775\\
76	0.0421993460592104\\
77	0.0455561837149985\\
78	0.0377221339457887\\
79	0.0183461491906188\\
80	0.0129374314407749\\
81	0.0222829619863175\\
82	0.017543543599206\\
83	0.00742343191416065\\
84	0.00505229797363717\\
85	0.00166283980889184\\
86	0.00316628710371006\\
87	0.00832856168952891\\
88	0.0101852777896617\\
89	0.00629482441352808\\
90	0.00106090549008052\\
91	0.00401802159781151\\
92	0.00579089491833296\\
93	0.0088833066197872\\
94	0.0111382407206576\\
95	0.0131500118135628\\
96	0.0129723427542085\\
97	0.00680385911787827\\
98	0.0122915250243878\\
99	0.0191221934168209\\
100	0.0123041498553319\\
101	0.00320905258986964\\
102	3.98731032778122e-05\\
103	1.73655975843913e-05\\
104	3.60603529501786e-06\\
105	5.2697244963623e-06\\
106	2.36159751578958e-06\\
107	4.71231548619683e-06\\
108	3.58476475884211e-06\\
109	2.09093077873208e-06\\
110	3.67566158067813e-07\\
111	1.8754263527239e-06\\
112	6.20168823888242e-06\\
113	7.03476417499348e-06\\
114	8.86029351203168e-06\\
115	9.7861453796675e-06\\
116	8.52331280710803e-06\\
117	7.69063828769076e-06\\
118	1.0366657492198e-05\\
119	8.81246668272049e-06\\
120	4.33830454986745e-06\\
121	3.93135494105767e-06\\
122	4.58261200667321e-06\\
123	4.71457676136578e-06\\
124	7.98742019446981e-06\\
125	4.47055199462266e-06\\
126	9.32075366804763e-06\\
127	1.69164300511995e-05\\
128	1.37788138317165e-05\\
129	1.16462886699821e-05\\
130	1.46218529226545e-05\\
131	4.95632250539942e-06\\
132	7.18175530572003e-06\\
133	6.83182141324265e-06\\
134	4.87116683430811e-05\\
135	0.000107389803848559\\
136	0.000147216386822361\\
137	0.0001511461369735\\
138	0.000145036298532401\\
139	0.000156349651293931\\
140	0.000176180825061483\\
141	0.000183396622615127\\
142	0.000174909043086271\\
143	0.000167182572651062\\
144	0.000173794604222548\\
145	0.000179454699498731\\
146	0.000161172038355223\\
147	0.00014053488272241\\
148	0.000146215071730159\\
149	0.000156888057760132\\
150	0.00015592727976062\\
151	0.000169473239436951\\
152	0.000205463381586728\\
153	0.000252162068989646\\
154	0.000295648729054084\\
155	0.000309240827061588\\
156	0.00030784184418621\\
157	0.000329339189642312\\
158	0.000358865713965227\\
159	0.000351951160061224\\
160	0.000317912608743733\\
161	0.000302430792481527\\
162	0.000314383030056174\\
163	0.000328328352690288\\
164	0.000336368327309601\\
165	0.000331284036671162\\
166	0.00032816196425783\\
167	0.000333264298211003\\
168	0.000310590767418972\\
169	0.00026138099813763\\
170	0.00024652250018542\\
171	0.00027398611105951\\
172	0.00031418207465354\\
173	0.000349213701044718\\
174	0.00039175473109025\\
175	0.000426071659446054\\
176	0.000428152291080794\\
177	0.000368731803510405\\
178	0.000319330761057693\\
179	0.00034467227276738\\
180	0.000319647007867036\\
181	0.000210807696370026\\
182	0.000108203737381161\\
183	5.23814396631479e-05\\
184	2.45798588873425e-05\\
185	7.92040892188672e-05\\
186	0.000161466778768154\\
187	0.000144570309780919\\
188	5.51171315435397e-05\\
189	4.68155730486607e-05\\
190	7.18425265141215e-05\\
191	0.000105171387166139\\
192	0.000154393514035423\\
193	0.000174165272951645\\
194	0.000214459308044841\\
195	0.000177486021424041\\
196	7.1794137950591e-05\\
197	0.000288409172887105\\
198	0.000286486816328536\\
199	0.000106821030338111\\
};
\addlegendentry{$\mathbf{\hat{h}_{2}}$}

\end{axis}
\end{tikzpicture}%