% This file was created by matlab2tikz.
%
%The latest updates can be retrieved from
%  http://www.mathworks.com/matlabcentral/fileexchange/22022-matlab2tikz-matlab2tikz
%where you can also make suggestions and rate matlab2tikz.
%
\definecolor{mycolor1}{rgb}{0.00000,0.44700,0.74100}%
\definecolor{mycolor2}{rgb}{0.85000,0.32500,0.09800}%
%
\begin{tikzpicture}

\begin{axis}[%
width=1.952in,
height=3.2in,
at={(0.758in,0.512in)},
scale only axis,
xmin=0,
xmax=20,
xlabel style={font=\color{white!15!black}, align=center},
xlabel={Sample Index\\[1ex](a) Actual},
ymin=0,
ymax=0.9,
axis background/.style={fill=white},
legend style={legend cell align=left, align=left, draw=white!15!black}
]
\addplot [color=mycolor1]
  table[row sep=crcr]{%
1	0.0444337104356374\\
2	0.738127803558165\\
3	0.357839506790865\\
4	0.481268775571525\\
5	0.10955194752004\\
6	0.267783168107473\\
7	0.0769544524124665\\
8	0.0372836026936495\\
9	0.027789744685169\\
10	0.0196434178633453\\
11	0.0212138243269196\\
12	0.0147156812719569\\
13	0.0126517206023441\\
14	0.0111331007215966\\
15	0.00994473974674355\\
16	0.00898571135769806\\
17	0.00819466874468931\\
18	0.00753086667278431\\
19	0.00696589032366256\\
20	0.00647923877975415\\
};
\addlegendentry{$\mathbf{h_1}$}

\addplot [color=mycolor2]
  table[row sep=crcr]{%
1	0.0696363384444256\\
2	0.13399148454392\\
3	0.889181852408627\\
4	0.426869408918664\\
5	0.0527923084371181\\
6	0.0393468637154593\\
7	0\\
8	0\\
9	0\\
10	0\\
11	0\\
12	0\\
13	0\\
14	0\\
15	0\\
16	0\\
17	0\\
18	0\\
19	0\\
20	0\\
};
\addlegendentry{$\mathbf{h_{2}}$}

\end{axis}

\begin{axis}[%
width=1.952in,
height=3.2in,
at={(3.327in,0.512in)},
scale only axis,
xmin=0,
xmax=20,
xlabel style={font=\color{white!15!black}, align=center},
xlabel={Sample Index\\[1ex](b) Estimated},
ymin=-0.1,
ymax=0.7,
axis background/.style={fill=white},
legend style={legend cell align=left, align=left, draw=white!15!black}
]
\addplot [color=mycolor1]
  table[row sep=crcr]{%
0	0.000347143128610007\\
0.25	0.000684101285964642\\
0.5	0.00101442327604232\\
0.75	0.00133008856633198\\
1	0.00160647908360711\\
1.25	0.00179504105919226\\
1.5	0.00193917226093906\\
1.75	0.00219331865282446\\
2	0.00291141939876799\\
2.25	0.00539272234189179\\
2.5	0.00958043245745725\\
2.75	0.0165693814648071\\
3	0.0280128918359508\\
3.25	0.0458415212002217\\
3.5	0.0727163585671616\\
3.75	0.110823079170904\\
4	0.161527694370252\\
4.25	0.220117722236418\\
4.5	0.291824484228711\\
4.75	0.374165144831106\\
5	0.460755214405543\\
5.25	0.556097540652091\\
5.5	0.625064804270912\\
5.75	0.649818733897673\\
6	0.620608386710549\\
6.25	0.512774588668782\\
6.5	0.382380052561312\\
6.75	0.264035847052874\\
7	0.188187839973408\\
7.25	0.207957543169412\\
7.5	0.269145231278216\\
7.75	0.341528774324886\\
8	0.393160201614222\\
8.25	0.36275778873691\\
8.5	0.299066961652729\\
8.75	0.223963565039959\\
9	0.162169799861459\\
9.25	0.167087449601162\\
9.5	0.193883047608926\\
9.75	0.224251686075643\\
10	0.238712094567714\\
10.25	0.193968270215971\\
10.5	0.131896164755133\\
10.75	0.0714328141274066\\
11	0.0320126214370227\\
11.25	0.0526695761885912\\
11.5	0.098100652786944\\
11.75	0.151568785329015\\
12	0.194899229934252\\
12.25	0.192069617773354\\
12.5	0.171267936589102\\
12.75	0.144351637758381\\
13	0.124609826348395\\
13.25	0.139881977798451\\
13.5	0.166373757877932\\
13.75	0.193421696193043\\
14	0.209137302489897\\
14.25	0.191270129700323\\
14.5	0.155809408016823\\
14.75	0.110190358981832\\
15	0.0640257515220746\\
15.25	0.0340927227457522\\
15.5	0.0148527738330209\\
15.75	0.00563284589860814\\
16	0.0036250218240112\\
16.25	0.00155681765340504\\
16.5	0.00118906567420578\\
16.75	0.001275682344743\\
17	0.00117150889989288\\
17.25	0.00151943162210802\\
17.5	0.00137166155565016\\
17.75	0.000834114796637764\\
18	0.000171850517872786\\
18.25	-0.000127556989238253\\
18.5	-0.000146234251792702\\
18.75	0.000107656477415927\\
19	0.000523573075993919\\
19.25	0.000939277636915468\\
19.5	0.00119308411929163\\
19.75	0.00117449110356965\\
};
\addlegendentry{$\mathbf{\hat{h}_{1}}$}

\addplot [color=mycolor2]
  table[row sep=crcr]{%
0	0.000209561154064576\\
0.25	0.000451979941505891\\
0.5	0.000724975137302157\\
0.75	0.00104415303382515\\
1	0.00138609700936563\\
1.25	0.00158343684357357\\
1.5	0.00174942561452421\\
1.75	0.00195820484174355\\
2	0.00240880980479626\\
2.25	0.0040321129714903\\
2.5	0.00670376373581939\\
2.75	0.0112744254393041\\
3	0.0191429709886821\\
3.25	0.0324427928342976\\
3.5	0.0531134452310564\\
3.75	0.0833206676084582\\
4	0.12484774430698\\
4.25	0.174032397874562\\
4.5	0.237325290203849\\
4.75	0.313915364408175\\
5	0.399201808853584\\
5.25	0.496460113449799\\
5.5	0.575825850482177\\
5.75	0.620452081455263\\
6	0.619320617116621\\
6.25	0.551833308637241\\
6.5	0.456150589999661\\
6.75	0.35730942120288\\
7	0.279543285203883\\
7.25	0.261568169972062\\
7.5	0.275731763081777\\
7.75	0.307387552786331\\
8	0.338323428582935\\
8.25	0.332619401695595\\
8.5	0.311428930309809\\
8.75	0.281399752713407\\
9	0.251568428158071\\
9.25	0.246482687397017\\
9.5	0.244661933383584\\
9.75	0.239229736737719\\
10	0.223999438517295\\
10.25	0.180309275849916\\
10.5	0.134468381081057\\
10.75	0.0989104115649491\\
11	0.0841652353946443\\
11.25	0.112822927959015\\
11.5	0.156013770611524\\
11.75	0.198353894606291\\
12	0.225232742192934\\
12.25	0.208067117031856\\
12.5	0.175161739397835\\
12.75	0.140599202462508\\
13	0.118789998392454\\
13.25	0.137595954635913\\
13.5	0.171788069534709\\
13.75	0.208597605279654\\
14	0.233738534895681\\
14.25	0.221972152189101\\
14.5	0.189106377911206\\
14.75	0.142364099874769\\
15	0.0918949631859093\\
15.25	0.0558005326524231\\
15.5	0.0295354396402654\\
15.75	0.0136822027111675\\
16	0.00645847803764258\\
16.25	0.00161556128219795\\
16.5	0.000378234782352685\\
16.75	0.000967295169809542\\
17	0.00198673799879353\\
17.25	0.00276474473817431\\
17.5	0.00268684175692881\\
17.75	0.00183564495672874\\
18	0.000620363059097486\\
18.25	8.18457783729655e-05\\
18.5	-0.000156154567559394\\
18.75	-8.91204752045993e-05\\
19	0.000161721207897032\\
19.25	0.000412497396825086\\
19.5	0.000479505467025319\\
19.75	0.000241531143247521\\
};
\addlegendentry{$\mathbf{\hat{h}_{2}}$}

\end{axis}
\end{tikzpicture}%