% This file was created by matlab2tikz.
%
%The latest updates can be retrieved from
%  http://www.mathworks.com/matlabcentral/fileexchange/22022-matlab2tikz-matlab2tikz
%where you can also make suggestions and rate matlab2tikz.
%
\definecolor{mycolor1}{rgb}{0.00000,0.44700,0.74100}%
\definecolor{mycolor2}{rgb}{0.85000,0.32500,0.09800}%
%
\begin{tikzpicture}

\begin{axis}[%
width=1.952in,
height=3.2in,
at={(0.758in,0.512in)},
scale only axis,
xmin=0,
xmax=20,
xlabel style={font=\color{white!15!black}, align=center},
xlabel={Sample Index\\[1ex](a) Actual},
ymin=0,
ymax=0.9,
axis background/.style={fill=white},
legend style={legend cell align=left, align=left, draw=white!15!black}
]
\addplot [color=mycolor1]
  table[row sep=crcr]{%
1	0.0444337104356374\\
2	0.738127803558165\\
3	0.357839506790865\\
4	0.481268775571525\\
5	0.10955194752004\\
6	0.267783168107473\\
7	0.0769544524124665\\
8	0.0372836026936495\\
9	0.027789744685169\\
10	0.0196434178633453\\
11	0.0212138243269196\\
12	0.0147156812719569\\
13	0.0126517206023441\\
14	0.0111331007215966\\
15	0.00994473974674355\\
16	0.00898571135769806\\
17	0.00819466874468931\\
18	0.00753086667278431\\
19	0.00696589032366256\\
20	0.00647923877975415\\
};
\addlegendentry{$\mathbf{h_1}$}

\addplot [color=mycolor2]
  table[row sep=crcr]{%
1	0.0696363384444256\\
2	0.13399148454392\\
3	0.889181852408627\\
4	0.426869408918664\\
5	0.0527923084371181\\
6	0.0393468637154593\\
7	0\\
8	0\\
9	0\\
10	0\\
11	0\\
12	0\\
13	0\\
14	0\\
15	0\\
16	0\\
17	0\\
18	0\\
19	0\\
20	0\\
};
\addlegendentry{$\mathbf{h_{2}}$}

\end{axis}

\begin{axis}[%
width=1.952in,
height=3.2in,
at={(3.327in,0.512in)},
scale only axis,
xmin=0,
xmax=30,
xlabel style={font=\color{white!15!black}, align=center},
xlabel={Sample Index\\[1ex](b) Estimated},
ymin=0,
ymax=0.4,
axis background/.style={fill=white},
legend style={legend cell align=left, align=left, draw=white!15!black}
]
\addplot [color=mycolor1]
  table[row sep=crcr]{%
0	0.0135349242076272\\
1	0.215458473712614\\
2	0.249441689291074\\
3	0.346031623560035\\
4	0.298371692182373\\
5	0.268564286451488\\
6	0.301688158706635\\
7	0.309811701950111\\
8	0.29943952949558\\
9	0.299980277539439\\
10	0.26492544239021\\
11	0.344545940722925\\
12	0.170794661958032\\
13	0.131915946239062\\
14	0.0608274440238191\\
15	0.0621447695700552\\
16	0.0195036375582688\\
17	0.00984202890905397\\
18	0.00652109999274432\\
19	0.00534372169319628\\
20	0.00310699899812972\\
21	0.00342806824146704\\
22	0.00200815445308299\\
23	0.00285922574820791\\
24	0.001528815806793\\
25	0.00237275422109322\\
26	0.00115020673993003\\
27	0.00214457491394459\\
28	0.000950859548315076\\
29	0.00173517872054902\\
};
\addlegendentry{$\mathbf{\hat{h}_{1}}$}

\addplot [color=mycolor2]
  table[row sep=crcr]{%
0	0.0221682517969798\\
1	0.0257201664626143\\
2	0.264063740549556\\
3	0.340754296931472\\
4	0.27042113092838\\
5	0.287824857600929\\
6	0.301086074574067\\
7	0.298453487047297\\
8	0.290750673538933\\
9	0.299200061549264\\
10	0.300267214061053\\
11	0.265017813129675\\
12	0.35507112534269\\
13	0.128989769691618\\
14	0.00448037712964082\\
15	0.0109742541670056\\
16	2.79259915563124e-05\\
17	2.12572105776968e-05\\
18	1.88795471204679e-05\\
19	1.20743252625688e-05\\
20	4.61695757707723e-06\\
21	1.0312112653878e-06\\
22	8.91900546316784e-07\\
23	6.89843434420331e-07\\
24	7.29809932290379e-07\\
25	6.90325670080572e-07\\
26	9.25223812430475e-07\\
27	3.01952426848804e-06\\
28	8.77113303516114e-06\\
29	6.06293541414462e-06\\
};
\addlegendentry{$\mathbf{\hat{h}_{2}}$}

\end{axis}
\end{tikzpicture}%