% This file was created by matlab2tikz.
%
%The latest updates can be retrieved from
%  http://www.mathworks.com/matlabcentral/fileexchange/22022-matlab2tikz-matlab2tikz
%where you can also make suggestions and rate matlab2tikz.
%
\definecolor{mycolor1}{rgb}{0.00000,0.44700,0.74100}%
\definecolor{mycolor2}{rgb}{0.85000,0.32500,0.09800}%
%
\begin{tikzpicture}

\begin{axis}[%
width=1.952in,
height=3.2in,
at={(0.758in,0.512in)},
scale only axis,
xmin=0,
xmax=20,
xlabel style={font=\color{white!15!black}, align=center},
xlabel={Sample Index\\[1ex](a) Actual},
ymin=0,
ymax=1,
axis background/.style={fill=white},
legend style={legend cell align=left, align=left, draw=white!15!black}
]
\addplot [color=mycolor1]
  table[row sep=crcr]{%
1	0.113205605745861\\
2	0.919292270364926\\
3	0.256025577129562\\
4	0.221212160951117\\
5	0.110921817870281\\
6	0.0400328712358033\\
7	0.0687168441611535\\
8	0.0506014016738843\\
9	0.0552835931164163\\
10	0.0346525615393867\\
11	0.020191452822011\\
12	0.0185296152559968\\
13	0.0171404774442808\\
14	0.0156211388830756\\
15	0.0142945116316957\\
16	0.0131617720182863\\
17	0.0121914691582677\\
18	0.0113534257007881\\
19	0.0106231383936872\\
20	0.00998136168461187\\
};
\addlegendentry{$\mathbf{h_1}$}

\addplot [color=mycolor2]
  table[row sep=crcr]{%
1	0.0495723015654782\\
2	0.0685334241945042\\
3	0.511321702955238\\
4	0.765196656162612\\
5	0.358164812724738\\
6	0.132619444637821\\
7	0\\
8	0\\
9	0\\
10	0\\
11	0\\
12	0\\
13	0\\
14	0\\
15	0\\
16	0\\
17	0\\
18	0\\
19	0\\
20	0\\
};
\addlegendentry{$\mathbf{h_{2}}$}

\end{axis}

\begin{axis}[%
width=1.952in,
height=3.2in,
at={(3.327in,0.512in)},
scale only axis,
xmin=0,
xmax=20,
xlabel style={font=\color{white!15!black}, align=center},
xlabel={Sample Index\\[1ex](b) Estimated},
ymin=0,
ymax=1,
axis background/.style={fill=white},
legend style={legend cell align=left, align=left, draw=white!15!black}
]
\addplot [color=mycolor1]
  table[row sep=crcr]{%
0	0.113206743224725\\
1	0.919312903405128\\
2	0.256011391327205\\
3	0.221115572783225\\
4	0.110961353626878\\
5	0.0399552539482951\\
6	0.0687847016039387\\
7	0.050621458781442\\
8	0.0552631725282278\\
9	0.0346617372009819\\
10	0.0201782439584455\\
11	0.0185357697475729\\
12	0.0171193063883576\\
13	0.0156254535383279\\
14	0.0142968970578002\\
15	0.0131677046750075\\
16	0.0121878793821888\\
17	0.0113611102664156\\
18	0.0106254384020288\\
19	0.00998265692979223\\
};
\addlegendentry{$\mathbf{\hat{h}_{1}}$}

\addplot [color=mycolor2]
  table[row sep=crcr]{%
0	0.0495695772113065\\
1	0.0685276261995972\\
2	0.511289458001956\\
3	0.765202168323111\\
4	0.358219865144009\\
5	0.132567040747487\\
6	8.58058412200875e-05\\
7	0.000174613143855846\\
8	0.000135792577756041\\
9	6.01890942309712e-05\\
10	1.73206713568717e-05\\
11	4.8315272513246e-06\\
12	8.79393668252806e-06\\
13	1.01190072523536e-05\\
14	1.56688248004326e-05\\
15	4.1480628102624e-06\\
16	8.36880495992678e-06\\
17	1.13370510449315e-05\\
18	1.35126063488362e-05\\
19	7.53296480005285e-06\\
};
\addlegendentry{$\mathbf{\hat{h}_{2}}$}

\end{axis}
\end{tikzpicture}%