\relax 
\providecommand\hyper@newdestlabel[2]{}
\citation{art:LS_Approach_BCID}
\citation{art:AEDDecomp}
\citation{art:LS_Approach_BCID,art:Det_BID_Multi-FIRSystems}
\citation{art:AEDDecomp,book:AcousticMIMOSigProc,conf:AED}
\@writefile{toc}{\contentsline {chapter}{\numberline {4}PRE-EXISTING CROSS RELATION METHODS}{29}{chapter.4}}
\newlabel{ch:4}{{4}{29}{PRE-EXISTING CROSS RELATION METHODS}{chapter.4}{}}
\@writefile{toc}{\contentsline {section}{\numberline {4.1}Pre-Existing Algorithms}{29}{section.4.1}}
\@writefile{toc}{\contentsline {subsection}{\numberline {4.1.1}System Model}{29}{subsection.4.1.1}}
\newlabel{eq:system}{{4.1}{29}{System Model}{equation.4.1.1}{}}
\@writefile{lof}{\contentsline {figure}{\numberline {4.1}{\ignorespaces System Model\relax }}{30}{figure.caption.24}}
\newlabel{fig:transmission_figure}{{4.1}{30}{System Model\relax }{figure.caption.24}{}}
\@writefile{toc}{\contentsline {subsection}{\numberline {4.1.2}Cross Relation}{30}{subsection.4.1.2}}
\newlabel{sec:ch_4_LS_conj_cr}{{4.1.2}{30}{Cross Relation}{subsection.4.1.2}{}}
\newlabel{eq:cr-derivation}{{4.2}{30}{Cross Relation}{equation.4.1.2}{}}
\newlabel{eq:cr-matrix}{{4.3}{30}{Cross Relation}{equation.4.1.3}{}}
\citation{art:LS_Approach_BCID}
\newlabel{eq:cr-brief}{{4.4}{31}{Cross Relation}{equation.4.1.4}{}}
\@writefile{toc}{\contentsline {subsection}{\numberline {4.1.3}A Least-Squares Approach According to Xu et. al}{31}{subsection.4.1.3}}
\newlabel{eq:min_cr_brief}{{4.5}{31}{A Least-Squares Approach According to Xu et. al}{equation.4.1.5}{}}
\citation{art:LMS}
\citation{art:AEDDecomp,book:AcousticMIMOSigProc,conf:AED}
\citation{art:LS_Approach_BCID}
\@writefile{toc}{\contentsline {subsection}{\numberline {4.1.4}Adaptive Eigenvalue Decomposition}{32}{subsection.4.1.4}}
\newlabel{eq:AED_objective}{{4.6}{32}{Adaptive Eigenvalue Decomposition}{equation.4.1.6}{}}
\newlabel{eq:AED_update}{{4.7}{32}{Adaptive Eigenvalue Decomposition}{equation.4.1.7}{}}
\@writefile{toc}{\contentsline {subsection}{\numberline {4.1.5}Pre-Existing Algorithms Implementations, Advantages, and Disadvantages}{32}{subsection.4.1.5}}
\@writefile{lof}{\contentsline {figure}{\numberline {4.2}{\ignorespaces Results of the SVD algorithm with 30,000 data samples, with SNR = 60 dB, at various sampling rates for wideband simulation, (a) 20 MHz, (b) 100 MHz, (c) 150 MHz, and (d) 200 MHz, for impulse response set IR-1, seed 0.\relax }}{33}{figure.caption.25}}
\newlabel{fig:LS_ideal_30v3000}{{4.2}{33}{Results of the SVD algorithm with 30,000 data samples, with SNR = 60 dB, at various sampling rates for wideband simulation, (a) 20 MHz, (b) 100 MHz, (c) 150 MHz, and (d) 200 MHz, for impulse response set IR-1, seed 0.\relax }{figure.caption.25}{}}
\@writefile{lof}{\contentsline {figure}{\numberline {4.3}{\ignorespaces Results of the SVD algorithm with 300 data samples, with SNR = 60 dB, at various sampling rates for wideband simulation, (a) 20 MHz, (b) 100 MHz, (c) 150 MHz, and (d) 200 MHz, for impulse response set IR-1, seed 0.\relax }}{34}{figure.caption.26}}
\newlabel{fig:LS_Nless_30v3000}{{4.3}{34}{Results of the SVD algorithm with 300 data samples, with SNR = 60 dB, at various sampling rates for wideband simulation, (a) 20 MHz, (b) 100 MHz, (c) 150 MHz, and (d) 200 MHz, for impulse response set IR-1, seed 0.\relax }{figure.caption.26}{}}
\citation{book:moon,book:matComp}
\@writefile{lof}{\contentsline {figure}{\numberline {4.4}{\ignorespaces Results of the SVD algorithm with 30,000 data samples, with SNR = 60 dB, at various sampling rates for wideband simulation, (a) 20 MHz, (b) 100 MHz, (c) 150 MHz, and (d) 200 MHz, for impulse response set IR-2, seed 0.\relax }}{35}{figure.caption.27}}
\newlabel{fig:LS_NITF_30v3000}{{4.4}{35}{Results of the SVD algorithm with 30,000 data samples, with SNR = 60 dB, at various sampling rates for wideband simulation, (a) 20 MHz, (b) 100 MHz, (c) 150 MHz, and (d) 200 MHz, for impulse response set IR-2, seed 0.\relax }{figure.caption.27}{}}
\@writefile{lof}{\contentsline {figure}{\numberline {4.5}{\ignorespaces Results of the SVD algorithm with 30,000 data samples, with SNR = 60 dB, at various sampling rates for narrowband simulation, (a) 20 MHz, (b) 100 MHz, (c) 150 MHz, and (d) 200 MHz, forimpulse response set IR-1, seed 0.\relax }}{36}{figure.caption.28}}
\newlabel{fig:LS_narrowband_30v3000}{{4.5}{36}{Results of the SVD algorithm with 30,000 data samples, with SNR = 60 dB, at various sampling rates for narrowband simulation, (a) 20 MHz, (b) 100 MHz, (c) 150 MHz, and (d) 200 MHz, forimpulse response set IR-1, seed 0.\relax }{figure.caption.28}{}}
\citation{art:AEDDecomp,conf:AED}
\@writefile{lof}{\contentsline {figure}{\numberline {4.6}{\ignorespaces Results of the SVD algorithm with 30,000 data samples, with SNR = 20 dB at various sampling rates for wideband simulation, (a) 20 MHz, (b) 100 MHz, (c) 150 MHz, and (d) 200 MHz, for impulse response set IR-1, seed 0.\relax }}{37}{figure.caption.29}}
\newlabel{fig:LS_noisy_30v3000}{{4.6}{37}{Results of the SVD algorithm with 30,000 data samples, with SNR = 20 dB at various sampling rates for wideband simulation, (a) 20 MHz, (b) 100 MHz, (c) 150 MHz, and (d) 200 MHz, for impulse response set IR-1, seed 0.\relax }{figure.caption.29}{}}
\@writefile{lof}{\contentsline {figure}{\numberline {4.7}{\ignorespaces Results of the SVD algorithm with 30,000 data samples, with SNR = 60 dB for wideband at 200 MHz sampling rate with incorrect channel orders, $L$ (a) $L/2$, (b) $L - 10$, (c) $L*2$, and (d) $L + 10$, for impulse response set IR-1, seed 0.\relax }}{38}{figure.caption.30}}
\newlabel{fig:LS_wrongModel_30v3000}{{4.7}{38}{Results of the SVD algorithm with 30,000 data samples, with SNR = 60 dB for wideband at 200 MHz sampling rate with incorrect channel orders, $L$ (a) $L/2$, (b) $L - 10$, (c) $L*2$, and (d) $L + 10$, for impulse response set IR-1, seed 0.\relax }{figure.caption.30}{}}
\newlabel{eq:ch_4_unit_vector}{{4.8}{38}{Pre-Existing Algorithms Implementations, Advantages, and Disadvantages}{equation.4.1.8}{}}
\citation{book:AcousticMIMOSigProc}
\@writefile{lof}{\contentsline {figure}{\numberline {4.8}{\ignorespaces Results of the AED algorithm with 250,000 data samples, with SNR = 60 dB for wideband simulation, (a) 20 MHz, (b) 100 MHz, (c) 150 MHz, and (d) 200 MHz, for impulse response set IR-1, seed 0.\relax }}{39}{figure.caption.31}}
\newlabel{fig:AED_ideal_30v3000}{{4.8}{39}{Results of the AED algorithm with 250,000 data samples, with SNR = 60 dB for wideband simulation, (a) 20 MHz, (b) 100 MHz, (c) 150 MHz, and (d) 200 MHz, for impulse response set IR-1, seed 0.\relax }{figure.caption.31}{}}
\@writefile{lof}{\contentsline {figure}{\numberline {4.9}{\ignorespaces Results of the AED algorithm with 250,000 data samples, with SNR = 60 dB for wideband simulation, (a) 20 MHz, (b) 100 MHz, (c) 150 MHz, and (d) 200 MHz, for impulse response set IR-1, seed 0 using a normalized random start.\relax }}{40}{figure.caption.32}}
\newlabel{fig:AED_rStart_30v3000}{{4.9}{40}{Results of the AED algorithm with 250,000 data samples, with SNR = 60 dB for wideband simulation, (a) 20 MHz, (b) 100 MHz, (c) 150 MHz, and (d) 200 MHz, for impulse response set IR-1, seed 0 using a normalized random start.\relax }{figure.caption.32}{}}
\@writefile{toc}{\contentsline {section}{\numberline {4.2}Modified Algorithms}{41}{section.4.2}}
\newlabel{sec:modAlgs}{{4.2}{41}{Modified Algorithms}{section.4.2}{}}
\@writefile{lof}{\contentsline {figure}{\numberline {4.10}{\ignorespaces Results of the AED algorithm with 2,500 data samples, with SNR = 60 dB, at various sampling rates for wideband simulation, (a) 20 MHz, (b) 100 MHz, (c) 150 MHz, and (d) 200 MHz, for impulse response set IR-1, seed 0.\relax }}{41}{figure.caption.33}}
\newlabel{fig:AED_Nless_30v3000}{{4.10}{41}{Results of the AED algorithm with 2,500 data samples, with SNR = 60 dB, at various sampling rates for wideband simulation, (a) 20 MHz, (b) 100 MHz, (c) 150 MHz, and (d) 200 MHz, for impulse response set IR-1, seed 0.\relax }{figure.caption.33}{}}
\@writefile{lof}{\contentsline {figure}{\numberline {4.11}{\ignorespaces Results of the AED algorithm with 250,000 data samples, with SNR = 60 dB for narrowband simulation, (a) 20 MHz, (b) 100 MHz, (c) 150 MHz, and (d) 200 MHz, for impulse response set IR-1, seed 0.\relax }}{42}{figure.caption.34}}
\newlabel{fig:AED_narrowband_30v3000}{{4.11}{42}{Results of the AED algorithm with 250,000 data samples, with SNR = 60 dB for narrowband simulation, (a) 20 MHz, (b) 100 MHz, (c) 150 MHz, and (d) 200 MHz, for impulse response set IR-1, seed 0.\relax }{figure.caption.34}{}}
\@writefile{toc}{\contentsline {subsection}{\numberline {4.2.1}Modified System Model}{42}{subsection.4.2.1}}
\@writefile{lof}{\contentsline {figure}{\numberline {4.12}{\ignorespaces Results of the AED algorithm with 250,000 data samples, with SNR = 60 dB for wideband simulation, (a) 20 MHz, (b) 100 MHz, (c) 150 MHz, and (d) 200 MHz, for impulse response set IR-2, seed 0.\relax }}{43}{figure.caption.35}}
\newlabel{fig:AED_NITF_30v3000}{{4.12}{43}{Results of the AED algorithm with 250,000 data samples, with SNR = 60 dB for wideband simulation, (a) 20 MHz, (b) 100 MHz, (c) 150 MHz, and (d) 200 MHz, for impulse response set IR-2, seed 0.\relax }{figure.caption.35}{}}
\newlabel{eq:system_conj}{{4.9}{43}{Modified System Model}{equation.4.2.9}{}}
\@writefile{lof}{\contentsline {figure}{\numberline {4.13}{\ignorespaces Results of the AED algorithm with 250,000 data samples, with SNR = 20 dB for wideband simulation, (a) 20 MHz, (b) 100 MHz, (c) 150 MHz, and (d) 200 MHz, for impulse response set IR-1, seed 0.\relax }}{44}{figure.caption.36}}
\newlabel{fig:AED_rStart_30v3000}{{4.13}{44}{Results of the AED algorithm with 250,000 data samples, with SNR = 20 dB for wideband simulation, (a) 20 MHz, (b) 100 MHz, (c) 150 MHz, and (d) 200 MHz, for impulse response set IR-1, seed 0.\relax }{figure.caption.36}{}}
\@writefile{toc}{\contentsline {subsection}{\numberline {4.2.2}Complex Cross Relation}{44}{subsection.4.2.2}}
\@writefile{lof}{\contentsline {figure}{\numberline {4.14}{\ignorespaces Results of the AED algorithm with 30,000 data samples, with SNR = 60 dB for wideband at 200 MHz sampling rate with incorrect channel orders, $L$ (a) $L/2$, (b) $L - 10$, (c) $L*2$, and (d) $L + 10$, for impulse response set IR-1, seed 0.\relax }}{45}{figure.caption.37}}
\newlabel{fig:AED_wrongModel_30v3000}{{4.14}{45}{Results of the AED algorithm with 30,000 data samples, with SNR = 60 dB for wideband at 200 MHz sampling rate with incorrect channel orders, $L$ (a) $L/2$, (b) $L - 10$, (c) $L*2$, and (d) $L + 10$, for impulse response set IR-1, seed 0.\relax }{figure.caption.37}{}}
\newlabel{eq:cr-derivation_conj}{{4.10}{45}{Complex Cross Relation}{equation.4.2.10}{}}
\newlabel{eq:cr-matrix_conj}{{4.11}{45}{Complex Cross Relation}{equation.4.2.11}{}}
\newlabel{eq:cr-brief_conj}{{4.12}{46}{Complex Cross Relation}{equation.4.2.12}{}}
\@writefile{toc}{\contentsline {subsection}{\numberline {4.2.3}Modified Adaptive Eigenvalue Decomposition}{46}{subsection.4.2.3}}
\newlabel{eq:modAED_objective}{{4.13}{46}{Modified Adaptive Eigenvalue Decomposition}{equation.4.2.13}{}}
\newlabel{eq:modAED_lagrangian}{{4.14}{46}{Modified Adaptive Eigenvalue Decomposition}{equation.4.2.14}{}}
\citation{art:AdaptBESparse,art:IDinBDeconv,art:SparseBDeConv}
\citation{art:IDinBDeconv,art:AdaptiveTDEUsingFilterConstraints,thesis:SLvTDOA,art:SparseBDeConv,conf:ETDOARoomRefl}
\newlabel{eq:AED_update_lambda}{{4.15}{47}{Modified Adaptive Eigenvalue Decomposition}{equation.4.2.15}{}}
\newlabel{eq:AED_constraint}{{4.16}{47}{Modified Adaptive Eigenvalue Decomposition}{equation.4.2.16}{}}
\newlabel{eq:modAED_final_update}{{4.17}{47}{Modified Adaptive Eigenvalue Decomposition}{equation.4.2.17}{}}
\@writefile{toc}{\contentsline {subsection}{\numberline {4.2.4}Modified AED with Sparsity}{47}{subsection.4.2.4}}
\newlabel{eq:modAEDS_objective}{{4.18}{47}{Modified AED with Sparsity}{equation.4.2.18}{}}
\citation{web:subgradient}
\newlabel{eq:lagrangian_modAEDS}{{4.19}{48}{Modified AED with Sparsity}{equation.4.2.19}{}}
\newlabel{eq:modAEDS_derivative}{{4.20}{48}{Modified AED with Sparsity}{equation.4.2.20}{}}
\newlabel{eq:modAEDS_update_lambda}{{4.21}{48}{Modified AED with Sparsity}{equation.4.2.21}{}}
\newlabel{eq:modAEDS_constraint}{{4.22}{48}{Modified AED with Sparsity}{equation.4.2.22}{}}
\@writefile{lof}{\contentsline {figure}{\numberline {4.15}{\ignorespaces Results of the ModAED algorithm with 250,000 data samples, with SNR = 60 dB, at various sampling rates for wideband simulation, (a) 20 MHz, (b) 100 MHz, (c) 150 MHz, and (d) 200 MHz, for impulse response set IR-1\relax }}{49}{figure.caption.38}}
\newlabel{fig:modAED_ideal_30v3000}{{4.15}{49}{Results of the ModAED algorithm with 250,000 data samples, with SNR = 60 dB, at various sampling rates for wideband simulation, (a) 20 MHz, (b) 100 MHz, (c) 150 MHz, and (d) 200 MHz, for impulse response set IR-1\relax }{figure.caption.38}{}}
\@writefile{toc}{\contentsline {subsection}{\numberline {4.2.5}Modified Algorithms Implementations, Advantages, Disadvantages}{49}{subsection.4.2.5}}
\@writefile{lof}{\contentsline {figure}{\numberline {4.16}{\ignorespaces Results of the ModAEDS algorithm with 250,000 data samples, with SNR = 60 dB, at various sampling rates for wideband simulation, (a) 20 MHz, (b) 100 MHz, (c) 150 MHz, and (d) 200 MHz, for impulse response set IR-1\relax }}{50}{figure.caption.39}}
\newlabel{fig:modAEDS_ideal__30v3000}{{4.16}{50}{Results of the ModAEDS algorithm with 250,000 data samples, with SNR = 60 dB, at various sampling rates for wideband simulation, (a) 20 MHz, (b) 100 MHz, (c) 150 MHz, and (d) 200 MHz, for impulse response set IR-1\relax }{figure.caption.39}{}}
\citation{art:AdaptBESparse}
\@writefile{lof}{\contentsline {figure}{\numberline {4.17}{\ignorespaces Results of the ModAED algorithm with 250,000 data samples, with SNR = 60 dB, at various sampling rates for wideband simulation, (a) 20 MHz, (b) 100 MHz, (c) 150 MHz, and (d) 200 MHz, for impulse response set IR-2\relax }}{51}{figure.caption.40}}
\newlabel{fig:modAED_NITF_30v3000}{{4.17}{51}{Results of the ModAED algorithm with 250,000 data samples, with SNR = 60 dB, at various sampling rates for wideband simulation, (a) 20 MHz, (b) 100 MHz, (c) 150 MHz, and (d) 200 MHz, for impulse response set IR-2\relax }{figure.caption.40}{}}
\@writefile{lof}{\contentsline {figure}{\numberline {4.18}{\ignorespaces Results of the ModAED algorithm with 250,000 data samples, with SNR = 60 dB, at various sampling rates for narrowband simulation, (a) 20 MHz, (b) 100 MHz, (c) 150 MHz, and (d) 200 MHz, for impulse response set IR-1\relax }}{52}{figure.caption.41}}
\newlabel{fig:modAED_narrowband_30v3000}{{4.18}{52}{Results of the ModAED algorithm with 250,000 data samples, with SNR = 60 dB, at various sampling rates for narrowband simulation, (a) 20 MHz, (b) 100 MHz, (c) 150 MHz, and (d) 200 MHz, for impulse response set IR-1\relax }{figure.caption.41}{}}
\@writefile{lof}{\contentsline {figure}{\numberline {4.19}{\ignorespaces Results of the modAED algorithm with 250,000 data samples, with SNR = 20 dB, at various sampling rates for wideband simulation, (a) 20 MHz, (b) 100 MHz, (c) 150 MHz, and (d) 200 MHz, for impulse response set IR-1\relax }}{53}{figure.caption.42}}
\newlabel{fig:modAED_noisy_30v3000}{{4.19}{53}{Results of the modAED algorithm with 250,000 data samples, with SNR = 20 dB, at various sampling rates for wideband simulation, (a) 20 MHz, (b) 100 MHz, (c) 150 MHz, and (d) 200 MHz, for impulse response set IR-1\relax }{figure.caption.42}{}}
\@writefile{toc}{\contentsline {section}{\numberline {4.3}Algorithm Testing and Results}{53}{section.4.3}}
\newlabel{sec:AlgTesting_ch4}{{4.3}{53}{Algorithm Testing and Results}{section.4.3}{}}
\@writefile{lof}{\contentsline {figure}{\numberline {4.20}{\ignorespaces Results of the ModAED algorithm with 2,500 data samples, with SNR = 60 dB, at various sampling rates for wideband simulation, (a) 20 MHz, (b) 100 MHz, (c) 150 MHz, and (d) 200 MHz, for impulse response set IR-1\relax }}{54}{figure.caption.43}}
\newlabel{fig:modAED_Nless_30v3000}{{4.20}{54}{Results of the ModAED algorithm with 2,500 data samples, with SNR = 60 dB, at various sampling rates for wideband simulation, (a) 20 MHz, (b) 100 MHz, (c) 150 MHz, and (d) 200 MHz, for impulse response set IR-1\relax }{figure.caption.43}{}}
\@writefile{toc}{\contentsline {subsection}{\numberline {4.3.1}Simulation}{54}{subsection.4.3.1}}
\@writefile{lof}{\contentsline {figure}{\numberline {4.21}{\ignorespaces Results of the ModAED algorithm with 250,000 data samples, with SNR = 60 dB for wideband simulation at 200 MHz sampling rate for incorrect estimates of transfer function length, $L$, (a) $L/2$, (b) $L - 10$, (c) $L*2$, and (d) $L + 10$, for impulse response set IR-1\relax }}{55}{figure.caption.44}}
\newlabel{fig:modAED_wrongModel_30v3000}{{4.21}{55}{Results of the ModAED algorithm with 250,000 data samples, with SNR = 60 dB for wideband simulation at 200 MHz sampling rate for incorrect estimates of transfer function length, $L$, (a) $L/2$, (b) $L - 10$, (c) $L*2$, and (d) $L + 10$, for impulse response set IR-1\relax }{figure.caption.44}{}}
\@writefile{lof}{\contentsline {figure}{\numberline {4.22}{\ignorespaces Results of the ModAED algorithm with 250,000 data samples, with SNR = 60 dB, at various sampling rates for wideband simulation, (a) 20 MHz, (b) 100 MHz, (c) 150 MHz, and (d) 200 MHz, for impulse response set IR-1 and normalized random initial estimates after 100 iterations\relax }}{56}{figure.caption.45}}
\newlabel{fig:modAED_rStart_30v3000}{{4.22}{56}{Results of the ModAED algorithm with 250,000 data samples, with SNR = 60 dB, at various sampling rates for wideband simulation, (a) 20 MHz, (b) 100 MHz, (c) 150 MHz, and (d) 200 MHz, for impulse response set IR-1 and normalized random initial estimates after 100 iterations\relax }{figure.caption.45}{}}
\@writefile{lof}{\contentsline {figure}{\numberline {4.23}{\ignorespaces Results of the ModAED and ModAEDS algorithms with 2,500 data samples, with SNR = 60 dB, for wideband simulation at 100 MHz sampling rate for impulse response set IR-1\relax }}{57}{figure.caption.46}}
\newlabel{fig:modAEDvmodAEDS_Nless_30v3000}{{4.23}{57}{Results of the ModAED and ModAEDS algorithms with 2,500 data samples, with SNR = 60 dB, for wideband simulation at 100 MHz sampling rate for impulse response set IR-1\relax }{figure.caption.46}{}}
\@writefile{lof}{\contentsline {figure}{\numberline {4.24}{\ignorespaces Results of the ModAED and ModAEDS algorithms with 250,000 data samples, with SNR = 20 dB, for wideband simulation at 150 MHz sampling rate for impulse response set IR-1\relax }}{58}{figure.caption.47}}
\newlabel{fig:modAEDvmodAEDS_noisy_30v3000}{{4.24}{58}{Results of the ModAED and ModAEDS algorithms with 250,000 data samples, with SNR = 20 dB, for wideband simulation at 150 MHz sampling rate for impulse response set IR-1\relax }{figure.caption.47}{}}
\@writefile{lof}{\contentsline {figure}{\numberline {4.25}{\ignorespaces Results of the ModAED and ModAEDS algorithms with 250,000 data samples, with SNR = 60 dB, for wideband simulation at 100 MHz sampling rate for incorrect estimates of model order, $L = L/2$, for impulse response set IR-1\relax }}{59}{figure.caption.48}}
\newlabel{fig:modAEDvmodAEDS_wrongModel_30v3000}{{4.25}{59}{Results of the ModAED and ModAEDS algorithms with 250,000 data samples, with SNR = 60 dB, for wideband simulation at 100 MHz sampling rate for incorrect estimates of model order, $L = L/2$, for impulse response set IR-1\relax }{figure.caption.48}{}}
\newlabel{tab:preExist_Algs_Results_ideal}{{\caption@xref {tab:preExist_Algs_Results_ideal}{ on input line 65}}{60}{Simulation}{table.caption.49}{}}
\@writefile{lot}{\contentsline {table}{\numberline {4.1}{\ignorespaces \relax }}{60}{table.caption.49}}
\@writefile{lot}{\contentsline {table}{\numberline {4.2}{\ignorespaces \relax }}{61}{table.caption.50}}
\newlabel{tab:preExist_Algs_Results_narrow}{{4.2}{61}{\relax }{table.caption.50}{}}
\@writefile{lot}{\contentsline {table}{\numberline {4.3}{\ignorespaces \relax }}{62}{table.caption.51}}
\newlabel{tab:preExist_Algs_Results_noisy}{{4.3}{62}{\relax }{table.caption.51}{}}
\@writefile{lot}{\contentsline {table}{\numberline {4.4}{\ignorespaces \relax }}{63}{table.caption.52}}
\newlabel{tab:preExist_Algs_Results_lessSamples}{{4.4}{63}{\relax }{table.caption.52}{}}
\newlabel{tab:preExist_Algs_Results_wrongModel_order_under1}{{\caption@xref {tab:preExist_Algs_Results_wrongModel_order_under1}{ on input line 281}}{64}{Simulation}{table.caption.53}{}}
\@writefile{lot}{\contentsline {table}{\numberline {4.5}{\ignorespaces \relax }}{64}{table.caption.53}}
\newlabel{tab:preExist_Algs_Results_wrongModel_order_under2}{{\caption@xref {tab:preExist_Algs_Results_wrongModel_order_under2}{ on input line 335}}{65}{Simulation}{table.caption.54}{}}
\@writefile{lot}{\contentsline {table}{\numberline {4.6}{\ignorespaces \relax }}{65}{table.caption.54}}
\newlabel{tab:preExist_Algs_Results_wrongModel_order_over1}{{\caption@xref {tab:preExist_Algs_Results_wrongModel_order_over1}{ on input line 389}}{66}{Simulation}{table.caption.55}{}}
\@writefile{lot}{\contentsline {table}{\numberline {4.7}{\ignorespaces \relax }}{66}{table.caption.55}}
\@writefile{lot}{\contentsline {table}{\numberline {4.8}{\ignorespaces \relax }}{67}{table.caption.56}}
\newlabel{tab:preExist_Algs_Results_wrongModel_order_over2}{{4.8}{67}{\relax }{table.caption.56}{}}
\@writefile{lot}{\contentsline {table}{\numberline {4.9}{\ignorespaces \relax }}{68}{table.caption.57}}
\newlabel{tab:preExist_Algs_Results_randomStart}{{4.9}{68}{\relax }{table.caption.57}{}}
\@writefile{toc}{\contentsline {subsection}{\numberline {4.3.2}Real World Data Testing}{69}{subsection.4.3.2}}
\@setckpt{Chapters/Chapter_4/ch_4_cross_relation_methods}{
\setcounter{page}{70}
\setcounter{equation}{23}
\setcounter{enumi}{4}
\setcounter{enumii}{0}
\setcounter{enumiii}{0}
\setcounter{enumiv}{0}
\setcounter{footnote}{3}
\setcounter{mpfootnote}{0}
\setcounter{part}{0}
\setcounter{chapter}{4}
\setcounter{section}{3}
\setcounter{subsection}{2}
\setcounter{subsubsection}{0}
\setcounter{paragraph}{0}
\setcounter{subparagraph}{0}
\setcounter{figure}{25}
\setcounter{table}{9}
\setcounter{savemainpageno}{0}
\setcounter{savefrontpageno}{20}
\setcounter{savetotalpageno}{0}
\setcounter{float@type}{16}
\setcounter{alg}{0}
\setcounter{parentequation}{0}
\setcounter{lstnumber}{1}
\setcounter{ContinuedFloat}{0}
\setcounter{subfigure}{2}
\setcounter{subtable}{0}
\setcounter{Item}{6}
\setcounter{Hfootnote}{8}
\setcounter{bookmark@seq@number}{40}
\setcounter{lstlisting}{0}
\setcounter{section@level}{2}
}
