\relax 
\citation{bib:benesty}
\citation{bib:MIMO_Book}
\citation{bib:MAP_TDE}
\citation{bib:benesty}
\citation{bib:BSN_CID}
\citation{bib:TDOA_ML}
\citation{bib:SIMO_Sparse}
\citation{bib:kailath}
\providecommand \oddpage@label [2]{}
\@writefile{toc}{\contentsline {section}{\numberline {I}Introduction}{1}}
\@writefile{toc}{\contentsline {section}{\numberline {II}Cross Relation Methods}{1}}
\newlabel{eq:system}{{1}{1}}
\newlabel{eq:CR}{{2}{1}}
\newlabel{eq:5}{{3}{1}}
\citation{bib:benesty}
\citation{bib:SIMO_Sparse}
\citation{bib:BSN_CID}
\citation{bib:ID_BDeconv}
\citation{bib:SIMO_Sparse}
\citation{bib:BSN_CID}
\citation{bib:BSN_CID}
\newlabel{eq:CR_brief}{{4}{2}}
\@writefile{toc}{\contentsline {section}{\numberline {III}Adaptive Cross Channel Estimation Algorithm}{2}}
\newlabel{eq:optimization}{{5}{2}}
\@writefile{toc}{\contentsline {section}{\numberline {IV}Adaptive Cross Channel Identification Algorithm with Sparsity Constraint}{2}}
\newlabel{eq:optimization_sparse}{{7}{2}}
\newlabel{eq:AED_4}{{8}{2}}
\@writefile{toc}{\contentsline {section}{\numberline {V}Adaptive Cross Channel Identification with Sparse Shift-Suppression (AXIS) Algorithm}{2}}
\newlabel{eq:AED_5}{{10}{2}}
\newlabel{eq:constrainst_0}{{11}{2}}
\citation{bib:SIMO_Sparse}
\citation{bib:BSN_CID}
\citation{bib:ETDOA_L1}
\citation{bib:SIMO_Sparse}
\citation{bib:BSN_CID}
\citation{bib:ETDOA_L1}
\bibcite{bib:kailath}{1}
\bibcite{bib:benesty}{2}
\bibcite{bib:SIMO_Sparse}{3}
\bibcite{bib:BSN_CID}{4}
\newlabel{eq:constraint_1}{{12}{3}}
\newlabel{eq:AED_6}{{13}{3}}
\newlabel{eq:AED_7}{{14}{3}}
\@writefile{toc}{\contentsline {section}{\numberline {VI}Results and Discussion}{3}}
\@writefile{toc}{\contentsline {section}{\numberline {VII}Conclusion}{3}}
\@writefile{toc}{\contentsline {section}{References}{3}}
\bibcite{bib:MIMO_Book}{5}
\bibcite{bib:ID_BDeconv}{6}
\bibcite{bib:subgradient}{7}
\bibcite{bib:ETDOA_L1}{8}
\bibcite{bib:BCI_reverb}{9}
\bibcite{bib:MAP_TDE}{10}
\bibcite{bib:MCBI_Overview}{11}
\bibcite{bib:BSI_Overview}{12}
\bibcite{bib:TDOA_ML}{13}
\@writefile{lof}{\contentsline {figure}{\numberline {1}{\ignorespaces A comparison of (a) the simulated transfer functions, with (b) the transfer function estimates obtained using the AXIS algorithm for two receivers.}}{4}}
\newlabel{fig:AXIS_Noise}{{1}{4}}
