% This file was created by matlab2tikz.
%
%The latest updates can be retrieved from
%  http://www.mathworks.com/matlabcentral/fileexchange/22022-matlab2tikz-matlab2tikz
%where you can also make suggestions and rate matlab2tikz.
%
\definecolor{mycolor1}{rgb}{0.00000,0.44700,0.74100}%
\definecolor{mycolor2}{rgb}{0.85000,0.32500,0.09800}%
%
\begin{tikzpicture}

\begin{axis}[%
width=1.935in,
height=3.2in,
at={(0.758in,0.512in)},
scale only axis,
xmin=0,
xmax=100,
xlabel style={font=\color{white!15!black}, align=center},
xlabel={Sample Index\\[1ex](a) Actual},
ymin=0,
ymax=0.8,
axis background/.style={fill=white},
legend style={legend cell align=left, align=left, draw=white!15!black}
]
\addplot [color=mycolor1]
  table[row sep=crcr]{%
1	0.0129538532238509\\
2	0.0157278361368032\\
3	0.0191571608138802\\
4	0.0255923724575832\\
5	0.13057228915146\\
6	0.790598288418654\\
7	0.353827376030412\\
8	0.122418300101408\\
9	0.229084031593214\\
10	0.118243319340586\\
11	0.168368944374742\\
12	0.0163735399430034\\
13	0.0206849651924714\\
14	0.0262956791329175\\
15	0.151852199158411\\
16	0.152742171024721\\
17	0.110720168991091\\
18	0.123153341936425\\
19	0.125894992669405\\
20	0.0746063601393855\\
21	0.0186653655418556\\
22	0.0250643995407145\\
23	0.00974111680189212\\
24	0.0779603151980655\\
25	0.0307172164925168\\
26	0.0208261989317089\\
27	0.0752294272267323\\
28	0.0144668561504321\\
29	0.0123363814366294\\
30	0.0122598477519198\\
31	0.0155350862563734\\
32	0.0418132873290243\\
33	0.0573531042253119\\
34	0.0129196281383963\\
35	0.00895205820328393\\
36	0.00773833898796016\\
37	0.00748874666873079\\
38	0.00800183229182001\\
39	0.00975691772335202\\
40	0.0159028691535576\\
41	0.0384196893347397\\
42	0.0314876195631017\\
43	0.010044387559483\\
44	0.00616684731235577\\
45	0.00479175222070565\\
46	0.00437058826387638\\
47	0.00459828758875363\\
48	0.005652668265702\\
49	0.0087419213913912\\
50	0.0260232215344717\\
51	0.0227474232041571\\
52	0.00780973732786325\\
53	0.00473741257906885\\
54	0.00342802499502385\\
55	0.0027071673231627\\
56	0.00225206144341568\\
57	0.001938695300116\\
58	0.0017095024412107\\
59	0.00153423834592061\\
60	0.00139554782547471\\
61	0.00128278764759102\\
62	0.00118908147787501\\
63	0.00110979542168412\\
64	0.0010416958422628\\
65	0.000982458809342531\\
66	0.000930371514391801\\
67	0.000884143640819322\\
68	0.000842784330423255\\
69	0.000805519676312384\\
70	0.000771736027647173\\
71	0.000740940180026644\\
72	0.000712730877370764\\
73	0.000686778053613698\\
74	0.000662807472321918\\
75	0.000640589196550035\\
76	0.000619928819626308\\
77	0.000600660714929267\\
78	0.000582642781753098\\
79	0.000565752313398667\\
80	0.000549882716621264\\
81	0.000534940883763175\\
82	0.000520845070183068\\
83	0.000507523166470246\\
84	0.00049491128175685\\
85	0.000482952574159901\\
86	0.000471596279030148\\
87	0.000460796896662062\\
88	0.000450513509420678\\
89	0.000440709204573525\\
90	0.000431350583981088\\
91	0.000422407345569488\\
92	0.000413851924447944\\
93	0.000405659183842499\\
94	0.000397806147840094\\
95	0.000390271769389961\\
96	0.000383036728166029\\
97	0.00037608325382988\\
98	0.000369394970986201\\
99	0\\
100	0\\
};
\addlegendentry{$\mathbf{h_1}$}

\addplot [color=mycolor2]
  table[row sep=crcr]{%
1	0.0089849246842337\\
2	0.00955586856755047\\
3	0.0102000386246561\\
4	0.0109303448856752\\
5	0.0117611964369887\\
6	0.0127063869488681\\
7	0.013771787577086\\
8	0.0149309370172528\\
9	0.0160361992437888\\
10	0.0164244433772478\\
11	0.0125495760932937\\
12	0.664036312008792\\
13	0.0850193487524877\\
14	0.131745330322907\\
15	0.128609472347745\\
16	0.0491456993245761\\
17	0.382620258465008\\
18	0.593903782219221\\
19	0.0828507132426594\\
20	0.0515719011856109\\
21	0.0378681896084267\\
22	0.030017391607479\\
23	0.0248946679351547\\
24	0.0212776230780299\\
25	0.0185834085331559\\
26	0.0164971010401923\\
27	0.0148330326444681\\
28	0.0134744221797144\\
29	0.0123440432735997\\
30	0.0113887411741417\\
31	0.0105707107326117\\
32	0.00986231811042315\\
33	0.00924289003134423\\
34	0.00869664894813821\\
35	0\\
36	0\\
37	0\\
38	0\\
39	0\\
40	0\\
41	0\\
42	0\\
43	0\\
44	0\\
45	0\\
46	0\\
47	0\\
48	0\\
49	0\\
50	0\\
51	0\\
52	0\\
53	0\\
54	0\\
55	0\\
56	0\\
57	0\\
58	0\\
59	0\\
60	0\\
61	0\\
62	0\\
63	0\\
64	0\\
65	0\\
66	0\\
67	0\\
68	0\\
69	0\\
70	0\\
71	0\\
72	0\\
73	0\\
74	0\\
75	0\\
76	0\\
77	0\\
78	0\\
79	0\\
80	0\\
81	0\\
82	0\\
83	0\\
84	0\\
85	0\\
86	0\\
87	0\\
88	0\\
89	0\\
90	0\\
91	0\\
92	0\\
93	0\\
94	0\\
95	0\\
96	0\\
97	0\\
98	0\\
99	0\\
100	0\\
};
\addlegendentry{$\mathbf{h_{2}}$}

\end{axis}

\begin{axis}[%
width=1.935in,
height=3.2in,
at={(3.327in,0.512in)},
scale only axis,
xmin=0,
xmax=100,
xlabel style={font=\color{white!15!black}, align=center},
xlabel={Sample Index\\[1ex](b) Estimated},
ymin=0,
ymax=1,
axis background/.style={fill=white},
legend style={legend cell align=left, align=left, draw=white!15!black}
]
\addplot [color=mycolor1]
  table[row sep=crcr]{%
0	3.44069258390836e-05\\
1	0.000115299915047658\\
2	0.000503894006669737\\
3	0.00142463108404442\\
4	4.11499580507377e-05\\
5	0.000179853031687351\\
6	0.00358360433066518\\
7	0.00011458735353952\\
8	0.00109534673818255\\
9	9.18285280847255e-05\\
10	3.86693571921208e-05\\
11	0.0114662707185838\\
12	0.00690058800501043\\
13	7.24812703326722e-05\\
14	6.87021463713901e-05\\
15	0.00074773540060285\\
16	0.000252488768097607\\
17	6.78261112826683e-05\\
18	0.000552425720536573\\
19	0.00679909149942151\\
20	0.00907147456538793\\
21	0.00773630541924736\\
22	0.00949727394417066\\
23	0.00810895951767876\\
24	0.021598500396019\\
25	0.012139593402011\\
26	0.0274806727846034\\
27	0.0078215546312036\\
28	0.0245319216516436\\
29	0.0172859067952306\\
30	0.0282299259375396\\
31	0.0595286981401152\\
32	0.114847838250116\\
33	0.0608212765131411\\
34	0.00505049123135734\\
35	0.0548287619834655\\
36	0.089564677557699\\
37	0.370463645983208\\
38	0.579378040206982\\
39	0.06791567841014\\
40	0.0610523946532475\\
41	0.0401117685084942\\
42	0.1133575928043\\
43	0.545886999980241\\
44	0.143135466749917\\
45	0.106136530637254\\
46	0.175024610301996\\
47	0.124890132582956\\
48	0.117172772009306\\
49	0.130564037728363\\
50	0.0710956417194707\\
51	0.0411685162692294\\
52	0.116572664735018\\
53	0.0868845403986958\\
54	0.0374525822082686\\
55	0.0990668580118005\\
56	0.0858336436642237\\
57	0.0501797587987338\\
58	0.0610684764586578\\
59	0.0129951581755835\\
60	0.00388135793301631\\
61	0.0656704984745795\\
62	0.0259032190150355\\
63	0.0135243010446883\\
64	0.0170735960996206\\
65	0.00762536636867397\\
66	0.0179304863174836\\
67	0.00360685819616869\\
68	0.0258041089058482\\
69	0.0295871441189187\\
70	0.0235320674371947\\
71	0.00359195812660481\\
72	0.0107997907992967\\
73	0.0210744974923399\\
74	0.00358632404213336\\
75	0.00212867822818958\\
76	0.00123629354034364\\
77	0.00593146558806557\\
78	0.0161699796245335\\
79	0.00664095952485619\\
80	0.00164902208025355\\
81	4.3280722605189e-05\\
82	0.0199481107742463\\
83	0.00267421211491651\\
84	0.00259031587291975\\
85	0.000211034024569454\\
86	0.00145063833823822\\
87	0.0100327914589546\\
88	0.00823091180322487\\
89	0.0010876900821751\\
90	0.00141645904495403\\
91	0.000282244571491546\\
92	2.75920751622886e-05\\
93	0.000226119310249435\\
94	0.00063930857534319\\
95	7.17039736647715e-05\\
96	4.52013346482817e-05\\
97	7.31354979392922e-06\\
98	2.23166354179161e-05\\
99	7.35311726509325e-05\\
};
\addlegendentry{$\mathbf{\hat{h}_{1}}$}

\addplot [color=mycolor2]
  table[row sep=crcr]{%
0	0.000162444284112116\\
1	1.66426554554241e-05\\
2	0.000234362345344667\\
3	0.000107800018231978\\
4	6.21303090952264e-05\\
5	0.00963939721144368\\
6	0.000177960999005409\\
7	0.000885252408972492\\
8	0.0015635648342174\\
9	0.00140182756826466\\
10	0.000433520415081254\\
11	0.00251487397295844\\
12	0.00166200527282874\\
13	0.00115039644618078\\
14	0.00799466990234214\\
15	0.00761555749488013\\
16	0.00396637822013178\\
17	0.00829860658561434\\
18	0.00106878675891649\\
19	7.66602631476632e-05\\
20	0.000557471099453466\\
21	0.00144337685024308\\
22	0.0136306863533125\\
23	0.0287820741513487\\
24	0.00713529806106739\\
25	0.00677647765712676\\
26	0.000728653722724538\\
27	0.0043187488959543\\
28	0.0192461223377051\\
29	0.0144221661179456\\
30	0.0113886450017012\\
31	0.0188953066940284\\
32	0.006112337828866\\
33	0.00803823436063887\\
34	0.00312532288907511\\
35	0.00326757313136188\\
36	0.0611855009743823\\
37	0.0669315095719915\\
38	0.0561322114990423\\
39	4.73153852498884e-06\\
40	0.0658561860466771\\
41	0.028033256785089\\
42	0.00947693657862002\\
43	0.0893036399939282\\
44	0.108082652361348\\
45	0.0216498783133011\\
46	0.117701987308666\\
47	0.0177709938331957\\
48	0.0134782783915152\\
49	0.94275853981266\\
50	0.0151343817301313\\
51	0.020538143621769\\
52	0.116511594060241\\
53	0.0229563527587982\\
54	0.104297668850481\\
55	0.0894642474508299\\
56	0.0101839281028258\\
57	0.0298235211013304\\
58	0.0671991488458987\\
59	0.0513861735053068\\
60	0.0595577089959986\\
61	0.0675839275255697\\
62	0.0658253988617766\\
63	0.00405168072454341\\
64	0.000815376747702935\\
65	0.0101062893639875\\
66	0.00671756209021974\\
67	0.0185819091653277\\
68	0.0132945980015638\\
69	0.0175061344388247\\
70	0.0183344907645212\\
71	0.00677780651457612\\
72	0.00190799668663244\\
73	0.00923586868854596\\
74	0.00752802034368513\\
75	0.0305254744382906\\
76	0.0163292852262352\\
77	0.000621771297744762\\
78	0.00269879550682369\\
79	0.000106646727598103\\
80	0.00108531382640606\\
81	0.00863999730534077\\
82	0.00479210899561125\\
83	0.0107431811781035\\
84	0.0112907177230674\\
85	0.00457263245515094\\
86	0.00175607220268077\\
87	0.0016853799179262\\
88	0.00080554650820471\\
89	0.00220166166087631\\
90	0.000730474050777435\\
91	0.00020590111784958\\
92	8.33750109944091e-05\\
93	0.0130812349409766\\
94	0.0010347827146349\\
95	0.000623249236057816\\
96	9.53030561678635e-05\\
97	6.85572084356284e-05\\
98	0.000171100592795726\\
99	8.12705717324258e-05\\
};
\addlegendentry{$\mathbf{\hat{h}_{2}}$}

\end{axis}
\end{tikzpicture}%