% This file was created by matlab2tikz.
%
%The latest updates can be retrieved from
%  http://www.mathworks.com/matlabcentral/fileexchange/22022-matlab2tikz-matlab2tikz
%where you can also make suggestions and rate matlab2tikz.
%
\definecolor{mycolor1}{rgb}{0.00000,0.44700,0.74100}%
\definecolor{mycolor2}{rgb}{0.85000,0.32500,0.09800}%
%
\begin{tikzpicture}

\begin{axis}[%
width=1.935in,
height=3.2in,
at={(0.758in,0.512in)},
scale only axis,
xmin=0,
xmax=100,
xlabel style={font=\color{white!15!black}, align=center},
xlabel={Sample Index\\[1ex](a) Actual},
ymin=0,
ymax=1,
axis background/.style={fill=white},
legend style={legend cell align=left, align=left, draw=white!15!black}
]
\addplot [color=mycolor1]
  table[row sep=crcr]{%
1	0.0216926152020066\\
2	0.0241183965289278\\
3	0.0267807478156139\\
4	0.0354280601095614\\
5	0.221828667704926\\
6	0.648965745595675\\
7	0.241270440438586\\
8	0.0776642628644082\\
9	0.0581044824071981\\
10	0.0611489366831747\\
11	0.0798140419847986\\
12	0.062735544320507\\
13	0.113011040425493\\
14	0.377485382687519\\
15	0.331649248845691\\
16	0.18615433793772\\
17	0.146493252817741\\
18	0.0847190801249442\\
19	0.0628278567269286\\
20	0.0148364296169451\\
21	0.0250471739922352\\
22	0.0344835915107885\\
23	0.116323790948646\\
24	0.279210940275387\\
25	0.101045410677318\\
26	0.0464379665429307\\
27	0.041398863205924\\
28	0.0263226969199998\\
29	0.0221848789960478\\
30	0.0197642774213948\\
31	0.0186496517239344\\
32	0.0219339353832985\\
33	0.018414044189717\\
34	0.00937919788338426\\
35	0.0100670783096178\\
36	0.0098135024549665\\
37	0.00937197330245933\\
38	0.00884810306396591\\
39	0.00821513429074651\\
40	0.00732026654240377\\
41	0.00945021173361951\\
42	0.0127255218727005\\
43	0.00946415089832864\\
44	0.00862800399957479\\
45	0.00816256372793386\\
46	0.00784857678072338\\
47	0.00764005346579914\\
48	0.00755773656417068\\
49	0.00776075567554332\\
50	0.00986938420958768\\
51	0.00319649311885596\\
52	0.00500292172051245\\
53	0.00524752973649041\\
54	0.00526667690567613\\
55	0.00521575322380608\\
56	0.00513704586881206\\
57	0.00504647235310817\\
58	0.00495116794332671\\
59	0.00485468351773321\\
60	0.00475890010347922\\
61	0.00466484578572566\\
62	0.00457308311118313\\
63	0.00448390798586452\\
64	0.0043974582605137\\
65	0.00431377595094964\\
66	0.00423284428954661\\
67	0.00415461047403326\\
68	0.00407899997367922\\
69	0.00400592569101114\\
70	0.00393529390404367\\
71	0.0038670081481966\\
72	0.00380097175500134\\
73	0.00373708950172093\\
74	0.00367526866536834\\
75	0.00361541967416126\\
76	0.00355745648532918\\
77	0.00350129677649243\\
78	0.00344686201027152\\
79	0.00339407741330312\\
80	0.00334287189828014\\
81	0.0032931779490063\\
82	0.00324493148246751\\
83	0.00319807169773062\\
84	0.003152540918526\\
85	0.00310828443427485\\
86	0.00306525034282854\\
87	0.00302338939712195\\
88	0.00298265485717807\\
89	0.00294300234835571\\
90	0.00290438972634362\\
91	0.0028667769491261\\
92	0.00283012595595264\\
93	0.0027944005532083\\
94	0.00275956630699144\\
95	0.0027255904421446\\
96	0.00269244174744817\\
97	0.00266009048666622\\
98	0.00262850831512411\\
99	0\\
100	0\\
};
\addlegendentry{$\mathbf{h_1}$}

\addplot [color=mycolor2]
  table[row sep=crcr]{%
1	0.00108294891904515\\
2	0.00115806441999571\\
3	0.00125656841390277\\
4	0.00139359850086552\\
5	0.00159676508941691\\
6	0.00191784013184518\\
7	0.00245777585368985\\
8	0.00342819163679349\\
9	0.00533730915065768\\
10	0.00974214709050295\\
11	0.0244449264542886\\
12	0.973731186814765\\
13	0.0500739614470277\\
14	0.0426946282907342\\
15	0.00536788790071817\\
16	0.0362080823589407\\
17	0.176144271962331\\
18	0.115663212635922\\
19	0.0234963057121139\\
20	0.0138738178597906\\
21	0.00966054585381422\\
22	0.00731818549393035\\
23	0.00584139575065055\\
24	0.0048330083027894\\
25	0.00410500747522503\\
26	0.00355723928842746\\
27	0.00313167065616096\\
28	0.00279247304593218\\
29	0.00251639833876938\\
30	0.00228774297450139\\
31	0.00209554142652578\\
32	0.00193191967393617\\
33	0.00179108704155738\\
34	0.00166869616651274\\
35	0\\
36	0\\
37	0\\
38	0\\
39	0\\
40	0\\
41	0\\
42	0\\
43	0\\
44	0\\
45	0\\
46	0\\
47	0\\
48	0\\
49	0\\
50	0\\
51	0\\
52	0\\
53	0\\
54	0\\
55	0\\
56	0\\
57	0\\
58	0\\
59	0\\
60	0\\
61	0\\
62	0\\
63	0\\
64	0\\
65	0\\
66	0\\
67	0\\
68	0\\
69	0\\
70	0\\
71	0\\
72	0\\
73	0\\
74	0\\
75	0\\
76	0\\
77	0\\
78	0\\
79	0\\
80	0\\
81	0\\
82	0\\
83	0\\
84	0\\
85	0\\
86	0\\
87	0\\
88	0\\
89	0\\
90	0\\
91	0\\
92	0\\
93	0\\
94	0\\
95	0\\
96	0\\
97	0\\
98	0\\
99	0\\
100	0\\
};
\addlegendentry{$\mathbf{h_{2}}$}

\end{axis}

\begin{axis}[%
width=1.935in,
height=3.2in,
at={(3.327in,0.512in)},
scale only axis,
xmin=0,
xmax=100,
xlabel style={font=\color{white!15!black}, align=center},
xlabel={Sample Index\\[1ex](b) Estimated},
ymin=0,
ymax=1,
axis background/.style={fill=white},
legend style={legend cell align=left, align=left, draw=white!15!black}
]
\addplot [color=mycolor1]
  table[row sep=crcr]{%
0	0.00238815315466627\\
1	0.0011135323294794\\
2	0.00263293147688488\\
3	0.00122956128790918\\
4	0.00159234101748674\\
5	0.00217783799732646\\
6	0.00160544331531581\\
7	0.000428015650496186\\
8	0.00323295616702545\\
9	0.00507434343547567\\
10	0.00254036247622888\\
11	0.00256416744537625\\
12	0.00235774436583372\\
13	0.00368120850150418\\
14	0.00538152742171358\\
15	0.00808141612078007\\
16	0.00894151212374271\\
17	0.00474920595145643\\
18	0.00507914707639163\\
19	0.00194621020338027\\
20	0.000466270298230343\\
21	0.00154364424392569\\
22	0.00877991314445087\\
23	0.00474322280203491\\
24	0.0195536602879093\\
25	0.0428178255482364\\
26	0.0030995744019316\\
27	0.0158134760984833\\
28	0.00372431505214058\\
29	0.00842683881586808\\
30	0.00927818696574743\\
31	0.0135872122840281\\
32	0.0373409999610977\\
33	0.079588175854771\\
34	0.049641481734629\\
35	0.0583708082494237\\
36	0.0383590330453693\\
37	0.0239889853907884\\
38	0.0799622165715131\\
39	0.0224485953263738\\
40	0.0428304743051876\\
41	0.0107293250791747\\
42	0.177128334608346\\
43	0.667696921890329\\
44	0.206246917183608\\
45	0.0313264915308031\\
46	0.113909429931301\\
47	0.084284024295333\\
48	0.125858882996361\\
49	0.033238018080924\\
50	0.0998179301095508\\
51	0.369303903719062\\
52	0.28810362168313\\
53	0.187517634476063\\
54	0.123878212556559\\
55	0.0818112517886562\\
56	0.0794557033889145\\
57	0.0577286577534211\\
58	0.0424990027057325\\
59	0.0717038639643475\\
60	0.140493988038626\\
61	0.265117832512546\\
62	0.0665480253102277\\
63	0.00876190821595959\\
64	0.0156219890346575\\
65	0.0182100708803851\\
66	0.0157455901333942\\
67	0.0349987594889475\\
68	0.0530773730882209\\
69	0.0738521342243071\\
70	0.035691935030686\\
71	0.0221134075759976\\
72	0.00873548958305028\\
73	0.0252883653252152\\
74	0.0187455711800582\\
75	0.0179214252736963\\
76	0.0100600957653111\\
77	0.0176492053095198\\
78	0.0254009236257789\\
79	0.0173161165676459\\
80	0.0178000799060972\\
81	0.0066378207706541\\
82	0.00698226664255606\\
83	0.0105571578313113\\
84	0.0128006617954063\\
85	0.0115767271964062\\
86	0.0170466030331535\\
87	0.0158808191921775\\
88	0.00412054351396777\\
89	0.0096847655275528\\
90	0.00838415431872592\\
91	0.00752630382425169\\
92	0.00657883314126448\\
93	0.00516891883477398\\
94	0.00501734942155905\\
95	0.00589254938448426\\
96	0.00920137086832577\\
97	0.0103986112731693\\
98	0.0068133599886377\\
99	0.00619538063450046\\
};
\addlegendentry{$\mathbf{\hat{h}_{1}}$}

\addplot [color=mycolor2]
  table[row sep=crcr]{%
0	0.00259978445226369\\
1	0.003333391299534\\
2	0.00273862405600109\\
3	0.00139666440705355\\
4	0.00225442460105444\\
5	0.00439615967526392\\
6	0.00468807716225542\\
7	0.00275108655997922\\
8	0.00242542284422167\\
9	0.001010728878368\\
10	0.00169994764492233\\
11	0.00293962401052473\\
12	0.00405194050064668\\
13	0.0039522066103482\\
14	0.0017440750154982\\
15	0.00883078290063088\\
16	0.006488754407869\\
17	0.00692224928792643\\
18	0.00537656456733456\\
19	0.00536236649804244\\
20	0.00480066180597204\\
21	0.0158547133454788\\
22	0.0110296216839874\\
23	0.0208910534095384\\
24	0.0128598216261056\\
25	0.00304771524028227\\
26	0.00460558737291202\\
27	0.002758836253357\\
28	0.00600146906152435\\
29	0.00909283995284277\\
30	0.0190030057553215\\
31	0.0826619421338051\\
32	0.0201655577884796\\
33	0.0305540963733176\\
34	0.0162359281411842\\
35	0.0131589619505993\\
36	0.0100862279519221\\
37	0.00263788885062007\\
38	0.0609473858180986\\
39	0.0776760541333099\\
40	0.0331970718248907\\
41	0.128890316679207\\
42	0.00782818195579898\\
43	0.0215034816090153\\
44	0.0400310011699236\\
45	0.0260877604628433\\
46	0.0298109266154122\\
47	0.0460161525751541\\
48	0.0114971092506013\\
49	0.955009475613132\\
50	0.0115144581947724\\
51	0.0460188059617793\\
52	0.029784242879547\\
53	0.0261043719521843\\
54	0.0400423621130503\\
55	0.0214639213010622\\
56	0.00780387205364578\\
57	0.128960687552827\\
58	0.0331394489561172\\
59	0.0776345144161829\\
60	0.0608629762525889\\
61	0.00264301679388452\\
62	0.0101995161878013\\
63	0.0130518155590241\\
64	0.0160973491458832\\
65	0.0303967066279825\\
66	0.020272951288891\\
67	0.0826432336046609\\
68	0.0191785064189405\\
69	0.00885270265307036\\
70	0.00585280886154519\\
71	0.00268079463625907\\
72	0.00454021424711708\\
73	0.00313211261197467\\
74	0.0126735165412659\\
75	0.0209900603371103\\
76	0.010780517424162\\
77	0.0160828825958797\\
78	0.00489619552471621\\
79	0.00505818934483307\\
80	0.00512563229941861\\
81	0.0066396386710181\\
82	0.0061813081947272\\
83	0.008391320898225\\
84	0.00217860778404851\\
85	0.0041121999445708\\
86	0.0037837674850762\\
87	0.00231889764208912\\
88	0.00178151539309027\\
89	0.00126831638375495\\
90	0.00213658888902831\\
91	0.00265774027604464\\
92	0.00447897891646743\\
93	0.00433556480869991\\
94	0.00230834380152124\\
95	0.000650106206326858\\
96	0.00193556820212931\\
97	0.00252954285599073\\
98	0.00224614988853324\\
99	0.00201427527090496\\
};
\addlegendentry{$\mathbf{\hat{h}_{2}}$}

\end{axis}
\end{tikzpicture}%