% This file was created by matlab2tikz.
%
%The latest updates can be retrieved from
%  http://www.mathworks.com/matlabcentral/fileexchange/22022-matlab2tikz-matlab2tikz
%where you can also make suggestions and rate matlab2tikz.
%
\definecolor{mycolor1}{rgb}{0.00000,0.44700,0.74100}%
\definecolor{mycolor2}{rgb}{0.85000,0.32500,0.09800}%
%
\begin{tikzpicture}

\begin{axis}[%
width=1.935in,
height=3.2in,
at={(0.758in,0.512in)},
scale only axis,
xmin=0,
xmax=150,
xlabel style={font=\color{white!15!black}, align=center},
xlabel={Sample Index\\[1ex](a) Actual},
ymin=0,
ymax=0.7,
axis background/.style={fill=white},
legend style={legend cell align=left, align=left, draw=white!15!black}
]
\addplot [color=mycolor1]
  table[row sep=crcr]{%
1	0.0234657806037261\\
2	0.0272334504034075\\
3	0.0326864300765018\\
4	0.0414541482980318\\
5	0.0586677033458464\\
6	0.117843438362983\\
7	0.159969331461504\\
8	0.174397116945152\\
9	0.616552810702634\\
10	0.0882137642931462\\
11	0.0472681903124796\\
12	0.0327587509505929\\
13	0.0272256709659274\\
14	0.0412344622245766\\
15	0.0186762848129325\\
16	0.0451940046978057\\
17	0.0153724087875252\\
18	0.0239672675363248\\
19	0.0400285717874473\\
20	0.0828333966509162\\
21	0.557624977131952\\
22	0.149414784250917\\
23	0.109138078132702\\
24	0.0381681231028791\\
25	0.032799759178118\\
26	0.191519461959093\\
27	0.0734580287558902\\
28	0.0358315656953253\\
29	0.0179563195827385\\
30	0.0169149242156914\\
31	0.0179798517146348\\
32	0.0199431506445131\\
33	0.0279225394655299\\
34	0.0908594243819801\\
35	0.0439964246924232\\
36	0.330890477505262\\
37	0.037800506563543\\
38	0.020261933748638\\
39	0.0138181229977315\\
40	0.0211497159554441\\
41	0.0112042208144458\\
42	0.00964538908702694\\
43	0.00864780826327016\\
44	0.00787736374270682\\
45	0.00720180133294831\\
46	0.00651453200193765\\
47	0.00565492088107664\\
48	0.0112814316241706\\
49	0.0075966567083061\\
50	0.0102713040739602\\
51	0.00787142060243747\\
52	0.00711780022683946\\
53	0.00668443537322835\\
54	0.00638223966522588\\
55	0.00615487020840034\\
56	0.00598242225636516\\
57	0.00586293416152974\\
58	0.00581626175933958\\
59	0.00593494184987807\\
60	0.00707647204853056\\
61	0.00861312572402681\\
62	0.00240649054353041\\
63	0.0036902508247688\\
64	0.0040125763148678\\
65	0.00408542983582614\\
66	0.00408934467211144\\
67	0.00406760360864643\\
68	0.00403657730104579\\
69	0.00400486664899167\\
70	0.00397913876457006\\
71	0.00396763365360209\\
72	0.00398577860522856\\
73	0.00407460869510253\\
74	0.00440882178496405\\
75	0.00852319154542653\\
76	0.00211982859547221\\
77	0.00279674481878385\\
78	0.00295234209521732\\
79	0.00299967450324673\\
80	0.00300734384297471\\
81	0.00299658049652506\\
82	0.00297609501762909\\
83	0.00295010695632826\\
84	0.00292089738309008\\
85	0.00288979839106794\\
86	0.00285763293534116\\
87	0.00282493110979805\\
88	0.00279204510261472\\
89	0.00275921420187501\\
90	0.00272660345813555\\
91	0.00269432766245323\\
92	0.00266246675038502\\
93	0.00263107599882434\\
94	0.00260019295165966\\
95	0.00256984222925479\\
96	0.00254003893333548\\
97	0.0025107910982644\\
98	0.00248210148178531\\
99	0.00245396889001376\\
100	0.00242638916874131\\
101	0.00239935595223708\\
102	0.00237286123354156\\
103	0.00234689580183488\\
104	0.00232144957979209\\
105	0.00229651188498403\\
106	0.00227207163310714\\
107	0.0022481174963278\\
108	0.00222463802675857\\
109	0.00220162175268604\\
110	0.00217905725339276\\
111	0.0021569332170867\\
112	0.00213523848544673\\
113	0.00211396208753109\\
114	0.00209309326520902\\
115	0.00207262149182518\\
116	0.00205253648545491\\
117	0.00203282821783402\\
118	0.00201348691983224\\
119	0.00199450308416773\\
120	0.00197586746592614\\
121	0.00195757108133911\\
122	0.0019396052051902\\
123	0.0019219613671484\\
124	0.00190463134727109\\
125	0.00188760717087541\\
126	0.00187088110293773\\
127	0.00185444564215264\\
128	0.0018382935147574\\
129	0.00182241766820821\\
130	0.00180681126477794\\
131	0.00179146767513212\\
132	0.00177638047192757\\
133	0.00176154342347035\\
134	0.00174695048746156\\
135	0.0017325958048528\\
136	0.00171847369382931\\
137	0.00170457864393352\\
138	0.0016909053103386\\
139	0.00167744850827835\\
140	0.00166420320763913\\
141	0.00165116452771496\\
142	0.00163832773212761\\
143	0.00162568822391149\\
144	0.00161324154076111\\
145	0.0016009833504405\\
146	0.00158890944635072\\
147	0.00157701574325256\\
148	0.00156529827314105\\
149	0\\
150	0\\
};
\addlegendentry{$\mathbf{h_1}$}

\addplot [color=mycolor2]
  table[row sep=crcr]{%
1	0.019775303219206\\
2	0.0210217764534023\\
3	0.0224372323963497\\
4	0.024058742711813\\
5	0.0259351263737046\\
6	0.0281320174688059\\
7	0.0307398096072034\\
8	0.0338865833958781\\
9	0.0377600935275399\\
10	0.0426472101764649\\
11	0.0490094599986528\\
12	0.0576401827385178\\
13	0.0700288298559564\\
14	0.0893407156606893\\
15	0.123700774100431\\
16	0.202175033398071\\
17	0.564479813098353\\
18	0.690442426104836\\
19	0.212260509632627\\
20	0.126132345068284\\
21	0.100380135781766\\
22	0.0378663697499036\\
23	0.0333199748773482\\
24	0.0149453064107011\\
25	0.10083899339379\\
26	0.161002397050911\\
27	0.0405118251764787\\
28	0.0383644765554957\\
29	0.0341227495803863\\
30	0.0306469105251072\\
31	0.0278570926171954\\
32	0.0255709383506331\\
33	0.0236574529195357\\
34	0.0220274984760589\\
35	0.0206190941704396\\
36	0.0193877726649002\\
37	0.0183006807256663\\
38	0.0173329207549748\\
39	0.016465211935799\\
40	0.0156823459816501\\
41	0.0149721364414517\\
42	0.0143246843629073\\
43	0.0137318527665838\\
44	0.0131868826449622\\
45	0.0126841071808284\\
46	0.0122187355837443\\
47	0.0117866872087634\\
48	0.0113844626077037\\
49	0.0110090421200206\\
50	0.0106578052804057\\
51	0\\
52	0\\
53	0\\
54	0\\
55	0\\
56	0\\
57	0\\
58	0\\
59	0\\
60	0\\
61	0\\
62	0\\
63	0\\
64	0\\
65	0\\
66	0\\
67	0\\
68	0\\
69	0\\
70	0\\
71	0\\
72	0\\
73	0\\
74	0\\
75	0\\
76	0\\
77	0\\
78	0\\
79	0\\
80	0\\
81	0\\
82	0\\
83	0\\
84	0\\
85	0\\
86	0\\
87	0\\
88	0\\
89	0\\
90	0\\
91	0\\
92	0\\
93	0\\
94	0\\
95	0\\
96	0\\
97	0\\
98	0\\
99	0\\
100	0\\
101	0\\
102	0\\
103	0\\
104	0\\
105	0\\
106	0\\
107	0\\
108	0\\
109	0\\
110	0\\
111	0\\
112	0\\
113	0\\
114	0\\
115	0\\
116	0\\
117	0\\
118	0\\
119	0\\
120	0\\
121	0\\
122	0\\
123	0\\
124	0\\
125	0\\
126	0\\
127	0\\
128	0\\
129	0\\
130	0\\
131	0\\
132	0\\
133	0\\
134	0\\
135	0\\
136	0\\
137	0\\
138	0\\
139	0\\
140	0\\
141	0\\
142	0\\
143	0\\
144	0\\
145	0\\
146	0\\
147	0\\
148	0\\
149	0\\
150	0\\
};
\addlegendentry{$\mathbf{h_{2}}$}

\end{axis}

\begin{axis}[%
width=1.935in,
height=3.2in,
at={(3.327in,0.512in)},
scale only axis,
xmin=0,
xmax=300,
xlabel style={font=\color{white!15!black}, align=center},
xlabel={Sample Index\\[1ex](b) Estimated},
ymin=0,
ymax=1,
axis background/.style={fill=white},
legend style={legend cell align=left, align=left, draw=white!15!black}
]
\addplot [color=mycolor1]
  table[row sep=crcr]{%
0	3.38834195780739e-05\\
1	6.18637459840437e-05\\
2	3.98210109951026e-05\\
3	0.000222519967842428\\
4	0.000126180566478059\\
5	3.66766987875398e-05\\
6	5.41201161961105e-05\\
7	4.17006448349403e-05\\
8	6.11938185319567e-05\\
9	3.58769243627552e-05\\
10	4.07574297539276e-05\\
11	5.24215612580932e-05\\
12	9.77693427288245e-05\\
13	8.80503065835175e-05\\
14	2.04898137406097e-05\\
15	0.00016196165883999\\
16	2.40456010387644e-05\\
17	3.40966185727016e-05\\
18	7.08459274160586e-05\\
19	0.000129441868259185\\
20	5.2451017906807e-05\\
21	7.55817575968267e-05\\
22	9.33514068150303e-06\\
23	0.000198379748578856\\
24	0.000152013515892464\\
25	5.54362212445469e-05\\
26	0.000104569050592634\\
27	7.59498117199225e-05\\
28	5.81389216039177e-05\\
29	0.000132656629178878\\
30	2.79087812423248e-05\\
31	4.72304874519516e-05\\
32	2.83643214703994e-05\\
33	8.60120504603804e-05\\
34	4.5763476385528e-05\\
35	5.39716086123311e-05\\
36	6.17919163197004e-05\\
37	0.000222327587452118\\
38	3.30321278549287e-05\\
39	5.00473637230791e-05\\
40	3.28833015923755e-05\\
41	6.98745497236281e-05\\
42	4.23224652245276e-05\\
43	3.1494944551017e-05\\
44	0.000145557404767664\\
45	9.18858639374817e-05\\
46	5.91488960425236e-05\\
47	4.42956164754397e-05\\
48	0.000295033727720502\\
49	0.000259358387442079\\
50	8.35805556711216e-05\\
51	0.000118726203799059\\
52	8.86734671201729e-05\\
53	4.76743105903134e-05\\
54	8.24299137628516e-05\\
55	5.33968299198585e-05\\
56	4.00178553339912e-05\\
57	9.41635285961675e-05\\
58	0.00010984354979623\\
59	2.85611272224709e-05\\
60	5.14790662751615e-05\\
61	5.67658565723547e-05\\
62	8.89352935294389e-05\\
63	2.13596325564915e-05\\
64	3.16359389483702e-05\\
65	4.1919133556089e-05\\
66	0.000132828677133179\\
67	5.11597049490509e-05\\
68	0.000109263300973894\\
69	1.29413314830202e-05\\
70	3.84796364074723e-05\\
71	0.000106087945492131\\
72	0.00015305729901575\\
73	5.40440711342969e-05\\
74	1.53322328943952e-05\\
75	2.64353537467984e-05\\
76	2.3200414294273e-05\\
77	4.86860346895527e-05\\
78	9.65425949161795e-05\\
79	3.88498735227749e-05\\
80	0.000129513756231926\\
81	4.45106080636241e-05\\
82	3.42427027353709e-05\\
83	0.000232805811850546\\
84	0.000140033676762306\\
85	0.000181767627537852\\
86	0.000218464498783745\\
87	0.000286215544898383\\
88	0.00015965064472924\\
89	1.98415995183838e-05\\
90	9.05016198343058e-05\\
91	0.00010580996623506\\
92	2.93160895371059e-05\\
93	0.000242883615302468\\
94	0.00013310624204943\\
95	3.86051165433784e-05\\
96	1.34810212066835e-05\\
97	5.87784648706295e-05\\
98	9.98031451482875e-05\\
99	0.00101209840202797\\
100	5.43170952331597e-05\\
101	0.000538614851904909\\
102	3.40382143700137e-05\\
103	6.10215813778239e-05\\
104	6.71725181466291e-05\\
105	0.000193119453325431\\
106	0.00040332845910246\\
107	0.000615305074764606\\
108	0.00338469603411366\\
109	0.00500991589768859\\
110	0.00263272096613355\\
111	0.00280309505600973\\
112	0.00937918634934416\\
113	0.0188994486631949\\
114	0.0157232385906754\\
115	0.00808391781719848\\
116	0.0109659860383451\\
117	0.00188153749610143\\
118	0.0106498911828239\\
119	0.00640697052351545\\
120	0.0109914144798029\\
121	0.00244780825378611\\
122	0.00826097688097772\\
123	0.0187645372643937\\
124	0.00818661949214594\\
125	0.0285057693658806\\
126	0.0739993250211674\\
127	0.0258524451552348\\
128	0.0160959596021788\\
129	0.0459111730155542\\
130	0.00445710377851438\\
131	0.0139872484656578\\
132	0.109866065101179\\
133	0.0320850955637016\\
134	0.0340531602680758\\
135	0.0334171451331403\\
136	0.0240648506366769\\
137	0.0468281892244344\\
138	0.148829045617073\\
139	0.0324702619000553\\
140	0.484003865823204\\
141	0.401547160706156\\
142	0.105417608123488\\
143	0.0846730800876264\\
144	0.0340085154496561\\
145	0.102621935607532\\
146	0.0302665609361219\\
147	0.0532171260117483\\
148	0.0137732525401864\\
149	0.0807544912318537\\
150	0.0871328668035921\\
151	0.114126584155922\\
152	0.254565367165011\\
153	0.475465995463945\\
154	0.18637315484307\\
155	0.0700331959565227\\
156	0.0757725902719389\\
157	0.103398585607466\\
158	0.0954194357539777\\
159	0.109101789380409\\
160	0.0194192971794299\\
161	0.0322436210626671\\
162	0.0339156390249458\\
163	0.0213257692492475\\
164	0.0367625706439082\\
165	0.101522013437445\\
166	0.103823441336821\\
167	0.280647486246909\\
168	0.101212111794218\\
169	0.033802395027069\\
170	0.0431165016538867\\
171	0.011769726226924\\
172	0.00413251907080552\\
173	0.0113455833454803\\
174	0.0114603316106683\\
175	0.0202397249421792\\
176	0.000506343958333376\\
177	0.0115634557016141\\
178	0.0216182359743053\\
179	0.0503711903865088\\
180	0.0299944968425643\\
181	8.58979354081516e-05\\
182	0.0194817507384242\\
183	0.000540136707400988\\
184	0.00189152851681129\\
185	0.00221359080026178\\
186	0.000241670552200931\\
187	9.73446661994966e-05\\
188	0.000584635116646202\\
189	0.0001784844389583\\
190	0.000122427986042498\\
191	0.000284039875151235\\
192	0.0128827027480031\\
193	0.00273815595671059\\
194	0.00316876388817021\\
195	0.000647304918402592\\
196	7.77832828091589e-05\\
197	8.11204472509742e-05\\
198	8.80225034108865e-05\\
199	7.12537572296872e-06\\
200	2.64712301611026e-05\\
201	0.000107296738480576\\
202	9.63260826283799e-05\\
203	7.8901686974363e-05\\
204	0.00035684071137346\\
205	0.000219683402456287\\
206	0.000119685608138292\\
207	6.51929498358339e-05\\
208	0.000143348971881727\\
209	0.000249113215635179\\
210	3.64840614274459e-05\\
211	0.000110090142663529\\
212	0.000123525095008362\\
213	0.000100278596125568\\
214	0.000108094550812299\\
215	2.13076046301457e-05\\
216	0.000112301487457707\\
217	3.07212082932387e-05\\
218	4.35739758449699e-05\\
219	0.000126425491134716\\
220	0.000129859836915389\\
221	8.00334633414537e-05\\
222	1.99638975777086e-05\\
223	0.000251986935590975\\
224	0.000127218681780246\\
225	0.000128381537876136\\
226	0.000118800115095408\\
227	7.19615858829546e-05\\
228	5.13558932626757e-05\\
229	9.55145932392724e-05\\
230	5.45210436609555e-05\\
231	4.90385648220819e-06\\
232	3.77793920500686e-05\\
233	2.54941574787608e-05\\
234	4.65683802932004e-05\\
235	4.42960825258364e-05\\
236	0.000110095319402525\\
237	1.23389847211984e-05\\
238	2.00652305107404e-05\\
239	6.23872191456978e-05\\
240	9.44782154427394e-05\\
241	0.000104909090867962\\
242	5.59639605241901e-05\\
243	0.00010651193784078\\
244	0.00019353561244948\\
245	0.000137487603418757\\
246	0.000174104404452964\\
247	0.000117218743708131\\
248	3.48800031088009e-05\\
249	0.00011382170607551\\
250	0.000198102633066826\\
251	7.39173846660143e-06\\
252	0.000105719211023406\\
253	0.000349096069386084\\
254	5.91956150591984e-05\\
255	6.94089845151642e-05\\
256	2.90460364498004e-05\\
257	4.96704454293946e-05\\
258	6.11997994436195e-05\\
259	9.40483177797088e-05\\
260	4.2374038757347e-06\\
261	2.47448830182026e-05\\
262	5.15090712118066e-05\\
263	3.86831770887449e-05\\
264	2.34580789788865e-05\\
265	0.000100267695387748\\
266	7.88996751138846e-05\\
267	0.000111757450761409\\
268	3.62350300254092e-05\\
269	3.49012208160017e-05\\
270	0.000107847908084209\\
271	3.28961416418538e-05\\
272	0.000191296537170239\\
273	5.09906691945958e-05\\
274	0.000108805696340557\\
275	1.64150544974778e-05\\
276	8.41625510677602e-05\\
277	4.02717322054301e-05\\
278	0.000118765527947752\\
279	3.9719961726784e-05\\
280	0.000101927359645083\\
281	6.98609835523181e-05\\
282	5.72777703867186e-05\\
283	9.83071263512311e-05\\
284	8.33689221562944e-05\\
285	9.26419771839173e-05\\
286	7.98310142162691e-05\\
287	4.35926844720295e-05\\
288	3.43606685423912e-05\\
289	8.77420669946476e-05\\
290	9.53870301748629e-05\\
291	4.29819052586355e-06\\
292	3.71193232844843e-05\\
293	3.72689522139445e-05\\
294	7.69513546060764e-05\\
295	0.000162268860927261\\
296	7.34196549002596e-05\\
297	3.79206282488787e-05\\
298	0.000129366554460999\\
299	0.000137698865858032\\
};
\addlegendentry{$\mathbf{\hat{h}_{1}}$}

\addplot [color=mycolor2]
  table[row sep=crcr]{%
0	5.39733200255705e-05\\
1	4.83336063894182e-05\\
2	2.36134184893162e-05\\
3	3.06224552239387e-05\\
4	2.88563045483075e-05\\
5	3.02553107634093e-05\\
6	1.59545121958514e-05\\
7	1.5180374922209e-05\\
8	3.93405106513493e-05\\
9	3.25651351963171e-05\\
10	1.86933234998357e-05\\
11	0.000127360574695251\\
12	6.68273343033724e-05\\
13	1.41839109036356e-05\\
14	3.39729393627641e-05\\
15	5.35257873051481e-05\\
16	1.80184580879408e-05\\
17	5.11621073712412e-05\\
18	2.26092294016867e-05\\
19	9.32679053470701e-05\\
20	1.16800992168466e-05\\
21	3.76292236073584e-05\\
22	1.37306135313148e-05\\
23	4.28880575168149e-05\\
24	2.48795449508393e-05\\
25	9.82092517266156e-06\\
26	1.98351367006018e-05\\
27	4.39807234475513e-05\\
28	5.43962223981439e-05\\
29	4.3710919913852e-05\\
30	8.57369455439005e-05\\
31	7.07965296169312e-06\\
32	1.22726845799818e-05\\
33	8.2165831486516e-05\\
34	1.07922866790762e-05\\
35	3.23921878355094e-05\\
36	1.66122161327708e-05\\
37	7.55312586689347e-05\\
38	1.09250330064559e-05\\
39	6.17750382395642e-06\\
40	8.85928361209626e-05\\
41	3.92584898427082e-05\\
42	5.09701676323725e-05\\
43	4.04957512427004e-05\\
44	9.60874815983569e-05\\
45	3.9042529575387e-05\\
46	6.1343378515601e-05\\
47	5.89926284301717e-05\\
48	5.03959519434288e-05\\
49	4.46075287605337e-05\\
50	4.53450502648751e-05\\
51	4.0354222089567e-05\\
52	1.26978044413396e-05\\
53	1.36577381770187e-05\\
54	5.56026634326488e-05\\
55	3.81759364439028e-05\\
56	3.48979435984118e-05\\
57	3.1152251758743e-05\\
58	7.99220641101275e-05\\
59	4.41337457582679e-05\\
60	2.74207797811239e-05\\
61	4.91680372603014e-05\\
62	2.69517531103983e-05\\
63	0.000107798025218787\\
64	6.17759568660583e-05\\
65	0.000118021608002166\\
66	8.72721106207692e-05\\
67	7.15815641904008e-05\\
68	0.000120159871878392\\
69	4.67383009684772e-05\\
70	1.92289958455923e-05\\
71	1.82886197464196e-05\\
72	3.35965853835371e-05\\
73	1.04279660480436e-05\\
74	4.13893133625481e-05\\
75	3.47996385537449e-05\\
76	8.29363969922133e-05\\
77	1.20369660885065e-05\\
78	1.70257787171224e-05\\
79	2.2874093585854e-05\\
80	0.000117274809938182\\
81	2.12516667018975e-05\\
82	4.12528124164663e-05\\
83	3.57648020876272e-05\\
84	7.16899697311016e-05\\
85	5.76320127918657e-05\\
86	1.35989117046744e-05\\
87	3.63087875308739e-05\\
88	6.39663903354739e-05\\
89	1.63679815929253e-05\\
90	5.27131148723587e-05\\
91	2.92926425989691e-05\\
92	9.12348325063728e-05\\
93	1.80080488996072e-05\\
94	0.000168984348912819\\
95	0.000309637470872577\\
96	4.3324033764069e-05\\
97	0.00106404128265411\\
98	0.000287263000162233\\
99	0.000336580846900755\\
100	6.58386795414102e-05\\
101	0.000166943427189691\\
102	0.000147492090175184\\
103	7.91525263237075e-05\\
104	2.79791834317177e-05\\
105	0.00266583243467698\\
106	7.02006088431069e-06\\
107	0.00429328776509515\\
108	0.00723537923916637\\
109	0.00571459990177453\\
110	0.00803662343773561\\
111	0.000779098566888507\\
112	0.00529424352006311\\
113	0.00158704919860407\\
114	4.16013483596087e-05\\
115	0.00228258751019172\\
116	0.00373055533314685\\
117	0.00687909357421317\\
118	0.00218455525836516\\
119	0.001655036067335\\
120	0.0168477865010687\\
121	0.00922566281847271\\
122	0.049869058857659\\
123	0.00943607177442706\\
124	0.0235590730332135\\
125	0.0132941029473334\\
126	0.00730050220415528\\
127	6.86726661201526e-05\\
128	0.00329025311164186\\
129	0.00948326948278047\\
130	0.00812185526824338\\
131	0.00704359798351042\\
132	0.0281449521837433\\
133	0.019426749953823\\
134	0.0563091087623973\\
135	0.0317185808538936\\
136	0.0421553293507252\\
137	0.115751129934087\\
138	0.0221468997621513\\
139	0.0261040733689373\\
140	0.00697387612287886\\
141	0.0154030070062355\\
142	0.0171063144490958\\
143	0.0160537373537368\\
144	0.0102430594084772\\
145	0.0117619863844585\\
146	0.0251367213746992\\
147	0.0341331698223607\\
148	0.0312728461192577\\
149	0.969773945008931\\
150	0.0310483173733778\\
151	0.0335222691819814\\
152	0.0244412137779894\\
153	0.0124346392042779\\
154	0.0112493906498212\\
155	0.0165346756317715\\
156	0.0174091282903872\\
157	0.0167720532676508\\
158	0.00761607243699806\\
159	0.0250765348344158\\
160	0.0221328667742835\\
161	0.115256364715021\\
162	0.0425670090466687\\
163	0.0309667326210697\\
164	0.0571751337216959\\
165	0.0193167628714937\\
166	0.0287101021548306\\
167	0.00725668338879887\\
168	0.00863652204343572\\
169	0.00892858239175179\\
170	0.00307298790347991\\
171	0.000259501888956914\\
172	0.00675021347768988\\
173	0.0128763724302233\\
174	0.0232839203218783\\
175	0.00931463019613119\\
176	0.0505261082655177\\
177	0.00897513203384444\\
178	0.0164666546465648\\
179	0.00223792028545861\\
180	0.00225771794542847\\
181	0.00672184661606038\\
182	0.00393267641273861\\
183	0.00257450313919254\\
184	8.68915833176384e-05\\
185	0.00164151424798525\\
186	0.00495706288885388\\
187	0.000829841240751618\\
188	0.0073360104953759\\
189	0.00540409969459944\\
190	0.00734944426595327\\
191	0.00514876339555921\\
192	5.20502086909069e-06\\
193	0.00279263088485618\\
194	6.14892136447361e-05\\
195	8.78933042376119e-05\\
196	0.000102905929086154\\
197	0.000175322009398429\\
198	8.41839843483604e-05\\
199	0.000275196816475568\\
200	0.000227323465928337\\
201	0.00118449865768697\\
202	3.66451098855755e-05\\
203	0.00024789211870718\\
204	0.000255787734648161\\
205	3.34593927527765e-05\\
206	6.93631774935045e-05\\
207	2.96295688166409e-05\\
208	6.96677436133816e-05\\
209	2.34854399340703e-05\\
210	6.49390536060334e-05\\
211	4.66899045846702e-05\\
212	1.08245609302205e-05\\
213	8.36964756972462e-05\\
214	7.23746717717778e-05\\
215	3.40029969475948e-05\\
216	4.32502283825182e-05\\
217	3.36496843636973e-05\\
218	0.000127446339279363\\
219	1.73580900448107e-05\\
220	2.53481603329293e-05\\
221	7.56410124227458e-06\\
222	8.23862351416864e-05\\
223	4.05443153728537e-05\\
224	4.66746233818246e-05\\
225	5.05997502948181e-06\\
226	3.182192586396e-05\\
227	2.37960923040072e-05\\
228	1.73266718611207e-05\\
229	5.10711988392878e-05\\
230	0.000120758941455354\\
231	7.96204795031689e-05\\
232	9.03225723250649e-05\\
233	0.000109646946267589\\
234	6.81202128545432e-05\\
235	0.000109531435456778\\
236	3.18784859959996e-05\\
237	4.97400661966404e-05\\
238	2.24347456674378e-05\\
239	4.64137798423499e-05\\
240	7.79484666475834e-05\\
241	5.17982774748851e-05\\
242	4.70207891926871e-05\\
243	5.07940107848001e-05\\
244	5.11437541660249e-05\\
245	2.20907322964079e-05\\
246	2.84393429448573e-05\\
247	3.95200220607682e-05\\
248	5.27345973846995e-05\\
249	2.97740147589544e-05\\
250	3.67104691979269e-05\\
251	5.24649086458693e-05\\
252	7.27740704079155e-05\\
253	3.0505682666528e-05\\
254	9.82741704497335e-05\\
255	4.17476250272923e-05\\
256	5.2886995125613e-05\\
257	3.62704713647049e-05\\
258	9.43094966263178e-05\\
259	1.23863294221216e-05\\
260	1.26098121792793e-05\\
261	9.0570879988999e-05\\
262	2.15902990931819e-05\\
263	2.91095586443891e-05\\
264	9.89765626720023e-06\\
265	8.17578619249107e-05\\
266	1.03654944403035e-05\\
267	1.38651604306476e-05\\
268	9.59661798949011e-05\\
269	3.95680914612036e-05\\
270	4.54030930056749e-05\\
271	3.7928093210937e-05\\
272	1.93250169851924e-05\\
273	2.83384167890586e-05\\
274	3.10259166727688e-05\\
275	3.58766413091135e-05\\
276	8.81110840716155e-06\\
277	3.89202470683304e-05\\
278	2.43298774734475e-05\\
279	9.0875397133118e-05\\
280	1.50873922883491e-05\\
281	3.42487811420824e-05\\
282	1.12856143240921e-05\\
283	2.93966973421795e-05\\
284	2.7338197060431e-05\\
285	2.81101007319891e-06\\
286	5.44413998010799e-05\\
287	0.000118980863562598\\
288	2.9811016514551e-05\\
289	4.20928221021375e-05\\
290	2.94789702464278e-05\\
291	2.97433132111149e-05\\
292	8.02313358964954e-06\\
293	3.60327598175631e-05\\
294	4.16318350573953e-05\\
295	1.6360073151348e-05\\
296	2.04977559846805e-05\\
297	6.0368267019343e-05\\
298	3.86677896775149e-05\\
299	9.37403754985192e-05\\
};
\addlegendentry{$\mathbf{\hat{h}_{2}}$}

\end{axis}
\end{tikzpicture}%