% This file was created by matlab2tikz.
%
%The latest updates can be retrieved from
%  http://www.mathworks.com/matlabcentral/fileexchange/22022-matlab2tikz-matlab2tikz
%where you can also make suggestions and rate matlab2tikz.
%
\definecolor{mycolor1}{rgb}{0.00000,0.44700,0.74100}%
\definecolor{mycolor2}{rgb}{0.85000,0.32500,0.09800}%
%
\begin{tikzpicture}

\begin{axis}[%
width=1.935in,
height=3.2in,
at={(0.758in,0.512in)},
scale only axis,
xmin=0,
xmax=150,
xlabel style={font=\color{white!15!black}, align=center},
xlabel={Sample Index\\[1ex](a) Actual},
ymin=0,
ymax=0.7,
axis background/.style={fill=white},
legend style={legend cell align=left, align=left, draw=white!15!black}
]
\addplot [color=mycolor1]
  table[row sep=crcr]{%
1	0.0234657806037261\\
2	0.0272334504034075\\
3	0.0326864300765018\\
4	0.0414541482980318\\
5	0.0586677033458464\\
6	0.117843438362983\\
7	0.159969331461504\\
8	0.174397116945152\\
9	0.616552810702634\\
10	0.0882137642931462\\
11	0.0472681903124796\\
12	0.0327587509505929\\
13	0.0272256709659274\\
14	0.0412344622245766\\
15	0.0186762848129325\\
16	0.0451940046978057\\
17	0.0153724087875252\\
18	0.0239672675363248\\
19	0.0400285717874473\\
20	0.0828333966509162\\
21	0.557624977131952\\
22	0.149414784250917\\
23	0.109138078132702\\
24	0.0381681231028791\\
25	0.032799759178118\\
26	0.191519461959093\\
27	0.0734580287558902\\
28	0.0358315656953253\\
29	0.0179563195827385\\
30	0.0169149242156914\\
31	0.0179798517146348\\
32	0.0199431506445131\\
33	0.0279225394655299\\
34	0.0908594243819801\\
35	0.0439964246924232\\
36	0.330890477505262\\
37	0.037800506563543\\
38	0.020261933748638\\
39	0.0138181229977315\\
40	0.0211497159554441\\
41	0.0112042208144458\\
42	0.00964538908702694\\
43	0.00864780826327016\\
44	0.00787736374270682\\
45	0.00720180133294831\\
46	0.00651453200193765\\
47	0.00565492088107664\\
48	0.0112814316241706\\
49	0.0075966567083061\\
50	0.0102713040739602\\
51	0.00787142060243747\\
52	0.00711780022683946\\
53	0.00668443537322835\\
54	0.00638223966522588\\
55	0.00615487020840034\\
56	0.00598242225636516\\
57	0.00586293416152974\\
58	0.00581626175933958\\
59	0.00593494184987807\\
60	0.00707647204853056\\
61	0.00861312572402681\\
62	0.00240649054353041\\
63	0.0036902508247688\\
64	0.0040125763148678\\
65	0.00408542983582614\\
66	0.00408934467211144\\
67	0.00406760360864643\\
68	0.00403657730104579\\
69	0.00400486664899167\\
70	0.00397913876457006\\
71	0.00396763365360209\\
72	0.00398577860522856\\
73	0.00407460869510253\\
74	0.00440882178496405\\
75	0.00852319154542653\\
76	0.00211982859547221\\
77	0.00279674481878385\\
78	0.00295234209521732\\
79	0.00299967450324673\\
80	0.00300734384297471\\
81	0.00299658049652506\\
82	0.00297609501762909\\
83	0.00295010695632826\\
84	0.00292089738309008\\
85	0.00288979839106794\\
86	0.00285763293534116\\
87	0.00282493110979805\\
88	0.00279204510261472\\
89	0.00275921420187501\\
90	0.00272660345813555\\
91	0.00269432766245323\\
92	0.00266246675038502\\
93	0.00263107599882434\\
94	0.00260019295165966\\
95	0.00256984222925479\\
96	0.00254003893333548\\
97	0.0025107910982644\\
98	0.00248210148178531\\
99	0.00245396889001376\\
100	0.00242638916874131\\
101	0.00239935595223708\\
102	0.00237286123354156\\
103	0.00234689580183488\\
104	0.00232144957979209\\
105	0.00229651188498403\\
106	0.00227207163310714\\
107	0.0022481174963278\\
108	0.00222463802675857\\
109	0.00220162175268604\\
110	0.00217905725339276\\
111	0.0021569332170867\\
112	0.00213523848544673\\
113	0.00211396208753109\\
114	0.00209309326520902\\
115	0.00207262149182518\\
116	0.00205253648545491\\
117	0.00203282821783402\\
118	0.00201348691983224\\
119	0.00199450308416773\\
120	0.00197586746592614\\
121	0.00195757108133911\\
122	0.0019396052051902\\
123	0.0019219613671484\\
124	0.00190463134727109\\
125	0.00188760717087541\\
126	0.00187088110293773\\
127	0.00185444564215264\\
128	0.0018382935147574\\
129	0.00182241766820821\\
130	0.00180681126477794\\
131	0.00179146767513212\\
132	0.00177638047192757\\
133	0.00176154342347035\\
134	0.00174695048746156\\
135	0.0017325958048528\\
136	0.00171847369382931\\
137	0.00170457864393352\\
138	0.0016909053103386\\
139	0.00167744850827835\\
140	0.00166420320763913\\
141	0.00165116452771496\\
142	0.00163832773212761\\
143	0.00162568822391149\\
144	0.00161324154076111\\
145	0.0016009833504405\\
146	0.00158890944635072\\
147	0.00157701574325256\\
148	0.00156529827314105\\
149	0\\
150	0\\
};
\addlegendentry{$\mathbf{h_1}$}

\addplot [color=mycolor2]
  table[row sep=crcr]{%
1	0.019775303219206\\
2	0.0210217764534023\\
3	0.0224372323963497\\
4	0.024058742711813\\
5	0.0259351263737046\\
6	0.0281320174688059\\
7	0.0307398096072034\\
8	0.0338865833958781\\
9	0.0377600935275399\\
10	0.0426472101764649\\
11	0.0490094599986528\\
12	0.0576401827385178\\
13	0.0700288298559564\\
14	0.0893407156606893\\
15	0.123700774100431\\
16	0.202175033398071\\
17	0.564479813098353\\
18	0.690442426104836\\
19	0.212260509632627\\
20	0.126132345068284\\
21	0.100380135781766\\
22	0.0378663697499036\\
23	0.0333199748773482\\
24	0.0149453064107011\\
25	0.10083899339379\\
26	0.161002397050911\\
27	0.0405118251764787\\
28	0.0383644765554957\\
29	0.0341227495803863\\
30	0.0306469105251072\\
31	0.0278570926171954\\
32	0.0255709383506331\\
33	0.0236574529195357\\
34	0.0220274984760589\\
35	0.0206190941704396\\
36	0.0193877726649002\\
37	0.0183006807256663\\
38	0.0173329207549748\\
39	0.016465211935799\\
40	0.0156823459816501\\
41	0.0149721364414517\\
42	0.0143246843629073\\
43	0.0137318527665838\\
44	0.0131868826449622\\
45	0.0126841071808284\\
46	0.0122187355837443\\
47	0.0117866872087634\\
48	0.0113844626077037\\
49	0.0110090421200206\\
50	0.0106578052804057\\
51	0\\
52	0\\
53	0\\
54	0\\
55	0\\
56	0\\
57	0\\
58	0\\
59	0\\
60	0\\
61	0\\
62	0\\
63	0\\
64	0\\
65	0\\
66	0\\
67	0\\
68	0\\
69	0\\
70	0\\
71	0\\
72	0\\
73	0\\
74	0\\
75	0\\
76	0\\
77	0\\
78	0\\
79	0\\
80	0\\
81	0\\
82	0\\
83	0\\
84	0\\
85	0\\
86	0\\
87	0\\
88	0\\
89	0\\
90	0\\
91	0\\
92	0\\
93	0\\
94	0\\
95	0\\
96	0\\
97	0\\
98	0\\
99	0\\
100	0\\
101	0\\
102	0\\
103	0\\
104	0\\
105	0\\
106	0\\
107	0\\
108	0\\
109	0\\
110	0\\
111	0\\
112	0\\
113	0\\
114	0\\
115	0\\
116	0\\
117	0\\
118	0\\
119	0\\
120	0\\
121	0\\
122	0\\
123	0\\
124	0\\
125	0\\
126	0\\
127	0\\
128	0\\
129	0\\
130	0\\
131	0\\
132	0\\
133	0\\
134	0\\
135	0\\
136	0\\
137	0\\
138	0\\
139	0\\
140	0\\
141	0\\
142	0\\
143	0\\
144	0\\
145	0\\
146	0\\
147	0\\
148	0\\
149	0\\
150	0\\
};
\addlegendentry{$\mathbf{h_{2}}$}

\end{axis}

\begin{axis}[%
width=1.935in,
height=3.2in,
at={(3.327in,0.512in)},
scale only axis,
xmin=0,
xmax=150,
xlabel style={font=\color{white!15!black}, align=center},
xlabel={Sample Index\\[1ex](b) Estimated},
ymin=0,
ymax=0.5,
axis background/.style={fill=white},
legend style={legend cell align=left, align=left, draw=white!15!black}
]
\addplot [color=mycolor1]
  table[row sep=crcr]{%
0	0.121583050099886\\
1	0.0548275157733791\\
2	0.0936617528044014\\
3	0.00400419916588519\\
4	0.0567266187665318\\
5	0.035729354057883\\
6	0.00506503151941741\\
7	0.0480787661370538\\
8	0.0773944306564457\\
9	0.0490502704771205\\
10	0.0179884962431543\\
11	0.107546311299534\\
12	0.0543969364097278\\
13	0.0201861661959755\\
14	0.0729857325403239\\
15	0.116899952456352\\
16	0.028619655481375\\
17	0.101672978330513\\
18	0.036664295945472\\
19	0.0250512849093926\\
20	0.0627268523814506\\
21	0.103423587372319\\
22	0.0961945622995249\\
23	0.0693765243439974\\
24	0.102241613054311\\
25	0.00193671202189569\\
26	0.0999458764925698\\
27	0.0537138268837313\\
28	0.0337404161846098\\
29	0.075369632972236\\
30	0.0378798083313392\\
31	0.0210776963065263\\
32	0.0223641832744697\\
33	0.059027236048787\\
34	0.0486725171164684\\
35	0.0316216787765735\\
36	0.0466657764616425\\
37	0.0557910754420312\\
38	0.146438442408292\\
39	0.0541693595487636\\
40	0.120065964593683\\
41	0.0868543026444018\\
42	0.113305142579748\\
43	0.0621684805211666\\
44	0.0282379052811739\\
45	0.00754017088386253\\
46	0.0312523424838149\\
47	0.0537378302765587\\
48	0.0624468172715623\\
49	0.02112458186831\\
50	0.0342750914915628\\
51	0.0982056982919628\\
52	0.0612622547090456\\
53	0.01007794263273\\
54	0.0380412493471565\\
55	0.0375007009179401\\
56	0.0567741519948543\\
57	0.132230481645726\\
58	0.156439213458334\\
59	0.0159031325540789\\
60	0.0176359185347205\\
61	0.0342225099159519\\
62	0.0622842149907483\\
63	0.0492286187046269\\
64	0.100331502111848\\
65	0.167281127019576\\
66	0.14803500568755\\
67	0.130505221405785\\
68	0.0975696202847354\\
69	0.0766325377050495\\
70	0.107648826705019\\
71	0.0751246160525893\\
72	0.0566613324366514\\
73	0.177898323752672\\
74	0.0855468666546895\\
75	0.0154546881711128\\
76	0.156314721244448\\
77	0.0374031937165681\\
78	0.199999496087934\\
79	0.0172566274790514\\
80	0.0847458733916117\\
81	0.13572420864329\\
82	0.00355559308745211\\
83	0.0616372359087465\\
84	0.0503548984091293\\
85	0.0970694720448711\\
86	0.0296278060507322\\
87	0.0320088100791859\\
88	0.177480548747883\\
89	0.12454252303097\\
90	0.0972709749499032\\
91	0.0385635359067767\\
92	0.0930941273237479\\
93	0.0366222017390633\\
94	0.0229863515088967\\
95	0.0642924956132183\\
96	0.0329943035469348\\
97	0.0591750293978199\\
98	0.0170019685087488\\
99	0.0880919274860908\\
100	0.163517247619011\\
101	0.121840336677899\\
102	0.0994800602134433\\
103	0.149200303339943\\
104	0.0795798584509327\\
105	0.0727829215659117\\
106	0.0852475680933727\\
107	0.141494626748808\\
108	0.0390586585614832\\
109	0.00776546113405247\\
110	0.0118809773715878\\
111	0.0608103832495127\\
112	0.142216470106617\\
113	0.113885123072196\\
114	0.0903917646186851\\
115	0.0526023226216995\\
116	0.0155573679021442\\
117	0.013692253182454\\
118	0.0342040849729554\\
119	0.110992002744626\\
120	0.0901568828760588\\
121	0.0873445338501768\\
122	0.0652416389752819\\
123	0.0386658691046527\\
124	0.123728562741816\\
125	0.0340643972309533\\
126	0.157880900782423\\
127	0.0284716025061893\\
128	0.00263387423918481\\
129	0.109289871301178\\
130	0.0381111756500685\\
131	0.136445771075169\\
132	0.0734382086203422\\
133	0.080666990445905\\
134	0.146601454452368\\
135	0.0260655747698098\\
136	0.0765769492383662\\
137	0.0465783785635964\\
138	0.0137985998115775\\
139	0.045694239710566\\
140	0.0311528235886854\\
141	0.0390241587607541\\
142	0.0457874167697868\\
143	0.026982408200368\\
144	0.0824770512239734\\
145	0.00225214472344688\\
146	0.0802715027278977\\
147	0.0124518117914213\\
148	0.0167931141500754\\
149	0.112362653054357\\
};
\addlegendentry{$\mathbf{\hat{h}_{1}}$}

\addplot [color=mycolor2]
  table[row sep=crcr]{%
0	0.0197851348509329\\
1	0.00519463477546466\\
2	0.0559663376246371\\
3	0.0155079545435969\\
4	0.0825804813155033\\
5	0.0119516324581957\\
6	0.014289768646543\\
7	0.0536809151838785\\
8	0.0286815920372262\\
9	0.085138109715202\\
10	0.0890703410641987\\
11	0.0105257119582221\\
12	0.0590466023810983\\
13	0.0585948844668481\\
14	0.0206493581461291\\
15	0.0164488674850866\\
16	0.00929425347713917\\
17	0.0808951664038497\\
18	0.0693856663866421\\
19	0.0112178789177827\\
20	0.0193898129837722\\
21	0.0230140583519796\\
22	0.0750479296115461\\
23	0.0540358899052188\\
24	0.105830604478225\\
25	0.159821838037359\\
26	0.0899580063981085\\
27	0.0333418371980659\\
28	0.0508217524821101\\
29	0.0291721827888608\\
30	0.0679390038055692\\
31	0.111798529322094\\
32	0.0732774558005533\\
33	0.0551284138891532\\
34	0.05959962951072\\
35	0.00849260052304851\\
36	0.0348859117868156\\
37	0.079980542666319\\
38	0.0406635279575266\\
39	0.116989949379841\\
40	0.0178671916941355\\
41	0.043540771097608\\
42	0.0493709758409985\\
43	0.159580419989608\\
44	0.00590746394365403\\
45	0.0472928629406094\\
46	0.0658551744207685\\
47	3.34781281671808e-05\\
48	0.0945388966647671\\
49	0.0585201589787775\\
50	0.0214367214389263\\
51	0.0179568657472719\\
52	0.052315766292778\\
53	0.00671781274052875\\
54	0.056706419053056\\
55	0.00554860123101888\\
56	0.0646139117316048\\
57	0.00155848966191169\\
58	0.055552541428598\\
59	0.0710681154431591\\
60	0.144591640842589\\
61	0.0783220137840122\\
62	0.157515163989298\\
63	0.0305090849516183\\
64	0.0314290568155504\\
65	0.0131511074331742\\
66	0.133755167786366\\
67	0.0665402946253442\\
68	0.0234184292617516\\
69	0.0787886448549905\\
70	0.103028941224583\\
71	0.0945214451725461\\
72	0.0116585014639944\\
73	0.0812117555692366\\
74	0.491980317496685\\
75	0.0443838367432704\\
76	0.107746973736052\\
77	0.0703432511034524\\
78	0.028480817493507\\
79	0.0299763767944896\\
80	0.102581601922262\\
81	0.0461900155597233\\
82	0.0993997168788523\\
83	0.114902832087663\\
84	0.076284182544087\\
85	0.0425175721443262\\
86	0.00220914252242378\\
87	0.0559370617634355\\
88	0.105073285557777\\
89	0.0631011024230835\\
90	0.0524547252574255\\
91	0.13190726879369\\
92	0.0470806028855161\\
93	0.0648115907060538\\
94	0.00710220478609912\\
95	0.044771683523335\\
96	0.18185843438781\\
97	0.0101989326545386\\
98	0.0335919053616019\\
99	0.0878762970899738\\
100	0.0829447435564955\\
101	0.18288359384489\\
102	0.115810714760988\\
103	0.0961018156476444\\
104	0.0983074105830727\\
105	0.0567649315524548\\
106	0.0232775537116414\\
107	0.0337898114197551\\
108	0.171953182458896\\
109	0.0823102414673866\\
110	0.109437736530389\\
111	0.0498585202803737\\
112	0.0439373974620772\\
113	0.0487675940585178\\
114	0.0501308619675056\\
115	0.0302328654734844\\
116	0.0308570030642128\\
117	0.13115273348682\\
118	0.0575481350004363\\
119	0.0751437834386774\\
120	0.085136032492707\\
121	0.0948021377572657\\
122	0.0308679685917089\\
123	0.060064700003128\\
124	0.0259848987685454\\
125	0.0200848045915748\\
126	0.0893822879739696\\
127	0.058963360347205\\
128	0.0110228640404543\\
129	0.0179064322630338\\
130	0.0947944504252564\\
131	0.0285984376640079\\
132	0.0586191835731682\\
133	0.0908161354425883\\
134	0.0748228712803459\\
135	0.0104569254219069\\
136	0.00498554119438224\\
137	0.00749362285211965\\
138	0.0427797764799948\\
139	0.0121541039347375\\
140	0.106632830363757\\
141	0.0215615966503358\\
142	0.0553033327932908\\
143	0.0896214658647603\\
144	0.065290658061689\\
145	0.00637973991814161\\
146	0.0510543705000996\\
147	0.0702666836702382\\
148	0.0237472783644119\\
149	0.0798698880305695\\
};
\addlegendentry{$\mathbf{\hat{h}_{2}}$}

\end{axis}
\end{tikzpicture}%