% This file was created by matlab2tikz.
%
%The latest updates can be retrieved from
%  http://www.mathworks.com/matlabcentral/fileexchange/22022-matlab2tikz-matlab2tikz
%where you can also make suggestions and rate matlab2tikz.
%
\definecolor{mycolor1}{rgb}{0.00000,0.44700,0.74100}%
\definecolor{mycolor2}{rgb}{0.85000,0.32500,0.09800}%
%
\begin{tikzpicture}

\begin{axis}[%
width=1.935in,
height=3.2in,
at={(0.758in,0.512in)},
scale only axis,
xmin=0,
xmax=150,
xlabel style={font=\color{white!15!black}, align=center},
xlabel={Sample Index\\[1ex](a) Actual},
ymin=0,
ymax=0.7,
axis background/.style={fill=white},
legend style={legend cell align=left, align=left, draw=white!15!black}
]
\addplot [color=mycolor1]
  table[row sep=crcr]{%
1	0.0234657806037261\\
2	0.0272334504034075\\
3	0.0326864300765018\\
4	0.0414541482980318\\
5	0.0586677033458464\\
6	0.117843438362983\\
7	0.159969331461504\\
8	0.174397116945152\\
9	0.616552810702634\\
10	0.0882137642931462\\
11	0.0472681903124796\\
12	0.0327587509505929\\
13	0.0272256709659274\\
14	0.0412344622245766\\
15	0.0186762848129325\\
16	0.0451940046978057\\
17	0.0153724087875252\\
18	0.0239672675363248\\
19	0.0400285717874473\\
20	0.0828333966509162\\
21	0.557624977131952\\
22	0.149414784250917\\
23	0.109138078132702\\
24	0.0381681231028791\\
25	0.032799759178118\\
26	0.191519461959093\\
27	0.0734580287558902\\
28	0.0358315656953253\\
29	0.0179563195827385\\
30	0.0169149242156914\\
31	0.0179798517146348\\
32	0.0199431506445131\\
33	0.0279225394655299\\
34	0.0908594243819801\\
35	0.0439964246924232\\
36	0.330890477505262\\
37	0.037800506563543\\
38	0.020261933748638\\
39	0.0138181229977315\\
40	0.0211497159554441\\
41	0.0112042208144458\\
42	0.00964538908702694\\
43	0.00864780826327016\\
44	0.00787736374270682\\
45	0.00720180133294831\\
46	0.00651453200193765\\
47	0.00565492088107664\\
48	0.0112814316241706\\
49	0.0075966567083061\\
50	0.0102713040739602\\
51	0.00787142060243747\\
52	0.00711780022683946\\
53	0.00668443537322835\\
54	0.00638223966522588\\
55	0.00615487020840034\\
56	0.00598242225636516\\
57	0.00586293416152974\\
58	0.00581626175933958\\
59	0.00593494184987807\\
60	0.00707647204853056\\
61	0.00861312572402681\\
62	0.00240649054353041\\
63	0.0036902508247688\\
64	0.0040125763148678\\
65	0.00408542983582614\\
66	0.00408934467211144\\
67	0.00406760360864643\\
68	0.00403657730104579\\
69	0.00400486664899167\\
70	0.00397913876457006\\
71	0.00396763365360209\\
72	0.00398577860522856\\
73	0.00407460869510253\\
74	0.00440882178496405\\
75	0.00852319154542653\\
76	0.00211982859547221\\
77	0.00279674481878385\\
78	0.00295234209521732\\
79	0.00299967450324673\\
80	0.00300734384297471\\
81	0.00299658049652506\\
82	0.00297609501762909\\
83	0.00295010695632826\\
84	0.00292089738309008\\
85	0.00288979839106794\\
86	0.00285763293534116\\
87	0.00282493110979805\\
88	0.00279204510261472\\
89	0.00275921420187501\\
90	0.00272660345813555\\
91	0.00269432766245323\\
92	0.00266246675038502\\
93	0.00263107599882434\\
94	0.00260019295165966\\
95	0.00256984222925479\\
96	0.00254003893333548\\
97	0.0025107910982644\\
98	0.00248210148178531\\
99	0.00245396889001376\\
100	0.00242638916874131\\
101	0.00239935595223708\\
102	0.00237286123354156\\
103	0.00234689580183488\\
104	0.00232144957979209\\
105	0.00229651188498403\\
106	0.00227207163310714\\
107	0.0022481174963278\\
108	0.00222463802675857\\
109	0.00220162175268604\\
110	0.00217905725339276\\
111	0.0021569332170867\\
112	0.00213523848544673\\
113	0.00211396208753109\\
114	0.00209309326520902\\
115	0.00207262149182518\\
116	0.00205253648545491\\
117	0.00203282821783402\\
118	0.00201348691983224\\
119	0.00199450308416773\\
120	0.00197586746592614\\
121	0.00195757108133911\\
122	0.0019396052051902\\
123	0.0019219613671484\\
124	0.00190463134727109\\
125	0.00188760717087541\\
126	0.00187088110293773\\
127	0.00185444564215264\\
128	0.0018382935147574\\
129	0.00182241766820821\\
130	0.00180681126477794\\
131	0.00179146767513212\\
132	0.00177638047192757\\
133	0.00176154342347035\\
134	0.00174695048746156\\
135	0.0017325958048528\\
136	0.00171847369382931\\
137	0.00170457864393352\\
138	0.0016909053103386\\
139	0.00167744850827835\\
140	0.00166420320763913\\
141	0.00165116452771496\\
142	0.00163832773212761\\
143	0.00162568822391149\\
144	0.00161324154076111\\
145	0.0016009833504405\\
146	0.00158890944635072\\
147	0.00157701574325256\\
148	0.00156529827314105\\
149	0\\
150	0\\
};
\addlegendentry{$\mathbf{h_1}$}

\addplot [color=mycolor2]
  table[row sep=crcr]{%
1	0.019775303219206\\
2	0.0210217764534023\\
3	0.0224372323963497\\
4	0.024058742711813\\
5	0.0259351263737046\\
6	0.0281320174688059\\
7	0.0307398096072034\\
8	0.0338865833958781\\
9	0.0377600935275399\\
10	0.0426472101764649\\
11	0.0490094599986528\\
12	0.0576401827385178\\
13	0.0700288298559564\\
14	0.0893407156606893\\
15	0.123700774100431\\
16	0.202175033398071\\
17	0.564479813098353\\
18	0.690442426104836\\
19	0.212260509632627\\
20	0.126132345068284\\
21	0.100380135781766\\
22	0.0378663697499036\\
23	0.0333199748773482\\
24	0.0149453064107011\\
25	0.10083899339379\\
26	0.161002397050911\\
27	0.0405118251764787\\
28	0.0383644765554957\\
29	0.0341227495803863\\
30	0.0306469105251072\\
31	0.0278570926171954\\
32	0.0255709383506331\\
33	0.0236574529195357\\
34	0.0220274984760589\\
35	0.0206190941704396\\
36	0.0193877726649002\\
37	0.0183006807256663\\
38	0.0173329207549748\\
39	0.016465211935799\\
40	0.0156823459816501\\
41	0.0149721364414517\\
42	0.0143246843629073\\
43	0.0137318527665838\\
44	0.0131868826449622\\
45	0.0126841071808284\\
46	0.0122187355837443\\
47	0.0117866872087634\\
48	0.0113844626077037\\
49	0.0110090421200206\\
50	0.0106578052804057\\
51	0\\
52	0\\
53	0\\
54	0\\
55	0\\
56	0\\
57	0\\
58	0\\
59	0\\
60	0\\
61	0\\
62	0\\
63	0\\
64	0\\
65	0\\
66	0\\
67	0\\
68	0\\
69	0\\
70	0\\
71	0\\
72	0\\
73	0\\
74	0\\
75	0\\
76	0\\
77	0\\
78	0\\
79	0\\
80	0\\
81	0\\
82	0\\
83	0\\
84	0\\
85	0\\
86	0\\
87	0\\
88	0\\
89	0\\
90	0\\
91	0\\
92	0\\
93	0\\
94	0\\
95	0\\
96	0\\
97	0\\
98	0\\
99	0\\
100	0\\
101	0\\
102	0\\
103	0\\
104	0\\
105	0\\
106	0\\
107	0\\
108	0\\
109	0\\
110	0\\
111	0\\
112	0\\
113	0\\
114	0\\
115	0\\
116	0\\
117	0\\
118	0\\
119	0\\
120	0\\
121	0\\
122	0\\
123	0\\
124	0\\
125	0\\
126	0\\
127	0\\
128	0\\
129	0\\
130	0\\
131	0\\
132	0\\
133	0\\
134	0\\
135	0\\
136	0\\
137	0\\
138	0\\
139	0\\
140	0\\
141	0\\
142	0\\
143	0\\
144	0\\
145	0\\
146	0\\
147	0\\
148	0\\
149	0\\
150	0\\
};
\addlegendentry{$\mathbf{h_{2}}$}

\end{axis}

\begin{axis}[%
width=1.935in,
height=3.2in,
at={(3.327in,0.512in)},
scale only axis,
xmin=0,
xmax=150,
xlabel style={font=\color{white!15!black}, align=center},
xlabel={Sample Index\\[1ex](b) Estimated},
ymin=0,
ymax=1,
axis background/.style={fill=white},
legend style={legend cell align=left, align=left, draw=white!15!black}
]
\addplot [color=mycolor1]
  table[row sep=crcr]{%
0	2.35870430579566e-05\\
1	0.00010164336783155\\
2	7.29604123533056e-05\\
3	5.22547976476891e-05\\
4	7.27862832457129e-05\\
5	2.44534933326042e-05\\
6	3.04084127265337e-05\\
7	0.000123739149150822\\
8	4.31250352086394e-05\\
9	0.000171615546378872\\
10	7.68961423055697e-05\\
11	9.54933016348746e-05\\
12	5.06099844736756e-05\\
13	0.000241567599653394\\
14	0.000136156111551639\\
15	0.000298624910237765\\
16	0.00140688510470101\\
17	9.24618050308248e-05\\
18	7.45498638115533e-05\\
19	0.00508444904262056\\
20	7.3183965157929e-05\\
21	0.00309535169121508\\
22	7.99168602258659e-05\\
23	0.000158909858002852\\
24	0.0005181631105926\\
25	0.000227506643191242\\
26	0.00222090074561907\\
27	0.00117578141973372\\
28	0.00583714759851361\\
29	0.00883552122718662\\
30	0.00555324719532573\\
31	0.00729111242903453\\
32	0.0161472754677981\\
33	0.0246562700943114\\
34	0.0204702414195904\\
35	0.0129453377814353\\
36	0.0180117735759724\\
37	0.00544853975739583\\
38	0.0103033591187072\\
39	0.0115109687914346\\
40	0.0142155155435514\\
41	0.00177698698699606\\
42	0.0107519624813704\\
43	0.0238832045078081\\
44	0.00926716379899768\\
45	0.0379915339412274\\
46	0.0933620526980564\\
47	0.032743118979098\\
48	0.0254819621496982\\
49	0.0543325238328797\\
50	0.00923584759312949\\
51	0.0177538495155823\\
52	0.103876452418512\\
53	0.0330831457033357\\
54	0.032629511287102\\
55	0.0366819607224668\\
56	0.0320719805857406\\
57	0.0461793871666676\\
58	0.146714393593927\\
59	0.0345720146838636\\
60	0.478486327456687\\
61	0.395486809155198\\
62	0.104341128629941\\
63	0.092374322754193\\
64	0.0306967605270409\\
65	0.0955275020622016\\
66	0.035188445348768\\
67	0.0539495741308145\\
68	0.0229691699286499\\
69	0.0887506860456338\\
70	0.0960366493710977\\
71	0.121434848207555\\
72	0.246969875924863\\
73	0.468400014436555\\
74	0.191306331372623\\
75	0.0805627614010759\\
76	0.0770941215982497\\
77	0.102335802954357\\
78	0.100228114543014\\
79	0.10707225675884\\
80	0.027139489387405\\
81	0.0374754586535408\\
82	0.0391563130401524\\
83	0.0280301900337182\\
84	0.0402409730847825\\
85	0.113525721731481\\
86	0.103048135583559\\
87	0.276000507543545\\
88	0.0978144957850229\\
89	0.0365404708695873\\
90	0.0510786065726115\\
91	0.0152638278869309\\
92	0.00769031566054595\\
93	0.0168907319964212\\
94	0.0167535043367869\\
95	0.0250472011057705\\
96	0.00273313868603924\\
97	0.0212042368713719\\
98	0.0276749840547114\\
99	0.0612124881366335\\
100	0.0382363189958518\\
101	6.75513927409772e-05\\
102	0.0277398686599925\\
103	0.00153972697052577\\
104	0.00572847846614249\\
105	0.00617535065470422\\
106	0.00192880936419263\\
107	0.00203824558924163\\
108	0.0010189134428867\\
109	3.16066721989408e-05\\
110	0.00181296700648403\\
111	7.53832289628198e-05\\
112	0.0206637112473011\\
113	0.00490508937465779\\
114	0.0057666155512632\\
115	0.00279061005974885\\
116	0.00117441479018634\\
117	0.000869714636710989\\
118	0.000146024322082163\\
119	0.000835778015748979\\
120	0.000177451978654324\\
121	0.000239920524306667\\
122	5.00762218544415e-05\\
123	7.33213494343289e-05\\
124	0.000791225443811624\\
125	0.000148056887579628\\
126	0.00105682214760807\\
127	0.00178105489153406\\
128	5.66239361821073e-06\\
129	0.000425013402427314\\
130	9.00717419582967e-05\\
131	6.69723347240881e-05\\
132	7.7016687078742e-05\\
133	6.00233278297515e-05\\
134	6.9984869549622e-05\\
135	0.000312395749397326\\
136	6.20442187865627e-06\\
137	1.98106808347364e-05\\
138	6.25472701915484e-05\\
139	0.00012770539676532\\
};
\addlegendentry{$\mathbf{\hat{h}_{1}}$}

\addplot [color=mycolor2]
  table[row sep=crcr]{%
0	6.09746534163539e-05\\
1	5.89891327933772e-05\\
2	0.000135435427554232\\
3	0.000229108840345659\\
4	2.24648184572486e-05\\
5	4.12441362590749e-05\\
6	2.64320670605673e-05\\
7	2.15969813534558e-05\\
8	0.000280025578123571\\
9	3.45440862586028e-05\\
10	3.56458786307563e-05\\
11	0.000782046299711748\\
12	0.00045557698035279\\
13	2.43851823552843e-05\\
14	0.000765383965517761\\
15	0.00259354094948025\\
16	1.73257242396204e-05\\
17	0.00317003059984105\\
18	0.00175468111820631\\
19	0.0014448849934855\\
20	2.03542686878412e-05\\
21	0.000148966735180908\\
22	0.000607940962438726\\
23	2.94736564858612e-05\\
24	0.000218872835035689\\
25	0.00414565021726453\\
26	3.9067160057951e-05\\
27	0.00631203485746247\\
28	0.0123740777902982\\
29	0.00855745698847516\\
30	0.0114603386827304\\
31	0.00159464302058604\\
32	0.00871134366493603\\
33	0.00418084595699236\\
34	0.000425865999413553\\
35	0.00471998768930558\\
36	0.00658984521360667\\
37	0.00979634903661939\\
38	0.00308539284737002\\
39	0.00126760557319968\\
40	0.0202434475315604\\
41	0.0107784769209837\\
42	0.05506558391084\\
43	0.0112021297466336\\
44	0.0298716813052184\\
45	0.0161149794907634\\
46	0.00804959997969912\\
47	0.000116906286347397\\
48	0.00322457273168718\\
49	0.0109057835302744\\
50	0.00776552987889675\\
51	0.00936466720505076\\
52	0.0319983068373931\\
53	0.0242839725098776\\
54	0.0618115188839654\\
55	0.0327435489242992\\
56	0.0466620927718955\\
57	0.132973495235103\\
58	0.0282240731477098\\
59	0.0294128081767485\\
60	0.00744139790584177\\
61	0.0256660475980611\\
62	0.0192341214974987\\
63	0.0207776639329038\\
64	0.0101472707659527\\
65	0.0148445988757779\\
66	0.0290077272180169\\
67	0.0386054239068332\\
68	0.0354848943178731\\
69	0.959862196883566\\
70	0.0350883092409915\\
71	0.0379973531917324\\
72	0.0282530216788757\\
73	0.0157654703611224\\
74	0.0113101263109531\\
75	0.0214594066450122\\
76	0.01977008906025\\
77	0.0279501024018737\\
78	0.00812337164623327\\
79	0.0281325612520802\\
80	0.0278595978179989\\
81	0.132299687658006\\
82	0.0471249212568384\\
83	0.0316886409459221\\
84	0.0629112241548333\\
85	0.0241070716827013\\
86	0.0327050688139407\\
87	0.00945726672096538\\
88	0.00836669798011751\\
89	0.0102613156375309\\
90	0.00316669776134868\\
91	0.000531297479759877\\
92	0.00709114057203452\\
93	0.0156485809880136\\
94	0.0295338156574535\\
95	0.0111903185775157\\
96	0.0556484154285616\\
97	0.0106633192189993\\
98	0.0194501593481564\\
99	0.00169739731883513\\
100	0.00324698543833434\\
101	0.00987350367116314\\
102	0.00649691398136589\\
103	0.00517172353397699\\
104	0.00113448168131799\\
105	0.00423867466592768\\
106	0.00803076859516105\\
107	0.00189024527678956\\
108	0.0105987244424176\\
109	0.00847224160735059\\
110	0.0127132274275039\\
111	0.00776148854931153\\
112	3.77385557580276e-05\\
113	0.00436123838243514\\
114	0.000429410796386258\\
115	0.000327755871582229\\
116	0.000678874491455062\\
117	0.000119299929297768\\
118	4.70206259580261e-05\\
119	0.00134007663833265\\
120	0.00158576716283057\\
121	0.00302492462263725\\
122	3.37581165379439e-05\\
123	0.00218569209021235\\
124	0.000877495296380438\\
125	2.25152113190818e-05\\
126	0.000276658249797139\\
127	0.000581287876780834\\
128	2.28409615239292e-05\\
129	7.18237829782209e-05\\
130	0.000184335570458574\\
131	1.84609444677486e-05\\
132	1.69219797447541e-05\\
133	4.04429879284616e-05\\
134	1.01533061399874e-05\\
135	0.000382724619101312\\
136	0.000165278398832089\\
137	0.000114209035904413\\
138	7.90407559649064e-05\\
139	3.18983781612566e-05\\
};
\addlegendentry{$\mathbf{\hat{h}_{2}}$}

\end{axis}
\end{tikzpicture}%