% This file was created by matlab2tikz.
%
%The latest updates can be retrieved from
%  http://www.mathworks.com/matlabcentral/fileexchange/22022-matlab2tikz-matlab2tikz
%where you can also make suggestions and rate matlab2tikz.
%
\definecolor{mycolor1}{rgb}{0.00000,0.44700,0.74100}%
\definecolor{mycolor2}{rgb}{0.85000,0.32500,0.09800}%
%
\begin{tikzpicture}

\begin{axis}[%
width=1.935in,
height=3.2in,
at={(0.758in,0.512in)},
scale only axis,
xmin=0,
xmax=150,
xlabel style={font=\color{white!15!black}, align=center},
xlabel={Sample Index\\[1ex](a) Actual},
ymin=0,
ymax=0.7,
axis background/.style={fill=white},
legend style={legend cell align=left, align=left, draw=white!15!black}
]
\addplot [color=mycolor1]
  table[row sep=crcr]{%
1	0.0234657806037261\\
2	0.0272334504034075\\
3	0.0326864300765018\\
4	0.0414541482980318\\
5	0.0586677033458464\\
6	0.117843438362983\\
7	0.159969331461504\\
8	0.174397116945152\\
9	0.616552810702634\\
10	0.0882137642931462\\
11	0.0472681903124796\\
12	0.0327587509505929\\
13	0.0272256709659274\\
14	0.0412344622245766\\
15	0.0186762848129325\\
16	0.0451940046978057\\
17	0.0153724087875252\\
18	0.0239672675363248\\
19	0.0400285717874473\\
20	0.0828333966509162\\
21	0.557624977131952\\
22	0.149414784250917\\
23	0.109138078132702\\
24	0.0381681231028791\\
25	0.032799759178118\\
26	0.191519461959093\\
27	0.0734580287558902\\
28	0.0358315656953253\\
29	0.0179563195827385\\
30	0.0169149242156914\\
31	0.0179798517146348\\
32	0.0199431506445131\\
33	0.0279225394655299\\
34	0.0908594243819801\\
35	0.0439964246924232\\
36	0.330890477505262\\
37	0.037800506563543\\
38	0.020261933748638\\
39	0.0138181229977315\\
40	0.0211497159554441\\
41	0.0112042208144458\\
42	0.00964538908702694\\
43	0.00864780826327016\\
44	0.00787736374270682\\
45	0.00720180133294831\\
46	0.00651453200193765\\
47	0.00565492088107664\\
48	0.0112814316241706\\
49	0.0075966567083061\\
50	0.0102713040739602\\
51	0.00787142060243747\\
52	0.00711780022683946\\
53	0.00668443537322835\\
54	0.00638223966522588\\
55	0.00615487020840034\\
56	0.00598242225636516\\
57	0.00586293416152974\\
58	0.00581626175933958\\
59	0.00593494184987807\\
60	0.00707647204853056\\
61	0.00861312572402681\\
62	0.00240649054353041\\
63	0.0036902508247688\\
64	0.0040125763148678\\
65	0.00408542983582614\\
66	0.00408934467211144\\
67	0.00406760360864643\\
68	0.00403657730104579\\
69	0.00400486664899167\\
70	0.00397913876457006\\
71	0.00396763365360209\\
72	0.00398577860522856\\
73	0.00407460869510253\\
74	0.00440882178496405\\
75	0.00852319154542653\\
76	0.00211982859547221\\
77	0.00279674481878385\\
78	0.00295234209521732\\
79	0.00299967450324673\\
80	0.00300734384297471\\
81	0.00299658049652506\\
82	0.00297609501762909\\
83	0.00295010695632826\\
84	0.00292089738309008\\
85	0.00288979839106794\\
86	0.00285763293534116\\
87	0.00282493110979805\\
88	0.00279204510261472\\
89	0.00275921420187501\\
90	0.00272660345813555\\
91	0.00269432766245323\\
92	0.00266246675038502\\
93	0.00263107599882434\\
94	0.00260019295165966\\
95	0.00256984222925479\\
96	0.00254003893333548\\
97	0.0025107910982644\\
98	0.00248210148178531\\
99	0.00245396889001376\\
100	0.00242638916874131\\
101	0.00239935595223708\\
102	0.00237286123354156\\
103	0.00234689580183488\\
104	0.00232144957979209\\
105	0.00229651188498403\\
106	0.00227207163310714\\
107	0.0022481174963278\\
108	0.00222463802675857\\
109	0.00220162175268604\\
110	0.00217905725339276\\
111	0.0021569332170867\\
112	0.00213523848544673\\
113	0.00211396208753109\\
114	0.00209309326520902\\
115	0.00207262149182518\\
116	0.00205253648545491\\
117	0.00203282821783402\\
118	0.00201348691983224\\
119	0.00199450308416773\\
120	0.00197586746592614\\
121	0.00195757108133911\\
122	0.0019396052051902\\
123	0.0019219613671484\\
124	0.00190463134727109\\
125	0.00188760717087541\\
126	0.00187088110293773\\
127	0.00185444564215264\\
128	0.0018382935147574\\
129	0.00182241766820821\\
130	0.00180681126477794\\
131	0.00179146767513212\\
132	0.00177638047192757\\
133	0.00176154342347035\\
134	0.00174695048746156\\
135	0.0017325958048528\\
136	0.00171847369382931\\
137	0.00170457864393352\\
138	0.0016909053103386\\
139	0.00167744850827835\\
140	0.00166420320763913\\
141	0.00165116452771496\\
142	0.00163832773212761\\
143	0.00162568822391149\\
144	0.00161324154076111\\
145	0.0016009833504405\\
146	0.00158890944635072\\
147	0.00157701574325256\\
148	0.00156529827314105\\
149	0\\
150	0\\
};
\addlegendentry{$\mathbf{h_1}$}

\addplot [color=mycolor2]
  table[row sep=crcr]{%
1	0.019775303219206\\
2	0.0210217764534023\\
3	0.0224372323963497\\
4	0.024058742711813\\
5	0.0259351263737046\\
6	0.0281320174688059\\
7	0.0307398096072034\\
8	0.0338865833958781\\
9	0.0377600935275399\\
10	0.0426472101764649\\
11	0.0490094599986528\\
12	0.0576401827385178\\
13	0.0700288298559564\\
14	0.0893407156606893\\
15	0.123700774100431\\
16	0.202175033398071\\
17	0.564479813098353\\
18	0.690442426104836\\
19	0.212260509632627\\
20	0.126132345068284\\
21	0.100380135781766\\
22	0.0378663697499036\\
23	0.0333199748773482\\
24	0.0149453064107011\\
25	0.10083899339379\\
26	0.161002397050911\\
27	0.0405118251764787\\
28	0.0383644765554957\\
29	0.0341227495803863\\
30	0.0306469105251072\\
31	0.0278570926171954\\
32	0.0255709383506331\\
33	0.0236574529195357\\
34	0.0220274984760589\\
35	0.0206190941704396\\
36	0.0193877726649002\\
37	0.0183006807256663\\
38	0.0173329207549748\\
39	0.016465211935799\\
40	0.0156823459816501\\
41	0.0149721364414517\\
42	0.0143246843629073\\
43	0.0137318527665838\\
44	0.0131868826449622\\
45	0.0126841071808284\\
46	0.0122187355837443\\
47	0.0117866872087634\\
48	0.0113844626077037\\
49	0.0110090421200206\\
50	0.0106578052804057\\
51	0\\
52	0\\
53	0\\
54	0\\
55	0\\
56	0\\
57	0\\
58	0\\
59	0\\
60	0\\
61	0\\
62	0\\
63	0\\
64	0\\
65	0\\
66	0\\
67	0\\
68	0\\
69	0\\
70	0\\
71	0\\
72	0\\
73	0\\
74	0\\
75	0\\
76	0\\
77	0\\
78	0\\
79	0\\
80	0\\
81	0\\
82	0\\
83	0\\
84	0\\
85	0\\
86	0\\
87	0\\
88	0\\
89	0\\
90	0\\
91	0\\
92	0\\
93	0\\
94	0\\
95	0\\
96	0\\
97	0\\
98	0\\
99	0\\
100	0\\
101	0\\
102	0\\
103	0\\
104	0\\
105	0\\
106	0\\
107	0\\
108	0\\
109	0\\
110	0\\
111	0\\
112	0\\
113	0\\
114	0\\
115	0\\
116	0\\
117	0\\
118	0\\
119	0\\
120	0\\
121	0\\
122	0\\
123	0\\
124	0\\
125	0\\
126	0\\
127	0\\
128	0\\
129	0\\
130	0\\
131	0\\
132	0\\
133	0\\
134	0\\
135	0\\
136	0\\
137	0\\
138	0\\
139	0\\
140	0\\
141	0\\
142	0\\
143	0\\
144	0\\
145	0\\
146	0\\
147	0\\
148	0\\
149	0\\
150	0\\
};
\addlegendentry{$\mathbf{h_{2}}$}

\end{axis}

\begin{axis}[%
width=1.935in,
height=3.2in,
at={(3.327in,0.512in)},
scale only axis,
xmin=0,
xmax=74,
xlabel style={font=\color{white!15!black}, align=center},
xlabel={Sample Index\\[1ex](b) Estimated},
ymin=0,
ymax=1,
axis background/.style={fill=white},
legend style={legend cell align=left, align=left, draw=white!15!black}
]
\addplot [color=mycolor1]
  table[row sep=crcr]{%
0	0.0338679101869915\\
1	0.0275498889315783\\
2	0.0155334494164696\\
3	0.0299508411227995\\
4	0.00885174793271716\\
5	0.0144139088920884\\
6	0.0123108912641225\\
7	0.0170760742562197\\
8	0.000363177677674718\\
9	0.012047741213701\\
10	0.0311859611534998\\
11	0.00732221762789108\\
12	0.0413974498659912\\
13	0.108024800392152\\
14	0.0371887267795726\\
15	0.0363556729309433\\
16	0.0627839916584903\\
17	0.0138530071042436\\
18	0.0209404384599489\\
19	0.100672928597664\\
20	0.033973465484898\\
21	0.0335096444624927\\
22	0.0397066243615646\\
23	0.0365688387837568\\
24	0.0449444013562813\\
25	0.143463116849989\\
26	0.0400318191745981\\
27	0.47191894181992\\
28	0.392314462404089\\
29	0.103284969498252\\
30	0.0984207908132576\\
31	0.0282060175771696\\
32	0.0925732603307772\\
33	0.0353331848912907\\
34	0.0536833038391359\\
35	0.0289567051796469\\
36	0.0936764472374345\\
37	0.101587528527996\\
38	0.124595515213746\\
39	0.241171446873954\\
40	0.460891440918733\\
41	0.191278712338725\\
42	0.0904343975394636\\
43	0.0783824266151356\\
44	0.101827289927403\\
45	0.104810304561197\\
46	0.106105352141344\\
47	0.0321338814631045\\
48	0.0406752130719156\\
49	0.0447315394044426\\
50	0.0329091172847098\\
51	0.041402088971346\\
52	0.120847092981805\\
53	0.101119513035089\\
54	0.272862967985201\\
55	0.0989074908542176\\
56	0.0372079624237557\\
57	0.0561094026840287\\
58	0.018803379428264\\
59	0.0121495507385653\\
60	0.023689670578621\\
61	0.0175019966257247\\
62	0.0267658949360354\\
63	0.00552429099234674\\
64	0.0267156510482051\\
65	0.0309217000304696\\
66	0.0745334976060938\\
67	0.0499939624923731\\
68	0.00255133882974112\\
69	0.0402776333001362\\
70	0.000349557290298963\\
71	0.00982634277238906\\
72	0.0111701383688533\\
73	0.00544013690902058\\
74	0.00528588489810282\\
};
\addlegendentry{$\mathbf{\hat{h}_{1}}$}

\addplot [color=mycolor2]
  table[row sep=crcr]{%
0	0.00472213596255979\\
1	0.00163301130075214\\
2	0.00384231812870105\\
3	0.00730285304827425\\
4	0.00917409500582832\\
5	0.00311584416775358\\
6	0.00360939711993572\\
7	0.0188480727786658\\
8	0.00972593627473222\\
9	0.05348585273137\\
10	0.00985430491582565\\
11	0.0333643714875405\\
12	0.016812979702757\\
13	0.00763143236758726\\
14	0.00184501807355298\\
15	0.002003697653692\\
16	0.00945928169078833\\
17	0.00819850641534368\\
18	0.00971694474210671\\
19	0.0321837195162092\\
20	0.0273581488118829\\
21	0.0640452864720206\\
22	0.0322326704532575\\
23	0.0479787170620769\\
24	0.14212206844531\\
25	0.031416757123481\\
26	0.0312111330164353\\
27	0.00825123229691139\\
28	0.0343483779870179\\
29	0.0198638667716595\\
30	0.0236183453979065\\
31	0.0111999618410854\\
32	0.0193285085938595\\
33	0.0321100042120143\\
34	0.0402851962710214\\
35	0.0383234877609663\\
36	0.955368757034069\\
37	0.0378906195908973\\
38	0.0394744847341071\\
39	0.0311125477770023\\
40	0.0201984302119028\\
41	0.0123243437553688\\
42	0.0244077502609304\\
43	0.0208988947713863\\
44	0.037005458088814\\
45	0.00893219823879942\\
46	0.0305435418252636\\
47	0.0306709959184105\\
48	0.141632622597826\\
49	0.0485975989493049\\
50	0.030589975844425\\
51	0.0651642758877601\\
52	0.0268902722206501\\
53	0.0337527789142886\\
54	0.00970463188119578\\
55	0.00859965406360246\\
56	0.00952498508434881\\
57	0.00206129263298306\\
58	0.00121841930336613\\
59	0.0063792069361737\\
60	0.0154486710272499\\
61	0.0313350113817366\\
62	0.0110086303874544\\
63	0.0531119658207914\\
64	0.0103573445469465\\
65	0.0210060922706528\\
66	0.00134629613192397\\
67	0.00347352119574225\\
68	0.0104974248858288\\
69	0.00747191728144908\\
70	0.00434748752156635\\
71	0.00393700823802842\\
72	0.00530545591117658\\
73	0.0110120282697307\\
74	0.00427405677134821\\
};
\addlegendentry{$\mathbf{\hat{h}_{2}}$}

\end{axis}
\end{tikzpicture}%