% This file was created by matlab2tikz.
%
%The latest updates can be retrieved from
%  http://www.mathworks.com/matlabcentral/fileexchange/22022-matlab2tikz-matlab2tikz
%where you can also make suggestions and rate matlab2tikz.
%
\definecolor{mycolor1}{rgb}{0.00000,0.44700,0.74100}%
\definecolor{mycolor2}{rgb}{0.85000,0.32500,0.09800}%
%
\begin{tikzpicture}

\begin{axis}[%
width=1.935in,
height=3.2in,
at={(0.758in,0.512in)},
scale only axis,
xmin=0,
xmax=150,
xlabel style={font=\color{white!15!black}, align=center},
xlabel={Sample Index\\[1ex](a) Actual},
ymin=0,
ymax=0.7,
axis background/.style={fill=white},
legend style={legend cell align=left, align=left, draw=white!15!black}
]
\addplot [color=mycolor1]
  table[row sep=crcr]{%
1	0.0234657806037261\\
2	0.0272334504034075\\
3	0.0326864300765018\\
4	0.0414541482980318\\
5	0.0586677033458464\\
6	0.117843438362983\\
7	0.159969331461504\\
8	0.174397116945152\\
9	0.616552810702634\\
10	0.0882137642931462\\
11	0.0472681903124796\\
12	0.0327587509505929\\
13	0.0272256709659274\\
14	0.0412344622245766\\
15	0.0186762848129325\\
16	0.0451940046978057\\
17	0.0153724087875252\\
18	0.0239672675363248\\
19	0.0400285717874473\\
20	0.0828333966509162\\
21	0.557624977131952\\
22	0.149414784250917\\
23	0.109138078132702\\
24	0.0381681231028791\\
25	0.032799759178118\\
26	0.191519461959093\\
27	0.0734580287558902\\
28	0.0358315656953253\\
29	0.0179563195827385\\
30	0.0169149242156914\\
31	0.0179798517146348\\
32	0.0199431506445131\\
33	0.0279225394655299\\
34	0.0908594243819801\\
35	0.0439964246924232\\
36	0.330890477505262\\
37	0.037800506563543\\
38	0.020261933748638\\
39	0.0138181229977315\\
40	0.0211497159554441\\
41	0.0112042208144458\\
42	0.00964538908702694\\
43	0.00864780826327016\\
44	0.00787736374270682\\
45	0.00720180133294831\\
46	0.00651453200193765\\
47	0.00565492088107664\\
48	0.0112814316241706\\
49	0.0075966567083061\\
50	0.0102713040739602\\
51	0.00787142060243747\\
52	0.00711780022683946\\
53	0.00668443537322835\\
54	0.00638223966522588\\
55	0.00615487020840034\\
56	0.00598242225636516\\
57	0.00586293416152974\\
58	0.00581626175933958\\
59	0.00593494184987807\\
60	0.00707647204853056\\
61	0.00861312572402681\\
62	0.00240649054353041\\
63	0.0036902508247688\\
64	0.0040125763148678\\
65	0.00408542983582614\\
66	0.00408934467211144\\
67	0.00406760360864643\\
68	0.00403657730104579\\
69	0.00400486664899167\\
70	0.00397913876457006\\
71	0.00396763365360209\\
72	0.00398577860522856\\
73	0.00407460869510253\\
74	0.00440882178496405\\
75	0.00852319154542653\\
76	0.00211982859547221\\
77	0.00279674481878385\\
78	0.00295234209521732\\
79	0.00299967450324673\\
80	0.00300734384297471\\
81	0.00299658049652506\\
82	0.00297609501762909\\
83	0.00295010695632826\\
84	0.00292089738309008\\
85	0.00288979839106794\\
86	0.00285763293534116\\
87	0.00282493110979805\\
88	0.00279204510261472\\
89	0.00275921420187501\\
90	0.00272660345813555\\
91	0.00269432766245323\\
92	0.00266246675038502\\
93	0.00263107599882434\\
94	0.00260019295165966\\
95	0.00256984222925479\\
96	0.00254003893333548\\
97	0.0025107910982644\\
98	0.00248210148178531\\
99	0.00245396889001376\\
100	0.00242638916874131\\
101	0.00239935595223708\\
102	0.00237286123354156\\
103	0.00234689580183488\\
104	0.00232144957979209\\
105	0.00229651188498403\\
106	0.00227207163310714\\
107	0.0022481174963278\\
108	0.00222463802675857\\
109	0.00220162175268604\\
110	0.00217905725339276\\
111	0.0021569332170867\\
112	0.00213523848544673\\
113	0.00211396208753109\\
114	0.00209309326520902\\
115	0.00207262149182518\\
116	0.00205253648545491\\
117	0.00203282821783402\\
118	0.00201348691983224\\
119	0.00199450308416773\\
120	0.00197586746592614\\
121	0.00195757108133911\\
122	0.0019396052051902\\
123	0.0019219613671484\\
124	0.00190463134727109\\
125	0.00188760717087541\\
126	0.00187088110293773\\
127	0.00185444564215264\\
128	0.0018382935147574\\
129	0.00182241766820821\\
130	0.00180681126477794\\
131	0.00179146767513212\\
132	0.00177638047192757\\
133	0.00176154342347035\\
134	0.00174695048746156\\
135	0.0017325958048528\\
136	0.00171847369382931\\
137	0.00170457864393352\\
138	0.0016909053103386\\
139	0.00167744850827835\\
140	0.00166420320763913\\
141	0.00165116452771496\\
142	0.00163832773212761\\
143	0.00162568822391149\\
144	0.00161324154076111\\
145	0.0016009833504405\\
146	0.00158890944635072\\
147	0.00157701574325256\\
148	0.00156529827314105\\
149	0\\
150	0\\
};
\addlegendentry{$\mathbf{h_1}$}

\addplot [color=mycolor2]
  table[row sep=crcr]{%
1	0.019775303219206\\
2	0.0210217764534023\\
3	0.0224372323963497\\
4	0.024058742711813\\
5	0.0259351263737046\\
6	0.0281320174688059\\
7	0.0307398096072034\\
8	0.0338865833958781\\
9	0.0377600935275399\\
10	0.0426472101764649\\
11	0.0490094599986528\\
12	0.0576401827385178\\
13	0.0700288298559564\\
14	0.0893407156606893\\
15	0.123700774100431\\
16	0.202175033398071\\
17	0.564479813098353\\
18	0.690442426104836\\
19	0.212260509632627\\
20	0.126132345068284\\
21	0.100380135781766\\
22	0.0378663697499036\\
23	0.0333199748773482\\
24	0.0149453064107011\\
25	0.10083899339379\\
26	0.161002397050911\\
27	0.0405118251764787\\
28	0.0383644765554957\\
29	0.0341227495803863\\
30	0.0306469105251072\\
31	0.0278570926171954\\
32	0.0255709383506331\\
33	0.0236574529195357\\
34	0.0220274984760589\\
35	0.0206190941704396\\
36	0.0193877726649002\\
37	0.0183006807256663\\
38	0.0173329207549748\\
39	0.016465211935799\\
40	0.0156823459816501\\
41	0.0149721364414517\\
42	0.0143246843629073\\
43	0.0137318527665838\\
44	0.0131868826449622\\
45	0.0126841071808284\\
46	0.0122187355837443\\
47	0.0117866872087634\\
48	0.0113844626077037\\
49	0.0110090421200206\\
50	0.0106578052804057\\
51	0\\
52	0\\
53	0\\
54	0\\
55	0\\
56	0\\
57	0\\
58	0\\
59	0\\
60	0\\
61	0\\
62	0\\
63	0\\
64	0\\
65	0\\
66	0\\
67	0\\
68	0\\
69	0\\
70	0\\
71	0\\
72	0\\
73	0\\
74	0\\
75	0\\
76	0\\
77	0\\
78	0\\
79	0\\
80	0\\
81	0\\
82	0\\
83	0\\
84	0\\
85	0\\
86	0\\
87	0\\
88	0\\
89	0\\
90	0\\
91	0\\
92	0\\
93	0\\
94	0\\
95	0\\
96	0\\
97	0\\
98	0\\
99	0\\
100	0\\
101	0\\
102	0\\
103	0\\
104	0\\
105	0\\
106	0\\
107	0\\
108	0\\
109	0\\
110	0\\
111	0\\
112	0\\
113	0\\
114	0\\
115	0\\
116	0\\
117	0\\
118	0\\
119	0\\
120	0\\
121	0\\
122	0\\
123	0\\
124	0\\
125	0\\
126	0\\
127	0\\
128	0\\
129	0\\
130	0\\
131	0\\
132	0\\
133	0\\
134	0\\
135	0\\
136	0\\
137	0\\
138	0\\
139	0\\
140	0\\
141	0\\
142	0\\
143	0\\
144	0\\
145	0\\
146	0\\
147	0\\
148	0\\
149	0\\
150	0\\
};
\addlegendentry{$\mathbf{h_{2}}$}

\end{axis}

\begin{axis}[%
width=1.935in,
height=3.2in,
at={(3.327in,0.512in)},
scale only axis,
xmin=0,
xmax=300,
xlabel style={font=\color{white!15!black}, align=center},
xlabel={Sample Index\\[1ex](b) Estimated},
ymin=0,
ymax=1,
axis background/.style={fill=white},
legend style={legend cell align=left, align=left, draw=white!15!black}
]
\addplot [color=mycolor1]
  table[row sep=crcr]{%
0	0.000554212095669987\\
1	0.000591713095570632\\
2	0.00172106358788033\\
3	0.000206151563863069\\
4	0.000730846027395155\\
5	0.00014716030413495\\
6	0.00133928060232306\\
7	0.00154439527567053\\
8	0.000830785528744168\\
9	0.00128389187974085\\
10	0.00125567221427462\\
11	0.00040480610734807\\
12	0.000506406980770214\\
13	0.000274717907563355\\
14	0.00119810226627572\\
15	0.000715905746956736\\
16	0.00112772181292907\\
17	0.000370777188010767\\
18	0.00128505059294473\\
19	0.000228652683250791\\
20	0.000862753852555431\\
21	0.000829284801582552\\
22	0.00124477602178751\\
23	0.00158720565212282\\
24	0.000683862793594269\\
25	0.000204231366792014\\
26	0.00127258313026192\\
27	0.000631526968306683\\
28	0.00195775076372685\\
29	0.00158833659618635\\
30	0.00132842170565182\\
31	0.00152573399201671\\
32	0.000665024802271283\\
33	0.00051200834652339\\
34	0.00106300945823012\\
35	0.0001842465987902\\
36	0.000320042954260961\\
37	0.00125156259653095\\
38	0.000988670422293996\\
39	0.000554588275399238\\
40	0.00177657791614788\\
41	0.00132205112154977\\
42	0.000711398812633105\\
43	0.00107629789268374\\
44	0.00105290244324353\\
45	0.000607035903498527\\
46	0.00066920795919704\\
47	0.0007620136346761\\
48	0.000774869716010208\\
49	0.00125463811080818\\
50	0.000631519906900777\\
51	0.000657754737477833\\
52	0.00054773769340922\\
53	0.00187578107321787\\
54	0.00135343916568043\\
55	0.00120617652294955\\
56	0.00140478733683433\\
57	0.00102629723286336\\
58	0.00076305776968683\\
59	0.000672796979108884\\
60	0.00140418038552691\\
61	0.000338924137275007\\
62	0.000406134155028367\\
63	0.000513692916952484\\
64	0.000804742799450493\\
65	9.01438028878004e-05\\
66	0.000795798110010001\\
67	0.00124258873743246\\
68	0.000717656179256311\\
69	0.0012022613099357\\
70	0.00141603542690457\\
71	0.00128446651195445\\
72	0.0014675712388546\\
73	0.00109830010640453\\
74	0.00160759164688484\\
75	0.00108131281020847\\
76	0.00122941356753451\\
77	0.00146521866670965\\
78	0.00194277980914321\\
79	0.00140535775593397\\
80	0.00152981091920403\\
81	0.000858696224767229\\
82	0.0019362574503534\\
83	0.000735252699013248\\
84	0.00149234072564713\\
85	0.000746070555568627\\
86	0.00226959211016809\\
87	9.62450217447157e-05\\
88	0.0033733602672991\\
89	0.000703685011993702\\
90	0.00202157304688615\\
91	0.00260974641171272\\
92	0.00336590242903451\\
93	0.00350549193080652\\
94	0.00167020515464945\\
95	0.00235948503167861\\
96	0.00450752344381651\\
97	0.000863832795087203\\
98	0.00225761238767268\\
99	0.00707741652579192\\
100	0.00217379214142037\\
101	0.0052710247060946\\
102	0.00161517442743803\\
103	0.00480892068263653\\
104	0.00614362173794408\\
105	0.00440194914444053\\
106	0.00621345745907414\\
107	0.00667167953238679\\
108	0.0108593470122687\\
109	0.0131627773438241\\
110	0.0109967872495672\\
111	0.0120869341707993\\
112	0.0201521512172474\\
113	0.0257391771795202\\
114	0.022902981967566\\
115	0.0174360053837593\\
116	0.0208630277523221\\
117	0.0100931712236433\\
118	0.0188424007628666\\
119	0.0158212310165681\\
120	0.020194673173896\\
121	0.00855440151216412\\
122	0.0172928725987707\\
123	0.0273141194126986\\
124	0.0158199273076615\\
125	0.0383753060182102\\
126	0.0843888154679102\\
127	0.0353706674662325\\
128	0.0210272298429195\\
129	0.0525463603390294\\
130	0.0112499925706122\\
131	0.0224618539647961\\
132	0.112546782772247\\
133	0.0401722333685811\\
134	0.0404400896772081\\
135	0.0430214627283437\\
136	0.0310207840715498\\
137	0.0537928927156486\\
138	0.149249957135336\\
139	0.0373375369855122\\
140	0.473687406612969\\
141	0.391519617754272\\
142	0.109608493266524\\
143	0.091627770293055\\
144	0.038385473847841\\
145	0.103498001463032\\
146	0.0369116597076696\\
147	0.0583603876875398\\
148	0.021119151044658\\
149	0.0865287500311757\\
150	0.0963110508754064\\
151	0.120037891221607\\
152	0.2520788161097\\
153	0.463352154366097\\
154	0.189810352659183\\
155	0.0767624439936737\\
156	0.0799677147347211\\
157	0.103351574785153\\
158	0.0988952818119019\\
159	0.111265278723099\\
160	0.0269801336942471\\
161	0.0415156780111739\\
162	0.0391383761472218\\
163	0.0256381678054346\\
164	0.0422084433058583\\
165	0.105486634934851\\
166	0.107165161571338\\
167	0.27454076811428\\
168	0.102683710150217\\
169	0.0414889596452127\\
170	0.0540897685741314\\
171	0.0193042134601289\\
172	0.008393802044095\\
173	0.0190508802331843\\
174	0.0194501117998133\\
175	0.026882843440188\\
176	0.00786492793980948\\
177	0.0210744747741999\\
178	0.0294296282474078\\
179	0.0560226981322832\\
180	0.0348342232078493\\
181	0.00538536870702453\\
182	0.0274441581362413\\
183	0.00659657850059978\\
184	0.00762575583852542\\
185	0.00998744068234948\\
186	0.00423823456850574\\
187	0.00482439547126856\\
188	0.00226603694090628\\
189	0.000821060186141755\\
190	0.00414938834086897\\
191	0.00167987829249751\\
192	0.0201090476161183\\
193	0.009616751201638\\
194	0.00924870115788467\\
195	0.00745738707391373\\
196	0.00502742704376022\\
197	0.00259795418494955\\
198	0.00115547415207363\\
199	0.0023029647275078\\
200	0.00162411886293572\\
201	0.00304278703826595\\
202	0.00206148361461656\\
203	0.00100093676248095\\
204	0.00343603644140939\\
205	0.00398359017191136\\
206	0.00354489704191646\\
207	0.00467378296986958\\
208	0.000608540583908107\\
209	0.00341166344935445\\
210	0.000943897395441905\\
211	0.00187861885483176\\
212	0.000212927327866702\\
213	0.000530565837456324\\
214	0.00150016529203816\\
215	0.00148919415764821\\
216	0.00122775814985826\\
217	0.00134269783160299\\
218	0.00155948230212961\\
219	0.00242973504203612\\
220	0.000681805847009633\\
221	0.0015118765997711\\
222	0.000348609952507033\\
223	0.000832338648778879\\
224	0.00125814011986536\\
225	0.00102860130205446\\
226	0.00120124701716468\\
227	0.00109950376416537\\
228	0.000615959890797718\\
229	0.000212289700679315\\
230	0.000821094211648357\\
231	0.00043949601122406\\
232	0.00129539789607074\\
233	0.00250058469498928\\
234	0.000594301020456892\\
235	0.000792470339222932\\
236	0.00110363415121305\\
237	0.000824518268475709\\
238	0.00159002428931865\\
239	0.00046695242762498\\
240	0.0025910036615125\\
241	0.00112017073096395\\
242	0.000885585101416713\\
243	0.000179915368583285\\
244	0.00102306698159575\\
245	0.000634253070663337\\
246	0.000390814380089556\\
247	0.00140102253489425\\
248	0.000959585329037291\\
249	0.000925474172628801\\
250	0.00112725526047061\\
251	0.00126007477139702\\
252	0.00209256765457101\\
253	0.000793045914093538\\
254	0.000508678580727686\\
255	0.000173185137062958\\
256	0.000976328103712447\\
257	0.00041653285688783\\
258	0.000782701085023991\\
259	0.000330478343659593\\
260	0.000746393662539058\\
261	0.000903455202449333\\
262	0.000529017199147482\\
263	0.00189583954925268\\
264	0.000969911908926402\\
265	0.00162285226473155\\
266	0.000786297312029185\\
267	0.00140018127961871\\
268	0.00115191530962782\\
269	0.000506536886645624\\
270	0.000901051756396649\\
271	0.000787327786761515\\
272	0.0014431263568189\\
273	0.00113601265648326\\
274	0.000281695754644633\\
275	0.00170830196408133\\
276	0.00124607129813965\\
277	0.00160825089328729\\
278	0.00147606970132449\\
279	0.00158575022630935\\
280	0.00123953142175328\\
281	0.00177813012950667\\
282	0.00118078948334336\\
283	0.000461861166076239\\
284	0.000881823545647079\\
285	0.00172518123567404\\
286	0.000582564003543568\\
287	0.000684347659123319\\
288	0.00161423027714127\\
289	0.0015627060037088\\
290	0.000155316964872106\\
291	0.000735979219883247\\
292	0.000151055891290189\\
293	0.000909724179589115\\
294	0.000639240262052209\\
295	0.000746574544105138\\
296	0.000372642504656076\\
297	0.000252974115875523\\
298	0.00152059992608319\\
299	0.00239616420215447\\
};
\addlegendentry{$\mathbf{\hat{h}_{1}}$}

\addplot [color=mycolor2]
  table[row sep=crcr]{%
0	0.000726545932916775\\
1	0.000604649540886401\\
2	0.00101399895016697\\
3	0.000302712108752961\\
4	0.000538394152099368\\
5	0.000403723715472716\\
6	0.000641030937616601\\
7	0.000503931523270915\\
8	0.000450390758014929\\
9	0.000143473566603926\\
10	0.00033254215865522\\
11	0.000590042624103221\\
12	0.000374825932555868\\
13	0.000465820018469875\\
14	0.000606355935683407\\
15	0.00118703843282558\\
16	0.000158001289654848\\
17	0.000593584417862819\\
18	0.00111578152792548\\
19	0.0005817254002701\\
20	0.000687004511270813\\
21	0.000818966539470284\\
22	0.00102831212816095\\
23	0.000937003020488102\\
24	0.000493253602235594\\
25	0.00125061193647328\\
26	0.000930069096821446\\
27	0.000605794566932153\\
28	0.000942122947986253\\
29	0.000594618467320068\\
30	0.000961893772587299\\
31	0.000798554122573036\\
32	0.000870731179786281\\
33	0.000570635816095985\\
34	0.000715594637814412\\
35	0.00099269030111183\\
36	0.000865899139702546\\
37	0.000662800321287616\\
38	0.000981524045636122\\
39	0.00100497557247232\\
40	0.000841317603582011\\
41	0.000867158251437582\\
42	0.00110572233059134\\
43	0.000447285534926392\\
44	0.00101830584680932\\
45	0.00110408146611929\\
46	0.00127805093224883\\
47	0.00075354172432436\\
48	0.00109459875246812\\
49	0.00117904736705885\\
50	0.00145004019070935\\
51	0.00158947178964161\\
52	0.00112107165029632\\
53	0.000952229201268629\\
54	0.00095362329189374\\
55	0.00110930069924909\\
56	0.00144137942735018\\
57	0.000895126609437116\\
58	0.000851297316411196\\
59	0.00117482818241628\\
60	0.00101709367091249\\
61	0.00114873977034574\\
62	0.00115634461790795\\
63	0.00114811224658314\\
64	0.000431912579133472\\
65	0.00117525687007172\\
66	0.000939132619003635\\
67	0.00126256875655846\\
68	0.00103956526166277\\
69	0.000784442749867583\\
70	0.00133204824475667\\
71	0.000594580754580528\\
72	0.00128000744767017\\
73	0.00125640404294709\\
74	0.00177196848570484\\
75	0.0013104083888187\\
76	0.000730161882345914\\
77	0.00125271692286088\\
78	0.00151599044751253\\
79	0.00129096254297439\\
80	0.00174047614902205\\
81	0.00110117873450924\\
82	0.00068956736577077\\
83	0.00191732456027259\\
84	0.00218754199126974\\
85	0.000813673596823372\\
86	0.00137837467548651\\
87	0.00162748026527799\\
88	0.00155938818996188\\
89	0.00105846770252118\\
90	0.00082551961274048\\
91	0.00149115689795549\\
92	0.00199801118756124\\
93	0.00178785574228404\\
94	0.00353324017662903\\
95	0.00340072882740405\\
96	0.000310733427346954\\
97	0.00442793072534302\\
98	0.00331474443759572\\
99	0.00262292617843871\\
100	5.17230231508853e-05\\
101	0.00179464707560849\\
102	0.00243002920937074\\
103	0.000889603409070967\\
104	0.00149511204651585\\
105	0.00613375097052235\\
106	0.00123689081279249\\
107	0.00669648422772969\\
108	0.0122449023778347\\
109	0.0085886737607624\\
110	0.0109400124799323\\
111	0.00442407972400793\\
112	0.00865657261292353\\
113	0.00518783594731429\\
114	0.0019523657312367\\
115	0.0064149662726617\\
116	0.0071432796823165\\
117	0.0109014750274835\\
118	0.00566753188301371\\
119	0.00436152024207777\\
120	0.020558669936236\\
121	0.0134729801161037\\
122	0.05416580357366\\
123	0.0136201757170143\\
124	0.0270969421662523\\
125	0.0160170063869132\\
126	0.0108996950951751\\
127	0.00203873570296413\\
128	0.00596941305522302\\
129	0.0124863698370282\\
130	0.0115955967810209\\
131	0.0104391600844766\\
132	0.0310750646368164\\
133	0.0229690956380831\\
134	0.058199435878827\\
135	0.0339601754037983\\
136	0.0456127592998249\\
137	0.117720218972473\\
138	0.0255689654601874\\
139	0.0264677724952767\\
140	0.00934342711750002\\
141	0.0198595624055181\\
142	0.0195503097995431\\
143	0.0200276933451281\\
144	0.0137847850285825\\
145	0.0140422961708793\\
146	0.0263020350734805\\
147	0.0383422432926459\\
148	0.0355518976279775\\
149	0.964706165876167\\
150	0.0355526436256804\\
151	0.0383455759724185\\
152	0.0263037759499496\\
153	0.01404516091513\\
154	0.0137823599836465\\
155	0.0200261331932661\\
156	0.0195438436647795\\
157	0.0198625629271018\\
158	0.00934858368936001\\
159	0.0264653602167599\\
160	0.0255735688652123\\
161	0.117715906476939\\
162	0.0456178305316198\\
163	0.0339648844067572\\
164	0.0582021108083872\\
165	0.0229626779106532\\
166	0.0310610898914241\\
167	0.0104394091396393\\
168	0.0115974515404481\\
169	0.0124937255240978\\
170	0.00596797110694754\\
171	0.00203549019426956\\
172	0.0109095412830992\\
173	0.0160182396050889\\
174	0.0270825470107931\\
175	0.0136278333853521\\
176	0.0541695173944448\\
177	0.0134706947442651\\
178	0.0205700793848122\\
179	0.00436239452990598\\
180	0.00566518581907606\\
181	0.0109152450286835\\
182	0.00713790832757539\\
183	0.00642031205747364\\
184	0.00195951415771275\\
185	0.00520094524392306\\
186	0.00866522805585786\\
187	0.00441342766269518\\
188	0.0109405768596142\\
189	0.00859239572470731\\
190	0.0122272866621166\\
191	0.0066872053806043\\
192	0.00123801768510446\\
193	0.00613374652471546\\
194	0.00149823868943133\\
195	0.0008877923051134\\
196	0.00242143355007951\\
197	0.0017848530792273\\
198	5.75375893262789e-05\\
199	0.0026273195093897\\
200	0.00331758060606189\\
201	0.00443716609625063\\
202	0.000313350713663574\\
203	0.00341856674922408\\
204	0.00354270207686616\\
205	0.00178884273085555\\
206	0.00201184365610534\\
207	0.00147829040271934\\
208	0.000830399027660063\\
209	0.00105256801236255\\
210	0.00155533956878605\\
211	0.00162221914084489\\
212	0.00137439412684319\\
213	0.000803873614743239\\
214	0.00218214341062939\\
215	0.00191012123210733\\
216	0.000694351720046736\\
217	0.00109425636499097\\
218	0.00175305128047169\\
219	0.00127197268069133\\
220	0.00151204917929448\\
221	0.00122875563581919\\
222	0.000733429929264872\\
223	0.00129972182509977\\
224	0.0017600391821527\\
225	0.0012616106097513\\
226	0.00126633288383941\\
227	0.00057949453187734\\
228	0.00134198564175202\\
229	0.000801796116165561\\
230	0.00104129687688966\\
231	0.00125980492427201\\
232	0.00093844241797667\\
233	0.00115945908679238\\
234	0.000444098131270251\\
235	0.00115004227673176\\
236	0.00115957069707216\\
237	0.00114230679822005\\
238	0.00100718982229225\\
239	0.00117001128215847\\
240	0.00085501148074897\\
241	0.000903595238618557\\
242	0.00141639376593963\\
243	0.00110926109165335\\
244	0.000957348909428366\\
245	0.000945590357328667\\
246	0.00112011637837001\\
247	0.00160146874069846\\
248	0.00145983998311783\\
249	0.00114325035354844\\
250	0.00107753830150743\\
251	0.000775873016360512\\
252	0.00127404383095723\\
253	0.00108227402693045\\
254	0.00101143252744345\\
255	0.000454534436674204\\
256	0.00109449191676877\\
257	0.000861564305391328\\
258	0.000853297977719295\\
259	0.00100918332700745\\
260	0.000983943806160802\\
261	0.000680298928003236\\
262	0.000851501725039637\\
263	0.00101896561371265\\
264	0.000703029306797048\\
265	0.000571913641745973\\
266	0.000871746494580344\\
267	0.000829894447294336\\
268	0.000975837849739095\\
269	0.000586386898089412\\
270	0.000906827337680667\\
271	0.000638195716797036\\
272	0.000939435534741479\\
273	0.00125533046909207\\
274	0.000497096335693589\\
275	0.000943920375840854\\
276	0.00105869638924321\\
277	0.000848803325153473\\
278	0.000690573977501123\\
279	0.000581350173616856\\
280	0.00114237268255004\\
281	0.000600401339582755\\
282	0.00018695184466237\\
283	0.00117517042485472\\
284	0.000565611365392375\\
285	0.000483317545221976\\
286	0.000392715080202585\\
287	0.000606450277189171\\
288	0.000297157424178312\\
289	0.000165627754085721\\
290	0.000518010001617282\\
291	0.00049517443009017\\
292	0.00056217247747119\\
293	0.00030847098675694\\
294	0.000383654679616845\\
295	0.000227643391888295\\
296	0.000827840000450002\\
297	0.000641437213794036\\
298	0.000776734033062126\\
299	0.000504840464376841\\
};
\addlegendentry{$\mathbf{\hat{h}_{2}}$}

\end{axis}
\end{tikzpicture}%