% This file was created by matlab2tikz.
%
%The latest updates can be retrieved from
%  http://www.mathworks.com/matlabcentral/fileexchange/22022-matlab2tikz-matlab2tikz
%where you can also make suggestions and rate matlab2tikz.
%
\definecolor{mycolor1}{rgb}{0.00000,0.44700,0.74100}%
\definecolor{mycolor2}{rgb}{0.85000,0.32500,0.09800}%
%
\begin{tikzpicture}

\begin{axis}[%
width=1.935in,
height=3.2in,
at={(0.758in,0.512in)},
scale only axis,
xmin=0,
xmax=150,
xlabel style={font=\color{white!15!black}, align=center},
xlabel={Sample Index\\[1ex](a) Actual},
ymin=0,
ymax=0.7,
axis background/.style={fill=white},
legend style={legend cell align=left, align=left, draw=white!15!black}
]
\addplot [color=mycolor1]
  table[row sep=crcr]{%
1	0.0234657806037261\\
2	0.0272334504034075\\
3	0.0326864300765018\\
4	0.0414541482980318\\
5	0.0586677033458464\\
6	0.117843438362983\\
7	0.159969331461504\\
8	0.174397116945152\\
9	0.616552810702634\\
10	0.0882137642931462\\
11	0.0472681903124796\\
12	0.0327587509505929\\
13	0.0272256709659274\\
14	0.0412344622245766\\
15	0.0186762848129325\\
16	0.0451940046978057\\
17	0.0153724087875252\\
18	0.0239672675363248\\
19	0.0400285717874473\\
20	0.0828333966509162\\
21	0.557624977131952\\
22	0.149414784250917\\
23	0.109138078132702\\
24	0.0381681231028791\\
25	0.032799759178118\\
26	0.191519461959093\\
27	0.0734580287558902\\
28	0.0358315656953253\\
29	0.0179563195827385\\
30	0.0169149242156914\\
31	0.0179798517146348\\
32	0.0199431506445131\\
33	0.0279225394655299\\
34	0.0908594243819801\\
35	0.0439964246924232\\
36	0.330890477505262\\
37	0.037800506563543\\
38	0.020261933748638\\
39	0.0138181229977315\\
40	0.0211497159554441\\
41	0.0112042208144458\\
42	0.00964538908702694\\
43	0.00864780826327016\\
44	0.00787736374270682\\
45	0.00720180133294831\\
46	0.00651453200193765\\
47	0.00565492088107664\\
48	0.0112814316241706\\
49	0.0075966567083061\\
50	0.0102713040739602\\
51	0.00787142060243747\\
52	0.00711780022683946\\
53	0.00668443537322835\\
54	0.00638223966522588\\
55	0.00615487020840034\\
56	0.00598242225636516\\
57	0.00586293416152974\\
58	0.00581626175933958\\
59	0.00593494184987807\\
60	0.00707647204853056\\
61	0.00861312572402681\\
62	0.00240649054353041\\
63	0.0036902508247688\\
64	0.0040125763148678\\
65	0.00408542983582614\\
66	0.00408934467211144\\
67	0.00406760360864643\\
68	0.00403657730104579\\
69	0.00400486664899167\\
70	0.00397913876457006\\
71	0.00396763365360209\\
72	0.00398577860522856\\
73	0.00407460869510253\\
74	0.00440882178496405\\
75	0.00852319154542653\\
76	0.00211982859547221\\
77	0.00279674481878385\\
78	0.00295234209521732\\
79	0.00299967450324673\\
80	0.00300734384297471\\
81	0.00299658049652506\\
82	0.00297609501762909\\
83	0.00295010695632826\\
84	0.00292089738309008\\
85	0.00288979839106794\\
86	0.00285763293534116\\
87	0.00282493110979805\\
88	0.00279204510261472\\
89	0.00275921420187501\\
90	0.00272660345813555\\
91	0.00269432766245323\\
92	0.00266246675038502\\
93	0.00263107599882434\\
94	0.00260019295165966\\
95	0.00256984222925479\\
96	0.00254003893333548\\
97	0.0025107910982644\\
98	0.00248210148178531\\
99	0.00245396889001376\\
100	0.00242638916874131\\
101	0.00239935595223708\\
102	0.00237286123354156\\
103	0.00234689580183488\\
104	0.00232144957979209\\
105	0.00229651188498403\\
106	0.00227207163310714\\
107	0.0022481174963278\\
108	0.00222463802675857\\
109	0.00220162175268604\\
110	0.00217905725339276\\
111	0.0021569332170867\\
112	0.00213523848544673\\
113	0.00211396208753109\\
114	0.00209309326520902\\
115	0.00207262149182518\\
116	0.00205253648545491\\
117	0.00203282821783402\\
118	0.00201348691983224\\
119	0.00199450308416773\\
120	0.00197586746592614\\
121	0.00195757108133911\\
122	0.0019396052051902\\
123	0.0019219613671484\\
124	0.00190463134727109\\
125	0.00188760717087541\\
126	0.00187088110293773\\
127	0.00185444564215264\\
128	0.0018382935147574\\
129	0.00182241766820821\\
130	0.00180681126477794\\
131	0.00179146767513212\\
132	0.00177638047192757\\
133	0.00176154342347035\\
134	0.00174695048746156\\
135	0.0017325958048528\\
136	0.00171847369382931\\
137	0.00170457864393352\\
138	0.0016909053103386\\
139	0.00167744850827835\\
140	0.00166420320763913\\
141	0.00165116452771496\\
142	0.00163832773212761\\
143	0.00162568822391149\\
144	0.00161324154076111\\
145	0.0016009833504405\\
146	0.00158890944635072\\
147	0.00157701574325256\\
148	0.00156529827314105\\
149	0\\
150	0\\
};
\addlegendentry{$\mathbf{h_1}$}

\addplot [color=mycolor2]
  table[row sep=crcr]{%
1	0.019775303219206\\
2	0.0210217764534023\\
3	0.0224372323963497\\
4	0.024058742711813\\
5	0.0259351263737046\\
6	0.0281320174688059\\
7	0.0307398096072034\\
8	0.0338865833958781\\
9	0.0377600935275399\\
10	0.0426472101764649\\
11	0.0490094599986528\\
12	0.0576401827385178\\
13	0.0700288298559564\\
14	0.0893407156606893\\
15	0.123700774100431\\
16	0.202175033398071\\
17	0.564479813098353\\
18	0.690442426104836\\
19	0.212260509632627\\
20	0.126132345068284\\
21	0.100380135781766\\
22	0.0378663697499036\\
23	0.0333199748773482\\
24	0.0149453064107011\\
25	0.10083899339379\\
26	0.161002397050911\\
27	0.0405118251764787\\
28	0.0383644765554957\\
29	0.0341227495803863\\
30	0.0306469105251072\\
31	0.0278570926171954\\
32	0.0255709383506331\\
33	0.0236574529195357\\
34	0.0220274984760589\\
35	0.0206190941704396\\
36	0.0193877726649002\\
37	0.0183006807256663\\
38	0.0173329207549748\\
39	0.016465211935799\\
40	0.0156823459816501\\
41	0.0149721364414517\\
42	0.0143246843629073\\
43	0.0137318527665838\\
44	0.0131868826449622\\
45	0.0126841071808284\\
46	0.0122187355837443\\
47	0.0117866872087634\\
48	0.0113844626077037\\
49	0.0110090421200206\\
50	0.0106578052804057\\
51	0\\
52	0\\
53	0\\
54	0\\
55	0\\
56	0\\
57	0\\
58	0\\
59	0\\
60	0\\
61	0\\
62	0\\
63	0\\
64	0\\
65	0\\
66	0\\
67	0\\
68	0\\
69	0\\
70	0\\
71	0\\
72	0\\
73	0\\
74	0\\
75	0\\
76	0\\
77	0\\
78	0\\
79	0\\
80	0\\
81	0\\
82	0\\
83	0\\
84	0\\
85	0\\
86	0\\
87	0\\
88	0\\
89	0\\
90	0\\
91	0\\
92	0\\
93	0\\
94	0\\
95	0\\
96	0\\
97	0\\
98	0\\
99	0\\
100	0\\
101	0\\
102	0\\
103	0\\
104	0\\
105	0\\
106	0\\
107	0\\
108	0\\
109	0\\
110	0\\
111	0\\
112	0\\
113	0\\
114	0\\
115	0\\
116	0\\
117	0\\
118	0\\
119	0\\
120	0\\
121	0\\
122	0\\
123	0\\
124	0\\
125	0\\
126	0\\
127	0\\
128	0\\
129	0\\
130	0\\
131	0\\
132	0\\
133	0\\
134	0\\
135	0\\
136	0\\
137	0\\
138	0\\
139	0\\
140	0\\
141	0\\
142	0\\
143	0\\
144	0\\
145	0\\
146	0\\
147	0\\
148	0\\
149	0\\
150	0\\
};
\addlegendentry{$\mathbf{h_{2}}$}

\end{axis}

\begin{axis}[%
width=1.935in,
height=3.2in,
at={(3.327in,0.512in)},
scale only axis,
xmin=0,
xmax=74,
xlabel style={font=\color{white!15!black}, align=center},
xlabel={Sample Index\\[1ex](b) Estimated},
ymin=0,
ymax=1,
axis background/.style={fill=white},
legend style={legend cell align=left, align=left, draw=white!15!black}
]
\addplot [color=mycolor1]
  table[row sep=crcr]{%
0	0.033477865283574\\
1	0.0278084895788559\\
2	0.0160071989474977\\
3	0.0300376104622605\\
4	0.00875243786382898\\
5	0.0138757170400633\\
6	0.0128017398787303\\
7	0.0179069851364349\\
8	0.000240889414514337\\
9	0.0134832972852514\\
10	0.030696288166735\\
11	0.00665825289375357\\
12	0.0402986228883739\\
13	0.108283914367139\\
14	0.0380219451155297\\
15	0.0370402395359039\\
16	0.0631639475021701\\
17	0.0129581768588251\\
18	0.0214777134811421\\
19	0.100351796951279\\
20	0.0334834032572946\\
21	0.033400705933884\\
22	0.0390440154659091\\
23	0.036431031642126\\
24	0.0454355434345563\\
25	0.143507385641847\\
26	0.0386846472026205\\
27	0.471851597214615\\
28	0.392785186430307\\
29	0.103212874876014\\
30	0.0966702183951313\\
31	0.0277609756224308\\
32	0.0915339829847749\\
33	0.0358662118343707\\
34	0.0545869967343104\\
35	0.0287187481983606\\
36	0.0928433209902006\\
37	0.100668126063842\\
38	0.125207265197114\\
39	0.240982877777415\\
40	0.46014915248124\\
41	0.193171465063344\\
42	0.0898107480216547\\
43	0.0782838918466206\\
44	0.101731058103039\\
45	0.104523627375021\\
46	0.105539395725759\\
47	0.032044406899618\\
48	0.0403578483247257\\
49	0.0443885441622889\\
50	0.0332420674053078\\
51	0.0409822045829749\\
52	0.120379208410944\\
53	0.0995306814101081\\
54	0.274280375389998\\
55	0.0986155601352119\\
56	0.0361676063412988\\
57	0.0560575400267301\\
58	0.0192912518425182\\
59	0.0123199311911898\\
60	0.0240680195812175\\
61	0.0173965537968876\\
62	0.0278114385647676\\
63	0.00713229480180932\\
64	0.0257163473037273\\
65	0.0323265777882056\\
66	0.0754735544337297\\
67	0.0521891924419421\\
68	0.00363840756411528\\
69	0.0417361309697571\\
70	0.00112705010440995\\
71	0.0104831989235103\\
72	0.00996743324851264\\
73	0.00529675062158307\\
74	0.00601481620104701\\
};
\addlegendentry{$\mathbf{\hat{h}_{1}}$}

\addplot [color=mycolor2]
  table[row sep=crcr]{%
0	0.00483384308894267\\
1	0.00157232493062227\\
2	0.00416245184843453\\
3	0.00615045625163311\\
4	0.0095096108926051\\
5	0.00460510459928964\\
6	0.0037135758047395\\
7	0.0179704664000375\\
8	0.0105870786677068\\
9	0.0534275817288025\\
10	0.0106950993959196\\
11	0.0329874702010896\\
12	0.0168541655503456\\
13	0.00713097912964189\\
14	0.00196383338149287\\
15	0.00225826697680546\\
16	0.009686517628204\\
17	0.00843751834734772\\
18	0.0106666633354269\\
19	0.0317565689018904\\
20	0.0271616599671279\\
21	0.0639133501804665\\
22	0.0315859395270265\\
23	0.0474591702034473\\
24	0.14234296280717\\
25	0.0316825694905722\\
26	0.0312251299887997\\
27	0.00779415519447125\\
28	0.0346126906972866\\
29	0.0202880022088096\\
30	0.0237201852614594\\
31	0.0111604688248518\\
32	0.0195072885249526\\
33	0.0326576759716573\\
34	0.0412515794743758\\
35	0.0386281168907827\\
36	0.955214942871064\\
37	0.038127055402831\\
38	0.0404333774182582\\
39	0.0317163332584557\\
40	0.0204938230709342\\
41	0.012181261639979\\
42	0.0245856762359108\\
43	0.0212337335550598\\
44	0.0374753051839019\\
45	0.00862860248150303\\
46	0.0303559422490207\\
47	0.031137809191245\\
48	0.141859258214237\\
49	0.0481515215535154\\
50	0.0299860829389299\\
51	0.0650681834413577\\
52	0.0267803727975168\\
53	0.0331399944815713\\
54	0.0107046773569986\\
55	0.00888792330616048\\
56	0.00970151779274646\\
57	0.00250676789871341\\
58	0.00119345602282584\\
59	0.00604615036568569\\
60	0.0151785199893664\\
61	0.0310678222793076\\
62	0.0118538886363818\\
63	0.0532749738006651\\
64	0.0115604758320367\\
65	0.0206350848874712\\
66	0.00159898689531494\\
67	0.00427251228701099\\
68	0.0110917858498515\\
69	0.00669581054218795\\
70	0.00437230537119836\\
71	0.00389114829339217\\
72	0.00533790308569997\\
73	0.010145975165348\\
74	0.00489576674107152\\
};
\addlegendentry{$\mathbf{\hat{h}_{2}}$}

\end{axis}
\end{tikzpicture}%