% This file was created by matlab2tikz.
%
%The latest updates can be retrieved from
%  http://www.mathworks.com/matlabcentral/fileexchange/22022-matlab2tikz-matlab2tikz
%where you can also make suggestions and rate matlab2tikz.
%
\definecolor{mycolor1}{rgb}{0.00000,0.44700,0.74100}%
\definecolor{mycolor2}{rgb}{0.85000,0.32500,0.09800}%
%
\begin{tikzpicture}

\begin{axis}[%
width=1.935in,
height=3.2in,
at={(0.758in,0.512in)},
scale only axis,
xmin=0,
xmax=200,
xlabel style={font=\color{white!15!black}, align=center},
xlabel={Sample Index\\[1ex](a) Actual},
ymin=0,
ymax=1,
axis background/.style={fill=white},
legend style={legend cell align=left, align=left, draw=white!15!black}
]
\addplot [color=mycolor1]
  table[row sep=crcr]{%
1	0.0167418731260698\\
2	0.018659722218203\\
3	0.0211495716349754\\
4	0.0245407494314006\\
5	0.029505643974117\\
6	0.0377161636169434\\
7	0.0550750576238134\\
8	0.131028403455825\\
9	0.141533477104454\\
10	0.158175166246243\\
11	0.163761757297189\\
12	0.600100605556833\\
13	0.118033417583129\\
14	0.0610914209628117\\
15	0.0426162246246858\\
16	0.0332715711707656\\
17	0.0321939439283243\\
18	0.0268871008873183\\
19	0.0316920608120786\\
20	0.0286771919664519\\
21	0.00773119825769845\\
22	0.0330073087209196\\
23	0.019415059292473\\
24	0.0177688778425817\\
25	0.0188194600762088\\
26	0.0237714798713867\\
27	0.0430806655948836\\
28	0.586023006720236\\
29	0.0970905103802927\\
30	0.0246981078960262\\
31	0.0780346253424249\\
32	0.0580455436901626\\
33	0.0681836526256362\\
34	0.163824852865525\\
35	0.0446106828365612\\
36	0.06119675966513\\
37	0.00907835157153909\\
38	0.0310093774848825\\
39	0.00125972832884384\\
40	0.005422098150711\\
41	0.0107374596162295\\
42	0.0165479326643041\\
43	0.024789327411243\\
44	0.0446277431282512\\
45	0.058019450740893\\
46	0.074843365423057\\
47	0.199666615467323\\
48	0.216838516027539\\
49	0.0783890355452335\\
50	0.0495529240878659\\
51	0.0370791446049236\\
52	0.0307530810094058\\
53	0.0155757068681131\\
54	0.0198807977432187\\
55	0.0179871495341263\\
56	0.0162887905400521\\
57	0.0148728268904216\\
58	0.0136909847461918\\
59	0.0126943671543235\\
60	0.011846112844806\\
61	0.0111233301448608\\
62	0.0105291449791113\\
63	0.0102108676347222\\
64	0.00751288118280402\\
65	0.00739035992869396\\
66	0.0116365722557393\\
67	0.00899390796280924\\
68	0.00831157148096884\\
69	0.00788086875151191\\
70	0.00754217236777393\\
71	0.00725475830161164\\
72	0.00700327644843893\\
73	0.006780818536885\\
74	0.00658453626015097\\
75	0.00641472878078445\\
76	0.00627599401250467\\
77	0.00618216997550965\\
78	0.00617516728867787\\
79	0.00642745729543014\\
80	0.00873051939586948\\
81	0.00471465923588381\\
82	0.00195996010568866\\
83	0.004980313957114\\
84	0.00475839614864904\\
85	0.00464733241660508\\
86	0.00455444244400457\\
87	0.00446749239384432\\
88	0.00438406292262191\\
89	0.00430366820355207\\
90	0.00422628355118023\\
91	0.00415201532524293\\
92	0.00408104289588831\\
93	0.00401365198230764\\
94	0.00395033763548775\\
95	0.00389203620501121\\
96	0.00384070443755282\\
97	0.00380107128140597\\
98	0.00378779867734327\\
99	0.00387836096292209\\
100	0.00228454900881806\\
101	0.00321909463290553\\
102	0.00328982387499096\\
103	0.00328100374444436\\
104	0.00325253146337885\\
105	0.00321692683031362\\
106	0.00317840637543852\\
107	0.00313876414674543\\
108	0.00309887602618152\\
109	0.00305920797263281\\
110	0.00302002111537278\\
111	0.00298146552488656\\
112	0.00294362726599965\\
113	0.0029065537719176\\
114	0.00287026833389302\\
115	0.00283477876811283\\
116	0.00280008280049957\\
117	0.00276617151884636\\
118	0.00273303164395387\\
119	0.00270064705586787\\
120	0.00266899983729428\\
121	0.00263807099659409\\
122	0.00260784097374635\\
123	0.00257828999668392\\
124	0.00254939833288439\\
125	0.00252114646667125\\
126	0.00249351522323938\\
127	0.00246648585412356\\
128	0.00244004009455901\\
129	0.00241416020024051\\
130	0.00238882896892876\\
131	0.0023640297508985\\
132	0.00233974645117835\\
133	0.00231596352577768\\
134	0.00229266597354371\\
135	0.00226983932488367\\
136	0.00224746962828519\\
137	0.00222554343533969\\
138	0.00220404778480324\\
139	0.00218297018609978\\
140	0.00216229860257188\\
141	0.00214202143470905\\
142	0.00212212750352594\\
143	0.00210260603421662\\
144	0.00208344664017788\\
145	0.00206463930746792\\
146	0.00204617437974413\\
147	0.00202804254371082\\
148	0.00201023481509265\\
149	0.00199274252514179\\
150	0.00197555730767936\\
151	0.0019586710866655\\
152	0.00194207606428942\\
153	0.00192576470956709\\
154	0.00190972974743187\\
155	0.00189396414830307\\
156	0.00187846111811499\\
157	0.00186321408878906\\
158	0.00184821670913216\\
159	0.00183346283614256\\
160	0.00181894652670628\\
161	0.00180466202966742\\
162	0.00179060377825436\\
163	0.00177676638284649\\
164	0.00176314462406556\\
165	0.00174973344617591\\
166	0.0017365279507797\\
167	0.00172352339079259\\
168	0.00171071516468654\\
169	0.00169809881098722\\
170	0.00168567000301325\\
171	0.00167342454384613\\
172	0.00166135836151948\\
173	0.00164946750441694\\
174	0.00163774813686889\\
175	0.00162619653493841\\
176	0.00161480908238697\\
177	0.00160358226681213\\
178	0.001592512675948\\
179	0.00158159699412143\\
180	0.00157083199885632\\
181	0.00156021455761888\\
182	0.00154974162469766\\
183	0.00153941023821136\\
184	0.00152921751723897\\
185	0.00151916065906659\\
186	0.00150923693654504\\
187	0.00149944369555362\\
188	0.00148977835256491\\
189	0.00148023839230615\\
190	0.0014708213655126\\
191	0.00146152488676917\\
192	0.00145234663243548\\
193	0.00144328433865201\\
194	0.00143433579942216\\
195	0.0014254988647679\\
196	0.00141677143895562\\
197	0.00140815147878894\\
198	0.00139963699196521\\
199	0\\
200	0\\
};
\addlegendentry{$\mathbf{h_1}$}

\addplot [color=mycolor2]
  table[row sep=crcr]{%
1	0.00495033386861547\\
2	0.00515738368500011\\
3	0.00538309861623286\\
4	0.00563019833310769\\
5	0.00590197136255583\\
6	0.00620243506959928\\
7	0.00653655369620811\\
8	0.00691054090538825\\
9	0.00733228812251618\\
10	0.00781198494389501\\
11	0.00836304134465097\\
12	0.0090034999823859\\
13	0.00975827527656913\\
14	0.0106628508662167\\
15	0.0117696896019869\\
16	0.0131600228416925\\
17	0.0149671880151623\\
18	0.0174273921400842\\
19	0.0210049332363351\\
20	0.0267613442180004\\
21	0.037792597580649\\
22	0.068721841139076\\
23	0.97572931769219\\
24	0.0649085399616321\\
25	0.0262918397391367\\
26	0.0126468169615953\\
27	0.00419508123086451\\
28	0.0214241856295046\\
29	0.0134643328328179\\
30	0.00412679327935559\\
31	0.0112712342656943\\
32	0.0282552508318709\\
33	0.111702725947746\\
34	0.12653020104749\\
35	0.0361926668223949\\
36	0.024130019396178\\
37	0.019518168382204\\
38	0.0163235660243771\\
39	0.0140849625225472\\
40	0.0124312948441269\\
41	0.0111552918846637\\
42	0.0101369616841952\\
43	0.00930266674553233\\
44	0.00860476970863487\\
45	0.00801105372801389\\
46	0.00749890841387189\\
47	0.00705196472677567\\
48	0.00665805661850076\\
49	0.0063079366485928\\
50	0.00599443852440938\\
51	0.00571191453485358\\
52	0.00545584764793091\\
53	0.0052225778141873\\
54	0.00500910486747672\\
55	0.00481294397681212\\
56	0.00463201789166602\\
57	0.00446457542356871\\
58	0.00430912894812168\\
59	0.00416440590497024\\
60	0.00402931074167137\\
61	0.00390289474814389\\
62	0.00378433192171684\\
63	0.00367289949042518\\
64	0.0035679620699816\\
65	0.00346895868109233\\
66	0.00337539203747226\\
67	0.00328681965070268\\
68	0.00320284639950925\\
69	0\\
70	0\\
71	0\\
72	0\\
73	0\\
74	0\\
75	0\\
76	0\\
77	0\\
78	0\\
79	0\\
80	0\\
81	0\\
82	0\\
83	0\\
84	0\\
85	0\\
86	0\\
87	0\\
88	0\\
89	0\\
90	0\\
91	0\\
92	0\\
93	0\\
94	0\\
95	0\\
96	0\\
97	0\\
98	0\\
99	0\\
100	0\\
101	0\\
102	0\\
103	0\\
104	0\\
105	0\\
106	0\\
107	0\\
108	0\\
109	0\\
110	0\\
111	0\\
112	0\\
113	0\\
114	0\\
115	0\\
116	0\\
117	0\\
118	0\\
119	0\\
120	0\\
121	0\\
122	0\\
123	0\\
124	0\\
125	0\\
126	0\\
127	0\\
128	0\\
129	0\\
130	0\\
131	0\\
132	0\\
133	0\\
134	0\\
135	0\\
136	0\\
137	0\\
138	0\\
139	0\\
140	0\\
141	0\\
142	0\\
143	0\\
144	0\\
145	0\\
146	0\\
147	0\\
148	0\\
149	0\\
150	0\\
151	0\\
152	0\\
153	0\\
154	0\\
155	0\\
156	0\\
157	0\\
158	0\\
159	0\\
160	0\\
161	0\\
162	0\\
163	0\\
164	0\\
165	0\\
166	0\\
167	0\\
168	0\\
169	0\\
170	0\\
171	0\\
172	0\\
173	0\\
174	0\\
175	0\\
176	0\\
177	0\\
178	0\\
179	0\\
180	0\\
181	0\\
182	0\\
183	0\\
184	0\\
185	0\\
186	0\\
187	0\\
188	0\\
189	0\\
190	0\\
191	0\\
192	0\\
193	0\\
194	0\\
195	0\\
196	0\\
197	0\\
198	0\\
199	0\\
200	0\\
};
\addlegendentry{$\mathbf{h_{2}}$}

\end{axis}

\begin{axis}[%
width=1.935in,
height=3.2in,
at={(3.327in,0.512in)},
scale only axis,
xmin=0,
xmax=209,
xlabel style={font=\color{white!15!black}, align=center},
xlabel={Sample Index\\[1ex](b) Estimated},
ymin=0,
ymax=1,
axis background/.style={fill=white},
legend style={legend cell align=left, align=left, draw=white!15!black}
]
\addplot [color=mycolor1]
  table[row sep=crcr]{%
0	5.28117300295964e-05\\
1	4.11243183299346e-05\\
2	0.000132939098622657\\
3	3.33887387276632e-05\\
4	9.1840986779071e-05\\
5	3.3481222237457e-05\\
6	3.55390746423991e-05\\
7	5.9603570133604e-05\\
8	0.000112873426770073\\
9	7.42557826638944e-05\\
10	0.00012105165142553\\
11	0.000163014461841002\\
12	5.58392146972812e-05\\
13	1.99553067696477e-05\\
14	5.91014209034746e-05\\
15	8.18899590963429e-05\\
16	5.15476947045014e-05\\
17	4.84256815952794e-05\\
18	0.000102143197622006\\
19	6.30061262736955e-05\\
20	3.555734508901e-05\\
21	6.86133136136188e-05\\
22	3.06810552121475e-05\\
23	2.79048966799666e-05\\
24	6.97314441686103e-05\\
25	0.000137286743559154\\
26	7.49387082841897e-05\\
27	0.000195093971184992\\
28	0.00014584721437329\\
29	4.91851896537711e-05\\
30	2.4159450524443e-05\\
31	0.000182045146115009\\
32	2.54339378924819e-05\\
33	6.29267339992642e-05\\
34	9.6638047985093e-05\\
35	2.54089118491872e-05\\
36	0.000259521741605084\\
37	0.000311502023765989\\
38	0.000165543269222983\\
39	0.00014002847529176\\
40	7.23178871107623e-05\\
41	0.000228677091734362\\
42	0.000125003735120827\\
43	6.10352076041916e-05\\
44	0.000103790555198931\\
45	0.000140620681359085\\
46	3.84761375516416e-05\\
47	7.55670067358188e-05\\
48	6.95605661283254e-05\\
49	0.00044153020176421\\
50	0.000197308217760421\\
51	0.000372690386078747\\
52	9.10856883641633e-05\\
53	5.52848419259538e-05\\
54	0.0115597881817255\\
55	0.0137903394558136\\
56	0.0019052913854008\\
57	0.0182283166449802\\
58	2.84424049491026e-05\\
59	0.00415004682230607\\
60	0.00201752545946824\\
61	0.000535693526464406\\
62	0.00321812367534791\\
63	9.68948645199411e-05\\
64	0.000246644024964595\\
65	0.000165204054063649\\
66	0.000219509997601314\\
67	0.0117242069939764\\
68	0.00602146146186637\\
69	0.000680736418079423\\
70	0.0147482744516368\\
71	0.00997758494756534\\
72	0.0074491490212238\\
73	0.057018087275298\\
74	0.025549962700501\\
75	0.0339506910241574\\
76	0.00157539474658123\\
77	0.059062722509754\\
78	0.0146899381581265\\
79	0.0282142582352341\\
80	0.0343495269250879\\
81	0.0131349348431165\\
82	0.0817906955123959\\
83	0.000451327284409256\\
84	0.00278024634651464\\
85	0.00532059388319338\\
86	0.0121170161114083\\
87	0.0436573009921355\\
88	0.0676821854852211\\
89	0.150941059173816\\
90	0.0933816650945826\\
91	0.132723376470317\\
92	0.214179102641005\\
93	0.571066984157057\\
94	0.127895875312507\\
95	0.0631405638461263\\
96	0.00203748899146011\\
97	0.0393043097024695\\
98	0.0536303286326618\\
99	0.0625397859707229\\
100	0.0124500240885065\\
101	0.0270244395554559\\
102	0.0131100451624909\\
103	0.0463386581011749\\
104	0.0317942694499159\\
105	0.0280098774357572\\
106	0.0427911050917672\\
107	0.0565678794186959\\
108	0.0725403367526625\\
109	0.581813603115464\\
110	0.131306842211094\\
111	0.0187779655774277\\
112	0.0559030134170941\\
113	0.055592071541464\\
114	0.0735671674987752\\
115	0.16511284455251\\
116	0.0219229645155055\\
117	0.0415904025186594\\
118	0.0269338693033951\\
119	0.000132626186474666\\
120	0.0128110867686972\\
121	0.00143323880175061\\
122	0.00364875852200726\\
123	0.0120200063179607\\
124	0.016899627438875\\
125	0.0940746583458915\\
126	0.0713605814353157\\
127	0.078406244485248\\
128	0.219132683629896\\
129	0.168043936115494\\
130	0.0775033697048684\\
131	0.0507392185877346\\
132	0.007131401919027\\
133	0.0266940039131541\\
134	0.0205761558050031\\
135	0.00171124357664228\\
136	0.00351490023530442\\
137	0.016975603304974\\
138	0.0102228672300602\\
139	0.0002487322825444\\
140	0.0132186305575733\\
141	0.0117250635916986\\
142	0.00508843593505327\\
143	0.0162009246390677\\
144	0.0417996241815042\\
145	0.0362437318678594\\
146	0.00856091077502756\\
147	0.0150645348614971\\
148	0.0115383137052187\\
149	0.00656845692118722\\
150	0.00282709138996824\\
151	0.00534346989737981\\
152	0.0014543325793368\\
153	2.35257573723406e-05\\
154	7.40742283754012e-05\\
155	0.00142587101892182\\
156	0.00159564773552397\\
157	0.000812784708498574\\
158	0.00196981135095115\\
159	2.87447231619863e-05\\
160	6.16946952618158e-05\\
161	0.0103666630901696\\
162	0.00493251545912667\\
163	0.00244399190088863\\
164	0.00440843624722439\\
165	6.56196276181241e-05\\
166	6.23351506249074e-05\\
167	0.000890701597354218\\
168	0.000113956512828505\\
169	0.00139793923589821\\
170	0.000365820989490657\\
171	0.000135646191016929\\
172	6.88108739970691e-05\\
173	0.000107452017006135\\
174	0.00013973569026298\\
175	4.61536965078959e-05\\
176	0.000153955730770172\\
177	3.09839712992072e-05\\
178	9.97329516455192e-05\\
179	2.40199021919967e-05\\
180	0.000421184300040197\\
181	8.01772367198034e-06\\
182	0.000110049840595751\\
183	4.14422485355012e-05\\
184	2.42352082436773e-05\\
185	0.000117909714505322\\
186	8.18509969435812e-05\\
187	0.000133905661043527\\
188	5.00335828369811e-05\\
189	7.73849590467808e-05\\
190	5.2280932077442e-05\\
191	0.000141729518425181\\
192	3.36730141948177e-05\\
193	0.000120187622337383\\
194	7.82504661799407e-05\\
195	5.25068987057626e-05\\
196	0.000132476922177071\\
197	9.8660181192043e-05\\
198	4.88199454163372e-05\\
199	1.3986180203492e-05\\
200	6.42092671632972e-05\\
201	8.36847423166331e-05\\
202	3.36555387047809e-05\\
203	4.59759463295955e-05\\
204	5.68496277904426e-05\\
205	0.000105602317817741\\
206	1.97768107081112e-05\\
207	8.18198894608507e-05\\
208	1.25637679362898e-05\\
209	4.36796457116362e-05\\
};
\addlegendentry{$\mathbf{\hat{h}_{1}}$}

\addplot [color=mycolor2]
  table[row sep=crcr]{%
0	2.24752672254638e-05\\
1	5.97399228789776e-06\\
2	4.57420936469078e-05\\
3	5.08698955553866e-05\\
4	1.09409390855995e-05\\
5	2.35503625759188e-05\\
6	2.63682307375455e-05\\
7	1.37150062365755e-05\\
8	3.66765240263586e-05\\
9	3.22814407527639e-05\\
10	5.42869010866281e-05\\
11	5.70763192229576e-05\\
12	1.7225879063571e-05\\
13	3.99897909297215e-05\\
14	1.12203444444452e-05\\
15	6.4781726268604e-06\\
16	1.09879616110826e-05\\
17	0.000142214971795911\\
18	1.19062313175234e-05\\
19	3.98413258875751e-05\\
20	7.38404887991976e-05\\
21	2.32824966452862e-05\\
22	5.84165949215764e-05\\
23	3.56297129449687e-05\\
24	1.35870200071277e-05\\
25	2.02495549820537e-05\\
26	0.000120877827364975\\
27	1.89046364249835e-05\\
28	8.40108527458119e-05\\
29	9.06980014531209e-05\\
30	0.000580832775099421\\
31	5.98830375855414e-05\\
32	4.52638069768132e-05\\
33	6.42572489955212e-05\\
34	0.00012780276723507\\
35	0.000380651061331442\\
36	0.000932285421539897\\
37	4.22979966559578e-05\\
38	5.12772760101031e-05\\
39	0.000772393013150996\\
40	0.00123650717592022\\
41	0.00034781701551764\\
42	0.00116293823741322\\
43	1.57301160798919e-05\\
44	6.61926274751149e-05\\
45	0.00148036779351735\\
46	0.000882994036429625\\
47	2.85293812813539e-05\\
48	0.00609682184494916\\
49	0.00790544489800112\\
50	0.00350674934696933\\
51	0.00394379275373633\\
52	0.00639526105651678\\
53	0.00413285277066261\\
54	0.00330060224074205\\
55	0.00147319528783888\\
56	0.00061230601006224\\
57	0.00262802552135922\\
58	0.000159235646201034\\
59	5.06913805217281e-05\\
60	0.000737746583548979\\
61	0.000533071928772803\\
62	0.00173713948127675\\
63	9.82457698678758e-06\\
64	0.00797211034166461\\
65	0.0239668851247571\\
66	0.0199883683731435\\
67	0.00389746618772974\\
68	0.0460233245452724\\
69	0.0204201659595464\\
70	0.0160566073659583\\
71	0.0182511536422119\\
72	0.0121527527676153\\
73	0.00487858286331368\\
74	0.00661420460462689\\
75	0.00335369379468373\\
76	0.000201502999307223\\
77	0.00558766166942549\\
78	0.015484518536314\\
79	0.00208993862597147\\
80	0.00363839958497266\\
81	0.0235674791989909\\
82	0.0208536864636144\\
83	0.0141349506233116\\
84	0.0443611225236658\\
85	0.0557577723146879\\
86	0.0335148487458451\\
87	0.00897758482202828\\
88	0.128005540033816\\
89	0.0167975480545023\\
90	0.00729143208837756\\
91	0.0216126668924138\\
92	0.00640877056848187\\
93	0.0126085377445166\\
94	4.84169285714901e-06\\
95	0.0191230961625294\\
96	0.0219763469289236\\
97	0.00779087862718013\\
98	0.00957454853221152\\
99	0.010069603886522\\
100	0.00959756321737517\\
101	0.0517944029083594\\
102	0.0253870924781775\\
103	0.00335128312697169\\
104	0.964706271168782\\
105	0.00298478955111606\\
106	0.0263521287400107\\
107	0.0528194483762797\\
108	0.00927201308315799\\
109	0.0110012301029853\\
110	0.0106226864047792\\
111	0.00762501200050134\\
112	0.0217358520428491\\
113	0.0169561341567987\\
114	0.0128206292481081\\
115	0.0144051308902912\\
116	0.00690985241802487\\
117	0.021750317511217\\
118	0.00639791519895031\\
119	0.0153430887023416\\
120	0.127959418120195\\
121	0.00842095679221424\\
122	0.033984514986343\\
123	0.0560498355067385\\
124	0.0455403676598114\\
125	0.014879120552686\\
126	0.0214959507488698\\
127	0.024227354856946\\
128	0.00311317466884808\\
129	0.00220484426562348\\
130	0.0169511511388629\\
131	0.00579791562923474\\
132	0.000179345888449126\\
133	0.00185177194943363\\
134	0.00687355047226091\\
135	0.00396030115659889\\
136	0.0110329528751674\\
137	0.0186906611281\\
138	0.0156055434749503\\
139	0.0204579671382896\\
140	0.0469995076888326\\
141	0.00309036549960594\\
142	0.0208274398224185\\
143	0.0252716697730632\\
144	0.00835614737472165\\
145	3.40633697928586e-05\\
146	0.0015801365741409\\
147	0.00106094779325459\\
148	0.00209008360655624\\
149	0.000597433161969543\\
150	0.000636168611729717\\
151	0.00361696116546116\\
152	0.00105156351448497\\
153	0.00124860524922872\\
154	0.00354237780234932\\
155	0.00449328496796933\\
156	0.00585785611165906\\
157	0.003796181283465\\
158	0.00354447032473357\\
159	0.00757256630306508\\
160	0.00742405011933368\\
161	2.1665344105012e-05\\
162	0.000639889431344291\\
163	0.00296733011138464\\
164	9.40922151836537e-05\\
165	3.11156670122663e-05\\
166	0.00212278039658844\\
167	0.00117199102108319\\
168	0.00200397202918182\\
169	0.00180586568200568\\
170	4.49508327033258e-05\\
171	2.86698711546679e-05\\
172	0.000883874680698677\\
173	0.000610466867067216\\
174	6.74488852211609e-05\\
175	5.86975121615222e-05\\
176	3.05548610600506e-05\\
177	3.39964388425474e-05\\
178	0.0013326512370487\\
179	0.0007294124070658\\
180	0.00042602640262142\\
181	4.48376506335593e-05\\
182	0.000178436382568833\\
183	9.93627756285464e-05\\
184	1.34906315703503e-05\\
185	3.88157095747335e-05\\
186	5.88337584754034e-05\\
187	3.42324008005792e-05\\
188	8.71847228637035e-05\\
189	4.62879322111471e-05\\
190	3.20791392228069e-06\\
191	0.000192169746932241\\
192	1.86070805897514e-05\\
193	0.000139213179603906\\
194	1.28089276384833e-05\\
195	2.86824217932324e-05\\
196	1.12517268657412e-05\\
197	4.78894621851459e-05\\
198	7.66927946280032e-05\\
199	1.08042747722578e-05\\
200	2.85546265862477e-05\\
201	9.6249570437275e-06\\
202	3.17149921420294e-05\\
203	3.10616991889652e-05\\
204	1.65160066074458e-05\\
205	3.57781607487797e-05\\
206	3.58475673659308e-05\\
207	2.3353040637165e-05\\
208	1.58857868057706e-05\\
209	4.35444558735303e-05\\
};
\addlegendentry{$\mathbf{\hat{h}_{2}}$}

\end{axis}
\end{tikzpicture}%