% This file was created by matlab2tikz.
%
%The latest updates can be retrieved from
%  http://www.mathworks.com/matlabcentral/fileexchange/22022-matlab2tikz-matlab2tikz
%where you can also make suggestions and rate matlab2tikz.
%
\definecolor{mycolor1}{rgb}{0.00000,0.44700,0.74100}%
\definecolor{mycolor2}{rgb}{0.85000,0.32500,0.09800}%
%
\begin{tikzpicture}

\begin{axis}[%
width=1.952in,
height=3.2in,
at={(0.758in,0.512in)},
scale only axis,
xmin=0,
xmax=20,
xlabel style={font=\color{white!15!black}, align=center},
xlabel={Sample Index\\[1ex](a) Actual},
ymin=0,
ymax=0.9,
axis background/.style={fill=white},
legend style={legend cell align=left, align=left, draw=white!15!black}
]
\addplot [color=mycolor1]
  table[row sep=crcr]{%
1	0.0444337104356374\\
2	0.738127803558165\\
3	0.357839506790865\\
4	0.481268775571525\\
5	0.10955194752004\\
6	0.267783168107473\\
7	0.0769544524124665\\
8	0.0372836026936495\\
9	0.027789744685169\\
10	0.0196434178633453\\
11	0.0212138243269196\\
12	0.0147156812719569\\
13	0.0126517206023441\\
14	0.0111331007215966\\
15	0.00994473974674355\\
16	0.00898571135769806\\
17	0.00819466874468931\\
18	0.00753086667278431\\
19	0.00696589032366256\\
20	0.00647923877975415\\
};
\addlegendentry{$\mathbf{h_1}$}

\addplot [color=mycolor2]
  table[row sep=crcr]{%
1	0.0696363384444256\\
2	0.13399148454392\\
3	0.889181852408627\\
4	0.426869408918664\\
5	0.0527923084371181\\
6	0.0393468637154593\\
7	0\\
8	0\\
9	0\\
10	0\\
11	0\\
12	0\\
13	0\\
14	0\\
15	0\\
16	0\\
17	0\\
18	0\\
19	0\\
20	0\\
};
\addlegendentry{$\mathbf{h_{2}}$}

\end{axis}

\begin{axis}[%
width=1.952in,
height=3.2in,
at={(3.327in,0.512in)},
scale only axis,
xmin=0,
xmax=40,
xlabel style={font=\color{white!15!black}, align=center},
xlabel={Sample Index\\[1ex](b) Estimated},
ymin=0,
ymax=1,
axis background/.style={fill=white},
legend style={legend cell align=left, align=left, draw=white!15!black}
]
\addplot [color=mycolor1]
  table[row sep=crcr]{%
0	5.31648503650936e-05\\
1	5.8449668886344e-05\\
2	3.00410920917467e-05\\
3	3.6539440662761e-05\\
4	1.35167143998619e-05\\
5	3.44454683502136e-05\\
6	2.85692560877459e-05\\
7	0.000119947072808121\\
8	0.00012923044018396\\
9	0.00123587420771224\\
10	0.000223375863373153\\
11	0.0105637978907289\\
12	0.0185579961882878\\
13	0.0220924561695339\\
14	0.0340448242110386\\
15	0.0407936181706349\\
16	0.197305896104689\\
17	0.164566892971908\\
18	0.772821820048742\\
19	0.235879176141701\\
20	0.378060938840814\\
21	0.276485061053356\\
22	0.178041754976005\\
23	0.154151099334824\\
24	0.0245773663097995\\
25	0.0258287897395485\\
26	0.0209837602560678\\
27	0.022871505349076\\
28	0.0135924457886867\\
29	0.00377845401785858\\
30	0.00268840016508628\\
31	0.00330400783135343\\
32	0.00282147514668358\\
33	0.00136567722137837\\
34	0.000913587791890529\\
35	0.00285375947782911\\
36	0.00451192493096985\\
37	0.000481732700772191\\
38	0.000230253263634092\\
39	4.37742179450245e-05\\
};
\addlegendentry{$\mathbf{\hat{h}_{1}}$}

\addplot [color=mycolor2]
  table[row sep=crcr]{%
0	2.17787117012821e-05\\
1	0.000250991884422162\\
2	3.39452566632063e-05\\
3	0.000100268481249005\\
4	0.00112749424552643\\
5	0.0020488847930299\\
6	0.00198664280062115\\
7	0.00252193080771651\\
8	0.00338170396986511\\
9	0.00529359030006745\\
10	0.00984804821183751\\
11	0.0109751687966484\\
12	0.0199789848427644\\
13	0.0152740078353982\\
14	0.0502156599498204\\
15	0.0707229003132333\\
16	0.0728014419489492\\
17	0.165782642718423\\
18	0.0346501022845442\\
19	0.955957243454216\\
20	0.034062351736208\\
21	0.16742582402346\\
22	0.0738346940912811\\
23	0.0728065176538243\\
24	0.0508322798613826\\
25	0.0171130404893738\\
26	0.022173625422161\\
27	0.0126495124219969\\
28	0.0114953786681869\\
29	0.00734026825439958\\
30	0.00503752106450382\\
31	0.00415248801920212\\
32	0.0035049760016684\\
33	0.00334278187786624\\
34	0.00240980485774161\\
35	0.00108606453347345\\
36	0.000373498927393844\\
37	0.000878413606832442\\
38	0.000304027336061639\\
39	0.000301144294810592\\
};
\addlegendentry{$\mathbf{\hat{h}_{2}}$}

\end{axis}
\end{tikzpicture}%