% This file was created by matlab2tikz.
%
%The latest updates can be retrieved from
%  http://www.mathworks.com/matlabcentral/fileexchange/22022-matlab2tikz-matlab2tikz
%where you can also make suggestions and rate matlab2tikz.
%
\definecolor{mycolor1}{rgb}{0.00000,0.44700,0.74100}%
\definecolor{mycolor2}{rgb}{0.85000,0.32500,0.09800}%
%
\begin{tikzpicture}

\begin{axis}[%
width=1.952in,
height=3.2in,
at={(0.758in,0.512in)},
scale only axis,
xmin=0,
xmax=20,
xlabel style={font=\color{white!15!black}, align=center},
xlabel={Sample Index\\[1ex](a) Actual},
ymin=0,
ymax=1,
axis background/.style={fill=white},
legend style={legend cell align=left, align=left, draw=white!15!black}
]
\addplot [color=mycolor1]
  table[row sep=crcr]{%
1	0.113205605745861\\
2	0.919292270364926\\
3	0.256025577129562\\
4	0.221212160951117\\
5	0.110921817870281\\
6	0.0400328712358033\\
7	0.0687168441611535\\
8	0.0506014016738843\\
9	0.0552835931164163\\
10	0.0346525615393867\\
11	0.020191452822011\\
12	0.0185296152559968\\
13	0.0171404774442808\\
14	0.0156211388830756\\
15	0.0142945116316957\\
16	0.0131617720182863\\
17	0.0121914691582677\\
18	0.0113534257007881\\
19	0.0106231383936872\\
20	0.00998136168461187\\
};
\addlegendentry{$\mathbf{h_1}$}

\addplot [color=mycolor2]
  table[row sep=crcr]{%
1	0.0495723015654782\\
2	0.0685334241945042\\
3	0.511321702955238\\
4	0.765196656162612\\
5	0.358164812724738\\
6	0.132619444637821\\
7	0\\
8	0\\
9	0\\
10	0\\
11	0\\
12	0\\
13	0\\
14	0\\
15	0\\
16	0\\
17	0\\
18	0\\
19	0\\
20	0\\
};
\addlegendentry{$\mathbf{h_{2}}$}

\end{axis}

\begin{axis}[%
width=1.952in,
height=3.2in,
at={(3.327in,0.512in)},
scale only axis,
xmin=0,
xmax=20,
xlabel style={font=\color{white!15!black}, align=center},
xlabel={Sample Index\\[1ex](b) Estimated},
ymin=0,
ymax=1,
axis background/.style={fill=white},
legend style={legend cell align=left, align=left, draw=white!15!black}
]
\addplot [color=mycolor1]
  table[row sep=crcr]{%
0	0.0431453070381056\\
1	0.0301268153469214\\
2	0.00371053269933597\\
3	0.017510234448215\\
4	0.0584103364037117\\
5	0.195585066907974\\
6	0.168632507178828\\
7	0.817161660718077\\
8	0.440698858434252\\
9	0.190907368140314\\
10	0.0382422239131745\\
11	0.0942248908690524\\
12	0.100008596772006\\
13	0.0412881383147114\\
14	0.0308961723455826\\
15	0.0532727162206539\\
16	0.027948232579169\\
17	0.0309396910023565\\
18	0.0235568893682371\\
19	0.0161526325132474\\
};
\addlegendentry{$\mathbf{\hat{h}_{1}}$}

\addplot [color=mycolor2]
  table[row sep=crcr]{%
0	0.0161934177291544\\
1	0.0310964046204677\\
2	0.0276048873186593\\
3	0.0337335033157504\\
4	0.0461195667246512\\
5	0.053670209410232\\
6	0.12249724407284\\
7	0.113855091927359\\
8	0.200062618980457\\
9	0.920428729478276\\
10	0.200090869754544\\
11	0.114091607457417\\
12	0.12254695078557\\
13	0.0537888138765278\\
14	0.0453288404450979\\
15	0.0343092636263814\\
16	0.0293230582022449\\
17	0.031992500404706\\
18	0.017067767862639\\
19	0.0176041213102678\\
};
\addlegendentry{$\mathbf{\hat{h}_{2}}$}

\end{axis}
\end{tikzpicture}%