% This file was created by matlab2tikz.
%
%The latest updates can be retrieved from
%  http://www.mathworks.com/matlabcentral/fileexchange/22022-matlab2tikz-matlab2tikz
%where you can also make suggestions and rate matlab2tikz.
%
\definecolor{mycolor1}{rgb}{0.00000,0.44700,0.74100}%
\definecolor{mycolor2}{rgb}{0.85000,0.32500,0.09800}%
%
\begin{tikzpicture}

\begin{axis}[%
width=1.935in,
height=3.2in,
at={(0.758in,0.512in)},
scale only axis,
xmin=0,
xmax=100,
xlabel style={font=\color{white!15!black}, align=center},
xlabel={Sample Index\\[1ex](a) Actual},
ymin=0,
ymax=1,
axis background/.style={fill=white},
legend style={legend cell align=left, align=left, draw=white!15!black}
]
\addplot [color=mycolor1]
  table[row sep=crcr]{%
1	0.0216926152020066\\
2	0.0241183965289278\\
3	0.0267807478156139\\
4	0.0354280601095614\\
5	0.221828667704926\\
6	0.648965745595675\\
7	0.241270440438586\\
8	0.0776642628644082\\
9	0.0581044824071981\\
10	0.0611489366831747\\
11	0.0798140419847986\\
12	0.062735544320507\\
13	0.113011040425493\\
14	0.377485382687519\\
15	0.331649248845691\\
16	0.18615433793772\\
17	0.146493252817741\\
18	0.0847190801249442\\
19	0.0628278567269286\\
20	0.0148364296169451\\
21	0.0250471739922352\\
22	0.0344835915107885\\
23	0.116323790948646\\
24	0.279210940275387\\
25	0.101045410677318\\
26	0.0464379665429307\\
27	0.041398863205924\\
28	0.0263226969199998\\
29	0.0221848789960478\\
30	0.0197642774213948\\
31	0.0186496517239344\\
32	0.0219339353832985\\
33	0.018414044189717\\
34	0.00937919788338426\\
35	0.0100670783096178\\
36	0.0098135024549665\\
37	0.00937197330245933\\
38	0.00884810306396591\\
39	0.00821513429074651\\
40	0.00732026654240377\\
41	0.00945021173361951\\
42	0.0127255218727005\\
43	0.00946415089832864\\
44	0.00862800399957479\\
45	0.00816256372793386\\
46	0.00784857678072338\\
47	0.00764005346579914\\
48	0.00755773656417068\\
49	0.00776075567554332\\
50	0.00986938420958768\\
51	0.00319649311885596\\
52	0.00500292172051245\\
53	0.00524752973649041\\
54	0.00526667690567613\\
55	0.00521575322380608\\
56	0.00513704586881206\\
57	0.00504647235310817\\
58	0.00495116794332671\\
59	0.00485468351773321\\
60	0.00475890010347922\\
61	0.00466484578572566\\
62	0.00457308311118313\\
63	0.00448390798586452\\
64	0.0043974582605137\\
65	0.00431377595094964\\
66	0.00423284428954661\\
67	0.00415461047403326\\
68	0.00407899997367922\\
69	0.00400592569101114\\
70	0.00393529390404367\\
71	0.0038670081481966\\
72	0.00380097175500134\\
73	0.00373708950172093\\
74	0.00367526866536834\\
75	0.00361541967416126\\
76	0.00355745648532918\\
77	0.00350129677649243\\
78	0.00344686201027152\\
79	0.00339407741330312\\
80	0.00334287189828014\\
81	0.0032931779490063\\
82	0.00324493148246751\\
83	0.00319807169773062\\
84	0.003152540918526\\
85	0.00310828443427485\\
86	0.00306525034282854\\
87	0.00302338939712195\\
88	0.00298265485717807\\
89	0.00294300234835571\\
90	0.00290438972634362\\
91	0.0028667769491261\\
92	0.00283012595595264\\
93	0.0027944005532083\\
94	0.00275956630699144\\
95	0.0027255904421446\\
96	0.00269244174744817\\
97	0.00266009048666622\\
98	0.00262850831512411\\
99	0\\
100	0\\
};
\addlegendentry{$\mathbf{h_1}$}

\addplot [color=mycolor2]
  table[row sep=crcr]{%
1	0.00108294891904515\\
2	0.00115806441999571\\
3	0.00125656841390277\\
4	0.00139359850086552\\
5	0.00159676508941691\\
6	0.00191784013184518\\
7	0.00245777585368985\\
8	0.00342819163679349\\
9	0.00533730915065768\\
10	0.00974214709050295\\
11	0.0244449264542886\\
12	0.973731186814765\\
13	0.0500739614470277\\
14	0.0426946282907342\\
15	0.00536788790071817\\
16	0.0362080823589407\\
17	0.176144271962331\\
18	0.115663212635922\\
19	0.0234963057121139\\
20	0.0138738178597906\\
21	0.00966054585381422\\
22	0.00731818549393035\\
23	0.00584139575065055\\
24	0.0048330083027894\\
25	0.00410500747522503\\
26	0.00355723928842746\\
27	0.00313167065616096\\
28	0.00279247304593218\\
29	0.00251639833876938\\
30	0.00228774297450139\\
31	0.00209554142652578\\
32	0.00193191967393617\\
33	0.00179108704155738\\
34	0.00166869616651274\\
35	0\\
36	0\\
37	0\\
38	0\\
39	0\\
40	0\\
41	0\\
42	0\\
43	0\\
44	0\\
45	0\\
46	0\\
47	0\\
48	0\\
49	0\\
50	0\\
51	0\\
52	0\\
53	0\\
54	0\\
55	0\\
56	0\\
57	0\\
58	0\\
59	0\\
60	0\\
61	0\\
62	0\\
63	0\\
64	0\\
65	0\\
66	0\\
67	0\\
68	0\\
69	0\\
70	0\\
71	0\\
72	0\\
73	0\\
74	0\\
75	0\\
76	0\\
77	0\\
78	0\\
79	0\\
80	0\\
81	0\\
82	0\\
83	0\\
84	0\\
85	0\\
86	0\\
87	0\\
88	0\\
89	0\\
90	0\\
91	0\\
92	0\\
93	0\\
94	0\\
95	0\\
96	0\\
97	0\\
98	0\\
99	0\\
100	0\\
};
\addlegendentry{$\mathbf{h_{2}}$}

\end{axis}

\begin{axis}[%
width=1.935in,
height=3.2in,
at={(3.327in,0.512in)},
scale only axis,
xmin=0,
xmax=109,
xlabel style={font=\color{white!15!black}, align=center},
xlabel={Sample Index\\[1ex](b) Estimated},
ymin=0,
ymax=1,
axis background/.style={fill=white},
legend style={legend cell align=left, align=left, draw=white!15!black}
]
\addplot [color=mycolor1]
  table[row sep=crcr]{%
0	0.00278227302180609\\
1	0.00691676735935386\\
2	0.00947985622328523\\
3	0.00963404982503566\\
4	0.0360790337695271\\
5	0.10453371089389\\
6	0.126045273386515\\
7	0.0451184687473224\\
8	0.0309143036919349\\
9	0.068247074959931\\
10	0.209133571662003\\
11	0.598684463822478\\
12	0.219927429702133\\
13	0.131682385815924\\
14	0.126291940690801\\
15	0.0480194437729267\\
16	0.114603636106989\\
17	0.0731006464222642\\
18	0.163819777711396\\
19	0.406070940238876\\
20	0.270631266676977\\
21	0.202859912131354\\
22	0.139387226831907\\
23	0.092718760081887\\
24	0.0518994037340073\\
25	0.0559981014806842\\
26	0.0793607849932903\\
27	0.0684493281523172\\
28	0.124646519560651\\
29	0.265596322457828\\
30	0.0714541238173665\\
31	0.0556653138868067\\
32	0.044393149487725\\
33	0.0339914239636608\\
34	0.0357112398963358\\
35	0.0297777056373581\\
36	0.0446161968401207\\
37	0.0354749159271594\\
38	0.0294527791225358\\
39	0.0146421161089916\\
40	0.0237006129334648\\
41	0.0148879811704142\\
42	0.0196187234999211\\
43	0.0123341241211019\\
44	0.00605125134300613\\
45	0.0136335608062017\\
46	0.0124787748668219\\
47	0.0170299741199502\\
48	0.0116000236735574\\
49	0.0119842795598424\\
50	0.0121690128376326\\
51	0.0105753359175187\\
52	0.0125575161549519\\
53	0.0107324131015986\\
54	0.0114221863468095\\
55	0.0124149087510351\\
56	0.00701769777261796\\
57	0.00730590282446125\\
58	0.0078099040060286\\
59	0.00795511205770418\\
60	0.00772015881626234\\
61	0.00707264406266762\\
62	0.00689257966055314\\
63	0.00721045772234752\\
64	0.00678226781686442\\
65	0.00659594043658\\
66	0.00666059437914587\\
67	0.00642152658796338\\
68	0.0062494952206423\\
69	0.00617463778038364\\
70	0.00614339471225942\\
71	0.00601029688675654\\
72	0.00576167362827491\\
73	0.005663486722329\\
74	0.00566808286714809\\
75	0.00555341923668552\\
76	0.00539670687026418\\
77	0.00531740638691709\\
78	0.00522088021007342\\
79	0.0052183998357874\\
80	0.00501174778410407\\
81	0.00501440676863046\\
82	0.00483083257048483\\
83	0.00485176375619955\\
84	0.00479440487133202\\
85	0.00462886400888599\\
86	0.00459789191423553\\
87	0.00453862735091311\\
88	0.00443236718267982\\
89	0.00444421190450081\\
90	0.00427255223742735\\
91	0.00429386984642293\\
92	0.00428973111835719\\
93	0.00411919009721622\\
94	0.00410646567315142\\
95	0.00410236676626196\\
96	0.00389873545366874\\
97	0.00396116820851464\\
98	0.00359888590262006\\
99	0.00358344523982483\\
100	0.00366434598108677\\
101	0.00364337958808249\\
102	0.00375192370410092\\
103	0.00357068052718223\\
104	0.00113919506986257\\
105	0.00112833041673623\\
106	0.0011845131573481\\
107	0.00101119895890922\\
108	0.000824078276067985\\
109	0.000293544998806135\\
};
\addlegendentry{$\mathbf{\hat{h}_{1}}$}

\addplot [color=mycolor2]
  table[row sep=crcr]{%
0	0.000137578097819428\\
1	0.000339453831586013\\
2	0.000487744478906793\\
3	0.000624157053522368\\
4	0.000689265452963908\\
5	0.000658832741530564\\
6	0.00117369334529985\\
7	0.00106572920654356\\
8	0.00130629163119804\\
9	0.00282068900040705\\
10	0.00493846026974501\\
11	0.126929879700404\\
12	0.185652266004629\\
13	0.100871358934068\\
14	0.06259355524373\\
15	0.0352935894494519\\
16	0.117502989226236\\
17	0.920099083792843\\
18	0.128994955215761\\
19	0.0426273414068122\\
20	0.0652181467214771\\
21	0.0871305805305675\\
22	0.160856449620485\\
23	0.107035675593617\\
24	0.0272442213406508\\
25	0.0409577991981808\\
26	0.0243064504868232\\
27	0.0206759155950855\\
28	0.0391332786223868\\
29	0.0248004135168939\\
30	0.00395313612346886\\
31	0.0061144964941141\\
32	0.0110363772236405\\
33	0.0140852216331557\\
34	0.00335027496657955\\
35	0.00320680662349044\\
36	0.00400803888901061\\
37	0.00267909386681951\\
38	0.00288156759274284\\
39	0.00232623190704918\\
40	0.000870047564682774\\
41	0.00129411921901983\\
42	0.000683886995792159\\
43	0.00139562898507813\\
44	0.000142416410417917\\
45	0.000606991261039734\\
46	0.000439945446781095\\
47	0.000445132742730773\\
48	0.000285573839472171\\
49	0.000123661156089949\\
50	0.00020673294924778\\
51	0.000160196925675072\\
52	0.000127421486101075\\
53	0.000346910110805724\\
54	0.000290764920506512\\
55	0.00017198499501365\\
56	0.000153691269083445\\
57	7.08820145261648e-05\\
58	0.000211550527451767\\
59	0.000185351959978273\\
60	0.000134908455192404\\
61	4.09852818307099e-05\\
62	1.18917625797779e-05\\
63	2.17793002530843e-05\\
64	5.75526005085684e-05\\
65	5.14445785399956e-05\\
66	6.93056827769229e-05\\
67	0.000121009096439627\\
68	8.52255951937845e-05\\
69	4.16497814761623e-05\\
70	1.83990084640248e-05\\
71	8.78834285666134e-05\\
72	4.78653491431591e-05\\
73	3.10926983505179e-05\\
74	8.48901523214128e-05\\
75	5.40326809797266e-05\\
76	2.93593114594787e-05\\
77	2.93987236966588e-05\\
78	3.27178840470179e-05\\
79	4.40814200713412e-05\\
80	4.37579772397615e-05\\
81	5.18223664441828e-05\\
82	1.71551199835946e-05\\
83	3.73318862831624e-05\\
84	2.01973669420473e-05\\
85	6.79696014954609e-05\\
86	2.56845096179377e-05\\
87	4.90796171638453e-05\\
88	8.17278632886193e-05\\
89	2.47262378545453e-05\\
90	5.73429043723878e-05\\
91	4.0962893580817e-05\\
92	1.57251154016161e-05\\
93	1.92121620942426e-05\\
94	3.91659858687358e-05\\
95	4.91499108372304e-05\\
96	5.93485358443409e-05\\
97	7.47828275807232e-05\\
98	6.37107020625255e-05\\
99	1.10917039107777e-05\\
100	4.19120395955975e-05\\
101	9.78905055016376e-05\\
102	9.94492346497796e-05\\
103	1.22897517975812e-05\\
104	5.09697813599937e-05\\
105	9.36739433146797e-06\\
106	5.34283718917274e-05\\
107	5.56146476390598e-05\\
108	2.36087386154718e-05\\
109	1.57754889347386e-05\\
};
\addlegendentry{$\mathbf{\hat{h}_{2}}$}

\end{axis}
\end{tikzpicture}%