% This file was created by matlab2tikz.
%
%The latest updates can be retrieved from
%  http://www.mathworks.com/matlabcentral/fileexchange/22022-matlab2tikz-matlab2tikz
%where you can also make suggestions and rate matlab2tikz.
%
\definecolor{mycolor1}{rgb}{0.00000,0.44700,0.74100}%
\definecolor{mycolor2}{rgb}{0.85000,0.32500,0.09800}%
%
\begin{tikzpicture}

\begin{axis}[%
width=1.935in,
height=3.2in,
at={(0.758in,0.512in)},
scale only axis,
xmin=0,
xmax=100,
xlabel style={font=\color{white!15!black}, align=center},
xlabel={Sample Index\\[1ex](a) Actual},
ymin=0,
ymax=1,
axis background/.style={fill=white},
legend style={legend cell align=left, align=left, draw=white!15!black}
]
\addplot [color=mycolor1]
  table[row sep=crcr]{%
1	0.0216926152020066\\
2	0.0241183965289278\\
3	0.0267807478156139\\
4	0.0354280601095614\\
5	0.221828667704926\\
6	0.648965745595675\\
7	0.241270440438586\\
8	0.0776642628644082\\
9	0.0581044824071981\\
10	0.0611489366831747\\
11	0.0798140419847986\\
12	0.062735544320507\\
13	0.113011040425493\\
14	0.377485382687519\\
15	0.331649248845691\\
16	0.18615433793772\\
17	0.146493252817741\\
18	0.0847190801249442\\
19	0.0628278567269286\\
20	0.0148364296169451\\
21	0.0250471739922352\\
22	0.0344835915107885\\
23	0.116323790948646\\
24	0.279210940275387\\
25	0.101045410677318\\
26	0.0464379665429307\\
27	0.041398863205924\\
28	0.0263226969199998\\
29	0.0221848789960478\\
30	0.0197642774213948\\
31	0.0186496517239344\\
32	0.0219339353832985\\
33	0.018414044189717\\
34	0.00937919788338426\\
35	0.0100670783096178\\
36	0.0098135024549665\\
37	0.00937197330245933\\
38	0.00884810306396591\\
39	0.00821513429074651\\
40	0.00732026654240377\\
41	0.00945021173361951\\
42	0.0127255218727005\\
43	0.00946415089832864\\
44	0.00862800399957479\\
45	0.00816256372793386\\
46	0.00784857678072338\\
47	0.00764005346579914\\
48	0.00755773656417068\\
49	0.00776075567554332\\
50	0.00986938420958768\\
51	0.00319649311885596\\
52	0.00500292172051245\\
53	0.00524752973649041\\
54	0.00526667690567613\\
55	0.00521575322380608\\
56	0.00513704586881206\\
57	0.00504647235310817\\
58	0.00495116794332671\\
59	0.00485468351773321\\
60	0.00475890010347922\\
61	0.00466484578572566\\
62	0.00457308311118313\\
63	0.00448390798586452\\
64	0.0043974582605137\\
65	0.00431377595094964\\
66	0.00423284428954661\\
67	0.00415461047403326\\
68	0.00407899997367922\\
69	0.00400592569101114\\
70	0.00393529390404367\\
71	0.0038670081481966\\
72	0.00380097175500134\\
73	0.00373708950172093\\
74	0.00367526866536834\\
75	0.00361541967416126\\
76	0.00355745648532918\\
77	0.00350129677649243\\
78	0.00344686201027152\\
79	0.00339407741330312\\
80	0.00334287189828014\\
81	0.0032931779490063\\
82	0.00324493148246751\\
83	0.00319807169773062\\
84	0.003152540918526\\
85	0.00310828443427485\\
86	0.00306525034282854\\
87	0.00302338939712195\\
88	0.00298265485717807\\
89	0.00294300234835571\\
90	0.00290438972634362\\
91	0.0028667769491261\\
92	0.00283012595595264\\
93	0.0027944005532083\\
94	0.00275956630699144\\
95	0.0027255904421446\\
96	0.00269244174744817\\
97	0.00266009048666622\\
98	0.00262850831512411\\
99	0\\
100	0\\
};
\addlegendentry{$\mathbf{h_1}$}

\addplot [color=mycolor2]
  table[row sep=crcr]{%
1	0.00108294891904515\\
2	0.00115806441999571\\
3	0.00125656841390277\\
4	0.00139359850086552\\
5	0.00159676508941691\\
6	0.00191784013184518\\
7	0.00245777585368985\\
8	0.00342819163679349\\
9	0.00533730915065768\\
10	0.00974214709050295\\
11	0.0244449264542886\\
12	0.973731186814765\\
13	0.0500739614470277\\
14	0.0426946282907342\\
15	0.00536788790071817\\
16	0.0362080823589407\\
17	0.176144271962331\\
18	0.115663212635922\\
19	0.0234963057121139\\
20	0.0138738178597906\\
21	0.00966054585381422\\
22	0.00731818549393035\\
23	0.00584139575065055\\
24	0.0048330083027894\\
25	0.00410500747522503\\
26	0.00355723928842746\\
27	0.00313167065616096\\
28	0.00279247304593218\\
29	0.00251639833876938\\
30	0.00228774297450139\\
31	0.00209554142652578\\
32	0.00193191967393617\\
33	0.00179108704155738\\
34	0.00166869616651274\\
35	0\\
36	0\\
37	0\\
38	0\\
39	0\\
40	0\\
41	0\\
42	0\\
43	0\\
44	0\\
45	0\\
46	0\\
47	0\\
48	0\\
49	0\\
50	0\\
51	0\\
52	0\\
53	0\\
54	0\\
55	0\\
56	0\\
57	0\\
58	0\\
59	0\\
60	0\\
61	0\\
62	0\\
63	0\\
64	0\\
65	0\\
66	0\\
67	0\\
68	0\\
69	0\\
70	0\\
71	0\\
72	0\\
73	0\\
74	0\\
75	0\\
76	0\\
77	0\\
78	0\\
79	0\\
80	0\\
81	0\\
82	0\\
83	0\\
84	0\\
85	0\\
86	0\\
87	0\\
88	0\\
89	0\\
90	0\\
91	0\\
92	0\\
93	0\\
94	0\\
95	0\\
96	0\\
97	0\\
98	0\\
99	0\\
100	0\\
};
\addlegendentry{$\mathbf{h_{2}}$}

\end{axis}

\begin{axis}[%
width=1.935in,
height=3.2in,
at={(3.327in,0.512in)},
scale only axis,
xmin=0,
xmax=200,
xlabel style={font=\color{white!15!black}, align=center},
xlabel={Sample Index\\[1ex](b) Estimated},
ymin=0,
ymax=0.25,
axis background/.style={fill=white},
legend style={legend cell align=left, align=left, draw=white!15!black}
]
\addplot [color=mycolor1]
  table[row sep=crcr]{%
0	0.00221860766369767\\
1	0.00328292135474183\\
2	0.00371681988834579\\
3	0.0041082153011956\\
4	0.0250639548949787\\
5	0.0855485044668508\\
6	0.0503029499965741\\
7	0.168608075073993\\
8	0.102953895892862\\
9	0.0589386370244801\\
10	0.0227638678133462\\
11	0.0294868542018245\\
12	0.0842852584657279\\
13	0.0720658660587597\\
14	0.0935282263316415\\
15	0.00680232454095686\\
16	0.089110385739527\\
17	0.106897837352938\\
18	0.0260924264778776\\
19	0.138359230653795\\
20	0.074526648695932\\
21	0.13496758610389\\
22	0.118240525901765\\
23	0.162388854895637\\
24	0.0899300231747216\\
25	0.0540062369599688\\
26	0.136187268824677\\
27	0.0816215118931554\\
28	0.176420342341878\\
29	0.187738754096791\\
30	0.0765667693975846\\
31	0.0779800243922031\\
32	0.0593953072313424\\
33	0.124702026727276\\
34	0.147909513442581\\
35	0.0195865957247608\\
36	0.0837151907925071\\
37	0.069763558737497\\
38	0.095039755851952\\
39	0.144452215746156\\
40	0.110002272179943\\
41	0.0333336393324501\\
42	0.0793230232526012\\
43	0.087036234753658\\
44	0.036917684243432\\
45	0.142137866644924\\
46	0.0504056887678308\\
47	0.0812764150388409\\
48	0.0926014458147463\\
49	0.117241381998158\\
50	0.0723472996233728\\
51	0.0674316037589767\\
52	0.0287662304323633\\
53	0.0580857021303316\\
54	0.095939367820981\\
55	0.108465995392489\\
56	0.11420151902086\\
57	0.054329012970163\\
58	0.0138583963890909\\
59	0.192308789712242\\
60	0.0992714418655373\\
61	0.0757040364959506\\
62	0.0626896963102901\\
63	0.089868143321834\\
64	0.173200795710833\\
65	0.136631015859475\\
66	0.0443811474832883\\
67	0.115456885857449\\
68	0.0458992926775363\\
69	0.0814469532011545\\
70	0.054422140829702\\
71	0.00916679889512033\\
72	0.0481067492434794\\
73	0.0986796073371003\\
74	0.0473056613290222\\
75	0.0473597024143673\\
76	0.037691644305367\\
77	0.0317122561374036\\
78	0.0767601974953299\\
79	0.03997678005112\\
80	0.117762551635631\\
81	0.150131146190082\\
82	0.081638464270102\\
83	0.112670096281963\\
84	0.0640706153305522\\
85	0.0790268699964878\\
86	0.027482020785953\\
87	0.105722484742193\\
88	0.11694871345533\\
89	0.047303644049281\\
90	0.0259640940646729\\
91	0.0831484887096617\\
92	0.0919356804844602\\
93	0.0642837013330742\\
94	0.0252879102895617\\
95	0.0898499061626208\\
96	0.0533381924045802\\
97	0.0983968350607057\\
98	0.142774625846259\\
99	0.0663249700538137\\
100	0.105529540955705\\
101	0.0650768504233528\\
102	0.14938842243659\\
103	0.0158442428112071\\
104	0.0513121933720907\\
105	0.124371880849383\\
106	0.0436990471849589\\
107	0.108438678604653\\
108	0.0142483495088614\\
109	0.0527310893211587\\
110	0.05943985649887\\
111	0.0870861842207902\\
112	0.0452797025265534\\
113	0.0436250926591406\\
114	0.0814629736232868\\
115	0.0569530409013721\\
116	0.0605186737868273\\
117	0.184208844022152\\
118	0.0576287890620279\\
119	0.0214039834681132\\
120	0.0304871878331384\\
121	0.0214674954577953\\
122	0.0230756018712536\\
123	0.0177185969030904\\
124	0.0616318971540386\\
125	0.0467240355039316\\
126	0.0393951871127847\\
127	0.0943728387128752\\
128	0.0159210312306388\\
129	0.043565043060638\\
130	0.0240080767293058\\
131	0.0280433717110751\\
132	0.0187178102030903\\
133	0.01467521751374\\
134	0.00796177215322641\\
135	0.00342142795225513\\
136	0.0353554148192598\\
137	0.0185147529053211\\
138	0.016939235931106\\
139	0.00663473055812202\\
140	0.0106490550400434\\
141	0.0138334173699281\\
142	0.00292455239136644\\
143	0.0136584125370148\\
144	0.00482901158313903\\
145	0.0116576229842653\\
146	0.00598866669511088\\
147	0.00495918753915045\\
148	0.00691585290783106\\
149	0.00522701626259771\\
150	0.00784727963808667\\
151	0.00631469928858465\\
152	0.00647742092263897\\
153	0.00362145742743989\\
154	0.00602950796097615\\
155	0.00574576419996567\\
156	0.00609024689017262\\
157	0.0049846147504265\\
158	0.00491213225724239\\
159	0.00465879646052251\\
160	0.00482612078371342\\
161	0.0042621286362023\\
162	0.00437989575125717\\
163	0.00419218856568877\\
164	0.00422582444693592\\
165	0.0043284482104097\\
166	0.00389923316041853\\
167	0.00398686203458206\\
168	0.00417547100205763\\
169	0.00398382654084644\\
170	0.00417230473949191\\
171	0.00403598413056066\\
172	0.00459265770938349\\
173	0.00412877662584581\\
174	0.00351920955440683\\
175	0.00400587526901473\\
176	0.00388667469327212\\
177	0.00371742806207282\\
178	0.00322672401461864\\
179	0.00308835846046262\\
180	0.00336094546503645\\
181	0.00362339300398585\\
182	0.0034369609503571\\
183	0.00329879839567872\\
184	0.00321366585684083\\
185	0.0031750036693917\\
186	0.00329359494314692\\
187	0.00259348793280874\\
188	0.00292625699422758\\
189	0.00232346911736124\\
190	0.00203039942863346\\
191	0.00191583673854835\\
192	0.00195104782402295\\
193	0.00235088744381184\\
194	0.00174953427259056\\
195	0.00129473082611324\\
196	0.00133356807585141\\
197	0.00126516803665054\\
198	0.00117752470949499\\
199	0.000675963712591914\\
};
\addlegendentry{$\mathbf{\hat{h}_{1}}$}

\addplot [color=mycolor2]
  table[row sep=crcr]{%
0	9.38212199056216e-05\\
1	0.000122113883291594\\
2	0.000204593683169097\\
3	0.000235790356365357\\
4	0.000238478522241768\\
5	0.000280461995171371\\
6	0.000329194046762703\\
7	0.000626255201761382\\
8	0.00054625965146769\\
9	0.00130000939653349\\
10	0.00410703997432678\\
11	0.0833346367873256\\
12	0.0654882061678915\\
13	0.191157778110004\\
14	0.0890249826702626\\
15	0.0427528892130527\\
16	0.00662741834591552\\
17	0.0513362896738095\\
18	0.0836463527961416\\
19	0.111471624925585\\
20	0.114333966220878\\
21	0.129857850412222\\
22	0.0221163861300969\\
23	0.106296010430687\\
24	0.0220442794479165\\
25	0.163790062692959\\
26	0.0986606628849531\\
27	0.205912103969687\\
28	0.119945936205755\\
29	0.097222417660265\\
30	0.0674784422441026\\
31	0.0778965689588336\\
32	0.0792758902633293\\
33	0.0188545761683448\\
34	0.152572284430541\\
35	0.156355897918884\\
36	0.111906548312029\\
37	0.105593009735343\\
38	0.0817361334758096\\
39	0.00638004746940974\\
40	0.111898287248713\\
41	0.0297045036729737\\
42	0.146218464677791\\
43	0.129229267537708\\
44	0.0461490436384146\\
45	0.122315616099756\\
46	0.01013192631406\\
47	0.0476366867406682\\
48	0.10099781427052\\
49	0.114981763923543\\
50	0.0165329957654323\\
51	0.0137117851468483\\
52	0.0359813263847223\\
53	0.106355713673437\\
54	0.0370454488821207\\
55	0.160987018504841\\
56	0.0278771013755927\\
57	0.0449459406733198\\
58	0.0394879404308336\\
59	0.0657729516746299\\
60	0.0419591186644438\\
61	0.189135035777722\\
62	0.0676394047230798\\
63	0.122603318661844\\
64	0.110827798226598\\
65	0.16442524839018\\
66	0.100724540235576\\
67	0.0454815185797939\\
68	0.027018280713533\\
69	0.0488240990327327\\
70	0.0589739294478558\\
71	0.157207178364158\\
72	0.0305604940526973\\
73	0.0554631141357063\\
74	0.0450602508696873\\
75	0.0336516036302941\\
76	0.0246184493336749\\
77	0.050654997883081\\
78	0.0978656820339761\\
79	0.00979688992285956\\
80	0.0382381562955688\\
81	0.036399348740403\\
82	0.0541766487559396\\
83	0.0813407708369155\\
84	0.124363799085537\\
85	0.0486665005516257\\
86	0.056384499361678\\
87	0.122702041033461\\
88	0.179456782680029\\
89	0.0930447790820821\\
90	0.0551930625598752\\
91	0.0592040231227806\\
92	0.0497154706542289\\
93	0.163226202774397\\
94	0.0811961941977937\\
95	0.100313452845981\\
96	0.107457370054906\\
97	0.0997051886217519\\
98	0.0520396388322749\\
99	0.0628868798108235\\
100	0.117419432498649\\
101	0.0355575948836133\\
102	0.0757895397249623\\
103	0.180218418443429\\
104	0.121913107154586\\
105	0.106861910376872\\
106	0.00309861026794133\\
107	0.112656062072498\\
108	0.110064689384625\\
109	0.0626364158266642\\
110	0.0799518452753389\\
111	0.0632495620967899\\
112	0.103948613531932\\
113	0.191181106998107\\
114	0.07105987962686\\
115	0.0801071345494549\\
116	0.0310749483134472\\
117	0.0898623783754798\\
118	0.0471700790661021\\
119	0.0440720066881434\\
120	0.0505663400740857\\
121	0.0258896636690128\\
122	0.039444458762816\\
123	0.0464881175768821\\
124	0.082647717558271\\
125	0.0450068025126783\\
126	0.00816933050367217\\
127	0.00674722473589014\\
128	0.00377095228620925\\
129	0.00675161165348158\\
130	0.00423643649598573\\
131	0.00536148250211732\\
132	0.00640565000860693\\
133	0.0035242428337629\\
134	0.00245180627120695\\
135	0.000416165763297487\\
136	0.00134658015980022\\
137	0.00142105261252994\\
138	0.00102821069722122\\
139	0.000900893770089629\\
140	0.00132430862767803\\
141	0.00121748787403379\\
142	9.76101631629402e-05\\
143	0.000704290308702552\\
144	0.000840431730862087\\
145	0.000943408754003932\\
146	0.000824186852609369\\
147	0.000419491317793654\\
148	0.000401526226982448\\
149	0.000662175729215279\\
150	0.000840648831464914\\
151	0.000525547986349841\\
152	9.17289122789985e-05\\
153	0.000192315949895287\\
154	7.55581797118673e-05\\
155	0.000173914324519712\\
156	0.000150361127003376\\
157	9.11634791567144e-05\\
158	0.000250084582327515\\
159	0.000186561893992017\\
160	0.000189574793025097\\
161	6.37623478641715e-05\\
162	0.000140806613901542\\
163	0.000244617975561415\\
164	0.000222407755132419\\
165	9.58744659611591e-05\\
166	6.98506922766514e-05\\
167	7.55919080148119e-05\\
168	0.000186339839730902\\
169	0.000123372259270144\\
170	0.000208290314806021\\
171	0.000301889422888214\\
172	0.000301355878397104\\
173	0.000208264060716578\\
174	0.000232915970151319\\
175	7.69022366040199e-05\\
176	5.93665226154829e-05\\
177	0.000171516893962646\\
178	0.000346382350383209\\
179	0.000139673419669626\\
180	0.000321241121081425\\
181	0.000290215647167621\\
182	0.000295373312918161\\
183	0.000253769935739213\\
184	0.000260164761228761\\
185	5.74636495993455e-05\\
186	0.00049077998169337\\
187	0.000492453077818423\\
188	0.000381101415576637\\
189	0.000310806570643516\\
190	0.000307086378782833\\
191	0.000207952327480753\\
192	0.000293883282598719\\
193	0.000275276617976509\\
194	0.000266327212977617\\
195	0.000133093106150172\\
196	0.000203286424073883\\
197	0.000232912107444848\\
198	0.000409026984696714\\
199	0.000232136250339899\\
};
\addlegendentry{$\mathbf{\hat{h}_{2}}$}

\end{axis}
\end{tikzpicture}%