% This file was created by matlab2tikz.
%
%The latest updates can be retrieved from
%  http://www.mathworks.com/matlabcentral/fileexchange/22022-matlab2tikz-matlab2tikz
%where you can also make suggestions and rate matlab2tikz.
%
\definecolor{mycolor1}{rgb}{0.00000,0.44700,0.74100}%
\definecolor{mycolor2}{rgb}{0.85000,0.32500,0.09800}%
%
\begin{tikzpicture}

\begin{axis}[%
width=1.935in,
height=3.2in,
at={(0.758in,0.512in)},
scale only axis,
xmin=0,
xmax=100,
xlabel style={font=\color{white!15!black}, align=center},
xlabel={Sample Index\\[1ex](a) Actual},
ymin=0,
ymax=0.8,
axis background/.style={fill=white},
legend style={legend cell align=left, align=left, draw=white!15!black}
]
\addplot [color=mycolor1]
  table[row sep=crcr]{%
1	0.0129538532238509\\
2	0.0157278361368032\\
3	0.0191571608138802\\
4	0.0255923724575832\\
5	0.13057228915146\\
6	0.790598288418654\\
7	0.353827376030412\\
8	0.122418300101408\\
9	0.229084031593214\\
10	0.118243319340586\\
11	0.168368944374742\\
12	0.0163735399430034\\
13	0.0206849651924714\\
14	0.0262956791329175\\
15	0.151852199158411\\
16	0.152742171024721\\
17	0.110720168991091\\
18	0.123153341936425\\
19	0.125894992669405\\
20	0.0746063601393855\\
21	0.0186653655418556\\
22	0.0250643995407145\\
23	0.00974111680189212\\
24	0.0779603151980655\\
25	0.0307172164925168\\
26	0.0208261989317089\\
27	0.0752294272267323\\
28	0.0144668561504321\\
29	0.0123363814366294\\
30	0.0122598477519198\\
31	0.0155350862563734\\
32	0.0418132873290243\\
33	0.0573531042253119\\
34	0.0129196281383963\\
35	0.00895205820328393\\
36	0.00773833898796016\\
37	0.00748874666873079\\
38	0.00800183229182001\\
39	0.00975691772335202\\
40	0.0159028691535576\\
41	0.0384196893347397\\
42	0.0314876195631017\\
43	0.010044387559483\\
44	0.00616684731235577\\
45	0.00479175222070565\\
46	0.00437058826387638\\
47	0.00459828758875363\\
48	0.005652668265702\\
49	0.0087419213913912\\
50	0.0260232215344717\\
51	0.0227474232041571\\
52	0.00780973732786325\\
53	0.00473741257906885\\
54	0.00342802499502385\\
55	0.0027071673231627\\
56	0.00225206144341568\\
57	0.001938695300116\\
58	0.0017095024412107\\
59	0.00153423834592061\\
60	0.00139554782547471\\
61	0.00128278764759102\\
62	0.00118908147787501\\
63	0.00110979542168412\\
64	0.0010416958422628\\
65	0.000982458809342531\\
66	0.000930371514391801\\
67	0.000884143640819322\\
68	0.000842784330423255\\
69	0.000805519676312384\\
70	0.000771736027647173\\
71	0.000740940180026644\\
72	0.000712730877370764\\
73	0.000686778053613698\\
74	0.000662807472321918\\
75	0.000640589196550035\\
76	0.000619928819626308\\
77	0.000600660714929267\\
78	0.000582642781753098\\
79	0.000565752313398667\\
80	0.000549882716621264\\
81	0.000534940883763175\\
82	0.000520845070183068\\
83	0.000507523166470246\\
84	0.00049491128175685\\
85	0.000482952574159901\\
86	0.000471596279030148\\
87	0.000460796896662062\\
88	0.000450513509420678\\
89	0.000440709204573525\\
90	0.000431350583981088\\
91	0.000422407345569488\\
92	0.000413851924447944\\
93	0.000405659183842499\\
94	0.000397806147840094\\
95	0.000390271769389961\\
96	0.000383036728166029\\
97	0.00037608325382988\\
98	0.000369394970986201\\
99	0\\
100	0\\
};
\addlegendentry{$\mathbf{h_1}$}

\addplot [color=mycolor2]
  table[row sep=crcr]{%
1	0.0089849246842337\\
2	0.00955586856755047\\
3	0.0102000386246561\\
4	0.0109303448856752\\
5	0.0117611964369887\\
6	0.0127063869488681\\
7	0.013771787577086\\
8	0.0149309370172528\\
9	0.0160361992437888\\
10	0.0164244433772478\\
11	0.0125495760932937\\
12	0.664036312008792\\
13	0.0850193487524877\\
14	0.131745330322907\\
15	0.128609472347745\\
16	0.0491456993245761\\
17	0.382620258465008\\
18	0.593903782219221\\
19	0.0828507132426594\\
20	0.0515719011856109\\
21	0.0378681896084267\\
22	0.030017391607479\\
23	0.0248946679351547\\
24	0.0212776230780299\\
25	0.0185834085331559\\
26	0.0164971010401923\\
27	0.0148330326444681\\
28	0.0134744221797144\\
29	0.0123440432735997\\
30	0.0113887411741417\\
31	0.0105707107326117\\
32	0.00986231811042315\\
33	0.00924289003134423\\
34	0.00869664894813821\\
35	0\\
36	0\\
37	0\\
38	0\\
39	0\\
40	0\\
41	0\\
42	0\\
43	0\\
44	0\\
45	0\\
46	0\\
47	0\\
48	0\\
49	0\\
50	0\\
51	0\\
52	0\\
53	0\\
54	0\\
55	0\\
56	0\\
57	0\\
58	0\\
59	0\\
60	0\\
61	0\\
62	0\\
63	0\\
64	0\\
65	0\\
66	0\\
67	0\\
68	0\\
69	0\\
70	0\\
71	0\\
72	0\\
73	0\\
74	0\\
75	0\\
76	0\\
77	0\\
78	0\\
79	0\\
80	0\\
81	0\\
82	0\\
83	0\\
84	0\\
85	0\\
86	0\\
87	0\\
88	0\\
89	0\\
90	0\\
91	0\\
92	0\\
93	0\\
94	0\\
95	0\\
96	0\\
97	0\\
98	0\\
99	0\\
100	0\\
};
\addlegendentry{$\mathbf{h_{2}}$}

\end{axis}

\begin{axis}[%
width=1.935in,
height=3.2in,
at={(3.327in,0.512in)},
scale only axis,
xmin=0,
xmax=100,
xlabel style={font=\color{white!15!black}, align=center},
xlabel={Sample Index\\[1ex](b) Estimated},
ymin=0,
ymax=0.25,
axis background/.style={fill=white},
legend style={legend cell align=left, align=left, draw=white!15!black}
]
\addplot [color=mycolor1]
  table[row sep=crcr]{%
0	0.0029497191355461\\
1	0.0012712952894537\\
2	0.0043704868403308\\
3	0.00390249775435547\\
4	0.0334122826263666\\
5	0.156320907046549\\
6	0.189749990177588\\
7	0.187299217694959\\
8	0.200285768902853\\
9	0.202809662709062\\
10	0.23025569578008\\
11	0.17657753832308\\
12	0.196707552184183\\
13	0.189408223280749\\
14	0.17566236807991\\
15	0.134730033932352\\
16	0.165579969148926\\
17	0.131589732059634\\
18	0.156380342910424\\
19	0.139146524814264\\
20	0.177732872107448\\
21	0.17627523618797\\
22	0.168561167751769\\
23	0.208872577731433\\
24	0.205177037971864\\
25	0.216759332669147\\
26	0.232383618332243\\
27	0.23374036756595\\
28	0.202771758808152\\
29	0.207705048978032\\
30	0.170578046411293\\
31	0.128257441329547\\
32	0.0911457817948261\\
33	0.100222885855236\\
34	0.101723983017276\\
35	0.0825995525180165\\
36	0.0836709401658119\\
37	0.0771782282590631\\
38	0.0703403346661346\\
39	0.0681124066163199\\
40	0.0337529326953664\\
41	0.0182514458843728\\
42	0.00792083187623618\\
43	0.0104213832263519\\
44	0.0142289343656311\\
45	0.0163330439577921\\
46	0.0066820513515932\\
47	0.00816142594264837\\
48	0.0140769101769288\\
49	0.00450946905270199\\
50	0.00305402525086427\\
51	0.00849055998291993\\
52	0.01653674032058\\
53	0.0183340817442422\\
54	0.0181632874086462\\
55	0.0127104528721105\\
56	0.012304699883039\\
57	0.00784724012494739\\
58	0.0102454668391084\\
59	0.00943702482837421\\
60	0.010023191739233\\
61	0.00844969863134436\\
62	0.00897289839972771\\
63	0.00778295676175001\\
64	0.00928159293265517\\
65	0.00918920682962353\\
66	0.00837961894386618\\
67	0.00918093787749242\\
68	0.00971229534529982\\
69	0.010281209709004\\
70	0.012364894986404\\
71	0.0110661416641197\\
72	0.00995981601406406\\
73	0.00842169010495798\\
74	0.00802913469636187\\
75	0.00480140579160644\\
76	0.00246531802683862\\
77	0.00233875889483797\\
78	0.00296158920472338\\
79	0.00284818780799936\\
80	0.0027296583845455\\
81	0.00236099312315346\\
82	0.00194746684370923\\
83	0.00140654903646789\\
84	0.000907969297386958\\
85	0.000555631010524422\\
86	0.000316540604282888\\
87	0.000475175778968417\\
88	0.000183192507751673\\
89	0.000165666511009381\\
90	7.08150211515421e-05\\
91	9.46620211255392e-05\\
92	0.000186257710551285\\
93	7.51658013254285e-05\\
94	0.000153444851874509\\
95	0.000192355127809761\\
96	0.000117183155217238\\
97	0.000135120131693872\\
98	7.81079217648825e-05\\
99	0.000149279259634691\\
};
\addlegendentry{$\mathbf{\hat{h}_{1}}$}

\addplot [color=mycolor2]
  table[row sep=crcr]{%
0	0.00187967139286527\\
1	0.000564070334126401\\
2	0.00238742299139534\\
3	0.00133323125229481\\
4	0.00300981516707523\\
5	0.00184186633458445\\
6	0.00317650768870667\\
7	0.0021099222153324\\
8	0.00358769967120991\\
9	0.00273342983908314\\
10	0.00304942989889257\\
11	0.1382662483396\\
12	0.128613660898784\\
13	0.121540821286726\\
14	0.0647444750701626\\
15	0.0760508558687551\\
16	0.145298784135825\\
17	0.217505856092874\\
18	0.210749569100206\\
19	0.216565509976048\\
20	0.166076390053734\\
21	0.208187054985061\\
22	0.174688481743024\\
23	0.20593299550232\\
24	0.183428246337518\\
25	0.182384643922222\\
26	0.178283196712496\\
27	0.18284682055456\\
28	0.177850069350746\\
29	0.188639147612095\\
30	0.180197106708895\\
31	0.185835256237815\\
32	0.177945741232848\\
33	0.18081406563245\\
34	0.192252957087526\\
35	0.197800585018861\\
36	0.19176961328601\\
37	0.184406722019821\\
38	0.177255879815162\\
39	0.170842276789479\\
40	0.1631842420519\\
41	0.1523777289799\\
42	0.122069908138194\\
43	0.0832908051530154\\
44	0.0732338910726843\\
45	0.0783059273042307\\
46	0.0664541276538734\\
47	0.0525104614618112\\
48	0.052424835627756\\
49	0.048055412936903\\
50	0.0407728603315365\\
51	0.0255973940983604\\
52	0.00442582838617106\\
53	0.000654558099647715\\
54	0.000222094590960706\\
55	9.96625538413254e-05\\
56	5.22993624334817e-05\\
57	2.77178857607007e-05\\
58	2.64081995229569e-05\\
59	2.5563097497983e-05\\
60	1.88595334409233e-05\\
61	2.33299610436184e-05\\
62	2.57879729669495e-05\\
63	2.59795179513809e-05\\
64	1.78919485110971e-05\\
65	2.22782899921137e-05\\
66	6.2258576412601e-05\\
67	0.00032140344433711\\
68	0.000526682746664443\\
69	0.000475208801229157\\
70	0.000419296699671249\\
71	0.000453255100363066\\
72	0.000512143829007458\\
73	0.000524519101459614\\
74	0.000547849525853643\\
75	0.00067308504582891\\
76	0.000835531524187544\\
77	0.000859146015724516\\
78	0.000795565002830762\\
79	0.000790869343397709\\
80	0.000714727516908678\\
81	0.000590876063586092\\
82	0.000567438523392619\\
83	0.000559168957683508\\
84	0.0004705201483752\\
85	0.000424522520966144\\
86	0.000480300670922231\\
87	0.000491673557368831\\
88	0.000452791101906639\\
89	0.000447634587517673\\
90	0.000461462597302334\\
91	0.000370910630276689\\
92	0.000339303296116581\\
93	0.000391779983734673\\
94	0.000327824731708247\\
95	0.00023102868955775\\
96	0.000266812028231563\\
97	0.000227560927866776\\
98	0.000202852274884953\\
99	0.000140941171318882\\
};
\addlegendentry{$\mathbf{\hat{h}_{2}}$}

\end{axis}
\end{tikzpicture}%