% This file was created by matlab2tikz.
%
%The latest updates can be retrieved from
%  http://www.mathworks.com/matlabcentral/fileexchange/22022-matlab2tikz-matlab2tikz
%where you can also make suggestions and rate matlab2tikz.
%
\definecolor{mycolor1}{rgb}{0.00000,0.44700,0.74100}%
\definecolor{mycolor2}{rgb}{0.85000,0.32500,0.09800}%
%
\begin{tikzpicture}

\begin{axis}[%
width=1.935in,
height=3.2in,
at={(0.758in,0.512in)},
scale only axis,
xmin=0,
xmax=100,
xlabel style={font=\color{white!15!black}, align=center},
xlabel={Sample Index\\[1ex](a) Actual},
ymin=0,
ymax=0.8,
axis background/.style={fill=white},
legend style={legend cell align=left, align=left, draw=white!15!black}
]
\addplot [color=mycolor1]
  table[row sep=crcr]{%
1	0.0129538532238509\\
2	0.0157278361368032\\
3	0.0191571608138802\\
4	0.0255923724575832\\
5	0.13057228915146\\
6	0.790598288418654\\
7	0.353827376030412\\
8	0.122418300101408\\
9	0.229084031593214\\
10	0.118243319340586\\
11	0.168368944374742\\
12	0.0163735399430034\\
13	0.0206849651924714\\
14	0.0262956791329175\\
15	0.151852199158411\\
16	0.152742171024721\\
17	0.110720168991091\\
18	0.123153341936425\\
19	0.125894992669405\\
20	0.0746063601393855\\
21	0.0186653655418556\\
22	0.0250643995407145\\
23	0.00974111680189212\\
24	0.0779603151980655\\
25	0.0307172164925168\\
26	0.0208261989317089\\
27	0.0752294272267323\\
28	0.0144668561504321\\
29	0.0123363814366294\\
30	0.0122598477519198\\
31	0.0155350862563734\\
32	0.0418132873290243\\
33	0.0573531042253119\\
34	0.0129196281383963\\
35	0.00895205820328393\\
36	0.00773833898796016\\
37	0.00748874666873079\\
38	0.00800183229182001\\
39	0.00975691772335202\\
40	0.0159028691535576\\
41	0.0384196893347397\\
42	0.0314876195631017\\
43	0.010044387559483\\
44	0.00616684731235577\\
45	0.00479175222070565\\
46	0.00437058826387638\\
47	0.00459828758875363\\
48	0.005652668265702\\
49	0.0087419213913912\\
50	0.0260232215344717\\
51	0.0227474232041571\\
52	0.00780973732786325\\
53	0.00473741257906885\\
54	0.00342802499502385\\
55	0.0027071673231627\\
56	0.00225206144341568\\
57	0.001938695300116\\
58	0.0017095024412107\\
59	0.00153423834592061\\
60	0.00139554782547471\\
61	0.00128278764759102\\
62	0.00118908147787501\\
63	0.00110979542168412\\
64	0.0010416958422628\\
65	0.000982458809342531\\
66	0.000930371514391801\\
67	0.000884143640819322\\
68	0.000842784330423255\\
69	0.000805519676312384\\
70	0.000771736027647173\\
71	0.000740940180026644\\
72	0.000712730877370764\\
73	0.000686778053613698\\
74	0.000662807472321918\\
75	0.000640589196550035\\
76	0.000619928819626308\\
77	0.000600660714929267\\
78	0.000582642781753098\\
79	0.000565752313398667\\
80	0.000549882716621264\\
81	0.000534940883763175\\
82	0.000520845070183068\\
83	0.000507523166470246\\
84	0.00049491128175685\\
85	0.000482952574159901\\
86	0.000471596279030148\\
87	0.000460796896662062\\
88	0.000450513509420678\\
89	0.000440709204573525\\
90	0.000431350583981088\\
91	0.000422407345569488\\
92	0.000413851924447944\\
93	0.000405659183842499\\
94	0.000397806147840094\\
95	0.000390271769389961\\
96	0.000383036728166029\\
97	0.00037608325382988\\
98	0.000369394970986201\\
99	0\\
100	0\\
};
\addlegendentry{$\mathbf{h_1}$}

\addplot [color=mycolor2]
  table[row sep=crcr]{%
1	0.0089849246842337\\
2	0.00955586856755047\\
3	0.0102000386246561\\
4	0.0109303448856752\\
5	0.0117611964369887\\
6	0.0127063869488681\\
7	0.013771787577086\\
8	0.0149309370172528\\
9	0.0160361992437888\\
10	0.0164244433772478\\
11	0.0125495760932937\\
12	0.664036312008792\\
13	0.0850193487524877\\
14	0.131745330322907\\
15	0.128609472347745\\
16	0.0491456993245761\\
17	0.382620258465008\\
18	0.593903782219221\\
19	0.0828507132426594\\
20	0.0515719011856109\\
21	0.0378681896084267\\
22	0.030017391607479\\
23	0.0248946679351547\\
24	0.0212776230780299\\
25	0.0185834085331559\\
26	0.0164971010401923\\
27	0.0148330326444681\\
28	0.0134744221797144\\
29	0.0123440432735997\\
30	0.0113887411741417\\
31	0.0105707107326117\\
32	0.00986231811042315\\
33	0.00924289003134423\\
34	0.00869664894813821\\
35	0\\
36	0\\
37	0\\
38	0\\
39	0\\
40	0\\
41	0\\
42	0\\
43	0\\
44	0\\
45	0\\
46	0\\
47	0\\
48	0\\
49	0\\
50	0\\
51	0\\
52	0\\
53	0\\
54	0\\
55	0\\
56	0\\
57	0\\
58	0\\
59	0\\
60	0\\
61	0\\
62	0\\
63	0\\
64	0\\
65	0\\
66	0\\
67	0\\
68	0\\
69	0\\
70	0\\
71	0\\
72	0\\
73	0\\
74	0\\
75	0\\
76	0\\
77	0\\
78	0\\
79	0\\
80	0\\
81	0\\
82	0\\
83	0\\
84	0\\
85	0\\
86	0\\
87	0\\
88	0\\
89	0\\
90	0\\
91	0\\
92	0\\
93	0\\
94	0\\
95	0\\
96	0\\
97	0\\
98	0\\
99	0\\
100	0\\
};
\addlegendentry{$\mathbf{h_{2}}$}

\end{axis}

\begin{axis}[%
width=1.935in,
height=3.2in,
at={(3.327in,0.512in)},
scale only axis,
xmin=0,
xmax=100,
xlabel style={font=\color{white!15!black}, align=center},
xlabel={Sample Index\\[1ex](b) Estimated},
ymin=0,
ymax=0.4,
axis background/.style={fill=white},
legend style={legend cell align=left, align=left, draw=white!15!black}
]
\addplot [color=mycolor1]
  table[row sep=crcr]{%
0	0.00422541002526187\\
1	0.00709600056665136\\
2	0.0135697448835297\\
3	0.019044748477997\\
4	0.0448997304417942\\
5	0.283078100851208\\
6	0.164866023639631\\
7	0.208118655724007\\
8	0.104243699327621\\
9	0.143102534274345\\
10	0.216588872447142\\
11	0.199690791020577\\
12	0.215158789059649\\
13	0.206598608650409\\
14	0.0988273872968079\\
15	0.193029671876067\\
16	0.179575294550623\\
17	0.134713582700907\\
18	0.262052831860638\\
19	0.156303117805306\\
20	0.228264185755145\\
21	0.120909320222796\\
22	0.167504142231929\\
23	0.206326478554863\\
24	0.189957332912886\\
25	0.185827217580274\\
26	0.208194062688317\\
27	0.211532790355197\\
28	0.136146700631079\\
29	0.166005798327762\\
30	0.134299147215463\\
31	0.105704338199975\\
32	0.0908399671217724\\
33	0.0768378295243463\\
34	0.099522028316802\\
35	0.112265160973787\\
36	0.0974452129575515\\
37	0.0875774563916687\\
38	0.0573539601600384\\
39	0.0172898475205615\\
40	0.0528000940533607\\
41	0.03237586864202\\
42	0.0196277632750348\\
43	0.0277270904751896\\
44	0.0335962421028119\\
45	0.042000348904003\\
46	0.0198765874351437\\
47	0.0289538761969922\\
48	0.0417461663003384\\
49	0.0242174736447094\\
50	0.0334875729501902\\
51	0.0221267287424773\\
52	0.0281381462527542\\
53	0.0394149946108468\\
54	0.0329008839779532\\
55	0.033360229001637\\
56	0.0255989432319119\\
57	0.0090597366030533\\
58	0.00547010025943511\\
59	0.0112597921352123\\
60	0.0222415667707746\\
61	0.00987577388798665\\
62	0.00675855431040335\\
63	0.00603651793047457\\
64	0.00819802062959335\\
65	0.00120675296381155\\
66	0.0120498745607625\\
67	0.00982424871122821\\
68	0.00977930046039426\\
69	0.00729965867140236\\
70	0.0114636327212574\\
71	0.0147231400408314\\
72	0.0112128079655835\\
73	0.00841606006995723\\
74	0.00662319569008384\\
75	0.00436786742302499\\
76	0.00349957635573651\\
77	0.00235215673680621\\
78	0.00166627963707791\\
79	0.00577221734214961\\
80	0.00376757311271069\\
81	0.0030973706971701\\
82	0.0033941563814868\\
83	0.00135295238826929\\
84	0.000472053314130633\\
85	0.00109582239960755\\
86	0.000724093479065908\\
87	0.000454212380736216\\
88	0.000753896393355973\\
89	0.000401924085470565\\
90	0.000631509597375156\\
91	0.000487457978947975\\
92	0.000464734852433744\\
93	0.000469912425251846\\
94	0.000532717402974158\\
95	0.000451628835848529\\
96	0.00054133631738263\\
97	0.000389535228126101\\
98	0.00023048821398591\\
99	0.000441679370987367\\
};
\addlegendentry{$\mathbf{\hat{h}_{1}}$}

\addplot [color=mycolor2]
  table[row sep=crcr]{%
0	0.00276047256103285\\
1	0.00416787482448715\\
2	0.00758430721748346\\
3	0.0100806282999274\\
4	0.0117580480157671\\
5	0.0124344778518236\\
6	0.0138776998772855\\
7	0.0138245290005896\\
8	0.0146225026829541\\
9	0.0159388930728585\\
10	0.0153512767649285\\
11	0.193357274712209\\
12	0.115103244851562\\
13	0.184027713877899\\
14	0.190899333875906\\
15	0.130814940843907\\
16	0.15887039405975\\
17	0.354439315989136\\
18	0.186605876109073\\
19	0.152748003904812\\
20	0.214309311400626\\
21	0.15402179170091\\
22	0.187641232735169\\
23	0.258061257177364\\
24	0.142630263290077\\
25	0.116456289409522\\
26	0.168397808274538\\
27	0.119931653654756\\
28	0.151404051376912\\
29	0.245443218619156\\
30	0.226197484157558\\
31	0.21710394398091\\
32	0.176298250205854\\
33	0.101610949008828\\
34	0.154684549326642\\
35	0.16086778480422\\
36	0.0907296023385381\\
37	0.0981626881931422\\
38	0.109400494851626\\
39	0.128621825002512\\
40	0.102818542512233\\
41	0.115252268636683\\
42	0.108445457092983\\
43	0.106598442545783\\
44	0.0907192484546002\\
45	0.03216072213286\\
46	0.0968254100455074\\
47	0.080936506989807\\
48	0.0754733185383449\\
49	0.0683357763191158\\
50	0.0368422014551125\\
51	0.0169738841162766\\
52	0.00327141506967034\\
53	0.000761891106865185\\
54	0.000180703126049298\\
55	0.000334335965240828\\
56	0.000486902419502732\\
57	0.0004740230046079\\
58	0.00066927546810664\\
59	0.000393443540334731\\
60	0.000390536148899121\\
61	0.000399904706039303\\
62	0.000603093658865217\\
63	0.000378398616794134\\
64	0.000478368529333021\\
65	0.000441259197328696\\
66	0.000400572061006139\\
67	0.000254300127709462\\
68	0.000457101572729937\\
69	0.000592956691332024\\
70	1.89151253544416e-05\\
71	0.000618877266509082\\
72	0.000544936098982856\\
73	0.000339359196274509\\
74	0.000133183590665275\\
75	0.000429923285993381\\
76	0.000384015113044656\\
77	2.66607839216497e-05\\
78	0.000203863251792636\\
79	0.000261501675356613\\
80	0.000289358893804662\\
81	0.000412021203884439\\
82	6.56843601830031e-05\\
83	0.000306618687487337\\
84	0.000473272776507211\\
85	0.000514321946804708\\
86	0.000145021175015827\\
87	8.12616462425322e-05\\
88	0.000261502659968299\\
89	0.000551332545986719\\
90	0.000481243572653679\\
91	0.000516313876341111\\
92	0.000520180036376911\\
93	0.000121864427421668\\
94	0.000573365071036222\\
95	0.000375537911470951\\
96	0.000386531272045698\\
97	0.00035544473440588\\
98	0.000158938369725795\\
99	0.000101416696193351\\
};
\addlegendentry{$\mathbf{\hat{h}_{2}}$}

\end{axis}
\end{tikzpicture}%