% This file was created by matlab2tikz.
%
%The latest updates can be retrieved from
%  http://www.mathworks.com/matlabcentral/fileexchange/22022-matlab2tikz-matlab2tikz
%where you can also make suggestions and rate matlab2tikz.
%
\definecolor{mycolor1}{rgb}{0.00000,0.44700,0.74100}%
\definecolor{mycolor2}{rgb}{0.85000,0.32500,0.09800}%
%
\begin{tikzpicture}

\begin{axis}[%
width=1.935in,
height=3.2in,
at={(0.758in,0.512in)},
scale only axis,
xmin=0,
xmax=150,
xlabel style={font=\color{white!15!black}, align=center},
xlabel={Sample Index\\[1ex](a) Actual},
ymin=0,
ymax=0.7,
axis background/.style={fill=white},
legend style={legend cell align=left, align=left, draw=white!15!black}
]
\addplot [color=mycolor1]
  table[row sep=crcr]{%
1	0.0234657806037261\\
2	0.0272334504034075\\
3	0.0326864300765018\\
4	0.0414541482980318\\
5	0.0586677033458464\\
6	0.117843438362983\\
7	0.159969331461504\\
8	0.174397116945152\\
9	0.616552810702634\\
10	0.0882137642931462\\
11	0.0472681903124796\\
12	0.0327587509505929\\
13	0.0272256709659274\\
14	0.0412344622245766\\
15	0.0186762848129325\\
16	0.0451940046978057\\
17	0.0153724087875252\\
18	0.0239672675363248\\
19	0.0400285717874473\\
20	0.0828333966509162\\
21	0.557624977131952\\
22	0.149414784250917\\
23	0.109138078132702\\
24	0.0381681231028791\\
25	0.032799759178118\\
26	0.191519461959093\\
27	0.0734580287558902\\
28	0.0358315656953253\\
29	0.0179563195827385\\
30	0.0169149242156914\\
31	0.0179798517146348\\
32	0.0199431506445131\\
33	0.0279225394655299\\
34	0.0908594243819801\\
35	0.0439964246924232\\
36	0.330890477505262\\
37	0.037800506563543\\
38	0.020261933748638\\
39	0.0138181229977315\\
40	0.0211497159554441\\
41	0.0112042208144458\\
42	0.00964538908702694\\
43	0.00864780826327016\\
44	0.00787736374270682\\
45	0.00720180133294831\\
46	0.00651453200193765\\
47	0.00565492088107664\\
48	0.0112814316241706\\
49	0.0075966567083061\\
50	0.0102713040739602\\
51	0.00787142060243747\\
52	0.00711780022683946\\
53	0.00668443537322835\\
54	0.00638223966522588\\
55	0.00615487020840034\\
56	0.00598242225636516\\
57	0.00586293416152974\\
58	0.00581626175933958\\
59	0.00593494184987807\\
60	0.00707647204853056\\
61	0.00861312572402681\\
62	0.00240649054353041\\
63	0.0036902508247688\\
64	0.0040125763148678\\
65	0.00408542983582614\\
66	0.00408934467211144\\
67	0.00406760360864643\\
68	0.00403657730104579\\
69	0.00400486664899167\\
70	0.00397913876457006\\
71	0.00396763365360209\\
72	0.00398577860522856\\
73	0.00407460869510253\\
74	0.00440882178496405\\
75	0.00852319154542653\\
76	0.00211982859547221\\
77	0.00279674481878385\\
78	0.00295234209521732\\
79	0.00299967450324673\\
80	0.00300734384297471\\
81	0.00299658049652506\\
82	0.00297609501762909\\
83	0.00295010695632826\\
84	0.00292089738309008\\
85	0.00288979839106794\\
86	0.00285763293534116\\
87	0.00282493110979805\\
88	0.00279204510261472\\
89	0.00275921420187501\\
90	0.00272660345813555\\
91	0.00269432766245323\\
92	0.00266246675038502\\
93	0.00263107599882434\\
94	0.00260019295165966\\
95	0.00256984222925479\\
96	0.00254003893333548\\
97	0.0025107910982644\\
98	0.00248210148178531\\
99	0.00245396889001376\\
100	0.00242638916874131\\
101	0.00239935595223708\\
102	0.00237286123354156\\
103	0.00234689580183488\\
104	0.00232144957979209\\
105	0.00229651188498403\\
106	0.00227207163310714\\
107	0.0022481174963278\\
108	0.00222463802675857\\
109	0.00220162175268604\\
110	0.00217905725339276\\
111	0.0021569332170867\\
112	0.00213523848544673\\
113	0.00211396208753109\\
114	0.00209309326520902\\
115	0.00207262149182518\\
116	0.00205253648545491\\
117	0.00203282821783402\\
118	0.00201348691983224\\
119	0.00199450308416773\\
120	0.00197586746592614\\
121	0.00195757108133911\\
122	0.0019396052051902\\
123	0.0019219613671484\\
124	0.00190463134727109\\
125	0.00188760717087541\\
126	0.00187088110293773\\
127	0.00185444564215264\\
128	0.0018382935147574\\
129	0.00182241766820821\\
130	0.00180681126477794\\
131	0.00179146767513212\\
132	0.00177638047192757\\
133	0.00176154342347035\\
134	0.00174695048746156\\
135	0.0017325958048528\\
136	0.00171847369382931\\
137	0.00170457864393352\\
138	0.0016909053103386\\
139	0.00167744850827835\\
140	0.00166420320763913\\
141	0.00165116452771496\\
142	0.00163832773212761\\
143	0.00162568822391149\\
144	0.00161324154076111\\
145	0.0016009833504405\\
146	0.00158890944635072\\
147	0.00157701574325256\\
148	0.00156529827314105\\
149	0\\
150	0\\
};
\addlegendentry{$\mathbf{h_1}$}

\addplot [color=mycolor2]
  table[row sep=crcr]{%
1	0.019775303219206\\
2	0.0210217764534023\\
3	0.0224372323963497\\
4	0.024058742711813\\
5	0.0259351263737046\\
6	0.0281320174688059\\
7	0.0307398096072034\\
8	0.0338865833958781\\
9	0.0377600935275399\\
10	0.0426472101764649\\
11	0.0490094599986528\\
12	0.0576401827385178\\
13	0.0700288298559564\\
14	0.0893407156606893\\
15	0.123700774100431\\
16	0.202175033398071\\
17	0.564479813098353\\
18	0.690442426104836\\
19	0.212260509632627\\
20	0.126132345068284\\
21	0.100380135781766\\
22	0.0378663697499036\\
23	0.0333199748773482\\
24	0.0149453064107011\\
25	0.10083899339379\\
26	0.161002397050911\\
27	0.0405118251764787\\
28	0.0383644765554957\\
29	0.0341227495803863\\
30	0.0306469105251072\\
31	0.0278570926171954\\
32	0.0255709383506331\\
33	0.0236574529195357\\
34	0.0220274984760589\\
35	0.0206190941704396\\
36	0.0193877726649002\\
37	0.0183006807256663\\
38	0.0173329207549748\\
39	0.016465211935799\\
40	0.0156823459816501\\
41	0.0149721364414517\\
42	0.0143246843629073\\
43	0.0137318527665838\\
44	0.0131868826449622\\
45	0.0126841071808284\\
46	0.0122187355837443\\
47	0.0117866872087634\\
48	0.0113844626077037\\
49	0.0110090421200206\\
50	0.0106578052804057\\
51	0\\
52	0\\
53	0\\
54	0\\
55	0\\
56	0\\
57	0\\
58	0\\
59	0\\
60	0\\
61	0\\
62	0\\
63	0\\
64	0\\
65	0\\
66	0\\
67	0\\
68	0\\
69	0\\
70	0\\
71	0\\
72	0\\
73	0\\
74	0\\
75	0\\
76	0\\
77	0\\
78	0\\
79	0\\
80	0\\
81	0\\
82	0\\
83	0\\
84	0\\
85	0\\
86	0\\
87	0\\
88	0\\
89	0\\
90	0\\
91	0\\
92	0\\
93	0\\
94	0\\
95	0\\
96	0\\
97	0\\
98	0\\
99	0\\
100	0\\
101	0\\
102	0\\
103	0\\
104	0\\
105	0\\
106	0\\
107	0\\
108	0\\
109	0\\
110	0\\
111	0\\
112	0\\
113	0\\
114	0\\
115	0\\
116	0\\
117	0\\
118	0\\
119	0\\
120	0\\
121	0\\
122	0\\
123	0\\
124	0\\
125	0\\
126	0\\
127	0\\
128	0\\
129	0\\
130	0\\
131	0\\
132	0\\
133	0\\
134	0\\
135	0\\
136	0\\
137	0\\
138	0\\
139	0\\
140	0\\
141	0\\
142	0\\
143	0\\
144	0\\
145	0\\
146	0\\
147	0\\
148	0\\
149	0\\
150	0\\
};
\addlegendentry{$\mathbf{h_{2}}$}

\end{axis}

\begin{axis}[%
width=1.935in,
height=3.2in,
at={(3.327in,0.512in)},
scale only axis,
xmin=0,
xmax=300,
xlabel style={font=\color{white!15!black}, align=center},
xlabel={Sample Index\\[1ex](b) Estimated},
ymin=0,
ymax=0.12,
axis background/.style={fill=white},
legend style={legend cell align=left, align=left, draw=white!15!black}
]
\addplot [color=mycolor1]
  table[row sep=crcr]{%
0	0.00186658693617462\\
1	0.000448049528837826\\
2	0.00243823545922218\\
3	0.00118586624071515\\
4	0.00394719870690413\\
5	0.00614746607042838\\
6	0.0170718600638397\\
7	0.0121521792239681\\
8	0.0551611724848196\\
9	0.0574699213915271\\
10	0.0577538694492458\\
11	0.0612738384417649\\
12	0.0618525087927066\\
13	0.0640094443085049\\
14	0.066057459318836\\
15	0.0637018790650198\\
16	0.0601573707027483\\
17	0.0579115763865928\\
18	0.0601787418093417\\
19	0.0537320820216519\\
20	0.0808657682018274\\
21	0.0844701423577535\\
22	0.0817975929719453\\
23	0.0858619880678326\\
24	0.0845704839571804\\
25	0.0925589355354421\\
26	0.0885338424209581\\
27	0.0888786981087834\\
28	0.0873427103227324\\
29	0.0865128045642033\\
30	0.0872687984897099\\
31	0.0865597954204073\\
32	0.0847243588295776\\
33	0.0803030692063767\\
34	0.0816588232367768\\
35	0.073991171274307\\
36	0.0754626390391826\\
37	0.0721238676561312\\
38	0.0732962047055537\\
39	0.0727816306597284\\
40	0.0746751865114979\\
41	0.0746677295902771\\
42	0.074640647081964\\
43	0.0747942270654465\\
44	0.076046552843971\\
45	0.0763160468587829\\
46	0.0765899883976621\\
47	0.0810036923023457\\
48	0.0806221143510484\\
49	0.0821970645646407\\
50	0.0838852720005111\\
51	0.0832064291063561\\
52	0.0830272380291857\\
53	0.0822777453353806\\
54	0.0828429346905899\\
55	0.082145725190943\\
56	0.082179779978781\\
57	0.0817642012922866\\
58	0.0816300987534482\\
59	0.0800213185056662\\
60	0.0784835316134828\\
61	0.0785304362228429\\
62	0.0793120158320678\\
63	0.0791228872544833\\
64	0.0787653908958344\\
65	0.0790863286718021\\
66	0.0788262925112342\\
67	0.0788844628310297\\
68	0.0794858660871107\\
69	0.0794308329604237\\
70	0.0790963754056545\\
71	0.0795081926231077\\
72	0.0805757557326849\\
73	0.0802393892270792\\
74	0.0798228331020686\\
75	0.0793127643337895\\
76	0.0801214333742738\\
77	0.0801168874238137\\
78	0.080151173675017\\
79	0.0798442412095966\\
80	0.079731175583703\\
81	0.0797761852733229\\
82	0.0797707079448441\\
83	0.079620451397029\\
84	0.0790553095290608\\
85	0.0785484100560981\\
86	0.0787525615330672\\
87	0.078891715197143\\
88	0.0785383038041925\\
89	0.0781026250701153\\
90	0.0782361706409545\\
91	0.0783695225049622\\
92	0.0785719018491354\\
93	0.0790304901741054\\
94	0.0790207860713327\\
95	0.0787177241313114\\
96	0.0791484603908495\\
97	0.0789631531487853\\
98	0.0791768770828301\\
99	0.0792266432283766\\
100	0.079635609739479\\
101	0.0793200987453811\\
102	0.0795609731525272\\
103	0.0791722802121905\\
104	0.0795511755879388\\
105	0.0794649836205406\\
106	0.079922846991413\\
107	0.0800609440402737\\
108	0.0799233446151646\\
109	0.0797675651121224\\
110	0.0797204434771972\\
111	0.0798377777681912\\
112	0.0798089893910704\\
113	0.079511061956171\\
114	0.0798619886726358\\
115	0.0799746308346068\\
116	0.0800213208171229\\
117	0.0793043024046482\\
118	0.0795981022910042\\
119	0.0799628056555936\\
120	0.0801917522738886\\
121	0.0802806225155868\\
122	0.0805966514686133\\
123	0.0804777472736067\\
124	0.0809501617529512\\
125	0.0812326257549555\\
126	0.0812361480338564\\
127	0.0814052025451737\\
128	0.0817726277492854\\
129	0.0813856887948963\\
130	0.0814316164250607\\
131	0.0811240683027476\\
132	0.0809614153572976\\
133	0.0800712740913708\\
134	0.0802492785811297\\
135	0.0792914874625454\\
136	0.079000067930543\\
137	0.0783588019383217\\
138	0.0793623314622766\\
139	0.079345877757438\\
140	0.0793384605653476\\
141	0.078517392160803\\
142	0.0794514171657631\\
143	0.0802457444966633\\
144	0.0799525734403867\\
145	0.0802809485964066\\
146	0.0800743400827719\\
147	0.0789098151404108\\
148	0.0798911480531902\\
149	0.0778738946341406\\
150	0.0776661237333026\\
151	0.0774120895479988\\
152	0.0802435110014973\\
153	0.079267388740019\\
154	0.0816140464113489\\
155	0.0795611560031568\\
156	0.0846499710045333\\
157	0.0815157806340366\\
158	0.0866538260713141\\
159	0.0884013509696707\\
160	0.0810630330784652\\
161	0.0641771210354762\\
162	0.0656285670216451\\
163	0.0623562099687413\\
164	0.0549937364368018\\
165	0.0591190084519034\\
166	0.057017285672417\\
167	0.0556565388446645\\
168	0.0551653669492247\\
169	0.0522124479703813\\
170	0.0494263198296603\\
171	0.0458074904953426\\
172	0.0507335610457698\\
173	0.0297039273972529\\
174	0.0282934677666654\\
175	0.033468751418427\\
176	0.0289316339131156\\
177	0.033292636747904\\
178	0.025820994258446\\
179	0.0203019218253973\\
180	0.019658220051957\\
181	0.0229040628776967\\
182	0.0187959105341584\\
183	0.0163026173397261\\
184	0.0140458012155784\\
185	0.0149377164432119\\
186	0.0198477178354399\\
187	0.0228079273335625\\
188	0.0158437585876456\\
189	0.0258354943402374\\
190	0.0134224050074353\\
191	0.00388173294754361\\
192	0.00483682095303635\\
193	0.00819434530908586\\
194	0.0055316528435943\\
195	0.00462217282103977\\
196	0.00296193125033195\\
197	0.000927537126414593\\
198	0.000471098180928791\\
199	0.00278146361030915\\
200	0.00241739108734899\\
201	0.00138548258948284\\
202	0.00223833833161496\\
203	0.00662866354940821\\
204	0.00801857464210073\\
205	0.00395593933757871\\
206	0.000902646915926488\\
207	0.000477912674107566\\
208	0.00124603419306377\\
209	0.000414687176677031\\
210	0.000628859353989938\\
211	0.00100513589180534\\
212	0.000965512948289771\\
213	0.000466545074302495\\
214	0.000770765650832247\\
215	0.000624156601509261\\
216	0.000398148084819514\\
217	0.000815158466964757\\
218	0.000965293277562731\\
219	0.00107240670881823\\
220	0.00130466900302495\\
221	0.000756665473041702\\
222	0.00090653386751013\\
223	0.000508751197323719\\
224	0.00078907207205125\\
225	0.000416486951880667\\
226	0.000824224155806433\\
227	0.000403262792498347\\
228	0.000919384704171593\\
229	0.00052481189682388\\
230	0.000596919996733356\\
231	0.000112839181540661\\
232	0.000330732754864177\\
233	8.99823178698052e-05\\
234	0.000282567460228561\\
235	0.000138128529354267\\
236	0.000174601927317599\\
237	0.000235674414101668\\
238	0.000199029875074757\\
239	0.000163145122930959\\
240	0.000222418746167878\\
241	0.000127982342777863\\
242	0.000294573496476108\\
243	0.000128767618775698\\
244	0.000285664031917095\\
245	0.000171227339541079\\
246	0.000106588676433742\\
247	0.00022372262780783\\
248	8.34177649528567e-05\\
249	0.000220639300325697\\
250	7.17214353757329e-05\\
251	0.000228366751440044\\
252	7.40237686446964e-05\\
253	0.000191984660504061\\
254	9.47219253871429e-05\\
255	0.000173822235626264\\
256	9.7443014521439e-05\\
257	0.00016270836898792\\
258	9.7213443534813e-05\\
259	0.000165573699609748\\
260	8.85643836968956e-05\\
261	0.000164472281470772\\
262	7.65885581442004e-05\\
263	0.000159933232596563\\
264	7.29518068696352e-05\\
265	0.000154624966912383\\
266	7.26247098884895e-05\\
267	0.000148423810109464\\
268	6.81407414410312e-05\\
269	0.00014582639555453\\
270	6.23112912740762e-05\\
271	0.000145594867607125\\
272	5.44160376513777e-05\\
273	0.000148766100807444\\
274	3.97475550885961e-05\\
275	0.000156824380881872\\
276	2.14779119003163e-05\\
277	0.000165979716356259\\
278	1.56006646130901e-05\\
279	0.000157844889543815\\
280	1.31878568564078e-05\\
281	0.000163315200363035\\
282	4.47453946234961e-06\\
283	0.000155762823650297\\
284	4.4339615802965e-06\\
285	0.000145128742230048\\
286	2.60762472603002e-05\\
287	0.000149441198464856\\
288	5.55840680805295e-05\\
289	0.000129064504788491\\
290	6.31278635386291e-05\\
291	0.000119899169852601\\
292	1.12463846687856e-05\\
293	0.000132402600526165\\
294	1.81370198101664e-05\\
295	0.000132069267691418\\
296	2.63898736808686e-05\\
297	0.000135536531008095\\
298	3.08402721256397e-05\\
299	0.000118260610289004\\
};
\addlegendentry{$\mathbf{\hat{h}_{1}}$}

\addplot [color=mycolor2]
  table[row sep=crcr]{%
0	0.00172761640437427\\
1	0.00024683265703452\\
2	0.00196608432711458\\
3	0.000392577099901774\\
4	0.00220698510452887\\
5	0.000673015217000938\\
6	0.00253090760687986\\
7	0.00109548646626388\\
8	0.00277960693726533\\
9	0.00163891354396968\\
10	0.00347079114739984\\
11	0.0025650000315046\\
12	0.00452131848926473\\
13	0.00453507949928514\\
14	0.0078491373146901\\
15	0.0118160214610325\\
16	0.0403428257397336\\
17	0.0946394654717218\\
18	0.0756324772815625\\
19	0.0902367212163559\\
20	0.0834721881597341\\
21	0.0865217166867416\\
22	0.0832201349398801\\
23	0.0849704914965478\\
24	0.085433386021258\\
25	0.0909545748359782\\
26	0.0885147859064489\\
27	0.0932782556527996\\
28	0.0852047289523083\\
29	0.077895686771131\\
30	0.0762459292804979\\
31	0.0799231088905655\\
32	0.0786335633293871\\
33	0.076554099840605\\
34	0.0715545597773116\\
35	0.0742818743880632\\
36	0.0731928121172567\\
37	0.0756544217750455\\
38	0.0728331991239966\\
39	0.0752683202431247\\
40	0.0734144583327024\\
41	0.0777790249473914\\
42	0.0760152223587801\\
43	0.078373981854944\\
44	0.0772660258235848\\
45	0.0811070088824283\\
46	0.0807284379488183\\
47	0.0822335414745959\\
48	0.0809713499769724\\
49	0.0824790603317718\\
50	0.0815438764648598\\
51	0.0831310353885855\\
52	0.08255166698271\\
53	0.0824271148828432\\
54	0.0817288827458931\\
55	0.0814328461217872\\
56	0.0800831588808856\\
57	0.0801233686026765\\
58	0.0774349832917087\\
59	0.0775210740930538\\
60	0.0770595337931468\\
61	0.0782185078795971\\
62	0.07645454639177\\
63	0.0776634109576205\\
64	0.0769735192476133\\
65	0.0782858771488174\\
66	0.077560873588613\\
67	0.0784677234376434\\
68	0.0785843019371049\\
69	0.0798916117500719\\
70	0.0792743019521943\\
71	0.0797792892317518\\
72	0.0790434866673939\\
73	0.0795246521507078\\
74	0.0789816705819842\\
75	0.0797834171951687\\
76	0.0791027418363513\\
77	0.0795542541210229\\
78	0.0788329579418344\\
79	0.0795861875842897\\
80	0.0786316697742123\\
81	0.0786714581024116\\
82	0.0779700026984975\\
83	0.0786259518909615\\
84	0.0779229239940718\\
85	0.078596248205857\\
86	0.0776090002457556\\
87	0.0781850376896204\\
88	0.0775737107595647\\
89	0.0784237558949872\\
90	0.0777086333138939\\
91	0.0776155787885277\\
92	0.0773346769537618\\
93	0.0778564475379261\\
94	0.0773355268814463\\
95	0.077865197964928\\
96	0.0773215248927367\\
97	0.0776808055589034\\
98	0.0774639704355191\\
99	0.0777709537962986\\
100	0.0774935774862487\\
101	0.07798820083936\\
102	0.07783262425214\\
103	0.0787552214358348\\
104	0.078186978334947\\
105	0.0784697859792942\\
106	0.0778175449221924\\
107	0.0782729937061291\\
108	0.0785297546522336\\
109	0.0789893076903354\\
110	0.0785296290797229\\
111	0.0788490725066372\\
112	0.0786714819014433\\
113	0.0794656220738779\\
114	0.078903289034928\\
115	0.0794725002004436\\
116	0.0792291414337517\\
117	0.0796351747197397\\
118	0.0792067330799446\\
119	0.0795078256371662\\
120	0.0789077306073213\\
121	0.078661170940016\\
122	0.0785431884369613\\
123	0.0789586151659209\\
124	0.0788357323003239\\
125	0.078446460785474\\
126	0.0775569158355556\\
127	0.0785027221655944\\
128	0.0789257245341546\\
129	0.0789164032896418\\
130	0.0788675532374702\\
131	0.0800306784128999\\
132	0.0794639457289459\\
133	0.0810643891665452\\
134	0.0809453273491139\\
135	0.0811254094858236\\
136	0.0811518263304268\\
137	0.0826782486646418\\
138	0.081397905618334\\
139	0.0821979344608766\\
140	0.0811260146736699\\
141	0.080585896945406\\
142	0.0805022629364771\\
143	0.079636752666541\\
144	0.0786055904326314\\
145	0.0768734706135481\\
146	0.0766536197934253\\
147	0.0773784074396176\\
148	0.0772696554851915\\
149	0.0752780721085495\\
150	0.0760052837512675\\
151	0.0764065625479427\\
152	0.0770572218439648\\
153	0.0777051435644366\\
154	0.0769328845765906\\
155	0.0768834648690463\\
156	0.0776296381428522\\
157	0.0788400644126006\\
158	0.0797607639597393\\
159	0.0782457305041814\\
160	0.0831021767656499\\
161	0.0847782484818549\\
162	0.0895171775432926\\
163	0.0859748788047342\\
164	0.0916150568768266\\
165	0.0910952796128713\\
166	0.0954937295355834\\
167	0.0886164545063762\\
168	0.101002986886059\\
169	0.0740072783786145\\
170	0.0470113893173957\\
171	0.0659670822506789\\
172	0.0381187548331557\\
173	0.0394422387484785\\
174	0.0400747990776849\\
175	0.042979182340106\\
176	0.0386631111316535\\
177	0.0338096622266218\\
178	0.0242356221607268\\
179	0.0236463724134988\\
180	0.0162183271262908\\
181	0.0182847972310711\\
182	0.0155739531739957\\
183	0.0165558891335731\\
184	0.0191405749547644\\
185	0.0295013297680278\\
186	0.0226239370954802\\
187	0.0077705070689855\\
188	0.00100840374986758\\
189	0.00106671838115607\\
190	0.00145412693944968\\
191	0.000552793541194529\\
192	0.00165300374798735\\
193	0.000199802673675095\\
194	0.00113525123146974\\
195	0.000210451810546084\\
196	0.000924269850917039\\
197	0.0012630303567367\\
198	0.00118162047013735\\
199	0.00173767496507785\\
200	0.000911102781080401\\
201	0.00148722756429724\\
202	0.000691225370645133\\
203	0.000712117432419491\\
204	0.000636869429927895\\
205	0.000578123674444535\\
206	0.000576674858754298\\
207	0.00061944881170683\\
208	0.000769484873926043\\
209	0.00102217770807761\\
210	0.00117612494478411\\
211	0.00106983142759922\\
212	0.000759115431287198\\
213	0.000438082725718026\\
214	0.000347246176731665\\
215	0.000354761444429661\\
216	0.000403401074304701\\
217	0.000432656761224767\\
218	0.000398722330267584\\
219	0.000346879706169947\\
220	0.000342500648439856\\
221	0.00036172435442641\\
222	0.000364306991911222\\
223	0.000389885588190673\\
224	0.000476822727807492\\
225	0.000450475109195656\\
226	0.00020160808411731\\
227	1.37847734138917e-05\\
228	9.0977305870395e-07\\
229	2.57583094525806e-06\\
230	1.72678077827329e-06\\
231	2.31678359883946e-06\\
232	2.07094158222111e-06\\
233	2.38938017665802e-06\\
234	2.39468908034962e-06\\
235	2.37061094783503e-06\\
236	1.97156029908181e-06\\
237	1.42579388865479e-06\\
238	1.25712786717947e-06\\
239	1.37170215971875e-06\\
240	1.42838501053817e-06\\
241	1.30582241676097e-06\\
242	1.08564031108377e-06\\
243	1.20779164783137e-06\\
244	1.73412263232429e-06\\
245	2.31568682421545e-06\\
246	2.51097547647537e-06\\
247	2.52024384292578e-06\\
248	2.42709770831873e-06\\
249	2.24422718055825e-06\\
250	2.32819280171584e-06\\
251	2.52791955277041e-06\\
252	2.62571506411247e-06\\
253	2.83619272294746e-06\\
254	2.9766232803454e-06\\
255	2.45729535499727e-06\\
256	2.03890770890175e-06\\
257	1.94872257875813e-06\\
258	2.08967702389893e-06\\
259	2.0992129944148e-06\\
260	1.54173506092218e-06\\
261	1.04164440210559e-06\\
262	1.00074180879825e-06\\
263	1.12561389590458e-06\\
264	1.52182176861379e-06\\
265	2.65516762913281e-06\\
266	3.98931354075711e-06\\
267	4.7075474557444e-06\\
268	4.57963243660761e-06\\
269	4.5737776164959e-06\\
270	4.77704336367188e-06\\
271	4.70757703664855e-06\\
272	4.7626679985926e-06\\
273	7.23861896840326e-06\\
274	1.15097949123088e-05\\
275	1.35310893932924e-05\\
276	1.40311566663931e-05\\
277	1.5422284915362e-05\\
278	1.52171056079106e-05\\
279	1.37983346938229e-05\\
280	1.22908330598837e-05\\
281	1.16714935527976e-05\\
282	3.01063307265488e-05\\
283	4.14939537965731e-05\\
284	4.5202135937091e-05\\
285	5.3606608158397e-05\\
286	5.57796110983528e-05\\
287	5.04276787883322e-05\\
288	4.8876898635894e-05\\
289	5.55340445730384e-05\\
290	6.33433654339856e-05\\
291	6.06402501822345e-05\\
292	5.05036331172177e-05\\
293	4.76784987799868e-05\\
294	5.18823020745591e-05\\
295	5.25776736787862e-05\\
296	5.3869436048202e-05\\
297	6.41560319659007e-05\\
298	7.6366266432011e-05\\
299	4.18123154563854e-05\\
};
\addlegendentry{$\mathbf{\hat{h}_{2}}$}

\end{axis}
\end{tikzpicture}%