% This file was created by matlab2tikz.
%
%The latest updates can be retrieved from
%  http://www.mathworks.com/matlabcentral/fileexchange/22022-matlab2tikz-matlab2tikz
%where you can also make suggestions and rate matlab2tikz.
%
\definecolor{mycolor1}{rgb}{0.00000,0.44700,0.74100}%
\definecolor{mycolor2}{rgb}{0.85000,0.32500,0.09800}%
%
\begin{tikzpicture}

\begin{axis}[%
width=1.935in,
height=3.2in,
at={(0.758in,0.512in)},
scale only axis,
xmin=0,
xmax=150,
xlabel style={font=\color{white!15!black}, align=center},
xlabel={Sample Index\\[1ex](a) Actual},
ymin=0,
ymax=0.7,
axis background/.style={fill=white},
legend style={legend cell align=left, align=left, draw=white!15!black}
]
\addplot [color=mycolor1]
  table[row sep=crcr]{%
1	0.0234657806037261\\
2	0.0272334504034075\\
3	0.0326864300765018\\
4	0.0414541482980318\\
5	0.0586677033458464\\
6	0.117843438362983\\
7	0.159969331461504\\
8	0.174397116945152\\
9	0.616552810702634\\
10	0.0882137642931462\\
11	0.0472681903124796\\
12	0.0327587509505929\\
13	0.0272256709659274\\
14	0.0412344622245766\\
15	0.0186762848129325\\
16	0.0451940046978057\\
17	0.0153724087875252\\
18	0.0239672675363248\\
19	0.0400285717874473\\
20	0.0828333966509162\\
21	0.557624977131952\\
22	0.149414784250917\\
23	0.109138078132702\\
24	0.0381681231028791\\
25	0.032799759178118\\
26	0.191519461959093\\
27	0.0734580287558902\\
28	0.0358315656953253\\
29	0.0179563195827385\\
30	0.0169149242156914\\
31	0.0179798517146348\\
32	0.0199431506445131\\
33	0.0279225394655299\\
34	0.0908594243819801\\
35	0.0439964246924232\\
36	0.330890477505262\\
37	0.037800506563543\\
38	0.020261933748638\\
39	0.0138181229977315\\
40	0.0211497159554441\\
41	0.0112042208144458\\
42	0.00964538908702694\\
43	0.00864780826327016\\
44	0.00787736374270682\\
45	0.00720180133294831\\
46	0.00651453200193765\\
47	0.00565492088107664\\
48	0.0112814316241706\\
49	0.0075966567083061\\
50	0.0102713040739602\\
51	0.00787142060243747\\
52	0.00711780022683946\\
53	0.00668443537322835\\
54	0.00638223966522588\\
55	0.00615487020840034\\
56	0.00598242225636516\\
57	0.00586293416152974\\
58	0.00581626175933958\\
59	0.00593494184987807\\
60	0.00707647204853056\\
61	0.00861312572402681\\
62	0.00240649054353041\\
63	0.0036902508247688\\
64	0.0040125763148678\\
65	0.00408542983582614\\
66	0.00408934467211144\\
67	0.00406760360864643\\
68	0.00403657730104579\\
69	0.00400486664899167\\
70	0.00397913876457006\\
71	0.00396763365360209\\
72	0.00398577860522856\\
73	0.00407460869510253\\
74	0.00440882178496405\\
75	0.00852319154542653\\
76	0.00211982859547221\\
77	0.00279674481878385\\
78	0.00295234209521732\\
79	0.00299967450324673\\
80	0.00300734384297471\\
81	0.00299658049652506\\
82	0.00297609501762909\\
83	0.00295010695632826\\
84	0.00292089738309008\\
85	0.00288979839106794\\
86	0.00285763293534116\\
87	0.00282493110979805\\
88	0.00279204510261472\\
89	0.00275921420187501\\
90	0.00272660345813555\\
91	0.00269432766245323\\
92	0.00266246675038502\\
93	0.00263107599882434\\
94	0.00260019295165966\\
95	0.00256984222925479\\
96	0.00254003893333548\\
97	0.0025107910982644\\
98	0.00248210148178531\\
99	0.00245396889001376\\
100	0.00242638916874131\\
101	0.00239935595223708\\
102	0.00237286123354156\\
103	0.00234689580183488\\
104	0.00232144957979209\\
105	0.00229651188498403\\
106	0.00227207163310714\\
107	0.0022481174963278\\
108	0.00222463802675857\\
109	0.00220162175268604\\
110	0.00217905725339276\\
111	0.0021569332170867\\
112	0.00213523848544673\\
113	0.00211396208753109\\
114	0.00209309326520902\\
115	0.00207262149182518\\
116	0.00205253648545491\\
117	0.00203282821783402\\
118	0.00201348691983224\\
119	0.00199450308416773\\
120	0.00197586746592614\\
121	0.00195757108133911\\
122	0.0019396052051902\\
123	0.0019219613671484\\
124	0.00190463134727109\\
125	0.00188760717087541\\
126	0.00187088110293773\\
127	0.00185444564215264\\
128	0.0018382935147574\\
129	0.00182241766820821\\
130	0.00180681126477794\\
131	0.00179146767513212\\
132	0.00177638047192757\\
133	0.00176154342347035\\
134	0.00174695048746156\\
135	0.0017325958048528\\
136	0.00171847369382931\\
137	0.00170457864393352\\
138	0.0016909053103386\\
139	0.00167744850827835\\
140	0.00166420320763913\\
141	0.00165116452771496\\
142	0.00163832773212761\\
143	0.00162568822391149\\
144	0.00161324154076111\\
145	0.0016009833504405\\
146	0.00158890944635072\\
147	0.00157701574325256\\
148	0.00156529827314105\\
149	0\\
150	0\\
};
\addlegendentry{$\mathbf{h_1}$}

\addplot [color=mycolor2]
  table[row sep=crcr]{%
1	0.019775303219206\\
2	0.0210217764534023\\
3	0.0224372323963497\\
4	0.024058742711813\\
5	0.0259351263737046\\
6	0.0281320174688059\\
7	0.0307398096072034\\
8	0.0338865833958781\\
9	0.0377600935275399\\
10	0.0426472101764649\\
11	0.0490094599986528\\
12	0.0576401827385178\\
13	0.0700288298559564\\
14	0.0893407156606893\\
15	0.123700774100431\\
16	0.202175033398071\\
17	0.564479813098353\\
18	0.690442426104836\\
19	0.212260509632627\\
20	0.126132345068284\\
21	0.100380135781766\\
22	0.0378663697499036\\
23	0.0333199748773482\\
24	0.0149453064107011\\
25	0.10083899339379\\
26	0.161002397050911\\
27	0.0405118251764787\\
28	0.0383644765554957\\
29	0.0341227495803863\\
30	0.0306469105251072\\
31	0.0278570926171954\\
32	0.0255709383506331\\
33	0.0236574529195357\\
34	0.0220274984760589\\
35	0.0206190941704396\\
36	0.0193877726649002\\
37	0.0183006807256663\\
38	0.0173329207549748\\
39	0.016465211935799\\
40	0.0156823459816501\\
41	0.0149721364414517\\
42	0.0143246843629073\\
43	0.0137318527665838\\
44	0.0131868826449622\\
45	0.0126841071808284\\
46	0.0122187355837443\\
47	0.0117866872087634\\
48	0.0113844626077037\\
49	0.0110090421200206\\
50	0.0106578052804057\\
51	0\\
52	0\\
53	0\\
54	0\\
55	0\\
56	0\\
57	0\\
58	0\\
59	0\\
60	0\\
61	0\\
62	0\\
63	0\\
64	0\\
65	0\\
66	0\\
67	0\\
68	0\\
69	0\\
70	0\\
71	0\\
72	0\\
73	0\\
74	0\\
75	0\\
76	0\\
77	0\\
78	0\\
79	0\\
80	0\\
81	0\\
82	0\\
83	0\\
84	0\\
85	0\\
86	0\\
87	0\\
88	0\\
89	0\\
90	0\\
91	0\\
92	0\\
93	0\\
94	0\\
95	0\\
96	0\\
97	0\\
98	0\\
99	0\\
100	0\\
101	0\\
102	0\\
103	0\\
104	0\\
105	0\\
106	0\\
107	0\\
108	0\\
109	0\\
110	0\\
111	0\\
112	0\\
113	0\\
114	0\\
115	0\\
116	0\\
117	0\\
118	0\\
119	0\\
120	0\\
121	0\\
122	0\\
123	0\\
124	0\\
125	0\\
126	0\\
127	0\\
128	0\\
129	0\\
130	0\\
131	0\\
132	0\\
133	0\\
134	0\\
135	0\\
136	0\\
137	0\\
138	0\\
139	0\\
140	0\\
141	0\\
142	0\\
143	0\\
144	0\\
145	0\\
146	0\\
147	0\\
148	0\\
149	0\\
150	0\\
};
\addlegendentry{$\mathbf{h_{2}}$}

\end{axis}

\begin{axis}[%
width=1.935in,
height=3.2in,
at={(3.327in,0.512in)},
scale only axis,
xmin=0,
xmax=150,
xlabel style={font=\color{white!15!black}, align=center},
xlabel={Sample Index\\[1ex](b) Estimated},
ymin=0,
ymax=0.9,
axis background/.style={fill=white},
legend style={legend cell align=left, align=left, draw=white!15!black}
]
\addplot [color=mycolor1]
  table[row sep=crcr]{%
0	0.0160962135814931\\
1	0.00532399418960903\\
2	0.00318031940063026\\
3	0.00925836098503967\\
4	0.0170051935304481\\
5	0.0482421000278687\\
6	0.171118422175701\\
7	0.105507465872874\\
8	0.537442774553175\\
9	0.3869233781027\\
10	0.112140102218757\\
11	0.101244697285337\\
12	0.0599870893299596\\
13	0.0180921737828761\\
14	0.0932059898926222\\
15	0.10664803113299\\
16	0.0361022178667436\\
17	0.113046625695533\\
18	0.0824492379455153\\
19	0.0365487532486217\\
20	0.317821661945635\\
21	0.386095253277968\\
22	0.0904825337176778\\
23	0.13573226704486\\
24	0.0426283135074563\\
25	0.104557715687442\\
26	0.102295405013379\\
27	0.0528528881187608\\
28	0.0646759862391377\\
29	0.0620707037760788\\
30	0.0914401522376098\\
31	0.0231196783687601\\
32	0.0199011244766898\\
33	0.0720160392950288\\
34	0.0333626032682016\\
35	0.268966743836429\\
36	0.171750118664078\\
37	0.0619238464124545\\
38	0.0258294395167034\\
39	0.05702759645906\\
40	0.0114547802104037\\
41	0.0609942802073978\\
42	0.0276125519988707\\
43	0.0061758983169644\\
44	0.057040883364377\\
45	0.0558333494606289\\
46	0.0160476189329884\\
47	0.012287163050914\\
48	0.0184336482678082\\
49	0.00556748470757437\\
50	0.00090289539992011\\
51	0.0029926098345132\\
52	0.00480616885983405\\
53	0.0147855641670312\\
54	0.0141482762305685\\
55	0.00129759188547504\\
56	0.0026901492456502\\
57	0.0010846050553067\\
58	0.00228074947003216\\
59	0.00712875811448467\\
60	0.0200850968900196\\
61	0.00714026924130794\\
62	0.00551262827761741\\
63	0.00447072798212909\\
64	0.00342226511451962\\
65	0.00218818172262589\\
66	0.00666047981028857\\
67	0.00438438646317433\\
68	0.00265863839531042\\
69	0.00287208134977805\\
70	0.00250799288670014\\
71	0.00119899857458971\\
72	0.00199147405734673\\
73	0.00188901746670874\\
74	0.00687946959968792\\
75	0.00802161152807218\\
76	0.000817202308641381\\
77	0.00200916156067224\\
78	0.00114999793773692\\
79	0.000764109869236247\\
80	0.00142400961263626\\
81	0.002375700874643\\
82	0.000314104925266322\\
83	0.00101066013332158\\
84	0.00195180341728957\\
85	4.81195405651778e-05\\
86	0.00034450820823907\\
87	0.0011321438582182\\
88	0.000597549248318117\\
89	0.000691491365851715\\
90	0.000280351426671676\\
91	0.00042767281149188\\
92	0.000445549310167287\\
93	0.000699169852899524\\
94	0.000229311008724446\\
95	0.000193046623776005\\
96	0.000568334752898741\\
97	0.000507010079794509\\
98	0.000251273626957349\\
99	0.000631442177985737\\
100	0.000270871962845016\\
101	0.00037433080246762\\
102	0.000983840098428395\\
103	0.000183859170916592\\
104	5.56394417935337e-05\\
105	0.00011000601329014\\
106	0.000815425854084821\\
107	0.000339727700354759\\
108	0.000312704433047128\\
109	0.000245581900638861\\
110	0.000333559911193411\\
111	0.000617966612022305\\
112	0.000244111653687781\\
113	0.000870400893416231\\
114	0.000238779928834145\\
115	0.000490265824788308\\
116	0.000158638856762101\\
117	0.000307285350360457\\
118	0.000288371875500331\\
119	0.000528469538525997\\
120	0.000716521114151733\\
121	0.00151808415034406\\
122	0.000403856326901478\\
123	0.000737543481473722\\
124	0.000243394616431723\\
125	0.000589497076528269\\
126	8.73139291546982e-05\\
127	0.000365384379530367\\
128	0.000529847701970435\\
129	0.000461170168957964\\
130	0.000325068259666047\\
131	0.000478591084265431\\
132	6.38240680935407e-05\\
133	0.00121038568508951\\
134	0.000575852549267374\\
135	0.000758002052769145\\
136	0.00046044331713992\\
137	0.000429877618032297\\
138	0.000235400462405987\\
139	0.000616693295978902\\
};
\addlegendentry{$\mathbf{\hat{h}_{1}}$}

\addplot [color=mycolor2]
  table[row sep=crcr]{%
0	0.014094589934529\\
1	0.00327618866649262\\
2	0.000630041516372591\\
3	0.0037420709949999\\
4	0.00515645605726789\\
5	0.00634550544345473\\
6	0.00607982768601794\\
7	0.00601895878136329\\
8	0.00653099631326355\\
9	0.00850323364456931\\
10	0.00992970012069132\\
11	0.0118352793315327\\
12	0.0149791844346477\\
13	0.0214560909457443\\
14	0.0342697815789302\\
15	0.0687716613918776\\
16	0.278519006867089\\
17	0.836919227716057\\
18	0.201326864227648\\
19	0.253544550847527\\
20	0.0514250407172577\\
21	0.0264272758762233\\
22	0.100838200577911\\
23	0.207043738562102\\
24	0.0678397166348914\\
25	0.137914757298375\\
26	0.138706168192435\\
27	0.0803422216406968\\
28	0.00833740621225908\\
29	0.0265204803180062\\
30	0.0281404541935673\\
31	0.0210856599954286\\
32	0.00905289115223146\\
33	0.00771330814991682\\
34	0.00476853880225791\\
35	0.0199934136630348\\
36	0.0143935185300281\\
37	0.00713116526170213\\
38	0.00810038017770522\\
39	0.00495492927229041\\
40	0.00232970950965313\\
41	0.0138014365972135\\
42	0.0167282151553567\\
43	0.0143927417587162\\
44	0.00682669152207443\\
45	0.00710061544932131\\
46	0.00313718257811492\\
47	0.00458300336779722\\
48	0.0097429580663375\\
49	0.00873303719850434\\
50	0.00396335078083003\\
51	0.00375656805161083\\
52	0.00301158197206296\\
53	0.00231551781458896\\
54	0.00175745140585933\\
55	0.00208541931185115\\
56	0.0107092647581042\\
57	0.0066835287931326\\
58	0.00369968356397654\\
59	0.00217957397711888\\
60	0.00110809959274646\\
61	0.00102340861960188\\
62	0.00258894156358618\\
63	0.00226208365395659\\
64	0.00216088440830295\\
65	0.00156167127876858\\
66	0.00187741385032829\\
67	0.000134978130870751\\
68	0.000159787839905374\\
69	6.88013160142809e-05\\
70	0.000445638301342471\\
71	0.000135835599233305\\
72	0.000436719746549601\\
73	0.00053798610483825\\
74	0.00030755885166862\\
75	0.000522608536276781\\
76	0.000263746662534453\\
77	0.000213232510342989\\
78	0.000438941953780145\\
79	0.000151372484444165\\
80	0.000189539720601578\\
81	0.000228212414113107\\
82	0.000154038139918152\\
83	0.000219299440775109\\
84	0.000715822453902701\\
85	0.000385869795225609\\
86	0.000670959061108529\\
87	0.000786253666773843\\
88	0.000530202694297093\\
89	0.000132806858760914\\
90	5.26273521031144e-05\\
91	0.000220541694596439\\
92	0.000397563060488219\\
93	9.56760559543383e-05\\
94	0.000177334371526303\\
95	4.5983488526052e-05\\
96	0.000775025612279102\\
97	0.00015330939533869\\
98	0.000674602474368195\\
99	0.000494000881409482\\
100	0.000336325036877568\\
101	5.94521348337151e-05\\
102	6.09529992885151e-05\\
103	7.34489454572598e-05\\
104	6.84724928381033e-05\\
105	0.000302488973593149\\
106	0.000147066480805678\\
107	0.000212424143275604\\
108	0.00031011134947866\\
109	0.000113091628964729\\
110	0.00033361381085243\\
111	0.00015607316602809\\
112	0.000279546350646502\\
113	0.000146493437663617\\
114	0.000319021849911215\\
115	0.000380067896571138\\
116	0.000238792679167199\\
117	9.38898309202704e-05\\
118	0.000372510587573475\\
119	0.000339926127711222\\
120	0.000213731225049863\\
121	0.000599236418324907\\
122	0.000618255941724647\\
123	0.000266109181671115\\
124	0.000886518257976205\\
125	0.000370847586933875\\
126	0.000466190490303679\\
127	0.000695055604725078\\
128	0.000353848184209949\\
129	0.00141258300598922\\
130	0.0019289501067831\\
131	0.000762548805409825\\
132	0.000522691060780937\\
133	0.000107065580505318\\
134	0.000246839896667294\\
135	0.000242557612444012\\
136	0.000762371233413487\\
137	0.000542574064989775\\
138	0.000318226228405333\\
139	0.000413628498013254\\
};
\addlegendentry{$\mathbf{\hat{h}_{2}}$}

\end{axis}
\end{tikzpicture}%