% This file was created by matlab2tikz.
%
%The latest updates can be retrieved from
%  http://www.mathworks.com/matlabcentral/fileexchange/22022-matlab2tikz-matlab2tikz
%where you can also make suggestions and rate matlab2tikz.
%
\definecolor{mycolor1}{rgb}{0.00000,0.44700,0.74100}%
\definecolor{mycolor2}{rgb}{0.85000,0.32500,0.09800}%
%
\begin{tikzpicture}

\begin{axis}[%
width=1.935in,
height=3.2in,
at={(0.758in,0.512in)},
scale only axis,
xmin=0,
xmax=150,
xlabel style={font=\color{white!15!black}, align=center},
xlabel={Sample Index\\[1ex](a) Actual},
ymin=0,
ymax=0.7,
axis background/.style={fill=white},
legend style={legend cell align=left, align=left, draw=white!15!black}
]
\addplot [color=mycolor1]
  table[row sep=crcr]{%
1	0.0234657806037261\\
2	0.0272334504034075\\
3	0.0326864300765018\\
4	0.0414541482980318\\
5	0.0586677033458464\\
6	0.117843438362983\\
7	0.159969331461504\\
8	0.174397116945152\\
9	0.616552810702634\\
10	0.0882137642931462\\
11	0.0472681903124796\\
12	0.0327587509505929\\
13	0.0272256709659274\\
14	0.0412344622245766\\
15	0.0186762848129325\\
16	0.0451940046978057\\
17	0.0153724087875252\\
18	0.0239672675363248\\
19	0.0400285717874473\\
20	0.0828333966509162\\
21	0.557624977131952\\
22	0.149414784250917\\
23	0.109138078132702\\
24	0.0381681231028791\\
25	0.032799759178118\\
26	0.191519461959093\\
27	0.0734580287558902\\
28	0.0358315656953253\\
29	0.0179563195827385\\
30	0.0169149242156914\\
31	0.0179798517146348\\
32	0.0199431506445131\\
33	0.0279225394655299\\
34	0.0908594243819801\\
35	0.0439964246924232\\
36	0.330890477505262\\
37	0.037800506563543\\
38	0.020261933748638\\
39	0.0138181229977315\\
40	0.0211497159554441\\
41	0.0112042208144458\\
42	0.00964538908702694\\
43	0.00864780826327016\\
44	0.00787736374270682\\
45	0.00720180133294831\\
46	0.00651453200193765\\
47	0.00565492088107664\\
48	0.0112814316241706\\
49	0.0075966567083061\\
50	0.0102713040739602\\
51	0.00787142060243747\\
52	0.00711780022683946\\
53	0.00668443537322835\\
54	0.00638223966522588\\
55	0.00615487020840034\\
56	0.00598242225636516\\
57	0.00586293416152974\\
58	0.00581626175933958\\
59	0.00593494184987807\\
60	0.00707647204853056\\
61	0.00861312572402681\\
62	0.00240649054353041\\
63	0.0036902508247688\\
64	0.0040125763148678\\
65	0.00408542983582614\\
66	0.00408934467211144\\
67	0.00406760360864643\\
68	0.00403657730104579\\
69	0.00400486664899167\\
70	0.00397913876457006\\
71	0.00396763365360209\\
72	0.00398577860522856\\
73	0.00407460869510253\\
74	0.00440882178496405\\
75	0.00852319154542653\\
76	0.00211982859547221\\
77	0.00279674481878385\\
78	0.00295234209521732\\
79	0.00299967450324673\\
80	0.00300734384297471\\
81	0.00299658049652506\\
82	0.00297609501762909\\
83	0.00295010695632826\\
84	0.00292089738309008\\
85	0.00288979839106794\\
86	0.00285763293534116\\
87	0.00282493110979805\\
88	0.00279204510261472\\
89	0.00275921420187501\\
90	0.00272660345813555\\
91	0.00269432766245323\\
92	0.00266246675038502\\
93	0.00263107599882434\\
94	0.00260019295165966\\
95	0.00256984222925479\\
96	0.00254003893333548\\
97	0.0025107910982644\\
98	0.00248210148178531\\
99	0.00245396889001376\\
100	0.00242638916874131\\
101	0.00239935595223708\\
102	0.00237286123354156\\
103	0.00234689580183488\\
104	0.00232144957979209\\
105	0.00229651188498403\\
106	0.00227207163310714\\
107	0.0022481174963278\\
108	0.00222463802675857\\
109	0.00220162175268604\\
110	0.00217905725339276\\
111	0.0021569332170867\\
112	0.00213523848544673\\
113	0.00211396208753109\\
114	0.00209309326520902\\
115	0.00207262149182518\\
116	0.00205253648545491\\
117	0.00203282821783402\\
118	0.00201348691983224\\
119	0.00199450308416773\\
120	0.00197586746592614\\
121	0.00195757108133911\\
122	0.0019396052051902\\
123	0.0019219613671484\\
124	0.00190463134727109\\
125	0.00188760717087541\\
126	0.00187088110293773\\
127	0.00185444564215264\\
128	0.0018382935147574\\
129	0.00182241766820821\\
130	0.00180681126477794\\
131	0.00179146767513212\\
132	0.00177638047192757\\
133	0.00176154342347035\\
134	0.00174695048746156\\
135	0.0017325958048528\\
136	0.00171847369382931\\
137	0.00170457864393352\\
138	0.0016909053103386\\
139	0.00167744850827835\\
140	0.00166420320763913\\
141	0.00165116452771496\\
142	0.00163832773212761\\
143	0.00162568822391149\\
144	0.00161324154076111\\
145	0.0016009833504405\\
146	0.00158890944635072\\
147	0.00157701574325256\\
148	0.00156529827314105\\
149	0\\
150	0\\
};
\addlegendentry{$\mathbf{h_1}$}

\addplot [color=mycolor2]
  table[row sep=crcr]{%
1	0.019775303219206\\
2	0.0210217764534023\\
3	0.0224372323963497\\
4	0.024058742711813\\
5	0.0259351263737046\\
6	0.0281320174688059\\
7	0.0307398096072034\\
8	0.0338865833958781\\
9	0.0377600935275399\\
10	0.0426472101764649\\
11	0.0490094599986528\\
12	0.0576401827385178\\
13	0.0700288298559564\\
14	0.0893407156606893\\
15	0.123700774100431\\
16	0.202175033398071\\
17	0.564479813098353\\
18	0.690442426104836\\
19	0.212260509632627\\
20	0.126132345068284\\
21	0.100380135781766\\
22	0.0378663697499036\\
23	0.0333199748773482\\
24	0.0149453064107011\\
25	0.10083899339379\\
26	0.161002397050911\\
27	0.0405118251764787\\
28	0.0383644765554957\\
29	0.0341227495803863\\
30	0.0306469105251072\\
31	0.0278570926171954\\
32	0.0255709383506331\\
33	0.0236574529195357\\
34	0.0220274984760589\\
35	0.0206190941704396\\
36	0.0193877726649002\\
37	0.0183006807256663\\
38	0.0173329207549748\\
39	0.016465211935799\\
40	0.0156823459816501\\
41	0.0149721364414517\\
42	0.0143246843629073\\
43	0.0137318527665838\\
44	0.0131868826449622\\
45	0.0126841071808284\\
46	0.0122187355837443\\
47	0.0117866872087634\\
48	0.0113844626077037\\
49	0.0110090421200206\\
50	0.0106578052804057\\
51	0\\
52	0\\
53	0\\
54	0\\
55	0\\
56	0\\
57	0\\
58	0\\
59	0\\
60	0\\
61	0\\
62	0\\
63	0\\
64	0\\
65	0\\
66	0\\
67	0\\
68	0\\
69	0\\
70	0\\
71	0\\
72	0\\
73	0\\
74	0\\
75	0\\
76	0\\
77	0\\
78	0\\
79	0\\
80	0\\
81	0\\
82	0\\
83	0\\
84	0\\
85	0\\
86	0\\
87	0\\
88	0\\
89	0\\
90	0\\
91	0\\
92	0\\
93	0\\
94	0\\
95	0\\
96	0\\
97	0\\
98	0\\
99	0\\
100	0\\
101	0\\
102	0\\
103	0\\
104	0\\
105	0\\
106	0\\
107	0\\
108	0\\
109	0\\
110	0\\
111	0\\
112	0\\
113	0\\
114	0\\
115	0\\
116	0\\
117	0\\
118	0\\
119	0\\
120	0\\
121	0\\
122	0\\
123	0\\
124	0\\
125	0\\
126	0\\
127	0\\
128	0\\
129	0\\
130	0\\
131	0\\
132	0\\
133	0\\
134	0\\
135	0\\
136	0\\
137	0\\
138	0\\
139	0\\
140	0\\
141	0\\
142	0\\
143	0\\
144	0\\
145	0\\
146	0\\
147	0\\
148	0\\
149	0\\
150	0\\
};
\addlegendentry{$\mathbf{h_{2}}$}

\end{axis}

\begin{axis}[%
width=1.935in,
height=3.2in,
at={(3.327in,0.512in)},
scale only axis,
xmin=0,
xmax=150,
xlabel style={font=\color{white!15!black}, align=center},
xlabel={Sample Index\\[1ex](b) Estimated},
ymin=0,
ymax=0.6,
axis background/.style={fill=white},
legend style={legend cell align=left, align=left, draw=white!15!black}
]
\addplot [color=mycolor1]
  table[row sep=crcr]{%
0	0.0582621327925742\\
1	0.0107403851253513\\
2	0.0397556251381783\\
3	0.0506373552220738\\
4	0.0737628048279114\\
5	0.0357945245890115\\
6	0.040412320707272\\
7	0.119805881931503\\
8	0.0374616584963504\\
9	0.0406639577852868\\
10	0.0176000661126316\\
11	0.0410064002147073\\
12	0.0393242858388497\\
13	0.0498033351115509\\
14	0.0872555565342017\\
15	0.0847322165352771\\
16	0.0876669644698179\\
17	0.0367424300670826\\
18	0.0294870850640725\\
19	0.0440272975499408\\
20	0.0308853620045544\\
21	0.00570895894783603\\
22	0.0415908540882771\\
23	0.0449497784674864\\
24	0.100686952604399\\
25	0.0349344041787087\\
26	0.0319322661991937\\
27	0.0405017341433196\\
28	0.0408646496291026\\
29	0.0434492353993117\\
30	0.08249851519056\\
31	0.0607651932289777\\
32	0.13431806905058\\
33	0.0926870072765967\\
34	0.0604172926422778\\
35	0.0304978714118808\\
36	0.0980362394126472\\
37	0.0418666402812955\\
38	0.0530845701882373\\
39	0.13374759297278\\
40	0.0815391729266113\\
41	0.097744360237623\\
42	0.0168839128593293\\
43	0.0424157921440267\\
44	0.140489591154012\\
45	0.0551143218534536\\
46	0.0344372793511934\\
47	0.126925206190642\\
48	0.0683443198578764\\
49	0.0668559002011887\\
50	0.12133253575803\\
51	0.165747671368145\\
52	0.0792511938957578\\
53	0.125391604487403\\
54	0.0870883976245964\\
55	0.0675980710134939\\
56	0.0867103992313653\\
57	0.0446387315364872\\
58	0.0461955545895245\\
59	0.0855482522526727\\
60	0.062551948808739\\
61	0.132139923537478\\
62	0.00677477466750572\\
63	0.147591412090092\\
64	0.0685736423576757\\
65	0.216518547148075\\
66	0.174824641225232\\
67	0.0778505836744939\\
68	0.135481450057459\\
69	0.0922370020667977\\
70	0.079042500820527\\
71	0.0469400955222073\\
72	0.0555992873682899\\
73	0.111253162343279\\
74	0.0792509326928844\\
75	0.115839366573019\\
76	0.142018434442539\\
77	0.0184009616043663\\
78	0.25265545881939\\
79	0.10505914696294\\
80	0.145703514653031\\
81	0.020542513951482\\
82	0.138947353283007\\
83	0.11742595137639\\
84	0.103625296522588\\
85	0.123432781262851\\
86	0.0392829012337063\\
87	0.0695513315962424\\
88	0.0834485098876888\\
89	0.0410648062650525\\
90	0.0956494164566986\\
91	0.0360240564151912\\
92	0.225822934188271\\
93	0.0825187401801511\\
94	0.0652325431445917\\
95	0.0529454989046457\\
96	0.0280791899619271\\
97	0.0729245207601732\\
98	0.11200471723916\\
99	0.0748426848085877\\
100	0.00907795241568224\\
101	0.0248430166642625\\
102	0.0397248636794431\\
103	0.117015479681831\\
104	0.0184215364714036\\
105	0.0301737547933332\\
106	0.128757624401506\\
107	0.0866706724346023\\
108	0.0555034256820848\\
109	0.134074986847621\\
110	0.024035395226547\\
111	0.12578834292766\\
112	0.0655119078186891\\
113	0.0385039429830511\\
114	0.090689835319531\\
115	0.0408778585291544\\
116	0.0451663180874018\\
117	0.0173396793221423\\
118	0.0429156487613164\\
119	0.07691388435168\\
120	0.0501205148090752\\
121	0.00387318940057596\\
122	0.0769322968883441\\
123	0.0594934144703732\\
124	0.0379966232111059\\
125	0.0622629635802534\\
126	0.0312046215500188\\
127	0.0801633484340897\\
128	0.0721097699811384\\
129	0.0305319278901504\\
130	0.0949954269154868\\
131	0.0971006409744492\\
132	0.0552307987553832\\
133	0.0160563102980209\\
134	0.0819031764833858\\
135	0.0862537564976524\\
136	0.0310632819068895\\
137	0.0203373697223848\\
138	0.0118540605920523\\
139	0.034777975748356\\
140	0.00963996563043777\\
141	0.0195857761526362\\
142	0.00915107602914671\\
143	0.0287386354149139\\
144	0.00778931801522329\\
145	0.0436583874140195\\
146	0.0470189542983887\\
147	0.024123649951215\\
148	0.00689089826696715\\
149	0.0471966773615268\\
};
\addlegendentry{$\mathbf{\hat{h}_{1}}$}

\addplot [color=mycolor2]
  table[row sep=crcr]{%
0	0.00524218183441214\\
1	0.00919750219135801\\
2	0.0134047939648512\\
3	0.0107862188249306\\
4	0.0114225216491379\\
5	0.00734110463730966\\
6	0.00477284270333004\\
7	0.00838444775023898\\
8	0.0200487682231001\\
9	0.0268094256634241\\
10	0.0169032111782205\\
11	0.103061516652937\\
12	0.032581418630587\\
13	0.0823888608649692\\
14	0.0730298497746714\\
15	0.139295571374045\\
16	0.0619199024676181\\
17	0.0162379361978155\\
18	0.0196835736049407\\
19	0.0158738016377068\\
20	0.0490146614625702\\
21	0.0214091873612051\\
22	0.0969457678497541\\
23	0.0191777964103415\\
24	0.0674024126525996\\
25	0.0803426047054738\\
26	0.0965215233063224\\
27	0.114909305353121\\
28	0.109762162562729\\
29	0.0336660955600531\\
30	0.0375735253125618\\
31	0.0888518417739609\\
32	0.0390774416672138\\
33	0.0812095668771893\\
34	0.0247728838298343\\
35	0.0597471473102062\\
36	0.0453658078537115\\
37	0.0680028385700318\\
38	0.110807342409903\\
39	0.135947544765724\\
40	0.0537950186838009\\
41	0.00701762197778357\\
42	0.0880888429394477\\
43	0.153495355343697\\
44	0.0374203031743244\\
45	0.12718050524143\\
46	0.0426114250736531\\
47	0.0559354531761851\\
48	0.0216031660640646\\
49	0.0318399076118224\\
50	0.208235372513264\\
51	0.0563002033129315\\
52	0.0388634702508635\\
53	0.0108278906131693\\
54	0.0190328056509512\\
55	0.133181710242834\\
56	0.027704520607516\\
57	0.205393154934165\\
58	0.0747144149693038\\
59	0.0701893697401696\\
60	0.10264550436698\\
61	0.072887463981711\\
62	0.208432050296381\\
63	0.0457851208525228\\
64	0.0410099709274772\\
65	0.0103537564298041\\
66	0.0960108533460952\\
67	0.0815672620502349\\
68	0.0483021578538747\\
69	0.110020442445432\\
70	0.0469394755887912\\
71	0.153775709643788\\
72	0.0226241560513098\\
73	0.0117712777361835\\
74	0.523333444157852\\
75	0.0457583138682299\\
76	0.0479891259532456\\
77	0.109757656206326\\
78	0.0535693120784251\\
79	0.0458803957431253\\
80	0.0358735243630659\\
81	0.0725973550599586\\
82	0.0312496687718041\\
83	0.0664103071171998\\
84	0.0422113298863531\\
85	0.0463378864625609\\
86	0.152735443687198\\
87	0.0206039122628938\\
88	0.079059938003499\\
89	0.050276403600619\\
90	0.0759112628301529\\
91	0.140127214174035\\
92	0.0221405784964415\\
93	0.0596931507788004\\
94	0.0283186407573403\\
95	0.0586861455502765\\
96	0.107168014685685\\
97	0.0778698915757095\\
98	0.0457108025125006\\
99	0.0472365597870053\\
100	0.0629253306208178\\
101	0.013700282674492\\
102	0.0889170035244509\\
103	0.0469776026229481\\
104	0.0506563346447434\\
105	0.104483060590415\\
106	0.0960655973977589\\
107	0.0689544326168895\\
108	0.0261998935398481\\
109	0.108095862259064\\
110	0.0817537487050867\\
111	0.0422325882013515\\
112	0.0838914465732749\\
113	0.0458370101420938\\
114	0.0321395253230006\\
115	0.0171508320880534\\
116	0.0344164537197089\\
117	0.0590120270941679\\
118	0.0716113050988564\\
119	0.0407944206445984\\
120	0.0295970692733721\\
121	0.0319400790866258\\
122	0.00751681266731095\\
123	0.0148455266225194\\
124	0.0316367246935334\\
125	0.0553107936747327\\
126	0.0622364873399011\\
127	0.10142220559904\\
128	0.106971549510727\\
129	0.0380269227102615\\
130	0.0632533855081645\\
131	0.0947739264329783\\
132	0.0328887339520803\\
133	0.00818385418344729\\
134	0.00254740283517079\\
135	0.0265859150843789\\
136	0.0248630164714389\\
137	0.00952442932444256\\
138	0.0202821641954604\\
139	0.0206370294426176\\
140	0.00777482341365673\\
141	0.00369812895436217\\
142	0.00341030380820815\\
143	0.00514104922876445\\
144	0.0057844110087439\\
145	0.00191717473851798\\
146	0.00399395413542759\\
147	0.00165980067427316\\
148	0.00134412002007592\\
149	0.00297273760103273\\
};
\addlegendentry{$\mathbf{\hat{h}_{2}}$}

\end{axis}
\end{tikzpicture}%