% This file was created by matlab2tikz.
%
%The latest updates can be retrieved from
%  http://www.mathworks.com/matlabcentral/fileexchange/22022-matlab2tikz-matlab2tikz
%where you can also make suggestions and rate matlab2tikz.
%
\definecolor{mycolor1}{rgb}{0.00000,0.44700,0.74100}%
\definecolor{mycolor2}{rgb}{0.85000,0.32500,0.09800}%
%
\begin{tikzpicture}

\begin{axis}[%
width=1.935in,
height=3.2in,
at={(0.758in,0.512in)},
scale only axis,
xmin=0,
xmax=150,
xlabel style={font=\color{white!15!black}, align=center},
xlabel={Sample Index\\[1ex](a) Actual},
ymin=0,
ymax=0.7,
axis background/.style={fill=white},
legend style={legend cell align=left, align=left, draw=white!15!black}
]
\addplot [color=mycolor1]
  table[row sep=crcr]{%
1	0.0234657806037261\\
2	0.0272334504034075\\
3	0.0326864300765018\\
4	0.0414541482980318\\
5	0.0586677033458464\\
6	0.117843438362983\\
7	0.159969331461504\\
8	0.174397116945152\\
9	0.616552810702634\\
10	0.0882137642931462\\
11	0.0472681903124796\\
12	0.0327587509505929\\
13	0.0272256709659274\\
14	0.0412344622245766\\
15	0.0186762848129325\\
16	0.0451940046978057\\
17	0.0153724087875252\\
18	0.0239672675363248\\
19	0.0400285717874473\\
20	0.0828333966509162\\
21	0.557624977131952\\
22	0.149414784250917\\
23	0.109138078132702\\
24	0.0381681231028791\\
25	0.032799759178118\\
26	0.191519461959093\\
27	0.0734580287558902\\
28	0.0358315656953253\\
29	0.0179563195827385\\
30	0.0169149242156914\\
31	0.0179798517146348\\
32	0.0199431506445131\\
33	0.0279225394655299\\
34	0.0908594243819801\\
35	0.0439964246924232\\
36	0.330890477505262\\
37	0.037800506563543\\
38	0.020261933748638\\
39	0.0138181229977315\\
40	0.0211497159554441\\
41	0.0112042208144458\\
42	0.00964538908702694\\
43	0.00864780826327016\\
44	0.00787736374270682\\
45	0.00720180133294831\\
46	0.00651453200193765\\
47	0.00565492088107664\\
48	0.0112814316241706\\
49	0.0075966567083061\\
50	0.0102713040739602\\
51	0.00787142060243747\\
52	0.00711780022683946\\
53	0.00668443537322835\\
54	0.00638223966522588\\
55	0.00615487020840034\\
56	0.00598242225636516\\
57	0.00586293416152974\\
58	0.00581626175933958\\
59	0.00593494184987807\\
60	0.00707647204853056\\
61	0.00861312572402681\\
62	0.00240649054353041\\
63	0.0036902508247688\\
64	0.0040125763148678\\
65	0.00408542983582614\\
66	0.00408934467211144\\
67	0.00406760360864643\\
68	0.00403657730104579\\
69	0.00400486664899167\\
70	0.00397913876457006\\
71	0.00396763365360209\\
72	0.00398577860522856\\
73	0.00407460869510253\\
74	0.00440882178496405\\
75	0.00852319154542653\\
76	0.00211982859547221\\
77	0.00279674481878385\\
78	0.00295234209521732\\
79	0.00299967450324673\\
80	0.00300734384297471\\
81	0.00299658049652506\\
82	0.00297609501762909\\
83	0.00295010695632826\\
84	0.00292089738309008\\
85	0.00288979839106794\\
86	0.00285763293534116\\
87	0.00282493110979805\\
88	0.00279204510261472\\
89	0.00275921420187501\\
90	0.00272660345813555\\
91	0.00269432766245323\\
92	0.00266246675038502\\
93	0.00263107599882434\\
94	0.00260019295165966\\
95	0.00256984222925479\\
96	0.00254003893333548\\
97	0.0025107910982644\\
98	0.00248210148178531\\
99	0.00245396889001376\\
100	0.00242638916874131\\
101	0.00239935595223708\\
102	0.00237286123354156\\
103	0.00234689580183488\\
104	0.00232144957979209\\
105	0.00229651188498403\\
106	0.00227207163310714\\
107	0.0022481174963278\\
108	0.00222463802675857\\
109	0.00220162175268604\\
110	0.00217905725339276\\
111	0.0021569332170867\\
112	0.00213523848544673\\
113	0.00211396208753109\\
114	0.00209309326520902\\
115	0.00207262149182518\\
116	0.00205253648545491\\
117	0.00203282821783402\\
118	0.00201348691983224\\
119	0.00199450308416773\\
120	0.00197586746592614\\
121	0.00195757108133911\\
122	0.0019396052051902\\
123	0.0019219613671484\\
124	0.00190463134727109\\
125	0.00188760717087541\\
126	0.00187088110293773\\
127	0.00185444564215264\\
128	0.0018382935147574\\
129	0.00182241766820821\\
130	0.00180681126477794\\
131	0.00179146767513212\\
132	0.00177638047192757\\
133	0.00176154342347035\\
134	0.00174695048746156\\
135	0.0017325958048528\\
136	0.00171847369382931\\
137	0.00170457864393352\\
138	0.0016909053103386\\
139	0.00167744850827835\\
140	0.00166420320763913\\
141	0.00165116452771496\\
142	0.00163832773212761\\
143	0.00162568822391149\\
144	0.00161324154076111\\
145	0.0016009833504405\\
146	0.00158890944635072\\
147	0.00157701574325256\\
148	0.00156529827314105\\
149	0\\
150	0\\
};
\addlegendentry{$\mathbf{h_1}$}

\addplot [color=mycolor2]
  table[row sep=crcr]{%
1	0.019775303219206\\
2	0.0210217764534023\\
3	0.0224372323963497\\
4	0.024058742711813\\
5	0.0259351263737046\\
6	0.0281320174688059\\
7	0.0307398096072034\\
8	0.0338865833958781\\
9	0.0377600935275399\\
10	0.0426472101764649\\
11	0.0490094599986528\\
12	0.0576401827385178\\
13	0.0700288298559564\\
14	0.0893407156606893\\
15	0.123700774100431\\
16	0.202175033398071\\
17	0.564479813098353\\
18	0.690442426104836\\
19	0.212260509632627\\
20	0.126132345068284\\
21	0.100380135781766\\
22	0.0378663697499036\\
23	0.0333199748773482\\
24	0.0149453064107011\\
25	0.10083899339379\\
26	0.161002397050911\\
27	0.0405118251764787\\
28	0.0383644765554957\\
29	0.0341227495803863\\
30	0.0306469105251072\\
31	0.0278570926171954\\
32	0.0255709383506331\\
33	0.0236574529195357\\
34	0.0220274984760589\\
35	0.0206190941704396\\
36	0.0193877726649002\\
37	0.0183006807256663\\
38	0.0173329207549748\\
39	0.016465211935799\\
40	0.0156823459816501\\
41	0.0149721364414517\\
42	0.0143246843629073\\
43	0.0137318527665838\\
44	0.0131868826449622\\
45	0.0126841071808284\\
46	0.0122187355837443\\
47	0.0117866872087634\\
48	0.0113844626077037\\
49	0.0110090421200206\\
50	0.0106578052804057\\
51	0\\
52	0\\
53	0\\
54	0\\
55	0\\
56	0\\
57	0\\
58	0\\
59	0\\
60	0\\
61	0\\
62	0\\
63	0\\
64	0\\
65	0\\
66	0\\
67	0\\
68	0\\
69	0\\
70	0\\
71	0\\
72	0\\
73	0\\
74	0\\
75	0\\
76	0\\
77	0\\
78	0\\
79	0\\
80	0\\
81	0\\
82	0\\
83	0\\
84	0\\
85	0\\
86	0\\
87	0\\
88	0\\
89	0\\
90	0\\
91	0\\
92	0\\
93	0\\
94	0\\
95	0\\
96	0\\
97	0\\
98	0\\
99	0\\
100	0\\
101	0\\
102	0\\
103	0\\
104	0\\
105	0\\
106	0\\
107	0\\
108	0\\
109	0\\
110	0\\
111	0\\
112	0\\
113	0\\
114	0\\
115	0\\
116	0\\
117	0\\
118	0\\
119	0\\
120	0\\
121	0\\
122	0\\
123	0\\
124	0\\
125	0\\
126	0\\
127	0\\
128	0\\
129	0\\
130	0\\
131	0\\
132	0\\
133	0\\
134	0\\
135	0\\
136	0\\
137	0\\
138	0\\
139	0\\
140	0\\
141	0\\
142	0\\
143	0\\
144	0\\
145	0\\
146	0\\
147	0\\
148	0\\
149	0\\
150	0\\
};
\addlegendentry{$\mathbf{h_{2}}$}

\end{axis}

\begin{axis}[%
width=1.935in,
height=3.2in,
at={(3.327in,0.512in)},
scale only axis,
xmin=0,
xmax=150,
xlabel style={font=\color{white!15!black}, align=center},
xlabel={Sample Index\\[1ex](b) Estimated},
ymin=0,
ymax=0.5,
axis background/.style={fill=white},
legend style={legend cell align=left, align=left, draw=white!15!black}
]
\addplot [color=mycolor1]
  table[row sep=crcr]{%
0	0.0107212180365797\\
1	0.00291092434892204\\
2	0.0144574009112094\\
3	0.0142943981571758\\
4	0.0265136415037282\\
5	0.0460369608318589\\
6	0.0923239933606304\\
7	0.0710617048229412\\
8	0.329303252777001\\
9	0.330934139025904\\
10	0.287897018649689\\
11	0.162374105914661\\
12	0.194759485130278\\
13	0.181662256669536\\
14	0.116124425879672\\
15	0.137544436601262\\
16	0.142850592495289\\
17	0.130185045268312\\
18	0.114929154356761\\
19	0.0885064849807518\\
20	0.251025073883587\\
21	0.261450944025588\\
22	0.269497220674374\\
23	0.173188679113973\\
24	0.148847591616731\\
25	0.252427496262738\\
26	0.148799224936363\\
27	0.183410686610201\\
28	0.105013629441492\\
29	0.106968597904743\\
30	0.0625445772536152\\
31	0.0651895564370012\\
32	0.0315953834784694\\
33	0.0785580170996766\\
34	0.0573578752334772\\
35	0.0841383862161177\\
36	0.0791519790870404\\
37	0.118117098927221\\
38	0.0695115512092477\\
39	0.147324118465591\\
40	0.0782076499123936\\
41	0.0400737176449246\\
42	0.0419946882289963\\
43	0.0608336483655706\\
44	0.0486391136105689\\
45	0.0468230039615274\\
46	0.027187797173816\\
47	0.0180323362969149\\
48	0.0162935907062334\\
49	0.0259078176368148\\
50	0.0237968341811621\\
51	0.0251294065961224\\
52	0.00518378851488954\\
53	0.0245121478946326\\
54	0.0344425383158654\\
55	0.0137061602681502\\
56	0.00538188129204923\\
57	0.00340823992848737\\
58	0.00783217609143898\\
59	0.000660958427725304\\
60	0.00290089452430368\\
61	0.00489757239073075\\
62	0.00361126600792451\\
63	0.00412850104362021\\
64	0.00584913230249413\\
65	0.00463540172212075\\
66	0.00390530750124182\\
67	0.00741683006964032\\
68	0.00592007843257397\\
69	0.00592031994642235\\
70	0.00594585517974514\\
71	0.00315199434337224\\
72	0.00266178631984361\\
73	0.00283820380975833\\
74	0.00412799969980505\\
75	0.00107837253402131\\
76	0.00439599545851463\\
77	0.00140794151087204\\
78	0.00581726938650021\\
79	0.00308408406862597\\
80	0.004158963272342\\
81	0.000724386104314811\\
82	0.00279475158179437\\
83	0.000278351972752421\\
84	0.00263991586817133\\
85	0.000566306946378479\\
86	0.00161543998231922\\
87	0.00162673278820656\\
88	0.00175075830153718\\
89	0.000996505189297654\\
90	0.00176836173907465\\
91	0.00107899762661805\\
92	0.00182188210948381\\
93	0.00110519005274351\\
94	0.00188883504116434\\
95	0.00112065532372156\\
96	0.00109029714778723\\
97	0.00140713828127835\\
98	0.000949486661002217\\
99	0.00131957571530906\\
100	0.00101683568549645\\
101	0.00127765787432995\\
102	0.00104964795890375\\
103	0.00112270112835552\\
104	0.00112832770177356\\
105	0.00100219862595558\\
106	0.0011602910179043\\
107	0.000966025083994363\\
108	0.00111285316959626\\
109	0.00101429399896853\\
110	0.00102071572098964\\
111	0.00103170970764138\\
112	0.000997327093346796\\
113	0.000990406332544702\\
114	0.000992807359798085\\
115	0.000943629544080998\\
116	0.00100990882668037\\
117	0.000946782538474963\\
118	0.000944043476648313\\
119	0.000944937807550336\\
120	0.00093698311936335\\
121	0.00096123621858968\\
122	0.000855884569177868\\
123	0.000960372010849804\\
124	0.000839254679847216\\
125	0.000990032951774245\\
126	0.000728191905005652\\
127	0.00106491023274624\\
128	0.00069589325158756\\
129	0.00102914378816448\\
130	0.000654030380944892\\
131	0.00107171351691666\\
132	0.000589967907551572\\
133	0.00106136734893342\\
134	0.00063707426583972\\
135	0.000986572186097025\\
136	0.000679372862425765\\
137	0.000994302939578987\\
138	0.000835594567957368\\
139	0.000826310285550738\\
140	0.000892187184234053\\
141	0.000840084276353419\\
142	0.000678354277904103\\
143	0.000896386458519449\\
144	0.000639632720505788\\
145	0.000911777771458965\\
146	0.000577509499038044\\
147	0.000908638716699371\\
148	0.000162085978106257\\
149	0.000783314647360182\\
};
\addlegendentry{$\mathbf{\hat{h}_{1}}$}

\addplot [color=mycolor2]
  table[row sep=crcr]{%
0	0.00921833442925749\\
1	0.00160148893298089\\
2	0.0108518253325324\\
3	0.00844419712098228\\
4	0.0143303683963198\\
5	0.0113230834751843\\
6	0.0149165719358594\\
7	0.0136193603545777\\
8	0.0179743412569142\\
9	0.0175345980174721\\
10	0.0224124976976139\\
11	0.0240172284932664\\
12	0.0298937451325471\\
13	0.0368835671469863\\
14	0.0510599644529837\\
15	0.0807206653402787\\
16	0.232295507684807\\
17	0.469657574643549\\
18	0.435260715132506\\
19	0.346447442694739\\
20	0.150751693697254\\
21	0.291121154880772\\
22	0.126421964959609\\
23	0.132703179696169\\
24	0.170555015788381\\
25	0.240317959063884\\
26	0.20317092913031\\
27	0.196499274139384\\
28	0.121473581103765\\
29	0.121554082299769\\
30	0.0709599197892712\\
31	0.10117141327167\\
32	0.0774553394298808\\
33	0.0749115621065142\\
34	0.0699651059910531\\
35	0.140109146542221\\
36	0.102273221171636\\
37	0.0360533209836466\\
38	0.0124996888854903\\
39	0.00556746281037384\\
40	0.0146465563634545\\
41	0.00188741719886159\\
42	0.0135893030958289\\
43	0.0012397031996411\\
44	0.0104610375576263\\
45	0.00302496907797284\\
46	0.00774630452193152\\
47	0.00817902665290254\\
48	0.00558301692679969\\
49	0.0112479605264864\\
50	0.00540412260519134\\
51	0.00943849751207322\\
52	0.00444128954887942\\
53	0.00425433341042607\\
54	0.00355591114084912\\
55	0.00343285025629287\\
56	0.00350499781601744\\
57	0.00338952746882116\\
58	0.00377438616942152\\
59	0.00504795178635391\\
60	0.00604397064084548\\
61	0.0055051914085934\\
62	0.00379600855903615\\
63	0.00237424666248711\\
64	0.00206479668971232\\
65	0.00208109058158891\\
66	0.00237783611288655\\
67	0.00249556873079371\\
68	0.00213917479443981\\
69	0.00171224932183999\\
70	0.00169942425368105\\
71	0.00183444556583903\\
72	0.00164878562397453\\
73	0.00158648626373987\\
74	0.00221089246760281\\
75	0.00214136891623022\\
76	0.000918909469068077\\
77	3.59804963957342e-05\\
78	2.43055841503993e-05\\
79	2.86421322971664e-06\\
80	2.45415464162263e-05\\
81	3.27720075317584e-05\\
82	3.7580797343044e-05\\
83	4.19952587124967e-05\\
84	5.44602811281303e-05\\
85	5.38523726595504e-05\\
86	4.00476775834868e-05\\
87	4.0186906859249e-05\\
88	4.8885554810061e-05\\
89	4.94857294299859e-05\\
90	4.69878381192516e-05\\
91	5.45137896773739e-05\\
92	5.39968955597632e-05\\
93	4.08353177830314e-05\\
94	3.45038884525633e-05\\
95	4.26915201996831e-05\\
96	4.35446422602272e-05\\
97	4.30697784862578e-05\\
98	5.72563898635335e-05\\
99	8.07309290306514e-05\\
100	7.82545626745401e-05\\
101	5.54430686097482e-05\\
102	4.20103058724602e-05\\
103	4.00493797173801e-05\\
104	3.37355337849242e-05\\
105	2.73496116792752e-05\\
106	3.46393572207358e-05\\
107	3.8985408375499e-05\\
108	3.39856044238172e-05\\
109	3.82295552069007e-05\\
110	4.76704431083789e-05\\
111	3.05399342106434e-05\\
112	1.11310584749346e-05\\
113	1.13133670496501e-05\\
114	2.46179274414198e-05\\
115	3.64376632812314e-05\\
116	3.30476713351087e-05\\
117	2.78049420407196e-05\\
118	2.63526077962631e-05\\
119	2.73142651239352e-05\\
120	3.34626808372756e-05\\
121	3.45866201959537e-05\\
122	3.73311257270232e-05\\
123	6.4120698013395e-05\\
124	0.00010180589735229\\
125	0.000116278514782916\\
126	0.000122557398741537\\
127	0.000134003438730741\\
128	0.000125101256526571\\
129	9.34367031807117e-05\\
130	7.3888742874692e-05\\
131	2.04650051838779e-05\\
132	0.000116975917696832\\
133	0.000214029445752261\\
134	0.000271189000915097\\
135	0.000336538437637283\\
136	0.000336830391641106\\
137	0.000288537735552534\\
138	0.000278217441868188\\
139	0.000322393537558957\\
140	0.00036671904668164\\
141	0.000331054317904232\\
142	0.000251332118304398\\
143	0.000234653890672017\\
144	0.000269208343065403\\
145	0.000255616055733785\\
146	0.000217075045870491\\
147	0.000294997397208404\\
148	0.000368629931794871\\
149	0.000195053803401481\\
};
\addlegendentry{$\mathbf{\hat{h}_{2}}$}

\end{axis}
\end{tikzpicture}%