% This file was created by matlab2tikz.
%
%The latest updates can be retrieved from
%  http://www.mathworks.com/matlabcentral/fileexchange/22022-matlab2tikz-matlab2tikz
%where you can also make suggestions and rate matlab2tikz.
%
\definecolor{mycolor1}{rgb}{0.00000,0.44700,0.74100}%
\definecolor{mycolor2}{rgb}{0.85000,0.32500,0.09800}%
%
\begin{tikzpicture}

\begin{axis}[%
width=1.935in,
height=3.2in,
at={(0.758in,0.512in)},
scale only axis,
xmin=0,
xmax=150,
xlabel style={font=\color{white!15!black}, align=center},
xlabel={Sample Index\\[1ex](a) Actual},
ymin=0,
ymax=0.7,
axis background/.style={fill=white},
legend style={legend cell align=left, align=left, draw=white!15!black}
]
\addplot [color=mycolor1]
  table[row sep=crcr]{%
1	0.0234657806037261\\
2	0.0272334504034075\\
3	0.0326864300765018\\
4	0.0414541482980318\\
5	0.0586677033458464\\
6	0.117843438362983\\
7	0.159969331461504\\
8	0.174397116945152\\
9	0.616552810702634\\
10	0.0882137642931462\\
11	0.0472681903124796\\
12	0.0327587509505929\\
13	0.0272256709659274\\
14	0.0412344622245766\\
15	0.0186762848129325\\
16	0.0451940046978057\\
17	0.0153724087875252\\
18	0.0239672675363248\\
19	0.0400285717874473\\
20	0.0828333966509162\\
21	0.557624977131952\\
22	0.149414784250917\\
23	0.109138078132702\\
24	0.0381681231028791\\
25	0.032799759178118\\
26	0.191519461959093\\
27	0.0734580287558902\\
28	0.0358315656953253\\
29	0.0179563195827385\\
30	0.0169149242156914\\
31	0.0179798517146348\\
32	0.0199431506445131\\
33	0.0279225394655299\\
34	0.0908594243819801\\
35	0.0439964246924232\\
36	0.330890477505262\\
37	0.037800506563543\\
38	0.020261933748638\\
39	0.0138181229977315\\
40	0.0211497159554441\\
41	0.0112042208144458\\
42	0.00964538908702694\\
43	0.00864780826327016\\
44	0.00787736374270682\\
45	0.00720180133294831\\
46	0.00651453200193765\\
47	0.00565492088107664\\
48	0.0112814316241706\\
49	0.0075966567083061\\
50	0.0102713040739602\\
51	0.00787142060243747\\
52	0.00711780022683946\\
53	0.00668443537322835\\
54	0.00638223966522588\\
55	0.00615487020840034\\
56	0.00598242225636516\\
57	0.00586293416152974\\
58	0.00581626175933958\\
59	0.00593494184987807\\
60	0.00707647204853056\\
61	0.00861312572402681\\
62	0.00240649054353041\\
63	0.0036902508247688\\
64	0.0040125763148678\\
65	0.00408542983582614\\
66	0.00408934467211144\\
67	0.00406760360864643\\
68	0.00403657730104579\\
69	0.00400486664899167\\
70	0.00397913876457006\\
71	0.00396763365360209\\
72	0.00398577860522856\\
73	0.00407460869510253\\
74	0.00440882178496405\\
75	0.00852319154542653\\
76	0.00211982859547221\\
77	0.00279674481878385\\
78	0.00295234209521732\\
79	0.00299967450324673\\
80	0.00300734384297471\\
81	0.00299658049652506\\
82	0.00297609501762909\\
83	0.00295010695632826\\
84	0.00292089738309008\\
85	0.00288979839106794\\
86	0.00285763293534116\\
87	0.00282493110979805\\
88	0.00279204510261472\\
89	0.00275921420187501\\
90	0.00272660345813555\\
91	0.00269432766245323\\
92	0.00266246675038502\\
93	0.00263107599882434\\
94	0.00260019295165966\\
95	0.00256984222925479\\
96	0.00254003893333548\\
97	0.0025107910982644\\
98	0.00248210148178531\\
99	0.00245396889001376\\
100	0.00242638916874131\\
101	0.00239935595223708\\
102	0.00237286123354156\\
103	0.00234689580183488\\
104	0.00232144957979209\\
105	0.00229651188498403\\
106	0.00227207163310714\\
107	0.0022481174963278\\
108	0.00222463802675857\\
109	0.00220162175268604\\
110	0.00217905725339276\\
111	0.0021569332170867\\
112	0.00213523848544673\\
113	0.00211396208753109\\
114	0.00209309326520902\\
115	0.00207262149182518\\
116	0.00205253648545491\\
117	0.00203282821783402\\
118	0.00201348691983224\\
119	0.00199450308416773\\
120	0.00197586746592614\\
121	0.00195757108133911\\
122	0.0019396052051902\\
123	0.0019219613671484\\
124	0.00190463134727109\\
125	0.00188760717087541\\
126	0.00187088110293773\\
127	0.00185444564215264\\
128	0.0018382935147574\\
129	0.00182241766820821\\
130	0.00180681126477794\\
131	0.00179146767513212\\
132	0.00177638047192757\\
133	0.00176154342347035\\
134	0.00174695048746156\\
135	0.0017325958048528\\
136	0.00171847369382931\\
137	0.00170457864393352\\
138	0.0016909053103386\\
139	0.00167744850827835\\
140	0.00166420320763913\\
141	0.00165116452771496\\
142	0.00163832773212761\\
143	0.00162568822391149\\
144	0.00161324154076111\\
145	0.0016009833504405\\
146	0.00158890944635072\\
147	0.00157701574325256\\
148	0.00156529827314105\\
149	0\\
150	0\\
};
\addlegendentry{$\mathbf{h_1}$}

\addplot [color=mycolor2]
  table[row sep=crcr]{%
1	0.019775303219206\\
2	0.0210217764534023\\
3	0.0224372323963497\\
4	0.024058742711813\\
5	0.0259351263737046\\
6	0.0281320174688059\\
7	0.0307398096072034\\
8	0.0338865833958781\\
9	0.0377600935275399\\
10	0.0426472101764649\\
11	0.0490094599986528\\
12	0.0576401827385178\\
13	0.0700288298559564\\
14	0.0893407156606893\\
15	0.123700774100431\\
16	0.202175033398071\\
17	0.564479813098353\\
18	0.690442426104836\\
19	0.212260509632627\\
20	0.126132345068284\\
21	0.100380135781766\\
22	0.0378663697499036\\
23	0.0333199748773482\\
24	0.0149453064107011\\
25	0.10083899339379\\
26	0.161002397050911\\
27	0.0405118251764787\\
28	0.0383644765554957\\
29	0.0341227495803863\\
30	0.0306469105251072\\
31	0.0278570926171954\\
32	0.0255709383506331\\
33	0.0236574529195357\\
34	0.0220274984760589\\
35	0.0206190941704396\\
36	0.0193877726649002\\
37	0.0183006807256663\\
38	0.0173329207549748\\
39	0.016465211935799\\
40	0.0156823459816501\\
41	0.0149721364414517\\
42	0.0143246843629073\\
43	0.0137318527665838\\
44	0.0131868826449622\\
45	0.0126841071808284\\
46	0.0122187355837443\\
47	0.0117866872087634\\
48	0.0113844626077037\\
49	0.0110090421200206\\
50	0.0106578052804057\\
51	0\\
52	0\\
53	0\\
54	0\\
55	0\\
56	0\\
57	0\\
58	0\\
59	0\\
60	0\\
61	0\\
62	0\\
63	0\\
64	0\\
65	0\\
66	0\\
67	0\\
68	0\\
69	0\\
70	0\\
71	0\\
72	0\\
73	0\\
74	0\\
75	0\\
76	0\\
77	0\\
78	0\\
79	0\\
80	0\\
81	0\\
82	0\\
83	0\\
84	0\\
85	0\\
86	0\\
87	0\\
88	0\\
89	0\\
90	0\\
91	0\\
92	0\\
93	0\\
94	0\\
95	0\\
96	0\\
97	0\\
98	0\\
99	0\\
100	0\\
101	0\\
102	0\\
103	0\\
104	0\\
105	0\\
106	0\\
107	0\\
108	0\\
109	0\\
110	0\\
111	0\\
112	0\\
113	0\\
114	0\\
115	0\\
116	0\\
117	0\\
118	0\\
119	0\\
120	0\\
121	0\\
122	0\\
123	0\\
124	0\\
125	0\\
126	0\\
127	0\\
128	0\\
129	0\\
130	0\\
131	0\\
132	0\\
133	0\\
134	0\\
135	0\\
136	0\\
137	0\\
138	0\\
139	0\\
140	0\\
141	0\\
142	0\\
143	0\\
144	0\\
145	0\\
146	0\\
147	0\\
148	0\\
149	0\\
150	0\\
};
\addlegendentry{$\mathbf{h_{2}}$}

\end{axis}

\begin{axis}[%
width=1.935in,
height=3.2in,
at={(3.327in,0.512in)},
scale only axis,
xmin=0,
xmax=300,
xlabel style={font=\color{white!15!black}, align=center},
xlabel={Sample Index\\[1ex](b) Estimated},
ymin=0,
ymax=0.14,
axis background/.style={fill=white},
legend style={legend cell align=left, align=left, draw=white!15!black}
]
\addplot [color=mycolor1]
  table[row sep=crcr]{%
0	0.048430507035421\\
1	0.0404787656280782\\
2	0.037978832805688\\
3	0.0372443318337053\\
4	0.0348039776219945\\
5	0.0128989369197945\\
6	0.0504531161753966\\
7	0.0386719174691723\\
8	0.0395999946659723\\
9	0.0919356211431744\\
10	0.0662002464339135\\
11	0.0272571159434737\\
12	0.0385555984987698\\
13	0.0177418472073006\\
14	0.0644016150290109\\
15	0.117108928617223\\
16	0.0520085599986018\\
17	0.0589267962488938\\
18	0.0476925495248357\\
19	0.0433705207238364\\
20	0.0637858575295126\\
21	0.0381738796335939\\
22	0.0139397267200342\\
23	0.0731036872110714\\
24	0.0620316020696439\\
25	0.0510670732683804\\
26	0.0908185588416304\\
27	0.0437857683093412\\
28	0.0207617687863354\\
29	0.042685336886464\\
30	0.0680905816533861\\
31	0.0570040181776486\\
32	0.0211980643165807\\
33	0.0421499800523771\\
34	0.0457831240454409\\
35	0.0811668902794773\\
36	0.0322053400605855\\
37	0.0881770167676475\\
38	0.0558364996091585\\
39	0.0740083085756757\\
40	0.0222968573984688\\
41	0.0691205469755224\\
42	0.07937605497048\\
43	0.0304378763105712\\
44	0.0694683761279727\\
45	0.0493967261500784\\
46	0.105041133261496\\
47	0.00794725484068502\\
48	0.0605057100001917\\
49	0.0366831121215957\\
50	0.0695813938898588\\
51	0.0557114331767504\\
52	0.0514670339714308\\
53	0.0589511814816885\\
54	0.0169217845049715\\
55	0.0622130820188428\\
56	0.0504217173131936\\
57	0.0352866898368502\\
58	0.0931776188355014\\
59	0.0192366582033249\\
60	0.0545399865875552\\
61	0.130752859592939\\
62	0.0379038888585869\\
63	0.0926235972260413\\
64	0.00548807707407668\\
65	0.0304718579677401\\
66	0.0220679544873511\\
67	0.0888311209905055\\
68	0.0102162594834873\\
69	0.051497846310267\\
70	0.0578981771809152\\
71	0.0430177378370777\\
72	0.0695799225576084\\
73	0.0298961062759101\\
74	0.0441021111524829\\
75	0.0392872088009648\\
76	0.0823967000159117\\
77	0.0117247468855863\\
78	0.0710948683132258\\
79	0.0586226557435095\\
80	0.039067298280826\\
81	0.0409207721709263\\
82	0.0764221122015037\\
83	0.08806957621907\\
84	0.0375642904753162\\
85	0.0499445389651494\\
86	0.0584113517379674\\
87	0.0210284944007219\\
88	0.0707072305523022\\
89	0.109113777545873\\
90	0.082673690293936\\
91	0.0577010063712933\\
92	0.0446713249649624\\
93	0.0222445564024568\\
94	0.0508387643639591\\
95	0.0524436954576957\\
96	0.0387173113717254\\
97	0.046517533981995\\
98	0.0445278388883867\\
99	0.0645543017006726\\
100	0.0823574769772904\\
101	0.0490940695741628\\
102	0.0746090869703157\\
103	0.0501822230727803\\
104	0.116796310892685\\
105	0.0439083785434143\\
106	0.0572736070405309\\
107	0.027526713649986\\
108	0.106287769112143\\
109	0.0522987504222274\\
110	0.0571633388480087\\
111	0.00597768868979509\\
112	0.0246045337531971\\
113	0.0649274299860448\\
114	0.0494475423001315\\
115	0.0665832942784767\\
116	0.0337870940213706\\
117	0.0287401234947639\\
118	0.0705544914141649\\
119	0.0200326380860537\\
120	0.0777284461907273\\
121	0.135759606718922\\
122	0.0213566547250095\\
123	0.0955428898183017\\
124	0.0191618907038292\\
125	0.100496856063968\\
126	0.0274934064753849\\
127	0.0892259341329368\\
128	0.0457070101588238\\
129	0.0129537152398109\\
130	0.0421636161336125\\
131	0.0430799405833703\\
132	0.0384019158346168\\
133	0.053785949251179\\
134	0.018661271940684\\
135	0.00163465846959568\\
136	0.0685136161209595\\
137	0.037260713880454\\
138	0.0564454924830882\\
139	0.0702744248868001\\
140	0.0432224280172614\\
141	0.0298518184218057\\
142	0.0392349724525868\\
143	0.0307923152611977\\
144	0.0896112304276194\\
145	0.0862757123679686\\
146	0.0500066824895237\\
147	0.0869244262848884\\
148	0.0544012296511319\\
149	0.022766794142755\\
150	0.0630668796243543\\
151	0.0932983143562148\\
152	0.0669634587849819\\
153	0.0755568978149435\\
154	0.00729952076675918\\
155	0.0311551037132534\\
156	0.0286077675040773\\
157	0.00266405218165895\\
158	0.038533618492687\\
159	0.0368170069707736\\
160	0.058330343609927\\
161	0.0158807473987241\\
162	0.0561545791947868\\
163	0.0258041409662108\\
164	0.0707303473690229\\
165	0.0408328693842363\\
166	0.0686141508546966\\
167	0.0570906852948625\\
168	0.0644224882538477\\
169	0.128997119014385\\
170	0.048580031900787\\
171	0.0724271402489541\\
172	0.123162437319696\\
173	0.0863007111425789\\
174	0.0231709648641916\\
175	0.0268483905080778\\
176	0.00137359478330848\\
177	0.0849093295324082\\
178	0.0330566049668547\\
179	0.0168795142195488\\
180	0.00243770009485139\\
181	0.0395656762279648\\
182	0.0292609387434872\\
183	0.0385261633579865\\
184	0.0670196032091493\\
185	0.0398435153680817\\
186	0.0699522140057047\\
187	0.115442815851584\\
188	0.040172334117077\\
189	0.0537000209026583\\
190	0.048045727857214\\
191	0.0517498932948271\\
192	0.0374486192196183\\
193	0.0599700714994949\\
194	0.0814387165834845\\
195	0.0533457791344805\\
196	0.0193789510749368\\
197	0.0269630908760681\\
198	0.0545381683850278\\
199	0.126422128469539\\
200	0.0554567357197264\\
201	0.0616200096099617\\
202	0.00660944863237338\\
203	0.0234748322451374\\
204	0.0760214812006466\\
205	0.0654043816142621\\
206	0.0489049791674011\\
207	0.0262068884366774\\
208	0.0964583685049318\\
209	0.0614701894877995\\
210	0.0593942169615525\\
211	0.00986829005495386\\
212	0.0141020407181538\\
213	0.0723559366118426\\
214	0.0234245812459899\\
215	0.0432439500110633\\
216	0.0336038573178728\\
217	0.0626481456115708\\
218	0.0787664048967276\\
219	0.0535572079808707\\
220	0.0422427716072086\\
221	0.0163242729091003\\
222	0.0516298931670859\\
223	0.0301049855611754\\
224	0.0158998711129471\\
225	0.0709521112324765\\
226	0.0598654833450376\\
227	0.0431359368522841\\
228	0.0247023222395735\\
229	0.0144663984711098\\
230	0.0483046447966628\\
231	0.0938380331316504\\
232	0.0126136824216898\\
233	0.0615290341155571\\
234	0.071209015800043\\
235	0.0752723496744353\\
236	0.0279866272414255\\
237	0.0250760258848685\\
238	0.0274103650182385\\
239	0.0807755544133339\\
240	0.0639054291221353\\
241	0.0599606728025854\\
242	0.0309415168740247\\
243	0.0458091569932383\\
244	0.0325091739186818\\
245	0.00269103832564713\\
246	0.0147369198158332\\
247	0.0689998314610095\\
248	0.0311586448022636\\
249	0.0301411273064946\\
250	0.0588213290343751\\
251	0.0976931718632145\\
252	0.110535057848697\\
253	0.0265866089008008\\
254	0.0514192480224557\\
255	0.113858681309994\\
256	0.0686835442407974\\
257	0.0526598658932063\\
258	0.0582774148977452\\
259	0.0923667254592674\\
260	0.0987439469237955\\
261	0.0429643185953921\\
262	0.00864147302782563\\
263	0.0647806945397865\\
264	0.0924848419388462\\
265	0.0273721002432776\\
266	0.045320126987998\\
267	0.0376350804488217\\
268	0.022526727354652\\
269	0.0822175816669319\\
270	0.0303805938428128\\
271	0.0486425068539377\\
272	0.074788003747583\\
273	0.0508661534100155\\
274	0.0533618408453204\\
275	0.0646488616213517\\
276	0.03203030709781\\
277	0.0874749105343822\\
278	0.0134602376264576\\
279	0.0351514053730541\\
280	0.0290683669457431\\
281	0.00232022156519821\\
282	0.0126919626169825\\
283	0.0778924047149\\
284	0.0553728255142503\\
285	0.0400790211872387\\
286	0.00936803060777422\\
287	0.120840989899062\\
288	0.0560926876813947\\
289	0.0463818465379047\\
290	0.0454774529700497\\
291	0.0360818546374189\\
292	0.0274541859900002\\
293	0.0575176077435009\\
294	0.0321747529132515\\
295	0.0158437625117307\\
296	0.020396576563213\\
297	0.0347285310078619\\
298	0.0491883485591476\\
299	0.0181678619327058\\
};
\addlegendentry{$\mathbf{\hat{h}_{1}}$}

\addplot [color=mycolor2]
  table[row sep=crcr]{%
0	0.0434247504117914\\
1	0.0123596413173394\\
2	0.0769789508387182\\
3	0.0473446133052903\\
4	0.0119751359552018\\
5	0.0299388730986924\\
6	0.0254805514273714\\
7	0.0588947878638828\\
8	0.0407132873626137\\
9	0.0167458897315995\\
10	0.119284399139809\\
11	0.032872098025844\\
12	0.0716271626527812\\
13	0.0182955553926569\\
14	0.0848627584710419\\
15	0.0421328968069624\\
16	0.0720458730368133\\
17	0.0295838739893523\\
18	0.0316123882521598\\
19	0.0666333456267823\\
20	0.0746541656540076\\
21	0.08145764085553\\
22	0.0189097937479733\\
23	0.0189345222024021\\
24	0.0802106117910522\\
25	0.0353685103901887\\
26	0.018552092501108\\
27	0.0688190165448839\\
28	0.0860947479483156\\
29	0.0653053938693414\\
30	0.0540033002736585\\
31	0.0529550921570993\\
32	0.0651888870209748\\
33	0.096166212728628\\
34	0.032872540362172\\
35	0.0416157281129289\\
36	0.0380848188876437\\
37	0.110082565564164\\
38	0.0430524387373905\\
39	0.0723303178159835\\
40	0.0299253011316394\\
41	0.0593356852651767\\
42	0.0101299351043978\\
43	0.00974851217487353\\
44	0.0263993254247694\\
45	0.0366361911296607\\
46	0.0492020319911059\\
47	0.0194685776755029\\
48	0.0288917447947969\\
49	0.0188649516751224\\
50	0.0282336969920379\\
51	0.0128056034210483\\
52	0.0263697077834646\\
53	0.068700818132935\\
54	0.0637493873120035\\
55	0.0307497800826551\\
56	0.0565430368153667\\
57	0.0577516334815164\\
58	0.0754671556853101\\
59	0.044478853147136\\
60	0.0628313690551729\\
61	0.0733141668729763\\
62	0.0585955113138241\\
63	0.00473084649802533\\
64	0.062074311684004\\
65	0.0602599295656544\\
66	0.0469821217105409\\
67	0.0372705177385574\\
68	0.0756388869631888\\
69	0.0277556811509153\\
70	0.025045463298013\\
71	0.112517762447105\\
72	0.0223450904642436\\
73	0.0622566464061853\\
74	0.0235846695136597\\
75	0.03544071396305\\
76	0.0723387414715397\\
77	0.0358413229713555\\
78	0.00887762576699471\\
79	0.0747875573181781\\
80	0.0983399634412745\\
81	0.0469427777007302\\
82	0.103339403051028\\
83	0.094978823283215\\
84	0.0523530060319039\\
85	0.0355970580130331\\
86	0.0684370962483874\\
87	0.0181369542734935\\
88	0.033945176054674\\
89	0.024853282320314\\
90	0.0607407630417154\\
91	0.107440974798461\\
92	0.0217187035240105\\
93	0.0495364720327907\\
94	0.0419289984035877\\
95	0.016421691326254\\
96	0.0889697887115671\\
97	0.0330853154377656\\
98	0.0833304404548382\\
99	0.0757126482315377\\
100	0.0104204888520989\\
101	0.0609706118911803\\
102	0.0261884687759886\\
103	0.0175641427647507\\
104	0.0845345585407209\\
105	0.0978741519973676\\
106	0.0359673888049057\\
107	0.0239523223231959\\
108	0.0733034562708072\\
109	0.0963403197026944\\
110	0.0767075317548387\\
111	0.0108231206793598\\
112	0.0806585751815628\\
113	0.061285796282234\\
114	0.0681137924114602\\
115	0.0533611161758371\\
116	0.0793233293297739\\
117	0.0731307487110831\\
118	0.0391293803282398\\
119	0.0609600619929363\\
120	0.0351114790734592\\
121	0.0761370675510946\\
122	0.0613900846615732\\
123	0.130131950013138\\
124	0.0487044262701331\\
125	0.0592102002053638\\
126	0.049912099206488\\
127	0.0497025864954399\\
128	0.0752806577657021\\
129	0.0556837704958027\\
130	0.0372595057484017\\
131	0.0605960917783\\
132	0.0496157140667062\\
133	0.0310389890885957\\
134	0.0373329693983417\\
135	0.0404147968425677\\
136	0.0932495292340349\\
137	0.0613595823739164\\
138	0.0532855117023966\\
139	0.0603040792590142\\
140	0.0729239120964186\\
141	0.0852590861551262\\
142	0.0844139785664303\\
143	0.0413984599282318\\
144	0.0906102099302515\\
145	0.0716931631582984\\
146	0.0266239558872307\\
147	0.0645180887009627\\
148	0.0782000364459489\\
149	0.0650668214927857\\
150	0.057293521515003\\
151	0.0340557453083476\\
152	0.0600320145893679\\
153	0.0354146956452782\\
154	0.0415272280924052\\
155	0.0473291239163192\\
156	0.0533376962623371\\
157	0.057951928165677\\
158	0.0705241165732363\\
159	0.0968936682624687\\
160	0.0155754737604929\\
161	0.0896680500627764\\
162	0.0513859156931826\\
163	0.0360312264005129\\
164	0.0193094958180564\\
165	0.0939540487960913\\
166	0.0333361233549078\\
167	0.0473807851192231\\
168	0.0584555216786255\\
169	0.0768368901169059\\
170	0.0526921988776298\\
171	0.0109155476471493\\
172	0.0406932838468814\\
173	0.0271953206949103\\
174	0.0346498834345621\\
175	0.0568931237943056\\
176	0.0534817542611665\\
177	0.0277616448322195\\
178	0.0608244102223414\\
179	0.0769444119218873\\
180	0.0456475706701587\\
181	0.0214258838754163\\
182	0.0196653373671398\\
183	0.0837984325734904\\
184	0.0797443136551549\\
185	0.0845136753170667\\
186	0.0741970304935664\\
187	0.0349515131109026\\
188	0.0562163346303563\\
189	0.0354232537538306\\
190	0.0564423689631443\\
191	0.0157891122664797\\
192	0.0390580496497173\\
193	0.0719124301388944\\
194	0.00486339787557952\\
195	0.0860929471430849\\
196	0.0623828913338109\\
197	0.0359070771382036\\
198	0.038818426286248\\
199	0.0892238311029791\\
200	0.0873221680491735\\
201	0.0203383221532461\\
202	0.0381735485731307\\
203	0.0736053844013111\\
204	0.0384873829468622\\
205	0.0546754784632032\\
206	0.0355221718365196\\
207	0.0768782643430042\\
208	0.0852554398676145\\
209	0.0219635283138105\\
210	0.0496859333432543\\
211	0.0242965922910886\\
212	0.0484531578624496\\
213	0.0860774372668231\\
214	0.0844688668041929\\
215	0.0415118046303654\\
216	0.0583979350573437\\
217	0.0476205885792251\\
218	0.0657621598515659\\
219	0.0428133657112097\\
220	0.0920875470886222\\
221	0.10458019658669\\
222	0.00677382234941559\\
223	0.112731162166006\\
224	0.00600505939014036\\
225	0.042722847957087\\
226	0.0576424959768512\\
227	0.0627232400191943\\
228	0.0156350658190483\\
229	0.0335523915297062\\
230	0.0296614531806227\\
231	0.0717101771734064\\
232	0.0794399928224424\\
233	0.0611349469855249\\
234	0.0190030516475673\\
235	0.0220064566213457\\
236	0.0588349772018787\\
237	0.0734784509905\\
238	0.0223520328682124\\
239	0.0983932612587801\\
240	0.015366570506167\\
241	0.0415701969225309\\
242	0.123444374105958\\
243	0.0188274507970224\\
244	0.0556910773110714\\
245	0.0228010383463399\\
246	0.0349394259065528\\
247	0.0286906184469647\\
248	0.107836129307753\\
249	0.0185330826926171\\
250	0.081347279760988\\
251	0.0795666494893826\\
252	0.0255947546725309\\
253	0.0346060611526871\\
254	0.0429251112799797\\
255	0.0428710404704161\\
256	0.0477593813573436\\
257	0.0252129357041464\\
258	0.0753007044890974\\
259	0.0758976564299458\\
260	0.00582069419897066\\
261	0.0452047136180762\\
262	0.0407087913505281\\
263	0.0554120792453895\\
264	0.070473808866685\\
265	0.017565306098675\\
266	0.0732173916251108\\
267	0.0272641365386161\\
268	0.0246669413761027\\
269	0.0247047735915273\\
270	0.0717715814972281\\
271	0.0298005238333871\\
272	0.010796602188919\\
273	0.0552503389622185\\
274	0.11699388545435\\
275	0.035664657242086\\
276	0.0380807878723241\\
277	0.0276195098402836\\
278	0.128454091805524\\
279	0.0283575686606361\\
280	0.0166094081950404\\
281	0.0328343689395752\\
282	0.0296457970534658\\
283	0.0922995888587078\\
284	0.0124078363524943\\
285	0.0172180553312953\\
286	0.0114198429833143\\
287	0.0193097260746322\\
288	0.0189157359529131\\
289	0.0330573055283883\\
290	0.0481639553724317\\
291	0.0253325809348832\\
292	0.0108397783102999\\
293	0.0729067960633947\\
294	0.0516559232562998\\
295	0.0283462313207862\\
296	0.0630931526969315\\
297	0.0186006174706584\\
298	0.0679492198509166\\
299	0.056370214454556\\
};
\addlegendentry{$\mathbf{\hat{h}_{2}}$}

\end{axis}
\end{tikzpicture}%