% This file was created by matlab2tikz.
%
%The latest updates can be retrieved from
%  http://www.mathworks.com/matlabcentral/fileexchange/22022-matlab2tikz-matlab2tikz
%where you can also make suggestions and rate matlab2tikz.
%
\definecolor{mycolor1}{rgb}{0.00000,0.44700,0.74100}%
\definecolor{mycolor2}{rgb}{0.85000,0.32500,0.09800}%
%
\begin{tikzpicture}

\begin{axis}[%
width=1.935in,
height=3.2in,
at={(0.758in,0.512in)},
scale only axis,
xmin=0,
xmax=150,
xlabel style={font=\color{white!15!black}, align=center},
xlabel={Sample Index\\[1ex](a) Actual},
ymin=0,
ymax=0.7,
axis background/.style={fill=white},
legend style={legend cell align=left, align=left, draw=white!15!black}
]
\addplot [color=mycolor1]
  table[row sep=crcr]{%
1	0.0234657806037261\\
2	0.0272334504034075\\
3	0.0326864300765018\\
4	0.0414541482980318\\
5	0.0586677033458464\\
6	0.117843438362983\\
7	0.159969331461504\\
8	0.174397116945152\\
9	0.616552810702634\\
10	0.0882137642931462\\
11	0.0472681903124796\\
12	0.0327587509505929\\
13	0.0272256709659274\\
14	0.0412344622245766\\
15	0.0186762848129325\\
16	0.0451940046978057\\
17	0.0153724087875252\\
18	0.0239672675363248\\
19	0.0400285717874473\\
20	0.0828333966509162\\
21	0.557624977131952\\
22	0.149414784250917\\
23	0.109138078132702\\
24	0.0381681231028791\\
25	0.032799759178118\\
26	0.191519461959093\\
27	0.0734580287558902\\
28	0.0358315656953253\\
29	0.0179563195827385\\
30	0.0169149242156914\\
31	0.0179798517146348\\
32	0.0199431506445131\\
33	0.0279225394655299\\
34	0.0908594243819801\\
35	0.0439964246924232\\
36	0.330890477505262\\
37	0.037800506563543\\
38	0.020261933748638\\
39	0.0138181229977315\\
40	0.0211497159554441\\
41	0.0112042208144458\\
42	0.00964538908702694\\
43	0.00864780826327016\\
44	0.00787736374270682\\
45	0.00720180133294831\\
46	0.00651453200193765\\
47	0.00565492088107664\\
48	0.0112814316241706\\
49	0.0075966567083061\\
50	0.0102713040739602\\
51	0.00787142060243747\\
52	0.00711780022683946\\
53	0.00668443537322835\\
54	0.00638223966522588\\
55	0.00615487020840034\\
56	0.00598242225636516\\
57	0.00586293416152974\\
58	0.00581626175933958\\
59	0.00593494184987807\\
60	0.00707647204853056\\
61	0.00861312572402681\\
62	0.00240649054353041\\
63	0.0036902508247688\\
64	0.0040125763148678\\
65	0.00408542983582614\\
66	0.00408934467211144\\
67	0.00406760360864643\\
68	0.00403657730104579\\
69	0.00400486664899167\\
70	0.00397913876457006\\
71	0.00396763365360209\\
72	0.00398577860522856\\
73	0.00407460869510253\\
74	0.00440882178496405\\
75	0.00852319154542653\\
76	0.00211982859547221\\
77	0.00279674481878385\\
78	0.00295234209521732\\
79	0.00299967450324673\\
80	0.00300734384297471\\
81	0.00299658049652506\\
82	0.00297609501762909\\
83	0.00295010695632826\\
84	0.00292089738309008\\
85	0.00288979839106794\\
86	0.00285763293534116\\
87	0.00282493110979805\\
88	0.00279204510261472\\
89	0.00275921420187501\\
90	0.00272660345813555\\
91	0.00269432766245323\\
92	0.00266246675038502\\
93	0.00263107599882434\\
94	0.00260019295165966\\
95	0.00256984222925479\\
96	0.00254003893333548\\
97	0.0025107910982644\\
98	0.00248210148178531\\
99	0.00245396889001376\\
100	0.00242638916874131\\
101	0.00239935595223708\\
102	0.00237286123354156\\
103	0.00234689580183488\\
104	0.00232144957979209\\
105	0.00229651188498403\\
106	0.00227207163310714\\
107	0.0022481174963278\\
108	0.00222463802675857\\
109	0.00220162175268604\\
110	0.00217905725339276\\
111	0.0021569332170867\\
112	0.00213523848544673\\
113	0.00211396208753109\\
114	0.00209309326520902\\
115	0.00207262149182518\\
116	0.00205253648545491\\
117	0.00203282821783402\\
118	0.00201348691983224\\
119	0.00199450308416773\\
120	0.00197586746592614\\
121	0.00195757108133911\\
122	0.0019396052051902\\
123	0.0019219613671484\\
124	0.00190463134727109\\
125	0.00188760717087541\\
126	0.00187088110293773\\
127	0.00185444564215264\\
128	0.0018382935147574\\
129	0.00182241766820821\\
130	0.00180681126477794\\
131	0.00179146767513212\\
132	0.00177638047192757\\
133	0.00176154342347035\\
134	0.00174695048746156\\
135	0.0017325958048528\\
136	0.00171847369382931\\
137	0.00170457864393352\\
138	0.0016909053103386\\
139	0.00167744850827835\\
140	0.00166420320763913\\
141	0.00165116452771496\\
142	0.00163832773212761\\
143	0.00162568822391149\\
144	0.00161324154076111\\
145	0.0016009833504405\\
146	0.00158890944635072\\
147	0.00157701574325256\\
148	0.00156529827314105\\
149	0\\
150	0\\
};
\addlegendentry{$\mathbf{h_1}$}

\addplot [color=mycolor2]
  table[row sep=crcr]{%
1	0.019775303219206\\
2	0.0210217764534023\\
3	0.0224372323963497\\
4	0.024058742711813\\
5	0.0259351263737046\\
6	0.0281320174688059\\
7	0.0307398096072034\\
8	0.0338865833958781\\
9	0.0377600935275399\\
10	0.0426472101764649\\
11	0.0490094599986528\\
12	0.0576401827385178\\
13	0.0700288298559564\\
14	0.0893407156606893\\
15	0.123700774100431\\
16	0.202175033398071\\
17	0.564479813098353\\
18	0.690442426104836\\
19	0.212260509632627\\
20	0.126132345068284\\
21	0.100380135781766\\
22	0.0378663697499036\\
23	0.0333199748773482\\
24	0.0149453064107011\\
25	0.10083899339379\\
26	0.161002397050911\\
27	0.0405118251764787\\
28	0.0383644765554957\\
29	0.0341227495803863\\
30	0.0306469105251072\\
31	0.0278570926171954\\
32	0.0255709383506331\\
33	0.0236574529195357\\
34	0.0220274984760589\\
35	0.0206190941704396\\
36	0.0193877726649002\\
37	0.0183006807256663\\
38	0.0173329207549748\\
39	0.016465211935799\\
40	0.0156823459816501\\
41	0.0149721364414517\\
42	0.0143246843629073\\
43	0.0137318527665838\\
44	0.0131868826449622\\
45	0.0126841071808284\\
46	0.0122187355837443\\
47	0.0117866872087634\\
48	0.0113844626077037\\
49	0.0110090421200206\\
50	0.0106578052804057\\
51	0\\
52	0\\
53	0\\
54	0\\
55	0\\
56	0\\
57	0\\
58	0\\
59	0\\
60	0\\
61	0\\
62	0\\
63	0\\
64	0\\
65	0\\
66	0\\
67	0\\
68	0\\
69	0\\
70	0\\
71	0\\
72	0\\
73	0\\
74	0\\
75	0\\
76	0\\
77	0\\
78	0\\
79	0\\
80	0\\
81	0\\
82	0\\
83	0\\
84	0\\
85	0\\
86	0\\
87	0\\
88	0\\
89	0\\
90	0\\
91	0\\
92	0\\
93	0\\
94	0\\
95	0\\
96	0\\
97	0\\
98	0\\
99	0\\
100	0\\
101	0\\
102	0\\
103	0\\
104	0\\
105	0\\
106	0\\
107	0\\
108	0\\
109	0\\
110	0\\
111	0\\
112	0\\
113	0\\
114	0\\
115	0\\
116	0\\
117	0\\
118	0\\
119	0\\
120	0\\
121	0\\
122	0\\
123	0\\
124	0\\
125	0\\
126	0\\
127	0\\
128	0\\
129	0\\
130	0\\
131	0\\
132	0\\
133	0\\
134	0\\
135	0\\
136	0\\
137	0\\
138	0\\
139	0\\
140	0\\
141	0\\
142	0\\
143	0\\
144	0\\
145	0\\
146	0\\
147	0\\
148	0\\
149	0\\
150	0\\
};
\addlegendentry{$\mathbf{h_{2}}$}

\end{axis}

\begin{axis}[%
width=1.935in,
height=3.2in,
at={(3.327in,0.512in)},
scale only axis,
xmin=0,
xmax=150,
xlabel style={font=\color{white!15!black}, align=center},
xlabel={Sample Index\\[1ex](b) Estimated},
ymin=0,
ymax=0.8,
axis background/.style={fill=white},
legend style={legend cell align=left, align=left, draw=white!15!black}
]
\addplot [color=mycolor1]
  table[row sep=crcr]{%
0	0.00406999035722749\\
1	0.00974775476595756\\
2	0.0191628280836746\\
3	0.0239644917123526\\
4	0.0424606634826128\\
5	0.0475657711480776\\
6	0.0594205437967097\\
7	0.0289374417172248\\
8	0.0599622232597628\\
9	0.105520285500423\\
10	0.169172321675825\\
11	0.0734389327681597\\
12	0.388262677907395\\
13	0.395318408945654\\
14	0.0543086037692126\\
15	0.0118264911320481\\
16	0.0899649484321379\\
17	0.0787397818050247\\
18	0.0729201065178626\\
19	0.0564877335005014\\
20	0.159535289276665\\
21	0.143748811470339\\
22	0.174648056882822\\
23	0.103207437713072\\
24	0.250333381005852\\
25	0.382533702465681\\
26	0.043102223168434\\
27	0.1052932524418\\
28	0.149070661165424\\
29	0.14282254063356\\
30	0.0577710443632183\\
31	0.0866073427395083\\
32	0.0888142144866769\\
33	0.0763007225255336\\
34	0.0197011694404472\\
35	0.0698090565304478\\
36	0.0426928478660123\\
37	0.0235446434188366\\
38	0.131391473626343\\
39	0.337679064105929\\
40	0.250237123115349\\
41	0.0387109628218413\\
42	0.0470906214027592\\
43	0.0588596462732924\\
44	0.0572436111872727\\
45	0.00687912588797885\\
46	0.0542210523753312\\
47	0.012189605278331\\
48	0.0401566977188928\\
49	0.00746247042996474\\
50	0.0405445660515767\\
51	0.00832838251966555\\
52	0.062702307038723\\
53	0.021933614773741\\
54	0.0768400315840568\\
55	0.0405349323287344\\
56	0.0135149683120835\\
57	0.00142467200715575\\
58	0.00422922651293288\\
59	0.0110611847099126\\
60	0.0164250562552868\\
61	0.00720575405853476\\
62	0.0120606270569994\\
63	0.0134814835868337\\
64	0.0146549701316331\\
65	0.00697945298121543\\
66	0.00538202276856572\\
67	0.00934972624428419\\
68	0.00316870387812005\\
69	0.00183976341080031\\
70	0.00827024273634928\\
71	0.00226954632192662\\
72	0.00537538662464108\\
73	0.00285644685085105\\
74	0.00688015506880547\\
75	0.001800729940924\\
76	0.00565566359487576\\
77	0.00445231803123716\\
78	0.00778744265744377\\
79	0.00644635737240363\\
80	0.0058531982568435\\
81	0.00339508437424757\\
82	0.00276979939781573\\
83	0.00212030443467311\\
84	0.00266203626860213\\
85	0.00270646520275014\\
86	0.00237942139470097\\
87	0.00305559634260161\\
88	0.00202760756316259\\
89	0.00262460962026316\\
90	0.00284792279829705\\
91	0.00280016922976778\\
92	0.00142146460698346\\
93	0.00357591226926051\\
94	0.00319756856466245\\
95	0.00227566619422734\\
96	0.00223282833822429\\
97	0.00222121914493156\\
98	0.00220730918501373\\
99	0.00216893750178437\\
100	0.00216440475050088\\
101	0.00187157121159104\\
102	0.00241769015253364\\
103	0.00192513881237707\\
104	0.00192148577894345\\
105	0.00204949009960873\\
106	0.00207997919970444\\
107	0.00201824473525348\\
108	0.00181074166894861\\
109	0.00211776483199907\\
110	0.00170413454407526\\
111	0.00204732428027943\\
112	0.00169405897658599\\
113	0.0020638839500359\\
114	0.00160548585854172\\
115	0.00193360617587338\\
116	0.00177092079868967\\
117	0.00184603645507713\\
118	0.00163852436959362\\
119	0.00183775246504454\\
120	0.00172164441513389\\
121	0.00180905958779225\\
122	0.00151044893145529\\
123	0.00191029699215614\\
124	0.00150909623050631\\
125	0.00181076264865537\\
126	0.00141022665987291\\
127	0.00181298548836721\\
128	0.00153219590898622\\
129	0.00162274594658967\\
130	0.00153586498609542\\
131	0.00152938424694946\\
132	0.00175723063247264\\
133	0.00166585174086368\\
134	0.00133890503660167\\
135	0.00140815890930729\\
136	0.00173742132102654\\
137	0.00146598428697321\\
138	0.00147577936903203\\
139	0.00126193940407053\\
140	0.00177337201916398\\
141	0.00132156379472609\\
142	0.00147265166423539\\
143	0.00139596150377967\\
144	0.00147805854568699\\
145	0.00131282770821861\\
146	0.0013899689873634\\
147	0.0014109200665267\\
148	0.00132568832792465\\
149	0.000714298160273562\\
};
\addlegendentry{$\mathbf{\hat{h}_{1}}$}

\addplot [color=mycolor2]
  table[row sep=crcr]{%
0	0.00353401016847164\\
1	0.00816468175398101\\
2	0.0153783741279959\\
3	0.0172907878606237\\
4	0.0288023251200449\\
5	0.0200730486435608\\
6	0.0231890542395109\\
7	0.0262358233315554\\
8	0.0303142837551412\\
9	0.0324718571338822\\
10	0.0359851325960338\\
11	0.0417049126529724\\
12	0.0494372416648438\\
13	0.0590368499472308\\
14	0.074590290765842\\
15	0.103969078683246\\
16	0.197538452637901\\
17	0.163777858638673\\
18	0.0670777279608279\\
19	0.234544858286303\\
20	0.161268388576323\\
21	0.73739256596372\\
22	0.274358646421377\\
23	0.0542446430944414\\
24	0.0318438114840447\\
25	0.0675164306968018\\
26	0.0153671584735849\\
27	0.121260796602054\\
28	0.151375299229449\\
29	0.191469600474364\\
30	0.0481281481862047\\
31	0.0633266794344291\\
32	0.107064715119207\\
33	0.0292922286208185\\
34	0.102336428606952\\
35	0.166647533781761\\
36	0.2259328526756\\
37	0.0738755081399271\\
38	0.0194609252931024\\
39	0.0177900182536031\\
40	0.0117521814865231\\
41	0.011352844478172\\
42	0.0169774972601473\\
43	0.0145073134934799\\
44	0.0101027194530036\\
45	0.0164731877107822\\
46	0.00678616133196004\\
47	0.0142306969283249\\
48	0.00670118782682828\\
49	0.0202296717887907\\
50	0.00527891387880504\\
51	0.00449423370593044\\
52	0.0012038717698605\\
53	0.00172630046627982\\
54	0.00294880191391056\\
55	0.0033918697295647\\
56	0.00403961817034838\\
57	0.00258876539708741\\
58	0.00160988517047434\\
59	0.00246041077830265\\
60	0.00689415299377668\\
61	0.0073644434215472\\
62	0.00361293562591254\\
63	0.000510364877868941\\
64	0.000564365901847065\\
65	0.00102006002034206\\
66	0.0012076194785265\\
67	0.00171074685995707\\
68	0.00265031526867668\\
69	0.00222704656945154\\
70	0.000642805027837008\\
71	0.00189791285361252\\
72	0.00127737235088342\\
73	0.000315112157425277\\
74	0.00204978551155314\\
75	0.00405504297736881\\
76	0.0021048646920663\\
77	9.64290685138895e-05\\
78	3.0076573809894e-05\\
79	0.000312360846880382\\
80	0.000197036823819136\\
81	7.23375010713891e-05\\
82	3.08363621859335e-05\\
83	4.12974343857282e-05\\
84	0.000166263437245532\\
85	0.000183820612145351\\
86	0.000244066860632335\\
87	0.000243353353105624\\
88	0.000226296649069829\\
89	0.000207107773618848\\
90	0.000134453257825564\\
91	0.000139845205665583\\
92	6.12416571548762e-05\\
93	0.000146326382429853\\
94	0.000200073007777619\\
95	8.84662444660004e-05\\
96	0.000198887407523194\\
97	0.000174433462900242\\
98	1.87581785926766e-05\\
99	9.02399583494778e-05\\
100	6.68911877852916e-05\\
101	7.62864806699304e-05\\
102	4.59872399005108e-05\\
103	0.000240195522065558\\
104	0.000278369916439909\\
105	0.000237578214517304\\
106	0.000189269847267875\\
107	0.000146073674365633\\
108	5.39439956273967e-05\\
109	9.12034747920767e-05\\
110	0.000102239863168734\\
111	0.000131860718244868\\
112	3.62978769062889e-05\\
113	0.000100225279056737\\
114	9.45054277685884e-05\\
115	4.90411257015654e-05\\
116	0.000134246159342007\\
117	0.000119692437620882\\
118	7.51572142227016e-05\\
119	8.9644095334057e-05\\
120	0.000146926139255258\\
121	0.000183088331896947\\
122	0.000247030418409631\\
123	0.000168322281511256\\
124	6.10759767760298e-05\\
125	9.35240529122671e-05\\
126	0.000211132961169479\\
127	0.000204034615039278\\
128	4.62384634692525e-05\\
129	6.95279978062008e-05\\
130	0.000209289465420959\\
131	6.23230989742392e-05\\
132	6.32335513068468e-05\\
133	0.000308435857088688\\
134	0.000504337292291878\\
135	0.000238043453081282\\
136	0.000138794770951157\\
137	9.91534578744878e-05\\
138	0.000146677428628664\\
139	0.000118757009112178\\
140	0.000209897353359357\\
141	0.000363047749574779\\
142	0.000426738693286688\\
143	7.60874382907088e-05\\
144	0.000277680908665412\\
145	0.000308834225614474\\
146	0.000112158132158501\\
147	0.000176585730661642\\
148	0.000659790307698818\\
149	0.000424553828557462\\
};
\addlegendentry{$\mathbf{\hat{h}_{2}}$}

\end{axis}
\end{tikzpicture}%