% This file was created by matlab2tikz.
%
%The latest updates can be retrieved from
%  http://www.mathworks.com/matlabcentral/fileexchange/22022-matlab2tikz-matlab2tikz
%where you can also make suggestions and rate matlab2tikz.
%
\definecolor{mycolor1}{rgb}{0.00000,0.44700,0.74100}%
\definecolor{mycolor2}{rgb}{0.85000,0.32500,0.09800}%
%
\begin{tikzpicture}

\begin{axis}[%
width=1.935in,
height=3.2in,
at={(0.758in,0.512in)},
scale only axis,
xmin=0,
xmax=150,
xlabel style={font=\color{white!15!black}, align=center},
xlabel={Sample Index\\[1ex](a) Actual},
ymin=0,
ymax=0.7,
axis background/.style={fill=white},
legend style={legend cell align=left, align=left, draw=white!15!black}
]
\addplot [color=mycolor1]
  table[row sep=crcr]{%
1	0.0234657806037261\\
2	0.0272334504034075\\
3	0.0326864300765018\\
4	0.0414541482980318\\
5	0.0586677033458464\\
6	0.117843438362983\\
7	0.159969331461504\\
8	0.174397116945152\\
9	0.616552810702634\\
10	0.0882137642931462\\
11	0.0472681903124796\\
12	0.0327587509505929\\
13	0.0272256709659274\\
14	0.0412344622245766\\
15	0.0186762848129325\\
16	0.0451940046978057\\
17	0.0153724087875252\\
18	0.0239672675363248\\
19	0.0400285717874473\\
20	0.0828333966509162\\
21	0.557624977131952\\
22	0.149414784250917\\
23	0.109138078132702\\
24	0.0381681231028791\\
25	0.032799759178118\\
26	0.191519461959093\\
27	0.0734580287558902\\
28	0.0358315656953253\\
29	0.0179563195827385\\
30	0.0169149242156914\\
31	0.0179798517146348\\
32	0.0199431506445131\\
33	0.0279225394655299\\
34	0.0908594243819801\\
35	0.0439964246924232\\
36	0.330890477505262\\
37	0.037800506563543\\
38	0.020261933748638\\
39	0.0138181229977315\\
40	0.0211497159554441\\
41	0.0112042208144458\\
42	0.00964538908702694\\
43	0.00864780826327016\\
44	0.00787736374270682\\
45	0.00720180133294831\\
46	0.00651453200193765\\
47	0.00565492088107664\\
48	0.0112814316241706\\
49	0.0075966567083061\\
50	0.0102713040739602\\
51	0.00787142060243747\\
52	0.00711780022683946\\
53	0.00668443537322835\\
54	0.00638223966522588\\
55	0.00615487020840034\\
56	0.00598242225636516\\
57	0.00586293416152974\\
58	0.00581626175933958\\
59	0.00593494184987807\\
60	0.00707647204853056\\
61	0.00861312572402681\\
62	0.00240649054353041\\
63	0.0036902508247688\\
64	0.0040125763148678\\
65	0.00408542983582614\\
66	0.00408934467211144\\
67	0.00406760360864643\\
68	0.00403657730104579\\
69	0.00400486664899167\\
70	0.00397913876457006\\
71	0.00396763365360209\\
72	0.00398577860522856\\
73	0.00407460869510253\\
74	0.00440882178496405\\
75	0.00852319154542653\\
76	0.00211982859547221\\
77	0.00279674481878385\\
78	0.00295234209521732\\
79	0.00299967450324673\\
80	0.00300734384297471\\
81	0.00299658049652506\\
82	0.00297609501762909\\
83	0.00295010695632826\\
84	0.00292089738309008\\
85	0.00288979839106794\\
86	0.00285763293534116\\
87	0.00282493110979805\\
88	0.00279204510261472\\
89	0.00275921420187501\\
90	0.00272660345813555\\
91	0.00269432766245323\\
92	0.00266246675038502\\
93	0.00263107599882434\\
94	0.00260019295165966\\
95	0.00256984222925479\\
96	0.00254003893333548\\
97	0.0025107910982644\\
98	0.00248210148178531\\
99	0.00245396889001376\\
100	0.00242638916874131\\
101	0.00239935595223708\\
102	0.00237286123354156\\
103	0.00234689580183488\\
104	0.00232144957979209\\
105	0.00229651188498403\\
106	0.00227207163310714\\
107	0.0022481174963278\\
108	0.00222463802675857\\
109	0.00220162175268604\\
110	0.00217905725339276\\
111	0.0021569332170867\\
112	0.00213523848544673\\
113	0.00211396208753109\\
114	0.00209309326520902\\
115	0.00207262149182518\\
116	0.00205253648545491\\
117	0.00203282821783402\\
118	0.00201348691983224\\
119	0.00199450308416773\\
120	0.00197586746592614\\
121	0.00195757108133911\\
122	0.0019396052051902\\
123	0.0019219613671484\\
124	0.00190463134727109\\
125	0.00188760717087541\\
126	0.00187088110293773\\
127	0.00185444564215264\\
128	0.0018382935147574\\
129	0.00182241766820821\\
130	0.00180681126477794\\
131	0.00179146767513212\\
132	0.00177638047192757\\
133	0.00176154342347035\\
134	0.00174695048746156\\
135	0.0017325958048528\\
136	0.00171847369382931\\
137	0.00170457864393352\\
138	0.0016909053103386\\
139	0.00167744850827835\\
140	0.00166420320763913\\
141	0.00165116452771496\\
142	0.00163832773212761\\
143	0.00162568822391149\\
144	0.00161324154076111\\
145	0.0016009833504405\\
146	0.00158890944635072\\
147	0.00157701574325256\\
148	0.00156529827314105\\
149	0\\
150	0\\
};
\addlegendentry{$\mathbf{h_1}$}

\addplot [color=mycolor2]
  table[row sep=crcr]{%
1	0.019775303219206\\
2	0.0210217764534023\\
3	0.0224372323963497\\
4	0.024058742711813\\
5	0.0259351263737046\\
6	0.0281320174688059\\
7	0.0307398096072034\\
8	0.0338865833958781\\
9	0.0377600935275399\\
10	0.0426472101764649\\
11	0.0490094599986528\\
12	0.0576401827385178\\
13	0.0700288298559564\\
14	0.0893407156606893\\
15	0.123700774100431\\
16	0.202175033398071\\
17	0.564479813098353\\
18	0.690442426104836\\
19	0.212260509632627\\
20	0.126132345068284\\
21	0.100380135781766\\
22	0.0378663697499036\\
23	0.0333199748773482\\
24	0.0149453064107011\\
25	0.10083899339379\\
26	0.161002397050911\\
27	0.0405118251764787\\
28	0.0383644765554957\\
29	0.0341227495803863\\
30	0.0306469105251072\\
31	0.0278570926171954\\
32	0.0255709383506331\\
33	0.0236574529195357\\
34	0.0220274984760589\\
35	0.0206190941704396\\
36	0.0193877726649002\\
37	0.0183006807256663\\
38	0.0173329207549748\\
39	0.016465211935799\\
40	0.0156823459816501\\
41	0.0149721364414517\\
42	0.0143246843629073\\
43	0.0137318527665838\\
44	0.0131868826449622\\
45	0.0126841071808284\\
46	0.0122187355837443\\
47	0.0117866872087634\\
48	0.0113844626077037\\
49	0.0110090421200206\\
50	0.0106578052804057\\
51	0\\
52	0\\
53	0\\
54	0\\
55	0\\
56	0\\
57	0\\
58	0\\
59	0\\
60	0\\
61	0\\
62	0\\
63	0\\
64	0\\
65	0\\
66	0\\
67	0\\
68	0\\
69	0\\
70	0\\
71	0\\
72	0\\
73	0\\
74	0\\
75	0\\
76	0\\
77	0\\
78	0\\
79	0\\
80	0\\
81	0\\
82	0\\
83	0\\
84	0\\
85	0\\
86	0\\
87	0\\
88	0\\
89	0\\
90	0\\
91	0\\
92	0\\
93	0\\
94	0\\
95	0\\
96	0\\
97	0\\
98	0\\
99	0\\
100	0\\
101	0\\
102	0\\
103	0\\
104	0\\
105	0\\
106	0\\
107	0\\
108	0\\
109	0\\
110	0\\
111	0\\
112	0\\
113	0\\
114	0\\
115	0\\
116	0\\
117	0\\
118	0\\
119	0\\
120	0\\
121	0\\
122	0\\
123	0\\
124	0\\
125	0\\
126	0\\
127	0\\
128	0\\
129	0\\
130	0\\
131	0\\
132	0\\
133	0\\
134	0\\
135	0\\
136	0\\
137	0\\
138	0\\
139	0\\
140	0\\
141	0\\
142	0\\
143	0\\
144	0\\
145	0\\
146	0\\
147	0\\
148	0\\
149	0\\
150	0\\
};
\addlegendentry{$\mathbf{h_{2}}$}

\end{axis}

\begin{axis}[%
width=1.935in,
height=3.2in,
at={(3.327in,0.512in)},
scale only axis,
xmin=0,
xmax=150,
xlabel style={font=\color{white!15!black}, align=center},
xlabel={Sample Index\\[1ex](b) Estimated},
ymin=0,
ymax=0.6,
axis background/.style={fill=white},
legend style={legend cell align=left, align=left, draw=white!15!black}
]
\addplot [color=mycolor1]
  table[row sep=crcr]{%
0	0.0173804785401971\\
1	0.0212414040999997\\
2	0.0390617500196251\\
3	0.0453994836688512\\
4	0.0644273640748423\\
5	0.109952804804746\\
6	0.105057355446923\\
7	0.0997737587137201\\
8	0.439172948356645\\
9	0.17515743382681\\
10	0.32716147912502\\
11	0.161695080211826\\
12	0.0805001901846592\\
13	0.15807668046038\\
14	0.0967368332139402\\
15	0.132504302499605\\
16	0.145828839579252\\
17	0.122064054823671\\
18	0.0905150165058344\\
19	0.0833324492307493\\
20	0.399871334537918\\
21	0.0572331550434489\\
22	0.24589073841747\\
23	0.187903177836037\\
24	0.100819900008775\\
25	0.229234061235943\\
26	0.0753044903301674\\
27	0.175307745138513\\
28	0.0464263365198554\\
29	0.102445448607522\\
30	0.0351310307102326\\
31	0.0348516139125455\\
32	0.0364651974534988\\
33	0.112928509862551\\
34	0.0475974259302425\\
35	0.139488331679657\\
36	0.102696694828809\\
37	0.193233465554168\\
38	0.0138400198229371\\
39	0.0819156311451975\\
40	0.0628775177854133\\
41	0.0576443286366654\\
42	0.0247611251356258\\
43	0.0675931894509511\\
44	0.059595274038187\\
45	0.0437680887443383\\
46	0.0108706623719195\\
47	0.028599655557002\\
48	0.0344105667533875\\
49	0.0449848577664777\\
50	0.0322439753083207\\
51	0.0451449043523509\\
52	0.0191140243273864\\
53	0.0082478387642607\\
54	0.0257351092334354\\
55	0.00607971226857769\\
56	0.0144488641487561\\
57	0.00630648535224857\\
58	0.013480543964002\\
59	0.00751684405395988\\
60	0.0133050482047182\\
61	0.00204463271738955\\
62	0.0046228630587064\\
63	0.00631584455686807\\
64	0.00875972517351138\\
65	0.00647540632934768\\
66	0.00506237027934188\\
67	0.00922693008434053\\
68	0.00713398209988446\\
69	0.00617628351054827\\
70	0.00635233801268013\\
71	0.00546217430944385\\
72	0.00273572315016073\\
73	0.00818512841821526\\
74	0.00760533631796976\\
75	0.00574883773447622\\
76	0.00609883958668255\\
77	0.00241289662903228\\
78	0.00625068198242518\\
79	0.00189652641312556\\
80	0.00575539322329662\\
81	0.00278753671506091\\
82	0.00544201071297074\\
83	0.0020444629861405\\
84	0.00500467600939657\\
85	0.00342623433954928\\
86	0.00350305724660488\\
87	0.0042105691829443\\
88	0.00430720979168419\\
89	0.00353337981282412\\
90	0.00342551071577087\\
91	0.00372777734630097\\
92	0.00360307525727512\\
93	0.00362721934770468\\
94	0.00327712420541272\\
95	0.00326819576330053\\
96	0.00329970968910506\\
97	0.00338448199171612\\
98	0.00346991612644204\\
99	0.00299837833995417\\
100	0.00334081391556462\\
101	0.00267397078738922\\
102	0.00351619693192454\\
103	0.00281348836630013\\
104	0.00322120198768107\\
105	0.00276019414941742\\
106	0.00317175311955051\\
107	0.00279286826848183\\
108	0.00308085283155614\\
109	0.00284678996569838\\
110	0.00279076356673542\\
111	0.00285756084675247\\
112	0.00289156357964593\\
113	0.00256629806538579\\
114	0.0028695877521818\\
115	0.00258610713347316\\
116	0.00284626929345774\\
117	0.00270697211653895\\
118	0.00253377541102694\\
119	0.00270913319048206\\
120	0.00245413677192055\\
121	0.00266015332146019\\
122	0.00238730603007021\\
123	0.00277730466139693\\
124	0.00217763322989496\\
125	0.00277699552180837\\
126	0.00215544056490531\\
127	0.0026681547937404\\
128	0.0022482499554163\\
129	0.00260911730951838\\
130	0.00214779899736198\\
131	0.00246489202702359\\
132	0.00210324355841683\\
133	0.00258186639412559\\
134	0.0020369958774184\\
135	0.00249853711767057\\
136	0.00190104392513706\\
137	0.00244628566713625\\
138	0.00218814948677797\\
139	0.00222069454939479\\
140	0.00225960629876187\\
141	0.00212942597976891\\
142	0.00210736795237697\\
143	0.0021615009221146\\
144	0.00206165238117924\\
145	0.00222364641216455\\
146	0.00190061827033183\\
147	0.00218485844697092\\
148	0.00069681468071865\\
149	0.000933876297388462\\
};
\addlegendentry{$\mathbf{\hat{h}_{1}}$}

\addplot [color=mycolor2]
  table[row sep=crcr]{%
0	0.0138390031175862\\
1	0.0155947460195378\\
2	0.0274655841341313\\
3	0.0272872803324791\\
4	0.0318187187906263\\
5	0.0313273318109533\\
6	0.0364896182464236\\
7	0.037846692526124\\
8	0.0446399816468525\\
9	0.0472561874634174\\
10	0.0551488420890827\\
11	0.0636713565820191\\
12	0.0754131130275286\\
13	0.0937772670662331\\
14	0.125517996755131\\
15	0.192040556930543\\
16	0.465410659224029\\
17	0.361769064806197\\
18	0.198053977346663\\
19	0.525190558696285\\
20	0.104005483103673\\
21	0.234346950710763\\
22	0.0671899564941198\\
23	0.133923048233907\\
24	0.162029244559914\\
25	0.24109467514745\\
26	0.116612131072132\\
27	0.152865564389675\\
28	0.0299276999278125\\
29	0.0738660184417662\\
30	0.0635461999633995\\
31	0.0959332164149451\\
32	0.0818265029421343\\
33	0.0470302693275432\\
34	0.0132369536124877\\
35	0.0650247833885133\\
36	0.0745586202324876\\
37	0.0188281366149606\\
38	0.0218155622480882\\
39	0.0206627121182486\\
40	0.0197011562541355\\
41	0.0184424297748703\\
42	0.0196738037767115\\
43	0.0144516814154407\\
44	0.0163974345146424\\
45	0.0166248779302764\\
46	0.0124687369014438\\
47	0.0202192167740595\\
48	0.00644297484596608\\
49	0.0204185942771195\\
50	0.00254945235390288\\
51	0.00773274483198283\\
52	0.00218573254356632\\
53	0.00311786211633634\\
54	0.0037868677726782\\
55	0.0046547960105146\\
56	0.00364760666704344\\
57	0.00217399785303011\\
58	0.00263370700575596\\
59	0.00325335110003824\\
60	0.00333142771892235\\
61	0.00297312430808393\\
62	0.00143689433103315\\
63	0.00126273568778723\\
64	0.00155774997752787\\
65	0.00101341516522306\\
66	0.00063664768565685\\
67	0.000774240181010558\\
68	0.00126122975106209\\
69	0.00139328493545328\\
70	0.00127586391855468\\
71	0.00124304062180628\\
72	0.000759779447425323\\
73	0.000575248715520651\\
74	0.00093656706843604\\
75	0.00115465483223054\\
76	0.000511591551471991\\
77	0.000170495401106073\\
78	0.00019139663258647\\
79	0.000188119054061231\\
80	0.000216931034025916\\
81	6.78487444394282e-05\\
82	5.84075533977161e-05\\
83	0.000149570766827107\\
84	7.86219101026826e-05\\
85	0.000198151590985405\\
86	0.000114543429738297\\
87	7.60595890381921e-05\\
88	0.000129691017541552\\
89	8.32818055720808e-05\\
90	1.39808843509679e-05\\
91	9.61116202399192e-05\\
92	8.18134523793853e-05\\
93	5.5826639715838e-05\\
94	0.000215726369363146\\
95	0.00022765514481994\\
96	6.78190936423402e-05\\
97	0.000161587784451209\\
98	0.000188284806212321\\
99	0.000144771652467783\\
100	0.000107639972869406\\
101	4.50806077889261e-05\\
102	7.47048050828295e-05\\
103	0.000129931067162685\\
104	0.000196522973375622\\
105	0.000137178547808708\\
106	0.00014141802630652\\
107	0.00023311632036857\\
108	0.000223866282748753\\
109	0.000268787020425479\\
110	0.000293033787629134\\
111	0.000206007197150717\\
112	0.000104718159451973\\
113	5.38701070263185e-05\\
114	0.000227110362913691\\
115	0.000275946501341228\\
116	0.000212040543285297\\
117	0.000161036688892647\\
118	0.000157007115494801\\
119	0.000167244339125803\\
120	0.000118950674646109\\
121	0.000212770984159696\\
122	0.000147218534474787\\
123	6.69032666542451e-05\\
124	0.00011679766402166\\
125	0.000164613250934321\\
126	0.00027631676810144\\
127	0.000268773504833869\\
128	0.0002264883183159\\
129	0.000205601792336016\\
130	0.000167624038277559\\
131	0.000101094846585721\\
132	0.000225822559659629\\
133	0.000260554510401397\\
134	0.00030247832330574\\
135	0.000332161826902982\\
136	0.000223659355607594\\
137	0.000252111975424523\\
138	0.000200628488220257\\
139	8.08755531459906e-05\\
140	0.000114959309417707\\
141	0.000161488402827825\\
142	0.000212341336736966\\
143	0.000230765302977233\\
144	0.000162276984641353\\
145	0.00016346894955252\\
146	8.77658593722927e-05\\
147	0.000139794505897727\\
148	0.000199004739209623\\
149	0.000134401572335926\\
};
\addlegendentry{$\mathbf{\hat{h}_{2}}$}

\end{axis}
\end{tikzpicture}%