% This file was created by matlab2tikz.
%
%The latest updates can be retrieved from
%  http://www.mathworks.com/matlabcentral/fileexchange/22022-matlab2tikz-matlab2tikz
%where you can also make suggestions and rate matlab2tikz.
%
\definecolor{mycolor1}{rgb}{0.00000,0.44700,0.74100}%
\definecolor{mycolor2}{rgb}{0.85000,0.32500,0.09800}%
%
\begin{tikzpicture}

\begin{axis}[%
width=1.935in,
height=3.2in,
at={(0.758in,0.512in)},
scale only axis,
xmin=0,
xmax=200,
xlabel style={font=\color{white!15!black}, align=center},
xlabel={Sample Index\\[1ex](a) Actual},
ymin=0,
ymax=1,
axis background/.style={fill=white},
legend style={legend cell align=left, align=left, draw=white!15!black}
]
\addplot [color=mycolor1]
  table[row sep=crcr]{%
1	0.0167418731260698\\
2	0.018659722218203\\
3	0.0211495716349754\\
4	0.0245407494314006\\
5	0.029505643974117\\
6	0.0377161636169434\\
7	0.0550750576238134\\
8	0.131028403455825\\
9	0.141533477104454\\
10	0.158175166246243\\
11	0.163761757297189\\
12	0.600100605556833\\
13	0.118033417583129\\
14	0.0610914209628117\\
15	0.0426162246246858\\
16	0.0332715711707656\\
17	0.0321939439283243\\
18	0.0268871008873183\\
19	0.0316920608120786\\
20	0.0286771919664519\\
21	0.00773119825769845\\
22	0.0330073087209196\\
23	0.019415059292473\\
24	0.0177688778425817\\
25	0.0188194600762088\\
26	0.0237714798713867\\
27	0.0430806655948836\\
28	0.586023006720236\\
29	0.0970905103802927\\
30	0.0246981078960262\\
31	0.0780346253424249\\
32	0.0580455436901626\\
33	0.0681836526256362\\
34	0.163824852865525\\
35	0.0446106828365612\\
36	0.06119675966513\\
37	0.00907835157153909\\
38	0.0310093774848825\\
39	0.00125972832884384\\
40	0.005422098150711\\
41	0.0107374596162295\\
42	0.0165479326643041\\
43	0.024789327411243\\
44	0.0446277431282512\\
45	0.058019450740893\\
46	0.074843365423057\\
47	0.199666615467323\\
48	0.216838516027539\\
49	0.0783890355452335\\
50	0.0495529240878659\\
51	0.0370791446049236\\
52	0.0307530810094058\\
53	0.0155757068681131\\
54	0.0198807977432187\\
55	0.0179871495341263\\
56	0.0162887905400521\\
57	0.0148728268904216\\
58	0.0136909847461918\\
59	0.0126943671543235\\
60	0.011846112844806\\
61	0.0111233301448608\\
62	0.0105291449791113\\
63	0.0102108676347222\\
64	0.00751288118280402\\
65	0.00739035992869396\\
66	0.0116365722557393\\
67	0.00899390796280924\\
68	0.00831157148096884\\
69	0.00788086875151191\\
70	0.00754217236777393\\
71	0.00725475830161164\\
72	0.00700327644843893\\
73	0.006780818536885\\
74	0.00658453626015097\\
75	0.00641472878078445\\
76	0.00627599401250467\\
77	0.00618216997550965\\
78	0.00617516728867787\\
79	0.00642745729543014\\
80	0.00873051939586948\\
81	0.00471465923588381\\
82	0.00195996010568866\\
83	0.004980313957114\\
84	0.00475839614864904\\
85	0.00464733241660508\\
86	0.00455444244400457\\
87	0.00446749239384432\\
88	0.00438406292262191\\
89	0.00430366820355207\\
90	0.00422628355118023\\
91	0.00415201532524293\\
92	0.00408104289588831\\
93	0.00401365198230764\\
94	0.00395033763548775\\
95	0.00389203620501121\\
96	0.00384070443755282\\
97	0.00380107128140597\\
98	0.00378779867734327\\
99	0.00387836096292209\\
100	0.00228454900881806\\
101	0.00321909463290553\\
102	0.00328982387499096\\
103	0.00328100374444436\\
104	0.00325253146337885\\
105	0.00321692683031362\\
106	0.00317840637543852\\
107	0.00313876414674543\\
108	0.00309887602618152\\
109	0.00305920797263281\\
110	0.00302002111537278\\
111	0.00298146552488656\\
112	0.00294362726599965\\
113	0.0029065537719176\\
114	0.00287026833389302\\
115	0.00283477876811283\\
116	0.00280008280049957\\
117	0.00276617151884636\\
118	0.00273303164395387\\
119	0.00270064705586787\\
120	0.00266899983729428\\
121	0.00263807099659409\\
122	0.00260784097374635\\
123	0.00257828999668392\\
124	0.00254939833288439\\
125	0.00252114646667125\\
126	0.00249351522323938\\
127	0.00246648585412356\\
128	0.00244004009455901\\
129	0.00241416020024051\\
130	0.00238882896892876\\
131	0.0023640297508985\\
132	0.00233974645117835\\
133	0.00231596352577768\\
134	0.00229266597354371\\
135	0.00226983932488367\\
136	0.00224746962828519\\
137	0.00222554343533969\\
138	0.00220404778480324\\
139	0.00218297018609978\\
140	0.00216229860257188\\
141	0.00214202143470905\\
142	0.00212212750352594\\
143	0.00210260603421662\\
144	0.00208344664017788\\
145	0.00206463930746792\\
146	0.00204617437974413\\
147	0.00202804254371082\\
148	0.00201023481509265\\
149	0.00199274252514179\\
150	0.00197555730767936\\
151	0.0019586710866655\\
152	0.00194207606428942\\
153	0.00192576470956709\\
154	0.00190972974743187\\
155	0.00189396414830307\\
156	0.00187846111811499\\
157	0.00186321408878906\\
158	0.00184821670913216\\
159	0.00183346283614256\\
160	0.00181894652670628\\
161	0.00180466202966742\\
162	0.00179060377825436\\
163	0.00177676638284649\\
164	0.00176314462406556\\
165	0.00174973344617591\\
166	0.0017365279507797\\
167	0.00172352339079259\\
168	0.00171071516468654\\
169	0.00169809881098722\\
170	0.00168567000301325\\
171	0.00167342454384613\\
172	0.00166135836151948\\
173	0.00164946750441694\\
174	0.00163774813686889\\
175	0.00162619653493841\\
176	0.00161480908238697\\
177	0.00160358226681213\\
178	0.001592512675948\\
179	0.00158159699412143\\
180	0.00157083199885632\\
181	0.00156021455761888\\
182	0.00154974162469766\\
183	0.00153941023821136\\
184	0.00152921751723897\\
185	0.00151916065906659\\
186	0.00150923693654504\\
187	0.00149944369555362\\
188	0.00148977835256491\\
189	0.00148023839230615\\
190	0.0014708213655126\\
191	0.00146152488676917\\
192	0.00145234663243548\\
193	0.00144328433865201\\
194	0.00143433579942216\\
195	0.0014254988647679\\
196	0.00141677143895562\\
197	0.00140815147878894\\
198	0.00139963699196521\\
199	0\\
200	0\\
};
\addlegendentry{$\mathbf{h_1}$}

\addplot [color=mycolor2]
  table[row sep=crcr]{%
1	0.00495033386861547\\
2	0.00515738368500011\\
3	0.00538309861623286\\
4	0.00563019833310769\\
5	0.00590197136255583\\
6	0.00620243506959928\\
7	0.00653655369620811\\
8	0.00691054090538825\\
9	0.00733228812251618\\
10	0.00781198494389501\\
11	0.00836304134465097\\
12	0.0090034999823859\\
13	0.00975827527656913\\
14	0.0106628508662167\\
15	0.0117696896019869\\
16	0.0131600228416925\\
17	0.0149671880151623\\
18	0.0174273921400842\\
19	0.0210049332363351\\
20	0.0267613442180004\\
21	0.037792597580649\\
22	0.068721841139076\\
23	0.97572931769219\\
24	0.0649085399616321\\
25	0.0262918397391367\\
26	0.0126468169615953\\
27	0.00419508123086451\\
28	0.0214241856295046\\
29	0.0134643328328179\\
30	0.00412679327935559\\
31	0.0112712342656943\\
32	0.0282552508318709\\
33	0.111702725947746\\
34	0.12653020104749\\
35	0.0361926668223949\\
36	0.024130019396178\\
37	0.019518168382204\\
38	0.0163235660243771\\
39	0.0140849625225472\\
40	0.0124312948441269\\
41	0.0111552918846637\\
42	0.0101369616841952\\
43	0.00930266674553233\\
44	0.00860476970863487\\
45	0.00801105372801389\\
46	0.00749890841387189\\
47	0.00705196472677567\\
48	0.00665805661850076\\
49	0.0063079366485928\\
50	0.00599443852440938\\
51	0.00571191453485358\\
52	0.00545584764793091\\
53	0.0052225778141873\\
54	0.00500910486747672\\
55	0.00481294397681212\\
56	0.00463201789166602\\
57	0.00446457542356871\\
58	0.00430912894812168\\
59	0.00416440590497024\\
60	0.00402931074167137\\
61	0.00390289474814389\\
62	0.00378433192171684\\
63	0.00367289949042518\\
64	0.0035679620699816\\
65	0.00346895868109233\\
66	0.00337539203747226\\
67	0.00328681965070268\\
68	0.00320284639950925\\
69	0\\
70	0\\
71	0\\
72	0\\
73	0\\
74	0\\
75	0\\
76	0\\
77	0\\
78	0\\
79	0\\
80	0\\
81	0\\
82	0\\
83	0\\
84	0\\
85	0\\
86	0\\
87	0\\
88	0\\
89	0\\
90	0\\
91	0\\
92	0\\
93	0\\
94	0\\
95	0\\
96	0\\
97	0\\
98	0\\
99	0\\
100	0\\
101	0\\
102	0\\
103	0\\
104	0\\
105	0\\
106	0\\
107	0\\
108	0\\
109	0\\
110	0\\
111	0\\
112	0\\
113	0\\
114	0\\
115	0\\
116	0\\
117	0\\
118	0\\
119	0\\
120	0\\
121	0\\
122	0\\
123	0\\
124	0\\
125	0\\
126	0\\
127	0\\
128	0\\
129	0\\
130	0\\
131	0\\
132	0\\
133	0\\
134	0\\
135	0\\
136	0\\
137	0\\
138	0\\
139	0\\
140	0\\
141	0\\
142	0\\
143	0\\
144	0\\
145	0\\
146	0\\
147	0\\
148	0\\
149	0\\
150	0\\
151	0\\
152	0\\
153	0\\
154	0\\
155	0\\
156	0\\
157	0\\
158	0\\
159	0\\
160	0\\
161	0\\
162	0\\
163	0\\
164	0\\
165	0\\
166	0\\
167	0\\
168	0\\
169	0\\
170	0\\
171	0\\
172	0\\
173	0\\
174	0\\
175	0\\
176	0\\
177	0\\
178	0\\
179	0\\
180	0\\
181	0\\
182	0\\
183	0\\
184	0\\
185	0\\
186	0\\
187	0\\
188	0\\
189	0\\
190	0\\
191	0\\
192	0\\
193	0\\
194	0\\
195	0\\
196	0\\
197	0\\
198	0\\
199	0\\
200	0\\
};
\addlegendentry{$\mathbf{h_{2}}$}

\end{axis}

\begin{axis}[%
width=1.935in,
height=3.2in,
at={(3.327in,0.512in)},
scale only axis,
xmin=0,
xmax=200,
xlabel style={font=\color{white!15!black}, align=center},
xlabel={Sample Index\\[1ex](b) Estimated},
ymin=0,
ymax=0.25,
axis background/.style={fill=white},
legend style={legend cell align=left, align=left, draw=white!15!black}
]
\addplot [color=mycolor1]
  table[row sep=crcr]{%
0	0.00330176223426319\\
1	0.0118472132734228\\
2	0.00910196058889709\\
3	0.0182592597226227\\
4	0.00524186078254651\\
5	0.0177651581254578\\
6	0.0241078712425518\\
7	0.0254375786315601\\
8	0.0303148702386369\\
9	0.0409346651339698\\
10	0.0500355310019814\\
11	0.109323000685106\\
12	0.0934767497121829\\
13	0.0521054481662189\\
14	0.0108343749109474\\
15	0.0782763368315638\\
16	0.0321332774978629\\
17	0.00889053026383116\\
18	0.0581622684744586\\
19	0.0596803993084344\\
20	0.0558712658646375\\
21	0.0198958639271459\\
22	0.103508119903457\\
23	0.102635709508446\\
24	0.0989174689079262\\
25	0.0285305677860234\\
26	0.111389661092167\\
27	0.114224504507134\\
28	0.0756183707440182\\
29	0.114845130337633\\
30	0.0236638770331322\\
31	0.0220802639620266\\
32	0.0405479199336835\\
33	0.108017763361374\\
34	0.0376578421224549\\
35	0.0942392711757089\\
36	0.00973892132518959\\
37	0.155343650553538\\
38	0.0751364048154773\\
39	0.0363326839859965\\
40	0.0618862915610792\\
41	0.0621518426270884\\
42	0.0377388878073333\\
43	0.162012613457338\\
44	0.0728549977742129\\
45	0.135349525950186\\
46	0.0231033529850421\\
47	0.0550682802469002\\
48	0.0433428157238876\\
49	0.0289242091576007\\
50	0.109967710652222\\
51	0.112570566857718\\
52	0.108898238835795\\
53	0.10694158044603\\
54	0.119593016387051\\
55	0.151575782264803\\
56	0.0926469378299225\\
57	0.0548429243911127\\
58	0.0379574268234878\\
59	0.104021787093667\\
60	0.147848319794069\\
61	0.0255503710002504\\
62	0.136190175920476\\
63	0.139158606701632\\
64	0.0104556154759544\\
65	0.0498373957401279\\
66	0.0933586846381237\\
67	0.0620730847731045\\
68	0.0760314506566881\\
69	0.112151519607409\\
70	0.0699239513810108\\
71	0.142473210955751\\
72	0.0844808500741382\\
73	0.0594515401460253\\
74	0.0417438980266946\\
75	0.117912684496024\\
76	0.0802314696004017\\
77	0.0867152729484225\\
78	0.0898520846318415\\
79	0.055592178710161\\
80	0.0939270185496494\\
81	0.0907739745513799\\
82	0.0908567116708932\\
83	0.129937060508066\\
84	0.09594442527162\\
85	0.0698152383560975\\
86	0.122714408074768\\
87	0.060796632951771\\
88	0.0573440716278209\\
89	0.0506979228629339\\
90	0.130499494195376\\
91	0.0307551830470889\\
92	0.117673229030302\\
93	0.094718329483119\\
94	0.0418053347997922\\
95	0.0713491771051937\\
96	0.0525850246422714\\
97	0.064464996239867\\
98	0.0299120679346228\\
99	0.0306685936571514\\
100	0.0800003235158095\\
101	0.100332587428132\\
102	0.0958883334700187\\
103	0.013486796231832\\
104	0.0999981866649868\\
105	0.096331090126013\\
106	0.0718260053150468\\
107	0.0781494708349908\\
108	0.122851017291511\\
109	0.0690007645803792\\
110	0.0675305165265664\\
111	0.052139188748701\\
112	0.0817684219537339\\
113	0.033750764441731\\
114	0.048473162217363\\
115	0.0510409591234916\\
116	0.038345803056481\\
117	0.0882081660188447\\
118	0.0443608372885157\\
119	0.058822991189788\\
120	0.046369483215641\\
121	0.0566310370711206\\
122	0.162581739628839\\
123	0.146101449599819\\
124	0.0719903195747198\\
125	0.0674276216290049\\
126	0.0323071607153336\\
127	0.00626848215869426\\
128	0.0903844951356955\\
129	0.041049216986555\\
130	0.104207967759984\\
131	0.0771253171181329\\
132	0.0525163442023688\\
133	0.101660037191183\\
134	0.0667178444339211\\
135	0.100683599733745\\
136	0.0431352950862263\\
137	0.0665612329468516\\
138	0.0267701601354451\\
139	0.109493444113923\\
140	0.0513735685385048\\
141	0.0427691845067026\\
142	0.0814174774683891\\
143	0.0197650650457661\\
144	0.102320904154739\\
145	0.0148538789024079\\
146	0.0540386477680039\\
147	0.0325806315832842\\
148	0.0697603034881639\\
149	0.110272363694649\\
150	0.0294827411681901\\
151	0.0590693550718462\\
152	0.0298195426073414\\
153	0.0743281104486955\\
154	0.0263083598126198\\
155	0.0204021178570119\\
156	0.0396099508212065\\
157	0.0723360788833518\\
158	0.0409398057757317\\
159	0.0471491548740646\\
160	0.0534567918223236\\
161	0.0453187030494438\\
162	0.058712471936096\\
163	0.0319274685295244\\
164	0.0221480102875943\\
165	0.0219112207738222\\
166	0.047493639077614\\
167	0.0211522585836502\\
168	0.00796791117550401\\
169	0.017823043831919\\
170	0.0199397881512479\\
171	0.0274317527951428\\
172	0.0190922356888254\\
173	0.017980138452706\\
174	0.0311486538572218\\
175	0.0276238505239523\\
176	0.0127847788607221\\
177	0.0173379736025837\\
178	0.0113030802974268\\
179	0.00687500086079713\\
180	0.0283948113658151\\
181	0.0210456009527092\\
182	0.0271655698308457\\
183	0.0187202692014501\\
184	0.0162873562300504\\
185	0.0159111836934598\\
186	0.0245955936698191\\
187	0.00892817200745051\\
188	0.00919263752250219\\
189	0.0192506331519294\\
190	0.0183097650751119\\
191	0.0105660811718655\\
192	0.00520709463210216\\
193	0.00339957493812538\\
194	0.00297066492101379\\
195	0.00236509705896929\\
196	0.0151697024308842\\
197	0.0151764910387039\\
198	0.0205173169253422\\
199	0.0102932536844536\\
};
\addlegendentry{$\mathbf{\hat{h}_{1}}$}

\addplot [color=mycolor2]
  table[row sep=crcr]{%
0	0.0013393510157876\\
1	0.00218243501109301\\
2	0.00285647351246476\\
3	0.00236332691809672\\
4	0.00112332785974336\\
5	0.00191195433764337\\
6	0.00421812340887603\\
7	0.0070094212689455\\
8	0.00753325537183189\\
9	0.00608556880549943\\
10	0.00468174300609584\\
11	0.00347223951803211\\
12	0.00370770468310554\\
13	0.0254230344770518\\
14	0.0214070749923253\\
15	0.0199451198159815\\
16	0.0150225726742408\\
17	0.020480502208137\\
18	0.0285902009323075\\
19	0.0340024047398777\\
20	0.0680069046902056\\
21	0.0717806843280514\\
22	0.162363398159064\\
23	0.142808871068309\\
24	0.0518570449739816\\
25	0.0399865061053251\\
26	0.0736394159582345\\
27	0.090345935212006\\
28	0.0427220831641191\\
29	0.055362107430823\\
30	0.064805916174798\\
31	0.111473503444105\\
32	0.0463507952673346\\
33	0.123749857486747\\
34	0.0750038648611726\\
35	0.130169928776315\\
36	0.0351545597428164\\
37	0.0615520636852337\\
38	0.114537608736597\\
39	0.196135723123362\\
40	0.186520522394109\\
41	0.00943393360636226\\
42	0.0966824040649956\\
43	0.0544250883593862\\
44	0.126811404585194\\
45	0.0947280295086123\\
46	0.153285700859498\\
47	0.101945076117071\\
48	0.210583577806671\\
49	0.0252704897336729\\
50	0.140573392292687\\
51	0.0769994444602711\\
52	0.0367551925386135\\
53	0.016613632323804\\
54	0.0280235576714961\\
55	0.127174118252537\\
56	0.0775722312952069\\
57	0.0692307978565796\\
58	0.124094097297806\\
59	0.0904564630238\\
60	0.0568739108444686\\
61	0.0385599377332415\\
62	0.0689608405969656\\
63	0.116081267243558\\
64	0.106072317160579\\
65	0.17215340408799\\
66	0.120745442684414\\
67	0.0259974729454704\\
68	0.107289339154752\\
69	0.124979485321363\\
70	0.0736561516966259\\
71	0.0551864491744604\\
72	0.106303646574058\\
73	0.0721129122985285\\
74	0.13904751439279\\
75	0.0886465929146112\\
76	0.0523589496957667\\
77	0.0867653768316571\\
78	0.0880076140439535\\
79	0.0375476507625695\\
80	0.0386182545006447\\
81	0.122575666349709\\
82	0.0746365451975804\\
83	0.0534398906163949\\
84	0.0534867265693696\\
85	0.0744829200783824\\
86	0.0632106081858759\\
87	0.026757776764189\\
88	0.0661103119776872\\
89	0.0595216612178383\\
90	0.0374837632102123\\
91	0.0550192874110474\\
92	0.0878342652409497\\
93	0.136657642232436\\
94	0.0152985887739604\\
95	0.0105882491274525\\
96	0.0618415723715523\\
97	0.0912086407555441\\
98	0.0933646016057672\\
99	0.0616498698646798\\
100	0.0518946120139005\\
101	0.0540162746207566\\
102	0.0395037668669504\\
103	0.0921718905934609\\
104	0.101910525036423\\
105	0.0437007348195942\\
106	0.0674110038636677\\
107	0.0331897424349707\\
108	0.0358951958999341\\
109	0.038809848845232\\
110	0.0417133129339795\\
111	0.0563348008477344\\
112	0.0847819682837491\\
113	0.0950593370167475\\
114	0.0657245684512722\\
115	0.0710580268748209\\
116	0.0886437034444706\\
117	0.0726588508274058\\
118	0.0444562532471097\\
119	0.095169939244586\\
120	0.0765559971769198\\
121	0.0479445079357479\\
122	0.059476075812954\\
123	0.074137639538255\\
124	0.0782771136057044\\
125	0.118634728818944\\
126	0.0651088578582592\\
127	0.0616720536903715\\
128	0.153987236296916\\
129	0.10242433466486\\
130	0.0787759438550927\\
131	0.0668454174612027\\
132	0.0526463484406474\\
133	0.0856093183363498\\
134	0.120611683120323\\
135	0.0174797634171254\\
136	0.0709162554138192\\
137	0.0396441363956047\\
138	0.0500756283610637\\
139	0.151832096334923\\
140	0.0179877677198909\\
141	0.0642783053483208\\
142	0.0387168039409986\\
143	0.0118322225135626\\
144	0.0250449272480014\\
145	0.0229541705397165\\
146	0.0354594842184802\\
147	0.0418335452442014\\
148	0.00767239597088525\\
149	0.0358127567939414\\
150	0.0573817647503744\\
151	0.061229045578886\\
152	0.0592796662047314\\
153	0.0429342402397363\\
154	0.0482880734510075\\
155	0.0197143195212666\\
156	0.0757377414396493\\
157	0.0662502353059898\\
158	0.0434930274751762\\
159	0.00207927253009583\\
160	0.0407233033846388\\
161	0.0306078169918586\\
162	0.0233412208395154\\
163	0.0140431178007661\\
164	0.0509439320580952\\
165	0.00191876969888666\\
166	0.0123461257316478\\
167	0.030660021567641\\
168	0.0287135153388408\\
169	0.028585898671419\\
170	0.0378043821514098\\
171	0.0538812499811659\\
172	0.0191895241397809\\
173	0.0232928539905723\\
174	0.0265530484922641\\
175	0.0336402224636623\\
176	0.00952987598922174\\
177	0.00932391375379655\\
178	0.00959990631671178\\
179	0.00806137117026537\\
180	0.00220952244112764\\
181	0.000847555363890004\\
182	0.00936859467473707\\
183	0.00799550808155331\\
184	0.00817609088056867\\
185	0.00627989712552434\\
186	0.00318685870821592\\
187	0.00122174259992539\\
188	0.0016754124991741\\
189	0.00604226243099546\\
190	0.0030314311147317\\
191	0.00190122181681248\\
192	0.00080650684354268\\
193	0.00156208428610179\\
194	0.00221410192928429\\
195	0.00123006340435269\\
196	0.00118599229199168\\
197	0.000651862040662496\\
198	0.000390052725098691\\
199	0.00125258550389618\\
};
\addlegendentry{$\mathbf{\hat{h}_{2}}$}

\end{axis}
\end{tikzpicture}%