% This file was created by matlab2tikz.
%
%The latest updates can be retrieved from
%  http://www.mathworks.com/matlabcentral/fileexchange/22022-matlab2tikz-matlab2tikz
%where you can also make suggestions and rate matlab2tikz.
%
\definecolor{mycolor1}{rgb}{0.00000,0.44700,0.74100}%
\definecolor{mycolor2}{rgb}{0.85000,0.32500,0.09800}%
%
\begin{tikzpicture}

\begin{axis}[%
width=1.935in,
height=3.2in,
at={(0.758in,0.512in)},
scale only axis,
xmin=0,
xmax=200,
xlabel style={font=\color{white!15!black}, align=center},
xlabel={Sample Index\\[1ex](a) Actual},
ymin=0,
ymax=1,
axis background/.style={fill=white},
legend style={legend cell align=left, align=left, draw=white!15!black}
]
\addplot [color=mycolor1]
  table[row sep=crcr]{%
1	0.0167418731260698\\
2	0.018659722218203\\
3	0.0211495716349754\\
4	0.0245407494314006\\
5	0.029505643974117\\
6	0.0377161636169434\\
7	0.0550750576238134\\
8	0.131028403455825\\
9	0.141533477104454\\
10	0.158175166246243\\
11	0.163761757297189\\
12	0.600100605556833\\
13	0.118033417583129\\
14	0.0610914209628117\\
15	0.0426162246246858\\
16	0.0332715711707656\\
17	0.0321939439283243\\
18	0.0268871008873183\\
19	0.0316920608120786\\
20	0.0286771919664519\\
21	0.00773119825769845\\
22	0.0330073087209196\\
23	0.019415059292473\\
24	0.0177688778425817\\
25	0.0188194600762088\\
26	0.0237714798713867\\
27	0.0430806655948836\\
28	0.586023006720236\\
29	0.0970905103802927\\
30	0.0246981078960262\\
31	0.0780346253424249\\
32	0.0580455436901626\\
33	0.0681836526256362\\
34	0.163824852865525\\
35	0.0446106828365612\\
36	0.06119675966513\\
37	0.00907835157153909\\
38	0.0310093774848825\\
39	0.00125972832884384\\
40	0.005422098150711\\
41	0.0107374596162295\\
42	0.0165479326643041\\
43	0.024789327411243\\
44	0.0446277431282512\\
45	0.058019450740893\\
46	0.074843365423057\\
47	0.199666615467323\\
48	0.216838516027539\\
49	0.0783890355452335\\
50	0.0495529240878659\\
51	0.0370791446049236\\
52	0.0307530810094058\\
53	0.0155757068681131\\
54	0.0198807977432187\\
55	0.0179871495341263\\
56	0.0162887905400521\\
57	0.0148728268904216\\
58	0.0136909847461918\\
59	0.0126943671543235\\
60	0.011846112844806\\
61	0.0111233301448608\\
62	0.0105291449791113\\
63	0.0102108676347222\\
64	0.00751288118280402\\
65	0.00739035992869396\\
66	0.0116365722557393\\
67	0.00899390796280924\\
68	0.00831157148096884\\
69	0.00788086875151191\\
70	0.00754217236777393\\
71	0.00725475830161164\\
72	0.00700327644843893\\
73	0.006780818536885\\
74	0.00658453626015097\\
75	0.00641472878078445\\
76	0.00627599401250467\\
77	0.00618216997550965\\
78	0.00617516728867787\\
79	0.00642745729543014\\
80	0.00873051939586948\\
81	0.00471465923588381\\
82	0.00195996010568866\\
83	0.004980313957114\\
84	0.00475839614864904\\
85	0.00464733241660508\\
86	0.00455444244400457\\
87	0.00446749239384432\\
88	0.00438406292262191\\
89	0.00430366820355207\\
90	0.00422628355118023\\
91	0.00415201532524293\\
92	0.00408104289588831\\
93	0.00401365198230764\\
94	0.00395033763548775\\
95	0.00389203620501121\\
96	0.00384070443755282\\
97	0.00380107128140597\\
98	0.00378779867734327\\
99	0.00387836096292209\\
100	0.00228454900881806\\
101	0.00321909463290553\\
102	0.00328982387499096\\
103	0.00328100374444436\\
104	0.00325253146337885\\
105	0.00321692683031362\\
106	0.00317840637543852\\
107	0.00313876414674543\\
108	0.00309887602618152\\
109	0.00305920797263281\\
110	0.00302002111537278\\
111	0.00298146552488656\\
112	0.00294362726599965\\
113	0.0029065537719176\\
114	0.00287026833389302\\
115	0.00283477876811283\\
116	0.00280008280049957\\
117	0.00276617151884636\\
118	0.00273303164395387\\
119	0.00270064705586787\\
120	0.00266899983729428\\
121	0.00263807099659409\\
122	0.00260784097374635\\
123	0.00257828999668392\\
124	0.00254939833288439\\
125	0.00252114646667125\\
126	0.00249351522323938\\
127	0.00246648585412356\\
128	0.00244004009455901\\
129	0.00241416020024051\\
130	0.00238882896892876\\
131	0.0023640297508985\\
132	0.00233974645117835\\
133	0.00231596352577768\\
134	0.00229266597354371\\
135	0.00226983932488367\\
136	0.00224746962828519\\
137	0.00222554343533969\\
138	0.00220404778480324\\
139	0.00218297018609978\\
140	0.00216229860257188\\
141	0.00214202143470905\\
142	0.00212212750352594\\
143	0.00210260603421662\\
144	0.00208344664017788\\
145	0.00206463930746792\\
146	0.00204617437974413\\
147	0.00202804254371082\\
148	0.00201023481509265\\
149	0.00199274252514179\\
150	0.00197555730767936\\
151	0.0019586710866655\\
152	0.00194207606428942\\
153	0.00192576470956709\\
154	0.00190972974743187\\
155	0.00189396414830307\\
156	0.00187846111811499\\
157	0.00186321408878906\\
158	0.00184821670913216\\
159	0.00183346283614256\\
160	0.00181894652670628\\
161	0.00180466202966742\\
162	0.00179060377825436\\
163	0.00177676638284649\\
164	0.00176314462406556\\
165	0.00174973344617591\\
166	0.0017365279507797\\
167	0.00172352339079259\\
168	0.00171071516468654\\
169	0.00169809881098722\\
170	0.00168567000301325\\
171	0.00167342454384613\\
172	0.00166135836151948\\
173	0.00164946750441694\\
174	0.00163774813686889\\
175	0.00162619653493841\\
176	0.00161480908238697\\
177	0.00160358226681213\\
178	0.001592512675948\\
179	0.00158159699412143\\
180	0.00157083199885632\\
181	0.00156021455761888\\
182	0.00154974162469766\\
183	0.00153941023821136\\
184	0.00152921751723897\\
185	0.00151916065906659\\
186	0.00150923693654504\\
187	0.00149944369555362\\
188	0.00148977835256491\\
189	0.00148023839230615\\
190	0.0014708213655126\\
191	0.00146152488676917\\
192	0.00145234663243548\\
193	0.00144328433865201\\
194	0.00143433579942216\\
195	0.0014254988647679\\
196	0.00141677143895562\\
197	0.00140815147878894\\
198	0.00139963699196521\\
199	0\\
200	0\\
};
\addlegendentry{$\mathbf{h_1}$}

\addplot [color=mycolor2]
  table[row sep=crcr]{%
1	0.00495033386861547\\
2	0.00515738368500011\\
3	0.00538309861623286\\
4	0.00563019833310769\\
5	0.00590197136255583\\
6	0.00620243506959928\\
7	0.00653655369620811\\
8	0.00691054090538825\\
9	0.00733228812251618\\
10	0.00781198494389501\\
11	0.00836304134465097\\
12	0.0090034999823859\\
13	0.00975827527656913\\
14	0.0106628508662167\\
15	0.0117696896019869\\
16	0.0131600228416925\\
17	0.0149671880151623\\
18	0.0174273921400842\\
19	0.0210049332363351\\
20	0.0267613442180004\\
21	0.037792597580649\\
22	0.068721841139076\\
23	0.97572931769219\\
24	0.0649085399616321\\
25	0.0262918397391367\\
26	0.0126468169615953\\
27	0.00419508123086451\\
28	0.0214241856295046\\
29	0.0134643328328179\\
30	0.00412679327935559\\
31	0.0112712342656943\\
32	0.0282552508318709\\
33	0.111702725947746\\
34	0.12653020104749\\
35	0.0361926668223949\\
36	0.024130019396178\\
37	0.019518168382204\\
38	0.0163235660243771\\
39	0.0140849625225472\\
40	0.0124312948441269\\
41	0.0111552918846637\\
42	0.0101369616841952\\
43	0.00930266674553233\\
44	0.00860476970863487\\
45	0.00801105372801389\\
46	0.00749890841387189\\
47	0.00705196472677567\\
48	0.00665805661850076\\
49	0.0063079366485928\\
50	0.00599443852440938\\
51	0.00571191453485358\\
52	0.00545584764793091\\
53	0.0052225778141873\\
54	0.00500910486747672\\
55	0.00481294397681212\\
56	0.00463201789166602\\
57	0.00446457542356871\\
58	0.00430912894812168\\
59	0.00416440590497024\\
60	0.00402931074167137\\
61	0.00390289474814389\\
62	0.00378433192171684\\
63	0.00367289949042518\\
64	0.0035679620699816\\
65	0.00346895868109233\\
66	0.00337539203747226\\
67	0.00328681965070268\\
68	0.00320284639950925\\
69	0\\
70	0\\
71	0\\
72	0\\
73	0\\
74	0\\
75	0\\
76	0\\
77	0\\
78	0\\
79	0\\
80	0\\
81	0\\
82	0\\
83	0\\
84	0\\
85	0\\
86	0\\
87	0\\
88	0\\
89	0\\
90	0\\
91	0\\
92	0\\
93	0\\
94	0\\
95	0\\
96	0\\
97	0\\
98	0\\
99	0\\
100	0\\
101	0\\
102	0\\
103	0\\
104	0\\
105	0\\
106	0\\
107	0\\
108	0\\
109	0\\
110	0\\
111	0\\
112	0\\
113	0\\
114	0\\
115	0\\
116	0\\
117	0\\
118	0\\
119	0\\
120	0\\
121	0\\
122	0\\
123	0\\
124	0\\
125	0\\
126	0\\
127	0\\
128	0\\
129	0\\
130	0\\
131	0\\
132	0\\
133	0\\
134	0\\
135	0\\
136	0\\
137	0\\
138	0\\
139	0\\
140	0\\
141	0\\
142	0\\
143	0\\
144	0\\
145	0\\
146	0\\
147	0\\
148	0\\
149	0\\
150	0\\
151	0\\
152	0\\
153	0\\
154	0\\
155	0\\
156	0\\
157	0\\
158	0\\
159	0\\
160	0\\
161	0\\
162	0\\
163	0\\
164	0\\
165	0\\
166	0\\
167	0\\
168	0\\
169	0\\
170	0\\
171	0\\
172	0\\
173	0\\
174	0\\
175	0\\
176	0\\
177	0\\
178	0\\
179	0\\
180	0\\
181	0\\
182	0\\
183	0\\
184	0\\
185	0\\
186	0\\
187	0\\
188	0\\
189	0\\
190	0\\
191	0\\
192	0\\
193	0\\
194	0\\
195	0\\
196	0\\
197	0\\
198	0\\
199	0\\
200	0\\
};
\addlegendentry{$\mathbf{h_{2}}$}

\end{axis}

\begin{axis}[%
width=1.935in,
height=3.2in,
at={(3.327in,0.512in)},
scale only axis,
xmin=0,
xmax=200,
xlabel style={font=\color{white!15!black}, align=center},
xlabel={Sample Index\\[1ex](b) Estimated},
ymin=0,
ymax=0.6,
axis background/.style={fill=white},
legend style={legend cell align=left, align=left, draw=white!15!black}
]
\addplot [color=mycolor1]
  table[row sep=crcr]{%
0	0.000325085014448742\\
1	0.000192876136566885\\
2	0.000381372012258801\\
3	0.00117291134701364\\
4	0.00504115830090468\\
5	0.0027641531373447\\
6	0.0011145682101802\\
7	0.00300420906454083\\
8	0.00396094154746675\\
9	0.00718080394698612\\
10	0.0125440462221485\\
11	0.00758861164208288\\
12	0.0831914501075638\\
13	0.0919234834224218\\
14	0.116612204709295\\
15	0.280225353874059\\
16	0.293450543265627\\
17	0.0835833355327543\\
18	0.0321185056234859\\
19	0.0120746446334635\\
20	0.0345835733226651\\
21	0.0787909257609199\\
22	0.088740434385987\\
23	0.0605788157512567\\
24	0.0869585510908066\\
25	0.0494196611100207\\
26	0.0458974315816496\\
27	0.0350904754115905\\
28	0.0202197716766921\\
29	0.0543848664572249\\
30	0.0769575469200302\\
31	0.134724562480674\\
32	0.243494902434831\\
33	0.126120910182518\\
34	0.143943322293135\\
35	0.338310827469339\\
36	0.260476354303088\\
37	0.0796662167246426\\
38	0.150062704880979\\
39	0.0449108477303624\\
40	0.107067279843581\\
41	0.129336749844677\\
42	0.0827422891495895\\
43	0.0339147058649367\\
44	0.0409493732993415\\
45	0.0989230494891549\\
46	0.0923287834449626\\
47	0.0476400799508421\\
48	0.0930567710608665\\
49	0.0849941847993488\\
50	0.0828649946492653\\
51	0.370841674852182\\
52	0.32101766278464\\
53	0.0655945316863971\\
54	0.0238819598124821\\
55	0.0338303846955545\\
56	0.039288214403622\\
57	0.0914902101754587\\
58	0.118862877160932\\
59	0.0317441686123432\\
60	0.0455786273234271\\
61	0.0399134714839066\\
62	0.0550017069127337\\
63	0.041739225695564\\
64	0.0218555388785218\\
65	0.0292627810109383\\
66	0.0222630314110263\\
67	0.0514442263231785\\
68	0.103576373082865\\
69	0.0598959487764622\\
70	0.0765831111246479\\
71	0.165050684457134\\
72	0.102514510708554\\
73	0.0244474671801512\\
74	0.00809755249505721\\
75	0.0137438862772802\\
76	0.018588323561786\\
77	0.0147798638264412\\
78	0.016851344403445\\
79	0.020725498821688\\
80	0.00592418302118745\\
81	0.0229914280070906\\
82	0.0324224510284334\\
83	0.0201119770570245\\
84	0.0120024668069761\\
85	0.0092218013167394\\
86	0.00371028437688123\\
87	0.00814083248578219\\
88	0.0131529027473121\\
89	0.0102397556942834\\
90	0.00632132158147274\\
91	0.00116901029577127\\
92	0.00776115683818955\\
93	0.0087489901334751\\
94	0.00581448973743137\\
95	0.0040325701788375\\
96	0.00254762120350593\\
97	0.000149902721579203\\
98	0.00131320338382356\\
99	0.00203263129759851\\
100	0.00297079211803951\\
101	0.00171263627105133\\
102	0.00161328177840264\\
103	0.00620247680021628\\
104	0.0128296821233913\\
105	0.00872149388864568\\
106	0.00562059669930247\\
107	0.00181032830315102\\
108	0.000249992659263304\\
109	0.000819155000452412\\
110	0.00146524094675174\\
111	0.000871705030559873\\
112	0.000966359432183687\\
113	0.000980762643581418\\
114	0.00166782089800156\\
115	0.00235770685080516\\
116	0.00189797082209311\\
117	0.0017519062694206\\
118	0.000988627414297416\\
119	0.00054881236893461\\
120	0.00143357265299115\\
121	0.00161961895357264\\
122	0.00075895036773967\\
123	0.00448456745577421\\
124	0.00480460757815246\\
125	0.00170470395309112\\
126	0.000678521922042921\\
127	0.000398657056591981\\
128	0.000685846239079041\\
129	0.000407050199128519\\
130	0.000374349508993623\\
131	0.000309400174885067\\
132	0.000325046396197753\\
133	0.000562820776317216\\
134	0.000935168396690516\\
135	0.000950224205595164\\
136	0.000371667640498796\\
137	0.000308794900400113\\
138	5.73233705661039e-05\\
139	0.00032137031916711\\
140	0.000264795664220575\\
141	0.00036148578585658\\
142	0.000102486309701234\\
143	9.81929442345424e-05\\
144	0.00023808883434405\\
145	0.000150118485246683\\
146	0.000270500178051182\\
147	8.22398669588951e-05\\
148	0.000134491916801158\\
149	9.03973091365518e-05\\
150	0.000142679492445485\\
151	5.0195331339051e-05\\
152	0.000161225900518097\\
153	8.24743003515274e-05\\
154	6.51610691216192e-05\\
155	0.000161389597691807\\
156	7.14385684740937e-05\\
157	9.63083143448401e-05\\
158	0.000106256964999784\\
159	8.4291770293854e-05\\
160	0.00010383387310718\\
161	7.47692939773112e-05\\
162	8.39297900113501e-05\\
163	0.000171698029715313\\
164	0.000187986175602998\\
165	0.00023449667561039\\
166	0.00056087844092523\\
167	0.000348075775641308\\
168	0.000228577626262757\\
169	0.000162930527144676\\
170	2.63587097344974e-05\\
171	9.05039402764818e-05\\
172	0.000115833501579346\\
173	5.9635156501038e-05\\
174	7.59454111544112e-05\\
175	0.000191681797813114\\
176	7.18826710746168e-05\\
177	0.000134880287451714\\
178	3.40744175420899e-05\\
179	0.000161505471565232\\
180	0.000158628177131466\\
181	0.000151457979339505\\
182	0.000391450722233511\\
183	0.000274500716232084\\
184	6.34215191384931e-05\\
185	0.000573715520729012\\
186	0.000926053983596506\\
187	0.000585746140582457\\
188	0.000253378047565806\\
189	0.000162844774506254\\
190	0.000234417380627333\\
191	0.000254633677796299\\
192	0.000216672382063813\\
193	0.000177010101435826\\
194	0.000148228948453379\\
195	0.000100667088700044\\
196	0.000196598478466982\\
197	0.000342784398136611\\
198	0.000144470001532895\\
199	0.000158828700412934\\
};
\addlegendentry{$\mathbf{\hat{h}_{1}}$}

\addplot [color=mycolor2]
  table[row sep=crcr]{%
0	0.000103229222504979\\
1	6.67231160647703e-05\\
2	0.000116964546922435\\
3	0.000375606207659157\\
4	0.00156501994748117\\
5	0.00101581432365682\\
6	0.000155470539976182\\
7	0.000337198609230761\\
8	0.000326393531246765\\
9	0.000183876967138996\\
10	0.000331724257343518\\
11	0.000655152100921937\\
12	0.000511422483568164\\
13	8.08039796033183e-05\\
14	0.000644627482409994\\
15	0.000561305549617681\\
16	0.000459984070790865\\
17	0.000691203087200111\\
18	0.000606993038803186\\
19	0.000921621303219933\\
20	0.000950242555864856\\
21	0.00189859874456601\\
22	0.0197597332922501\\
23	0.0314544455692959\\
24	0.0233216112981377\\
25	0.0901257856987333\\
26	0.267464312020881\\
27	0.514900388272374\\
28	0.24134139954772\\
29	0.0332439578664361\\
30	0.00879192604058224\\
31	0.0290525507059363\\
32	0.0242141548149346\\
33	0.112058925734657\\
34	0.0598335485885732\\
35	0.0812441009538677\\
36	0.118415534614223\\
37	0.109270798577277\\
38	0.0586228714888659\\
39	0.00974240488224563\\
40	0.0715974387000944\\
41	0.0811654045780686\\
42	0.0337356570410883\\
43	0.0744021354406234\\
44	0.101416133080641\\
45	0.0813414328540886\\
46	0.46036561364188\\
47	0.502448922342549\\
48	0.193106519685321\\
49	0.017012852198297\\
50	0.00619799038676415\\
51	0.0115006022169845\\
52	0.0146197546927048\\
53	0.00619638405856082\\
54	0.00164106459040047\\
55	0.000625558744837633\\
56	0.00393468717483248\\
57	0.0055566630271045\\
58	0.00570558543554274\\
59	0.00894227002169014\\
60	0.0101216482543188\\
61	0.00874751402226226\\
62	0.0185359476307664\\
63	0.0263724937487624\\
64	0.0208300872026767\\
65	0.0118530494382217\\
66	0.00362690317201379\\
67	0.00120170459224659\\
68	0.00134573691496267\\
69	0.00254040969138313\\
70	0.00235357773844709\\
71	0.00163679115314504\\
72	0.000694251655397189\\
73	0.00213092510256273\\
74	0.00217887887538526\\
75	0.00168662902740192\\
76	0.00157097017455736\\
77	0.000752526521881271\\
78	0.000793921517117971\\
79	0.0067647393389263\\
80	0.00933479253617304\\
81	0.0115077324138181\\
82	0.00812135196546431\\
83	0.00199415453923726\\
84	0.000387353186513027\\
85	0.00116480637510779\\
86	0.0012937836628178\\
87	0.00106231834206754\\
88	0.00125411619820808\\
89	0.000920346386493945\\
90	0.000356121910793373\\
91	0.000124309604718796\\
92	0.000831412609557774\\
93	0.0013904604253521\\
94	0.000921979776280541\\
95	0.000181902285950802\\
96	0.000468075025739682\\
97	0.000958498917829212\\
98	0.00564538021088756\\
99	0.00947843273193157\\
100	0.00573346758658955\\
101	0.00105435563820144\\
102	6.49884127931216e-06\\
103	1.71323963394089e-06\\
104	3.83557547305453e-06\\
105	3.34195281488937e-06\\
106	3.49224702180979e-06\\
107	4.52272947048265e-06\\
108	2.74326886565694e-06\\
109	5.13407761212126e-06\\
110	7.71292086972432e-06\\
111	5.70370607620241e-06\\
112	2.59937055345301e-06\\
113	1.6325790340682e-06\\
114	1.49138654052471e-06\\
115	5.41720076561589e-06\\
116	5.02988702738763e-06\\
117	2.50831625681397e-06\\
118	3.30375735746127e-06\\
119	6.04158401220417e-06\\
120	4.71084093002207e-06\\
121	2.59947022038563e-06\\
122	4.91706029861291e-06\\
123	5.41103666352e-06\\
124	1.56830230226497e-06\\
125	1.01556252536839e-05\\
126	1.2960401568679e-05\\
127	7.69265551632289e-06\\
128	2.29553969230278e-06\\
129	1.86143086179393e-06\\
130	4.48898583630207e-06\\
131	4.10228265510289e-06\\
132	3.70419275462059e-06\\
133	5.59827551742869e-06\\
134	5.90102607454226e-06\\
135	6.34993544335746e-06\\
136	5.31295169539952e-06\\
137	7.62285797016113e-06\\
138	4.85684717783046e-06\\
139	1.40576266181915e-06\\
140	1.26489383591207e-07\\
141	2.8713791150369e-06\\
142	1.23157466232542e-05\\
143	1.87295428250634e-05\\
144	2.29443964522847e-05\\
145	2.76055832182551e-05\\
146	2.02140073406418e-05\\
147	7.62596246324723e-06\\
148	4.43432379150541e-06\\
149	8.62842518996165e-06\\
150	1.49846074667369e-05\\
151	2.26206342499984e-05\\
152	2.23112405149644e-05\\
153	1.57234196307915e-05\\
154	1.47994175777404e-05\\
155	2.649286150557e-05\\
156	3.88906999928681e-05\\
157	3.66601694620483e-05\\
158	1.6914962967133e-05\\
159	1.08816046487207e-05\\
160	3.20967963505926e-05\\
161	3.99252760320057e-05\\
162	3.27782696618498e-05\\
163	1.44318897105881e-05\\
164	2.05469778978302e-05\\
165	6.07212890138618e-05\\
166	0.000117034476817645\\
167	0.000161389308275677\\
168	0.000132566817809379\\
169	4.5837856291266e-05\\
170	1.91771452696256e-05\\
171	3.66499858975527e-05\\
172	3.73009774019985e-05\\
173	4.42921621302666e-05\\
174	3.84962396956624e-05\\
175	5.16762969832275e-05\\
176	0.000238500222473113\\
177	0.00058252095787735\\
178	0.000727479265784419\\
179	0.000418830041221302\\
180	8.22071341634426e-05\\
181	0.000142967782815345\\
182	2.99518737889629e-05\\
183	0.000108932543502318\\
184	0.00019850494208805\\
185	0.000162097733333315\\
186	0.000160115585360518\\
187	0.000176341814139558\\
188	8.18773877422537e-05\\
189	5.63645057750572e-05\\
190	3.20927049666772e-05\\
191	0.000179139502395847\\
192	0.000193895685125342\\
193	7.22855085840455e-05\\
194	0.000104287351152111\\
195	3.48061945731609e-05\\
196	0.000191903198676497\\
197	0.00115868596027805\\
198	0.00121891588871392\\
199	0.000322085292246129\\
};
\addlegendentry{$\mathbf{\hat{h}_{2}}$}

\end{axis}
\end{tikzpicture}%