% This file was created by matlab2tikz.
%
%The latest updates can be retrieved from
%  http://www.mathworks.com/matlabcentral/fileexchange/22022-matlab2tikz-matlab2tikz
%where you can also make suggestions and rate matlab2tikz.
%
\definecolor{mycolor1}{rgb}{0.00000,0.44700,0.74100}%
\definecolor{mycolor2}{rgb}{0.85000,0.32500,0.09800}%
%
\begin{tikzpicture}

\begin{axis}[%
width=1.935in,
height=3.2in,
at={(0.758in,0.512in)},
scale only axis,
xmin=0,
xmax=200,
xlabel style={font=\color{white!15!black}, align=center},
xlabel={Sample Index\\[1ex](a) Actual},
ymin=0,
ymax=1,
axis background/.style={fill=white},
legend style={legend cell align=left, align=left, draw=white!15!black}
]
\addplot [color=mycolor1]
  table[row sep=crcr]{%
1	0.0167418731260698\\
2	0.018659722218203\\
3	0.0211495716349754\\
4	0.0245407494314006\\
5	0.029505643974117\\
6	0.0377161636169434\\
7	0.0550750576238134\\
8	0.131028403455825\\
9	0.141533477104454\\
10	0.158175166246243\\
11	0.163761757297189\\
12	0.600100605556833\\
13	0.118033417583129\\
14	0.0610914209628117\\
15	0.0426162246246858\\
16	0.0332715711707656\\
17	0.0321939439283243\\
18	0.0268871008873183\\
19	0.0316920608120786\\
20	0.0286771919664519\\
21	0.00773119825769845\\
22	0.0330073087209196\\
23	0.019415059292473\\
24	0.0177688778425817\\
25	0.0188194600762088\\
26	0.0237714798713867\\
27	0.0430806655948836\\
28	0.586023006720236\\
29	0.0970905103802927\\
30	0.0246981078960262\\
31	0.0780346253424249\\
32	0.0580455436901626\\
33	0.0681836526256362\\
34	0.163824852865525\\
35	0.0446106828365612\\
36	0.06119675966513\\
37	0.00907835157153909\\
38	0.0310093774848825\\
39	0.00125972832884384\\
40	0.005422098150711\\
41	0.0107374596162295\\
42	0.0165479326643041\\
43	0.024789327411243\\
44	0.0446277431282512\\
45	0.058019450740893\\
46	0.074843365423057\\
47	0.199666615467323\\
48	0.216838516027539\\
49	0.0783890355452335\\
50	0.0495529240878659\\
51	0.0370791446049236\\
52	0.0307530810094058\\
53	0.0155757068681131\\
54	0.0198807977432187\\
55	0.0179871495341263\\
56	0.0162887905400521\\
57	0.0148728268904216\\
58	0.0136909847461918\\
59	0.0126943671543235\\
60	0.011846112844806\\
61	0.0111233301448608\\
62	0.0105291449791113\\
63	0.0102108676347222\\
64	0.00751288118280402\\
65	0.00739035992869396\\
66	0.0116365722557393\\
67	0.00899390796280924\\
68	0.00831157148096884\\
69	0.00788086875151191\\
70	0.00754217236777393\\
71	0.00725475830161164\\
72	0.00700327644843893\\
73	0.006780818536885\\
74	0.00658453626015097\\
75	0.00641472878078445\\
76	0.00627599401250467\\
77	0.00618216997550965\\
78	0.00617516728867787\\
79	0.00642745729543014\\
80	0.00873051939586948\\
81	0.00471465923588381\\
82	0.00195996010568866\\
83	0.004980313957114\\
84	0.00475839614864904\\
85	0.00464733241660508\\
86	0.00455444244400457\\
87	0.00446749239384432\\
88	0.00438406292262191\\
89	0.00430366820355207\\
90	0.00422628355118023\\
91	0.00415201532524293\\
92	0.00408104289588831\\
93	0.00401365198230764\\
94	0.00395033763548775\\
95	0.00389203620501121\\
96	0.00384070443755282\\
97	0.00380107128140597\\
98	0.00378779867734327\\
99	0.00387836096292209\\
100	0.00228454900881806\\
101	0.00321909463290553\\
102	0.00328982387499096\\
103	0.00328100374444436\\
104	0.00325253146337885\\
105	0.00321692683031362\\
106	0.00317840637543852\\
107	0.00313876414674543\\
108	0.00309887602618152\\
109	0.00305920797263281\\
110	0.00302002111537278\\
111	0.00298146552488656\\
112	0.00294362726599965\\
113	0.0029065537719176\\
114	0.00287026833389302\\
115	0.00283477876811283\\
116	0.00280008280049957\\
117	0.00276617151884636\\
118	0.00273303164395387\\
119	0.00270064705586787\\
120	0.00266899983729428\\
121	0.00263807099659409\\
122	0.00260784097374635\\
123	0.00257828999668392\\
124	0.00254939833288439\\
125	0.00252114646667125\\
126	0.00249351522323938\\
127	0.00246648585412356\\
128	0.00244004009455901\\
129	0.00241416020024051\\
130	0.00238882896892876\\
131	0.0023640297508985\\
132	0.00233974645117835\\
133	0.00231596352577768\\
134	0.00229266597354371\\
135	0.00226983932488367\\
136	0.00224746962828519\\
137	0.00222554343533969\\
138	0.00220404778480324\\
139	0.00218297018609978\\
140	0.00216229860257188\\
141	0.00214202143470905\\
142	0.00212212750352594\\
143	0.00210260603421662\\
144	0.00208344664017788\\
145	0.00206463930746792\\
146	0.00204617437974413\\
147	0.00202804254371082\\
148	0.00201023481509265\\
149	0.00199274252514179\\
150	0.00197555730767936\\
151	0.0019586710866655\\
152	0.00194207606428942\\
153	0.00192576470956709\\
154	0.00190972974743187\\
155	0.00189396414830307\\
156	0.00187846111811499\\
157	0.00186321408878906\\
158	0.00184821670913216\\
159	0.00183346283614256\\
160	0.00181894652670628\\
161	0.00180466202966742\\
162	0.00179060377825436\\
163	0.00177676638284649\\
164	0.00176314462406556\\
165	0.00174973344617591\\
166	0.0017365279507797\\
167	0.00172352339079259\\
168	0.00171071516468654\\
169	0.00169809881098722\\
170	0.00168567000301325\\
171	0.00167342454384613\\
172	0.00166135836151948\\
173	0.00164946750441694\\
174	0.00163774813686889\\
175	0.00162619653493841\\
176	0.00161480908238697\\
177	0.00160358226681213\\
178	0.001592512675948\\
179	0.00158159699412143\\
180	0.00157083199885632\\
181	0.00156021455761888\\
182	0.00154974162469766\\
183	0.00153941023821136\\
184	0.00152921751723897\\
185	0.00151916065906659\\
186	0.00150923693654504\\
187	0.00149944369555362\\
188	0.00148977835256491\\
189	0.00148023839230615\\
190	0.0014708213655126\\
191	0.00146152488676917\\
192	0.00145234663243548\\
193	0.00144328433865201\\
194	0.00143433579942216\\
195	0.0014254988647679\\
196	0.00141677143895562\\
197	0.00140815147878894\\
198	0.00139963699196521\\
199	0\\
200	0\\
};
\addlegendentry{$\mathbf{h_1}$}

\addplot [color=mycolor2]
  table[row sep=crcr]{%
1	0.00495033386861547\\
2	0.00515738368500011\\
3	0.00538309861623286\\
4	0.00563019833310769\\
5	0.00590197136255583\\
6	0.00620243506959928\\
7	0.00653655369620811\\
8	0.00691054090538825\\
9	0.00733228812251618\\
10	0.00781198494389501\\
11	0.00836304134465097\\
12	0.0090034999823859\\
13	0.00975827527656913\\
14	0.0106628508662167\\
15	0.0117696896019869\\
16	0.0131600228416925\\
17	0.0149671880151623\\
18	0.0174273921400842\\
19	0.0210049332363351\\
20	0.0267613442180004\\
21	0.037792597580649\\
22	0.068721841139076\\
23	0.97572931769219\\
24	0.0649085399616321\\
25	0.0262918397391367\\
26	0.0126468169615953\\
27	0.00419508123086451\\
28	0.0214241856295046\\
29	0.0134643328328179\\
30	0.00412679327935559\\
31	0.0112712342656943\\
32	0.0282552508318709\\
33	0.111702725947746\\
34	0.12653020104749\\
35	0.0361926668223949\\
36	0.024130019396178\\
37	0.019518168382204\\
38	0.0163235660243771\\
39	0.0140849625225472\\
40	0.0124312948441269\\
41	0.0111552918846637\\
42	0.0101369616841952\\
43	0.00930266674553233\\
44	0.00860476970863487\\
45	0.00801105372801389\\
46	0.00749890841387189\\
47	0.00705196472677567\\
48	0.00665805661850076\\
49	0.0063079366485928\\
50	0.00599443852440938\\
51	0.00571191453485358\\
52	0.00545584764793091\\
53	0.0052225778141873\\
54	0.00500910486747672\\
55	0.00481294397681212\\
56	0.00463201789166602\\
57	0.00446457542356871\\
58	0.00430912894812168\\
59	0.00416440590497024\\
60	0.00402931074167137\\
61	0.00390289474814389\\
62	0.00378433192171684\\
63	0.00367289949042518\\
64	0.0035679620699816\\
65	0.00346895868109233\\
66	0.00337539203747226\\
67	0.00328681965070268\\
68	0.00320284639950925\\
69	0\\
70	0\\
71	0\\
72	0\\
73	0\\
74	0\\
75	0\\
76	0\\
77	0\\
78	0\\
79	0\\
80	0\\
81	0\\
82	0\\
83	0\\
84	0\\
85	0\\
86	0\\
87	0\\
88	0\\
89	0\\
90	0\\
91	0\\
92	0\\
93	0\\
94	0\\
95	0\\
96	0\\
97	0\\
98	0\\
99	0\\
100	0\\
101	0\\
102	0\\
103	0\\
104	0\\
105	0\\
106	0\\
107	0\\
108	0\\
109	0\\
110	0\\
111	0\\
112	0\\
113	0\\
114	0\\
115	0\\
116	0\\
117	0\\
118	0\\
119	0\\
120	0\\
121	0\\
122	0\\
123	0\\
124	0\\
125	0\\
126	0\\
127	0\\
128	0\\
129	0\\
130	0\\
131	0\\
132	0\\
133	0\\
134	0\\
135	0\\
136	0\\
137	0\\
138	0\\
139	0\\
140	0\\
141	0\\
142	0\\
143	0\\
144	0\\
145	0\\
146	0\\
147	0\\
148	0\\
149	0\\
150	0\\
151	0\\
152	0\\
153	0\\
154	0\\
155	0\\
156	0\\
157	0\\
158	0\\
159	0\\
160	0\\
161	0\\
162	0\\
163	0\\
164	0\\
165	0\\
166	0\\
167	0\\
168	0\\
169	0\\
170	0\\
171	0\\
172	0\\
173	0\\
174	0\\
175	0\\
176	0\\
177	0\\
178	0\\
179	0\\
180	0\\
181	0\\
182	0\\
183	0\\
184	0\\
185	0\\
186	0\\
187	0\\
188	0\\
189	0\\
190	0\\
191	0\\
192	0\\
193	0\\
194	0\\
195	0\\
196	0\\
197	0\\
198	0\\
199	0\\
200	0\\
};
\addlegendentry{$\mathbf{h_{2}}$}

\end{axis}

\begin{axis}[%
width=1.935in,
height=3.2in,
at={(3.327in,0.512in)},
scale only axis,
xmin=0,
xmax=400,
xlabel style={font=\color{white!15!black}, align=center},
xlabel={Sample Index\\[1ex](b) Estimated},
ymin=0,
ymax=0.15,
axis background/.style={fill=white},
legend style={legend cell align=left, align=left, draw=white!15!black}
]
\addplot [color=mycolor1]
  table[row sep=crcr]{%
0	0.0557545347710994\\
1	0.052084518383661\\
2	0.0100926807620778\\
3	0.0358774112390175\\
4	0.0604336878470488\\
5	0.0414390889347849\\
6	0.0961742178913384\\
7	0.0311205439469319\\
8	0.0376671358953299\\
9	0.0362306610426173\\
10	0.0316821268277106\\
11	0.029036152245142\\
12	0.0854107717506332\\
13	0.0223675082987256\\
14	0.0886588405230394\\
15	0.0868293724782441\\
16	0.0244252547863499\\
17	0.0798951857986865\\
18	0.0257606486914298\\
19	0.0524343278333015\\
20	0.0627897918825427\\
21	0.0177032151309308\\
22	0.0360067184194882\\
23	0.0202389886474911\\
24	0.0436310331182728\\
25	0.0647967289986154\\
26	0.0738822252283995\\
27	0.0336314767360274\\
28	0.0252313946151019\\
29	0.0420465127594398\\
30	0.0710948165364458\\
31	0.0588429273842075\\
32	0.0592934351234075\\
33	0.0396052483113093\\
34	0.0289143106352083\\
35	0.0486340392844465\\
36	0.0320469699903968\\
37	0.0564005867016816\\
38	0.0420783102407341\\
39	0.0127620176010176\\
40	0.0272834107603079\\
41	0.0183335818345307\\
42	0.0246283475566567\\
43	0.024871402579176\\
44	0.0544074234859859\\
45	0.0708760077606921\\
46	0.0565187965510309\\
47	0.019746966076513\\
48	0.0854751456304062\\
49	0.0145120695908533\\
50	0.0168206623062422\\
51	0.0376147104451334\\
52	0.0502137748724412\\
53	0.0504204703889136\\
54	0.0290784963630673\\
55	0.0746696209900557\\
56	0.0431262326834487\\
57	0.0465940777821832\\
58	0.0384107413699385\\
59	0.0219525102406776\\
60	0.0687946160980607\\
61	0.0695455189518379\\
62	0.0142232280101877\\
63	0.0340254079989703\\
64	0.0142269714604928\\
65	0.0378132442840573\\
66	0.0827237873207288\\
67	0.0195600699997199\\
68	0.0622511560124262\\
69	0.0429961066898282\\
70	0.0396431738875732\\
71	0.00938805323788717\\
72	0.110663436776103\\
73	0.0196456328167822\\
74	0.0335273858025426\\
75	0.0422757458144391\\
76	0.0199428930861734\\
77	0.0111362448380452\\
78	0.0211125246914359\\
79	0.0617562705738408\\
80	0.08428287230111\\
81	0.0658678383217716\\
82	0.0769340670820795\\
83	0.0646813701649604\\
84	0.0751124453954282\\
85	0.024163200698164\\
86	0.084645103904442\\
87	0.032218710568261\\
88	0.0109062129604065\\
89	0.0272239154042037\\
90	0.0291791032098352\\
91	0.0920278397368215\\
92	0.0195553090336927\\
93	0.0411413451670982\\
94	0.0279985799492922\\
95	0.0758133638336272\\
96	0.0104528321853397\\
97	0.0412483415911727\\
98	0.0323347813630094\\
99	0.0452496041154004\\
100	0.0243160889525694\\
101	0.00570803442164825\\
102	0.05613254706891\\
103	0.0965858628090315\\
104	0.0383453492612871\\
105	0.0707163116583558\\
106	0.088519240784631\\
107	0.0185444263443099\\
108	0.0608203765107192\\
109	0.0581391518889199\\
110	0.0267474061277797\\
111	0.0718452467348438\\
112	0.0760277505044125\\
113	0.0481512105691594\\
114	0.0609315276812898\\
115	0.0180704664686416\\
116	0.0385769302145246\\
117	0.0653940567471458\\
118	0.0616602158812177\\
119	0.0577006054125626\\
120	0.0197451645106441\\
121	0.0146872398277846\\
122	0.0742010910745112\\
123	0.0287270648233407\\
124	0.0802389300143069\\
125	0.0987874371263039\\
126	0.0320827616318787\\
127	0.0871176479044426\\
128	0.0448742934850026\\
129	0.0348531270248579\\
130	0.0412139827691803\\
131	0.0486683092142479\\
132	0.0346317074130185\\
133	0.00136578515005947\\
134	0.026363149426704\\
135	0.0214640713130062\\
136	0.0321221213213595\\
137	0.0242759618740415\\
138	0.0397807662615244\\
139	0.00742706180310697\\
140	0.0317799653110626\\
141	0.0257247044755218\\
142	0.0686029704184847\\
143	0.0833310012557484\\
144	0.0333475089858272\\
145	0.0120029407752213\\
146	0.00455560155927573\\
147	0.0142078959089707\\
148	0.0402084047105395\\
149	0.0507685404858709\\
150	0.028371761069367\\
151	0.0262713609743804\\
152	0.0109089282902703\\
153	0.0416884539340173\\
154	0.0486364644849629\\
155	0.055145283947583\\
156	0.0767898339675706\\
157	0.0167631801327835\\
158	0.064552780970078\\
159	0.0743404688033025\\
160	0.105395494919984\\
161	0.0394803008720351\\
162	0.0293936754575795\\
163	0.0232278677988342\\
164	0.0150314828987596\\
165	0.020377531292334\\
166	0.0468337670972607\\
167	0.0306050840111158\\
168	0.0329289698064815\\
169	0.0277806928860361\\
170	0.0754856504210431\\
171	0.0289056244304741\\
172	0.0758438078855245\\
173	0.0176262757209704\\
174	0.0262319287878667\\
175	0.0476116350139878\\
176	0.0478163607722653\\
177	0.0580714623105668\\
178	0.0236138601219895\\
179	0.0824622109695095\\
180	0.0516711139189502\\
181	0.0519231764495082\\
182	0.0878310313137321\\
183	0.0540704464838919\\
184	0.0193966204578405\\
185	0.0525578794090795\\
186	0.0264888732930409\\
187	0.0458349466968248\\
188	0.0440884546901751\\
189	0.0380883856354752\\
190	0.00721799294984767\\
191	0.0357360532609854\\
192	0.0331963629412776\\
193	0.0150694767939293\\
194	0.0760109053296513\\
195	0.0350341128832366\\
196	0.0645914116261565\\
197	0.0175505540591061\\
198	0.0640752488341863\\
199	0.0908995632553079\\
200	0.00717533599576986\\
201	0.0588144575279196\\
202	0.0767514543795423\\
203	0.0326441845662604\\
204	0.0363283952401651\\
205	0.0336683093471378\\
206	0.0214854651615374\\
207	0.0382713497620395\\
208	0.009958986039416\\
209	0.0278058208387377\\
210	0.0218942255710729\\
211	0.045182479534282\\
212	0.0672729858784758\\
213	0.0238051405188357\\
214	0.0841079225901109\\
215	0.0696906220882025\\
216	0.0301505915025912\\
217	0.0320972586816157\\
218	0.018351962106643\\
219	0.0348831320497865\\
220	0.053304171359996\\
221	0.0924300023480853\\
222	0.0175890345716229\\
223	0.0526459144080137\\
224	0.045052553502111\\
225	0.0399619493348875\\
226	0.0439608931489723\\
227	0.0205240431390989\\
228	0.0193281105754922\\
229	0.0607189513580066\\
230	0.0231880217796525\\
231	0.0261840374517853\\
232	0.044102910995849\\
233	0.0401784426281938\\
234	0.0336758394839108\\
235	0.0217627835083586\\
236	0.0160342899274413\\
237	0.0518012758207382\\
238	0.0242543933441641\\
239	0.064690512137508\\
240	0.0322924573374761\\
241	0.00725306285624675\\
242	0.0175425217340356\\
243	0.0161899883955433\\
244	0.0149620952889126\\
245	0.0558929786220221\\
246	0.0234867531734179\\
247	0.0399055432633922\\
248	0.0418837884262087\\
249	0.0634871045006479\\
250	0.0347874030321982\\
251	0.0696925856520298\\
252	0.032577143174067\\
253	0.0541248512669238\\
254	0.0345705165051448\\
255	0.100456137768969\\
256	0.039913258275754\\
257	0.040488278881341\\
258	0.0166961339611058\\
259	0.0182244206363518\\
260	0.0331951983669151\\
261	0.0813657842008131\\
262	0.0520820196119451\\
263	0.0645221403084022\\
264	0.07505856926875\\
265	0.0231169948668012\\
266	0.0101036683856038\\
267	0.0440125820978786\\
268	0.060110462376768\\
269	0.042460449641947\\
270	0.0751949070693153\\
271	0.0223251031705261\\
272	0.0499739827623913\\
273	0.0340309704643759\\
274	0.0942165421284571\\
275	0.0358558047613197\\
276	0.0493920615075179\\
277	0.046881354119464\\
278	0.0287430019712056\\
279	0.0443552216526631\\
280	0.0804258675386911\\
281	0.0249054560656583\\
282	0.0654928308858925\\
283	0.0256144192090955\\
284	0.0206518283364352\\
285	0.0480897574948579\\
286	0.0727049245235524\\
287	0.0177446622980467\\
288	0.054412176788914\\
289	0.0742024680171262\\
290	0.0522700545555821\\
291	0.0516707205632796\\
292	0.0604400864572925\\
293	0.0304862824487443\\
294	0.0773462997398106\\
295	0.0160027384003957\\
296	0.0668779123222344\\
297	0.0752434897650199\\
298	0.0795470727807453\\
299	0.045493907308943\\
300	0.0215609439159002\\
301	0.045681183746765\\
302	0.069421127127619\\
303	0.0613808822710744\\
304	0.0343690124722053\\
305	0.0874598257102717\\
306	0.0490119483482221\\
307	0.0342949002270233\\
308	0.0264963991148013\\
309	0.0475637013969453\\
310	0.0243247357691397\\
311	0.0437279735495981\\
312	0.0499543908468899\\
313	0.00722808585544966\\
314	0.0671815426616068\\
315	0.0248955543507247\\
316	0.0758378929548858\\
317	0.0391902272739726\\
318	0.024542729533362\\
319	0.0352163971137055\\
320	0.0502623980111796\\
321	0.0129271595105076\\
322	0.0471419227925013\\
323	0.0366181961299294\\
324	0.0711635874456761\\
325	0.0182944080635439\\
326	0.0550473444072005\\
327	0.0759010448009366\\
328	0.0466065773679269\\
329	0.0552866538841408\\
330	0.0278246927466022\\
331	0.00204834228128381\\
332	0.0415191327713752\\
333	0.0231283656905188\\
334	0.0414574952557377\\
335	0.0707310279723488\\
336	0.0444946153511353\\
337	0.0710935777694226\\
338	0.0576592906508498\\
339	0.0474120011313528\\
340	0.0695161725405063\\
341	0.0266769249104723\\
342	0.108425993401429\\
343	0.0854257039756537\\
344	0.0504887185525716\\
345	0.0274977216444449\\
346	0.0468874520473646\\
347	0.0305998236260539\\
348	0.0509024301666738\\
349	0.0352647931651523\\
350	0.0307215950467061\\
351	0.113894420488539\\
352	0.0612988438925363\\
353	0.0314453275387168\\
354	0.0525203599117932\\
355	0.0364349010437003\\
356	0.0171140368127391\\
357	0.020469263514267\\
358	0.125962966731645\\
359	0.0506875359982578\\
360	0.0196209934910776\\
361	0.0589329772492427\\
362	0.10357528420446\\
363	0.0345530496110238\\
364	0.0312637339905495\\
365	0.0436987629880739\\
366	0.0359389469509925\\
367	0.0355247156956435\\
368	0.0218594996612835\\
369	0.0280166803068525\\
370	0.0443079620892969\\
371	0.023640594051621\\
372	0.0586247882102503\\
373	0.0125420117902792\\
374	0.0335440095635893\\
375	0.0316151682081174\\
376	0.0634727094971064\\
377	0.0415448968415605\\
378	0.0828798602425362\\
379	0.0113207863521776\\
380	0.0544515952432111\\
381	0.0290947808288277\\
382	0.033568880874083\\
383	0.0298093263582345\\
384	0.0431624989063045\\
385	0.0269217256895477\\
386	0.0180095838195397\\
387	0.0036778130525134\\
388	0.0469645180530247\\
389	0.0436559879520172\\
390	0.0378488080799681\\
391	0.0535180663911112\\
392	0.0760736229833991\\
393	0.101215484267862\\
394	0.0389081884338361\\
395	0.0380995188668704\\
396	0.068439363021855\\
397	0.0106057046390998\\
398	0.0354194688091851\\
399	0.0461160028792481\\
};
\addlegendentry{$\mathbf{\hat{h}_{1}}$}

\addplot [color=mycolor2]
  table[row sep=crcr]{%
0	0.0103202226805536\\
1	0.0276949885983306\\
2	0.0587591730983842\\
3	0.0785667876206747\\
4	0.0302836584071002\\
5	0.0368734064400136\\
6	0.0435947426481684\\
7	0.0186389854101829\\
8	0.0199962153332871\\
9	0.0398977263278667\\
10	0.0254819159980267\\
11	0.0390826076375871\\
12	0.0143731190311266\\
13	0.0623425563156841\\
14	0.030356945130237\\
15	0.0322928494972849\\
16	0.0854110342677011\\
17	0.0391143487989772\\
18	0.0447343662556147\\
19	0.0482724470686913\\
20	0.035578544358897\\
21	0.0680676105353853\\
22	0.0950879275075364\\
23	0.0399858579285632\\
24	0.0813326725172852\\
25	0.0159875440488764\\
26	0.0435334121112184\\
27	0.0860301333121318\\
28	0.0332563903084293\\
29	0.0555930129434486\\
30	0.0874080904366967\\
31	0.0412523503149483\\
32	0.040720012433242\\
33	0.0466158175803488\\
34	0.039863551020348\\
35	0.0692164974493762\\
36	0.032631744847368\\
37	0.0528942656869358\\
38	0.083770310701358\\
39	0.0792402299105673\\
40	0.017244117576721\\
41	0.0506842945725244\\
42	0.0459337497161075\\
43	0.0516725121219308\\
44	0.102549983638156\\
45	0.0230588617911865\\
46	0.0759845678460605\\
47	0.0617485390163422\\
48	0.0976206092576677\\
49	0.0344730008917423\\
50	0.0713626993913893\\
51	0.0465118246223899\\
52	0.0254572931659768\\
53	0.0188376996492072\\
54	0.0756106050551914\\
55	0.136252785429753\\
56	0.000986195431050069\\
57	0.0133456571710664\\
58	0.0588222681741882\\
59	0.0707158581533814\\
60	0.0127778597750151\\
61	0.055056687556003\\
62	0.0647930618715057\\
63	0.0701860049661116\\
64	0.0211454513668462\\
65	0.0374663593163304\\
66	0.0331229197801225\\
67	0.0316272498649794\\
68	0.0368119073599558\\
69	0.0524948339409637\\
70	0.0723258037229877\\
71	0.0322292975648626\\
72	0.0439888256238435\\
73	0.121561117763796\\
74	0.0222048357430982\\
75	0.0213704881125769\\
76	0.0570287437188825\\
77	0.0582208193674249\\
78	0.0735315377550479\\
79	0.0637555090082903\\
80	0.0172451794332464\\
81	0.0112739707850959\\
82	0.0778987977063351\\
83	0.0325904529868434\\
84	0.0556080120787439\\
85	0.00831576393334484\\
86	0.0623320234085504\\
87	0.0173781129796844\\
88	0.0154704801287706\\
89	0.010568267730646\\
90	0.0267351210088111\\
91	0.0277577365799944\\
92	0.00592542826725706\\
93	0.0840346001986884\\
94	0.0239618136301803\\
95	0.0464627608500327\\
96	0.0324673299537521\\
97	0.0423935324736858\\
98	0.0137171919481098\\
99	0.0284995590825572\\
100	0.0411639394575455\\
101	0.0314603313556644\\
102	0.049090979374831\\
103	0.014206615602331\\
104	0.0226993292284356\\
105	0.0544755795839284\\
106	0.0188747911450669\\
107	0.0158794334345149\\
108	0.0147674877276364\\
109	0.0245301643959389\\
110	0.0181585786574652\\
111	0.0457302858359685\\
112	0.022293514308252\\
113	0.0163815294298629\\
114	0.0683943626227855\\
115	0.0579054573434667\\
116	0.0331102235946079\\
117	0.0161951880809332\\
118	0.0810329503208144\\
119	0.0689123658286581\\
120	0.0496301542131625\\
121	0.0175952137039856\\
122	0.0355452854107113\\
123	0.0428921034144492\\
124	0.0470308570279435\\
125	0.0419862613500185\\
126	0.0279601292159479\\
127	0.0369367821441262\\
128	0.0139514293490312\\
129	0.0191096325648513\\
130	0.0416461893245644\\
131	0.0426986468633488\\
132	0.0886175173540679\\
133	0.0390261727031589\\
134	0.0541473312401769\\
135	0.0200271487909953\\
136	0.0146193356674057\\
137	0.0172514028327465\\
138	0.0414246093151233\\
139	0.0204511663716147\\
140	0.0145198960853554\\
141	0.018108158316272\\
142	0.0271590691061065\\
143	0.101006993030693\\
144	0.018572954247483\\
145	0.0159996915052074\\
146	0.0625640836376253\\
147	0.0601373557892484\\
148	0.0164646742379884\\
149	0.0513267029675288\\
150	0.0439394992058796\\
151	0.0507991037053416\\
152	0.0343104542608042\\
153	0.0464584544700117\\
154	0.0659336328750855\\
155	0.0888279244235119\\
156	0.0647057578842285\\
157	0.0433264238793403\\
158	0.0569165737137903\\
159	0.0138661863435268\\
160	0.0185440829352061\\
161	0.0321919533854313\\
162	0.0602364092213962\\
163	0.0616109789841351\\
164	0.0269413157957859\\
165	0.0583299231724637\\
166	0.0559126076650814\\
167	0.018365145467234\\
168	0.0144192217726083\\
169	0.0833352844070026\\
170	0.026578757010928\\
171	0.0358743080217402\\
172	0.0259049434979019\\
173	0.0550340438810123\\
174	0.0812436598448886\\
175	0.0362076856835683\\
176	0.0831568804971098\\
177	0.0903512261420236\\
178	0.0209594621847742\\
179	0.0250043847960598\\
180	0.0558040561812042\\
181	0.0623909686529069\\
182	0.0183048047520074\\
183	0.0468818838035088\\
184	0.0273452935790995\\
185	0.0600923019016831\\
186	0.0365500447246029\\
187	0.120566282289038\\
188	0.0424981229502961\\
189	0.0202973842430933\\
190	0.0272812426161066\\
191	0.00802844515455273\\
192	0.00656698362909076\\
193	0.0643437824021077\\
194	0.028824437353045\\
195	0.0407564423072999\\
196	0.0937976684924558\\
197	0.0422255007501785\\
198	0.0416162155222739\\
199	0.0523063437507723\\
200	0.0228240566336768\\
201	0.065141291581891\\
202	0.0270960945406077\\
203	0.0521841707865034\\
204	0.0613287102401108\\
205	0.0244101000666811\\
206	0.0660138371238082\\
207	0.0270768009845671\\
208	0.0404467838081118\\
209	0.0297988739012208\\
210	0.048236772448171\\
211	0.0499159703450977\\
212	0.0398584436327649\\
213	0.0285830603447872\\
214	0.0522964840326663\\
215	0.0512015730472623\\
216	0.0447539161031715\\
217	0.0444319631335311\\
218	0.0172795243096559\\
219	0.0550811123121374\\
220	0.0220458502751546\\
221	0.00675220533744087\\
222	0.0698378686569223\\
223	0.0282459631699998\\
224	0.0338724538019083\\
225	0.0491698382408255\\
226	0.0109673433258934\\
227	0.037419716967492\\
228	0.0595714993526232\\
229	0.0366504196733987\\
230	0.0606353349098432\\
231	0.0620889899807835\\
232	0.0206940953141079\\
233	0.036069563588639\\
234	0.0483124638849578\\
235	0.0546709053880076\\
236	0.0251769678953742\\
237	0.0461960627389222\\
238	0.0586591330999126\\
239	0.0211251669550447\\
240	0.0376069571777087\\
241	0.0160090256540777\\
242	0.0323343218794483\\
243	0.0742076657807454\\
244	0.0551278900270506\\
245	0.0555478662749014\\
246	0.0476038322148199\\
247	0.00952256851364149\\
248	0.0719102164126559\\
249	0.0796426182813953\\
250	0.0528571890795564\\
251	0.0654274807572212\\
252	0.0565910959850584\\
253	0.0397805608785846\\
254	0.0801801315615676\\
255	0.0249097964139157\\
256	0.00589904981986557\\
257	0.0509613208176864\\
258	0.0444335576932967\\
259	0.0441529791205272\\
260	0.0139062028680664\\
261	0.0454026588140191\\
262	0.0257405224840939\\
263	0.062312999620936\\
264	0.0801633797541304\\
265	0.0336683988922415\\
266	0.0516648709050338\\
267	0.0659097464129827\\
268	0.0435668423566281\\
269	0.035516274140958\\
270	0.0665509614534243\\
271	0.0101596525728674\\
272	0.0381780830134682\\
273	0.0459984340892785\\
274	0.0268309828448241\\
275	0.025485299635846\\
276	0.0933705085026902\\
277	0.0507922918920163\\
278	0.0239258504929047\\
279	0.00568214033732849\\
280	0.0621345521943385\\
281	0.0137751159961569\\
282	0.0424797867510684\\
283	0.0675663003605923\\
284	0.0255558890811328\\
285	0.0165766379192347\\
286	0.0972619794157685\\
287	0.0554606953577442\\
288	0.067940932247063\\
289	0.0975437905984577\\
290	0.0249875711540054\\
291	0.0326158366894885\\
292	0.0368748948749517\\
293	0.0363794533415368\\
294	0.0683228570140891\\
295	0.0454461411606821\\
296	0.0451764344723251\\
297	0.0641013804194249\\
298	0.0258878641825605\\
299	0.0207574365028579\\
300	0.0281396866484195\\
301	0.0474393161874815\\
302	0.0028416133546033\\
303	0.0498759938834538\\
304	0.0325166424306194\\
305	0.0671890985188833\\
306	0.0865471282282188\\
307	0.0432319817694533\\
308	0.0132631511854121\\
309	0.0386332541883226\\
310	0.0781180493037182\\
311	0.0665174374321181\\
312	0.0874255385920268\\
313	0.0460022721918175\\
314	0.0483648235177101\\
315	0.0751281243296108\\
316	0.0388664230704257\\
317	0.0518995130968733\\
318	0.0258113623195965\\
319	0.0562923413607891\\
320	0.0209282298310358\\
321	0.00926266317325856\\
322	0.0236267441165623\\
323	0.0610158880703025\\
324	0.0141580497714004\\
325	0.077907073466354\\
326	0.0443147824124716\\
327	0.0662291265436388\\
328	0.00323558196996236\\
329	0.0384277185463078\\
330	0.0131653049040291\\
331	0.102890252918591\\
332	0.0849485129913274\\
333	0.0852130210478039\\
334	0.0793931564537404\\
335	0.0385548409888158\\
336	0.0185730571143681\\
337	0.0416569963414804\\
338	0.0339405249097557\\
339	0.0723936004907499\\
340	0.0195349746109636\\
341	0.0281629922430411\\
342	0.0282314462881171\\
343	0.021622222070458\\
344	0.100408650890271\\
345	0.088284898408989\\
346	0.0378844643705455\\
347	0.077325317176704\\
348	0.0297152052101156\\
349	0.0494974060448398\\
350	0.048991959510133\\
351	0.0171338050549766\\
352	0.0197058617158806\\
353	0.0164514818658143\\
354	0.0589794005499301\\
355	0.0441782118339682\\
356	0.0322138734149353\\
357	0.0453857871835946\\
358	0.0512633472085383\\
359	0.0289139594898873\\
360	0.0687636114988732\\
361	0.0119458180130185\\
362	0.0691049148804424\\
363	0.00951669447634653\\
364	0.0320248357277996\\
365	0.0375245783797322\\
366	0.0129161614724445\\
367	0.0333828533376102\\
368	0.0346737421792803\\
369	0.0381989945046419\\
370	0.0614703239003463\\
371	0.0439344369573719\\
372	0.05065959299602\\
373	0.0636510610146915\\
374	0.0374813112210217\\
375	0.0181808610272007\\
376	0.0679925257104934\\
377	0.0166551052385088\\
378	0.030975466680486\\
379	0.0420927896365273\\
380	0.0390013232286123\\
381	0.0128320757828911\\
382	0.144704045907559\\
383	0.0363459022270807\\
384	0.0356670822056827\\
385	0.0301292763781641\\
386	0.0453866702241186\\
387	0.0444641380226722\\
388	0.0483644040372025\\
389	0.0455143253540145\\
390	0.0648656681663742\\
391	0.0339770948841933\\
392	0.0390703511296091\\
393	0.0259237335034241\\
394	0.027252889736798\\
395	0.0379785408233052\\
396	0.0255351795456083\\
397	0.0749039456080865\\
398	0.0317494430119254\\
399	0.0577798519770084\\
};
\addlegendentry{$\mathbf{\hat{h}_{2}}$}

\end{axis}
\end{tikzpicture}%