% This file was created by matlab2tikz.
%
%The latest updates can be retrieved from
%  http://www.mathworks.com/matlabcentral/fileexchange/22022-matlab2tikz-matlab2tikz
%where you can also make suggestions and rate matlab2tikz.
%
\definecolor{mycolor1}{rgb}{0.00000,0.44700,0.74100}%
\definecolor{mycolor2}{rgb}{0.85000,0.32500,0.09800}%
%
\begin{tikzpicture}

\begin{axis}[%
width=1.935in,
height=3.2in,
at={(0.758in,0.512in)},
scale only axis,
xmin=0,
xmax=200,
xlabel style={font=\color{white!15!black}, align=center},
xlabel={Sample Index\\[1ex](a) Actual},
ymin=0,
ymax=0.8,
axis background/.style={fill=white},
legend style={legend cell align=left, align=left, draw=white!15!black}
]
\addplot [color=mycolor1]
  table[row sep=crcr]{%
1	0.0182020814388773\\
2	0.02012510100002\\
3	0.022545111927633\\
4	0.0257092221775269\\
5	0.0300926257860288\\
6	0.0368070113207646\\
7	0.0496139700658591\\
8	0.100781801849891\\
9	0.104249814301154\\
10	0.21590224856942\\
11	0.240903318316862\\
12	0.758685269567618\\
13	0.209267020187496\\
14	0.0771785197863095\\
15	0.0494891771958471\\
16	0.0356405661348903\\
17	0.15523755961894\\
18	0.0271597451025023\\
19	0.145703442549891\\
20	0.0520738574541381\\
21	0.0740609080662357\\
22	0.104935155821669\\
23	0.0417678670288507\\
24	0.0299752622866834\\
25	0.0250001918328842\\
26	0.0229720939063182\\
27	0.0247245078055356\\
28	0.00362513039017358\\
29	0.14722576142865\\
30	0.0387273782761153\\
31	0.131677926596125\\
32	0.0785526041407005\\
33	0.0810464121808255\\
34	0.160588901862689\\
35	0.0744890994278548\\
36	0.134536712627009\\
37	0.0173820440229542\\
38	0.137082339999381\\
39	0.0170525437502556\\
40	0.00749074921495884\\
41	0.00341378303693337\\
42	0.00620877458876847\\
43	0.0141607494626642\\
44	0.0397125400502968\\
45	0.0472710882981607\\
46	0.117933825228246\\
47	0.104860760134015\\
48	0.0231680488862733\\
49	0.0173960896964215\\
50	0.01565840529932\\
51	0.0158238796681408\\
52	0.0214800847634647\\
53	0.069515335423337\\
54	0.00705654101536576\\
55	0.0048265337253162\\
56	0.00444892816390271\\
57	0.00420482397187746\\
58	0.00394665996283891\\
59	0.00367152522573874\\
60	0.00340609944322399\\
61	0.00324100673075721\\
62	0.00352226036423774\\
63	0.00577590294104206\\
64	0.0646039488883014\\
65	0.0152053951030713\\
66	0.025205330150814\\
67	0.0111279282265277\\
68	0.00808273026447386\\
69	0.00668378513225385\\
70	0.0058444881598292\\
71	0.00526118842255355\\
72	0.00481495459253537\\
73	0.00444984685034709\\
74	0.00413772241899909\\
75	0.00386847400652643\\
76	0.00365640479604675\\
77	0.00358022933512563\\
78	0.0039436041841542\\
79	0.00596743145716452\\
80	0.0193053572626292\\
81	0.0244955947722078\\
82	0.0480492514955312\\
83	0.00881743040387132\\
84	0.00673618414357698\\
85	0.00583169570033062\\
86	0.00529290215994122\\
87	0.0049263520005684\\
88	0.00465711125291308\\
89	0.0044495340289191\\
90	0.00428463427284004\\
91	0.00415172046176833\\
92	0.00404487765081529\\
93	0.00396151732265935\\
94	0.00390215289068892\\
95	0.00387150614980524\\
96	0.00388240228065188\\
97	0.00396861770551536\\
98	0.0042393791899913\\
99	0.00529535495453836\\
100	0.0384422656208756\\
101	0.00196598430595653\\
102	0.00227127045262919\\
103	0.0024323424968646\\
104	0.0025024611202\\
105	0.00253048915714305\\
106	0.00253672908189185\\
107	0.00253067827009284\\
108	0.00251728582017171\\
109	0.00249934971595597\\
110	0.00247855194358738\\
111	0.00245595212950105\\
112	0.00243224240902919\\
113	0.0024078877120558\\
114	0.00238320712614353\\
115	0.00235842317784567\\
116	0.00233369278997705\\
117	0.00230912733940947\\
118	0.00228480600224308\\
119	0.00226078483862737\\
120	0.00223710310173484\\
121	0.00221378769593874\\
122	0.00219085637556591\\
123	0.00216832007097849\\
124	0.00214618460011501\\
125	0.00212445194095342\\
126	0.00210312118614787\\
127	0.002082189264892\\
128	0.00206165149248505\\
129	0.00204150199113677\\
130	0.00202173401371152\\
131	0.00200234019373144\\
132	0.00198331273896169\\
133	0.0019646435815544\\
134	0.00194632449455517\\
135	0.00192834718223092\\
136	0.00191070334993457\\
137	0.00189338475791222\\
138	0.00187638326246988\\
139	0.00185969084716353\\
140	0.00184329964609891\\
141	0.00182720196098313\\
142	0.00181139027322501\\
143	0.00179585725211227\\
144	0.00178059575988462\\
145	0.00176559885435432\\
146	0.00175085978959665\\
147	0.00173637201512792\\
148	0.00172212917390737\\
149	0.00170812509943172\\
150	0.00169435381214015\\
151	0.00168080951530347\\
152	0.00166748659053823\\
153	0.00165437959305814\\
154	0.00164148324675288\\
155	0.00162879243916746\\
156	0.00161630221643902\\
157	0.0016040077782369\\
158	0.00159190447274199\\
159	0.00157998779169339\\
160	0.00156825336552436\\
161	0.00155669695860377\\
162	0.00154531446459552\\
163	0.00153410190194422\\
164	0.00152305540949421\\
165	0.00151217124224425\\
166	0.00150144576724133\\
167	0.00149087545961318\\
168	0.00148045689873912\\
169	0.00147018676455811\\
170	0.00146006183401068\\
171	0.00145007897761323\\
172	0.00144023515616105\\
173	0.00143052741755604\\
174	0.0014209528937561\\
175	0.00141150879784194\\
176	0.00140219242119743\\
177	0.0013930011307999\\
178	0.00138393236661579\\
179	0.00137498363909773\\
180	0.0013661525267803\\
181	0.00135743667396858\\
182	0.00134883378851806\\
183	0.00134034163970044\\
184	0.00133195805615281\\
185	0.00132368092390639\\
186	0.00131550818449211\\
187	0.00130743783311859\\
188	0.00129946791692105\\
189	0.00129159653327689\\
190	0.00128382182818601\\
191	0.00127614199471266\\
192	0.00126855527148628\\
193	0.00126105994125928\\
194	0.00125365432951856\\
195	0.00124633680314903\\
196	0.00123910576914731\\
197	0.00123195967338265\\
198	0.00122489699940362\\
199	0\\
200	0\\
};
\addlegendentry{$\mathbf{h_1}$}

\addplot [color=mycolor2]
  table[row sep=crcr]{%
1	0.00774703480118937\\
2	0.00804603929146471\\
3	0.00836973275649019\\
4	0.00872140343539048\\
5	0.00910497030680877\\
6	0.00952514700926037\\
7	0.00998766130776543\\
8	0.0104995540104486\\
9	0.0110695940567668\\
10	0.0117088677650987\\
11	0.0124316367204608\\
12	0.013256623866012\\
13	0.0142090087041013\\
14	0.0153236507623596\\
15	0.0166505577523129\\
16	0.0182647317357061\\
17	0.0202852710510938\\
18	0.0229161572207696\\
19	0.0265452456738114\\
20	0.0320322468033177\\
21	0.0418192089559173\\
22	0.0672236903861102\\
23	0.764800043449489\\
24	0.0299885302146741\\
25	0.0061115763360554\\
26	0.0242678676400095\\
27	0.0514933555988865\\
28	0.195228919998726\\
29	0.085859180908406\\
30	0.0163105896710166\\
31	0.0145786853171939\\
32	0.0559865681218998\\
33	0.251050340252552\\
34	0.336624236311341\\
35	0.408546548232539\\
36	0.036057069833403\\
37	0.032029118563816\\
38	0.0279234399827533\\
39	0.024556464147634\\
40	0.0218789138558169\\
41	0.0197265840855051\\
42	0.0179656432193082\\
43	0.016499807231079\\
44	0.0152607166923053\\
45	0.0141992302040502\\
46	0.0132793478490471\\
47	0.0124741733162898\\
48	0.011763234520885\\
49	0.0111306817804915\\
50	0.0105640541254365\\
51	0.0100534184529814\\
52	0.00959075767384862\\
53	0.00916952821967447\\
54	0.00878433483782754\\
55	0.00843068801165144\\
56	0.00810482052737742\\
57	0.00780354701585278\\
58	0.00752415515294532\\
59	0.00726432048229959\\
60	0.00702203907403127\\
61	0.00679557379902244\\
62	0.00658341110359303\\
63	0.00638422595921995\\
64	0.00619685323339502\\
65	0.00602026414575953\\
66	0.00585354678274153\\
67	0.00569588987471922\\
68	0.00554656921368661\\
69	0\\
70	0\\
71	0\\
72	0\\
73	0\\
74	0\\
75	0\\
76	0\\
77	0\\
78	0\\
79	0\\
80	0\\
81	0\\
82	0\\
83	0\\
84	0\\
85	0\\
86	0\\
87	0\\
88	0\\
89	0\\
90	0\\
91	0\\
92	0\\
93	0\\
94	0\\
95	0\\
96	0\\
97	0\\
98	0\\
99	0\\
100	0\\
101	0\\
102	0\\
103	0\\
104	0\\
105	0\\
106	0\\
107	0\\
108	0\\
109	0\\
110	0\\
111	0\\
112	0\\
113	0\\
114	0\\
115	0\\
116	0\\
117	0\\
118	0\\
119	0\\
120	0\\
121	0\\
122	0\\
123	0\\
124	0\\
125	0\\
126	0\\
127	0\\
128	0\\
129	0\\
130	0\\
131	0\\
132	0\\
133	0\\
134	0\\
135	0\\
136	0\\
137	0\\
138	0\\
139	0\\
140	0\\
141	0\\
142	0\\
143	0\\
144	0\\
145	0\\
146	0\\
147	0\\
148	0\\
149	0\\
150	0\\
151	0\\
152	0\\
153	0\\
154	0\\
155	0\\
156	0\\
157	0\\
158	0\\
159	0\\
160	0\\
161	0\\
162	0\\
163	0\\
164	0\\
165	0\\
166	0\\
167	0\\
168	0\\
169	0\\
170	0\\
171	0\\
172	0\\
173	0\\
174	0\\
175	0\\
176	0\\
177	0\\
178	0\\
179	0\\
180	0\\
181	0\\
182	0\\
183	0\\
184	0\\
185	0\\
186	0\\
187	0\\
188	0\\
189	0\\
190	0\\
191	0\\
192	0\\
193	0\\
194	0\\
195	0\\
196	0\\
197	0\\
198	0\\
199	0\\
200	0\\
};
\addlegendentry{$\mathbf{h_{2}}$}

\end{axis}

\begin{axis}[%
width=1.935in,
height=3.2in,
at={(3.327in,0.512in)},
scale only axis,
xmin=0,
xmax=200,
xlabel style={font=\color{white!15!black}, align=center},
xlabel={Sample Index\\[1ex](b) Estimated},
ymin=0,
ymax=0.25,
axis background/.style={fill=white},
legend style={legend cell align=left, align=left, draw=white!15!black}
]
\addplot [color=mycolor1]
  table[row sep=crcr]{%
0	0.00710058158334057\\
1	0.00617220292278628\\
2	0.0166174107140753\\
3	0.0025118940043155\\
4	0.0106561474417927\\
5	0.0282670666286163\\
6	0.0112937164970804\\
7	0.0109370713946068\\
8	0.0101022985684865\\
9	0.0651060149377965\\
10	0.0577494591683151\\
11	0.207826863424635\\
12	0.129229840575096\\
13	0.0587635832572095\\
14	0.0309155497327296\\
15	0.0866797993396786\\
16	0.131505699420633\\
17	0.056507778649886\\
18	0.0513047321668435\\
19	0.0455331454995523\\
20	0.0323448577186181\\
21	0.134711125890095\\
22	0.103575265988759\\
23	0.0557622576800882\\
24	0.0109235935555931\\
25	0.106009589899559\\
26	0.123678814637348\\
27	0.110935963383271\\
28	0.0510848548710488\\
29	0.142196811460286\\
30	0.0561035058595822\\
31	0.153568473331173\\
32	0.0857573412451906\\
33	0.0717668074588799\\
34	0.0651623014407097\\
35	0.0984724521132614\\
36	0.119376849654077\\
37	0.163507975185826\\
38	0.0148125967465622\\
39	0.101998459134609\\
40	0.0126562348763512\\
41	0.181513862664423\\
42	0.0323272152423279\\
43	0.0439581496012902\\
44	0.0750195479327427\\
45	0.144512559198019\\
46	0.0676579474372772\\
47	0.120945828531094\\
48	0.0884015539845799\\
49	0.0573092372952383\\
50	0.0325132990972486\\
51	0.0279883191688153\\
52	0.0842386687591835\\
53	0.0658731791681503\\
54	0.156720770034413\\
55	0.141016767086918\\
56	0.0618357237008024\\
57	0.0649126354453931\\
58	0.0906051390338512\\
59	0.0564267429418671\\
60	0.120225813017098\\
61	0.015897328200637\\
62	0.0913924422992669\\
63	0.0191357828237836\\
64	0.0466776200769899\\
65	0.0928975395502257\\
66	0.116227807348536\\
67	0.10348700569166\\
68	0.0442465628219591\\
69	0.080379148949394\\
70	0.0525691656517901\\
71	0.0601971178301561\\
72	0.103295093860504\\
73	0.085429737751064\\
74	0.0582736280075442\\
75	0.0519439031829129\\
76	0.0616157677309086\\
77	0.043711829982402\\
78	0.0807390900909048\\
79	0.105143366849712\\
80	0.0397717753557322\\
81	0.0640089281349023\\
82	0.149719523819563\\
83	0.0782661004722645\\
84	0.0690252813143669\\
85	0.0899944507725941\\
86	0.0670188597085272\\
87	0.21849182961889\\
88	0.0720807105560764\\
89	0.182779517642882\\
90	0.0498565461605889\\
91	0.151209795579255\\
92	0.136554192355953\\
93	0.0578343353654681\\
94	0.125111873233144\\
95	0.110571650247248\\
96	0.0374082906052802\\
97	0.0414779779319621\\
98	0.102639569785687\\
99	0.0631660789535676\\
100	0.0591990075477066\\
101	0.0494402352254518\\
102	0.018221935439529\\
103	0.05884760261402\\
104	0.0464912711266683\\
105	0.0410405731411439\\
106	0.0578861365532697\\
107	0.0791332755940531\\
108	0.0681666744430122\\
109	0.19918622765584\\
110	0.0870780990524441\\
111	0.0165132096326518\\
112	0.081669038785762\\
113	0.0563047459945247\\
114	0.0663667233654421\\
115	0.0695860744534816\\
116	0.0195548945523752\\
117	0.0580452699777309\\
118	0.0533977599800088\\
119	0.0510790903301819\\
120	0.0622365036483488\\
121	0.096699824625963\\
122	0.02125627388658\\
123	0.115531203442348\\
124	0.0119910261682554\\
125	0.0271948066880039\\
126	0.0082276002074838\\
127	0.0370636914044773\\
128	0.0442960598001907\\
129	0.0294291116130115\\
130	0.0604160579018837\\
131	0.003168571067345\\
132	0.0428965639155162\\
133	0.0569694537237858\\
134	0.0154096608494145\\
135	0.0272438465787935\\
136	0.0280368070870312\\
137	0.0110826988497091\\
138	0.058164774181645\\
139	0.0404711407151734\\
140	0.0282967802358387\\
141	0.0186373070693316\\
142	0.0554595078253662\\
143	0.0207488407302466\\
144	0.0547798362065226\\
145	0.0142526966500111\\
146	0.0340915503935763\\
147	0.027175448069433\\
148	0.0080100856546994\\
149	0.000393055435296675\\
150	0.0361018478787456\\
151	0.0325282007162489\\
152	0.0161268669689926\\
153	0.0156323830229838\\
154	0.0253078468635684\\
155	0.0124530584661267\\
156	0.0418154367401489\\
157	0.0201949949746359\\
158	0.0269517854437215\\
159	0.0116439660792803\\
160	0.0247241525899966\\
161	0.0189176581978839\\
162	0.0217992931287352\\
163	0.00922049902675313\\
164	0.0076078449486731\\
165	0.0084821339538258\\
166	0.00595066289092135\\
167	0.0222630507525503\\
168	0.0221407262648927\\
169	0.00185678824411843\\
170	0.00679066455260878\\
171	0.00270089831735753\\
172	0.00530729828268638\\
173	0.0132456715978906\\
174	0.00718443117327624\\
175	0.0110853287585858\\
176	0.0125147001139625\\
177	0.0105496498778692\\
178	0.0114275028723816\\
179	0.0167414232889928\\
180	0.0076718863967718\\
181	0.0079981890677456\\
182	0.00618127037795814\\
183	0.0120569048355625\\
184	0.00623210995515375\\
185	0.0092290812336345\\
186	0.00628610033225538\\
187	0.0135380206857366\\
188	0.00304932044366458\\
189	0.00326181678209957\\
190	0.00288886566839609\\
191	0.00705142506444556\\
192	0.00860800241855766\\
193	0.00428864742828849\\
194	0.00640406688891318\\
195	0.00547100930364261\\
196	0.000617202227879599\\
197	0.00283533556922663\\
198	0.00437090543734693\\
199	0.00275886285890492\\
};
\addlegendentry{$\mathbf{\hat{h}_{1}}$}

\addplot [color=mycolor2]
  table[row sep=crcr]{%
0	0.00105311796398115\\
1	0.000440561748656122\\
2	0.000555548004936363\\
3	0.000586693912488165\\
4	0.000810598296210842\\
5	0.00212331927227015\\
6	0.00221111142188691\\
7	0.000512506143163305\\
8	0.00121473966528894\\
9	0.00201963537533873\\
10	0.00520393262811426\\
11	0.00547588082738605\\
12	0.00435622543500752\\
13	0.0113930249770294\\
14	0.00406512746787114\\
15	0.0146322478565416\\
16	0.0211208940594854\\
17	0.0322126476005224\\
18	0.0327803367310959\\
19	0.0250783185396032\\
20	0.0463568853688169\\
21	0.0178301933078854\\
22	0.118578738957945\\
23	0.157022966843088\\
24	0.0475421993031422\\
25	0.0143260893930066\\
26	0.11524885477872\\
27	0.0309194878478059\\
28	0.0779279045285095\\
29	0.0167729417835641\\
30	0.0340477006947188\\
31	0.0832267555057478\\
32	0.0948929402648719\\
33	0.148720620908806\\
34	0.151041546775106\\
35	0.166962624094235\\
36	0.0305254071243324\\
37	0.0564055667205818\\
38	0.0614563766712929\\
39	0.112778555887227\\
40	0.162955283447639\\
41	0.0660507043232899\\
42	0.108392741467453\\
43	0.101756583075897\\
44	0.0787661924592445\\
45	0.166218932115515\\
46	0.0508211547236229\\
47	0.0966113482651547\\
48	0.0584107825838753\\
49	0.0375696800067462\\
50	0.0350785672875236\\
51	0.0494953027586978\\
52	0.205866669017645\\
53	0.067867133111425\\
54	0.0483779390076197\\
55	0.10292875454732\\
56	0.0836947255257819\\
57	0.0718326179951065\\
58	0.0930874918468237\\
59	0.0510008901481191\\
60	0.0422392848241677\\
61	0.0683699733427026\\
62	0.0984776018345463\\
63	0.0940096451083584\\
64	0.126127804977067\\
65	0.145840912629278\\
66	0.0883625207642476\\
67	0.0823811871616132\\
68	0.00178855427648153\\
69	0.0710968020479896\\
70	0.0445523521159214\\
71	0.104922518750537\\
72	0.0480243646291826\\
73	0.100705381946453\\
74	0.0345302684282015\\
75	0.12208256205232\\
76	0.143990042585625\\
77	0.0216641196081558\\
78	0.156386389993822\\
79	0.0877336714921534\\
80	0.0774579479639718\\
81	0.114364459050862\\
82	0.0695697495429532\\
83	0.026063002956476\\
84	0.128934540653802\\
85	0.0167718198918943\\
86	0.0614118947925584\\
87	0.0739259266324908\\
88	0.031493907760684\\
89	0.12115990149518\\
90	0.0791548336289402\\
91	0.0696603893197855\\
92	0.108061861790734\\
93	0.0603409556574841\\
94	0.0160163018978936\\
95	0.0747106124345073\\
96	0.0859716581708418\\
97	0.0287699971124707\\
98	0.141349128982609\\
99	0.0435715290039371\\
100	0.0942168150747336\\
101	0.152592761735978\\
102	0.228975189644768\\
103	0.0687604496668211\\
104	0.041544237368295\\
105	0.121041096410247\\
106	0.137669083759974\\
107	0.0629340751339746\\
108	0.0460164807272257\\
109	0.0342169747285797\\
110	0.0961509327129721\\
111	0.0402569103003761\\
112	0.137842619066121\\
113	0.0831971167565249\\
114	0.140897247659162\\
115	0.083324072275551\\
116	0.050024928129008\\
117	0.104818836237818\\
118	0.120332942903266\\
119	0.0349406350245785\\
120	0.0184081080997743\\
121	0.141435005339854\\
122	0.101426903391857\\
123	0.0541928208513093\\
124	0.0289491256410653\\
125	0.0629048150504785\\
126	0.0354062955022917\\
127	0.0316471863778301\\
128	0.0201437004578877\\
129	0.0492539766936331\\
130	0.0366980107417555\\
131	0.0800888207969473\\
132	0.112347881964799\\
133	0.0988415979568297\\
134	0.0329866689154468\\
135	0.0425637971500813\\
136	0.0504924766950973\\
137	0.0631070559331808\\
138	0.0305699705290546\\
139	0.0396878073682135\\
140	0.022040187288717\\
141	0.0435937694131357\\
142	0.02362322025786\\
143	0.0516587438520431\\
144	0.0151048329968418\\
145	0.0467258214285627\\
146	0.029870948234721\\
147	0.0163378164936688\\
148	0.00385294723213929\\
149	0.0205549091892625\\
150	0.0202242141709061\\
151	0.0144354577432709\\
152	0.00818382463269993\\
153	0.00958350633469545\\
154	0.024343615737966\\
155	0.0175505240638596\\
156	0.0291135524102667\\
157	0.016618107798841\\
158	0.0133574795616881\\
159	0.0164547031067798\\
160	0.0129501083011669\\
161	0.0188716379006242\\
162	0.00421886592165319\\
163	0.0116733353188514\\
164	0.0117152329691057\\
165	0.00381807423636413\\
166	0.00610253111817039\\
167	0.0112481261845344\\
168	0.00960905562752989\\
169	0.00838956021635976\\
170	0.00666587625630005\\
171	0.00982494017761409\\
172	0.00114642639270585\\
173	0.0145958448603825\\
174	0.0101741438418252\\
175	0.00949329606011412\\
176	0.00741669006795832\\
177	0.0105634859564277\\
178	0.00298340143814392\\
179	0.0106519958384034\\
180	0.00381138033528386\\
181	0.0101913640890332\\
182	0.00698267356249249\\
183	0.00176390655428051\\
184	0.00587968043785388\\
185	0.00523147550757265\\
186	0.00446789134409015\\
187	0.00267933899709819\\
188	0.00391600646878792\\
189	0.00118905148558914\\
190	0.00399098080264864\\
191	0.00737186498463873\\
192	0.00269252665770288\\
193	0.00210104023738768\\
194	0.000588668953754622\\
195	0.0043274313014722\\
196	0.00291859991399978\\
197	0.0014769620239601\\
198	0.0018011552098805\\
199	0.00322597247347472\\
};
\addlegendentry{$\mathbf{\hat{h}_{2}}$}

\end{axis}
\end{tikzpicture}%