% This file was created by matlab2tikz.
%
%The latest updates can be retrieved from
%  http://www.mathworks.com/matlabcentral/fileexchange/22022-matlab2tikz-matlab2tikz
%where you can also make suggestions and rate matlab2tikz.
%
\definecolor{mycolor1}{rgb}{0.00000,0.44700,0.74100}%
\definecolor{mycolor2}{rgb}{0.85000,0.32500,0.09800}%
%
\begin{tikzpicture}

\begin{axis}[%
width=1.952in,
height=3.2in,
at={(0.758in,0.512in)},
scale only axis,
xmin=0,
xmax=20,
xlabel style={font=\color{white!15!black}, align=center},
xlabel={Sample Index\\[1ex](a) Actual},
ymin=0,
ymax=1,
axis background/.style={fill=white},
legend style={legend cell align=left, align=left, draw=white!15!black}
]
\addplot [color=mycolor1]
  table[row sep=crcr]{%
1	0.113205605745861\\
2	0.919292270364926\\
3	0.256025577129562\\
4	0.221212160951117\\
5	0.110921817870281\\
6	0.0400328712358033\\
7	0.0687168441611535\\
8	0.0506014016738843\\
9	0.0552835931164163\\
10	0.0346525615393867\\
11	0.020191452822011\\
12	0.0185296152559968\\
13	0.0171404774442808\\
14	0.0156211388830756\\
15	0.0142945116316957\\
16	0.0131617720182863\\
17	0.0121914691582677\\
18	0.0113534257007881\\
19	0.0106231383936872\\
20	0.00998136168461187\\
};
\addlegendentry{$\mathbf{h_1}$}

\addplot [color=mycolor2]
  table[row sep=crcr]{%
1	0.0495723015654782\\
2	0.0685334241945042\\
3	0.511321702955238\\
4	0.765196656162612\\
5	0.358164812724738\\
6	0.132619444637821\\
7	0\\
8	0\\
9	0\\
10	0\\
11	0\\
12	0\\
13	0\\
14	0\\
15	0\\
16	0\\
17	0\\
18	0\\
19	0\\
20	0\\
};
\addlegendentry{$\mathbf{h_{2}}$}

\end{axis}

\begin{axis}[%
width=1.952in,
height=3.2in,
at={(3.327in,0.512in)},
scale only axis,
xmin=0,
xmax=20,
xlabel style={font=\color{white!15!black}, align=center},
xlabel={Sample Index\\[1ex](b) Estimated},
ymin=0,
ymax=1,
axis background/.style={fill=white},
legend style={legend cell align=left, align=left, draw=white!15!black}
]
\addplot [color=mycolor1]
  table[row sep=crcr]{%
0	0.113205693320196\\
1	0.919278631687436\\
2	0.256073126099271\\
3	0.221226117862188\\
4	0.110930862255573\\
5	0.040040371954226\\
6	0.0686984426038538\\
7	0.0505586074519468\\
8	0.0552883450991583\\
9	0.0346391900610907\\
10	0.0201747461542748\\
11	0.0185347806873462\\
12	0.0171384659455281\\
13	0.0156195506668077\\
14	0.0142827783154438\\
15	0.0131635285770298\\
16	0.012196130177563\\
17	0.0113520325102317\\
18	0.0106218853744742\\
19	0.00998225565914704\\
};
\addlegendentry{$\mathbf{\hat{h}_{1}}$}

\addplot [color=mycolor2]
  table[row sep=crcr]{%
0	0.0495721834814407\\
1	0.0685319862358787\\
2	0.51130990647559\\
3	0.765211575021236\\
4	0.358171362523979\\
5	0.132561763228223\\
6	6.35585316734521e-05\\
7	0.000148545645516855\\
8	0.000114838304116933\\
9	6.36205690933448e-05\\
10	1.52282081397008e-05\\
11	9.73398594149246e-06\\
12	1.78788526351559e-05\\
13	9.46989029416144e-06\\
14	3.45023106901989e-06\\
15	5.37420597825874e-06\\
16	9.42584516780399e-06\\
17	1.01224567152539e-05\\
18	1.11901077351651e-05\\
19	6.8402357662794e-06\\
};
\addlegendentry{$\mathbf{\hat{h}_{2}}$}

\end{axis}
\end{tikzpicture}%