% This file was created by matlab2tikz.
%
%The latest updates can be retrieved from
%  http://www.mathworks.com/matlabcentral/fileexchange/22022-matlab2tikz-matlab2tikz
%where you can also make suggestions and rate matlab2tikz.
%
\definecolor{mycolor1}{rgb}{0.00000,0.44700,0.74100}%
\definecolor{mycolor2}{rgb}{0.85000,0.32500,0.09800}%
%
\begin{tikzpicture}

\begin{axis}[%
width=1.952in,
height=3.2in,
at={(0.758in,0.512in)},
scale only axis,
xmin=0,
xmax=20,
xlabel style={font=\color{white!15!black}, align=center},
xlabel={Sample Index\\[1ex](a) Actual},
ymin=0,
ymax=0.9,
axis background/.style={fill=white},
legend style={legend cell align=left, align=left, draw=white!15!black}
]
\addplot [color=mycolor1]
  table[row sep=crcr]{%
1	0.0444337104356374\\
2	0.738127803558165\\
3	0.357839506790865\\
4	0.481268775571525\\
5	0.10955194752004\\
6	0.267783168107473\\
7	0.0769544524124665\\
8	0.0372836026936495\\
9	0.027789744685169\\
10	0.0196434178633453\\
11	0.0212138243269196\\
12	0.0147156812719569\\
13	0.0126517206023441\\
14	0.0111331007215966\\
15	0.00994473974674355\\
16	0.00898571135769806\\
17	0.00819466874468931\\
18	0.00753086667278431\\
19	0.00696589032366256\\
20	0.00647923877975415\\
};
\addlegendentry{$\mathbf{h_1}$}

\addplot [color=mycolor2]
  table[row sep=crcr]{%
1	0.0696363384444256\\
2	0.13399148454392\\
3	0.889181852408627\\
4	0.426869408918664\\
5	0.0527923084371181\\
6	0.0393468637154593\\
7	0\\
8	0\\
9	0\\
10	0\\
11	0\\
12	0\\
13	0\\
14	0\\
15	0\\
16	0\\
17	0\\
18	0\\
19	0\\
20	0\\
};
\addlegendentry{$\mathbf{h_{2}}$}

\end{axis}

\begin{axis}[%
width=1.952in,
height=3.2in,
at={(3.327in,0.512in)},
scale only axis,
xmin=0,
xmax=20,
xlabel style={font=\color{white!15!black}, align=center},
xlabel={Sample Index\\[1ex](b) Estimated},
ymin=-0.05,
ymax=0.4,
axis background/.style={fill=white},
legend style={legend cell align=left, align=left, draw=white!15!black}
]
\addplot [color=mycolor1]
  table[row sep=crcr]{%
0	0.000197393073156605\\
0.25	0.000411133345272777\\
0.5	0.000693330779483423\\
0.75	0.00108938787293985\\
1	0.00159945379540607\\
1.25	0.00208915633604385\\
1.5	0.00258793534698679\\
1.75	0.00301908184109603\\
2	0.00330426544565772\\
2.25	0.00341709619980144\\
2.5	0.00339259175152755\\
2.75	0.00342900468229149\\
3	0.0039143231069443\\
3.25	0.00537911894875021\\
3.5	0.00869394101319518\\
3.75	0.0147789093233746\\
4	0.0245561678761189\\
4.25	0.038503836650292\\
4.5	0.0576224840137208\\
4.75	0.0821467648888292\\
5	0.111704474048245\\
5.25	0.145354854791889\\
5.5	0.181270148331823\\
5.75	0.217293373278998\\
6	0.251097703886809\\
6.25	0.280922707982996\\
6.5	0.304429925803019\\
6.75	0.320520463631618\\
7	0.329176997416993\\
7.25	0.330158946978399\\
7.5	0.32770181812065\\
7.75	0.32503767790785\\
8	0.325017510481126\\
8.25	0.330664038910399\\
8.5	0.340438479658277\\
8.75	0.352708316516586\\
9	0.364947374673908\\
9.25	0.374021529598052\\
9.5	0.377999906885129\\
9.75	0.375499585903075\\
10	0.366384205147747\\
10.25	0.351292683944852\\
10.5	0.333610055221669\\
10.75	0.316841251117847\\
11	0.304514135630569\\
11.25	0.299862978892338\\
11.5	0.303770510391286\\
11.75	0.315916645346516\\
12	0.33432433053136\\
12.25	0.355967450659048\\
12.5	0.37598491691188\\
12.75	0.389678617101968\\
13	0.392970830976799\\
13.25	0.382309738811529\\
13.5	0.358062086942181\\
13.75	0.321630535572222\\
14	0.276000803694482\\
14.25	0.225254191614632\\
14.5	0.173827217635638\\
14.75	0.125941900571976\\
15	0.0849649344062983\\
15.25	0.0536659902628835\\
15.5	0.0315714976756411\\
15.75	0.0176088966954814\\
16	0.00985016455702194\\
16.25	0.00502189882592325\\
16.5	0.00263864264184746\\
16.75	0.00155309586808925\\
17	0.0010438290173392\\
17.25	0.00115202152755808\\
17.5	0.00120171278029575\\
17.75	0.00110823967365499\\
18	0.000910592505442608\\
18.25	0.000708893622644255\\
18.5	0.000566518375641396\\
18.75	0.000503813758003871\\
19	0.000492012601576398\\
19.25	0.000480012188915627\\
19.5	0.000417228402762538\\
19.75	0.000274932324275243\\
};
\addlegendentry{$\mathbf{\hat{h}_{1}}$}

\addplot [color=mycolor2]
  table[row sep=crcr]{%
0	0.000113777435816953\\
0.25	0.000258951681953136\\
0.5	0.00047016387753704\\
0.75	0.000793392621909958\\
1	0.00123559715674882\\
1.25	0.00165813026723675\\
1.5	0.00213367602446406\\
1.75	0.00260325787745494\\
2	0.002987185610279\\
2.25	0.00320998413651031\\
2.5	0.00326991359256171\\
2.75	0.00327236222240358\\
3	0.00347866154808942\\
3.25	0.0042973865748428\\
3.5	0.00641611903085382\\
3.75	0.0106339089297672\\
4	0.0178234642674181\\
4.25	0.0285456667435504\\
4.5	0.0439224982477245\\
4.75	0.0644645272126414\\
5	0.0901868338125693\\
5.25	0.120512299892912\\
5.5	0.154250901275787\\
5.75	0.189714395377039\\
6	0.224884660058261\\
6.25	0.258100179610411\\
6.5	0.286791586987591\\
6.75	0.309392363676872\\
7	0.325206981214347\\
7.25	0.333443967261436\\
7.5	0.337153555363294\\
7.75	0.338797427255966\\
8	0.340784231125484\\
8.25	0.345653415801303\\
8.5	0.353014814822664\\
8.75	0.36218533841782\\
9	0.371623639667617\\
9.25	0.379316864631975\\
9.5	0.383208307946866\\
9.75	0.38171948317656\\
10	0.374167636975835\\
10.25	0.360503986538185\\
10.5	0.343203794912093\\
10.75	0.325099714388855\\
11	0.309399611372356\\
11.25	0.29912703446258\\
11.5	0.296362417600653\\
11.75	0.301959503788973\\
12	0.315216535479762\\
12.25	0.334474895799368\\
12.5	0.35520359541797\\
12.75	0.372790147162381\\
13	0.382717080402827\\
13.25	0.380611729504977\\
13.5	0.36550516152886\\
13.75	0.337434251429624\\
14	0.298149860683064\\
14.25	0.250685458999661\\
14.5	0.199330542567931\\
14.75	0.148528326393518\\
15	0.102337113592561\\
15.25	0.064390901318277\\
15.5	0.0356320308373883\\
15.75	0.0161522843873551\\
16	0.00486668700092348\\
16.25	-0.000574356427570981\\
16.5	-0.00169364414668038\\
16.75	-0.000487354898918414\\
17	0.00135311441955694\\
17.25	0.00235331335751766\\
17.5	0.00240785687222193\\
17.75	0.00163238139565875\\
18	0.000470473965081634\\
18.25	-6.82624015780621e-05\\
18.5	-0.00027094888264785\\
18.75	-0.000125607225662978\\
19	0.000230901922106749\\
19.25	0.000587317558760882\\
19.5	0.000732622061895719\\
19.75	0.000529972734675966\\
};
\addlegendentry{$\mathbf{\hat{h}_{2}}$}

\end{axis}
\end{tikzpicture}%