\relax 
\providecommand\hyper@newdestlabel[2]{}
\citation{book:Proakis,book:moon}
\citation{book:Boyd}
\citation{conf:SDRBandwidth}
\citation{art:TDOA_DOP,art:StatTheoryPassLoc,conf:GenAlgAppGDOP}
\citation{book:moon}
\@writefile{toc}{\contentsline {chapter}{\numberline {8}CONCLUSION}{155}{chapter.8}}
\newlabel{ch:9}{{8}{155}{CONCLUSION}{chapter.8}{}}
\@writefile{toc}{\contentsline {section}{\numberline {8.1}Research}{155}{section.8.1}}
\@writefile{toc}{\contentsline {section}{\numberline {8.2}Future Work}{155}{section.8.2}}
\@setckpt{Chapters/Chapter_9/ch_9_conclusion}{
\setcounter{page}{157}
\setcounter{equation}{0}
\setcounter{enumi}{4}
\setcounter{enumii}{0}
\setcounter{enumiii}{0}
\setcounter{enumiv}{0}
\setcounter{footnote}{0}
\setcounter{mpfootnote}{0}
\setcounter{part}{0}
\setcounter{chapter}{8}
\setcounter{section}{2}
\setcounter{subsection}{0}
\setcounter{subsubsection}{0}
\setcounter{paragraph}{0}
\setcounter{subparagraph}{0}
\setcounter{figure}{0}
\setcounter{table}{0}
\setcounter{savemainpageno}{0}
\setcounter{savefrontpageno}{22}
\setcounter{savetotalpageno}{0}
\setcounter{float@type}{16}
\setcounter{alg}{0}
\setcounter{parentequation}{0}
\setcounter{lstnumber}{1}
\setcounter{LT@tables}{0}
\setcounter{LT@chunks}{0}
\setcounter{ContinuedFloat}{0}
\setcounter{subfigure}{0}
\setcounter{subtable}{0}
\setcounter{Item}{6}
\setcounter{Hfootnote}{10}
\setcounter{bookmark@seq@number}{71}
\setcounter{lstlisting}{0}
\setcounter{section@level}{1}
}
