% This file was created by matlab2tikz.
%
%The latest updates can be retrieved from
%  http://www.mathworks.com/matlabcentral/fileexchange/22022-matlab2tikz-matlab2tikz
%where you can also make suggestions and rate matlab2tikz.
%
\definecolor{mycolor1}{rgb}{0.00000,0.44700,0.74100}%
\definecolor{mycolor2}{rgb}{0.85000,0.32500,0.09800}%
%
\begin{tikzpicture}

\begin{axis}[%
width=1.935in,
height=3.2in,
at={(0.758in,0.512in)},
scale only axis,
xmin=0,
xmax=100,
xlabel style={font=\color{white!15!black}, align=center},
xlabel={Sample Index\\[1ex](a) Actual},
ymin=0,
ymax=1,
axis background/.style={fill=white},
legend style={legend cell align=left, align=left, draw=white!15!black}
]
\addplot [color=mycolor1]
  table[row sep=crcr]{%
1	0.0216926152020066\\
2	0.0241183965289278\\
3	0.0267807478156139\\
4	0.0354280601095614\\
5	0.221828667704926\\
6	0.648965745595675\\
7	0.241270440438586\\
8	0.0776642628644082\\
9	0.0581044824071981\\
10	0.0611489366831747\\
11	0.0798140419847986\\
12	0.062735544320507\\
13	0.113011040425493\\
14	0.377485382687519\\
15	0.331649248845691\\
16	0.18615433793772\\
17	0.146493252817741\\
18	0.0847190801249442\\
19	0.0628278567269286\\
20	0.0148364296169451\\
21	0.0250471739922352\\
22	0.0344835915107885\\
23	0.116323790948646\\
24	0.279210940275387\\
25	0.101045410677318\\
26	0.0464379665429307\\
27	0.041398863205924\\
28	0.0263226969199998\\
29	0.0221848789960478\\
30	0.0197642774213948\\
31	0.0186496517239344\\
32	0.0219339353832985\\
33	0.018414044189717\\
34	0.00937919788338426\\
35	0.0100670783096178\\
36	0.0098135024549665\\
37	0.00937197330245933\\
38	0.00884810306396591\\
39	0.00821513429074651\\
40	0.00732026654240377\\
41	0.00945021173361951\\
42	0.0127255218727005\\
43	0.00946415089832864\\
44	0.00862800399957479\\
45	0.00816256372793386\\
46	0.00784857678072338\\
47	0.00764005346579914\\
48	0.00755773656417068\\
49	0.00776075567554332\\
50	0.00986938420958768\\
51	0.00319649311885596\\
52	0.00500292172051245\\
53	0.00524752973649041\\
54	0.00526667690567613\\
55	0.00521575322380608\\
56	0.00513704586881206\\
57	0.00504647235310817\\
58	0.00495116794332671\\
59	0.00485468351773321\\
60	0.00475890010347922\\
61	0.00466484578572566\\
62	0.00457308311118313\\
63	0.00448390798586452\\
64	0.0043974582605137\\
65	0.00431377595094964\\
66	0.00423284428954661\\
67	0.00415461047403326\\
68	0.00407899997367922\\
69	0.00400592569101114\\
70	0.00393529390404367\\
71	0.0038670081481966\\
72	0.00380097175500134\\
73	0.00373708950172093\\
74	0.00367526866536834\\
75	0.00361541967416126\\
76	0.00355745648532918\\
77	0.00350129677649243\\
78	0.00344686201027152\\
79	0.00339407741330312\\
80	0.00334287189828014\\
81	0.0032931779490063\\
82	0.00324493148246751\\
83	0.00319807169773062\\
84	0.003152540918526\\
85	0.00310828443427485\\
86	0.00306525034282854\\
87	0.00302338939712195\\
88	0.00298265485717807\\
89	0.00294300234835571\\
90	0.00290438972634362\\
91	0.0028667769491261\\
92	0.00283012595595264\\
93	0.0027944005532083\\
94	0.00275956630699144\\
95	0.0027255904421446\\
96	0.00269244174744817\\
97	0.00266009048666622\\
98	0.00262850831512411\\
99	0\\
100	0\\
};
\addlegendentry{$\mathbf{h_1}$}

\addplot [color=mycolor2]
  table[row sep=crcr]{%
1	0.00108294891904515\\
2	0.00115806441999571\\
3	0.00125656841390277\\
4	0.00139359850086552\\
5	0.00159676508941691\\
6	0.00191784013184518\\
7	0.00245777585368985\\
8	0.00342819163679349\\
9	0.00533730915065768\\
10	0.00974214709050295\\
11	0.0244449264542886\\
12	0.973731186814765\\
13	0.0500739614470277\\
14	0.0426946282907342\\
15	0.00536788790071817\\
16	0.0362080823589407\\
17	0.176144271962331\\
18	0.115663212635922\\
19	0.0234963057121139\\
20	0.0138738178597906\\
21	0.00966054585381422\\
22	0.00731818549393035\\
23	0.00584139575065055\\
24	0.0048330083027894\\
25	0.00410500747522503\\
26	0.00355723928842746\\
27	0.00313167065616096\\
28	0.00279247304593218\\
29	0.00251639833876938\\
30	0.00228774297450139\\
31	0.00209554142652578\\
32	0.00193191967393617\\
33	0.00179108704155738\\
34	0.00166869616651274\\
35	0\\
36	0\\
37	0\\
38	0\\
39	0\\
40	0\\
41	0\\
42	0\\
43	0\\
44	0\\
45	0\\
46	0\\
47	0\\
48	0\\
49	0\\
50	0\\
51	0\\
52	0\\
53	0\\
54	0\\
55	0\\
56	0\\
57	0\\
58	0\\
59	0\\
60	0\\
61	0\\
62	0\\
63	0\\
64	0\\
65	0\\
66	0\\
67	0\\
68	0\\
69	0\\
70	0\\
71	0\\
72	0\\
73	0\\
74	0\\
75	0\\
76	0\\
77	0\\
78	0\\
79	0\\
80	0\\
81	0\\
82	0\\
83	0\\
84	0\\
85	0\\
86	0\\
87	0\\
88	0\\
89	0\\
90	0\\
91	0\\
92	0\\
93	0\\
94	0\\
95	0\\
96	0\\
97	0\\
98	0\\
99	0\\
100	0\\
};
\addlegendentry{$\mathbf{h_{2}}$}

\end{axis}

\begin{axis}[%
width=1.935in,
height=3.2in,
at={(3.327in,0.512in)},
scale only axis,
xmin=0,
xmax=100,
xlabel style={font=\color{white!15!black}, align=center},
xlabel={Sample Index\\[1ex](b) Estimated},
ymin=0,
ymax=1,
axis background/.style={fill=white},
legend style={legend cell align=left, align=left, draw=white!15!black}
]
\addplot [color=mycolor1]
  table[row sep=crcr]{%
0	0.00806657671999979\\
1	0.0143702895624049\\
2	0.0202472762868502\\
3	0.00514673003709908\\
4	0.00240586467949339\\
5	0.00614723714746483\\
6	0.0037412887112744\\
7	0.00420111482710986\\
8	0.00705672129755055\\
9	0.0167766909780182\\
10	0.0117403166962583\\
11	0.0189108428800308\\
12	0.0141613972148887\\
13	0.00812338996967145\\
14	0.0133030833856466\\
15	0.00957831262113983\\
16	0.00692979350644132\\
17	0.00868671229064207\\
18	0.00583822320356507\\
19	0.0138158731518428\\
20	0.0102734598909287\\
21	0.00188989643667845\\
22	0.010775349985308\\
23	0.00427228475476055\\
24	0.0206641458410353\\
25	0.0106932325542137\\
26	0.00473160367774788\\
27	0.00952590562646114\\
28	0.00993611719342563\\
29	0.0106787983166683\\
30	0.0113062516536861\\
31	0.00744400664503178\\
32	0.0207771085835942\\
33	0.015570590363407\\
34	0.00585918554718813\\
35	0.00737489940174205\\
36	0.0286012539445593\\
37	0.0426305678736884\\
38	0.124568392363626\\
39	0.0420139727260145\\
40	0.0228252435665139\\
41	0.039348268907825\\
42	0.188980295378834\\
43	0.654546373124041\\
44	0.195311947308429\\
45	0.0624017748090195\\
46	0.17401787383193\\
47	0.0736995913667686\\
48	0.033429017501574\\
49	0.0405614690863997\\
50	0.097969568511451\\
51	0.412931443583175\\
52	0.282411210472577\\
53	0.150010710471514\\
54	0.131858135281284\\
55	0.0426647140242714\\
56	0.146416918368595\\
57	0.0305135994702524\\
58	0.012907119308134\\
59	0.020568261934294\\
60	0.0728623168044518\\
61	0.28205349022119\\
62	0.103609572755466\\
63	0.0336952422514175\\
64	0.0265279374978839\\
65	0.00449560385260117\\
66	0.0204724630728068\\
67	0.0149132440144126\\
68	0.0304025165880761\\
69	0.0144774287396055\\
70	0.00357733647053085\\
71	0.0227638808465332\\
72	0.00387210544044012\\
73	0.00502109373234028\\
74	0.00186259681848345\\
75	0.0151133488299654\\
76	0.00388944184193659\\
77	0.0058901969242827\\
78	0.0111251583363886\\
79	0.0156026781451567\\
80	0.00677629299404095\\
81	0.00337610470470618\\
82	0.0171457964891305\\
83	0.0100026765772957\\
84	0.0172609305749523\\
85	0.00377966940668014\\
86	0.0107033538667242\\
87	0.00312058453508123\\
88	0.00452639819202032\\
89	0.00254670027473308\\
90	0.00769951188932699\\
91	0.01645181701363\\
92	0.0041515960275132\\
93	0.00600198813592602\\
94	0.0266436544297336\\
95	0.00753871004855011\\
96	0.0118270942813328\\
97	0.0103060467492037\\
98	0.0376179777122309\\
99	0.009300802929588\\
};
\addlegendentry{$\mathbf{\hat{h}_{1}}$}

\addplot [color=mycolor2]
  table[row sep=crcr]{%
0	6.30891298164922e-05\\
1	7.81842937369969e-05\\
2	6.71615798989946e-05\\
3	2.46799280513089e-05\\
4	1.16514238022578e-05\\
5	5.0044481342202e-05\\
6	1.04515264830873e-05\\
7	5.7526813772344e-05\\
8	5.79029156088063e-05\\
9	5.57030460886667e-05\\
10	4.60214472082737e-05\\
11	8.16930818148894e-06\\
12	4.15387185280279e-05\\
13	3.27620179324997e-05\\
14	7.27197768775746e-06\\
15	4.58845212785307e-05\\
16	2.69857430537567e-05\\
17	6.13884470445144e-05\\
18	4.47657795586657e-05\\
19	1.75135429435873e-05\\
20	2.86180171760283e-05\\
21	4.4982301051452e-05\\
22	1.83045609510891e-05\\
23	4.32793937202795e-05\\
24	1.88797459828979e-05\\
25	5.14910632195704e-05\\
26	3.18354594234933e-05\\
27	1.48748156529795e-05\\
28	5.95595499992821e-05\\
29	0.000128997930826976\\
30	9.56508825076143e-05\\
31	0.000578278153497146\\
32	1.43248544328597e-05\\
33	3.3227168720778e-05\\
34	3.56062342858391e-05\\
35	8.91289512902563e-05\\
36	0.000196413818855077\\
37	3.19525084248598e-05\\
38	0.000347801728210026\\
39	0.000630350527206408\\
40	0.000174073900384513\\
41	0.00088279300036402\\
42	5.95848972410819e-05\\
43	3.34042686524936e-05\\
44	0.000168525430561996\\
45	0.000181409376909943\\
46	0.000371233083941734\\
47	0.000348091781237161\\
48	8.16464536450811e-05\\
49	0.999997857165591\\
50	8.14446601689929e-05\\
51	0.000350220284672528\\
52	0.000368926194809514\\
53	0.00018162247658914\\
54	0.000165386431278276\\
55	3.1905522252776e-05\\
56	6.38109802998013e-05\\
57	0.000887404319918153\\
58	0.000173141807783144\\
59	0.00063694903149495\\
60	0.000343565143487326\\
61	2.81368698606238e-05\\
62	0.000200015766115644\\
63	8.5114500073076e-05\\
64	3.91486934839889e-05\\
65	3.55009116540144e-05\\
66	1.54341715801839e-05\\
67	0.000592556441213797\\
68	9.88425131990761e-05\\
69	0.000139602399954663\\
70	6.06273496444984e-05\\
71	1.67215046086894e-05\\
72	3.47958797300068e-05\\
73	4.01753105883969e-05\\
74	2.13108248599028e-05\\
75	3.26066095165048e-05\\
76	3.3490282761637e-05\\
77	4.66361341938242e-05\\
78	2.83427904661406e-05\\
79	2.1765613563706e-05\\
80	3.63315141164408e-05\\
81	6.02449649332667e-05\\
82	3.67601866648702e-05\\
83	3.61833350473278e-05\\
84	1.83422328004172e-05\\
85	2.49007526149878e-05\\
86	4.56018199344734e-05\\
87	2.57903295628429e-06\\
88	4.2540004428133e-05\\
89	6.56122480793492e-05\\
90	6.60940500236446e-05\\
91	5.04110941619754e-05\\
92	2.75010071407662e-05\\
93	4.77526923710803e-05\\
94	2.51439631024295e-05\\
95	2.35403084808803e-05\\
96	8.43934584541731e-05\\
97	7.00160116932848e-05\\
98	6.04172646593404e-05\\
99	3.66415268316925e-05\\
};
\addlegendentry{$\mathbf{\hat{h}_{2}}$}

\end{axis}
\end{tikzpicture}%