% This file was created by matlab2tikz.
%
%The latest updates can be retrieved from
%  http://www.mathworks.com/matlabcentral/fileexchange/22022-matlab2tikz-matlab2tikz
%where you can also make suggestions and rate matlab2tikz.
%
\definecolor{mycolor1}{rgb}{0.00000,0.44700,0.74100}%
\definecolor{mycolor2}{rgb}{0.85000,0.32500,0.09800}%
%
\begin{tikzpicture}

\begin{axis}[%
width=1.935in,
height=3.2in,
at={(0.758in,0.512in)},
scale only axis,
xmin=0,
xmax=150,
xlabel style={font=\color{white!15!black}, align=center},
xlabel={Sample Index\\[1ex](a) Actual},
ymin=0,
ymax=0.7,
axis background/.style={fill=white},
legend style={legend cell align=left, align=left, draw=white!15!black}
]
\addplot [color=mycolor1]
  table[row sep=crcr]{%
1	0.0234657806037261\\
2	0.0272334504034075\\
3	0.0326864300765018\\
4	0.0414541482980318\\
5	0.0586677033458464\\
6	0.117843438362983\\
7	0.159969331461504\\
8	0.174397116945152\\
9	0.616552810702634\\
10	0.0882137642931462\\
11	0.0472681903124796\\
12	0.0327587509505929\\
13	0.0272256709659274\\
14	0.0412344622245766\\
15	0.0186762848129325\\
16	0.0451940046978057\\
17	0.0153724087875252\\
18	0.0239672675363248\\
19	0.0400285717874473\\
20	0.0828333966509162\\
21	0.557624977131952\\
22	0.149414784250917\\
23	0.109138078132702\\
24	0.0381681231028791\\
25	0.032799759178118\\
26	0.191519461959093\\
27	0.0734580287558902\\
28	0.0358315656953253\\
29	0.0179563195827385\\
30	0.0169149242156914\\
31	0.0179798517146348\\
32	0.0199431506445131\\
33	0.0279225394655299\\
34	0.0908594243819801\\
35	0.0439964246924232\\
36	0.330890477505262\\
37	0.037800506563543\\
38	0.020261933748638\\
39	0.0138181229977315\\
40	0.0211497159554441\\
41	0.0112042208144458\\
42	0.00964538908702694\\
43	0.00864780826327016\\
44	0.00787736374270682\\
45	0.00720180133294831\\
46	0.00651453200193765\\
47	0.00565492088107664\\
48	0.0112814316241706\\
49	0.0075966567083061\\
50	0.0102713040739602\\
51	0.00787142060243747\\
52	0.00711780022683946\\
53	0.00668443537322835\\
54	0.00638223966522588\\
55	0.00615487020840034\\
56	0.00598242225636516\\
57	0.00586293416152974\\
58	0.00581626175933958\\
59	0.00593494184987807\\
60	0.00707647204853056\\
61	0.00861312572402681\\
62	0.00240649054353041\\
63	0.0036902508247688\\
64	0.0040125763148678\\
65	0.00408542983582614\\
66	0.00408934467211144\\
67	0.00406760360864643\\
68	0.00403657730104579\\
69	0.00400486664899167\\
70	0.00397913876457006\\
71	0.00396763365360209\\
72	0.00398577860522856\\
73	0.00407460869510253\\
74	0.00440882178496405\\
75	0.00852319154542653\\
76	0.00211982859547221\\
77	0.00279674481878385\\
78	0.00295234209521732\\
79	0.00299967450324673\\
80	0.00300734384297471\\
81	0.00299658049652506\\
82	0.00297609501762909\\
83	0.00295010695632826\\
84	0.00292089738309008\\
85	0.00288979839106794\\
86	0.00285763293534116\\
87	0.00282493110979805\\
88	0.00279204510261472\\
89	0.00275921420187501\\
90	0.00272660345813555\\
91	0.00269432766245323\\
92	0.00266246675038502\\
93	0.00263107599882434\\
94	0.00260019295165966\\
95	0.00256984222925479\\
96	0.00254003893333548\\
97	0.0025107910982644\\
98	0.00248210148178531\\
99	0.00245396889001376\\
100	0.00242638916874131\\
101	0.00239935595223708\\
102	0.00237286123354156\\
103	0.00234689580183488\\
104	0.00232144957979209\\
105	0.00229651188498403\\
106	0.00227207163310714\\
107	0.0022481174963278\\
108	0.00222463802675857\\
109	0.00220162175268604\\
110	0.00217905725339276\\
111	0.0021569332170867\\
112	0.00213523848544673\\
113	0.00211396208753109\\
114	0.00209309326520902\\
115	0.00207262149182518\\
116	0.00205253648545491\\
117	0.00203282821783402\\
118	0.00201348691983224\\
119	0.00199450308416773\\
120	0.00197586746592614\\
121	0.00195757108133911\\
122	0.0019396052051902\\
123	0.0019219613671484\\
124	0.00190463134727109\\
125	0.00188760717087541\\
126	0.00187088110293773\\
127	0.00185444564215264\\
128	0.0018382935147574\\
129	0.00182241766820821\\
130	0.00180681126477794\\
131	0.00179146767513212\\
132	0.00177638047192757\\
133	0.00176154342347035\\
134	0.00174695048746156\\
135	0.0017325958048528\\
136	0.00171847369382931\\
137	0.00170457864393352\\
138	0.0016909053103386\\
139	0.00167744850827835\\
140	0.00166420320763913\\
141	0.00165116452771496\\
142	0.00163832773212761\\
143	0.00162568822391149\\
144	0.00161324154076111\\
145	0.0016009833504405\\
146	0.00158890944635072\\
147	0.00157701574325256\\
148	0.00156529827314105\\
149	0\\
150	0\\
};
\addlegendentry{$\mathbf{h_1}$}

\addplot [color=mycolor2]
  table[row sep=crcr]{%
1	0.019775303219206\\
2	0.0210217764534023\\
3	0.0224372323963497\\
4	0.024058742711813\\
5	0.0259351263737046\\
6	0.0281320174688059\\
7	0.0307398096072034\\
8	0.0338865833958781\\
9	0.0377600935275399\\
10	0.0426472101764649\\
11	0.0490094599986528\\
12	0.0576401827385178\\
13	0.0700288298559564\\
14	0.0893407156606893\\
15	0.123700774100431\\
16	0.202175033398071\\
17	0.564479813098353\\
18	0.690442426104836\\
19	0.212260509632627\\
20	0.126132345068284\\
21	0.100380135781766\\
22	0.0378663697499036\\
23	0.0333199748773482\\
24	0.0149453064107011\\
25	0.10083899339379\\
26	0.161002397050911\\
27	0.0405118251764787\\
28	0.0383644765554957\\
29	0.0341227495803863\\
30	0.0306469105251072\\
31	0.0278570926171954\\
32	0.0255709383506331\\
33	0.0236574529195357\\
34	0.0220274984760589\\
35	0.0206190941704396\\
36	0.0193877726649002\\
37	0.0183006807256663\\
38	0.0173329207549748\\
39	0.016465211935799\\
40	0.0156823459816501\\
41	0.0149721364414517\\
42	0.0143246843629073\\
43	0.0137318527665838\\
44	0.0131868826449622\\
45	0.0126841071808284\\
46	0.0122187355837443\\
47	0.0117866872087634\\
48	0.0113844626077037\\
49	0.0110090421200206\\
50	0.0106578052804057\\
51	0\\
52	0\\
53	0\\
54	0\\
55	0\\
56	0\\
57	0\\
58	0\\
59	0\\
60	0\\
61	0\\
62	0\\
63	0\\
64	0\\
65	0\\
66	0\\
67	0\\
68	0\\
69	0\\
70	0\\
71	0\\
72	0\\
73	0\\
74	0\\
75	0\\
76	0\\
77	0\\
78	0\\
79	0\\
80	0\\
81	0\\
82	0\\
83	0\\
84	0\\
85	0\\
86	0\\
87	0\\
88	0\\
89	0\\
90	0\\
91	0\\
92	0\\
93	0\\
94	0\\
95	0\\
96	0\\
97	0\\
98	0\\
99	0\\
100	0\\
101	0\\
102	0\\
103	0\\
104	0\\
105	0\\
106	0\\
107	0\\
108	0\\
109	0\\
110	0\\
111	0\\
112	0\\
113	0\\
114	0\\
115	0\\
116	0\\
117	0\\
118	0\\
119	0\\
120	0\\
121	0\\
122	0\\
123	0\\
124	0\\
125	0\\
126	0\\
127	0\\
128	0\\
129	0\\
130	0\\
131	0\\
132	0\\
133	0\\
134	0\\
135	0\\
136	0\\
137	0\\
138	0\\
139	0\\
140	0\\
141	0\\
142	0\\
143	0\\
144	0\\
145	0\\
146	0\\
147	0\\
148	0\\
149	0\\
150	0\\
};
\addlegendentry{$\mathbf{h_{2}}$}

\end{axis}

\begin{axis}[%
width=1.935in,
height=3.2in,
at={(3.327in,0.512in)},
scale only axis,
xmin=0,
xmax=75,
xlabel style={font=\color{white!15!black}, align=center},
xlabel={Sample Index\\[1ex](b) Estimated},
ymin=0,
ymax=1,
axis background/.style={fill=white},
legend style={legend cell align=left, align=left, draw=white!15!black}
]
\addplot [color=mycolor1]
  table[row sep=crcr]{%
0	0.0389620693429359\\
1	0.0479078689705311\\
2	0.0359561256937936\\
3	0.0205097179815893\\
4	0.0406693789768977\\
5	0.01474167481644\\
6	0.0180715539016923\\
7	0.0216989466860791\\
8	0.0209936616398217\\
9	0.0103655349147464\\
10	0.0163696285908221\\
11	0.046989546980692\\
12	0.0100264971764698\\
13	0.0504511757233629\\
14	0.131747790449526\\
15	0.0478588899153321\\
16	0.050665887947432\\
17	0.0776894015713151\\
18	0.0202097106291961\\
19	0.0352372426164108\\
20	0.0975122555191768\\
21	0.0455506319402025\\
22	0.0377594092824092\\
23	0.0452449457080847\\
24	0.0502791678326359\\
25	0.0422240739867271\\
26	0.138255526684229\\
27	0.0464051755115714\\
28	0.452699806620526\\
29	0.379288270539918\\
30	0.102744655160484\\
31	0.111794758143827\\
32	0.0268951286546695\\
33	0.0863889195191162\\
34	0.040669928309385\\
35	0.0519279184872402\\
36	0.041083308272616\\
37	0.103079111523159\\
38	0.114601693348753\\
39	0.134889027801876\\
40	0.229791477892405\\
41	0.440926572936407\\
42	0.193261645168191\\
43	0.11047021462577\\
44	0.0783944850357594\\
45	0.0984652739082756\\
46	0.113016032447928\\
47	0.103990805687026\\
48	0.0451519220691044\\
49	0.0500412664860655\\
50	0.0547271833057444\\
51	0.0454547648750515\\
52	0.0431387700911367\\
53	0.13302455782148\\
54	0.0987450446719822\\
55	0.265317929131815\\
56	0.101730330509844\\
57	0.0436640821530378\\
58	0.0679338394936614\\
59	0.0282331034443233\\
60	0.018471090445258\\
61	0.0394244851955521\\
62	0.0245788504082386\\
63	0.0330897079394057\\
64	0.0135083668707445\\
65	0.0444687541110263\\
66	0.0403501967521281\\
67	0.0915354003687224\\
68	0.0660124478489794\\
69	0.00758787282300375\\
70	0.0547388822547135\\
71	0.00580620345901085\\
72	0.0183861356052159\\
73	0.0191316411498875\\
74	0.0134323028445552\\
75	0.0174119984599166\\
};
\addlegendentry{$\mathbf{\hat{h}_{1}}$}

\addplot [color=mycolor2]
  table[row sep=crcr]{%
0	0.0132421347797701\\
1	0.0106848024689517\\
2	0.00817040852963265\\
3	0.00363268180006455\\
4	0.0104184296648545\\
5	0.0111688965973591\\
6	0.0140081319827688\\
7	0.0154354960716079\\
8	0.0256907763212822\\
9	0.0125588576059283\\
10	0.058078201985855\\
11	0.0148403280670997\\
12	0.0449787994525248\\
13	0.0180931131757086\\
14	0.00602224929699608\\
15	0.00647729212077143\\
16	0.00162499489308709\\
17	0.00673849206083639\\
18	0.0144602031460639\\
19	0.0134464633307512\\
20	0.0308373051513052\\
21	0.0357840706301242\\
22	0.069473712391401\\
23	0.0290935384614561\\
24	0.0506504971086333\\
25	0.15660378296477\\
26	0.0358833215606885\\
27	0.033308004864845\\
28	0.0133956767462738\\
29	0.0568159077824451\\
30	0.0214779644071995\\
31	0.0316934434996347\\
32	0.0173653065445265\\
33	0.0312777313926317\\
34	0.0378098669804836\\
35	0.0448039492935625\\
36	0.0452908018864533\\
37	0.941613113118828\\
38	0.045353608514297\\
39	0.0448612888878312\\
40	0.0371554547912889\\
41	0.0305674314019891\\
42	0.0172352194070939\\
43	0.0319068398882471\\
44	0.022777318715352\\
45	0.0581422277420433\\
46	0.0137146696751141\\
47	0.0341791509749151\\
48	0.0367856411936496\\
49	0.156079057125719\\
50	0.0511461821324091\\
51	0.0291529732981324\\
52	0.0692464953608013\\
53	0.0344204095851942\\
54	0.033254704142153\\
55	0.0136288050692374\\
56	0.0140137503196612\\
57	0.00903018027711778\\
58	0.00486757790723651\\
59	0.00234337592532739\\
60	0.00630484711831784\\
61	0.015834912412546\\
62	0.0351420539738903\\
63	0.0140788373367884\\
64	0.0514339667969009\\
65	0.0131147023533156\\
66	0.0256846669972532\\
67	0.00468851845502067\\
68	0.00941879085607919\\
69	0.0164868156227097\\
70	0.011512370599006\\
71	0.00606728587985262\\
72	0.0133945174435419\\
73	0.0105430713507082\\
74	0.0120711704764774\\
75	0.0106961779707832\\
};
\addlegendentry{$\mathbf{\hat{h}_{2}}$}

\end{axis}
\end{tikzpicture}%