% This file was created by matlab2tikz.
%
%The latest updates can be retrieved from
%  http://www.mathworks.com/matlabcentral/fileexchange/22022-matlab2tikz-matlab2tikz
%where you can also make suggestions and rate matlab2tikz.
%
\definecolor{mycolor1}{rgb}{0.00000,0.44700,0.74100}%
\definecolor{mycolor2}{rgb}{0.85000,0.32500,0.09800}%
%
\begin{tikzpicture}

\begin{axis}[%
width=1.935in,
height=3.2in,
at={(0.758in,0.512in)},
scale only axis,
xmin=0,
xmax=150,
xlabel style={font=\color{white!15!black}, align=center},
xlabel={Sample Index\\[1ex](a) Actual},
ymin=0,
ymax=0.7,
axis background/.style={fill=white},
legend style={legend cell align=left, align=left, draw=white!15!black}
]
\addplot [color=mycolor1]
  table[row sep=crcr]{%
1	0.0234657806037261\\
2	0.0272334504034075\\
3	0.0326864300765018\\
4	0.0414541482980318\\
5	0.0586677033458464\\
6	0.117843438362983\\
7	0.159969331461504\\
8	0.174397116945152\\
9	0.616552810702634\\
10	0.0882137642931462\\
11	0.0472681903124796\\
12	0.0327587509505929\\
13	0.0272256709659274\\
14	0.0412344622245766\\
15	0.0186762848129325\\
16	0.0451940046978057\\
17	0.0153724087875252\\
18	0.0239672675363248\\
19	0.0400285717874473\\
20	0.0828333966509162\\
21	0.557624977131952\\
22	0.149414784250917\\
23	0.109138078132702\\
24	0.0381681231028791\\
25	0.032799759178118\\
26	0.191519461959093\\
27	0.0734580287558902\\
28	0.0358315656953253\\
29	0.0179563195827385\\
30	0.0169149242156914\\
31	0.0179798517146348\\
32	0.0199431506445131\\
33	0.0279225394655299\\
34	0.0908594243819801\\
35	0.0439964246924232\\
36	0.330890477505262\\
37	0.037800506563543\\
38	0.020261933748638\\
39	0.0138181229977315\\
40	0.0211497159554441\\
41	0.0112042208144458\\
42	0.00964538908702694\\
43	0.00864780826327016\\
44	0.00787736374270682\\
45	0.00720180133294831\\
46	0.00651453200193765\\
47	0.00565492088107664\\
48	0.0112814316241706\\
49	0.0075966567083061\\
50	0.0102713040739602\\
51	0.00787142060243747\\
52	0.00711780022683946\\
53	0.00668443537322835\\
54	0.00638223966522588\\
55	0.00615487020840034\\
56	0.00598242225636516\\
57	0.00586293416152974\\
58	0.00581626175933958\\
59	0.00593494184987807\\
60	0.00707647204853056\\
61	0.00861312572402681\\
62	0.00240649054353041\\
63	0.0036902508247688\\
64	0.0040125763148678\\
65	0.00408542983582614\\
66	0.00408934467211144\\
67	0.00406760360864643\\
68	0.00403657730104579\\
69	0.00400486664899167\\
70	0.00397913876457006\\
71	0.00396763365360209\\
72	0.00398577860522856\\
73	0.00407460869510253\\
74	0.00440882178496405\\
75	0.00852319154542653\\
76	0.00211982859547221\\
77	0.00279674481878385\\
78	0.00295234209521732\\
79	0.00299967450324673\\
80	0.00300734384297471\\
81	0.00299658049652506\\
82	0.00297609501762909\\
83	0.00295010695632826\\
84	0.00292089738309008\\
85	0.00288979839106794\\
86	0.00285763293534116\\
87	0.00282493110979805\\
88	0.00279204510261472\\
89	0.00275921420187501\\
90	0.00272660345813555\\
91	0.00269432766245323\\
92	0.00266246675038502\\
93	0.00263107599882434\\
94	0.00260019295165966\\
95	0.00256984222925479\\
96	0.00254003893333548\\
97	0.0025107910982644\\
98	0.00248210148178531\\
99	0.00245396889001376\\
100	0.00242638916874131\\
101	0.00239935595223708\\
102	0.00237286123354156\\
103	0.00234689580183488\\
104	0.00232144957979209\\
105	0.00229651188498403\\
106	0.00227207163310714\\
107	0.0022481174963278\\
108	0.00222463802675857\\
109	0.00220162175268604\\
110	0.00217905725339276\\
111	0.0021569332170867\\
112	0.00213523848544673\\
113	0.00211396208753109\\
114	0.00209309326520902\\
115	0.00207262149182518\\
116	0.00205253648545491\\
117	0.00203282821783402\\
118	0.00201348691983224\\
119	0.00199450308416773\\
120	0.00197586746592614\\
121	0.00195757108133911\\
122	0.0019396052051902\\
123	0.0019219613671484\\
124	0.00190463134727109\\
125	0.00188760717087541\\
126	0.00187088110293773\\
127	0.00185444564215264\\
128	0.0018382935147574\\
129	0.00182241766820821\\
130	0.00180681126477794\\
131	0.00179146767513212\\
132	0.00177638047192757\\
133	0.00176154342347035\\
134	0.00174695048746156\\
135	0.0017325958048528\\
136	0.00171847369382931\\
137	0.00170457864393352\\
138	0.0016909053103386\\
139	0.00167744850827835\\
140	0.00166420320763913\\
141	0.00165116452771496\\
142	0.00163832773212761\\
143	0.00162568822391149\\
144	0.00161324154076111\\
145	0.0016009833504405\\
146	0.00158890944635072\\
147	0.00157701574325256\\
148	0.00156529827314105\\
149	0\\
150	0\\
};
\addlegendentry{$\mathbf{h_1}$}

\addplot [color=mycolor2]
  table[row sep=crcr]{%
1	0.019775303219206\\
2	0.0210217764534023\\
3	0.0224372323963497\\
4	0.024058742711813\\
5	0.0259351263737046\\
6	0.0281320174688059\\
7	0.0307398096072034\\
8	0.0338865833958781\\
9	0.0377600935275399\\
10	0.0426472101764649\\
11	0.0490094599986528\\
12	0.0576401827385178\\
13	0.0700288298559564\\
14	0.0893407156606893\\
15	0.123700774100431\\
16	0.202175033398071\\
17	0.564479813098353\\
18	0.690442426104836\\
19	0.212260509632627\\
20	0.126132345068284\\
21	0.100380135781766\\
22	0.0378663697499036\\
23	0.0333199748773482\\
24	0.0149453064107011\\
25	0.10083899339379\\
26	0.161002397050911\\
27	0.0405118251764787\\
28	0.0383644765554957\\
29	0.0341227495803863\\
30	0.0306469105251072\\
31	0.0278570926171954\\
32	0.0255709383506331\\
33	0.0236574529195357\\
34	0.0220274984760589\\
35	0.0206190941704396\\
36	0.0193877726649002\\
37	0.0183006807256663\\
38	0.0173329207549748\\
39	0.016465211935799\\
40	0.0156823459816501\\
41	0.0149721364414517\\
42	0.0143246843629073\\
43	0.0137318527665838\\
44	0.0131868826449622\\
45	0.0126841071808284\\
46	0.0122187355837443\\
47	0.0117866872087634\\
48	0.0113844626077037\\
49	0.0110090421200206\\
50	0.0106578052804057\\
51	0\\
52	0\\
53	0\\
54	0\\
55	0\\
56	0\\
57	0\\
58	0\\
59	0\\
60	0\\
61	0\\
62	0\\
63	0\\
64	0\\
65	0\\
66	0\\
67	0\\
68	0\\
69	0\\
70	0\\
71	0\\
72	0\\
73	0\\
74	0\\
75	0\\
76	0\\
77	0\\
78	0\\
79	0\\
80	0\\
81	0\\
82	0\\
83	0\\
84	0\\
85	0\\
86	0\\
87	0\\
88	0\\
89	0\\
90	0\\
91	0\\
92	0\\
93	0\\
94	0\\
95	0\\
96	0\\
97	0\\
98	0\\
99	0\\
100	0\\
101	0\\
102	0\\
103	0\\
104	0\\
105	0\\
106	0\\
107	0\\
108	0\\
109	0\\
110	0\\
111	0\\
112	0\\
113	0\\
114	0\\
115	0\\
116	0\\
117	0\\
118	0\\
119	0\\
120	0\\
121	0\\
122	0\\
123	0\\
124	0\\
125	0\\
126	0\\
127	0\\
128	0\\
129	0\\
130	0\\
131	0\\
132	0\\
133	0\\
134	0\\
135	0\\
136	0\\
137	0\\
138	0\\
139	0\\
140	0\\
141	0\\
142	0\\
143	0\\
144	0\\
145	0\\
146	0\\
147	0\\
148	0\\
149	0\\
150	0\\
};
\addlegendentry{$\mathbf{h_{2}}$}

\end{axis}

\begin{axis}[%
width=1.935in,
height=3.2in,
at={(3.327in,0.512in)},
scale only axis,
xmin=0,
xmax=200,
xlabel style={font=\color{white!15!black}, align=center},
xlabel={Sample Index\\[1ex](b) Estimated},
ymin=0,
ymax=1,
axis background/.style={fill=white},
legend style={legend cell align=left, align=left, draw=white!15!black}
]
\addplot [color=mycolor1]
  table[row sep=crcr]{%
0	2.01611411644909e-05\\
1	8.22419789375136e-05\\
2	0.000137649947451335\\
3	5.26044385437321e-05\\
4	5.95574328781779e-05\\
5	4.91016209533811e-05\\
6	0.000248749446571975\\
7	0.000144427450530613\\
8	0.000113331910140767\\
9	6.31325669287421e-05\\
10	6.48394744586211e-05\\
11	0.000107319555265514\\
12	6.99792433742573e-05\\
13	4.74297608349386e-05\\
14	5.58232240165284e-05\\
15	0.000110677574267778\\
16	9.93425963783667e-05\\
17	7.55919984512485e-05\\
18	9.25488105254306e-05\\
19	6.0669195785102e-05\\
20	5.66706003266764e-05\\
21	1.39280631228806e-05\\
22	1.79187049373697e-05\\
23	6.96525857233244e-05\\
24	7.8353769227118e-05\\
25	3.90439709806754e-05\\
26	9.15913628690067e-05\\
27	2.64367414240438e-05\\
28	0.000133063275783239\\
29	8.64916619082904e-05\\
30	0.000139382269543679\\
31	2.84764012556772e-05\\
32	6.22652033732068e-05\\
33	1.55483357578178e-05\\
34	6.10291358981331e-05\\
35	7.93625358105815e-05\\
36	8.36580440073123e-05\\
37	0.000110450669262566\\
38	2.89781423330432e-05\\
39	2.90780099213301e-05\\
40	6.43718984433193e-05\\
41	6.48739149722055e-05\\
42	6.87810717051528e-05\\
43	0.000302027237305194\\
44	0.000120246693683572\\
45	0.000267511706688514\\
46	6.52360273999103e-05\\
47	0.000138303226529967\\
48	8.81652741933363e-05\\
49	7.54454802994183e-05\\
50	8.16941589527787e-05\\
51	2.04945635025909e-05\\
52	4.72697626392414e-06\\
53	5.88879894536946e-05\\
54	6.74339622024109e-05\\
55	0.00279731865598954\\
56	0.0238366595004381\\
57	0.00441830793749179\\
58	0.000117433572233877\\
59	0.017044299683955\\
60	7.36072832956663e-05\\
61	0.011277699624543\\
62	0.112491983463312\\
63	0.0324953790451998\\
64	0.0188319879318987\\
65	0.0171085125629765\\
66	0.00719362763676898\\
67	0.0304074961246095\\
68	0.156432385502044\\
69	0.0167099066298435\\
70	0.502050358602029\\
71	0.41252310652393\\
72	0.101849008512396\\
73	0.0610035030384431\\
74	0.0325421985445774\\
75	0.109339888154466\\
76	0.0118979428300343\\
77	0.0361362541956025\\
78	6.58387271048764e-05\\
79	0.0569287044137486\\
80	0.0586469606666684\\
81	0.0937013157720413\\
82	0.263962833754501\\
83	0.496253521231216\\
84	0.173408566119144\\
85	0.0416959284309141\\
86	0.0597768974494945\\
87	0.107183039121058\\
88	0.0835739496213797\\
89	0.104985142479865\\
90	0.0037068577067551\\
91	0.00905490904252348\\
92	0.0112350090748051\\
93	0.00344338769581574\\
94	0.0209497475043479\\
95	0.0658955946353066\\
96	0.0964656441146088\\
97	0.294538168496743\\
98	0.0993827423281069\\
99	0.0207906182875693\\
100	0.0172262279213032\\
101	1.80536390880339e-05\\
102	6.56787549881313e-05\\
103	6.90194221527839e-05\\
104	4.72024595768945e-05\\
105	0.000357491821188567\\
106	7.99412793940112e-05\\
107	9.36088958371874e-06\\
108	0.000426474992680603\\
109	0.0120604896792888\\
110	0.00277273057091049\\
111	7.5862215998131e-05\\
112	0.00119970127984082\\
113	2.14294745317822e-05\\
114	4.29655931930656e-06\\
115	3.50589475243939e-05\\
116	4.0941461798712e-05\\
117	6.32644231504474e-05\\
118	6.71669698781962e-05\\
119	2.75489683409284e-05\\
120	2.35439480611088e-05\\
121	5.61701260166769e-05\\
122	4.17603547316606e-05\\
123	0.000116215724980264\\
124	7.07267481904094e-05\\
125	5.45647093310755e-05\\
126	5.09314551127441e-05\\
127	0.000104146403820938\\
128	2.72112111927119e-05\\
129	0.000102844614083636\\
130	1.53959766245483e-05\\
131	0.000110301839937048\\
132	6.15526565231071e-05\\
133	0.000129743104232728\\
134	0.000139892761331616\\
135	0.000127865374115824\\
136	0.000104018964560771\\
137	1.76762366190266e-05\\
138	8.48859815009224e-05\\
139	5.81911604214459e-05\\
140	5.49756219963872e-05\\
141	5.22890959186902e-05\\
142	0.000127765649101624\\
143	4.39266023721871e-05\\
144	8.59572049750696e-05\\
145	8.32290100390475e-05\\
146	7.18659701277352e-05\\
147	0.000179881724149738\\
148	2.29741957646125e-05\\
149	3.26748387649462e-05\\
150	4.90182522130416e-05\\
151	2.21367007655968e-05\\
152	6.23044030090804e-05\\
153	4.34441143336067e-05\\
154	7.56682083574991e-05\\
155	3.96458693710993e-05\\
156	5.22314198365717e-05\\
157	0.000116565590878001\\
158	4.27331145011897e-05\\
159	4.29374106546212e-05\\
160	7.01669366873991e-05\\
};
\addlegendentry{$\mathbf{\hat{h}_{1}}$}

\addplot [color=mycolor2]
  table[row sep=crcr]{%
0	1.58511200254804e-05\\
1	1.55021297967723e-05\\
2	1.10388227383964e-05\\
3	2.34488817672236e-05\\
4	4.74965706619451e-06\\
5	1.43812518704182e-05\\
6	2.99149352849162e-05\\
7	1.04746497264851e-05\\
8	2.87231714204521e-05\\
9	1.34329957307923e-05\\
10	2.1009651966334e-05\\
11	4.21673863574335e-05\\
12	3.42063890892009e-06\\
13	2.69237346049924e-05\\
14	2.09339035277577e-05\\
15	6.07076681835674e-05\\
16	3.34366573224243e-05\\
17	2.61010456459576e-05\\
18	1.68974080188968e-05\\
19	2.02875642006705e-05\\
20	2.61680114949538e-05\\
21	5.66105622231363e-06\\
22	1.47262005213631e-05\\
23	2.37310172127961e-05\\
24	3.26010272012643e-05\\
25	2.26555563126929e-05\\
26	1.24769608105056e-05\\
27	2.66436211985647e-05\\
28	3.41406067837256e-06\\
29	1.12021488291432e-05\\
30	6.40791585483889e-06\\
31	5.11136081441977e-06\\
32	1.07512414895144e-05\\
33	2.48170894818749e-05\\
34	1.78938499718123e-05\\
35	7.09421581436097e-06\\
36	2.49507278905829e-05\\
37	2.33466309682262e-05\\
38	0.000157151952828279\\
39	8.0589359524389e-05\\
40	0.000137130974645686\\
41	5.00864754189219e-06\\
42	4.75189252625744e-06\\
43	1.84369591380251e-05\\
44	2.07691262581877e-05\\
45	1.98362050063099e-05\\
46	5.25328670975055e-05\\
47	0.00033958439178098\\
48	5.19666827866241e-05\\
49	1.51760944759954e-05\\
50	0.00733709068753933\\
51	0.00325735667107313\\
52	0.0320331081957907\\
53	0.00453118094601728\\
54	0.0106252054215134\\
55	0.00339404803391671\\
56	0.00156784891013091\\
57	8.66273173480406e-06\\
58	4.00337233475571e-05\\
59	0.00265463855965549\\
60	0.00465013155473723\\
61	0.00179049647976753\\
62	0.0161025110323068\\
63	0.00784061189290802\\
64	0.0359762004731344\\
65	0.0215167420392975\\
66	0.0253864278827751\\
67	0.0683623755013276\\
68	0.00878544994389665\\
69	0.0147247884882955\\
70	0.00188991932829795\\
71	0.00134071768526265\\
72	0.00682048110743134\\
73	0.00551598328079789\\
74	0.00629558176738696\\
75	0.0054155865748574\\
76	0.013534165942734\\
77	0.0204025861450645\\
78	0.0166411366370276\\
79	0.989964537664504\\
80	0.0165768858737624\\
81	0.0200409106129175\\
82	0.013079057480815\\
83	0.00580450087330936\\
84	0.00691979771421781\\
85	0.00597602946890787\\
86	0.00677389417281654\\
87	0.00168954884218012\\
88	0.00230504992005546\\
89	0.0142287809925868\\
90	0.0088573434177321\\
91	0.0679381673362478\\
92	0.0255960800221723\\
93	0.0211852630956992\\
94	0.036561904924498\\
95	0.00790804404445726\\
96	0.0164798743131807\\
97	0.00180312137600176\\
98	0.00510145963717403\\
99	0.00235500178739387\\
100	3.14708663738285e-05\\
101	1.43103813955904e-05\\
102	0.0015065926432338\\
103	0.00323778449728481\\
104	0.010528186284936\\
105	0.00424498542720876\\
106	0.0324548079850337\\
107	0.00322012524352269\\
108	0.00722526731573479\\
109	2.22815258718731e-05\\
110	5.87416653262398e-05\\
111	0.000130866106596845\\
112	5.4506022079837e-05\\
113	1.70902496240075e-05\\
114	1.87251820797844e-05\\
115	1.10097958942013e-05\\
116	4.07729749202121e-06\\
117	1.10339803380831e-05\\
118	0.000137714176759217\\
119	4.53499296507145e-05\\
120	0.000129814962758095\\
121	3.30059292334665e-05\\
122	1.36627897384847e-05\\
123	8.03900280641112e-06\\
124	1.25113238813619e-05\\
125	1.84822819082877e-05\\
126	1.39114859170155e-05\\
127	8.17047594681986e-06\\
128	6.63391215060954e-06\\
129	1.52289127436154e-05\\
130	1.85687621425936e-05\\
131	2.61003740169305e-05\\
132	1.01903087101836e-05\\
133	2.34361948643905e-05\\
134	2.58731142380761e-05\\
135	9.61720406027508e-06\\
136	2.5040508453281e-05\\
137	1.17896136422345e-05\\
138	2.56975358495384e-05\\
139	2.58778252043489e-05\\
140	1.65294701360156e-05\\
141	2.72503349800413e-05\\
142	2.77348075180854e-05\\
143	6.15149662990711e-05\\
144	2.56943519416087e-05\\
145	3.0794530145354e-05\\
146	9.5968571755072e-06\\
147	3.53432820957247e-05\\
148	1.09022188956292e-05\\
149	1.347105481032e-05\\
150	2.28050383366658e-05\\
151	9.66513161577844e-06\\
152	1.66511755634359e-05\\
153	2.67715248554578e-06\\
154	1.40169998033276e-05\\
155	4.32082854053634e-05\\
156	8.9720083998591e-06\\
157	1.15757101788102e-05\\
158	1.42311321056017e-05\\
159	4.67341629816827e-06\\
160	5.85043070641225e-06\\
};
\addlegendentry{$\mathbf{\hat{h}_{2}}$}

\end{axis}
\end{tikzpicture}%