% This file was created by matlab2tikz.
%
%The latest updates can be retrieved from
%  http://www.mathworks.com/matlabcentral/fileexchange/22022-matlab2tikz-matlab2tikz
%where you can also make suggestions and rate matlab2tikz.
%
\definecolor{mycolor1}{rgb}{0.00000,0.44700,0.74100}%
\definecolor{mycolor2}{rgb}{0.85000,0.32500,0.09800}%
%
\begin{tikzpicture}

\begin{axis}[%
width=1.952in,
height=3.2in,
at={(0.758in,0.512in)},
scale only axis,
xmin=0,
xmax=20,
xlabel style={font=\color{white!15!black}, align=center},
xlabel={Sample Index\\[1ex](a) Actual},
ymin=0,
ymax=0.9,
axis background/.style={fill=white},
legend style={legend cell align=left, align=left, draw=white!15!black}
]
\addplot [color=mycolor1]
  table[row sep=crcr]{%
1	0.0444337104356374\\
2	0.738127803558165\\
3	0.357839506790865\\
4	0.481268775571525\\
5	0.10955194752004\\
6	0.267783168107473\\
7	0.0769544524124665\\
8	0.0372836026936495\\
9	0.027789744685169\\
10	0.0196434178633453\\
11	0.0212138243269196\\
12	0.0147156812719569\\
13	0.0126517206023441\\
14	0.0111331007215966\\
15	0.00994473974674355\\
16	0.00898571135769806\\
17	0.00819466874468931\\
18	0.00753086667278431\\
19	0.00696589032366256\\
20	0.00647923877975415\\
};
\addlegendentry{$\mathbf{h_1}$}

\addplot [color=mycolor2]
  table[row sep=crcr]{%
1	0.0696363384444256\\
2	0.13399148454392\\
3	0.889181852408627\\
4	0.426869408918664\\
5	0.0527923084371181\\
6	0.0393468637154593\\
7	0\\
8	0\\
9	0\\
10	0\\
11	0\\
12	0\\
13	0\\
14	0\\
15	0\\
16	0\\
17	0\\
18	0\\
19	0\\
20	0\\
};
\addlegendentry{$\mathbf{h_{2}}$}

\end{axis}

\begin{axis}[%
width=1.952in,
height=3.2in,
at={(3.327in,0.512in)},
scale only axis,
xmin=0,
xmax=40,
xlabel style={font=\color{white!15!black}, align=center},
xlabel={Sample Index\\[1ex](b) Estimated},
ymin=0,
ymax=0.3,
axis background/.style={fill=white},
legend style={legend cell align=left, align=left, draw=white!15!black}
]
\addplot [color=mycolor1]
  table[row sep=crcr]{%
0	0.00951144974639451\\
1	0.16880052927273\\
2	0.196905127276496\\
3	0.195268923553767\\
4	0.201614439120939\\
5	0.232870718354468\\
6	0.250633518728737\\
7	0.219394635561047\\
8	0.263270112741508\\
9	0.182299479010281\\
10	0.199165715367122\\
11	0.18352643182232\\
12	0.189954703975457\\
13	0.239701674190779\\
14	0.217010427503663\\
15	0.284688789462852\\
16	0.231955458897651\\
17	0.259596618360495\\
18	0.249230027092779\\
19	0.199279211242767\\
20	0.194329263561875\\
21	0.137215918933582\\
22	0.0309077453139867\\
23	0.0500527639693991\\
24	0.0544184246107089\\
25	0.0657108940823301\\
26	0.0196413146631183\\
27	0.00897828911246574\\
28	0.00789647482393601\\
29	0.00719270966999909\\
30	0.00394781936853849\\
31	0.00217185328771473\\
32	0.0030383056757459\\
33	0.00482589514992505\\
34	0.0056667376786513\\
35	0.00605118963384175\\
36	0.00542299647522373\\
37	0.0041467016935167\\
38	0.00282038168865076\\
39	0.00135856006025415\\
};
\addlegendentry{$\mathbf{\hat{h}_{1}}$}

\addplot [color=mycolor2]
  table[row sep=crcr]{%
0	0.0113137466429684\\
1	0.032663670564147\\
2	0.164915562010018\\
3	0.170303831041144\\
4	0.217245902309416\\
5	0.221731304406673\\
6	0.235831544466091\\
7	0.262072176089767\\
8	0.216947707786587\\
9	0.26330112605692\\
10	0.181536838164409\\
11	0.208412892725249\\
12	0.196289023559066\\
13	0.190556711624599\\
14	0.257157926944752\\
15	0.222946074425086\\
16	0.287907988089458\\
17	0.238382314548892\\
18	0.250336081566369\\
19	0.232119503878702\\
20	0.182353922150805\\
21	0.168625682057043\\
22	0.116912198809179\\
23	0.0816487437920539\\
24	0.0125358647854676\\
25	0.00628112518416655\\
26	9.15376929898019e-06\\
27	5.34006718061882e-06\\
28	1.98040648280789e-06\\
29	2.30377285988928e-06\\
30	2.99966470388548e-06\\
31	1.54372059440449e-06\\
32	1.94025385713948e-06\\
33	1.63314916000786e-06\\
34	1.92477137539985e-06\\
35	1.42773317694754e-06\\
36	9.79323527322081e-07\\
37	1.02661607272728e-06\\
38	1.23568275322709e-06\\
39	1.49070779177456e-06\\
};
\addlegendentry{$\mathbf{\hat{h}_{2}}$}

\end{axis}
\end{tikzpicture}%