% This file was created by matlab2tikz.
%
%The latest updates can be retrieved from
%  http://www.mathworks.com/matlabcentral/fileexchange/22022-matlab2tikz-matlab2tikz
%where you can also make suggestions and rate matlab2tikz.
%
\definecolor{mycolor1}{rgb}{0.00000,0.44700,0.74100}%
\definecolor{mycolor2}{rgb}{0.85000,0.32500,0.09800}%
%
\begin{tikzpicture}

\begin{axis}[%
width=1.935in,
height=3.2in,
at={(0.758in,0.512in)},
scale only axis,
xmin=0,
xmax=200,
xlabel style={font=\color{white!15!black}, align=center},
xlabel={Sample Index\\[1ex](a) Actual},
ymin=0,
ymax=1,
axis background/.style={fill=white},
legend style={legend cell align=left, align=left, draw=white!15!black}
]
\addplot [color=mycolor1]
  table[row sep=crcr]{%
1	0.0167418731260698\\
2	0.018659722218203\\
3	0.0211495716349754\\
4	0.0245407494314006\\
5	0.029505643974117\\
6	0.0377161636169434\\
7	0.0550750576238134\\
8	0.131028403455825\\
9	0.141533477104454\\
10	0.158175166246243\\
11	0.163761757297189\\
12	0.600100605556833\\
13	0.118033417583129\\
14	0.0610914209628117\\
15	0.0426162246246858\\
16	0.0332715711707656\\
17	0.0321939439283243\\
18	0.0268871008873183\\
19	0.0316920608120786\\
20	0.0286771919664519\\
21	0.00773119825769845\\
22	0.0330073087209196\\
23	0.019415059292473\\
24	0.0177688778425817\\
25	0.0188194600762088\\
26	0.0237714798713867\\
27	0.0430806655948836\\
28	0.586023006720236\\
29	0.0970905103802927\\
30	0.0246981078960262\\
31	0.0780346253424249\\
32	0.0580455436901626\\
33	0.0681836526256362\\
34	0.163824852865525\\
35	0.0446106828365612\\
36	0.06119675966513\\
37	0.00907835157153909\\
38	0.0310093774848825\\
39	0.00125972832884384\\
40	0.005422098150711\\
41	0.0107374596162295\\
42	0.0165479326643041\\
43	0.024789327411243\\
44	0.0446277431282512\\
45	0.058019450740893\\
46	0.074843365423057\\
47	0.199666615467323\\
48	0.216838516027539\\
49	0.0783890355452335\\
50	0.0495529240878659\\
51	0.0370791446049236\\
52	0.0307530810094058\\
53	0.0155757068681131\\
54	0.0198807977432187\\
55	0.0179871495341263\\
56	0.0162887905400521\\
57	0.0148728268904216\\
58	0.0136909847461918\\
59	0.0126943671543235\\
60	0.011846112844806\\
61	0.0111233301448608\\
62	0.0105291449791113\\
63	0.0102108676347222\\
64	0.00751288118280402\\
65	0.00739035992869396\\
66	0.0116365722557393\\
67	0.00899390796280924\\
68	0.00831157148096884\\
69	0.00788086875151191\\
70	0.00754217236777393\\
71	0.00725475830161164\\
72	0.00700327644843893\\
73	0.006780818536885\\
74	0.00658453626015097\\
75	0.00641472878078445\\
76	0.00627599401250467\\
77	0.00618216997550965\\
78	0.00617516728867787\\
79	0.00642745729543014\\
80	0.00873051939586948\\
81	0.00471465923588381\\
82	0.00195996010568866\\
83	0.004980313957114\\
84	0.00475839614864904\\
85	0.00464733241660508\\
86	0.00455444244400457\\
87	0.00446749239384432\\
88	0.00438406292262191\\
89	0.00430366820355207\\
90	0.00422628355118023\\
91	0.00415201532524293\\
92	0.00408104289588831\\
93	0.00401365198230764\\
94	0.00395033763548775\\
95	0.00389203620501121\\
96	0.00384070443755282\\
97	0.00380107128140597\\
98	0.00378779867734327\\
99	0.00387836096292209\\
100	0.00228454900881806\\
101	0.00321909463290553\\
102	0.00328982387499096\\
103	0.00328100374444436\\
104	0.00325253146337885\\
105	0.00321692683031362\\
106	0.00317840637543852\\
107	0.00313876414674543\\
108	0.00309887602618152\\
109	0.00305920797263281\\
110	0.00302002111537278\\
111	0.00298146552488656\\
112	0.00294362726599965\\
113	0.0029065537719176\\
114	0.00287026833389302\\
115	0.00283477876811283\\
116	0.00280008280049957\\
117	0.00276617151884636\\
118	0.00273303164395387\\
119	0.00270064705586787\\
120	0.00266899983729428\\
121	0.00263807099659409\\
122	0.00260784097374635\\
123	0.00257828999668392\\
124	0.00254939833288439\\
125	0.00252114646667125\\
126	0.00249351522323938\\
127	0.00246648585412356\\
128	0.00244004009455901\\
129	0.00241416020024051\\
130	0.00238882896892876\\
131	0.0023640297508985\\
132	0.00233974645117835\\
133	0.00231596352577768\\
134	0.00229266597354371\\
135	0.00226983932488367\\
136	0.00224746962828519\\
137	0.00222554343533969\\
138	0.00220404778480324\\
139	0.00218297018609978\\
140	0.00216229860257188\\
141	0.00214202143470905\\
142	0.00212212750352594\\
143	0.00210260603421662\\
144	0.00208344664017788\\
145	0.00206463930746792\\
146	0.00204617437974413\\
147	0.00202804254371082\\
148	0.00201023481509265\\
149	0.00199274252514179\\
150	0.00197555730767936\\
151	0.0019586710866655\\
152	0.00194207606428942\\
153	0.00192576470956709\\
154	0.00190972974743187\\
155	0.00189396414830307\\
156	0.00187846111811499\\
157	0.00186321408878906\\
158	0.00184821670913216\\
159	0.00183346283614256\\
160	0.00181894652670628\\
161	0.00180466202966742\\
162	0.00179060377825436\\
163	0.00177676638284649\\
164	0.00176314462406556\\
165	0.00174973344617591\\
166	0.0017365279507797\\
167	0.00172352339079259\\
168	0.00171071516468654\\
169	0.00169809881098722\\
170	0.00168567000301325\\
171	0.00167342454384613\\
172	0.00166135836151948\\
173	0.00164946750441694\\
174	0.00163774813686889\\
175	0.00162619653493841\\
176	0.00161480908238697\\
177	0.00160358226681213\\
178	0.001592512675948\\
179	0.00158159699412143\\
180	0.00157083199885632\\
181	0.00156021455761888\\
182	0.00154974162469766\\
183	0.00153941023821136\\
184	0.00152921751723897\\
185	0.00151916065906659\\
186	0.00150923693654504\\
187	0.00149944369555362\\
188	0.00148977835256491\\
189	0.00148023839230615\\
190	0.0014708213655126\\
191	0.00146152488676917\\
192	0.00145234663243548\\
193	0.00144328433865201\\
194	0.00143433579942216\\
195	0.0014254988647679\\
196	0.00141677143895562\\
197	0.00140815147878894\\
198	0.00139963699196521\\
199	0\\
200	0\\
};
\addlegendentry{$\mathbf{h_1}$}

\addplot [color=mycolor2]
  table[row sep=crcr]{%
1	0.00495033386861547\\
2	0.00515738368500011\\
3	0.00538309861623286\\
4	0.00563019833310769\\
5	0.00590197136255583\\
6	0.00620243506959928\\
7	0.00653655369620811\\
8	0.00691054090538825\\
9	0.00733228812251618\\
10	0.00781198494389501\\
11	0.00836304134465097\\
12	0.0090034999823859\\
13	0.00975827527656913\\
14	0.0106628508662167\\
15	0.0117696896019869\\
16	0.0131600228416925\\
17	0.0149671880151623\\
18	0.0174273921400842\\
19	0.0210049332363351\\
20	0.0267613442180004\\
21	0.037792597580649\\
22	0.068721841139076\\
23	0.97572931769219\\
24	0.0649085399616321\\
25	0.0262918397391367\\
26	0.0126468169615953\\
27	0.00419508123086451\\
28	0.0214241856295046\\
29	0.0134643328328179\\
30	0.00412679327935559\\
31	0.0112712342656943\\
32	0.0282552508318709\\
33	0.111702725947746\\
34	0.12653020104749\\
35	0.0361926668223949\\
36	0.024130019396178\\
37	0.019518168382204\\
38	0.0163235660243771\\
39	0.0140849625225472\\
40	0.0124312948441269\\
41	0.0111552918846637\\
42	0.0101369616841952\\
43	0.00930266674553233\\
44	0.00860476970863487\\
45	0.00801105372801389\\
46	0.00749890841387189\\
47	0.00705196472677567\\
48	0.00665805661850076\\
49	0.0063079366485928\\
50	0.00599443852440938\\
51	0.00571191453485358\\
52	0.00545584764793091\\
53	0.0052225778141873\\
54	0.00500910486747672\\
55	0.00481294397681212\\
56	0.00463201789166602\\
57	0.00446457542356871\\
58	0.00430912894812168\\
59	0.00416440590497024\\
60	0.00402931074167137\\
61	0.00390289474814389\\
62	0.00378433192171684\\
63	0.00367289949042518\\
64	0.0035679620699816\\
65	0.00346895868109233\\
66	0.00337539203747226\\
67	0.00328681965070268\\
68	0.00320284639950925\\
69	0\\
70	0\\
71	0\\
72	0\\
73	0\\
74	0\\
75	0\\
76	0\\
77	0\\
78	0\\
79	0\\
80	0\\
81	0\\
82	0\\
83	0\\
84	0\\
85	0\\
86	0\\
87	0\\
88	0\\
89	0\\
90	0\\
91	0\\
92	0\\
93	0\\
94	0\\
95	0\\
96	0\\
97	0\\
98	0\\
99	0\\
100	0\\
101	0\\
102	0\\
103	0\\
104	0\\
105	0\\
106	0\\
107	0\\
108	0\\
109	0\\
110	0\\
111	0\\
112	0\\
113	0\\
114	0\\
115	0\\
116	0\\
117	0\\
118	0\\
119	0\\
120	0\\
121	0\\
122	0\\
123	0\\
124	0\\
125	0\\
126	0\\
127	0\\
128	0\\
129	0\\
130	0\\
131	0\\
132	0\\
133	0\\
134	0\\
135	0\\
136	0\\
137	0\\
138	0\\
139	0\\
140	0\\
141	0\\
142	0\\
143	0\\
144	0\\
145	0\\
146	0\\
147	0\\
148	0\\
149	0\\
150	0\\
151	0\\
152	0\\
153	0\\
154	0\\
155	0\\
156	0\\
157	0\\
158	0\\
159	0\\
160	0\\
161	0\\
162	0\\
163	0\\
164	0\\
165	0\\
166	0\\
167	0\\
168	0\\
169	0\\
170	0\\
171	0\\
172	0\\
173	0\\
174	0\\
175	0\\
176	0\\
177	0\\
178	0\\
179	0\\
180	0\\
181	0\\
182	0\\
183	0\\
184	0\\
185	0\\
186	0\\
187	0\\
188	0\\
189	0\\
190	0\\
191	0\\
192	0\\
193	0\\
194	0\\
195	0\\
196	0\\
197	0\\
198	0\\
199	0\\
200	0\\
};
\addlegendentry{$\mathbf{h_{2}}$}

\end{axis}

\begin{axis}[%
width=1.935in,
height=3.2in,
at={(3.327in,0.512in)},
scale only axis,
xmin=0,
xmax=200,
xlabel style={font=\color{white!15!black}, align=center},
xlabel={Sample Index\\[1ex](b) Estimated},
ymin=0,
ymax=1,
axis background/.style={fill=white},
legend style={legend cell align=left, align=left, draw=white!15!black}
]
\addplot [color=mycolor1]
  table[row sep=crcr]{%
0	0.000763424892189988\\
1	0.00150450510462469\\
2	0.00132271910838579\\
3	0.00252931019199872\\
4	0.00185124672808107\\
5	0.00261381281878186\\
6	0.000589608932035417\\
7	0.00210841006400087\\
8	0.000870411468331799\\
9	0.000988696032952198\\
10	0.000363636069479284\\
11	0.00118079030583119\\
12	0.000851222223369071\\
13	0.000900988190934424\\
14	0.00171966209209997\\
15	0.00204415151033699\\
16	0.000875007042976518\\
17	0.000843266140478974\\
18	0.00100851135779245\\
19	0.00287478310389979\\
20	0.000584750087790644\\
21	0.00312569520446604\\
22	0.00184480684546983\\
23	0.00318654346174968\\
24	0.000358125438628543\\
25	0.00130942031162535\\
26	0.000676593774707115\\
27	0.00099455205034093\\
28	0.00125796522231104\\
29	0.000514574381019144\\
30	0.00103178330000152\\
31	0.00213861629951433\\
32	0.000767810378090107\\
33	0.000554542422488634\\
34	0.0017340384356862\\
35	0.000758180517261432\\
36	0.00195397674301186\\
37	0.00285938758551087\\
38	0.00151300213169467\\
39	0.000576039289403732\\
40	0.00106472501721682\\
41	0.00211836037764672\\
42	0.00345905198299453\\
43	0.000660621893915776\\
44	0.0101058376052032\\
45	0.00918376820134733\\
46	0.0024912692496491\\
47	0.0116016538204518\\
48	0.00174427579982026\\
49	0.00354450755128972\\
50	0.0045658834032525\\
51	0.000866941774112416\\
52	0.00413534247711442\\
53	0.003526661422618\\
54	0.00360326265204294\\
55	0.0058294401980924\\
56	0.00203140013833486\\
57	0.00896326345607107\\
58	0.00553723240206986\\
59	0.00329335711416859\\
60	0.0135889186098194\\
61	0.0108002725779612\\
62	0.00640303838866527\\
63	0.0300891928128694\\
64	0.0173513221701362\\
65	0.0243461336388247\\
66	0.0110457215405641\\
67	0.0385932711503072\\
68	0.0131563238409697\\
69	0.0412827632141997\\
70	0.0443899245383931\\
71	0.0311838028591598\\
72	0.101072339268959\\
73	0.0205670869551025\\
74	0.0170638340213603\\
75	0.0179221439532176\\
76	0.0187435851110989\\
77	0.0497119270834508\\
78	0.0655873608580106\\
79	0.151085353913705\\
80	0.109841227150221\\
81	0.132982804433503\\
82	0.211403245295872\\
83	0.561165443258455\\
84	0.135699698720441\\
85	0.0666551026768022\\
86	0.0261799514230261\\
87	0.0559017630412693\\
88	0.0734499550558459\\
89	0.0772608260007514\\
90	0.0225890933037185\\
91	0.0329548241014494\\
92	0.0112364986420474\\
93	0.0441439082513804\\
94	0.0294149643433446\\
95	0.0401590857812892\\
96	0.0385596092098133\\
97	0.0478173071361895\\
98	0.0822896349362463\\
99	0.572050612513203\\
100	0.128258985429475\\
101	0.0321511666911308\\
102	0.0650259683466832\\
103	0.0609022887441495\\
104	0.0761814848502803\\
105	0.171407757434612\\
106	0.0245931041847139\\
107	0.050428135880717\\
108	0.0474584681475409\\
109	0.0236991741263713\\
110	0.0136904019003438\\
111	0.00490285746607464\\
112	0.00586871267559962\\
113	0.0237143582777843\\
114	0.0216326509511409\\
115	0.0646180850926249\\
116	0.0665999880407847\\
117	0.0785462765061514\\
118	0.221317830773338\\
119	0.177541910027702\\
120	0.0796939744954838\\
121	0.0523615492897563\\
122	0.0267950557476164\\
123	0.0291516997705343\\
124	0.021508882066124\\
125	0.00810689654036604\\
126	0.0155005182208731\\
127	0.0192722452540403\\
128	0.0164306809616883\\
129	0.00959702236414555\\
130	0.0141128480050067\\
131	0.0148515411692508\\
132	0.00819816477103623\\
133	0.0141164983964114\\
134	0.0239991946118422\\
135	0.0209518071947374\\
136	0.009436404347815\\
137	0.0150029252322719\\
138	0.00332054459121332\\
139	0.00901490461282894\\
140	0.00739126681073369\\
141	0.000883609496389534\\
142	0.00722028347146205\\
143	0.00422242121943331\\
144	0.00344429770014344\\
145	0.00624850738862231\\
146	0.00918363871344444\\
147	0.00676075190859661\\
148	0.00643387043732072\\
149	0.00411202303117558\\
150	0.00716312712795759\\
151	0.00950582801802615\\
152	0.00673508620978998\\
153	0.00361474877235035\\
154	0.00190569272790002\\
155	0.00419124056782601\\
156	0.00370156118513528\\
157	0.00411452828519734\\
158	0.00492788493323724\\
159	0.00261549725440272\\
160	0.00237182936621664\\
161	0.00079904296717493\\
162	0.00275222650026738\\
163	0.00356705292739218\\
164	0.0023261419396387\\
165	0.0028172998444507\\
166	0.00319999332851566\\
167	0.00193780593213466\\
168	0.000864937093547622\\
169	0.00302538869289354\\
170	0.00268438874108642\\
171	0.00342507863848836\\
172	0.0034491210521349\\
173	0.00118570213446688\\
174	0.00321727605331265\\
175	0.00134534240399681\\
176	0.00149675337056161\\
177	0.00153030314750292\\
178	0.000440332831799859\\
179	0.00237867610802865\\
180	0.00111915445471194\\
181	0.000975353904632768\\
182	0.00430483248040218\\
183	0.00191234964422247\\
184	0.00157049237414058\\
185	0.00232724780125731\\
186	0.00139212930675735\\
187	0.00319278692054164\\
188	0.00266412837121357\\
189	0.00169982556696508\\
190	0.0019855373302089\\
};
\addlegendentry{$\mathbf{\hat{h}_{1}}$}

\addplot [color=mycolor2]
  table[row sep=crcr]{%
0	0.000832751297437044\\
1	0.00132660970944681\\
2	0.000668752407649041\\
3	0.00094881030230067\\
4	0.000622377009693573\\
5	0.00127481318334658\\
6	0.000406227963976804\\
7	0.000827420101337148\\
8	0.00057424222404152\\
9	0.000608182937930855\\
10	0.000544985639749243\\
11	0.00119222915271895\\
12	0.000956095169510068\\
13	0.000590838699409382\\
14	0.00099025353089471\\
15	0.000420803067781181\\
16	0.00053676786882087\\
17	0.000827787972176194\\
18	0.000599767599403083\\
19	0.00127999422030196\\
20	0.00119507843473568\\
21	0.000822757574336852\\
22	6.49289522787082e-05\\
23	0.000651341586548044\\
24	0.000337580988898563\\
25	0.00113803245454138\\
26	0.000685093296573509\\
27	0.00142107974420386\\
28	0.000952894338026743\\
29	0.00135460033753739\\
30	0.00161927769781025\\
31	0.00182766309348777\\
32	0.00152601617268287\\
33	0.000930022377279062\\
34	0.000593645454903392\\
35	0.00199400383908447\\
36	0.000367855541162612\\
37	0.000863582427055713\\
38	0.00305907166439411\\
39	0.00231232943025667\\
40	0.00143943761264414\\
41	0.00194403837268585\\
42	0.00273665235442027\\
43	0.0026252382504026\\
44	0.0017312573747577\\
45	0.00084536241063251\\
46	0.00148127342813184\\
47	0.00161283898844206\\
48	0.00156578630731695\\
49	0.00230731554547269\\
50	0.00181694961606703\\
51	0.00218173328473988\\
52	0.000983391849141689\\
53	0.00229897680147202\\
54	0.00558912209826767\\
55	0.0174792067896052\\
56	0.0128061456294586\\
57	0.00439146004760151\\
58	0.0312410808394953\\
59	0.0146665488884064\\
60	0.0103017892152227\\
61	0.0102856617341724\\
62	0.00519164158523418\\
63	0.003939641405755\\
64	0.00291164447002739\\
65	0.00147550517284389\\
66	0.00228448839522928\\
67	0.00484638771532111\\
68	0.0134076767221357\\
69	0.00274599276706895\\
70	0.00485144362278664\\
71	0.0152707540714103\\
72	0.0141444226348772\\
73	0.00952548493366056\\
74	0.0296698776540648\\
75	0.0362720176082148\\
76	0.0201976079369398\\
77	0.00823712421129186\\
78	0.0726660539980178\\
79	0.010948971654945\\
80	0.00497250615863009\\
81	0.0129190433702216\\
82	0.00599974653122696\\
83	0.00704897605429224\\
84	0.00334496624550105\\
85	0.0101163625757073\\
86	0.0126391404068116\\
87	0.00761151002298437\\
88	0.0102038849640545\\
89	0.00642996488359731\\
90	0.00477496762290753\\
91	0.0332696163362115\\
92	0.0161526246876929\\
93	0.00311761725640387\\
94	0.986843788567098\\
95	0.00312338464072301\\
96	0.0161539577405742\\
97	0.0332638380349606\\
98	0.00477406339044527\\
99	0.00642603710618036\\
100	0.0102021229456015\\
101	0.0076210627051624\\
102	0.0126397382164231\\
103	0.0101225865848902\\
104	0.00334717134084527\\
105	0.00704138927655762\\
106	0.00600395481498829\\
107	0.0129136597487597\\
108	0.00497465998411493\\
109	0.0109508765622722\\
110	0.0726710559069822\\
111	0.00822058773848471\\
112	0.0201860047637463\\
113	0.036263451081844\\
114	0.0296591035998316\\
115	0.00952791873343272\\
116	0.0141395399489549\\
117	0.0152602906518988\\
118	0.00484423385635531\\
119	0.00274490201044267\\
120	0.0134066035256274\\
121	0.00483264320810179\\
122	0.00229845978588843\\
123	0.00148452357525263\\
124	0.00291494694833414\\
125	0.00393404982983359\\
126	0.00516936903864263\\
127	0.010301567205187\\
128	0.0102805484125287\\
129	0.0146571833805151\\
130	0.0312329013623812\\
131	0.00437837634500141\\
132	0.0128024344723308\\
133	0.0174834909747483\\
134	0.0055824565315315\\
135	0.00230764571520971\\
136	0.000966399983616181\\
137	0.00216632413236243\\
138	0.00183956349106407\\
139	0.00229827975033974\\
140	0.00158352451330479\\
141	0.00161571771719551\\
142	0.00147806436035767\\
143	0.000829947940787582\\
144	0.001752577197238\\
145	0.00265534533502072\\
146	0.00274068341473583\\
147	0.00196970838980472\\
148	0.00144268074363948\\
149	0.00231378162917833\\
150	0.0030714976394546\\
151	0.000852979221974914\\
152	0.000385282834367774\\
153	0.00199726102372489\\
154	0.00062776230187294\\
155	0.000943650935349295\\
156	0.00150726942384158\\
157	0.00185029472994189\\
158	0.001613872413737\\
159	0.00136471138004259\\
160	0.000968673729989533\\
161	0.00142041595897147\\
162	0.000679462844485491\\
163	0.00114568048436354\\
164	0.000325169663445746\\
165	0.000660734901095455\\
166	9.81801954182643e-05\\
167	0.000811322404382445\\
168	0.00119733466190559\\
169	0.00129640880809423\\
170	0.000612615780924924\\
171	0.000840069110126859\\
172	0.000543443416485496\\
173	0.000460520620733394\\
174	0.000944042308716177\\
175	0.000594706811724984\\
176	0.00097792429343056\\
177	0.00121840508550945\\
178	0.000573138028827489\\
179	0.000680438869953057\\
180	0.000601404284829258\\
181	0.000891359762693901\\
182	0.000501581593378557\\
183	0.00127451355176569\\
184	0.000678361762905145\\
185	0.000958741444649978\\
186	0.000743208129148593\\
187	0.00138745955929058\\
188	0.000910291279537043\\
189	0.000331623333915856\\
190	0.00135597574819081\\
};
\addlegendentry{$\mathbf{\hat{h}_{2}}$}

\end{axis}
\end{tikzpicture}%