% This file was created by matlab2tikz.
%
%The latest updates can be retrieved from
%  http://www.mathworks.com/matlabcentral/fileexchange/22022-matlab2tikz-matlab2tikz
%where you can also make suggestions and rate matlab2tikz.
%
\definecolor{mycolor1}{rgb}{0.00000,0.44700,0.74100}%
\definecolor{mycolor2}{rgb}{0.85000,0.32500,0.09800}%
%
\begin{tikzpicture}

\begin{axis}[%
width=1.952in,
height=3.2in,
at={(0.758in,0.512in)},
scale only axis,
xmin=0,
xmax=20,
xlabel style={font=\color{white!15!black}, align=center},
xlabel={Sample Index\\[1ex](a) Actual},
ymin=0,
ymax=0.9,
axis background/.style={fill=white},
legend style={legend cell align=left, align=left, draw=white!15!black}
]
\addplot [color=mycolor1]
  table[row sep=crcr]{%
1	0.0444337104356374\\
2	0.738127803558165\\
3	0.357839506790865\\
4	0.481268775571525\\
5	0.10955194752004\\
6	0.267783168107473\\
7	0.0769544524124665\\
8	0.0372836026936495\\
9	0.027789744685169\\
10	0.0196434178633453\\
11	0.0212138243269196\\
12	0.0147156812719569\\
13	0.0126517206023441\\
14	0.0111331007215966\\
15	0.00994473974674355\\
16	0.00898571135769806\\
17	0.00819466874468931\\
18	0.00753086667278431\\
19	0.00696589032366256\\
20	0.00647923877975415\\
};
\addlegendentry{$\mathbf{h_1}$}

\addplot [color=mycolor2]
  table[row sep=crcr]{%
1	0.0696363384444256\\
2	0.13399148454392\\
3	0.889181852408627\\
4	0.426869408918664\\
5	0.0527923084371181\\
6	0.0393468637154593\\
7	0\\
8	0\\
9	0\\
10	0\\
11	0\\
12	0\\
13	0\\
14	0\\
15	0\\
16	0\\
17	0\\
18	0\\
19	0\\
20	0\\
};
\addlegendentry{$\mathbf{h_{2}}$}

\end{axis}

\begin{axis}[%
width=1.952in,
height=3.2in,
at={(3.327in,0.512in)},
scale only axis,
xmin=0,
xmax=20,
xlabel style={font=\color{white!15!black}, align=center},
xlabel={Sample Index\\[1ex](b) Estimated},
ymin=0,
ymax=1,
axis background/.style={fill=white},
legend style={legend cell align=left, align=left, draw=white!15!black}
]
\addplot [color=mycolor1]
  table[row sep=crcr]{%
0	0.000788817269681436\\
1	0.000980347079974459\\
2	0.00457169237448836\\
3	0.00429328164846429\\
4	0.0174565986444329\\
5	0.0482474103355164\\
6	0.0939394789911597\\
7	0.240180680303839\\
8	0.763694505595468\\
9	0.332861851614858\\
10	0.377890531619428\\
11	0.212669230625195\\
12	0.176270691736227\\
13	0.120296784287892\\
14	0.0438104265923801\\
15	0.0193092392896883\\
16	0.0156891890880077\\
17	0.019567524053804\\
18	0.0135236362620148\\
19	0.0106107191761556\\
};
\addlegendentry{$\mathbf{\hat{h}_{1}}$}

\addplot [color=mycolor2]
  table[row sep=crcr]{%
0	0.00582592687261225\\
1	0.00602049043382642\\
2	0.00814802245456045\\
3	0.0107845475955654\\
4	0.0249735778897541\\
5	0.0446187358937192\\
6	0.0294603036463233\\
7	0.103149824315473\\
8	0.0612574863699255\\
9	0.981690396960369\\
10	0.0612663509425922\\
11	0.103152394930674\\
12	0.029469486274998\\
13	0.0446233907010146\\
14	0.0250189078079094\\
15	0.0108433585003413\\
16	0.00812293317372341\\
17	0.00578211996312139\\
18	0.00611107219806811\\
19	0.00472537759658463\\
};
\addlegendentry{$\mathbf{\hat{h}_{2}}$}

\end{axis}

\end{tikzpicture}%