% This file was created by matlab2tikz.
%
%The latest updates can be retrieved from
%  http://www.mathworks.com/matlabcentral/fileexchange/22022-matlab2tikz-matlab2tikz
%where you can also make suggestions and rate matlab2tikz.
%
\definecolor{mycolor1}{rgb}{0.00000,0.44700,0.74100}%
\definecolor{mycolor2}{rgb}{0.85000,0.32500,0.09800}%
%
\begin{tikzpicture}

\begin{axis}[%
width=1.952in,
height=3.2in,
at={(0.758in,0.512in)},
scale only axis,
xmin=0,
xmax=20,
xlabel style={font=\color{white!15!black}, align=center},
xlabel={Sample Index\\[1ex](a) Actual},
ymin=0,
ymax=0.9,
axis background/.style={fill=white},
legend style={legend cell align=left, align=left, draw=white!15!black}
]
\addplot [color=mycolor1]
  table[row sep=crcr]{%
1	0.0444337104356374\\
2	0.738127803558165\\
3	0.357839506790865\\
4	0.481268775571525\\
5	0.10955194752004\\
6	0.267783168107473\\
7	0.0769544524124665\\
8	0.0372836026936495\\
9	0.027789744685169\\
10	0.0196434178633453\\
11	0.0212138243269196\\
12	0.0147156812719569\\
13	0.0126517206023441\\
14	0.0111331007215966\\
15	0.00994473974674355\\
16	0.00898571135769806\\
17	0.00819466874468931\\
18	0.00753086667278431\\
19	0.00696589032366256\\
20	0.00647923877975415\\
};
\addlegendentry{$\mathbf{h_1}$}

\addplot [color=mycolor2]
  table[row sep=crcr]{%
1	0.0696363384444256\\
2	0.13399148454392\\
3	0.889181852408627\\
4	0.426869408918664\\
5	0.0527923084371181\\
6	0.0393468637154593\\
7	0\\
8	0\\
9	0\\
10	0\\
11	0\\
12	0\\
13	0\\
14	0\\
15	0\\
16	0\\
17	0\\
18	0\\
19	0\\
20	0\\
};
\addlegendentry{$\mathbf{h_{2}}$}

\end{axis}

\begin{axis}[%
width=1.952in,
height=3.2in,
at={(3.327in,0.512in)},
scale only axis,
xmin=0,
xmax=30,
xlabel style={font=\color{white!15!black}, align=center},
xlabel={Sample Index\\[1ex](b) Estimated},
ymin=0,
ymax=0.4,
axis background/.style={fill=white},
legend style={legend cell align=left, align=left, draw=white!15!black}
]
\addplot [color=mycolor1]
  table[row sep=crcr]{%
0	0.0130227191881036\\
1	0.212478988728059\\
2	0.215531613947069\\
3	0.303731419029752\\
4	0.224875889267948\\
5	0.237235417746293\\
6	0.310288569739858\\
7	0.352327585845879\\
8	0.360732350651461\\
9	0.290260303306758\\
10	0.239524767732588\\
11	0.223579739411898\\
12	0.313851584950908\\
13	0.198710914539135\\
14	0.141644026181648\\
15	0.0497496505986133\\
16	0.0745143800378414\\
17	0.022903725290517\\
18	0.0123054663262951\\
19	0.00770250107079557\\
20	0.0064094311178383\\
21	0.00613333794790235\\
22	0.00505176092137013\\
23	0.00399358881829265\\
24	0.00354067660694444\\
25	0.0024457761060915\\
26	0.0030125977636937\\
27	0.00155641153364821\\
28	0.00209929791879698\\
29	0.00109056813625493\\
30	0.00189917971307956\\
};
\addlegendentry{$\mathbf{\hat{h}_{1}}$}

\addplot [color=mycolor2]
  table[row sep=crcr]{%
0	0.022700524558675\\
1	0.0317353595493151\\
2	0.278257756559339\\
3	0.290094193464402\\
4	0.226737587213424\\
5	0.23688407949517\\
6	0.252393815609614\\
7	0.335254975498989\\
8	0.376367540873417\\
9	0.321752793025859\\
10	0.231517040179102\\
11	0.235265069846318\\
12	0.204451095589189\\
13	0.36973113921545\\
14	0.142740572011602\\
15	0.0102344964207769\\
16	0.0128388106635651\\
17	7.67054104354047e-06\\
18	9.83117876036865e-06\\
19	8.14442485437265e-06\\
20	6.2838730677153e-06\\
21	5.21034837066492e-06\\
22	4.52920981539621e-06\\
23	4.02842919892213e-06\\
24	3.58833628609197e-06\\
25	2.86055828475772e-06\\
26	1.98186155508026e-06\\
27	1.12710145831083e-06\\
28	7.02431762108389e-07\\
29	7.83715056506576e-07\\
30	5.25424633129358e-07\\
};
\addlegendentry{$\mathbf{\hat{h}_{2}}$}

\end{axis}
\end{tikzpicture}%