% This file was created by matlab2tikz.
%
%The latest updates can be retrieved from
%  http://www.mathworks.com/matlabcentral/fileexchange/22022-matlab2tikz-matlab2tikz
%where you can also make suggestions and rate matlab2tikz.
%
\definecolor{mycolor1}{rgb}{0.00000,0.44700,0.74100}%
\definecolor{mycolor2}{rgb}{0.85000,0.32500,0.09800}%
%
\begin{tikzpicture}

\begin{axis}[%
width=1.935in,
height=3.2in,
at={(0.758in,0.512in)},
scale only axis,
xmin=0,
xmax=200,
xlabel style={font=\color{white!15!black}, align=center},
xlabel={Sample Index\\[1ex](a) Actual},
ymin=0,
ymax=1,
axis background/.style={fill=white},
legend style={legend cell align=left, align=left, draw=white!15!black}
]
\addplot [color=mycolor1]
  table[row sep=crcr]{%
1	0.0167418731260698\\
2	0.018659722218203\\
3	0.0211495716349754\\
4	0.0245407494314006\\
5	0.029505643974117\\
6	0.0377161636169434\\
7	0.0550750576238134\\
8	0.131028403455825\\
9	0.141533477104454\\
10	0.158175166246243\\
11	0.163761757297189\\
12	0.600100605556833\\
13	0.118033417583129\\
14	0.0610914209628117\\
15	0.0426162246246858\\
16	0.0332715711707656\\
17	0.0321939439283243\\
18	0.0268871008873183\\
19	0.0316920608120786\\
20	0.0286771919664519\\
21	0.00773119825769845\\
22	0.0330073087209196\\
23	0.019415059292473\\
24	0.0177688778425817\\
25	0.0188194600762088\\
26	0.0237714798713867\\
27	0.0430806655948836\\
28	0.586023006720236\\
29	0.0970905103802927\\
30	0.0246981078960262\\
31	0.0780346253424249\\
32	0.0580455436901626\\
33	0.0681836526256362\\
34	0.163824852865525\\
35	0.0446106828365612\\
36	0.06119675966513\\
37	0.00907835157153909\\
38	0.0310093774848825\\
39	0.00125972832884384\\
40	0.005422098150711\\
41	0.0107374596162295\\
42	0.0165479326643041\\
43	0.024789327411243\\
44	0.0446277431282512\\
45	0.058019450740893\\
46	0.074843365423057\\
47	0.199666615467323\\
48	0.216838516027539\\
49	0.0783890355452335\\
50	0.0495529240878659\\
51	0.0370791446049236\\
52	0.0307530810094058\\
53	0.0155757068681131\\
54	0.0198807977432187\\
55	0.0179871495341263\\
56	0.0162887905400521\\
57	0.0148728268904216\\
58	0.0136909847461918\\
59	0.0126943671543235\\
60	0.011846112844806\\
61	0.0111233301448608\\
62	0.0105291449791113\\
63	0.0102108676347222\\
64	0.00751288118280402\\
65	0.00739035992869396\\
66	0.0116365722557393\\
67	0.00899390796280924\\
68	0.00831157148096884\\
69	0.00788086875151191\\
70	0.00754217236777393\\
71	0.00725475830161164\\
72	0.00700327644843893\\
73	0.006780818536885\\
74	0.00658453626015097\\
75	0.00641472878078445\\
76	0.00627599401250467\\
77	0.00618216997550965\\
78	0.00617516728867787\\
79	0.00642745729543014\\
80	0.00873051939586948\\
81	0.00471465923588381\\
82	0.00195996010568866\\
83	0.004980313957114\\
84	0.00475839614864904\\
85	0.00464733241660508\\
86	0.00455444244400457\\
87	0.00446749239384432\\
88	0.00438406292262191\\
89	0.00430366820355207\\
90	0.00422628355118023\\
91	0.00415201532524293\\
92	0.00408104289588831\\
93	0.00401365198230764\\
94	0.00395033763548775\\
95	0.00389203620501121\\
96	0.00384070443755282\\
97	0.00380107128140597\\
98	0.00378779867734327\\
99	0.00387836096292209\\
100	0.00228454900881806\\
101	0.00321909463290553\\
102	0.00328982387499096\\
103	0.00328100374444436\\
104	0.00325253146337885\\
105	0.00321692683031362\\
106	0.00317840637543852\\
107	0.00313876414674543\\
108	0.00309887602618152\\
109	0.00305920797263281\\
110	0.00302002111537278\\
111	0.00298146552488656\\
112	0.00294362726599965\\
113	0.0029065537719176\\
114	0.00287026833389302\\
115	0.00283477876811283\\
116	0.00280008280049957\\
117	0.00276617151884636\\
118	0.00273303164395387\\
119	0.00270064705586787\\
120	0.00266899983729428\\
121	0.00263807099659409\\
122	0.00260784097374635\\
123	0.00257828999668392\\
124	0.00254939833288439\\
125	0.00252114646667125\\
126	0.00249351522323938\\
127	0.00246648585412356\\
128	0.00244004009455901\\
129	0.00241416020024051\\
130	0.00238882896892876\\
131	0.0023640297508985\\
132	0.00233974645117835\\
133	0.00231596352577768\\
134	0.00229266597354371\\
135	0.00226983932488367\\
136	0.00224746962828519\\
137	0.00222554343533969\\
138	0.00220404778480324\\
139	0.00218297018609978\\
140	0.00216229860257188\\
141	0.00214202143470905\\
142	0.00212212750352594\\
143	0.00210260603421662\\
144	0.00208344664017788\\
145	0.00206463930746792\\
146	0.00204617437974413\\
147	0.00202804254371082\\
148	0.00201023481509265\\
149	0.00199274252514179\\
150	0.00197555730767936\\
151	0.0019586710866655\\
152	0.00194207606428942\\
153	0.00192576470956709\\
154	0.00190972974743187\\
155	0.00189396414830307\\
156	0.00187846111811499\\
157	0.00186321408878906\\
158	0.00184821670913216\\
159	0.00183346283614256\\
160	0.00181894652670628\\
161	0.00180466202966742\\
162	0.00179060377825436\\
163	0.00177676638284649\\
164	0.00176314462406556\\
165	0.00174973344617591\\
166	0.0017365279507797\\
167	0.00172352339079259\\
168	0.00171071516468654\\
169	0.00169809881098722\\
170	0.00168567000301325\\
171	0.00167342454384613\\
172	0.00166135836151948\\
173	0.00164946750441694\\
174	0.00163774813686889\\
175	0.00162619653493841\\
176	0.00161480908238697\\
177	0.00160358226681213\\
178	0.001592512675948\\
179	0.00158159699412143\\
180	0.00157083199885632\\
181	0.00156021455761888\\
182	0.00154974162469766\\
183	0.00153941023821136\\
184	0.00152921751723897\\
185	0.00151916065906659\\
186	0.00150923693654504\\
187	0.00149944369555362\\
188	0.00148977835256491\\
189	0.00148023839230615\\
190	0.0014708213655126\\
191	0.00146152488676917\\
192	0.00145234663243548\\
193	0.00144328433865201\\
194	0.00143433579942216\\
195	0.0014254988647679\\
196	0.00141677143895562\\
197	0.00140815147878894\\
198	0.00139963699196521\\
199	0\\
200	0\\
};
\addlegendentry{$\mathbf{h_1}$}

\addplot [color=mycolor2]
  table[row sep=crcr]{%
1	0.00495033386861547\\
2	0.00515738368500011\\
3	0.00538309861623286\\
4	0.00563019833310769\\
5	0.00590197136255583\\
6	0.00620243506959928\\
7	0.00653655369620811\\
8	0.00691054090538825\\
9	0.00733228812251618\\
10	0.00781198494389501\\
11	0.00836304134465097\\
12	0.0090034999823859\\
13	0.00975827527656913\\
14	0.0106628508662167\\
15	0.0117696896019869\\
16	0.0131600228416925\\
17	0.0149671880151623\\
18	0.0174273921400842\\
19	0.0210049332363351\\
20	0.0267613442180004\\
21	0.037792597580649\\
22	0.068721841139076\\
23	0.97572931769219\\
24	0.0649085399616321\\
25	0.0262918397391367\\
26	0.0126468169615953\\
27	0.00419508123086451\\
28	0.0214241856295046\\
29	0.0134643328328179\\
30	0.00412679327935559\\
31	0.0112712342656943\\
32	0.0282552508318709\\
33	0.111702725947746\\
34	0.12653020104749\\
35	0.0361926668223949\\
36	0.024130019396178\\
37	0.019518168382204\\
38	0.0163235660243771\\
39	0.0140849625225472\\
40	0.0124312948441269\\
41	0.0111552918846637\\
42	0.0101369616841952\\
43	0.00930266674553233\\
44	0.00860476970863487\\
45	0.00801105372801389\\
46	0.00749890841387189\\
47	0.00705196472677567\\
48	0.00665805661850076\\
49	0.0063079366485928\\
50	0.00599443852440938\\
51	0.00571191453485358\\
52	0.00545584764793091\\
53	0.0052225778141873\\
54	0.00500910486747672\\
55	0.00481294397681212\\
56	0.00463201789166602\\
57	0.00446457542356871\\
58	0.00430912894812168\\
59	0.00416440590497024\\
60	0.00402931074167137\\
61	0.00390289474814389\\
62	0.00378433192171684\\
63	0.00367289949042518\\
64	0.0035679620699816\\
65	0.00346895868109233\\
66	0.00337539203747226\\
67	0.00328681965070268\\
68	0.00320284639950925\\
69	0\\
70	0\\
71	0\\
72	0\\
73	0\\
74	0\\
75	0\\
76	0\\
77	0\\
78	0\\
79	0\\
80	0\\
81	0\\
82	0\\
83	0\\
84	0\\
85	0\\
86	0\\
87	0\\
88	0\\
89	0\\
90	0\\
91	0\\
92	0\\
93	0\\
94	0\\
95	0\\
96	0\\
97	0\\
98	0\\
99	0\\
100	0\\
101	0\\
102	0\\
103	0\\
104	0\\
105	0\\
106	0\\
107	0\\
108	0\\
109	0\\
110	0\\
111	0\\
112	0\\
113	0\\
114	0\\
115	0\\
116	0\\
117	0\\
118	0\\
119	0\\
120	0\\
121	0\\
122	0\\
123	0\\
124	0\\
125	0\\
126	0\\
127	0\\
128	0\\
129	0\\
130	0\\
131	0\\
132	0\\
133	0\\
134	0\\
135	0\\
136	0\\
137	0\\
138	0\\
139	0\\
140	0\\
141	0\\
142	0\\
143	0\\
144	0\\
145	0\\
146	0\\
147	0\\
148	0\\
149	0\\
150	0\\
151	0\\
152	0\\
153	0\\
154	0\\
155	0\\
156	0\\
157	0\\
158	0\\
159	0\\
160	0\\
161	0\\
162	0\\
163	0\\
164	0\\
165	0\\
166	0\\
167	0\\
168	0\\
169	0\\
170	0\\
171	0\\
172	0\\
173	0\\
174	0\\
175	0\\
176	0\\
177	0\\
178	0\\
179	0\\
180	0\\
181	0\\
182	0\\
183	0\\
184	0\\
185	0\\
186	0\\
187	0\\
188	0\\
189	0\\
190	0\\
191	0\\
192	0\\
193	0\\
194	0\\
195	0\\
196	0\\
197	0\\
198	0\\
199	0\\
200	0\\
};
\addlegendentry{$\mathbf{h_{2}}$}

\end{axis}

\begin{axis}[%
width=1.935in,
height=3.2in,
at={(3.327in,0.512in)},
scale only axis,
xmin=0,
xmax=200,
xlabel style={font=\color{white!15!black}, align=center},
xlabel={Sample Index\\[1ex](b) Estimated},
ymin=0,
ymax=0.2,
axis background/.style={fill=white},
legend style={legend cell align=left, align=left, draw=white!15!black}
]
\addplot [color=mycolor1]
  table[row sep=crcr]{%
0	0.0338362354068453\\
1	0.0386782747441885\\
2	0.0479080467533018\\
3	0.0451672628611339\\
4	0.0908038590776749\\
5	0.0451701723772528\\
6	0.0410245233346258\\
7	0.0388788659863272\\
8	0.0373308872707888\\
9	0.0168781409785195\\
10	0.0334573358293788\\
11	0.01645933023122\\
12	0.0445419491925287\\
13	0.0441339732409848\\
14	0.0802130555552775\\
15	0.0571005835405238\\
16	0.0311489941421602\\
17	0.0608013447326829\\
18	0.031558555828857\\
19	0.0256247192289507\\
20	0.0883930176131065\\
21	0.0785779405916343\\
22	0.0757716799545248\\
23	0.0799016263521827\\
24	0.0464637867440218\\
25	0.0317185468468802\\
26	0.118441276783888\\
27	0.0674747912691811\\
28	0.0892661302556183\\
29	0.0387632443573783\\
30	0.0578456902757285\\
31	0.0762856303336471\\
32	0.062157866995625\\
33	0.0695038449786807\\
34	0.108991650025279\\
35	0.00708413388893883\\
36	0.0631229009937489\\
37	0.0840528233162365\\
38	0.0681629739121521\\
39	0.0468932436814213\\
40	0.0568689616611757\\
41	0.0417064596704806\\
42	0.072134715227407\\
43	0.0289477085506831\\
44	0.117026873945513\\
45	0.0363430942997382\\
46	0.0153551329963308\\
47	0.113719363513199\\
48	0.125269438009837\\
49	0.138936300660015\\
50	0.155021950221247\\
51	0.134960531547418\\
52	0.0331556291039368\\
53	0.0709128922519505\\
54	0.0433122875661287\\
55	0.117170531916307\\
56	0.00778242028145027\\
57	0.0343048168523045\\
58	0.0765387141739165\\
59	0.104578787234016\\
60	0.00141242690787699\\
61	0.166635504686876\\
62	0.0829190801132464\\
63	0.0260658161152283\\
64	0.0861857268567788\\
65	0.0375779658767314\\
66	0.0487110981205472\\
67	0.0129855715655581\\
68	0.00527483558564443\\
69	0.0529069230300185\\
70	0.0751135373719497\\
71	0.00618431382248733\\
72	0.0482155054762292\\
73	0.103625890660022\\
74	0.0886430775479808\\
75	0.0392136942295968\\
76	0.0210521919878216\\
77	0.0390476401220785\\
78	0.0277037543838582\\
79	0.0446646515650955\\
80	0.0753852133484545\\
81	0.0929413131337059\\
82	0.0395973144577161\\
83	0.0071946340899243\\
84	0.0150751699262798\\
85	0.0724488187032757\\
86	0.130149619793047\\
87	0.0642722888972708\\
88	0.078562601142881\\
89	0.0436902314135581\\
90	0.0869604034595579\\
91	0.0764974713177934\\
92	0.0705147191062593\\
93	0.0370717075641369\\
94	0.0675499751068881\\
95	0.105589997512068\\
96	0.110662120883422\\
97	0.117955486296136\\
98	0.0286098836366677\\
99	0.10468361469625\\
100	0.0675056188562011\\
101	0.030935640284442\\
102	0.0746926904417967\\
103	0.0563204693842159\\
104	0.116016144346213\\
105	0.0498545981662692\\
106	0.0409823345535447\\
107	0.0167687948247911\\
108	0.0265776249822922\\
109	0.114126774810306\\
110	0.0706149449068461\\
111	0.189255827166087\\
112	0.0761408303839416\\
113	0.0838888579415047\\
114	0.125562525443595\\
115	0.0228450048249512\\
116	0.072495946470204\\
117	0.0583484768684198\\
118	0.131739056689091\\
119	0.0156592188737157\\
120	0.0663938154663554\\
121	0.0637520687984426\\
122	0.0181193778196267\\
123	0.0813488779562938\\
124	0.0685622605721197\\
125	0.027077137237054\\
126	0.0342628434607617\\
127	0.0417340825777974\\
128	0.0348085956027567\\
129	0.0821246759236884\\
130	0.0454183092342369\\
131	0.118400583586461\\
132	0.0507351709683666\\
133	0.084317576048885\\
134	0.0654365417865988\\
135	0.144608288638315\\
136	0.128209796603447\\
137	0.0673864875303818\\
138	0.0509302424919875\\
139	0.094007146519744\\
140	0.0769628439627\\
141	0.0644432239415061\\
142	0.113908895509141\\
143	0.0333731921872055\\
144	0.00323101259678956\\
145	0.0326845631149639\\
146	0.0327345349003482\\
147	0.108981771537431\\
148	0.0194685777020096\\
149	0.114310368665433\\
150	0.0685622679660811\\
151	0.0884039771063749\\
152	0.158005721156466\\
153	0.0680893423844848\\
154	0.115324391507966\\
155	0.0624308332949803\\
156	0.0523238876445358\\
157	0.0231632395209285\\
158	0.0233373097247743\\
159	0.104662491889068\\
160	0.0286848866456483\\
161	0.0359735013390295\\
162	0.10403078570502\\
163	0.0769966873294819\\
164	0.0529377429371081\\
165	0.058429513835692\\
166	0.101488051800401\\
167	0.0685836417892077\\
168	0.0564779495241143\\
169	0.128961390340242\\
170	0.0689138360819746\\
171	0.0284711377558421\\
172	0.0641321859730053\\
173	0.0346905095089416\\
174	0.0585084874443068\\
175	0.0316831610074526\\
176	0.0117926876917334\\
177	0.00702767537686793\\
178	0.079500016485773\\
179	0.0513829246604226\\
180	0.0364689308591069\\
181	0.020750681537282\\
182	0.0318785973179077\\
183	0.0293317859268177\\
184	0.0494318321848129\\
185	0.0109327822938787\\
186	0.0130434810339954\\
187	0.0579067926964424\\
188	0.0600476241438776\\
189	0.0327597189388636\\
190	0.0450852368189736\\
191	0.0183932546485716\\
192	0.0133516046593635\\
193	0.0246363947224395\\
194	0.00552917891470956\\
195	0.0101279948529497\\
196	0.017710113447746\\
197	0.0382994358712691\\
198	0.0455615870147657\\
199	0.0105489672852853\\
};
\addlegendentry{$\mathbf{\hat{h}_{1}}$}

\addplot [color=mycolor2]
  table[row sep=crcr]{%
0	0.00371654067336366\\
1	0.00403718493565867\\
2	0.00801838532085661\\
3	0.00938327117670332\\
4	0.00664546522386609\\
5	0.015088407222777\\
6	0.0156585357463461\\
7	0.0182367185651119\\
8	0.022504371347928\\
9	0.0181711909503265\\
10	0.0338819529429803\\
11	0.0498272090745467\\
12	0.0202940921325797\\
13	0.0679790615269944\\
14	0.0208610915663159\\
15	0.107151029219371\\
16	0.0773600887691248\\
17	0.0393378002295249\\
18	0.0232781377464656\\
19	0.0486897089922186\\
20	0.0576290634207705\\
21	0.0107102863819238\\
22	0.0670625883286868\\
23	0.0936689615689947\\
24	0.0302192219757653\\
25	0.127889268585706\\
26	0.0614097810464383\\
27	0.0504467639745957\\
28	0.0484495618136639\\
29	0.0914629409191493\\
30	0.0563452115204238\\
31	0.0919701290930035\\
32	0.0420255996999945\\
33	0.122133147750093\\
34	0.0234828173672587\\
35	0.0359348245943299\\
36	0.0358800647866634\\
37	0.187417161956949\\
38	0.0605121861894729\\
39	0.159824320457327\\
40	0.0742934031879831\\
41	0.0578243484640517\\
42	0.137921913413575\\
43	0.054817200841964\\
44	0.125528183003735\\
45	0.0383477416388371\\
46	0.0443836670371472\\
47	0.0256600679148208\\
48	0.0437400160002619\\
49	0.0360697916447331\\
50	0.0621613821075067\\
51	0.0906707572509329\\
52	0.00333258836332808\\
53	0.127984145392234\\
54	0.0518731133740849\\
55	0.035552260555928\\
56	0.0954526108773406\\
57	0.0286551799225942\\
58	0.0763881496138919\\
59	0.0558181449679607\\
60	0.146955879622156\\
61	0.0499489681522046\\
62	0.0887122078978789\\
63	0.0462510007191442\\
64	0.0543655195124432\\
65	0.0577307869036452\\
66	0.0800075645167421\\
67	0.0485507879840689\\
68	0.104221967594167\\
69	0.160419809836256\\
70	0.0402819976112459\\
71	0.0903815345064854\\
72	0.125839921683298\\
73	0.0997808380255528\\
74	0.052536362531732\\
75	0.0737718758405328\\
76	0.0292891096248535\\
77	0.051596004495722\\
78	0.0773771251339514\\
79	0.0268023027953135\\
80	0.148983283857748\\
81	0.0976241358516006\\
82	0.0322870968527675\\
83	0.0577998713606156\\
84	0.0993992731555232\\
85	0.0650885228606312\\
86	0.0447118624676262\\
87	0.0410490115983443\\
88	0.0137572734044782\\
89	0.0615577457655308\\
90	0.127439005277988\\
91	0.0480803094393454\\
92	0.0680991371088465\\
93	0.0765181006227312\\
94	0.0653158001110014\\
95	0.0615572956847485\\
96	0.111141840725828\\
97	0.10656065590775\\
98	0.0643172806952763\\
99	0.105362731241369\\
100	0.12500613000191\\
101	0.137782528431207\\
102	0.045171499079865\\
103	0.0461640679981389\\
104	0.0417581984917715\\
105	0.0313521545742197\\
106	0.12377272412475\\
107	0.0528192470520671\\
108	0.0387221292840378\\
109	0.073556949304623\\
110	0.11907926644076\\
111	0.066350768562453\\
112	0.089139466385278\\
113	0.0560394218759603\\
114	0.117271524222296\\
115	0.0573596308302636\\
116	0.0445960903108756\\
117	0.0614893930728489\\
118	0.029721311612064\\
119	0.0194934705199958\\
120	0.0262036634548511\\
121	0.0531025130992524\\
122	0.077842779547143\\
123	0.0189776548658214\\
124	0.106457963878163\\
125	0.022318179523237\\
126	0.0476969187527411\\
127	0.0353068639696557\\
128	0.153284987548821\\
129	0.0660595209675314\\
130	0.179070202698826\\
131	0.0800888960451372\\
132	0.0619376699671404\\
133	0.0576461301955751\\
134	0.0576151301340277\\
135	0.0696975546451008\\
136	0.0640527026928205\\
137	0.114055758368738\\
138	0.0190150324056116\\
139	0.0400977859968337\\
140	0.0307215550936203\\
141	0.0792608274164685\\
142	0.188411454278092\\
143	0.0227643093021562\\
144	0.0533048028851427\\
145	0.0992262169152526\\
146	0.0801323377843489\\
147	0.0648735182075528\\
148	0.0636456922868023\\
149	0.0914621956054196\\
150	0.0763529388160054\\
151	0.0637213927673111\\
152	0.010203170450516\\
153	0.00180867038988991\\
154	0.0956137181634026\\
155	0.0330960413732931\\
156	0.021007075195577\\
157	0.03077838992129\\
158	0.0763384513626996\\
159	0.0485211699394225\\
160	0.0427211701471586\\
161	0.0379008063093785\\
162	0.0941175927707785\\
163	0.0615855860899042\\
164	0.165572917240524\\
165	0.0794368864290745\\
166	0.0179485815109922\\
167	0.0303813695808241\\
168	0.0699999012213784\\
169	0.0394351110653293\\
170	0.0371886517585323\\
171	0.0351564642810122\\
172	0.0111664477656539\\
173	0.0668187314241892\\
174	0.0873318050986705\\
175	0.0252095591101931\\
176	0.0316816154692759\\
177	0.0313466601182372\\
178	0.0499721057575678\\
179	0.0344015786069723\\
180	0.0372901476576232\\
181	0.0102945810364005\\
182	0.030896662609819\\
183	0.019207162787109\\
184	0.0383597814629469\\
185	0.00816572533844934\\
186	0.0214987253552131\\
187	0.0045368359237191\\
188	0.0181776509536818\\
189	0.0189489619122291\\
190	0.0059702706457642\\
191	0.0125806103024934\\
192	0.0212536281550816\\
193	0.0144272884631847\\
194	0.00845573641303285\\
195	0.0210973903078892\\
196	0.00931470454730478\\
197	0.0100133910194336\\
198	0.0180016897544204\\
199	0.0195118834713735\\
};
\addlegendentry{$\mathbf{\hat{h}_{2}}$}

\end{axis}
\end{tikzpicture}%