% This file was created by matlab2tikz.
%
%The latest updates can be retrieved from
%  http://www.mathworks.com/matlabcentral/fileexchange/22022-matlab2tikz-matlab2tikz
%where you can also make suggestions and rate matlab2tikz.
%
\definecolor{mycolor1}{rgb}{0.00000,0.44700,0.74100}%
\definecolor{mycolor2}{rgb}{0.85000,0.32500,0.09800}%
%
\begin{tikzpicture}

\begin{axis}[%
width=1.952in,
height=3.2in,
at={(0.758in,0.512in)},
scale only axis,
xmin=0,
xmax=20,
xlabel style={font=\color{white!15!black}, align=center},
xlabel={Sample Index\\[1ex](a) Actual},
ymin=0,
ymax=1,
axis background/.style={fill=white},
legend style={legend cell align=left, align=left, draw=white!15!black}
]
\addplot [color=mycolor1]
  table[row sep=crcr]{%
1	0.113205605745861\\
2	0.919292270364926\\
3	0.256025577129562\\
4	0.221212160951117\\
5	0.110921817870281\\
6	0.0400328712358033\\
7	0.0687168441611535\\
8	0.0506014016738843\\
9	0.0552835931164163\\
10	0.0346525615393867\\
11	0.020191452822011\\
12	0.0185296152559968\\
13	0.0171404774442808\\
14	0.0156211388830756\\
15	0.0142945116316957\\
16	0.0131617720182863\\
17	0.0121914691582677\\
18	0.0113534257007881\\
19	0.0106231383936872\\
20	0.00998136168461187\\
};
\addlegendentry{$\mathbf{h_1}$}

\addplot [color=mycolor2]
  table[row sep=crcr]{%
1	0.0495723015654782\\
2	0.0685334241945042\\
3	0.511321702955238\\
4	0.765196656162612\\
5	0.358164812724738\\
6	0.132619444637821\\
7	0\\
8	0\\
9	0\\
10	0\\
11	0\\
12	0\\
13	0\\
14	0\\
15	0\\
16	0\\
17	0\\
18	0\\
19	0\\
20	0\\
};
\addlegendentry{$\mathbf{h_{2}}$}

\end{axis}

\begin{axis}[%
width=1.952in,
height=3.2in,
at={(3.327in,0.512in)},
scale only axis,
xmin=0,
xmax=20,
xlabel style={font=\color{white!15!black}, align=center},
xlabel={Sample Index\\[1ex](b) Estimated},
ymin=0,
ymax=1,
axis background/.style={fill=white},
legend style={legend cell align=left, align=left, draw=white!15!black}
]
\addplot [color=mycolor1]
  table[row sep=crcr]{%
0	0.113205811842155\\
1	0.919294715025516\\
2	0.25600848478128\\
3	0.221214805832979\\
4	0.110934301395463\\
5	0.0400228915070409\\
6	0.068727302876491\\
7	0.0505996279126273\\
8	0.0552818214344183\\
9	0.0346521010689661\\
10	0.0201921880058976\\
11	0.0185283262149725\\
12	0.0171406227843169\\
13	0.0156216886051137\\
14	0.0142945578699771\\
15	0.013164049541261\\
16	0.012190199175562\\
17	0.0113535028569893\\
18	0.010623170790621\\
19	0.00998149629114063\\
};
\addlegendentry{$\mathbf{\hat{h}_{1}}$}
\addplot [color=mycolor2]
  table[row sep=crcr]{%
0	0.0495727524398583\\
1	0.0685348546593207\\
2	0.511326491088715\\
3	0.765197250526512\\
4	0.358155230410758\\
5	0.132622521938169\\
6	1.59944769155559e-05\\
7	1.79044281568411e-05\\
8	1.38356380663914e-05\\
9	5.18874896201748e-06\\
10	1.39804102771313e-06\\
11	1.04070566903203e-06\\
12	2.33230713171553e-06\\
13	2.30296523355959e-06\\
14	1.60768571418559e-06\\
15	2.34667445006785e-07\\
16	3.6771424411145e-07\\
17	1.841966109414e-06\\
18	1.40185518995825e-06\\
19	1.3612181089945e-07\\
};
\addlegendentry{$\mathbf{\hat{h}_{2}}$}

\end{axis}

\end{tikzpicture}%