% This file was created by matlab2tikz.
%
%The latest updates can be retrieved from
%  http://www.mathworks.com/matlabcentral/fileexchange/22022-matlab2tikz-matlab2tikz
%where you can also make suggestions and rate matlab2tikz.
%
\definecolor{mycolor1}{rgb}{0.00000,0.44700,0.74100}%
\definecolor{mycolor2}{rgb}{0.85000,0.32500,0.09800}%
%
\begin{tikzpicture}

\begin{axis}[%
width=1.935in,
height=3.2in,
at={(0.758in,0.512in)},
scale only axis,
xmin=0,
xmax=100,
xlabel style={font=\color{white!15!black}, align=center},
xlabel={Sample Index\\[1ex](a) Actual},
ymin=0,
ymax=1,
axis background/.style={fill=white},
legend style={legend cell align=left, align=left, draw=white!15!black}
]
\addplot [color=mycolor1]
  table[row sep=crcr]{%
1	0.0216926152020066\\
2	0.0241183965289278\\
3	0.0267807478156139\\
4	0.0354280601095614\\
5	0.221828667704926\\
6	0.648965745595675\\
7	0.241270440438586\\
8	0.0776642628644082\\
9	0.0581044824071981\\
10	0.0611489366831747\\
11	0.0798140419847986\\
12	0.062735544320507\\
13	0.113011040425493\\
14	0.377485382687519\\
15	0.331649248845691\\
16	0.18615433793772\\
17	0.146493252817741\\
18	0.0847190801249442\\
19	0.0628278567269286\\
20	0.0148364296169451\\
21	0.0250471739922352\\
22	0.0344835915107885\\
23	0.116323790948646\\
24	0.279210940275387\\
25	0.101045410677318\\
26	0.0464379665429307\\
27	0.041398863205924\\
28	0.0263226969199998\\
29	0.0221848789960478\\
30	0.0197642774213948\\
31	0.0186496517239344\\
32	0.0219339353832985\\
33	0.018414044189717\\
34	0.00937919788338426\\
35	0.0100670783096178\\
36	0.0098135024549665\\
37	0.00937197330245933\\
38	0.00884810306396591\\
39	0.00821513429074651\\
40	0.00732026654240377\\
41	0.00945021173361951\\
42	0.0127255218727005\\
43	0.00946415089832864\\
44	0.00862800399957479\\
45	0.00816256372793386\\
46	0.00784857678072338\\
47	0.00764005346579914\\
48	0.00755773656417068\\
49	0.00776075567554332\\
50	0.00986938420958768\\
51	0.00319649311885596\\
52	0.00500292172051245\\
53	0.00524752973649041\\
54	0.00526667690567613\\
55	0.00521575322380608\\
56	0.00513704586881206\\
57	0.00504647235310817\\
58	0.00495116794332671\\
59	0.00485468351773321\\
60	0.00475890010347922\\
61	0.00466484578572566\\
62	0.00457308311118313\\
63	0.00448390798586452\\
64	0.0043974582605137\\
65	0.00431377595094964\\
66	0.00423284428954661\\
67	0.00415461047403326\\
68	0.00407899997367922\\
69	0.00400592569101114\\
70	0.00393529390404367\\
71	0.0038670081481966\\
72	0.00380097175500134\\
73	0.00373708950172093\\
74	0.00367526866536834\\
75	0.00361541967416126\\
76	0.00355745648532918\\
77	0.00350129677649243\\
78	0.00344686201027152\\
79	0.00339407741330312\\
80	0.00334287189828014\\
81	0.0032931779490063\\
82	0.00324493148246751\\
83	0.00319807169773062\\
84	0.003152540918526\\
85	0.00310828443427485\\
86	0.00306525034282854\\
87	0.00302338939712195\\
88	0.00298265485717807\\
89	0.00294300234835571\\
90	0.00290438972634362\\
91	0.0028667769491261\\
92	0.00283012595595264\\
93	0.0027944005532083\\
94	0.00275956630699144\\
95	0.0027255904421446\\
96	0.00269244174744817\\
97	0.00266009048666622\\
98	0.00262850831512411\\
99	0\\
100	0\\
};
\addlegendentry{$\mathbf{h_1}$}

\addplot [color=mycolor2]
  table[row sep=crcr]{%
1	0.00108294891904515\\
2	0.00115806441999571\\
3	0.00125656841390277\\
4	0.00139359850086552\\
5	0.00159676508941691\\
6	0.00191784013184518\\
7	0.00245777585368985\\
8	0.00342819163679349\\
9	0.00533730915065768\\
10	0.00974214709050295\\
11	0.0244449264542886\\
12	0.973731186814765\\
13	0.0500739614470277\\
14	0.0426946282907342\\
15	0.00536788790071817\\
16	0.0362080823589407\\
17	0.176144271962331\\
18	0.115663212635922\\
19	0.0234963057121139\\
20	0.0138738178597906\\
21	0.00966054585381422\\
22	0.00731818549393035\\
23	0.00584139575065055\\
24	0.0048330083027894\\
25	0.00410500747522503\\
26	0.00355723928842746\\
27	0.00313167065616096\\
28	0.00279247304593218\\
29	0.00251639833876938\\
30	0.00228774297450139\\
31	0.00209554142652578\\
32	0.00193191967393617\\
33	0.00179108704155738\\
34	0.00166869616651274\\
35	0\\
36	0\\
37	0\\
38	0\\
39	0\\
40	0\\
41	0\\
42	0\\
43	0\\
44	0\\
45	0\\
46	0\\
47	0\\
48	0\\
49	0\\
50	0\\
51	0\\
52	0\\
53	0\\
54	0\\
55	0\\
56	0\\
57	0\\
58	0\\
59	0\\
60	0\\
61	0\\
62	0\\
63	0\\
64	0\\
65	0\\
66	0\\
67	0\\
68	0\\
69	0\\
70	0\\
71	0\\
72	0\\
73	0\\
74	0\\
75	0\\
76	0\\
77	0\\
78	0\\
79	0\\
80	0\\
81	0\\
82	0\\
83	0\\
84	0\\
85	0\\
86	0\\
87	0\\
88	0\\
89	0\\
90	0\\
91	0\\
92	0\\
93	0\\
94	0\\
95	0\\
96	0\\
97	0\\
98	0\\
99	0\\
100	0\\
};
\addlegendentry{$\mathbf{h_{2}}$}

\end{axis}

\begin{axis}[%
width=1.935in,
height=3.2in,
at={(3.327in,0.512in)},
scale only axis,
xmin=0,
xmax=100,
xlabel style={font=\color{white!15!black}, align=center},
xlabel={Sample Index\\[1ex](b) Estimated},
ymin=0,
ymax=0.35,
axis background/.style={fill=white},
legend style={legend cell align=left, align=left, draw=white!15!black}
]
\addplot [color=mycolor1]
  table[row sep=crcr]{%
0	0.164375684877838\\
1	0.0349800895551951\\
2	0.144201066308933\\
3	0.0198864557728557\\
4	0.00731902260315001\\
5	0.098731323197407\\
6	0.104391318414273\\
7	0.0356962339230774\\
8	0.0201093645317407\\
9	0.100041754445009\\
10	0.16441442404843\\
11	0.0690852665487828\\
12	0.176059134477181\\
13	0.290423331803156\\
14	0.02488738669067\\
15	0.0255144187757402\\
16	0.191346626840797\\
17	0.129366903640984\\
18	0.0623233375924184\\
19	0.0736349121233882\\
20	0.052961981325316\\
21	0.0277041696602955\\
22	0.00705293657004081\\
23	0.0325821573503111\\
24	0.0521282702398864\\
25	0.104992717739608\\
26	0.0184025136808503\\
27	0.0875355399441624\\
28	0.0566887876681795\\
29	0.196176039387056\\
30	0.0747566632324733\\
31	0.200239152763485\\
32	0.0874373038836536\\
33	0.0972743226637027\\
34	0.0532986605044176\\
35	0.0466093803957995\\
36	0.132241395651626\\
37	0.113875221210712\\
38	0.0155870293377188\\
39	0.0198939280440468\\
40	0.00809641144800306\\
41	0.147486694783479\\
42	0.00905972906391951\\
43	0.0420770962659447\\
44	0.0248563067925106\\
45	0.0730789332627933\\
46	0.117671334895775\\
47	0.100158393629614\\
48	0.0538309785484811\\
49	0.0113997208597732\\
50	0.0786000675572722\\
51	0.0403959897945165\\
52	0.0942036977769887\\
53	0.21189511455627\\
54	0.0966352432373524\\
55	0.0574214669360888\\
56	0.0512202292352547\\
57	0.0445762473898667\\
58	0.0793635889759439\\
59	0.0637211829039244\\
60	0.0961177816896247\\
61	0.182482435985515\\
62	0.0189188612667141\\
63	0.109298334400106\\
64	0.0283228422844169\\
65	0.0251474186162652\\
66	0.0648779691380827\\
67	0.0475519025358141\\
68	0.0678697875106411\\
69	0.0364408704761702\\
70	0.0531184664283207\\
71	0.0982386312096476\\
72	0.112587331886235\\
73	0.0663862483218965\\
74	0.0095216447685352\\
75	0.0298009400776744\\
76	0.0141719941634004\\
77	0.0360257346454856\\
78	0.0619630444014221\\
79	0.0663430321113424\\
80	0.111812004449104\\
81	0.0010635392301409\\
82	0.179163426197826\\
83	0.211133597395619\\
84	0.027626813807081\\
85	0.099415967615478\\
86	0.00640492261536654\\
87	0.0256516023728342\\
88	0.30762454529021\\
89	0.0510895705203294\\
90	0.134252220742166\\
91	0.0767319290171993\\
92	0.145513544288196\\
93	0.0214531149925848\\
94	0.0706294533426666\\
95	0.00774782212892313\\
96	0.104390347144613\\
97	0.0227111555361355\\
98	0.0981454196763608\\
99	0.126478687542849\\
};
\addlegendentry{$\mathbf{\hat{h}_{1}}$}

\addplot [color=mycolor2]
  table[row sep=crcr]{%
0	0.00342202774542993\\
1	0.113553008021725\\
2	0.00676474982522591\\
3	0.0604701083021689\\
4	0.0256640336531599\\
5	0.162270464733631\\
6	0.120249969310908\\
7	0.0327034957897272\\
8	0.19611123778332\\
9	0.121826208096008\\
10	0.0795188920696435\\
11	0.116423577785656\\
12	0.103026920146473\\
13	0.0508488827842302\\
14	0.0443156623765891\\
15	0.00631096690427442\\
16	0.0498754258571509\\
17	0.00804638495174763\\
18	0.0803207425327617\\
19	0.0399012515053481\\
20	0.166999146739117\\
21	0.0486993149530655\\
22	0.151253527403279\\
23	0.0319762339507918\\
24	0.15554268921766\\
25	0.0933099159444682\\
26	0.0737511770895065\\
27	0.100186515945674\\
28	0.138991902461153\\
29	0.0456662149432684\\
30	0.216667944919511\\
31	0.121759982838721\\
32	0.175353424001309\\
33	0.011937963067839\\
34	0.0526139573745007\\
35	0.0562367302009604\\
36	0.0157479016856901\\
37	0.160376244772325\\
38	0.015182658299842\\
39	0.0362708116024609\\
40	0.110801169167964\\
41	0.234064879050384\\
42	0.155241025288838\\
43	0.0909404861610046\\
44	0.0123012193980944\\
45	0.165196121162541\\
46	0.0348789771499494\\
47	0.109316232247686\\
48	0.0686129420339404\\
49	0.0618540106698503\\
50	0.164840940969117\\
51	0.0621823159869088\\
52	0.128380772807003\\
53	0.117944715286654\\
54	0.00731675280670464\\
55	0.131506508739373\\
56	0.0451566952073198\\
57	0.100961565640754\\
58	0.0604696577308942\\
59	0.161755523903081\\
60	0.145873783239448\\
61	0.130020855284661\\
62	0.0301105481421974\\
63	0.0398333745993374\\
64	0.053572884205283\\
65	0.0114579333155037\\
66	0.0536499875499243\\
67	0.147978765133713\\
68	0.109343773125163\\
69	0.0641186458719138\\
70	0.012057304678905\\
71	0.0274790003377469\\
72	0.111291378141035\\
73	0.041234974075278\\
74	0.142751400628939\\
75	0.18910006988609\\
76	0.0171646874634629\\
77	0.114011965179997\\
78	0.0869778949094647\\
79	0.11893324111855\\
80	0.0449300992036619\\
81	0.0396638876461716\\
82	0.00670120054287546\\
83	0.0830943027779095\\
84	0.0294757659578895\\
85	0.0625630102911257\\
86	0.0264154043692926\\
87	0.0107582469041539\\
88	0.111761978758499\\
89	0.0489043566489659\\
90	0.139388447854579\\
91	0.0535080376091997\\
92	0.0350277567535904\\
93	0.102668640866125\\
94	0.0660462288129184\\
95	0.01742391987377\\
96	0.237712887415482\\
97	0.059676057314839\\
98	0.0437457575383452\\
99	0.00766802689483581\\
};
\addlegendentry{$\mathbf{\hat{h}_{2}}$}

\end{axis}
\end{tikzpicture}%