% This file was created by matlab2tikz.
%
%The latest updates can be retrieved from
%  http://www.mathworks.com/matlabcentral/fileexchange/22022-matlab2tikz-matlab2tikz
%where you can also make suggestions and rate matlab2tikz.
%
\definecolor{mycolor1}{rgb}{0.00000,0.44700,0.74100}%
\definecolor{mycolor2}{rgb}{0.85000,0.32500,0.09800}%
%
\begin{tikzpicture}

\begin{axis}[%
width=1.935in,
height=3.2in,
at={(0.758in,0.512in)},
scale only axis,
xmin=0,
xmax=100,
xlabel style={font=\color{white!15!black}, align=center},
xlabel={Sample Index\\[1ex](a) Actual},
ymin=0,
ymax=0.8,
axis background/.style={fill=white},
legend style={legend cell align=left, align=left, draw=white!15!black}
]
\addplot [color=mycolor1]
  table[row sep=crcr]{%
1	0.0129538532238509\\
2	0.0157278361368032\\
3	0.0191571608138802\\
4	0.0255923724575832\\
5	0.13057228915146\\
6	0.790598288418654\\
7	0.353827376030412\\
8	0.122418300101408\\
9	0.229084031593214\\
10	0.118243319340586\\
11	0.168368944374742\\
12	0.0163735399430034\\
13	0.0206849651924714\\
14	0.0262956791329175\\
15	0.151852199158411\\
16	0.152742171024721\\
17	0.110720168991091\\
18	0.123153341936425\\
19	0.125894992669405\\
20	0.0746063601393855\\
21	0.0186653655418556\\
22	0.0250643995407145\\
23	0.00974111680189212\\
24	0.0779603151980655\\
25	0.0307172164925168\\
26	0.0208261989317089\\
27	0.0752294272267323\\
28	0.0144668561504321\\
29	0.0123363814366294\\
30	0.0122598477519198\\
31	0.0155350862563734\\
32	0.0418132873290243\\
33	0.0573531042253119\\
34	0.0129196281383963\\
35	0.00895205820328393\\
36	0.00773833898796016\\
37	0.00748874666873079\\
38	0.00800183229182001\\
39	0.00975691772335202\\
40	0.0159028691535576\\
41	0.0384196893347397\\
42	0.0314876195631017\\
43	0.010044387559483\\
44	0.00616684731235577\\
45	0.00479175222070565\\
46	0.00437058826387638\\
47	0.00459828758875363\\
48	0.005652668265702\\
49	0.0087419213913912\\
50	0.0260232215344717\\
51	0.0227474232041571\\
52	0.00780973732786325\\
53	0.00473741257906885\\
54	0.00342802499502385\\
55	0.0027071673231627\\
56	0.00225206144341568\\
57	0.001938695300116\\
58	0.0017095024412107\\
59	0.00153423834592061\\
60	0.00139554782547471\\
61	0.00128278764759102\\
62	0.00118908147787501\\
63	0.00110979542168412\\
64	0.0010416958422628\\
65	0.000982458809342531\\
66	0.000930371514391801\\
67	0.000884143640819322\\
68	0.000842784330423255\\
69	0.000805519676312384\\
70	0.000771736027647173\\
71	0.000740940180026644\\
72	0.000712730877370764\\
73	0.000686778053613698\\
74	0.000662807472321918\\
75	0.000640589196550035\\
76	0.000619928819626308\\
77	0.000600660714929267\\
78	0.000582642781753098\\
79	0.000565752313398667\\
80	0.000549882716621264\\
81	0.000534940883763175\\
82	0.000520845070183068\\
83	0.000507523166470246\\
84	0.00049491128175685\\
85	0.000482952574159901\\
86	0.000471596279030148\\
87	0.000460796896662062\\
88	0.000450513509420678\\
89	0.000440709204573525\\
90	0.000431350583981088\\
91	0.000422407345569488\\
92	0.000413851924447944\\
93	0.000405659183842499\\
94	0.000397806147840094\\
95	0.000390271769389961\\
96	0.000383036728166029\\
97	0.00037608325382988\\
98	0.000369394970986201\\
99	0\\
100	0\\
};
\addlegendentry{$\mathbf{h_1}$}

\addplot [color=mycolor2]
  table[row sep=crcr]{%
1	0.0089849246842337\\
2	0.00955586856755047\\
3	0.0102000386246561\\
4	0.0109303448856752\\
5	0.0117611964369887\\
6	0.0127063869488681\\
7	0.013771787577086\\
8	0.0149309370172528\\
9	0.0160361992437888\\
10	0.0164244433772478\\
11	0.0125495760932937\\
12	0.664036312008792\\
13	0.0850193487524877\\
14	0.131745330322907\\
15	0.128609472347745\\
16	0.0491456993245761\\
17	0.382620258465008\\
18	0.593903782219221\\
19	0.0828507132426594\\
20	0.0515719011856109\\
21	0.0378681896084267\\
22	0.030017391607479\\
23	0.0248946679351547\\
24	0.0212776230780299\\
25	0.0185834085331559\\
26	0.0164971010401923\\
27	0.0148330326444681\\
28	0.0134744221797144\\
29	0.0123440432735997\\
30	0.0113887411741417\\
31	0.0105707107326117\\
32	0.00986231811042315\\
33	0.00924289003134423\\
34	0.00869664894813821\\
35	0\\
36	0\\
37	0\\
38	0\\
39	0\\
40	0\\
41	0\\
42	0\\
43	0\\
44	0\\
45	0\\
46	0\\
47	0\\
48	0\\
49	0\\
50	0\\
51	0\\
52	0\\
53	0\\
54	0\\
55	0\\
56	0\\
57	0\\
58	0\\
59	0\\
60	0\\
61	0\\
62	0\\
63	0\\
64	0\\
65	0\\
66	0\\
67	0\\
68	0\\
69	0\\
70	0\\
71	0\\
72	0\\
73	0\\
74	0\\
75	0\\
76	0\\
77	0\\
78	0\\
79	0\\
80	0\\
81	0\\
82	0\\
83	0\\
84	0\\
85	0\\
86	0\\
87	0\\
88	0\\
89	0\\
90	0\\
91	0\\
92	0\\
93	0\\
94	0\\
95	0\\
96	0\\
97	0\\
98	0\\
99	0\\
100	0\\
};
\addlegendentry{$\mathbf{h_{2}}$}

\end{axis}

\begin{axis}[%
width=1.935in,
height=3.2in,
at={(3.327in,0.512in)},
scale only axis,
xmin=0,
xmax=100,
xlabel style={font=\color{white!15!black}, align=center},
xlabel={Sample Index\\[1ex](b) Estimated},
ymin=0,
ymax=0.9,
axis background/.style={fill=white},
legend style={legend cell align=left, align=left, draw=white!15!black}
]
\addplot [color=mycolor1]
  table[row sep=crcr]{%
0	0.00520434843601232\\
1	0.00403422450748992\\
2	0.00658545164013077\\
3	0.0100199019108493\\
4	0.00153171893151761\\
5	0.0102504501188184\\
6	0.022468396121678\\
7	0.00415126200607401\\
8	0.0101884182652581\\
9	0.00883055977894522\\
10	0.00461157306119273\\
11	0.0234462848183073\\
12	0.0195037065278962\\
13	0.00525059001238661\\
14	0.00829756768935292\\
15	0.0123080886476703\\
16	0.00469161744707996\\
17	0.00235837151549859\\
18	0.00944659608188617\\
19	0.0222972338885815\\
20	0.0229408868577423\\
21	0.0133149741208691\\
22	0.0222584728092773\\
23	0.0181828142577322\\
24	0.032552435560961\\
25	0.0305850926596986\\
26	0.0562442883723041\\
27	0.0439059093906307\\
28	0.0221273807732449\\
29	0.0317529383980581\\
30	0.0546364129008012\\
31	0.0865333656703851\\
32	0.144583947664263\\
33	0.0681569264092789\\
34	0.0253599269881877\\
35	0.0613994958789699\\
36	0.0806302447809211\\
37	0.342453963031077\\
38	0.576759578212058\\
39	0.055869658530637\\
40	0.0656092244713711\\
41	0.0408190686622057\\
42	0.124779017618813\\
43	0.521352013545653\\
44	0.127917813553894\\
45	0.115124153224026\\
46	0.193590899174488\\
47	0.132359465055631\\
48	0.11977435201285\\
49	0.154691733873126\\
50	0.0788743478650692\\
51	0.033319523880695\\
52	0.13477615416347\\
53	0.0821081479871852\\
54	0.0407084819415863\\
55	0.0874144170897946\\
56	0.0822522534221073\\
57	0.0525964614383926\\
58	0.0671043174641184\\
59	0.0264234242188363\\
60	0.00916136918869899\\
61	0.0735048359651847\\
62	0.0332333472577309\\
63	0.0258104240012096\\
64	0.0246276229369933\\
65	0.00803532996114385\\
66	0.0297899357235204\\
67	0.0156664985053256\\
68	0.0378569519870891\\
69	0.0361624597879088\\
70	0.0207320851648642\\
71	0.0165317638761835\\
72	0.0148400611362931\\
73	0.0143532647827637\\
74	0.0105456150981824\\
75	0.00785664923584069\\
76	0.00785259813118817\\
77	0.00991843025447862\\
78	0.0118220067563679\\
79	0.00904183252273058\\
80	0.00703467699455145\\
81	0.00532654218103869\\
82	0.0170846623462997\\
83	0.00699980185326455\\
84	0.00562593691915674\\
85	0.00327983322891388\\
86	0.0042868969974064\\
87	0.0114337307370604\\
88	0.0111867834116142\\
89	0.00543836766528004\\
90	0.00773637148589213\\
91	0.00583262300679264\\
92	0.00267916852929548\\
93	0.00692190540946645\\
94	0.00818699761769984\\
95	0.00678422687348567\\
96	0.00193313338476575\\
97	0.00387904182113749\\
98	0.00302980608051983\\
99	0.00650030034130175\\
};
\addlegendentry{$\mathbf{\hat{h}_{1}}$}

\addplot [color=mycolor2]
  table[row sep=crcr]{%
0	0.00206257857362787\\
1	0.00158624167241649\\
2	0.00171788129890416\\
3	0.00214962589057427\\
4	0.000729700989541531\\
5	0.00617927420116486\\
6	0.0023752976641339\\
7	0.00320160299662123\\
8	0.00308135623540086\\
9	0.00772455663849726\\
10	0.00343246508101907\\
11	0.00859580243693021\\
12	0.00632882889294976\\
13	0.00595863930352392\\
14	0.00725675566936288\\
15	0.0115837358748664\\
16	0.00844602934066706\\
17	0.0130394821357165\\
18	0.00836033684606374\\
19	0.00275098457342078\\
20	0.01186481904885\\
21	0.00714266711100066\\
22	0.0132566841395938\\
23	0.0338835239901654\\
24	0.0154508765412962\\
25	0.0142233080274496\\
26	0.0118864948962753\\
27	0.0223016679680015\\
28	0.0185938651293578\\
29	0.0276576590282702\\
30	0.0260705860094089\\
31	0.0228947889983294\\
32	0.0251098887662054\\
33	0.0114036175945251\\
34	0.00669192753166418\\
35	0.00228355356900959\\
36	0.0825913528583259\\
37	0.0893270208448661\\
38	0.0831693171347447\\
39	0.0734471557540555\\
40	0.0859521502383094\\
41	0.0572153430540497\\
42	0.0344623468266053\\
43	0.173771201391812\\
44	0.142930103721161\\
45	0.032887868229535\\
46	0.149139290627852\\
47	0.0243758558660294\\
48	0.0173959803631279\\
49	0.871379719897895\\
50	0.0173789705924187\\
51	0.024392619336489\\
52	0.149103196138781\\
53	0.0328164348307034\\
54	0.142916872429114\\
55	0.173689449293376\\
56	0.0343959738651563\\
57	0.0571741864125747\\
58	0.0859550595891648\\
59	0.0733790972605056\\
60	0.0831230633403374\\
61	0.089277476121269\\
62	0.0825334949507501\\
63	0.0022106588931063\\
64	0.00668011701762631\\
65	0.0114221481317104\\
66	0.025038687942815\\
67	0.0227756762533844\\
68	0.0260858460011567\\
69	0.0276664821151808\\
70	0.0185913465248883\\
71	0.0222688315576268\\
72	0.0118383940668986\\
73	0.0143657518274462\\
74	0.0153898978373446\\
75	0.0339763474330858\\
76	0.0132210777097924\\
77	0.0071501735623792\\
78	0.0118100258007176\\
79	0.00271862155721234\\
80	0.00797724739126417\\
81	0.0128785798112566\\
82	0.00856137525223646\\
83	0.012103418686523\\
84	0.00763615382434794\\
85	0.00582051537401039\\
86	0.00591799599729462\\
87	0.00751857636605228\\
88	0.00485337325823074\\
89	0.00774940200686598\\
90	0.00361622576173937\\
91	0.00249581830602122\\
92	0.00211539870995842\\
93	0.0119265487206898\\
94	0.00346575656973131\\
95	0.00435630304581313\\
96	0.00265986691959067\\
97	0.000492777298737794\\
98	0.00168312607976234\\
99	0.00121843790866433\\
};
\addlegendentry{$\mathbf{\hat{h}_{2}}$}

\end{axis}
\end{tikzpicture}%