% This file was created by matlab2tikz.
%
%The latest updates can be retrieved from
%  http://www.mathworks.com/matlabcentral/fileexchange/22022-matlab2tikz-matlab2tikz
%where you can also make suggestions and rate matlab2tikz.
%
\definecolor{mycolor1}{rgb}{0.00000,0.44700,0.74100}%
\definecolor{mycolor2}{rgb}{0.85000,0.32500,0.09800}%
%
\begin{tikzpicture}

\begin{axis}[%
width=1.935in,
height=3.2in,
at={(0.758in,0.512in)},
scale only axis,
xmin=0,
xmax=100,
xlabel style={font=\color{white!15!black}, align=center},
xlabel={Sample Index\\[1ex](a) Actual},
ymin=0,
ymax=1,
axis background/.style={fill=white},
legend style={legend cell align=left, align=left, draw=white!15!black}
]
\addplot [color=mycolor1]
  table[row sep=crcr]{%
1	0.0216926152020066\\
2	0.0241183965289278\\
3	0.0267807478156139\\
4	0.0354280601095614\\
5	0.221828667704926\\
6	0.648965745595675\\
7	0.241270440438586\\
8	0.0776642628644082\\
9	0.0581044824071981\\
10	0.0611489366831747\\
11	0.0798140419847986\\
12	0.062735544320507\\
13	0.113011040425493\\
14	0.377485382687519\\
15	0.331649248845691\\
16	0.18615433793772\\
17	0.146493252817741\\
18	0.0847190801249442\\
19	0.0628278567269286\\
20	0.0148364296169451\\
21	0.0250471739922352\\
22	0.0344835915107885\\
23	0.116323790948646\\
24	0.279210940275387\\
25	0.101045410677318\\
26	0.0464379665429307\\
27	0.041398863205924\\
28	0.0263226969199998\\
29	0.0221848789960478\\
30	0.0197642774213948\\
31	0.0186496517239344\\
32	0.0219339353832985\\
33	0.018414044189717\\
34	0.00937919788338426\\
35	0.0100670783096178\\
36	0.0098135024549665\\
37	0.00937197330245933\\
38	0.00884810306396591\\
39	0.00821513429074651\\
40	0.00732026654240377\\
41	0.00945021173361951\\
42	0.0127255218727005\\
43	0.00946415089832864\\
44	0.00862800399957479\\
45	0.00816256372793386\\
46	0.00784857678072338\\
47	0.00764005346579914\\
48	0.00755773656417068\\
49	0.00776075567554332\\
50	0.00986938420958768\\
51	0.00319649311885596\\
52	0.00500292172051245\\
53	0.00524752973649041\\
54	0.00526667690567613\\
55	0.00521575322380608\\
56	0.00513704586881206\\
57	0.00504647235310817\\
58	0.00495116794332671\\
59	0.00485468351773321\\
60	0.00475890010347922\\
61	0.00466484578572566\\
62	0.00457308311118313\\
63	0.00448390798586452\\
64	0.0043974582605137\\
65	0.00431377595094964\\
66	0.00423284428954661\\
67	0.00415461047403326\\
68	0.00407899997367922\\
69	0.00400592569101114\\
70	0.00393529390404367\\
71	0.0038670081481966\\
72	0.00380097175500134\\
73	0.00373708950172093\\
74	0.00367526866536834\\
75	0.00361541967416126\\
76	0.00355745648532918\\
77	0.00350129677649243\\
78	0.00344686201027152\\
79	0.00339407741330312\\
80	0.00334287189828014\\
81	0.0032931779490063\\
82	0.00324493148246751\\
83	0.00319807169773062\\
84	0.003152540918526\\
85	0.00310828443427485\\
86	0.00306525034282854\\
87	0.00302338939712195\\
88	0.00298265485717807\\
89	0.00294300234835571\\
90	0.00290438972634362\\
91	0.0028667769491261\\
92	0.00283012595595264\\
93	0.0027944005532083\\
94	0.00275956630699144\\
95	0.0027255904421446\\
96	0.00269244174744817\\
97	0.00266009048666622\\
98	0.00262850831512411\\
99	0\\
100	0\\
};
\addlegendentry{$\mathbf{h_1}$}

\addplot [color=mycolor2]
  table[row sep=crcr]{%
1	0.00108294891904515\\
2	0.00115806441999571\\
3	0.00125656841390277\\
4	0.00139359850086552\\
5	0.00159676508941691\\
6	0.00191784013184518\\
7	0.00245777585368985\\
8	0.00342819163679349\\
9	0.00533730915065768\\
10	0.00974214709050295\\
11	0.0244449264542886\\
12	0.973731186814765\\
13	0.0500739614470277\\
14	0.0426946282907342\\
15	0.00536788790071817\\
16	0.0362080823589407\\
17	0.176144271962331\\
18	0.115663212635922\\
19	0.0234963057121139\\
20	0.0138738178597906\\
21	0.00966054585381422\\
22	0.00731818549393035\\
23	0.00584139575065055\\
24	0.0048330083027894\\
25	0.00410500747522503\\
26	0.00355723928842746\\
27	0.00313167065616096\\
28	0.00279247304593218\\
29	0.00251639833876938\\
30	0.00228774297450139\\
31	0.00209554142652578\\
32	0.00193191967393617\\
33	0.00179108704155738\\
34	0.00166869616651274\\
35	0\\
36	0\\
37	0\\
38	0\\
39	0\\
40	0\\
41	0\\
42	0\\
43	0\\
44	0\\
45	0\\
46	0\\
47	0\\
48	0\\
49	0\\
50	0\\
51	0\\
52	0\\
53	0\\
54	0\\
55	0\\
56	0\\
57	0\\
58	0\\
59	0\\
60	0\\
61	0\\
62	0\\
63	0\\
64	0\\
65	0\\
66	0\\
67	0\\
68	0\\
69	0\\
70	0\\
71	0\\
72	0\\
73	0\\
74	0\\
75	0\\
76	0\\
77	0\\
78	0\\
79	0\\
80	0\\
81	0\\
82	0\\
83	0\\
84	0\\
85	0\\
86	0\\
87	0\\
88	0\\
89	0\\
90	0\\
91	0\\
92	0\\
93	0\\
94	0\\
95	0\\
96	0\\
97	0\\
98	0\\
99	0\\
100	0\\
};
\addlegendentry{$\mathbf{h_{2}}$}

\end{axis}

\begin{axis}[%
width=1.935in,
height=3.2in,
at={(3.327in,0.512in)},
scale only axis,
xmin=0,
xmax=109,
xlabel style={font=\color{white!15!black}, align=center},
xlabel={Sample Index\\[1ex](b) Estimated},
ymin=0,
ymax=1,
axis background/.style={fill=white},
legend style={legend cell align=left, align=left, draw=white!15!black}
]
\addplot [color=mycolor1]
  table[row sep=crcr]{%
0	7.14366407908699e-05\\
1	6.27770435480036e-05\\
2	6.83172661128792e-05\\
3	8.79326758727164e-05\\
4	3.43622889167789e-05\\
5	5.8557750618255e-05\\
6	9.36587403659932e-05\\
7	1.33493822178961e-05\\
8	3.71858675478793e-05\\
9	6.86646825483828e-05\\
10	6.49530957814964e-05\\
11	7.76967117216801e-05\\
12	3.9095498591271e-05\\
13	0.000111775632639885\\
14	5.90331230599178e-05\\
15	5.48448999540129e-05\\
16	0.000104301350262861\\
17	3.68199040717939e-05\\
18	1.7020733798767e-05\\
19	0.000111661003523974\\
20	5.45274460215548e-05\\
21	5.81004838029189e-05\\
22	5.83207195168615e-05\\
23	0.000117188088710852\\
24	3.09459514681591e-05\\
25	1.37867543170225e-05\\
26	3.67648344621288e-05\\
27	8.53988732495178e-05\\
28	6.26741482333818e-05\\
29	8.53754127372476e-05\\
30	0.00290167101791935\\
31	7.38061301883277e-05\\
32	5.22159328506386e-05\\
33	2.15386456547913e-05\\
34	5.90804472729279e-05\\
35	6.60488406414428e-05\\
36	2.33372526773736e-05\\
37	0.0007977738617722\\
38	0.0130427038914701\\
39	0.0045103538428813\\
40	0.00784924764229357\\
41	0.014777064564781\\
42	0.0272305471274975\\
43	0.0947052577052119\\
44	0.0100447329299107\\
45	0.0133705399089202\\
46	0.00657237990397275\\
47	0.187242596929719\\
48	0.693051794893511\\
49	0.201523761099344\\
50	0.0273540752661938\\
51	0.136297014413221\\
52	0.0593139884782273\\
53	0.0865193434689229\\
54	0.0168838239044225\\
55	0.0930593738824509\\
56	0.400428338189245\\
57	0.296759761154685\\
58	0.165196342669271\\
59	0.118450316372443\\
60	0.0582234023142339\\
61	0.0988895514495336\\
62	0.0142299091194652\\
63	0.014974808843049\\
64	0.0320951155514449\\
65	0.105156774846747\\
66	0.272918851329555\\
67	0.0600130837909878\\
68	0.00659095837932407\\
69	0.00105965071347595\\
70	0.00515453999381265\\
71	0.000407771587049635\\
72	0.00780342932659222\\
73	0.00620279945846986\\
74	0.0233209946944192\\
75	0.00244318919127469\\
76	8.51464257325526e-05\\
77	4.96779785010756e-05\\
78	0.000425443314526769\\
79	0.000129761707240135\\
80	5.0977504365656e-05\\
81	1.71036672286528e-05\\
82	4.52986821614063e-05\\
83	3.34944120027048e-05\\
84	3.06157365774234e-05\\
85	6.77260634436789e-05\\
86	0.000148106318607377\\
87	4.37838568267425e-05\\
88	2.20380252563153e-05\\
89	0.000111484554549424\\
90	8.45239224589358e-05\\
91	3.46915165205643e-05\\
92	9.75661333553588e-05\\
93	4.18543562826529e-06\\
94	7.8992464869106e-05\\
95	6.88630317929546e-05\\
96	3.24386856689048e-05\\
97	4.6341897763133e-05\\
98	4.06495726113023e-05\\
99	1.78421241903135e-05\\
100	5.75638942081125e-05\\
101	1.37037144378337e-05\\
102	4.44457817047697e-05\\
103	0.000112356168312181\\
104	4.00743835756252e-05\\
105	7.20601913610627e-05\\
106	5.14454946429109e-05\\
107	7.2429564391756e-05\\
108	0.000101802932267804\\
109	7.80833436953587e-05\\
};
\addlegendentry{$\mathbf{\hat{h}_{1}}$}

\addplot [color=mycolor2]
  table[row sep=crcr]{%
0	1.72104055631181e-05\\
1	2.19574973480466e-05\\
2	9.76889652070192e-06\\
3	1.25130449532415e-05\\
4	1.65501934007945e-05\\
5	1.47731974255838e-05\\
6	2.53007295940332e-05\\
7	3.04193168068905e-05\\
8	1.33665375086509e-05\\
9	1.19815540882654e-05\\
10	1.29282608787663e-05\\
11	2.95647318392973e-05\\
12	3.38086788094496e-05\\
13	1.82727930218183e-05\\
14	1.24002412833873e-05\\
15	2.21997320813411e-05\\
16	1.76904409343571e-05\\
17	2.60988975798083e-05\\
18	5.62950098251383e-06\\
19	1.84085590817916e-05\\
20	1.18827098500298e-05\\
21	4.89995436483041e-06\\
22	1.747236670754e-05\\
23	1.69893373758453e-05\\
24	5.44074092230641e-06\\
25	2.51456413463487e-05\\
26	8.02523389153877e-05\\
27	2.05105551111283e-05\\
28	0.00111661613514501\\
29	1.85977828614202e-05\\
30	6.1195733877717e-06\\
31	1.33131301141196e-05\\
32	6.70758300138564e-06\\
33	1.09845819743598e-05\\
34	0.00180514798639508\\
35	0.00247886064506808\\
36	0.0433858532091886\\
37	0.0030865868335362\\
38	0.00623325343913203\\
39	0.00164655111067845\\
40	0.000906822076001208\\
41	0.00385752476024366\\
42	8.18568111827237e-06\\
43	0.0281663050684068\\
44	0.0473983465302804\\
45	0.0104168127419445\\
46	0.0686627239554496\\
47	0.00276830054063922\\
48	0.000323320772981673\\
49	0.0114723255352242\\
50	0.00671747743006794\\
51	0.015681769740175\\
52	0.024909009286059\\
53	0.00256363291674075\\
54	0.988942595891405\\
55	0.00196069937547773\\
56	0.02507251163372\\
57	0.0170485941120593\\
58	0.00693987482844494\\
59	0.0111615805693541\\
60	0.000174252844557321\\
61	0.00221323945050822\\
62	0.0687276182699795\\
63	0.0105413103164788\\
64	0.0479036242176259\\
65	0.0290613381326324\\
66	1.03092711856189e-05\\
67	0.00401713925704995\\
68	0.00148868115018723\\
69	0.00247278752495924\\
70	0.00624829683766069\\
71	0.00324843035707871\\
72	0.0442156075480605\\
73	0.00214156271218429\\
74	0.00174140568341127\\
75	8.82853426951742e-06\\
76	4.74975221092565e-06\\
77	2.02802331495139e-05\\
78	5.11085288529302e-06\\
79	2.31700012587489e-05\\
80	0.000909164569315954\\
81	3.90813141767821e-05\\
82	7.53705489318707e-05\\
83	2.14500132042962e-05\\
84	1.00495501644571e-05\\
85	2.00580356483916e-05\\
86	1.91962802386929e-05\\
87	1.286563387768e-05\\
88	1.30804780550521e-05\\
89	1.39184948088153e-05\\
90	5.91424554344801e-06\\
91	2.41814220731457e-05\\
92	2.0194087108116e-05\\
93	1.48910728481375e-05\\
94	1.36797319748049e-06\\
95	2.55594419053167e-05\\
96	3.17520694892428e-05\\
97	2.9324051799026e-05\\
98	1.23256640001331e-05\\
99	4.81195093682319e-06\\
100	1.5708287672368e-05\\
101	2.84823440292441e-05\\
102	2.4255791639062e-05\\
103	1.44561854623452e-05\\
104	1.71283585275679e-05\\
105	8.97977179648794e-06\\
106	9.89896690812336e-06\\
107	1.92797120014919e-05\\
108	1.09878267889447e-05\\
109	1.42424666607298e-05\\
};
\addlegendentry{$\mathbf{\hat{h}_{2}}$}

\end{axis}
\end{tikzpicture}%