% This file was created by matlab2tikz.
%
%The latest updates can be retrieved from
%  http://www.mathworks.com/matlabcentral/fileexchange/22022-matlab2tikz-matlab2tikz
%where you can also make suggestions and rate matlab2tikz.
%
\definecolor{mycolor1}{rgb}{0.00000,0.44700,0.74100}%
\definecolor{mycolor2}{rgb}{0.85000,0.32500,0.09800}%
%
\begin{tikzpicture}

\begin{axis}[%
width=1.935in,
height=3.2in,
at={(0.758in,0.512in)},
scale only axis,
xmin=0,
xmax=150,
xlabel style={font=\color{white!15!black}, align=center},
xlabel={Sample Index\\[1ex](a) Actual},
ymin=0,
ymax=0.7,
axis background/.style={fill=white},
legend style={legend cell align=left, align=left, draw=white!15!black}
]
\addplot [color=mycolor1]
  table[row sep=crcr]{%
1	0.0234657806037261\\
2	0.0272334504034075\\
3	0.0326864300765018\\
4	0.0414541482980318\\
5	0.0586677033458464\\
6	0.117843438362983\\
7	0.159969331461504\\
8	0.174397116945152\\
9	0.616552810702634\\
10	0.0882137642931462\\
11	0.0472681903124796\\
12	0.0327587509505929\\
13	0.0272256709659274\\
14	0.0412344622245766\\
15	0.0186762848129325\\
16	0.0451940046978057\\
17	0.0153724087875252\\
18	0.0239672675363248\\
19	0.0400285717874473\\
20	0.0828333966509162\\
21	0.557624977131952\\
22	0.149414784250917\\
23	0.109138078132702\\
24	0.0381681231028791\\
25	0.032799759178118\\
26	0.191519461959093\\
27	0.0734580287558902\\
28	0.0358315656953253\\
29	0.0179563195827385\\
30	0.0169149242156914\\
31	0.0179798517146348\\
32	0.0199431506445131\\
33	0.0279225394655299\\
34	0.0908594243819801\\
35	0.0439964246924232\\
36	0.330890477505262\\
37	0.037800506563543\\
38	0.020261933748638\\
39	0.0138181229977315\\
40	0.0211497159554441\\
41	0.0112042208144458\\
42	0.00964538908702694\\
43	0.00864780826327016\\
44	0.00787736374270682\\
45	0.00720180133294831\\
46	0.00651453200193765\\
47	0.00565492088107664\\
48	0.0112814316241706\\
49	0.0075966567083061\\
50	0.0102713040739602\\
51	0.00787142060243747\\
52	0.00711780022683946\\
53	0.00668443537322835\\
54	0.00638223966522588\\
55	0.00615487020840034\\
56	0.00598242225636516\\
57	0.00586293416152974\\
58	0.00581626175933958\\
59	0.00593494184987807\\
60	0.00707647204853056\\
61	0.00861312572402681\\
62	0.00240649054353041\\
63	0.0036902508247688\\
64	0.0040125763148678\\
65	0.00408542983582614\\
66	0.00408934467211144\\
67	0.00406760360864643\\
68	0.00403657730104579\\
69	0.00400486664899167\\
70	0.00397913876457006\\
71	0.00396763365360209\\
72	0.00398577860522856\\
73	0.00407460869510253\\
74	0.00440882178496405\\
75	0.00852319154542653\\
76	0.00211982859547221\\
77	0.00279674481878385\\
78	0.00295234209521732\\
79	0.00299967450324673\\
80	0.00300734384297471\\
81	0.00299658049652506\\
82	0.00297609501762909\\
83	0.00295010695632826\\
84	0.00292089738309008\\
85	0.00288979839106794\\
86	0.00285763293534116\\
87	0.00282493110979805\\
88	0.00279204510261472\\
89	0.00275921420187501\\
90	0.00272660345813555\\
91	0.00269432766245323\\
92	0.00266246675038502\\
93	0.00263107599882434\\
94	0.00260019295165966\\
95	0.00256984222925479\\
96	0.00254003893333548\\
97	0.0025107910982644\\
98	0.00248210148178531\\
99	0.00245396889001376\\
100	0.00242638916874131\\
101	0.00239935595223708\\
102	0.00237286123354156\\
103	0.00234689580183488\\
104	0.00232144957979209\\
105	0.00229651188498403\\
106	0.00227207163310714\\
107	0.0022481174963278\\
108	0.00222463802675857\\
109	0.00220162175268604\\
110	0.00217905725339276\\
111	0.0021569332170867\\
112	0.00213523848544673\\
113	0.00211396208753109\\
114	0.00209309326520902\\
115	0.00207262149182518\\
116	0.00205253648545491\\
117	0.00203282821783402\\
118	0.00201348691983224\\
119	0.00199450308416773\\
120	0.00197586746592614\\
121	0.00195757108133911\\
122	0.0019396052051902\\
123	0.0019219613671484\\
124	0.00190463134727109\\
125	0.00188760717087541\\
126	0.00187088110293773\\
127	0.00185444564215264\\
128	0.0018382935147574\\
129	0.00182241766820821\\
130	0.00180681126477794\\
131	0.00179146767513212\\
132	0.00177638047192757\\
133	0.00176154342347035\\
134	0.00174695048746156\\
135	0.0017325958048528\\
136	0.00171847369382931\\
137	0.00170457864393352\\
138	0.0016909053103386\\
139	0.00167744850827835\\
140	0.00166420320763913\\
141	0.00165116452771496\\
142	0.00163832773212761\\
143	0.00162568822391149\\
144	0.00161324154076111\\
145	0.0016009833504405\\
146	0.00158890944635072\\
147	0.00157701574325256\\
148	0.00156529827314105\\
149	0\\
150	0\\
};
\addlegendentry{$\mathbf{h_1}$}

\addplot [color=mycolor2]
  table[row sep=crcr]{%
1	0.019775303219206\\
2	0.0210217764534023\\
3	0.0224372323963497\\
4	0.024058742711813\\
5	0.0259351263737046\\
6	0.0281320174688059\\
7	0.0307398096072034\\
8	0.0338865833958781\\
9	0.0377600935275399\\
10	0.0426472101764649\\
11	0.0490094599986528\\
12	0.0576401827385178\\
13	0.0700288298559564\\
14	0.0893407156606893\\
15	0.123700774100431\\
16	0.202175033398071\\
17	0.564479813098353\\
18	0.690442426104836\\
19	0.212260509632627\\
20	0.126132345068284\\
21	0.100380135781766\\
22	0.0378663697499036\\
23	0.0333199748773482\\
24	0.0149453064107011\\
25	0.10083899339379\\
26	0.161002397050911\\
27	0.0405118251764787\\
28	0.0383644765554957\\
29	0.0341227495803863\\
30	0.0306469105251072\\
31	0.0278570926171954\\
32	0.0255709383506331\\
33	0.0236574529195357\\
34	0.0220274984760589\\
35	0.0206190941704396\\
36	0.0193877726649002\\
37	0.0183006807256663\\
38	0.0173329207549748\\
39	0.016465211935799\\
40	0.0156823459816501\\
41	0.0149721364414517\\
42	0.0143246843629073\\
43	0.0137318527665838\\
44	0.0131868826449622\\
45	0.0126841071808284\\
46	0.0122187355837443\\
47	0.0117866872087634\\
48	0.0113844626077037\\
49	0.0110090421200206\\
50	0.0106578052804057\\
51	0\\
52	0\\
53	0\\
54	0\\
55	0\\
56	0\\
57	0\\
58	0\\
59	0\\
60	0\\
61	0\\
62	0\\
63	0\\
64	0\\
65	0\\
66	0\\
67	0\\
68	0\\
69	0\\
70	0\\
71	0\\
72	0\\
73	0\\
74	0\\
75	0\\
76	0\\
77	0\\
78	0\\
79	0\\
80	0\\
81	0\\
82	0\\
83	0\\
84	0\\
85	0\\
86	0\\
87	0\\
88	0\\
89	0\\
90	0\\
91	0\\
92	0\\
93	0\\
94	0\\
95	0\\
96	0\\
97	0\\
98	0\\
99	0\\
100	0\\
101	0\\
102	0\\
103	0\\
104	0\\
105	0\\
106	0\\
107	0\\
108	0\\
109	0\\
110	0\\
111	0\\
112	0\\
113	0\\
114	0\\
115	0\\
116	0\\
117	0\\
118	0\\
119	0\\
120	0\\
121	0\\
122	0\\
123	0\\
124	0\\
125	0\\
126	0\\
127	0\\
128	0\\
129	0\\
130	0\\
131	0\\
132	0\\
133	0\\
134	0\\
135	0\\
136	0\\
137	0\\
138	0\\
139	0\\
140	0\\
141	0\\
142	0\\
143	0\\
144	0\\
145	0\\
146	0\\
147	0\\
148	0\\
149	0\\
150	0\\
};
\addlegendentry{$\mathbf{h_{2}}$}

\end{axis}

\begin{axis}[%
width=1.935in,
height=3.2in,
at={(3.327in,0.512in)},
scale only axis,
xmin=0,
xmax=150,
xlabel style={font=\color{white!15!black}, align=center},
xlabel={Sample Index\\[1ex](b) Estimated},
ymin=0,
ymax=1,
axis background/.style={fill=white},
legend style={legend cell align=left, align=left, draw=white!15!black}
]
\addplot [color=mycolor1]
  table[row sep=crcr]{%
0	1.00144426639871e-05\\
1	9.95859257951194e-05\\
2	0.000163655035236577\\
3	0.000128933958408725\\
4	2.76516056541807e-05\\
5	7.37223256506304e-05\\
6	6.44177143794856e-05\\
7	8.28368262126338e-05\\
8	6.2208596852217e-05\\
9	0.000186675441241009\\
10	5.9061944037274e-05\\
11	5.99137503023059e-05\\
12	9.13595197973468e-05\\
13	3.18322678503407e-05\\
14	4.52990903207049e-05\\
15	7.91389045159858e-05\\
16	3.0201237185779e-05\\
17	6.68099820664842e-05\\
18	6.96039894605558e-05\\
19	7.9087834136912e-05\\
20	5.74770750865305e-05\\
21	1.81036682845571e-05\\
22	9.89532722269746e-05\\
23	6.4267334117027e-05\\
24	3.0776527616594e-05\\
25	0.00011452645010589\\
26	2.84493495429916e-05\\
27	4.25197125975004e-05\\
28	4.34507828845512e-05\\
29	0.00011858503638876\\
30	5.27115272740983e-05\\
31	0.00013540760654096\\
32	2.59193124496639e-05\\
33	6.51944411484756e-05\\
34	6.06183528929489e-05\\
35	8.15473161804733e-05\\
36	8.74746122231189e-05\\
37	3.77740140408425e-05\\
38	0.000496138385113291\\
39	0.000255964891831418\\
40	0.000102795965032106\\
41	0.000208435648689274\\
42	0.000112217619128191\\
43	0.000453974802260026\\
44	0.000113745042900257\\
45	8.37508045102283e-05\\
46	6.94614314724294e-05\\
47	7.0793986031153e-05\\
48	0.000275072424395067\\
49	4.90758901968853e-05\\
50	0.00330503519221799\\
51	0.0233123082783164\\
52	0.00374724095454613\\
53	0.000512419291703857\\
54	0.0185784140214067\\
55	7.32336919066385e-05\\
56	0.0141888102182591\\
57	0.11306572866827\\
58	0.0343504079675782\\
59	0.0180874568229833\\
60	0.0183004521987578\\
61	0.00608221869886422\\
62	0.0335296386143778\\
63	0.157400440521849\\
64	0.0172730233752695\\
65	0.502032540167806\\
66	0.413235742155008\\
67	0.100233094835657\\
68	0.0611794029460826\\
69	0.0312074961961569\\
70	0.109022428992789\\
71	0.0132395654272068\\
72	0.0358392400201393\\
73	0.000121741558711851\\
74	0.0557513955303224\\
75	0.0603088045339212\\
76	0.0943029021239842\\
77	0.263996848736484\\
78	0.496548931011541\\
79	0.170621405143352\\
80	0.0411748042832902\\
81	0.0599658860357687\\
82	0.106255348537292\\
83	0.0807331781688255\\
84	0.108473442504938\\
85	0.00567524057243747\\
86	0.0101495440785746\\
87	0.00721140171574841\\
88	0.00157153015137741\\
89	0.0209258820887147\\
90	0.0648784238873243\\
91	0.0954597218176337\\
92	0.294744065744913\\
93	0.0977395812632215\\
94	0.0194761930568528\\
95	0.018827189655277\\
96	8.78388378952599e-05\\
97	8.77428143150169e-05\\
98	7.48573135938487e-05\\
99	0.000308264276837787\\
100	0.00075080756741188\\
101	0.00021714807720696\\
102	0.00013369752779688\\
103	0.000150821996520395\\
104	0.0112570241814584\\
105	0.00219311212181473\\
106	4.11864757796169e-05\\
107	0.000104058806654405\\
108	5.98079105551686e-05\\
109	4.15406331450198e-05\\
110	4.32645067150625e-05\\
111	9.91948571689117e-05\\
112	0.000187698632846454\\
113	8.02584105682015e-05\\
114	8.7838836633005e-06\\
115	1.03850198686962e-05\\
116	5.01381766991941e-05\\
117	7.73727231520637e-05\\
118	4.70026693006948e-05\\
119	2.96901384803342e-05\\
120	6.53953406186275e-05\\
121	5.58149843847239e-05\\
122	7.72190911447388e-05\\
123	6.0490307553396e-05\\
124	4.72669161203891e-05\\
125	6.68498526434562e-05\\
126	0.000161213601588839\\
127	3.75799346686034e-05\\
128	0.000174300873287695\\
129	3.1643012089692e-05\\
130	0.000101053597949596\\
131	6.04179940641448e-05\\
132	5.96785598089735e-05\\
133	7.82473543391667e-05\\
134	0.000119994840242015\\
135	9.10119454399944e-05\\
136	4.45073791967147e-05\\
137	0.000154421868951973\\
138	0.000175577472717282\\
139	3.09767671831982e-05\\
140	0.000128367406507779\\
141	0.000117917642515465\\
142	5.32319799767135e-05\\
143	7.34869922237327e-05\\
144	6.20814312756801e-05\\
145	3.92250621820471e-05\\
146	0.000122106623184216\\
147	0.000109420270674748\\
148	5.83983825195816e-05\\
149	8.88500931406241e-05\\
};
\addlegendentry{$\mathbf{\hat{h}_{1}}$}

\addplot [color=mycolor2]
  table[row sep=crcr]{%
0	1.6829696986685e-06\\
1	3.44957777858782e-05\\
2	2.7411580061701e-05\\
3	2.05072519538392e-05\\
4	9.23032316371681e-06\\
5	3.69889676001432e-05\\
6	1.32777614763741e-05\\
7	5.45337820006252e-06\\
8	1.42391232164001e-05\\
9	8.09351450720656e-06\\
10	2.1653358500013e-05\\
11	3.57890887112249e-05\\
12	3.50345412799455e-05\\
13	2.51114513953304e-05\\
14	2.81728489830635e-05\\
15	3.16697333363608e-05\\
16	7.86009912578973e-07\\
17	4.81023420276356e-06\\
18	4.51295943280526e-05\\
19	2.10599979570756e-05\\
20	3.94563594155514e-06\\
21	7.87853272014627e-06\\
22	1.653028982376e-05\\
23	1.9439714083044e-05\\
24	2.41144941936904e-05\\
25	2.17895103960416e-05\\
26	2.21945957755519e-05\\
27	2.24266814069765e-05\\
28	1.49779722000328e-05\\
29	1.95858482897061e-05\\
30	2.35159550556895e-05\\
31	2.04795084873557e-05\\
32	4.28860142170742e-05\\
33	0.000109436898848635\\
34	0.000145217597433188\\
35	0.000349415997719446\\
36	2.18942932814117e-05\\
37	2.18146621422085e-05\\
38	2.47799445893992e-05\\
39	4.08853147481008e-05\\
40	2.17585632392675e-05\\
41	3.08532772431686e-05\\
42	0.000445438829578094\\
43	3.46335363625217e-05\\
44	5.77901368486424e-06\\
45	0.00811323779746684\\
46	0.00379287661484463\\
47	0.0325526854185427\\
48	0.00477776164001729\\
49	0.0101294914289991\\
50	0.00332156015456283\\
51	0.00125576912594588\\
52	2.21636143629518e-05\\
53	3.67633872407364e-05\\
54	0.00249672045311441\\
55	0.00583591538716214\\
56	0.00107359590851852\\
57	0.0154208606399835\\
58	0.00857805473891312\\
59	0.0360709849668661\\
60	0.0215658510922769\\
61	0.0259192241907623\\
62	0.0690100787313836\\
63	0.00873442418069604\\
64	0.0150322223196335\\
65	0.00160935305632708\\
66	0.00173971582156631\\
67	0.00722450976130845\\
68	0.00591439931095621\\
69	0.00619313382741437\\
70	0.00516101628517745\\
71	0.0134850306793989\\
72	0.0203188262385317\\
73	0.0171317284897577\\
74	0.989769687669718\\
75	0.0170536419043159\\
76	0.0199570836358908\\
77	0.0130741649773419\\
78	0.00555229128368644\\
79	0.00686470859044754\\
80	0.0063525062654567\\
81	0.00714991522737666\\
82	0.00205962440621877\\
83	0.00190779314025138\\
84	0.0145943599797488\\
85	0.00880047619547177\\
86	0.0685804278819678\\
87	0.0261527160173722\\
88	0.0212254995054919\\
89	0.0366843363339944\\
90	0.00865349993480377\\
91	0.0157781270711598\\
92	0.00109309928751714\\
93	0.00624958375583794\\
94	0.0021797815824543\\
95	3.07088389965353e-05\\
96	1.2743468979421e-05\\
97	0.00119944887090859\\
98	0.0032075612531558\\
99	0.010059817195657\\
100	0.00440483598437717\\
101	0.0329384841476117\\
102	0.00378140248837638\\
103	0.00801584639480499\\
104	6.3760518710142e-06\\
105	4.79778483766504e-05\\
106	0.000224887095917603\\
107	3.17403959270172e-05\\
108	2.55964227110379e-05\\
109	2.97194562407302e-05\\
110	2.45319044037523e-05\\
111	1.85685245979753e-05\\
112	2.36906914554358e-05\\
113	0.000357655876193664\\
114	9.13290836483583e-05\\
115	8.29015396732099e-05\\
116	5.36719511752536e-05\\
117	1.83566228784048e-05\\
118	2.85677858178276e-05\\
119	2.38506382355281e-05\\
120	2.36678521736409e-05\\
121	1.97214669036204e-05\\
122	2.27645512944769e-05\\
123	1.46724921510957e-05\\
124	1.57552960615995e-05\\
125	2.08699079472997e-05\\
126	1.07878013509594e-05\\
127	1.86864950627768e-05\\
128	7.84684915243736e-06\\
129	2.76931863306301e-05\\
130	5.35454988162461e-05\\
131	1.70604627424089e-05\\
132	7.14943860292058e-06\\
133	2.50065035629045e-05\\
134	3.4473799722379e-05\\
135	2.63360918063216e-05\\
136	3.32367275204716e-05\\
137	2.80862172001653e-05\\
138	3.50959776738418e-05\\
139	1.45729033467856e-05\\
140	2.65407886928897e-05\\
141	9.77244509117882e-06\\
142	1.87284458575718e-05\\
143	4.137518868452e-05\\
144	3.96612885030195e-06\\
145	1.37044720959126e-05\\
146	2.41388982141492e-05\\
147	3.6854972877643e-05\\
148	1.25022960419519e-05\\
149	5.05682290629602e-05\\
};
\addlegendentry{$\mathbf{\hat{h}_{2}}$}

\end{axis}
\end{tikzpicture}%