% This file was created by matlab2tikz.
%
%The latest updates can be retrieved from
%  http://www.mathworks.com/matlabcentral/fileexchange/22022-matlab2tikz-matlab2tikz
%where you can also make suggestions and rate matlab2tikz.
%
\definecolor{mycolor1}{rgb}{0.00000,0.44700,0.74100}%
\definecolor{mycolor2}{rgb}{0.85000,0.32500,0.09800}%
%
\begin{tikzpicture}

\begin{axis}[%
width=1.935in,
height=3.2in,
at={(0.758in,0.512in)},
scale only axis,
xmin=0,
xmax=150,
xlabel style={font=\color{white!15!black}, align=center},
xlabel={Sample Index\\[1ex](a) Actual},
ymin=0,
ymax=0.7,
axis background/.style={fill=white},
legend style={legend cell align=left, align=left, draw=white!15!black}
]
\addplot [color=mycolor1]
  table[row sep=crcr]{%
1	0.0234657806037261\\
2	0.0272334504034075\\
3	0.0326864300765018\\
4	0.0414541482980318\\
5	0.0586677033458464\\
6	0.117843438362983\\
7	0.159969331461504\\
8	0.174397116945152\\
9	0.616552810702634\\
10	0.0882137642931462\\
11	0.0472681903124796\\
12	0.0327587509505929\\
13	0.0272256709659274\\
14	0.0412344622245766\\
15	0.0186762848129325\\
16	0.0451940046978057\\
17	0.0153724087875252\\
18	0.0239672675363248\\
19	0.0400285717874473\\
20	0.0828333966509162\\
21	0.557624977131952\\
22	0.149414784250917\\
23	0.109138078132702\\
24	0.0381681231028791\\
25	0.032799759178118\\
26	0.191519461959093\\
27	0.0734580287558902\\
28	0.0358315656953253\\
29	0.0179563195827385\\
30	0.0169149242156914\\
31	0.0179798517146348\\
32	0.0199431506445131\\
33	0.0279225394655299\\
34	0.0908594243819801\\
35	0.0439964246924232\\
36	0.330890477505262\\
37	0.037800506563543\\
38	0.020261933748638\\
39	0.0138181229977315\\
40	0.0211497159554441\\
41	0.0112042208144458\\
42	0.00964538908702694\\
43	0.00864780826327016\\
44	0.00787736374270682\\
45	0.00720180133294831\\
46	0.00651453200193765\\
47	0.00565492088107664\\
48	0.0112814316241706\\
49	0.0075966567083061\\
50	0.0102713040739602\\
51	0.00787142060243747\\
52	0.00711780022683946\\
53	0.00668443537322835\\
54	0.00638223966522588\\
55	0.00615487020840034\\
56	0.00598242225636516\\
57	0.00586293416152974\\
58	0.00581626175933958\\
59	0.00593494184987807\\
60	0.00707647204853056\\
61	0.00861312572402681\\
62	0.00240649054353041\\
63	0.0036902508247688\\
64	0.0040125763148678\\
65	0.00408542983582614\\
66	0.00408934467211144\\
67	0.00406760360864643\\
68	0.00403657730104579\\
69	0.00400486664899167\\
70	0.00397913876457006\\
71	0.00396763365360209\\
72	0.00398577860522856\\
73	0.00407460869510253\\
74	0.00440882178496405\\
75	0.00852319154542653\\
76	0.00211982859547221\\
77	0.00279674481878385\\
78	0.00295234209521732\\
79	0.00299967450324673\\
80	0.00300734384297471\\
81	0.00299658049652506\\
82	0.00297609501762909\\
83	0.00295010695632826\\
84	0.00292089738309008\\
85	0.00288979839106794\\
86	0.00285763293534116\\
87	0.00282493110979805\\
88	0.00279204510261472\\
89	0.00275921420187501\\
90	0.00272660345813555\\
91	0.00269432766245323\\
92	0.00266246675038502\\
93	0.00263107599882434\\
94	0.00260019295165966\\
95	0.00256984222925479\\
96	0.00254003893333548\\
97	0.0025107910982644\\
98	0.00248210148178531\\
99	0.00245396889001376\\
100	0.00242638916874131\\
101	0.00239935595223708\\
102	0.00237286123354156\\
103	0.00234689580183488\\
104	0.00232144957979209\\
105	0.00229651188498403\\
106	0.00227207163310714\\
107	0.0022481174963278\\
108	0.00222463802675857\\
109	0.00220162175268604\\
110	0.00217905725339276\\
111	0.0021569332170867\\
112	0.00213523848544673\\
113	0.00211396208753109\\
114	0.00209309326520902\\
115	0.00207262149182518\\
116	0.00205253648545491\\
117	0.00203282821783402\\
118	0.00201348691983224\\
119	0.00199450308416773\\
120	0.00197586746592614\\
121	0.00195757108133911\\
122	0.0019396052051902\\
123	0.0019219613671484\\
124	0.00190463134727109\\
125	0.00188760717087541\\
126	0.00187088110293773\\
127	0.00185444564215264\\
128	0.0018382935147574\\
129	0.00182241766820821\\
130	0.00180681126477794\\
131	0.00179146767513212\\
132	0.00177638047192757\\
133	0.00176154342347035\\
134	0.00174695048746156\\
135	0.0017325958048528\\
136	0.00171847369382931\\
137	0.00170457864393352\\
138	0.0016909053103386\\
139	0.00167744850827835\\
140	0.00166420320763913\\
141	0.00165116452771496\\
142	0.00163832773212761\\
143	0.00162568822391149\\
144	0.00161324154076111\\
145	0.0016009833504405\\
146	0.00158890944635072\\
147	0.00157701574325256\\
148	0.00156529827314105\\
149	0\\
150	0\\
};
\addlegendentry{$\mathbf{h_1}$}

\addplot [color=mycolor2]
  table[row sep=crcr]{%
1	0.019775303219206\\
2	0.0210217764534023\\
3	0.0224372323963497\\
4	0.024058742711813\\
5	0.0259351263737046\\
6	0.0281320174688059\\
7	0.0307398096072034\\
8	0.0338865833958781\\
9	0.0377600935275399\\
10	0.0426472101764649\\
11	0.0490094599986528\\
12	0.0576401827385178\\
13	0.0700288298559564\\
14	0.0893407156606893\\
15	0.123700774100431\\
16	0.202175033398071\\
17	0.564479813098353\\
18	0.690442426104836\\
19	0.212260509632627\\
20	0.126132345068284\\
21	0.100380135781766\\
22	0.0378663697499036\\
23	0.0333199748773482\\
24	0.0149453064107011\\
25	0.10083899339379\\
26	0.161002397050911\\
27	0.0405118251764787\\
28	0.0383644765554957\\
29	0.0341227495803863\\
30	0.0306469105251072\\
31	0.0278570926171954\\
32	0.0255709383506331\\
33	0.0236574529195357\\
34	0.0220274984760589\\
35	0.0206190941704396\\
36	0.0193877726649002\\
37	0.0183006807256663\\
38	0.0173329207549748\\
39	0.016465211935799\\
40	0.0156823459816501\\
41	0.0149721364414517\\
42	0.0143246843629073\\
43	0.0137318527665838\\
44	0.0131868826449622\\
45	0.0126841071808284\\
46	0.0122187355837443\\
47	0.0117866872087634\\
48	0.0113844626077037\\
49	0.0110090421200206\\
50	0.0106578052804057\\
51	0\\
52	0\\
53	0\\
54	0\\
55	0\\
56	0\\
57	0\\
58	0\\
59	0\\
60	0\\
61	0\\
62	0\\
63	0\\
64	0\\
65	0\\
66	0\\
67	0\\
68	0\\
69	0\\
70	0\\
71	0\\
72	0\\
73	0\\
74	0\\
75	0\\
76	0\\
77	0\\
78	0\\
79	0\\
80	0\\
81	0\\
82	0\\
83	0\\
84	0\\
85	0\\
86	0\\
87	0\\
88	0\\
89	0\\
90	0\\
91	0\\
92	0\\
93	0\\
94	0\\
95	0\\
96	0\\
97	0\\
98	0\\
99	0\\
100	0\\
101	0\\
102	0\\
103	0\\
104	0\\
105	0\\
106	0\\
107	0\\
108	0\\
109	0\\
110	0\\
111	0\\
112	0\\
113	0\\
114	0\\
115	0\\
116	0\\
117	0\\
118	0\\
119	0\\
120	0\\
121	0\\
122	0\\
123	0\\
124	0\\
125	0\\
126	0\\
127	0\\
128	0\\
129	0\\
130	0\\
131	0\\
132	0\\
133	0\\
134	0\\
135	0\\
136	0\\
137	0\\
138	0\\
139	0\\
140	0\\
141	0\\
142	0\\
143	0\\
144	0\\
145	0\\
146	0\\
147	0\\
148	0\\
149	0\\
150	0\\
};
\addlegendentry{$\mathbf{h_{2}}$}

\end{axis}

\begin{axis}[%
width=1.935in,
height=3.2in,
at={(3.327in,0.512in)},
scale only axis,
xmin=0,
xmax=150,
xlabel style={font=\color{white!15!black}, align=center},
xlabel={Sample Index\\[1ex](b) Estimated},
ymin=0,
ymax=0.5,
axis background/.style={fill=white},
legend style={legend cell align=left, align=left, draw=white!15!black}
]
\addplot [color=mycolor1]
  table[row sep=crcr]{%
0	0.00344377598722986\\
1	0.00531808066252829\\
2	0.00512506596385255\\
3	0.00538006604628452\\
4	0.00350784350959569\\
5	0.00916308844559804\\
6	0.0486252446709784\\
7	0.0686933343736777\\
8	0.0751319427784953\\
9	0.257688258073727\\
10	0.30925932132818\\
11	0.263285915717985\\
12	0.274574627097737\\
13	0.257275776352794\\
14	0.177241718621579\\
15	0.072054381598204\\
16	0.0812269811341626\\
17	0.10583578505703\\
18	0.0804655187147732\\
19	0.0838336555198125\\
20	0.123564992944299\\
21	0.268933494803795\\
22	0.316689894854382\\
23	0.263884913389414\\
24	0.253781992317183\\
25	0.222882924459721\\
26	0.118092819034477\\
27	0.0239956419007992\\
28	0.0173437577368333\\
29	0.0300731049504822\\
30	0.0416751478463698\\
31	0.0526239699805992\\
32	0.0406756084700954\\
33	0.0229658965608311\\
34	0.0336833536649403\\
35	0.0621354701626054\\
36	0.167916785361745\\
37	0.192521587728848\\
38	0.164417381681569\\
39	0.153504803766551\\
40	0.128644963998948\\
41	0.0873481901165061\\
42	0.0379503411247572\\
43	0.0197249547355932\\
44	0.0340480024837483\\
45	0.0289209716302934\\
46	0.0300157120016382\\
47	0.0281642050680706\\
48	0.021053631371581\\
49	0.0102244610103328\\
50	0.00806385852541694\\
51	0.010953718875122\\
52	0.0130945406525989\\
53	0.0115330323715292\\
54	0.0098500518891835\\
55	0.00599604810409388\\
56	0.00508053594335188\\
57	0.00492223017294644\\
58	0.0029963839666423\\
59	0.00217205564488921\\
60	0.00675335554208579\\
61	0.009067637324045\\
62	0.00661609195465681\\
63	0.00493478317746325\\
64	0.00612282595355205\\
65	0.00484184543842998\\
66	0.0030728624727178\\
67	0.00177221188531568\\
68	0.00094447851155698\\
69	0.00108154421625481\\
70	0.00206769588419585\\
71	0.00180055272837483\\
72	0.0010803280385844\\
73	0.000560914037987339\\
74	0.00108883895660501\\
75	0.00395029497582101\\
76	0.00544833171780944\\
77	0.00486552040479081\\
78	0.00489910753761381\\
79	0.00469179970150004\\
80	0.00350183337426647\\
81	0.00188811117780358\\
82	0.000576535762558373\\
83	0.000881186184274825\\
84	0.000793009230444171\\
85	0.000984041219595781\\
86	0.0010911950812006\\
87	0.00100233280940353\\
88	0.000668864103583715\\
89	0.00028942337973179\\
90	4.73468125155757e-05\\
91	0.000234470721404833\\
92	0.000275792994016777\\
93	0.000277305617564488\\
94	0.000198725823775511\\
95	0.000183479992489741\\
96	0.000154130436314108\\
97	0.000111301168144736\\
98	6.62725206875369e-05\\
99	8.51867868489868e-05\\
100	8.11075127487145e-05\\
101	3.76985605566623e-05\\
102	3.64546776142404e-05\\
103	1.87770112419818e-05\\
104	2.29862011534843e-05\\
105	5.11208038903298e-05\\
106	2.93043469864454e-05\\
107	3.27919904663618e-05\\
108	4.46914665783478e-05\\
109	6.5873837714205e-05\\
110	4.04146077161269e-05\\
111	4.59431586209484e-05\\
112	9.34905601870983e-05\\
113	8.99332614844501e-05\\
114	7.02908467736492e-05\\
115	4.43871103425854e-05\\
116	0.000238621261257752\\
117	0.000296684254523442\\
118	0.00024563544725607\\
119	2.83554985461868e-05\\
120	0.000160923619482907\\
121	0.000390517797812721\\
122	0.000614702872865993\\
123	0.00054146530501629\\
124	0.000521466121781096\\
125	0.000648748686157898\\
126	0.000526988900833724\\
127	0.000231255167525656\\
128	0.000114877839612626\\
129	0.000324553361180886\\
130	0.000257199395421992\\
131	0.000181103584261191\\
132	0.000169794958393736\\
133	0.000368368630533499\\
134	0.000610766139776827\\
135	0.000601251835092706\\
136	0.000529977435930844\\
137	0.000643406312099378\\
138	0.000517928671567126\\
139	0.000189135761365585\\
};
\addlegendentry{$\mathbf{\hat{h}_{1}}$}

\addplot [color=mycolor2]
  table[row sep=crcr]{%
0	0.002937977660237\\
1	0.00480186273708672\\
2	0.00451922564077215\\
3	0.00446024109443681\\
4	0.00419121939063765\\
5	0.00354879041865755\\
6	0.00192703786707362\\
7	0.000537701549761776\\
8	0.00100086045763797\\
9	0.00107926270301633\\
10	0.000707484427313724\\
11	0.000958697986080055\\
12	0.00167160821476664\\
13	0.000745530345411636\\
14	0.00269572341421634\\
15	0.00661282249307771\\
16	0.0404861190621817\\
17	0.261175457358396\\
18	0.450253046127937\\
19	0.433313694728101\\
20	0.401125746622949\\
21	0.414260011061522\\
22	0.34613791483186\\
23	0.210390025524347\\
24	0.0958940172334184\\
25	0.127170251615296\\
26	0.12054831660787\\
27	0.0382198380103028\\
28	0.00306393281604864\\
29	0.00537053107102222\\
30	0.0121536849517514\\
31	0.0127670470629819\\
32	0.00922136691538456\\
33	0.0122613407404922\\
34	0.0140089468878475\\
35	0.0115182247564997\\
36	0.00593627719130186\\
37	0.00104814069224941\\
38	0.0046998590060368\\
39	0.00684009862935281\\
40	0.00572532742817839\\
41	0.00165953082060299\\
42	0.00686662644933809\\
43	0.00824215148047757\\
44	0.00486226946818159\\
45	0.00338524530448062\\
46	0.00582887620288611\\
47	0.00615363712703057\\
48	0.00470133495490896\\
49	0.00138550083921995\\
50	0.00223720801199771\\
51	0.00338093748101334\\
52	0.00212850154992607\\
53	0.000959914988395984\\
54	0.0010156749477411\\
55	0.00122599382990016\\
56	0.00320216104378562\\
57	0.00560385771547292\\
58	0.00588052924479785\\
59	0.00556179803915448\\
60	0.00657368278486221\\
61	0.00614458887046669\\
62	0.00392291576687125\\
63	0.00159167251673532\\
64	0.00196063516553082\\
65	0.00228815971627172\\
66	0.00108881868750441\\
67	4.76082982597792e-05\\
68	3.09052495889768e-05\\
69	1.14620178829682e-05\\
70	5.1282078042503e-06\\
71	1.10029484989569e-05\\
72	7.50368881976462e-06\\
73	5.91566378870876e-06\\
74	9.69390461748697e-06\\
75	1.6124052711639e-05\\
76	1.76866926616447e-05\\
77	1.95413398386149e-05\\
78	2.64427992243581e-05\\
79	1.88146684522299e-05\\
80	7.48909837191051e-06\\
81	1.57846991191488e-05\\
82	1.33280952886421e-05\\
83	1.54350618799294e-05\\
84	1.83962890851159e-05\\
85	2.44946946057066e-05\\
86	1.93772407776979e-05\\
87	1.29680826525756e-05\\
88	1.34453233265234e-05\\
89	1.93828878674305e-05\\
90	3.11715125212713e-05\\
91	2.62099976192895e-05\\
92	1.6655192961808e-05\\
93	1.06578275685376e-05\\
94	4.80276795785423e-06\\
95	1.16729034857617e-05\\
96	1.13134828215696e-05\\
97	1.46198836966467e-05\\
98	2.27960485262464e-05\\
99	2.24354264153807e-05\\
100	2.15862975518119e-05\\
101	1.44640288071207e-05\\
102	7.30319806375295e-06\\
103	1.05667158685613e-05\\
104	1.68099598946283e-05\\
105	2.10050135531742e-05\\
106	2.27225892160736e-05\\
107	1.51066484605697e-05\\
108	1.92385513025395e-05\\
109	3.45069788519304e-05\\
110	2.71796554291715e-05\\
111	7.27911702720834e-06\\
112	4.2180166941002e-05\\
113	5.31733549666583e-05\\
114	3.55390200102633e-05\\
115	7.86736707337276e-06\\
116	3.94054434874152e-05\\
117	7.15243919520132e-05\\
118	4.05923757392595e-05\\
119	2.0469468292508e-05\\
120	4.40747507312196e-05\\
121	7.27760538504808e-05\\
122	4.3277021212543e-05\\
123	3.38232248885755e-05\\
124	0.000118291658773602\\
125	0.000305286377774518\\
126	0.000306861357532252\\
127	0.000213582447484897\\
128	0.000132668374046996\\
129	0.000317066125661017\\
130	0.000759421211104085\\
131	0.0009521525621972\\
132	0.000849351591626746\\
133	0.00100527399924885\\
134	0.0010289305491835\\
135	0.000730236130122121\\
136	0.000303678148293585\\
137	0.000256998002043633\\
138	0.000388993854260812\\
139	0.000233547920138447\\
};
\addlegendentry{$\mathbf{\hat{h}_{2}}$}

\end{axis}
\end{tikzpicture}%