% This file was created by matlab2tikz.
%
%The latest updates can be retrieved from
%  http://www.mathworks.com/matlabcentral/fileexchange/22022-matlab2tikz-matlab2tikz
%where you can also make suggestions and rate matlab2tikz.
%
\definecolor{mycolor1}{rgb}{0.00000,0.44700,0.74100}%
\definecolor{mycolor2}{rgb}{0.85000,0.32500,0.09800}%
%
\begin{tikzpicture}

\begin{axis}[%
width=1.935in,
height=3.2in,
at={(0.758in,0.512in)},
scale only axis,
xmin=0,
xmax=200,
xlabel style={font=\color{white!15!black}, align=center},
xlabel={Sample Index\\[1ex](a) Actual},
ymin=0,
ymax=1,
axis background/.style={fill=white},
legend style={legend cell align=left, align=left, draw=white!15!black}
]
\addplot [color=mycolor1]
  table[row sep=crcr]{%
1	0.0167418731260698\\
2	0.018659722218203\\
3	0.0211495716349754\\
4	0.0245407494314006\\
5	0.029505643974117\\
6	0.0377161636169434\\
7	0.0550750576238134\\
8	0.131028403455825\\
9	0.141533477104454\\
10	0.158175166246243\\
11	0.163761757297189\\
12	0.600100605556833\\
13	0.118033417583129\\
14	0.0610914209628117\\
15	0.0426162246246858\\
16	0.0332715711707656\\
17	0.0321939439283243\\
18	0.0268871008873183\\
19	0.0316920608120786\\
20	0.0286771919664519\\
21	0.00773119825769845\\
22	0.0330073087209196\\
23	0.019415059292473\\
24	0.0177688778425817\\
25	0.0188194600762088\\
26	0.0237714798713867\\
27	0.0430806655948836\\
28	0.586023006720236\\
29	0.0970905103802927\\
30	0.0246981078960262\\
31	0.0780346253424249\\
32	0.0580455436901626\\
33	0.0681836526256362\\
34	0.163824852865525\\
35	0.0446106828365612\\
36	0.06119675966513\\
37	0.00907835157153909\\
38	0.0310093774848825\\
39	0.00125972832884384\\
40	0.005422098150711\\
41	0.0107374596162295\\
42	0.0165479326643041\\
43	0.024789327411243\\
44	0.0446277431282512\\
45	0.058019450740893\\
46	0.074843365423057\\
47	0.199666615467323\\
48	0.216838516027539\\
49	0.0783890355452335\\
50	0.0495529240878659\\
51	0.0370791446049236\\
52	0.0307530810094058\\
53	0.0155757068681131\\
54	0.0198807977432187\\
55	0.0179871495341263\\
56	0.0162887905400521\\
57	0.0148728268904216\\
58	0.0136909847461918\\
59	0.0126943671543235\\
60	0.011846112844806\\
61	0.0111233301448608\\
62	0.0105291449791113\\
63	0.0102108676347222\\
64	0.00751288118280402\\
65	0.00739035992869396\\
66	0.0116365722557393\\
67	0.00899390796280924\\
68	0.00831157148096884\\
69	0.00788086875151191\\
70	0.00754217236777393\\
71	0.00725475830161164\\
72	0.00700327644843893\\
73	0.006780818536885\\
74	0.00658453626015097\\
75	0.00641472878078445\\
76	0.00627599401250467\\
77	0.00618216997550965\\
78	0.00617516728867787\\
79	0.00642745729543014\\
80	0.00873051939586948\\
81	0.00471465923588381\\
82	0.00195996010568866\\
83	0.004980313957114\\
84	0.00475839614864904\\
85	0.00464733241660508\\
86	0.00455444244400457\\
87	0.00446749239384432\\
88	0.00438406292262191\\
89	0.00430366820355207\\
90	0.00422628355118023\\
91	0.00415201532524293\\
92	0.00408104289588831\\
93	0.00401365198230764\\
94	0.00395033763548775\\
95	0.00389203620501121\\
96	0.00384070443755282\\
97	0.00380107128140597\\
98	0.00378779867734327\\
99	0.00387836096292209\\
100	0.00228454900881806\\
101	0.00321909463290553\\
102	0.00328982387499096\\
103	0.00328100374444436\\
104	0.00325253146337885\\
105	0.00321692683031362\\
106	0.00317840637543852\\
107	0.00313876414674543\\
108	0.00309887602618152\\
109	0.00305920797263281\\
110	0.00302002111537278\\
111	0.00298146552488656\\
112	0.00294362726599965\\
113	0.0029065537719176\\
114	0.00287026833389302\\
115	0.00283477876811283\\
116	0.00280008280049957\\
117	0.00276617151884636\\
118	0.00273303164395387\\
119	0.00270064705586787\\
120	0.00266899983729428\\
121	0.00263807099659409\\
122	0.00260784097374635\\
123	0.00257828999668392\\
124	0.00254939833288439\\
125	0.00252114646667125\\
126	0.00249351522323938\\
127	0.00246648585412356\\
128	0.00244004009455901\\
129	0.00241416020024051\\
130	0.00238882896892876\\
131	0.0023640297508985\\
132	0.00233974645117835\\
133	0.00231596352577768\\
134	0.00229266597354371\\
135	0.00226983932488367\\
136	0.00224746962828519\\
137	0.00222554343533969\\
138	0.00220404778480324\\
139	0.00218297018609978\\
140	0.00216229860257188\\
141	0.00214202143470905\\
142	0.00212212750352594\\
143	0.00210260603421662\\
144	0.00208344664017788\\
145	0.00206463930746792\\
146	0.00204617437974413\\
147	0.00202804254371082\\
148	0.00201023481509265\\
149	0.00199274252514179\\
150	0.00197555730767936\\
151	0.0019586710866655\\
152	0.00194207606428942\\
153	0.00192576470956709\\
154	0.00190972974743187\\
155	0.00189396414830307\\
156	0.00187846111811499\\
157	0.00186321408878906\\
158	0.00184821670913216\\
159	0.00183346283614256\\
160	0.00181894652670628\\
161	0.00180466202966742\\
162	0.00179060377825436\\
163	0.00177676638284649\\
164	0.00176314462406556\\
165	0.00174973344617591\\
166	0.0017365279507797\\
167	0.00172352339079259\\
168	0.00171071516468654\\
169	0.00169809881098722\\
170	0.00168567000301325\\
171	0.00167342454384613\\
172	0.00166135836151948\\
173	0.00164946750441694\\
174	0.00163774813686889\\
175	0.00162619653493841\\
176	0.00161480908238697\\
177	0.00160358226681213\\
178	0.001592512675948\\
179	0.00158159699412143\\
180	0.00157083199885632\\
181	0.00156021455761888\\
182	0.00154974162469766\\
183	0.00153941023821136\\
184	0.00152921751723897\\
185	0.00151916065906659\\
186	0.00150923693654504\\
187	0.00149944369555362\\
188	0.00148977835256491\\
189	0.00148023839230615\\
190	0.0014708213655126\\
191	0.00146152488676917\\
192	0.00145234663243548\\
193	0.00144328433865201\\
194	0.00143433579942216\\
195	0.0014254988647679\\
196	0.00141677143895562\\
197	0.00140815147878894\\
198	0.00139963699196521\\
199	0\\
200	0\\
};
\addlegendentry{$\mathbf{h_1}$}

\addplot [color=mycolor2]
  table[row sep=crcr]{%
1	0.00495033386861547\\
2	0.00515738368500011\\
3	0.00538309861623286\\
4	0.00563019833310769\\
5	0.00590197136255583\\
6	0.00620243506959928\\
7	0.00653655369620811\\
8	0.00691054090538825\\
9	0.00733228812251618\\
10	0.00781198494389501\\
11	0.00836304134465097\\
12	0.0090034999823859\\
13	0.00975827527656913\\
14	0.0106628508662167\\
15	0.0117696896019869\\
16	0.0131600228416925\\
17	0.0149671880151623\\
18	0.0174273921400842\\
19	0.0210049332363351\\
20	0.0267613442180004\\
21	0.037792597580649\\
22	0.068721841139076\\
23	0.97572931769219\\
24	0.0649085399616321\\
25	0.0262918397391367\\
26	0.0126468169615953\\
27	0.00419508123086451\\
28	0.0214241856295046\\
29	0.0134643328328179\\
30	0.00412679327935559\\
31	0.0112712342656943\\
32	0.0282552508318709\\
33	0.111702725947746\\
34	0.12653020104749\\
35	0.0361926668223949\\
36	0.024130019396178\\
37	0.019518168382204\\
38	0.0163235660243771\\
39	0.0140849625225472\\
40	0.0124312948441269\\
41	0.0111552918846637\\
42	0.0101369616841952\\
43	0.00930266674553233\\
44	0.00860476970863487\\
45	0.00801105372801389\\
46	0.00749890841387189\\
47	0.00705196472677567\\
48	0.00665805661850076\\
49	0.0063079366485928\\
50	0.00599443852440938\\
51	0.00571191453485358\\
52	0.00545584764793091\\
53	0.0052225778141873\\
54	0.00500910486747672\\
55	0.00481294397681212\\
56	0.00463201789166602\\
57	0.00446457542356871\\
58	0.00430912894812168\\
59	0.00416440590497024\\
60	0.00402931074167137\\
61	0.00390289474814389\\
62	0.00378433192171684\\
63	0.00367289949042518\\
64	0.0035679620699816\\
65	0.00346895868109233\\
66	0.00337539203747226\\
67	0.00328681965070268\\
68	0.00320284639950925\\
69	0\\
70	0\\
71	0\\
72	0\\
73	0\\
74	0\\
75	0\\
76	0\\
77	0\\
78	0\\
79	0\\
80	0\\
81	0\\
82	0\\
83	0\\
84	0\\
85	0\\
86	0\\
87	0\\
88	0\\
89	0\\
90	0\\
91	0\\
92	0\\
93	0\\
94	0\\
95	0\\
96	0\\
97	0\\
98	0\\
99	0\\
100	0\\
101	0\\
102	0\\
103	0\\
104	0\\
105	0\\
106	0\\
107	0\\
108	0\\
109	0\\
110	0\\
111	0\\
112	0\\
113	0\\
114	0\\
115	0\\
116	0\\
117	0\\
118	0\\
119	0\\
120	0\\
121	0\\
122	0\\
123	0\\
124	0\\
125	0\\
126	0\\
127	0\\
128	0\\
129	0\\
130	0\\
131	0\\
132	0\\
133	0\\
134	0\\
135	0\\
136	0\\
137	0\\
138	0\\
139	0\\
140	0\\
141	0\\
142	0\\
143	0\\
144	0\\
145	0\\
146	0\\
147	0\\
148	0\\
149	0\\
150	0\\
151	0\\
152	0\\
153	0\\
154	0\\
155	0\\
156	0\\
157	0\\
158	0\\
159	0\\
160	0\\
161	0\\
162	0\\
163	0\\
164	0\\
165	0\\
166	0\\
167	0\\
168	0\\
169	0\\
170	0\\
171	0\\
172	0\\
173	0\\
174	0\\
175	0\\
176	0\\
177	0\\
178	0\\
179	0\\
180	0\\
181	0\\
182	0\\
183	0\\
184	0\\
185	0\\
186	0\\
187	0\\
188	0\\
189	0\\
190	0\\
191	0\\
192	0\\
193	0\\
194	0\\
195	0\\
196	0\\
197	0\\
198	0\\
199	0\\
200	0\\
};
\addlegendentry{$\mathbf{h_{2}}$}

\end{axis}

\begin{axis}[%
width=1.935in,
height=3.2in,
at={(3.327in,0.512in)},
scale only axis,
xmin=0,
xmax=100,
xlabel style={font=\color{white!15!black}, align=center},
xlabel={Sample Index\\[1ex](b) Estimated},
ymin=0,
ymax=1,
axis background/.style={fill=white},
legend style={legend cell align=left, align=left, draw=white!15!black}
]
\addplot [color=mycolor1]
  table[row sep=crcr]{%
0	7.19632209025607e-05\\
1	0.000104995636480965\\
2	0.000423241134675524\\
3	0.000142095597696476\\
4	1.78968306594901e-05\\
5	3.34692735876762e-05\\
6	8.56404517044701e-05\\
7	2.86460233321174e-05\\
8	5.03175439484654e-05\\
9	1.58433231034199e-05\\
10	0.000149204170464569\\
11	8.04223636793526e-05\\
12	0.000182258222546264\\
13	8.99234276247288e-05\\
14	1.58873684730168e-05\\
15	1.2503853037436e-05\\
16	7.64638091868574e-05\\
17	0.000160097515617807\\
18	0.0121699754012342\\
19	0.00202726790321742\\
20	0.00675743060316679\\
21	5.30884982128342e-05\\
22	0.0236983200960385\\
23	0.000608530438201045\\
24	0.0222465223255035\\
25	0.0263681916162756\\
26	0.0119790027993256\\
27	0.0866250293357111\\
28	0.000163019854598472\\
29	0.00172141710066117\\
30	6.78330428340759e-05\\
31	0.000914891101146837\\
32	0.0334211008232538\\
33	0.0478697516040632\\
34	0.144158199640845\\
35	0.0959094479295986\\
36	0.128310502816108\\
37	0.209829644273317\\
38	0.592695963338694\\
39	0.123488565281154\\
40	0.0550387388355059\\
41	0.00706354267315787\\
42	0.0367241615565066\\
43	0.0593876683551849\\
44	0.0595568650521409\\
45	0.000705914857855072\\
46	0.0153478421214812\\
47	0.000250223241415271\\
48	0.0294949571642736\\
49	0.0113073566210174\\
50	0.0259957133556579\\
51	0.0241843697734447\\
52	0.0290060544790391\\
53	0.0689309366667297\\
54	0.602023533204104\\
55	0.117646635831929\\
56	0.0132518972031519\\
57	0.0520033950780359\\
58	0.0447578718173543\\
59	0.0660113337496969\\
60	0.168213416420271\\
61	0.0068713813761043\\
62	0.0327943801660534\\
63	0.0264790973750222\\
64	0.00326723742654256\\
65	3.99365466474091e-05\\
66	0.000159746753233716\\
67	9.35719008090331e-05\\
68	0.00303373697649226\\
69	0.00066142140346026\\
70	0.0541537199880854\\
71	0.0496144173468881\\
72	0.0654699845301243\\
73	0.220895808328603\\
74	0.174396903954145\\
75	0.0641783986612731\\
76	0.0376953688578767\\
77	0.00758243692454865\\
78	0.0119760074741317\\
79	0.00524374240055088\\
80	8.07898839679337e-05\\
81	8.16417241255859e-05\\
82	0.000838171494861553\\
83	0.000124055541784396\\
84	9.8703169643892e-05\\
85	0.000259382513308892\\
86	7.18171481913541e-05\\
87	9.38769019882597e-05\\
88	0.000165974484749181\\
89	0.00792885008672904\\
90	0.0038774703295029\\
91	0.000129598324082225\\
92	0.000118139664817358\\
93	0.000104682721554056\\
94	0.000130361826796568\\
95	7.50423840813088e-05\\
96	7.70487202994412e-05\\
97	6.07830282869986e-05\\
98	4.12826858180597e-05\\
99	7.47512467658326e-05\\
};
\addlegendentry{$\mathbf{\hat{h}_{1}}$}

\addplot [color=mycolor2]
  table[row sep=crcr]{%
0	2.36497558965427e-05\\
1	6.40373346972097e-06\\
2	1.0891013023973e-05\\
3	3.72968709618708e-05\\
4	2.97082553502112e-05\\
5	2.37909407524707e-05\\
6	1.65959389691934e-05\\
7	1.72496575655569e-05\\
8	5.85150096635757e-06\\
9	0.00146304921051472\\
10	0.0149647837082817\\
11	0.0100552550242088\\
12	0.000126938844869899\\
13	0.0309157344660773\\
14	0.0105154882278646\\
15	0.00638150077376157\\
16	0.00599511011580025\\
17	0.00162239356760962\\
18	1.66158705837876e-05\\
19	9.67994038164625e-06\\
20	4.34961023981106e-05\\
21	4.77709985269407e-05\\
22	0.000547787846935912\\
23	0.0108346334736456\\
24	8.98646875857465e-05\\
25	0.000323117943248733\\
26	0.0124790275276968\\
27	0.0104541931186499\\
28	0.00543325269719679\\
29	0.0298845982914942\\
30	0.036270466430251\\
31	0.0181669265301445\\
32	0.0044341673545925\\
33	0.0786601631343823\\
34	0.00692931200284647\\
35	0.00171792976300619\\
36	0.0108247998926012\\
37	0.00238966842228507\\
38	0.00268061113984937\\
39	7.94615635951965e-05\\
40	0.00753251432031993\\
41	0.0101070653213032\\
42	0.00416211238422455\\
43	0.0040246948934864\\
44	0.00154824313790982\\
45	0.000441566248895763\\
46	0.0335782298236665\\
47	0.0147647893435777\\
48	3.44885546944042e-05\\
49	0.987462241031609\\
50	4.6367110120008e-05\\
51	0.0153889261761786\\
52	0.0342271295817008\\
53	2.4490550669089e-05\\
54	0.0021593650148915\\
55	0.00546075373484346\\
56	0.00350280722412872\\
57	0.00966510449019764\\
58	0.00617866707234152\\
59	0.000477091092144099\\
60	0.00292133634132345\\
61	0.00237093503114796\\
62	0.0109514840043191\\
63	0.000909332982559315\\
64	0.00594045566796505\\
65	0.0786397519688046\\
66	0.0041880787071721\\
67	0.0185423062615976\\
68	0.0364619339995101\\
69	0.030546019300565\\
70	0.00627832662300589\\
71	0.0109128959930212\\
72	0.0129823461357925\\
73	0.000296993539269048\\
74	3.82388993719155e-05\\
75	0.0112027967713959\\
76	0.000882390905633456\\
77	3.86050009776553e-05\\
78	2.54934483824995e-05\\
79	1.24944761975471e-05\\
80	1.78649555058646e-05\\
81	0.00107309879577856\\
82	0.00667992742827462\\
83	0.00618010442568078\\
84	0.0103319218456433\\
85	0.0314746285276023\\
86	4.19645873776903e-05\\
87	0.0105978600955682\\
88	0.0157861397563777\\
89	0.00207225286264324\\
90	1.26846369660409e-05\\
91	1.88025501656189e-05\\
92	1.93834575228896e-05\\
93	2.05980776634077e-05\\
94	3.8916225830951e-05\\
95	4.96128254656198e-05\\
96	1.62267173930053e-05\\
97	2.49445547781352e-06\\
98	2.43350505702041e-05\\
99	4.3922816888749e-05\\
};
\addlegendentry{$\mathbf{\hat{h}_{2}}$}

\end{axis}
\end{tikzpicture}%