% This file was created by matlab2tikz.
%
%The latest updates can be retrieved from
%  http://www.mathworks.com/matlabcentral/fileexchange/22022-matlab2tikz-matlab2tikz
%where you can also make suggestions and rate matlab2tikz.
%
\definecolor{mycolor1}{rgb}{0.00000,0.44700,0.74100}%
\definecolor{mycolor2}{rgb}{0.85000,0.32500,0.09800}%
%
\begin{tikzpicture}

\begin{axis}[%
width=1.935in,
height=3.2in,
at={(0.758in,0.512in)},
scale only axis,
xmin=0,
xmax=200,
xlabel style={font=\color{white!15!black}, align=center},
xlabel={Sample Index\\[1ex](a) Actual},
ymin=0,
ymax=0.8,
axis background/.style={fill=white},
legend style={legend cell align=left, align=left, draw=white!15!black}
]
\addplot [color=mycolor1]
  table[row sep=crcr]{%
1	0.0182020814388773\\
2	0.02012510100002\\
3	0.022545111927633\\
4	0.0257092221775269\\
5	0.0300926257860288\\
6	0.0368070113207646\\
7	0.0496139700658591\\
8	0.100781801849891\\
9	0.104249814301154\\
10	0.21590224856942\\
11	0.240903318316862\\
12	0.758685269567618\\
13	0.209267020187496\\
14	0.0771785197863095\\
15	0.0494891771958471\\
16	0.0356405661348903\\
17	0.15523755961894\\
18	0.0271597451025023\\
19	0.145703442549891\\
20	0.0520738574541381\\
21	0.0740609080662357\\
22	0.104935155821669\\
23	0.0417678670288507\\
24	0.0299752622866834\\
25	0.0250001918328842\\
26	0.0229720939063182\\
27	0.0247245078055356\\
28	0.00362513039017358\\
29	0.14722576142865\\
30	0.0387273782761153\\
31	0.131677926596125\\
32	0.0785526041407005\\
33	0.0810464121808255\\
34	0.160588901862689\\
35	0.0744890994278548\\
36	0.134536712627009\\
37	0.0173820440229542\\
38	0.137082339999381\\
39	0.0170525437502556\\
40	0.00749074921495884\\
41	0.00341378303693337\\
42	0.00620877458876847\\
43	0.0141607494626642\\
44	0.0397125400502968\\
45	0.0472710882981607\\
46	0.117933825228246\\
47	0.104860760134015\\
48	0.0231680488862733\\
49	0.0173960896964215\\
50	0.01565840529932\\
51	0.0158238796681408\\
52	0.0214800847634647\\
53	0.069515335423337\\
54	0.00705654101536576\\
55	0.0048265337253162\\
56	0.00444892816390271\\
57	0.00420482397187746\\
58	0.00394665996283891\\
59	0.00367152522573874\\
60	0.00340609944322399\\
61	0.00324100673075721\\
62	0.00352226036423774\\
63	0.00577590294104206\\
64	0.0646039488883014\\
65	0.0152053951030713\\
66	0.025205330150814\\
67	0.0111279282265277\\
68	0.00808273026447386\\
69	0.00668378513225385\\
70	0.0058444881598292\\
71	0.00526118842255355\\
72	0.00481495459253537\\
73	0.00444984685034709\\
74	0.00413772241899909\\
75	0.00386847400652643\\
76	0.00365640479604675\\
77	0.00358022933512563\\
78	0.0039436041841542\\
79	0.00596743145716452\\
80	0.0193053572626292\\
81	0.0244955947722078\\
82	0.0480492514955312\\
83	0.00881743040387132\\
84	0.00673618414357698\\
85	0.00583169570033062\\
86	0.00529290215994122\\
87	0.0049263520005684\\
88	0.00465711125291308\\
89	0.0044495340289191\\
90	0.00428463427284004\\
91	0.00415172046176833\\
92	0.00404487765081529\\
93	0.00396151732265935\\
94	0.00390215289068892\\
95	0.00387150614980524\\
96	0.00388240228065188\\
97	0.00396861770551536\\
98	0.0042393791899913\\
99	0.00529535495453836\\
100	0.0384422656208756\\
101	0.00196598430595653\\
102	0.00227127045262919\\
103	0.0024323424968646\\
104	0.0025024611202\\
105	0.00253048915714305\\
106	0.00253672908189185\\
107	0.00253067827009284\\
108	0.00251728582017171\\
109	0.00249934971595597\\
110	0.00247855194358738\\
111	0.00245595212950105\\
112	0.00243224240902919\\
113	0.0024078877120558\\
114	0.00238320712614353\\
115	0.00235842317784567\\
116	0.00233369278997705\\
117	0.00230912733940947\\
118	0.00228480600224308\\
119	0.00226078483862737\\
120	0.00223710310173484\\
121	0.00221378769593874\\
122	0.00219085637556591\\
123	0.00216832007097849\\
124	0.00214618460011501\\
125	0.00212445194095342\\
126	0.00210312118614787\\
127	0.002082189264892\\
128	0.00206165149248505\\
129	0.00204150199113677\\
130	0.00202173401371152\\
131	0.00200234019373144\\
132	0.00198331273896169\\
133	0.0019646435815544\\
134	0.00194632449455517\\
135	0.00192834718223092\\
136	0.00191070334993457\\
137	0.00189338475791222\\
138	0.00187638326246988\\
139	0.00185969084716353\\
140	0.00184329964609891\\
141	0.00182720196098313\\
142	0.00181139027322501\\
143	0.00179585725211227\\
144	0.00178059575988462\\
145	0.00176559885435432\\
146	0.00175085978959665\\
147	0.00173637201512792\\
148	0.00172212917390737\\
149	0.00170812509943172\\
150	0.00169435381214015\\
151	0.00168080951530347\\
152	0.00166748659053823\\
153	0.00165437959305814\\
154	0.00164148324675288\\
155	0.00162879243916746\\
156	0.00161630221643902\\
157	0.0016040077782369\\
158	0.00159190447274199\\
159	0.00157998779169339\\
160	0.00156825336552436\\
161	0.00155669695860377\\
162	0.00154531446459552\\
163	0.00153410190194422\\
164	0.00152305540949421\\
165	0.00151217124224425\\
166	0.00150144576724133\\
167	0.00149087545961318\\
168	0.00148045689873912\\
169	0.00147018676455811\\
170	0.00146006183401068\\
171	0.00145007897761323\\
172	0.00144023515616105\\
173	0.00143052741755604\\
174	0.0014209528937561\\
175	0.00141150879784194\\
176	0.00140219242119743\\
177	0.0013930011307999\\
178	0.00138393236661579\\
179	0.00137498363909773\\
180	0.0013661525267803\\
181	0.00135743667396858\\
182	0.00134883378851806\\
183	0.00134034163970044\\
184	0.00133195805615281\\
185	0.00132368092390639\\
186	0.00131550818449211\\
187	0.00130743783311859\\
188	0.00129946791692105\\
189	0.00129159653327689\\
190	0.00128382182818601\\
191	0.00127614199471266\\
192	0.00126855527148628\\
193	0.00126105994125928\\
194	0.00125365432951856\\
195	0.00124633680314903\\
196	0.00123910576914731\\
197	0.00123195967338265\\
198	0.00122489699940362\\
199	0\\
200	0\\
};
\addlegendentry{$\mathbf{h_1}$}

\addplot [color=mycolor2]
  table[row sep=crcr]{%
1	0.00774703480118937\\
2	0.00804603929146471\\
3	0.00836973275649019\\
4	0.00872140343539048\\
5	0.00910497030680877\\
6	0.00952514700926037\\
7	0.00998766130776543\\
8	0.0104995540104486\\
9	0.0110695940567668\\
10	0.0117088677650987\\
11	0.0124316367204608\\
12	0.013256623866012\\
13	0.0142090087041013\\
14	0.0153236507623596\\
15	0.0166505577523129\\
16	0.0182647317357061\\
17	0.0202852710510938\\
18	0.0229161572207696\\
19	0.0265452456738114\\
20	0.0320322468033177\\
21	0.0418192089559173\\
22	0.0672236903861102\\
23	0.764800043449489\\
24	0.0299885302146741\\
25	0.0061115763360554\\
26	0.0242678676400095\\
27	0.0514933555988865\\
28	0.195228919998726\\
29	0.085859180908406\\
30	0.0163105896710166\\
31	0.0145786853171939\\
32	0.0559865681218998\\
33	0.251050340252552\\
34	0.336624236311341\\
35	0.408546548232539\\
36	0.036057069833403\\
37	0.032029118563816\\
38	0.0279234399827533\\
39	0.024556464147634\\
40	0.0218789138558169\\
41	0.0197265840855051\\
42	0.0179656432193082\\
43	0.016499807231079\\
44	0.0152607166923053\\
45	0.0141992302040502\\
46	0.0132793478490471\\
47	0.0124741733162898\\
48	0.011763234520885\\
49	0.0111306817804915\\
50	0.0105640541254365\\
51	0.0100534184529814\\
52	0.00959075767384862\\
53	0.00916952821967447\\
54	0.00878433483782754\\
55	0.00843068801165144\\
56	0.00810482052737742\\
57	0.00780354701585278\\
58	0.00752415515294532\\
59	0.00726432048229959\\
60	0.00702203907403127\\
61	0.00679557379902244\\
62	0.00658341110359303\\
63	0.00638422595921995\\
64	0.00619685323339502\\
65	0.00602026414575953\\
66	0.00585354678274153\\
67	0.00569588987471922\\
68	0.00554656921368661\\
69	0\\
70	0\\
71	0\\
72	0\\
73	0\\
74	0\\
75	0\\
76	0\\
77	0\\
78	0\\
79	0\\
80	0\\
81	0\\
82	0\\
83	0\\
84	0\\
85	0\\
86	0\\
87	0\\
88	0\\
89	0\\
90	0\\
91	0\\
92	0\\
93	0\\
94	0\\
95	0\\
96	0\\
97	0\\
98	0\\
99	0\\
100	0\\
101	0\\
102	0\\
103	0\\
104	0\\
105	0\\
106	0\\
107	0\\
108	0\\
109	0\\
110	0\\
111	0\\
112	0\\
113	0\\
114	0\\
115	0\\
116	0\\
117	0\\
118	0\\
119	0\\
120	0\\
121	0\\
122	0\\
123	0\\
124	0\\
125	0\\
126	0\\
127	0\\
128	0\\
129	0\\
130	0\\
131	0\\
132	0\\
133	0\\
134	0\\
135	0\\
136	0\\
137	0\\
138	0\\
139	0\\
140	0\\
141	0\\
142	0\\
143	0\\
144	0\\
145	0\\
146	0\\
147	0\\
148	0\\
149	0\\
150	0\\
151	0\\
152	0\\
153	0\\
154	0\\
155	0\\
156	0\\
157	0\\
158	0\\
159	0\\
160	0\\
161	0\\
162	0\\
163	0\\
164	0\\
165	0\\
166	0\\
167	0\\
168	0\\
169	0\\
170	0\\
171	0\\
172	0\\
173	0\\
174	0\\
175	0\\
176	0\\
177	0\\
178	0\\
179	0\\
180	0\\
181	0\\
182	0\\
183	0\\
184	0\\
185	0\\
186	0\\
187	0\\
188	0\\
189	0\\
190	0\\
191	0\\
192	0\\
193	0\\
194	0\\
195	0\\
196	0\\
197	0\\
198	0\\
199	0\\
200	0\\
};
\addlegendentry{$\mathbf{h_{2}}$}

\end{axis}

\begin{axis}[%
width=1.935in,
height=3.2in,
at={(3.327in,0.512in)},
scale only axis,
xmin=0,
xmax=200,
xlabel style={font=\color{white!15!black}, align=center},
xlabel={Sample Index\\[1ex](b) Estimated},
ymin=0,
ymax=1,
axis background/.style={fill=white},
legend style={legend cell align=left, align=left, draw=white!15!black}
]
\addplot [color=mycolor1]
  table[row sep=crcr]{%
0	0.00100604748755984\\
1	0.0003024833587497\\
2	0.00302833467924154\\
3	0.000951251037045439\\
4	0.00142055841536869\\
5	0.00293635360301067\\
6	0.00167513369365917\\
7	0.00446660680720668\\
8	0.00259899874574251\\
9	0.000712569374817514\\
10	0.00119655954485309\\
11	0.00110677098604463\\
12	0.00209860810678036\\
13	0.000878361812590071\\
14	0.00176003412553363\\
15	0.00359145867132332\\
16	0.00138143114862794\\
17	0.00370707164876878\\
18	0.00127825401706403\\
19	0.00434483442413536\\
20	0.00192224504263876\\
21	0.00218926077858578\\
22	0.00271289065843949\\
23	0.00150690541369759\\
24	0.0048265991786272\\
25	0.00348657275935289\\
26	0.00215041221962342\\
27	0.00219998089907441\\
28	0.00337812909652145\\
29	0.00181631184665794\\
30	0.000823150607349791\\
31	0.00223036176338778\\
32	0.0021508033680437\\
33	0.00167608848043789\\
34	0.00185350435575336\\
35	0.000756384903972432\\
36	0.00271833026552786\\
37	0.00210594862468374\\
38	0.00161933798353342\\
39	0.00192527067937283\\
40	0.00388295005667701\\
41	0.00297556393314136\\
42	0.00192843771862736\\
43	0.00366420346481441\\
44	0.00429829162984357\\
45	0.00615754755834228\\
46	0.00378609468089962\\
47	0.00952402451158021\\
48	0.00650277574684539\\
49	0.00531439788842045\\
50	0.00885328839812593\\
51	0.00607808873440372\\
52	0.00595822777295544\\
53	0.00864831933052881\\
54	0.0114922083819893\\
55	0.0107774832971869\\
56	0.00425864796277999\\
57	0.0116832764461393\\
58	0.00143728180852204\\
59	0.00613543634397592\\
60	0.00279087622958352\\
61	0.00424967520130849\\
62	0.0119140906624308\\
63	0.00642698804653186\\
64	0.024401600999032\\
65	0.00959500757263264\\
66	0.034831811050767\\
67	0.0131601692901994\\
68	0.0223695234380247\\
69	0.0353983588285742\\
70	0.025666353533323\\
71	0.0518048981184861\\
72	0.0553248747930539\\
73	0.0359679299222649\\
74	0.0291859278925176\\
75	0.181779342859415\\
76	0.397609431813763\\
77	0.341577654801582\\
78	0.130368455975117\\
79	0.0515335565554873\\
80	0.0136129597606075\\
81	0.0628348452567507\\
82	0.0727523435187021\\
83	0.037512273307353\\
84	0.0352900890208336\\
85	0.0776330600690683\\
86	0.12355472441383\\
87	0.198371403101003\\
88	0.563065236230879\\
89	0.218561083276887\\
90	0.100210614672766\\
91	0.0507496174258264\\
92	0.0403301351397956\\
93	0.081878606299382\\
94	0.0576978760486204\\
95	0.133904217647814\\
96	0.081472159178057\\
97	0.0153192974150614\\
98	0.154238473243046\\
99	0.0718592957452944\\
100	0.00594720442538217\\
101	0.0781439609647819\\
102	0.0731110070315344\\
103	0.0639897096731996\\
104	0.0428744813122957\\
105	0.0938265450882447\\
106	0.032320288949888\\
107	0.0651200233736025\\
108	0.0485031193304726\\
109	0.111913364717414\\
110	0.177103240398289\\
111	0.0827433130709134\\
112	0.0765481125722483\\
113	0.0239909144101402\\
114	0.116874582353276\\
115	0.013829666328297\\
116	0.0045573900401388\\
117	0.0239187740384806\\
118	0.0477048622827089\\
119	0.0207190535217173\\
120	0.032034798335592\\
121	0.0356008754369562\\
122	0.10164188560513\\
123	0.0987034941404861\\
124	0.0137172481549759\\
125	0.0147590421818598\\
126	0.0130420470185435\\
127	0.021072833797467\\
128	0.00377818157819375\\
129	0.0168293897875572\\
130	0.0386501777540301\\
131	0.00429679097397842\\
132	0.00970677642437909\\
133	0.00513500906460773\\
134	0.00418025791087268\\
135	0.018662492941352\\
136	0.00151327075653544\\
137	0.0109175185895668\\
138	0.0129200341664757\\
139	0.00859674365508145\\
140	0.054111535728458\\
141	0.00614051481021282\\
142	0.022354827779947\\
143	0.0179840611786654\\
144	0.0108754976244203\\
145	0.0119168623246014\\
146	0.0191401704333695\\
147	0.0201487328221097\\
148	0.0073433740920258\\
149	0.00765667504679621\\
150	0.00779231035163283\\
151	0.00971371975249183\\
152	0.00534596842467033\\
153	0.00671275541677114\\
154	0.00192407594203687\\
155	0.00517417645953027\\
156	0.0118033130781099\\
157	0.0168079480127281\\
158	0.0355920111354443\\
159	0.00919028380139891\\
160	0.00980011070042622\\
161	0.00859442326367035\\
162	0.0062478724011051\\
163	0.00559703905280196\\
164	0.0104615477164415\\
165	0.0183052480806298\\
166	0.00736493396573056\\
167	0.00202078676165786\\
168	0.00720958027124172\\
169	0.00266922877646303\\
170	0.00831411275644\\
171	0.00524728433727686\\
172	0.00257869131333819\\
173	0.00263359436873668\\
174	0.00248495994951385\\
175	0.00187514327338985\\
176	0.0309043796580448\\
177	0.00513227740537825\\
178	0.00244585678225317\\
179	0.00465909522057164\\
180	0.00093697051241607\\
181	0.00300987839659578\\
182	0.0023510990084526\\
183	0.000264629240586427\\
184	0.00198648776858507\\
185	0.00220815478275161\\
186	0.0036649198503022\\
187	0.00142905467465876\\
188	0.000585764733975295\\
189	0.00273268927331781\\
190	0.000784827377808313\\
191	0.0017695770754671\\
192	0.00271413235897198\\
193	0.00050558080752303\\
194	0.00240550626626304\\
195	0.0011366335173119\\
196	0.00157909668563777\\
197	0.00312812939623605\\
198	0.00320014686924732\\
199	0.00181414617760564\\
};
\addlegendentry{$\mathbf{\hat{h}_{1}}$}

\addplot [color=mycolor2]
  table[row sep=crcr]{%
0	0.000695325661616826\\
1	0.00112952198467501\\
2	0.00111100617404128\\
3	0.00072105967512784\\
4	0.000794994381714422\\
5	0.000493434130961438\\
6	0.000625460627882463\\
7	0.00146727830047283\\
8	0.000500706134057274\\
9	0.000843431059555133\\
10	0.00213502532194194\\
11	0.00612020986085417\\
12	0.00191977569194379\\
13	0.000698742552878479\\
14	9.01159436462961e-05\\
15	0.000637166506414987\\
16	0.00136871274902917\\
17	0.0010293520279858\\
18	0.00112665776943836\\
19	0.00163451356381138\\
20	0.00124846546971849\\
21	0.000489060260836474\\
22	0.000680127455425054\\
23	0.001701244984365\\
24	0.00118945476921823\\
25	0.00186778673465606\\
26	0.000623953258365076\\
27	0.00142004132118061\\
28	0.0032872567214808\\
29	0.0051952004285821\\
30	0.00661001537203248\\
31	0.000843140481380227\\
32	0.00187668360762089\\
33	0.0018076277388488\\
34	0.00160383333105258\\
35	0.00254692618699253\\
36	0.00194370713954336\\
37	0.00197392621595981\\
38	0.0016873144295496\\
39	0.000663323890168782\\
40	0.00103219781323623\\
41	0.000975625029076425\\
42	0.00219818074555799\\
43	0.000670057481937275\\
44	0.00140179448500362\\
45	0.00592409816173433\\
46	0.00722554767078873\\
47	0.0108623147423739\\
48	0.00372361519517078\\
49	0.00200212821666112\\
50	0.00102608910281777\\
51	0.00145781814561891\\
52	0.00264041403271401\\
53	0.00158379967348277\\
54	0.000618744622246751\\
55	0.00154425084151486\\
56	0.00450508272436147\\
57	0.00402618466873288\\
58	0.011269448050034\\
59	0.00367176784682379\\
60	0.00133139495385561\\
61	0.00186223007218553\\
62	0.00530466124811961\\
63	0.00487247810748432\\
64	0.0120380731181505\\
65	0.0158458729166496\\
66	0.0126657549297387\\
67	0.0031622427177319\\
68	0.00531830412369527\\
69	0.00697690128229996\\
70	0.00150563856302555\\
71	8.56580491494324e-05\\
72	0.0144231815235422\\
73	0.0250064415301223\\
74	0.00163711256639449\\
75	0.024308270337924\\
76	0.00997522593658033\\
77	0.0240842855449772\\
78	0.0152486240461308\\
79	0.0131067716542768\\
80	0.0264614432409171\\
81	0.00993521323799129\\
82	0.0201435760025337\\
83	0.0150346114804107\\
84	0.0111334550490712\\
85	0.00696094501697589\\
86	0.00339505451949104\\
87	0.00338951942683714\\
88	0.0151476466364671\\
89	0.0255315616826736\\
90	0.0088914883525703\\
91	0.00330708018379748\\
92	0.0267282801042639\\
93	0.00830006819954681\\
94	0.037555802045499\\
95	0.0155061321808172\\
96	0.0361788207953703\\
97	0.0362876978859948\\
98	0.0199415149614143\\
99	0.988050382518578\\
100	0.0199424187835317\\
101	0.0362823840993186\\
102	0.0361806148900134\\
103	0.0155078472618263\\
104	0.0375606246291993\\
105	0.00829810881000576\\
106	0.0267255064451354\\
107	0.0033078980201881\\
108	0.00889322648633467\\
109	0.0255367846532928\\
110	0.0151506954354181\\
111	0.00338508065997616\\
112	0.00340034330561333\\
113	0.00696436029442422\\
114	0.0111440758653146\\
115	0.0150308663424946\\
116	0.020151234214962\\
117	0.0099319725354375\\
118	0.0264727495675889\\
119	0.0131097345011562\\
120	0.0152528696824968\\
121	0.0240893400324777\\
122	0.00998271109182066\\
123	0.024315602170112\\
124	0.00165345710288596\\
125	0.0250083834645364\\
126	0.0144003949620637\\
127	9.96331284828347e-05\\
128	0.0014974132042325\\
129	0.00697018737006101\\
130	0.00530789534925091\\
131	0.00315283000059375\\
132	0.0126668023237932\\
133	0.0158534080848436\\
134	0.0120333703530603\\
135	0.00488098373936085\\
136	0.00529948926722613\\
137	0.00187618741789261\\
138	0.00133628234002\\
139	0.0036739862401355\\
140	0.0112815257566638\\
141	0.00404144156241933\\
142	0.00450294689382802\\
143	0.00152980861949492\\
144	0.000627531040166328\\
145	0.00159137318848426\\
146	0.00265143016016142\\
147	0.00144154035380516\\
148	0.00100944526801821\\
149	0.00203731499143246\\
150	0.0037320002191206\\
151	0.0108629037270768\\
152	0.00722344566576859\\
153	0.00594069712196066\\
154	0.00140820102030535\\
155	0.000684866666428134\\
156	0.00220732890300104\\
157	0.000959734504101532\\
158	0.00104702290154606\\
159	0.000666083111182392\\
160	0.00169293162567158\\
161	0.00199393944898432\\
162	0.00195429993066928\\
163	0.00255235902370115\\
164	0.00164263948793146\\
165	0.00182168403786547\\
166	0.00185580195452733\\
167	0.000806575677273538\\
168	0.00661321565288\\
169	0.00517859771717261\\
170	0.00329602429713747\\
171	0.00141467583013656\\
172	0.000627612447854617\\
173	0.00187830142250542\\
174	0.00118808348008762\\
175	0.00172832060620407\\
176	0.000693331035999835\\
177	0.000490868872849488\\
178	0.00126282718273704\\
179	0.00161229769181875\\
180	0.00118364338519865\\
181	0.00102968411899122\\
182	0.0014172003713931\\
183	0.000645426084882676\\
184	7.81942821047859e-05\\
185	0.000745855368770613\\
186	0.00196719171928\\
187	0.00613751118934956\\
188	0.00215305995996617\\
189	0.00087896895217535\\
190	0.000412681587341295\\
191	0.00142108388391776\\
192	0.000688297120250648\\
193	0.000570331111865436\\
194	0.00079069132107961\\
195	0.000696779548218158\\
196	0.00114177225576874\\
197	0.00112760808336317\\
198	0.00071394842213642\\
199	0.000391687866829593\\
};
\addlegendentry{$\mathbf{\hat{h}_{2}}$}

\end{axis}
\end{tikzpicture}%