% This file was created by matlab2tikz.
%
%The latest updates can be retrieved from
%  http://www.mathworks.com/matlabcentral/fileexchange/22022-matlab2tikz-matlab2tikz
%where you can also make suggestions and rate matlab2tikz.
%
\definecolor{mycolor1}{rgb}{0.00000,0.44700,0.74100}%
\definecolor{mycolor2}{rgb}{0.85000,0.32500,0.09800}%
%
\begin{tikzpicture}

\begin{axis}[%
width=1.935in,
height=3.2in,
at={(0.758in,0.512in)},
scale only axis,
xmin=0,
xmax=200,
xlabel style={font=\color{white!15!black}, align=center},
xlabel={Sample Index\\[1ex](a) Actual},
ymin=0,
ymax=1,
axis background/.style={fill=white},
legend style={legend cell align=left, align=left, draw=white!15!black}
]
\addplot [color=mycolor1]
  table[row sep=crcr]{%
1	0.0167418731260698\\
2	0.018659722218203\\
3	0.0211495716349754\\
4	0.0245407494314006\\
5	0.029505643974117\\
6	0.0377161636169434\\
7	0.0550750576238134\\
8	0.131028403455825\\
9	0.141533477104454\\
10	0.158175166246243\\
11	0.163761757297189\\
12	0.600100605556833\\
13	0.118033417583129\\
14	0.0610914209628117\\
15	0.0426162246246858\\
16	0.0332715711707656\\
17	0.0321939439283243\\
18	0.0268871008873183\\
19	0.0316920608120786\\
20	0.0286771919664519\\
21	0.00773119825769845\\
22	0.0330073087209196\\
23	0.019415059292473\\
24	0.0177688778425817\\
25	0.0188194600762088\\
26	0.0237714798713867\\
27	0.0430806655948836\\
28	0.586023006720236\\
29	0.0970905103802927\\
30	0.0246981078960262\\
31	0.0780346253424249\\
32	0.0580455436901626\\
33	0.0681836526256362\\
34	0.163824852865525\\
35	0.0446106828365612\\
36	0.06119675966513\\
37	0.00907835157153909\\
38	0.0310093774848825\\
39	0.00125972832884384\\
40	0.005422098150711\\
41	0.0107374596162295\\
42	0.0165479326643041\\
43	0.024789327411243\\
44	0.0446277431282512\\
45	0.058019450740893\\
46	0.074843365423057\\
47	0.199666615467323\\
48	0.216838516027539\\
49	0.0783890355452335\\
50	0.0495529240878659\\
51	0.0370791446049236\\
52	0.0307530810094058\\
53	0.0155757068681131\\
54	0.0198807977432187\\
55	0.0179871495341263\\
56	0.0162887905400521\\
57	0.0148728268904216\\
58	0.0136909847461918\\
59	0.0126943671543235\\
60	0.011846112844806\\
61	0.0111233301448608\\
62	0.0105291449791113\\
63	0.0102108676347222\\
64	0.00751288118280402\\
65	0.00739035992869396\\
66	0.0116365722557393\\
67	0.00899390796280924\\
68	0.00831157148096884\\
69	0.00788086875151191\\
70	0.00754217236777393\\
71	0.00725475830161164\\
72	0.00700327644843893\\
73	0.006780818536885\\
74	0.00658453626015097\\
75	0.00641472878078445\\
76	0.00627599401250467\\
77	0.00618216997550965\\
78	0.00617516728867787\\
79	0.00642745729543014\\
80	0.00873051939586948\\
81	0.00471465923588381\\
82	0.00195996010568866\\
83	0.004980313957114\\
84	0.00475839614864904\\
85	0.00464733241660508\\
86	0.00455444244400457\\
87	0.00446749239384432\\
88	0.00438406292262191\\
89	0.00430366820355207\\
90	0.00422628355118023\\
91	0.00415201532524293\\
92	0.00408104289588831\\
93	0.00401365198230764\\
94	0.00395033763548775\\
95	0.00389203620501121\\
96	0.00384070443755282\\
97	0.00380107128140597\\
98	0.00378779867734327\\
99	0.00387836096292209\\
100	0.00228454900881806\\
101	0.00321909463290553\\
102	0.00328982387499096\\
103	0.00328100374444436\\
104	0.00325253146337885\\
105	0.00321692683031362\\
106	0.00317840637543852\\
107	0.00313876414674543\\
108	0.00309887602618152\\
109	0.00305920797263281\\
110	0.00302002111537278\\
111	0.00298146552488656\\
112	0.00294362726599965\\
113	0.0029065537719176\\
114	0.00287026833389302\\
115	0.00283477876811283\\
116	0.00280008280049957\\
117	0.00276617151884636\\
118	0.00273303164395387\\
119	0.00270064705586787\\
120	0.00266899983729428\\
121	0.00263807099659409\\
122	0.00260784097374635\\
123	0.00257828999668392\\
124	0.00254939833288439\\
125	0.00252114646667125\\
126	0.00249351522323938\\
127	0.00246648585412356\\
128	0.00244004009455901\\
129	0.00241416020024051\\
130	0.00238882896892876\\
131	0.0023640297508985\\
132	0.00233974645117835\\
133	0.00231596352577768\\
134	0.00229266597354371\\
135	0.00226983932488367\\
136	0.00224746962828519\\
137	0.00222554343533969\\
138	0.00220404778480324\\
139	0.00218297018609978\\
140	0.00216229860257188\\
141	0.00214202143470905\\
142	0.00212212750352594\\
143	0.00210260603421662\\
144	0.00208344664017788\\
145	0.00206463930746792\\
146	0.00204617437974413\\
147	0.00202804254371082\\
148	0.00201023481509265\\
149	0.00199274252514179\\
150	0.00197555730767936\\
151	0.0019586710866655\\
152	0.00194207606428942\\
153	0.00192576470956709\\
154	0.00190972974743187\\
155	0.00189396414830307\\
156	0.00187846111811499\\
157	0.00186321408878906\\
158	0.00184821670913216\\
159	0.00183346283614256\\
160	0.00181894652670628\\
161	0.00180466202966742\\
162	0.00179060377825436\\
163	0.00177676638284649\\
164	0.00176314462406556\\
165	0.00174973344617591\\
166	0.0017365279507797\\
167	0.00172352339079259\\
168	0.00171071516468654\\
169	0.00169809881098722\\
170	0.00168567000301325\\
171	0.00167342454384613\\
172	0.00166135836151948\\
173	0.00164946750441694\\
174	0.00163774813686889\\
175	0.00162619653493841\\
176	0.00161480908238697\\
177	0.00160358226681213\\
178	0.001592512675948\\
179	0.00158159699412143\\
180	0.00157083199885632\\
181	0.00156021455761888\\
182	0.00154974162469766\\
183	0.00153941023821136\\
184	0.00152921751723897\\
185	0.00151916065906659\\
186	0.00150923693654504\\
187	0.00149944369555362\\
188	0.00148977835256491\\
189	0.00148023839230615\\
190	0.0014708213655126\\
191	0.00146152488676917\\
192	0.00145234663243548\\
193	0.00144328433865201\\
194	0.00143433579942216\\
195	0.0014254988647679\\
196	0.00141677143895562\\
197	0.00140815147878894\\
198	0.00139963699196521\\
199	0\\
200	0\\
};
\addlegendentry{$\mathbf{h_1}$}

\addplot [color=mycolor2]
  table[row sep=crcr]{%
1	0.00495033386861547\\
2	0.00515738368500011\\
3	0.00538309861623286\\
4	0.00563019833310769\\
5	0.00590197136255583\\
6	0.00620243506959928\\
7	0.00653655369620811\\
8	0.00691054090538825\\
9	0.00733228812251618\\
10	0.00781198494389501\\
11	0.00836304134465097\\
12	0.0090034999823859\\
13	0.00975827527656913\\
14	0.0106628508662167\\
15	0.0117696896019869\\
16	0.0131600228416925\\
17	0.0149671880151623\\
18	0.0174273921400842\\
19	0.0210049332363351\\
20	0.0267613442180004\\
21	0.037792597580649\\
22	0.068721841139076\\
23	0.97572931769219\\
24	0.0649085399616321\\
25	0.0262918397391367\\
26	0.0126468169615953\\
27	0.00419508123086451\\
28	0.0214241856295046\\
29	0.0134643328328179\\
30	0.00412679327935559\\
31	0.0112712342656943\\
32	0.0282552508318709\\
33	0.111702725947746\\
34	0.12653020104749\\
35	0.0361926668223949\\
36	0.024130019396178\\
37	0.019518168382204\\
38	0.0163235660243771\\
39	0.0140849625225472\\
40	0.0124312948441269\\
41	0.0111552918846637\\
42	0.0101369616841952\\
43	0.00930266674553233\\
44	0.00860476970863487\\
45	0.00801105372801389\\
46	0.00749890841387189\\
47	0.00705196472677567\\
48	0.00665805661850076\\
49	0.0063079366485928\\
50	0.00599443852440938\\
51	0.00571191453485358\\
52	0.00545584764793091\\
53	0.0052225778141873\\
54	0.00500910486747672\\
55	0.00481294397681212\\
56	0.00463201789166602\\
57	0.00446457542356871\\
58	0.00430912894812168\\
59	0.00416440590497024\\
60	0.00402931074167137\\
61	0.00390289474814389\\
62	0.00378433192171684\\
63	0.00367289949042518\\
64	0.0035679620699816\\
65	0.00346895868109233\\
66	0.00337539203747226\\
67	0.00328681965070268\\
68	0.00320284639950925\\
69	0\\
70	0\\
71	0\\
72	0\\
73	0\\
74	0\\
75	0\\
76	0\\
77	0\\
78	0\\
79	0\\
80	0\\
81	0\\
82	0\\
83	0\\
84	0\\
85	0\\
86	0\\
87	0\\
88	0\\
89	0\\
90	0\\
91	0\\
92	0\\
93	0\\
94	0\\
95	0\\
96	0\\
97	0\\
98	0\\
99	0\\
100	0\\
101	0\\
102	0\\
103	0\\
104	0\\
105	0\\
106	0\\
107	0\\
108	0\\
109	0\\
110	0\\
111	0\\
112	0\\
113	0\\
114	0\\
115	0\\
116	0\\
117	0\\
118	0\\
119	0\\
120	0\\
121	0\\
122	0\\
123	0\\
124	0\\
125	0\\
126	0\\
127	0\\
128	0\\
129	0\\
130	0\\
131	0\\
132	0\\
133	0\\
134	0\\
135	0\\
136	0\\
137	0\\
138	0\\
139	0\\
140	0\\
141	0\\
142	0\\
143	0\\
144	0\\
145	0\\
146	0\\
147	0\\
148	0\\
149	0\\
150	0\\
151	0\\
152	0\\
153	0\\
154	0\\
155	0\\
156	0\\
157	0\\
158	0\\
159	0\\
160	0\\
161	0\\
162	0\\
163	0\\
164	0\\
165	0\\
166	0\\
167	0\\
168	0\\
169	0\\
170	0\\
171	0\\
172	0\\
173	0\\
174	0\\
175	0\\
176	0\\
177	0\\
178	0\\
179	0\\
180	0\\
181	0\\
182	0\\
183	0\\
184	0\\
185	0\\
186	0\\
187	0\\
188	0\\
189	0\\
190	0\\
191	0\\
192	0\\
193	0\\
194	0\\
195	0\\
196	0\\
197	0\\
198	0\\
199	0\\
200	0\\
};
\addlegendentry{$\mathbf{h_{2}}$}

\end{axis}

\begin{axis}[%
width=1.935in,
height=3.2in,
at={(3.327in,0.512in)},
scale only axis,
xmin=0,
xmax=400,
xlabel style={font=\color{white!15!black}, align=center},
xlabel={Sample Index\\[1ex](b) Estimated},
ymin=0,
ymax=1,
axis background/.style={fill=white},
legend style={legend cell align=left, align=left, draw=white!15!black}
]
\addplot [color=mycolor1]
  table[row sep=crcr]{%
0	0.00159826168936836\\
1	0.00122346824915864\\
2	0.00243783102546219\\
3	0.000852516759112937\\
4	0.00204952261994529\\
5	0.00178901034984194\\
6	0.00200478558346139\\
7	0.00100676218722727\\
8	0.000258741142450745\\
9	0.00187069117090932\\
10	0.00156437081489311\\
11	0.00140748632400198\\
12	0.00143899327258008\\
13	0.00112152348325365\\
14	0.000915137419170227\\
15	0.000371081544434157\\
16	0.00122113997087837\\
17	0.00136441457117122\\
18	0.000456055097244683\\
19	0.000959142445221735\\
20	0.000798402504342874\\
21	0.00155974496693889\\
22	0.00103413769458914\\
23	0.000480460577436457\\
24	0.00320553995019477\\
25	0.00148276825851824\\
26	0.00113413798662722\\
27	0.00202486579050971\\
28	0.000790883052254193\\
29	0.00110178857407589\\
30	0.000837308352097036\\
31	0.000375159554470076\\
32	0.00105307174936494\\
33	0.00112074986420444\\
34	0.00254462310479766\\
35	0.00187573171552523\\
36	0.000555326473004167\\
37	0.00232023914283276\\
38	0.00039761397631526\\
39	0.000831649532076602\\
40	0.00151062074823829\\
41	0.000644956010647615\\
42	0.00189318709269532\\
43	0.00244076860999209\\
44	0.000452987381514708\\
45	0.00147590959176338\\
46	0.00230342603178617\\
47	0.00148759873897653\\
48	0.000729228084324029\\
49	0.00154997338457532\\
50	0.00115690416870991\\
51	0.00073192671712421\\
52	0.00161502381046423\\
53	0.00109348494316196\\
54	0.00010980053803966\\
55	0.00228095807043585\\
56	0.000591426426870744\\
57	0.000154539374569817\\
58	0.00180414336660136\\
59	0.000724246364027735\\
60	0.00159751548336409\\
61	0.000606972296283603\\
62	0.000615260026539332\\
63	0.000825005096584666\\
64	0.00087760906618184\\
65	0.0019628808023412\\
66	0.000811536720855935\\
67	0.00198331255434239\\
68	0.000613595476684936\\
69	0.00210075138823681\\
70	0.00162678359051985\\
71	0.000623233706789553\\
72	0.00117610954247257\\
73	0.000446792192862607\\
74	0.00102790789845193\\
75	0.00224012095100478\\
76	0.000840634516834947\\
77	0.000392435337074282\\
78	0.000683629570949633\\
79	0.00175588058646335\\
80	0.000422247288160641\\
81	0.00143813952437558\\
82	0.001670922817973\\
83	0.00151882793780314\\
84	0.000931585797793696\\
85	0.000184551462809199\\
86	0.00207550265549691\\
87	0.000392147589925979\\
88	0.000925275244446169\\
89	0.00176394096748076\\
90	0.00100805122168714\\
91	0.00184364595182083\\
92	0.000975683028914513\\
93	0.000955501924807178\\
94	0.00123407394929786\\
95	0.00174986154054658\\
96	0.00147293656725617\\
97	0.000351319743956952\\
98	0.0014663627761158\\
99	0.000229407489205659\\
100	0.000702432446955638\\
101	0.000835933783402616\\
102	0.0011651229428042\\
103	0.000785759240983624\\
104	0.00134659197390506\\
105	0.000629184050542075\\
106	0.00141239927908502\\
107	0.000802037572696115\\
108	0.00311729891533306\\
109	0.00147440918750982\\
110	0.00154831468249633\\
111	0.00182914253533115\\
112	0.000611165299412342\\
113	0.00216934314787511\\
114	0.000981657921726429\\
115	0.00132310394320972\\
116	0.000119270383159261\\
117	0.000655380946544355\\
118	0.00181703158071649\\
119	0.000560012133099526\\
120	0.00194038294214879\\
121	0.000385159970418038\\
122	0.000545466721834673\\
123	0.00185120676160702\\
124	0.00088854210421578\\
125	0.000392589931948159\\
126	0.000514720259615193\\
127	0.000905431571170123\\
128	0.0015219956616673\\
129	0.000851474500531371\\
130	0.0013376695882777\\
131	0.00177158513031628\\
132	0.00167134251318561\\
133	0.00131941664001675\\
134	0.00107140639512974\\
135	4.59050388686607e-05\\
136	0.00111261822256832\\
137	0.00167957037657928\\
138	0.00123177179581128\\
139	0.00193629256193993\\
140	0.00118326674751021\\
141	0.000675942823694646\\
142	0.0015160188449124\\
143	0.000713322785292478\\
144	0.00160406984497801\\
145	0.00300592344499782\\
146	0.00162509808773657\\
147	0.00319996288901255\\
148	0.00180082578949539\\
149	0.00933351778630625\\
150	0.00832528308589949\\
151	0.00309895881986896\\
152	0.0115012343881118\\
153	0.0020129455909355\\
154	0.00375308101817967\\
155	0.00439529491482186\\
156	0.00139579525432982\\
157	0.00243373585254967\\
158	0.00470720940018179\\
159	0.0032906053283966\\
160	0.00771535956975749\\
161	0.00157112284161751\\
162	0.0100893061880324\\
163	0.00466153911656132\\
164	0.00408382428906671\\
165	0.0129605892271096\\
166	0.0103703299556431\\
167	0.0037788458851142\\
168	0.0302676043393671\\
169	0.0172775083024999\\
170	0.0221466953991412\\
171	0.0101755704555965\\
172	0.0342795677701075\\
173	0.011455450318248\\
174	0.0415180706888268\\
175	0.0435349296004574\\
176	0.0320088102983159\\
177	0.102205791994151\\
178	0.0226878908566498\\
179	0.0206987169536309\\
180	0.0188975080710035\\
181	0.0201806774035986\\
182	0.0522257167341326\\
183	0.0650378825556479\\
184	0.151700200954894\\
185	0.109117670917125\\
186	0.133000730993313\\
187	0.208874639510166\\
188	0.560857976701068\\
189	0.136157452424682\\
190	0.0677179405519858\\
191	0.029978585303213\\
192	0.0578367773591568\\
193	0.0740361529263653\\
194	0.0778890338596321\\
195	0.0212201244847638\\
196	0.0336680328985732\\
197	0.00898950198499183\\
198	0.0440537851170024\\
199	0.0316286237324942\\
200	0.043669928964845\\
201	0.0372159699773905\\
202	0.0457845887092721\\
203	0.0832738604764067\\
204	0.571250157565526\\
205	0.130210957623616\\
206	0.0330335590188063\\
207	0.0679891838666342\\
208	0.0625210383640109\\
209	0.0803228456834398\\
210	0.172785627106928\\
211	0.0238739112560964\\
212	0.0502439719176576\\
213	0.0451108825930083\\
214	0.0266605168762363\\
215	0.0132018057946885\\
216	0.00516620995435642\\
217	0.0060441736669834\\
218	0.0232459925721211\\
219	0.0208645697707136\\
220	0.0597210298278027\\
221	0.0636846007637968\\
222	0.0768820906421424\\
223	0.219020022425935\\
224	0.178549899046414\\
225	0.0790779184421857\\
226	0.052722120689358\\
227	0.0287750078791523\\
228	0.03175203252285\\
229	0.0231318905859582\\
230	0.00730259137549872\\
231	0.0138816458296351\\
232	0.0163388460079945\\
233	0.0145941910335265\\
234	0.00945198972780739\\
235	0.0152029478945844\\
236	0.0141762086458666\\
237	0.00814754654056712\\
238	0.0150010210074351\\
239	0.0229578280007412\\
240	0.0198060811212734\\
241	0.0101183720223477\\
242	0.0159668179901086\\
243	0.00339856361344577\\
244	0.00749895783860671\\
245	0.00686662628990752\\
246	0.00211570197337729\\
247	0.0084749697026828\\
248	0.00538398221471821\\
249	0.00347425339092863\\
250	0.00548650240428015\\
251	0.00667197956420125\\
252	0.00370346955770124\\
253	0.0059325918653249\\
254	0.00492433435248033\\
255	0.00638477112706108\\
256	0.0106673815698005\\
257	0.00827176300279533\\
258	0.00413433612280791\\
259	0.00273737755701294\\
260	0.00549752887764408\\
261	0.00373152145310808\\
262	0.00390631715085121\\
263	0.00408701100855026\\
264	0.0049380188624172\\
265	0.00360353374105025\\
266	0.00241186880832263\\
267	0.00300166433330479\\
268	0.0043413985188726\\
269	0.00360104142713833\\
270	0.00464832131726874\\
271	0.0046800755801895\\
272	0.00322914356486165\\
273	0.0047125496455208\\
274	0.00437049831290578\\
275	0.00321075048515197\\
276	0.00235936700343744\\
277	0.00313453993467667\\
278	0.00125660459129417\\
279	0.00346506534718543\\
280	0.00466652245148069\\
281	0.00204659006387269\\
282	0.0026604676110918\\
283	0.00397363362389305\\
284	0.00215240241426435\\
285	0.000363390304756334\\
286	0.00290997620315565\\
287	0.00233613598542182\\
288	0.0040967651696461\\
289	0.00219821521713718\\
290	0.00278530053798483\\
291	0.000809408391919364\\
292	0.00324039944229282\\
293	0.00122820936549918\\
294	0.00326934567320924\\
295	0.00275954435457974\\
296	0.00317181344597319\\
297	0.00248804784277909\\
298	0.0031437569331544\\
299	0.00129216179996546\\
300	0.00411473207391014\\
301	0.0026750908880739\\
302	0.00168943611066419\\
303	0.00193888390750012\\
304	0.000941388513574485\\
305	0.00208285644559739\\
306	0.000425064170564555\\
307	0.000736810823168416\\
308	0.00203175357287529\\
309	0.00241382793110221\\
310	0.00274619435824102\\
311	0.00288658275313821\\
312	0.00172960243620061\\
313	0.00125579903138453\\
314	0.00304427616544829\\
315	0.00213706914256163\\
316	0.00279815813946599\\
317	0.000535445857968814\\
318	0.00186924212749088\\
319	0.00160270703247595\\
320	0.00112638663645992\\
321	0.00235492394787765\\
322	0.00153239254983373\\
323	0.00166479920693377\\
324	0.00226711737349563\\
325	0.00218881699557584\\
326	0.0041035188995321\\
327	0.00169984853472601\\
328	0.00121642290856517\\
329	0.00145631935093947\\
330	0.000964453161687214\\
331	0.0023328987764764\\
332	0.0026116268975129\\
333	0.00165179505725592\\
334	0.00138135976251182\\
335	0.00132996434943194\\
336	0.00208575537523971\\
337	0.000485641853234409\\
338	0.000268117411920948\\
339	0.000598108962060783\\
340	0.00225566663695255\\
341	0.00124862112715159\\
342	0.00257545837645395\\
343	0.00120047255389041\\
344	0.000978616496197938\\
345	0.00202530570046896\\
346	0.00095037482130354\\
347	0.00138242256173106\\
348	0.00198649986387184\\
349	0.00109687178492293\\
350	0.00272749814307979\\
351	0.00316878697687199\\
352	0.000435733264201441\\
353	0.000813698092471168\\
354	0.0013833915670133\\
355	0.00201738810172013\\
356	0.00272546434158459\\
357	0.00241226706066066\\
358	0.00322407034849694\\
359	0.00291608408015298\\
360	0.00302395016984656\\
361	0.00204858655098156\\
362	0.00322079526315752\\
363	0.00125103440865797\\
364	0.00155763053149424\\
365	0.00156862008567093\\
366	0.000542749359993945\\
367	0.00342603942467063\\
368	0.00168511813999797\\
369	0.000778758430394332\\
370	0.00161325688618636\\
371	0.00285037755353275\\
372	0.0018090880689291\\
373	0.00252392884268676\\
374	0.00251345141047404\\
375	0.000543526511122104\\
376	0.00164534743590964\\
377	0.00133596827541827\\
378	0.00105423797393151\\
379	0.00169619859867526\\
380	0.000243420699166089\\
381	0.00220662080840613\\
382	0.0019222445356692\\
383	0.00129953062815016\\
384	0.00111706935252101\\
385	0.00189539420332044\\
386	0.00170275654307791\\
387	0.00282327830329085\\
388	0.00154039437092142\\
389	0.00149903479326184\\
390	0.00204382408707365\\
391	0.00114009830185206\\
392	0.00198620140594779\\
393	0.000720664650282035\\
394	0.000798255364752064\\
395	0.000272548123925185\\
396	0.000765991488702894\\
397	0.00127768507124771\\
398	0.00144598922665542\\
399	0.00230774917203561\\
};
\addlegendentry{$\mathbf{\hat{h}_{1}}$}

\addplot [color=mycolor2]
  table[row sep=crcr]{%
0	0.00056438673766766\\
1	0.000262506552741526\\
2	0.000448348756041795\\
3	0.000191263649331974\\
4	0.00058596240136697\\
5	0.000372979017530811\\
6	0.000337791137809122\\
7	0.000115032445915939\\
8	0.000246877660646314\\
9	0.000375892723411376\\
10	0.000108544890893677\\
11	0.000512773875462825\\
12	0.000154611645403933\\
13	0.000224849356720579\\
14	0.000206526487830593\\
15	0.000369813683957559\\
16	0.000753930353862504\\
17	0.000288247132272672\\
18	0.000153384450885511\\
19	0.000364019259430243\\
20	0.000355315869781357\\
21	0.000245568978289875\\
22	0.000482443978147791\\
23	0.000104956012596795\\
24	0.00033146860304104\\
25	0.000238684579698659\\
26	0.000207386762389521\\
27	0.000158165129250821\\
28	0.000238198012534018\\
29	0.000676493039191707\\
30	0.000501544346161769\\
31	0.000507775334403294\\
32	0.00056300043409909\\
33	0.000224027003858069\\
34	0.000312473004054496\\
35	0.00044892472291218\\
36	0.000716724967316064\\
37	0.000516901954503479\\
38	0.000161750373455725\\
39	0.000541800648321655\\
40	0.000383957859347766\\
41	0.000168821153431725\\
42	0.000543600432387165\\
43	0.00040336826101139\\
44	0.000415150596306333\\
45	0.000776218088667828\\
46	0.00024637852677818\\
47	0.000698887670935379\\
48	0.000684901789403164\\
49	0.000341321247102833\\
50	9.62797655269127e-05\\
51	0.000495843091265929\\
52	0.000523175601000378\\
53	0.000611625676484302\\
54	0.000187717586877825\\
55	0.000507968009926619\\
56	0.000447489857833822\\
57	3.97920561397822e-05\\
58	0.000622476097787322\\
59	0.000242664557385698\\
60	0.000122856447572965\\
61	0.000776661079569113\\
62	0.000643730263780038\\
63	0.000495422805454994\\
64	0.000588073863344323\\
65	0.000248269453023627\\
66	0.000256368903869468\\
67	0.000429791055042237\\
68	0.000258261438226071\\
69	0.000564302301262631\\
70	0.000236429061309036\\
71	0.000637398053216646\\
72	0.00057573813882891\\
73	0.000539217811385502\\
74	0.000363690753264696\\
75	0.000408334577300505\\
76	0.000598206751666818\\
77	0.000909816544063519\\
78	0.000688739513472095\\
79	0.000265231090001268\\
80	0.00028175180557858\\
81	0.000262157588111578\\
82	0.000454549902583561\\
83	0.000235250731346369\\
84	0.000490344408746328\\
85	0.000439538017527014\\
86	0.000308178610624569\\
87	0.000739594453765842\\
88	0.000531974864528605\\
89	0.000729021029283862\\
90	0.000599906699642548\\
91	0.000800176266878157\\
92	0.000756369870071014\\
93	0.000840846383869867\\
94	0.000503175739528613\\
95	0.000908646659250817\\
96	0.000428273921428568\\
97	0.000485870723831652\\
98	0.000514090281716586\\
99	0.000509319312319178\\
100	0.00027681041824495\\
101	0.000609003851403625\\
102	0.000453016684469694\\
103	0.000363229528580603\\
104	0.000721877494074592\\
105	0.00080864424935417\\
106	0.000642323226224141\\
107	0.000987297391247081\\
108	0.000945833793614138\\
109	0.000512021924823376\\
110	0.000672613259694008\\
111	0.000295824328795228\\
112	0.000442584865464173\\
113	0.000610217642363772\\
114	0.000791486657439257\\
115	0.000864790355175002\\
116	0.000982530856095705\\
117	0.00108487242479515\\
118	0.000646666547727568\\
119	0.00105524437955788\\
120	0.00101876605262793\\
121	0.000854926524130221\\
122	0.000601093449324773\\
123	0.00117442615335535\\
124	0.00116687199734026\\
125	0.000889673503183136\\
126	0.00102575564090878\\
127	0.000297310099129829\\
128	0.000687881120227112\\
129	0.000504127777684261\\
130	0.00137909342688198\\
131	0.000894648242690183\\
132	0.00128328856733799\\
133	0.00103166201047445\\
134	0.00156618138958328\\
135	0.00116189893849892\\
136	0.00120894232433307\\
137	0.00148562074829694\\
138	0.000892219698723394\\
139	0.000998869331892828\\
140	0.00156380831898942\\
141	0.000497849912427487\\
142	0.000757036773041707\\
143	0.0025807285532373\\
144	0.00166170485625011\\
145	0.00118492712675082\\
146	0.00171736920752105\\
147	0.00203696404741422\\
148	0.00228440144267029\\
149	0.00178826556580209\\
150	0.00078784585263652\\
151	0.000900635789367397\\
152	0.0014540276741409\\
153	0.00104290884725277\\
154	0.00140372580283249\\
155	0.00100589302502256\\
156	0.00162598734856084\\
157	0.000579393000117581\\
158	0.00183516517965836\\
159	0.00461693739067628\\
160	0.0151011942394987\\
161	0.0108092011240053\\
162	0.00323992841262129\\
163	0.0264629813461898\\
164	0.0120449080318275\\
165	0.00828963545144857\\
166	0.00806035982120674\\
167	0.00375766590489001\\
168	0.00317052934362896\\
169	0.00220578763569815\\
170	0.00110707253361519\\
171	0.00213769087699111\\
172	0.00384331072667648\\
173	0.011516925403831\\
174	0.00298588425397962\\
175	0.00453358855516979\\
176	0.0125762203146652\\
177	0.0119024011582129\\
178	0.00768821071447411\\
179	0.025414197407684\\
180	0.0304653197701205\\
181	0.0170953057889628\\
182	0.0075370242287172\\
183	0.0618304270346301\\
184	0.00930608507900565\\
185	0.00459097508316179\\
186	0.0110330841079016\\
187	0.0052812640117165\\
188	0.0054744919830516\\
189	0.00300687121392802\\
190	0.00840401085429188\\
191	0.0105952211728599\\
192	0.00690044595134093\\
193	0.00842119182473183\\
194	0.00568386912000023\\
195	0.00374564582897813\\
196	0.0286272296815883\\
197	0.0141477715575303\\
198	0.00311224901759384\\
199	0.990508979180367\\
200	0.00311205838731833\\
201	0.0141477105892397\\
202	0.0286276195068138\\
203	0.00375189582141031\\
204	0.00568753152252541\\
205	0.00842369774644603\\
206	0.00689379820722633\\
207	0.0105894891951147\\
208	0.00839458886620116\\
209	0.00300100214136454\\
210	0.00547923481033894\\
211	0.00528189715864853\\
212	0.0110283011561518\\
213	0.00458745512769044\\
214	0.00930198564341631\\
215	0.0618335727823816\\
216	0.00753943993527431\\
217	0.0171030177718363\\
218	0.0304679870984609\\
219	0.0254137197394095\\
220	0.00768891474256953\\
221	0.0119221082903673\\
222	0.0125651707616277\\
223	0.00451998890994049\\
224	0.00298452870821475\\
225	0.0115040737928465\\
226	0.00384833834956987\\
227	0.00213072804014572\\
228	0.00110940007540142\\
229	0.0021968988412347\\
230	0.00317600801586821\\
231	0.00375976195720597\\
232	0.00805857143966422\\
233	0.00828480769909084\\
234	0.0120531176050399\\
235	0.0264706602558877\\
236	0.00324223717460498\\
237	0.010810921237121\\
238	0.0151160309560576\\
239	0.00460596792523116\\
240	0.00184549956359628\\
241	0.000567652057750605\\
242	0.00164494034640699\\
243	0.00100010863591254\\
244	0.00139921764574911\\
245	0.00105169885306977\\
246	0.00144930015817688\\
247	0.000911303996995422\\
248	0.000796876648051163\\
249	0.00179442664963439\\
250	0.00228339077914735\\
251	0.00202642299230982\\
252	0.00171354448816488\\
253	0.00117821394945418\\
254	0.00166911652867558\\
255	0.00259056619423301\\
256	0.000775626807913436\\
257	0.000501877277448369\\
258	0.00157101691626347\\
259	0.000995628676126082\\
260	0.000883151031280297\\
261	0.00149633779751534\\
262	0.00118873941414422\\
263	0.00115140516141734\\
264	0.00157781849131545\\
265	0.00103414146303732\\
266	0.00128096292146715\\
267	0.000887518204689038\\
268	0.00136227986725314\\
269	0.000512234427614605\\
270	0.000682145013364217\\
271	0.000291076631242222\\
272	0.00103778803837953\\
273	0.000883251083590743\\
274	0.00117690199297615\\
275	0.00117754822271498\\
276	0.000580803573474518\\
277	0.000856133736937298\\
278	0.0010183462050229\\
279	0.00103588232088691\\
280	0.000642224314963704\\
281	0.00108857370574276\\
282	0.000985271765836299\\
283	0.000890444913218539\\
284	0.000788675539489668\\
285	0.000609988368327803\\
286	0.000433645626134566\\
287	0.000283379319934678\\
288	0.000672774612559328\\
289	0.000497669194459122\\
290	0.000933740236304513\\
291	0.00099643407120046\\
292	0.000639170737938989\\
293	0.00081184007368485\\
294	0.00074186223931934\\
295	0.000351625321661402\\
296	0.000451831411944354\\
297	0.000620157715306655\\
298	0.000288646776941969\\
299	0.000568189684394647\\
300	0.000506279839523743\\
301	0.000456654955945044\\
302	0.000435110248229876\\
303	0.000915423246022651\\
304	0.00051674956418599\\
305	0.000835120713039301\\
306	0.000740065742824693\\
307	0.000787035931336844\\
308	0.000600751274952358\\
309	0.000710471153877037\\
310	0.000544893022515721\\
311	0.000731984029643724\\
312	0.000312156572249086\\
313	0.000431047971296439\\
314	0.000487750653797444\\
315	0.000259131811486338\\
316	0.000467267184662179\\
317	0.000251393746879792\\
318	0.000291315711092246\\
319	0.000270514782114545\\
320	0.000707308838824142\\
321	0.000919929593200829\\
322	0.000608232247976645\\
323	0.000407468425038853\\
324	0.000379880260998773\\
325	0.000540248662566881\\
326	0.000569964548912047\\
327	0.000632601468131325\\
328	0.000230023552099226\\
329	0.000541845980335102\\
330	0.000259714631832257\\
331	0.000405929057441465\\
332	0.000274358597754453\\
333	0.000273035731693273\\
334	0.000591090058709113\\
335	0.000488346314468198\\
336	0.000666452823871942\\
337	0.000817118408922829\\
338	0.000115808210345819\\
339	0.000228212681907674\\
340	0.000635822434445738\\
341	3.90202658354076e-05\\
342	0.000472174763067225\\
343	0.000514160721617775\\
344	0.000192304301773044\\
345	0.000601091503048451\\
346	0.000499629792522316\\
347	0.000482823560366361\\
348	9.07920640196511e-05\\
349	0.000371708061768295\\
350	0.000707067150860512\\
351	0.000676826008656164\\
352	0.0002912519859992\\
353	0.000811809464316707\\
354	0.00041946043916772\\
355	0.00039928453505808\\
356	0.000538387032871755\\
357	0.000165732888791586\\
358	0.000365998258996667\\
359	0.000533458555192204\\
360	0.000165028986675085\\
361	0.000497514240859039\\
362	0.000716859106772653\\
363	0.000422415905424576\\
364	0.000304207032363105\\
365	0.000255050729971145\\
366	0.000577083385234553\\
367	0.000508482929687286\\
368	0.000521481338272507\\
369	0.000704892147392192\\
370	0.000233575278816824\\
371	0.000155869437364145\\
372	0.000187386145903794\\
373	0.000230935861166115\\
374	0.000336145353586295\\
375	0.000138309816962116\\
376	0.000510108836234676\\
377	0.000240688437813812\\
378	0.000350324432541158\\
379	0.000356108004930054\\
380	0.000153992620091196\\
381	0.000306877309179405\\
382	0.000756833298623902\\
383	0.000337595023984685\\
384	0.000243830301952744\\
385	0.000236858589580455\\
386	0.000127724172837299\\
387	0.000488900721366918\\
388	0.000134633865352639\\
389	0.000350220689918199\\
390	0.00023282410620905\\
391	0.000142752815191705\\
392	0.000332156905219751\\
393	0.000331657505819471\\
394	0.000587745204907003\\
395	0.000228358207578643\\
396	0.000436359904818099\\
397	0.000234496455859803\\
398	0.000538647967447904\\
399	0.000756480073196316\\
};
\addlegendentry{$\mathbf{\hat{h}_{2}}$}

\end{axis}
\end{tikzpicture}%