% This file was created by matlab2tikz.
%
%The latest updates can be retrieved from
%  http://www.mathworks.com/matlabcentral/fileexchange/22022-matlab2tikz-matlab2tikz
%where you can also make suggestions and rate matlab2tikz.
%
\definecolor{mycolor1}{rgb}{0.00000,0.44700,0.74100}%
\definecolor{mycolor2}{rgb}{0.85000,0.32500,0.09800}%
%
\begin{tikzpicture}

\begin{axis}[%
width=1.935in,
height=3.2in,
at={(0.758in,0.512in)},
scale only axis,
xmin=0,
xmax=200,
xlabel style={font=\color{white!15!black}, align=center},
xlabel={Sample Index\\[1ex](a) Actual},
ymin=0,
ymax=1,
axis background/.style={fill=white},
legend style={legend cell align=left, align=left, draw=white!15!black}
]
\addplot [color=mycolor1]
  table[row sep=crcr]{%
1	0.0167418731260698\\
2	0.018659722218203\\
3	0.0211495716349754\\
4	0.0245407494314006\\
5	0.029505643974117\\
6	0.0377161636169434\\
7	0.0550750576238134\\
8	0.131028403455825\\
9	0.141533477104454\\
10	0.158175166246243\\
11	0.163761757297189\\
12	0.600100605556833\\
13	0.118033417583129\\
14	0.0610914209628117\\
15	0.0426162246246858\\
16	0.0332715711707656\\
17	0.0321939439283243\\
18	0.0268871008873183\\
19	0.0316920608120786\\
20	0.0286771919664519\\
21	0.00773119825769845\\
22	0.0330073087209196\\
23	0.019415059292473\\
24	0.0177688778425817\\
25	0.0188194600762088\\
26	0.0237714798713867\\
27	0.0430806655948836\\
28	0.586023006720236\\
29	0.0970905103802927\\
30	0.0246981078960262\\
31	0.0780346253424249\\
32	0.0580455436901626\\
33	0.0681836526256362\\
34	0.163824852865525\\
35	0.0446106828365612\\
36	0.06119675966513\\
37	0.00907835157153909\\
38	0.0310093774848825\\
39	0.00125972832884384\\
40	0.005422098150711\\
41	0.0107374596162295\\
42	0.0165479326643041\\
43	0.024789327411243\\
44	0.0446277431282512\\
45	0.058019450740893\\
46	0.074843365423057\\
47	0.199666615467323\\
48	0.216838516027539\\
49	0.0783890355452335\\
50	0.0495529240878659\\
51	0.0370791446049236\\
52	0.0307530810094058\\
53	0.0155757068681131\\
54	0.0198807977432187\\
55	0.0179871495341263\\
56	0.0162887905400521\\
57	0.0148728268904216\\
58	0.0136909847461918\\
59	0.0126943671543235\\
60	0.011846112844806\\
61	0.0111233301448608\\
62	0.0105291449791113\\
63	0.0102108676347222\\
64	0.00751288118280402\\
65	0.00739035992869396\\
66	0.0116365722557393\\
67	0.00899390796280924\\
68	0.00831157148096884\\
69	0.00788086875151191\\
70	0.00754217236777393\\
71	0.00725475830161164\\
72	0.00700327644843893\\
73	0.006780818536885\\
74	0.00658453626015097\\
75	0.00641472878078445\\
76	0.00627599401250467\\
77	0.00618216997550965\\
78	0.00617516728867787\\
79	0.00642745729543014\\
80	0.00873051939586948\\
81	0.00471465923588381\\
82	0.00195996010568866\\
83	0.004980313957114\\
84	0.00475839614864904\\
85	0.00464733241660508\\
86	0.00455444244400457\\
87	0.00446749239384432\\
88	0.00438406292262191\\
89	0.00430366820355207\\
90	0.00422628355118023\\
91	0.00415201532524293\\
92	0.00408104289588831\\
93	0.00401365198230764\\
94	0.00395033763548775\\
95	0.00389203620501121\\
96	0.00384070443755282\\
97	0.00380107128140597\\
98	0.00378779867734327\\
99	0.00387836096292209\\
100	0.00228454900881806\\
101	0.00321909463290553\\
102	0.00328982387499096\\
103	0.00328100374444436\\
104	0.00325253146337885\\
105	0.00321692683031362\\
106	0.00317840637543852\\
107	0.00313876414674543\\
108	0.00309887602618152\\
109	0.00305920797263281\\
110	0.00302002111537278\\
111	0.00298146552488656\\
112	0.00294362726599965\\
113	0.0029065537719176\\
114	0.00287026833389302\\
115	0.00283477876811283\\
116	0.00280008280049957\\
117	0.00276617151884636\\
118	0.00273303164395387\\
119	0.00270064705586787\\
120	0.00266899983729428\\
121	0.00263807099659409\\
122	0.00260784097374635\\
123	0.00257828999668392\\
124	0.00254939833288439\\
125	0.00252114646667125\\
126	0.00249351522323938\\
127	0.00246648585412356\\
128	0.00244004009455901\\
129	0.00241416020024051\\
130	0.00238882896892876\\
131	0.0023640297508985\\
132	0.00233974645117835\\
133	0.00231596352577768\\
134	0.00229266597354371\\
135	0.00226983932488367\\
136	0.00224746962828519\\
137	0.00222554343533969\\
138	0.00220404778480324\\
139	0.00218297018609978\\
140	0.00216229860257188\\
141	0.00214202143470905\\
142	0.00212212750352594\\
143	0.00210260603421662\\
144	0.00208344664017788\\
145	0.00206463930746792\\
146	0.00204617437974413\\
147	0.00202804254371082\\
148	0.00201023481509265\\
149	0.00199274252514179\\
150	0.00197555730767936\\
151	0.0019586710866655\\
152	0.00194207606428942\\
153	0.00192576470956709\\
154	0.00190972974743187\\
155	0.00189396414830307\\
156	0.00187846111811499\\
157	0.00186321408878906\\
158	0.00184821670913216\\
159	0.00183346283614256\\
160	0.00181894652670628\\
161	0.00180466202966742\\
162	0.00179060377825436\\
163	0.00177676638284649\\
164	0.00176314462406556\\
165	0.00174973344617591\\
166	0.0017365279507797\\
167	0.00172352339079259\\
168	0.00171071516468654\\
169	0.00169809881098722\\
170	0.00168567000301325\\
171	0.00167342454384613\\
172	0.00166135836151948\\
173	0.00164946750441694\\
174	0.00163774813686889\\
175	0.00162619653493841\\
176	0.00161480908238697\\
177	0.00160358226681213\\
178	0.001592512675948\\
179	0.00158159699412143\\
180	0.00157083199885632\\
181	0.00156021455761888\\
182	0.00154974162469766\\
183	0.00153941023821136\\
184	0.00152921751723897\\
185	0.00151916065906659\\
186	0.00150923693654504\\
187	0.00149944369555362\\
188	0.00148977835256491\\
189	0.00148023839230615\\
190	0.0014708213655126\\
191	0.00146152488676917\\
192	0.00145234663243548\\
193	0.00144328433865201\\
194	0.00143433579942216\\
195	0.0014254988647679\\
196	0.00141677143895562\\
197	0.00140815147878894\\
198	0.00139963699196521\\
199	0\\
200	0\\
};
\addlegendentry{$\mathbf{h_1}$}

\addplot [color=mycolor2]
  table[row sep=crcr]{%
1	0.00495033386861547\\
2	0.00515738368500011\\
3	0.00538309861623286\\
4	0.00563019833310769\\
5	0.00590197136255583\\
6	0.00620243506959928\\
7	0.00653655369620811\\
8	0.00691054090538825\\
9	0.00733228812251618\\
10	0.00781198494389501\\
11	0.00836304134465097\\
12	0.0090034999823859\\
13	0.00975827527656913\\
14	0.0106628508662167\\
15	0.0117696896019869\\
16	0.0131600228416925\\
17	0.0149671880151623\\
18	0.0174273921400842\\
19	0.0210049332363351\\
20	0.0267613442180004\\
21	0.037792597580649\\
22	0.068721841139076\\
23	0.97572931769219\\
24	0.0649085399616321\\
25	0.0262918397391367\\
26	0.0126468169615953\\
27	0.00419508123086451\\
28	0.0214241856295046\\
29	0.0134643328328179\\
30	0.00412679327935559\\
31	0.0112712342656943\\
32	0.0282552508318709\\
33	0.111702725947746\\
34	0.12653020104749\\
35	0.0361926668223949\\
36	0.024130019396178\\
37	0.019518168382204\\
38	0.0163235660243771\\
39	0.0140849625225472\\
40	0.0124312948441269\\
41	0.0111552918846637\\
42	0.0101369616841952\\
43	0.00930266674553233\\
44	0.00860476970863487\\
45	0.00801105372801389\\
46	0.00749890841387189\\
47	0.00705196472677567\\
48	0.00665805661850076\\
49	0.0063079366485928\\
50	0.00599443852440938\\
51	0.00571191453485358\\
52	0.00545584764793091\\
53	0.0052225778141873\\
54	0.00500910486747672\\
55	0.00481294397681212\\
56	0.00463201789166602\\
57	0.00446457542356871\\
58	0.00430912894812168\\
59	0.00416440590497024\\
60	0.00402931074167137\\
61	0.00390289474814389\\
62	0.00378433192171684\\
63	0.00367289949042518\\
64	0.0035679620699816\\
65	0.00346895868109233\\
66	0.00337539203747226\\
67	0.00328681965070268\\
68	0.00320284639950925\\
69	0\\
70	0\\
71	0\\
72	0\\
73	0\\
74	0\\
75	0\\
76	0\\
77	0\\
78	0\\
79	0\\
80	0\\
81	0\\
82	0\\
83	0\\
84	0\\
85	0\\
86	0\\
87	0\\
88	0\\
89	0\\
90	0\\
91	0\\
92	0\\
93	0\\
94	0\\
95	0\\
96	0\\
97	0\\
98	0\\
99	0\\
100	0\\
101	0\\
102	0\\
103	0\\
104	0\\
105	0\\
106	0\\
107	0\\
108	0\\
109	0\\
110	0\\
111	0\\
112	0\\
113	0\\
114	0\\
115	0\\
116	0\\
117	0\\
118	0\\
119	0\\
120	0\\
121	0\\
122	0\\
123	0\\
124	0\\
125	0\\
126	0\\
127	0\\
128	0\\
129	0\\
130	0\\
131	0\\
132	0\\
133	0\\
134	0\\
135	0\\
136	0\\
137	0\\
138	0\\
139	0\\
140	0\\
141	0\\
142	0\\
143	0\\
144	0\\
145	0\\
146	0\\
147	0\\
148	0\\
149	0\\
150	0\\
151	0\\
152	0\\
153	0\\
154	0\\
155	0\\
156	0\\
157	0\\
158	0\\
159	0\\
160	0\\
161	0\\
162	0\\
163	0\\
164	0\\
165	0\\
166	0\\
167	0\\
168	0\\
169	0\\
170	0\\
171	0\\
172	0\\
173	0\\
174	0\\
175	0\\
176	0\\
177	0\\
178	0\\
179	0\\
180	0\\
181	0\\
182	0\\
183	0\\
184	0\\
185	0\\
186	0\\
187	0\\
188	0\\
189	0\\
190	0\\
191	0\\
192	0\\
193	0\\
194	0\\
195	0\\
196	0\\
197	0\\
198	0\\
199	0\\
200	0\\
};
\addlegendentry{$\mathbf{h_{2}}$}

\end{axis}

\begin{axis}[%
width=1.935in,
height=3.2in,
at={(3.327in,0.512in)},
scale only axis,
xmin=0,
xmax=200,
xlabel style={font=\color{white!15!black}, align=center},
xlabel={Sample Index\\[1ex](b) Estimated},
ymin=0,
ymax=1,
axis background/.style={fill=white},
legend style={legend cell align=left, align=left, draw=white!15!black}
]
\addplot [color=mycolor1]
  table[row sep=crcr]{%
0	2.7110378798823e-05\\
1	6.7988847688332e-05\\
2	7.37304426898806e-05\\
3	6.85848047324241e-05\\
4	6.93868604045873e-05\\
5	2.63993173539617e-05\\
6	0.000119809065510951\\
7	2.18910826238227e-05\\
8	7.20592387299405e-05\\
9	6.36330291538395e-05\\
10	5.55480839768028e-05\\
11	0.000119429059900136\\
12	8.37868600478575e-05\\
13	5.2433860273994e-05\\
14	7.04561686500366e-05\\
15	4.31440120981954e-05\\
16	0.000120331555922634\\
17	1.90835694347411e-05\\
18	0.000119562267672011\\
19	7.70552070099006e-05\\
20	0.000105967598610343\\
21	8.35252668611467e-05\\
22	0.000147402164595703\\
23	7.42885901682444e-05\\
24	7.47303978923431e-05\\
25	4.13475680828053e-05\\
26	5.08604397516487e-05\\
27	0.000100748898852669\\
28	7.6021301124645e-05\\
29	6.23416316524223e-05\\
30	7.5969800802137e-05\\
31	0.000121085051294665\\
32	9.48157526069386e-05\\
33	2.99749767254329e-05\\
34	9.88359021794146e-05\\
35	7.06995607511977e-05\\
36	6.35999880898949e-05\\
37	9.82783567168504e-05\\
38	8.77158075877799e-05\\
39	5.81014406647687e-05\\
40	0.000135937292153953\\
41	0.000102086382088685\\
42	5.03632527004307e-05\\
43	5.57294463823848e-05\\
44	4.02224321808642e-05\\
45	7.42427942496079e-05\\
46	2.38838338537094e-06\\
47	5.30727439818203e-05\\
48	0.000131327022039945\\
49	0.000127303183535591\\
50	8.14694002761798e-05\\
51	0.00012865726771632\\
52	4.44746532318834e-05\\
53	5.35022155536588e-05\\
54	0.000115482266969506\\
55	5.18423520694313e-05\\
56	3.52221949053678e-05\\
57	0.000218636640103\\
58	3.76883281966379e-05\\
59	6.27858634593086e-06\\
60	6.07652200192743e-05\\
61	4.70686388622434e-05\\
62	8.38559737014688e-05\\
63	4.5142205457621e-05\\
64	4.1991627566735e-05\\
65	8.00948858500009e-05\\
66	3.81440542676241e-05\\
67	3.76868095049413e-05\\
68	0.00869926846851476\\
69	0.000901987518906881\\
70	0.00288192278518746\\
71	8.21501755365147e-05\\
72	0.0156755460628016\\
73	8.55376197869028e-05\\
74	0.0203622638697537\\
75	0.0230254332276717\\
76	0.00735609020362755\\
77	0.0863189935532323\\
78	4.15628378780997e-05\\
79	0.000114585234185068\\
80	0.000102286645813031\\
81	7.66456382129807e-05\\
82	0.0268468874490004\\
83	0.0460252165275146\\
84	0.142831827138808\\
85	0.0932775977186059\\
86	0.126041132308962\\
87	0.205893139502485\\
88	0.596400437409411\\
89	0.125476364298776\\
90	0.0497273340223593\\
91	0.00605481246957006\\
92	0.0348674906277661\\
93	0.0579354590362774\\
94	0.0615157957728019\\
95	4.11485076359344e-05\\
96	0.0117915317335937\\
97	4.60870089932396e-05\\
98	0.0255517469225112\\
99	0.0086163469708424\\
100	0.023128097131261\\
101	0.0201285217395755\\
102	0.0237657315268789\\
103	0.0656972381948524\\
104	0.607975364488284\\
105	0.116773984182525\\
106	0.011256516237491\\
107	0.0501867790756834\\
108	0.0410970893809641\\
109	0.0600066130819944\\
110	0.167846124758742\\
111	0.00437331244905908\\
112	0.0291397937888563\\
113	0.0248639644258395\\
114	0.00398089413359156\\
115	8.12603132677929e-05\\
116	8.9487796241581e-05\\
117	8.12318239151413e-05\\
118	0.000116537304512393\\
119	6.10414441292817e-05\\
120	0.0432543405937721\\
121	0.0466552953703874\\
122	0.0635323913958589\\
123	0.220007828837448\\
124	0.172126675228237\\
125	0.0590965262954328\\
126	0.0369343123303295\\
127	0.00707525713606271\\
128	0.00941354510578152\\
129	0.00178630392082495\\
130	6.63613500553025e-05\\
131	5.46632652118847e-05\\
132	0.000127152992057955\\
133	0.000141649345022609\\
134	0.0001291095106165\\
135	8.59543090010834e-05\\
136	2.78499094955151e-05\\
137	0.000128989888468603\\
138	3.21234530663221e-05\\
139	0.00275952599575936\\
140	0.00272196444355689\\
141	0.000161712872924652\\
142	8.4631718978048e-05\\
143	0.0001186604018385\\
144	0.000106996067729542\\
145	2.97517680099411e-05\\
146	2.96968881524552e-05\\
147	0.000156436699499127\\
148	9.27834434598945e-05\\
149	1.44380254919351e-05\\
150	0.00016296121227717\\
151	5.3947383712656e-05\\
152	4.26762293265154e-06\\
153	3.56527944807033e-05\\
154	0.000154447755187866\\
155	8.2314418882778e-05\\
156	9.37000302450136e-05\\
157	0.000125422908888444\\
158	7.47526770482617e-05\\
159	0.000127744477287576\\
160	0.000132436358894925\\
161	7.32185706173723e-05\\
162	9.76966262369632e-05\\
163	3.75976504426329e-05\\
164	7.69344787293302e-05\\
165	0.00015754001277811\\
166	5.14600695865897e-05\\
167	7.06368136162308e-05\\
168	0.000101446380764722\\
169	7.64333316904785e-05\\
170	0.000103412533739919\\
171	0.000196541594413334\\
172	7.31824444157868e-05\\
173	8.10769951106588e-05\\
174	6.51076671735545e-05\\
175	0.000105842463100849\\
176	5.85120267385842e-05\\
177	8.64883719255721e-05\\
178	8.63724037739292e-05\\
179	4.71838839547322e-05\\
180	5.25220342759702e-05\\
181	8.26413284635096e-05\\
182	8.50304510492444e-05\\
183	5.80940282484188e-05\\
184	3.86405597843012e-05\\
185	3.47429373266231e-05\\
186	8.03509057152188e-05\\
187	0.000115904680053668\\
188	5.52870679895776e-06\\
189	6.48850491803861e-05\\
190	0.000100646859267909\\
191	5.66953872007572e-05\\
192	3.3568206481781e-05\\
193	3.28599247841496e-05\\
194	0.000102389143367232\\
195	4.67695673758575e-05\\
196	5.4994968554904e-05\\
197	8.41917674943169e-05\\
198	0.000105275165858619\\
199	7.18380451725881e-05\\
};
\addlegendentry{$\mathbf{\hat{h}_{1}}$}

\addplot [color=mycolor2]
  table[row sep=crcr]{%
0	1.16663207666187e-05\\
1	4.08511544687684e-05\\
2	1.06464162554733e-05\\
3	2.45421212112241e-05\\
4	1.73943420279753e-05\\
5	1.69786848584586e-05\\
6	6.46981488447064e-06\\
7	1.38321947413704e-05\\
8	1.74935696255553e-05\\
9	2.01731554654898e-05\\
10	1.53114355487178e-05\\
11	1.00492043613231e-05\\
12	1.78234230951307e-05\\
13	2.26857725252707e-05\\
14	8.88588915891322e-06\\
15	2.18754653750864e-05\\
16	1.57500065736419e-05\\
17	4.78577919947534e-05\\
18	1.16632157597301e-05\\
19	1.00707195049375e-05\\
20	1.38426903999415e-05\\
21	1.9582266729673e-05\\
22	4.00136791192166e-05\\
23	2.7031137615644e-05\\
24	8.73213298871318e-06\\
25	2.88856990900051e-05\\
26	1.75387072153973e-05\\
27	2.43700766407511e-05\\
28	2.60374994215158e-05\\
29	3.37208964368291e-05\\
30	1.42243359321368e-05\\
31	2.58044400585349e-05\\
32	3.00733911842562e-05\\
33	2.95051210948258e-05\\
34	2.46317622311958e-05\\
35	2.49504602298456e-05\\
36	6.38322036959357e-06\\
37	9.92754950814847e-06\\
38	1.44440613168359e-05\\
39	1.17668242537269e-05\\
40	3.34681916082591e-05\\
41	1.87608428681433e-05\\
42	1.64523536172857e-05\\
43	1.91555123541063e-05\\
44	4.82921982168755e-05\\
45	4.03187508707683e-05\\
46	3.97312096619424e-05\\
47	4.06309131044859e-05\\
48	1.032448712188e-05\\
49	1.77332187134232e-05\\
50	1.02199370670627e-05\\
51	2.84607375269607e-05\\
52	2.74181297947576e-05\\
53	2.72183131108021e-05\\
54	8.81275268581902e-06\\
55	4.52537678325514e-05\\
56	1.59120602787355e-05\\
57	3.67158353281638e-05\\
58	2.3001730869911e-05\\
59	0.000619388243790653\\
60	0.0126038206198663\\
61	0.00842861332245578\\
62	2.64219744821374e-06\\
63	0.0259547918912149\\
64	0.00879784757331886\\
65	0.00577655238561813\\
66	0.0042641566279127\\
67	0.000585756544815218\\
68	5.21655351479627e-05\\
69	3.93708671941123e-05\\
70	4.79226881809644e-06\\
71	2.99163610287192e-05\\
72	3.18086937075076e-05\\
73	0.00923969666469228\\
74	1.76192009918813e-05\\
75	2.91051081927882e-05\\
76	0.0101771319134165\\
77	0.00917008340745539\\
78	0.00381590412479144\\
79	0.0256928034615308\\
80	0.0312864277624352\\
81	0.0157814514871696\\
82	0.00301328232758555\\
83	0.069013469076663\\
84	0.00559166459516757\\
85	0.000585306155155914\\
86	0.00887801128796176\\
87	0.00111001795302095\\
88	0.00170148760805571\\
89	3.51320880725352e-05\\
90	0.00535524181797065\\
91	0.00802563546948348\\
92	0.00336285555970607\\
93	0.00391862419859675\\
94	0.000261581751290894\\
95	7.02972250503464e-05\\
96	0.0290159317832389\\
97	0.012035551017547\\
98	2.73565863240795e-05\\
99	0.990684616707984\\
100	3.86977817772134e-05\\
101	0.0125962346033985\\
102	0.0295377281890366\\
103	2.63004037425307e-05\\
104	0.000798050863258668\\
105	0.00511467078882401\\
106	0.00278625728285077\\
107	0.00766450409301146\\
108	0.00437845330932229\\
109	0.000124335410361502\\
110	0.00176954471024688\\
111	0.00104918417942918\\
112	0.0090388289013925\\
113	4.76534427617219e-05\\
114	0.00474048321615858\\
115	0.0689264598508986\\
116	0.00281275483351036\\
117	0.0160978275728449\\
118	0.0314009627779214\\
119	0.0262271217511089\\
120	0.0045414556948125\\
121	0.00961797927684601\\
122	0.0106118650042252\\
123	3.67845849512176e-05\\
124	2.05378857729657e-05\\
125	0.00945401462008944\\
126	0.000244431808036975\\
127	4.03487749563127e-05\\
128	4.58783292457317e-06\\
129	3.40148549924563e-05\\
130	5.08919101421186e-05\\
131	0.000337129176108347\\
132	0.00486216136593404\\
133	0.00570498270964216\\
134	0.0086058464320416\\
135	0.0264324143196126\\
136	1.11289453868021e-05\\
137	0.00886858951227439\\
138	0.0131968691634628\\
139	0.00104874079448441\\
140	1.68871110215553e-05\\
141	2.57138771770714e-05\\
142	2.00884413108686e-05\\
143	5.26119157609027e-05\\
144	1.33697175657278e-05\\
145	3.23154743646808e-05\\
146	1.48794141975519e-05\\
147	3.42467830581674e-05\\
148	1.18936472510684e-05\\
149	2.26794535535251e-05\\
150	1.88769351229899e-05\\
151	4.82032591573317e-05\\
152	3.82972257702915e-05\\
153	2.71157103159949e-05\\
154	4.21050775246438e-05\\
155	2.54144778579177e-05\\
156	2.20203883506873e-06\\
157	2.52979346621015e-05\\
158	3.83887949646544e-05\\
159	2.76560875005809e-05\\
160	1.93723308742047e-05\\
161	8.49316822432902e-06\\
162	1.05721250603719e-05\\
163	2.33416490747872e-05\\
164	2.94937148734198e-05\\
165	2.94708537603331e-05\\
166	2.71982153281008e-05\\
167	3.4941191862623e-05\\
168	1.48462137074152e-05\\
169	3.74693776139336e-05\\
170	2.40603997849223e-05\\
171	1.83971338396132e-05\\
172	1.92045079928187e-05\\
173	2.57770817581703e-05\\
174	1.44900951530186e-05\\
175	2.72429282601355e-05\\
176	3.74735102810181e-05\\
177	2.37508973998257e-05\\
178	1.23529896060085e-05\\
179	6.29808961171433e-06\\
180	1.04707178954799e-05\\
181	3.64453114216079e-05\\
182	2.78344035753449e-05\\
183	3.63036633326415e-05\\
184	5.68458175726553e-06\\
185	2.49041640715865e-05\\
186	2.11623917979353e-05\\
187	8.63264919984421e-06\\
188	1.09136004217115e-05\\
189	1.141886579674e-05\\
190	1.19998215583335e-05\\
191	1.21675780322405e-05\\
192	3.27590262496027e-05\\
193	2.4613179094143e-05\\
194	2.10198328644316e-05\\
195	1.22022470854769e-05\\
196	1.10016297106501e-05\\
197	3.76847893076716e-05\\
198	1.40575946781999e-05\\
199	1.16042550483815e-05\\
};
\addlegendentry{$\mathbf{\hat{h}_{2}}$}

\end{axis}
\end{tikzpicture}%