% This file was created by matlab2tikz.
%
%The latest updates can be retrieved from
%  http://www.mathworks.com/matlabcentral/fileexchange/22022-matlab2tikz-matlab2tikz
%where you can also make suggestions and rate matlab2tikz.
%
\definecolor{mycolor1}{rgb}{0.00000,0.44700,0.74100}%
\definecolor{mycolor2}{rgb}{0.85000,0.32500,0.09800}%
%
\begin{tikzpicture}

\begin{axis}[%
width=1.935in,
height=3.2in,
at={(0.758in,0.512in)},
scale only axis,
xmin=0,
xmax=100,
xlabel style={font=\color{white!15!black}, align=center},
xlabel={Sample Index\\[1ex](a) Actual},
ymin=0,
ymax=1,
axis background/.style={fill=white},
legend style={legend cell align=left, align=left, draw=white!15!black}
]
\addplot [color=mycolor1]
  table[row sep=crcr]{%
1	0.0216926152020066\\
2	0.0241183965289278\\
3	0.0267807478156139\\
4	0.0354280601095614\\
5	0.221828667704926\\
6	0.648965745595675\\
7	0.241270440438586\\
8	0.0776642628644082\\
9	0.0581044824071981\\
10	0.0611489366831747\\
11	0.0798140419847986\\
12	0.062735544320507\\
13	0.113011040425493\\
14	0.377485382687519\\
15	0.331649248845691\\
16	0.18615433793772\\
17	0.146493252817741\\
18	0.0847190801249442\\
19	0.0628278567269286\\
20	0.0148364296169451\\
21	0.0250471739922352\\
22	0.0344835915107885\\
23	0.116323790948646\\
24	0.279210940275387\\
25	0.101045410677318\\
26	0.0464379665429307\\
27	0.041398863205924\\
28	0.0263226969199998\\
29	0.0221848789960478\\
30	0.0197642774213948\\
31	0.0186496517239344\\
32	0.0219339353832985\\
33	0.018414044189717\\
34	0.00937919788338426\\
35	0.0100670783096178\\
36	0.0098135024549665\\
37	0.00937197330245933\\
38	0.00884810306396591\\
39	0.00821513429074651\\
40	0.00732026654240377\\
41	0.00945021173361951\\
42	0.0127255218727005\\
43	0.00946415089832864\\
44	0.00862800399957479\\
45	0.00816256372793386\\
46	0.00784857678072338\\
47	0.00764005346579914\\
48	0.00755773656417068\\
49	0.00776075567554332\\
50	0.00986938420958768\\
51	0.00319649311885596\\
52	0.00500292172051245\\
53	0.00524752973649041\\
54	0.00526667690567613\\
55	0.00521575322380608\\
56	0.00513704586881206\\
57	0.00504647235310817\\
58	0.00495116794332671\\
59	0.00485468351773321\\
60	0.00475890010347922\\
61	0.00466484578572566\\
62	0.00457308311118313\\
63	0.00448390798586452\\
64	0.0043974582605137\\
65	0.00431377595094964\\
66	0.00423284428954661\\
67	0.00415461047403326\\
68	0.00407899997367922\\
69	0.00400592569101114\\
70	0.00393529390404367\\
71	0.0038670081481966\\
72	0.00380097175500134\\
73	0.00373708950172093\\
74	0.00367526866536834\\
75	0.00361541967416126\\
76	0.00355745648532918\\
77	0.00350129677649243\\
78	0.00344686201027152\\
79	0.00339407741330312\\
80	0.00334287189828014\\
81	0.0032931779490063\\
82	0.00324493148246751\\
83	0.00319807169773062\\
84	0.003152540918526\\
85	0.00310828443427485\\
86	0.00306525034282854\\
87	0.00302338939712195\\
88	0.00298265485717807\\
89	0.00294300234835571\\
90	0.00290438972634362\\
91	0.0028667769491261\\
92	0.00283012595595264\\
93	0.0027944005532083\\
94	0.00275956630699144\\
95	0.0027255904421446\\
96	0.00269244174744817\\
97	0.00266009048666622\\
98	0.00262850831512411\\
99	0\\
100	0\\
};
\addlegendentry{$\mathbf{h_1}$}

\addplot [color=mycolor2]
  table[row sep=crcr]{%
1	0.00108294891904515\\
2	0.00115806441999571\\
3	0.00125656841390277\\
4	0.00139359850086552\\
5	0.00159676508941691\\
6	0.00191784013184518\\
7	0.00245777585368985\\
8	0.00342819163679349\\
9	0.00533730915065768\\
10	0.00974214709050295\\
11	0.0244449264542886\\
12	0.973731186814765\\
13	0.0500739614470277\\
14	0.0426946282907342\\
15	0.00536788790071817\\
16	0.0362080823589407\\
17	0.176144271962331\\
18	0.115663212635922\\
19	0.0234963057121139\\
20	0.0138738178597906\\
21	0.00966054585381422\\
22	0.00731818549393035\\
23	0.00584139575065055\\
24	0.0048330083027894\\
25	0.00410500747522503\\
26	0.00355723928842746\\
27	0.00313167065616096\\
28	0.00279247304593218\\
29	0.00251639833876938\\
30	0.00228774297450139\\
31	0.00209554142652578\\
32	0.00193191967393617\\
33	0.00179108704155738\\
34	0.00166869616651274\\
35	0\\
36	0\\
37	0\\
38	0\\
39	0\\
40	0\\
41	0\\
42	0\\
43	0\\
44	0\\
45	0\\
46	0\\
47	0\\
48	0\\
49	0\\
50	0\\
51	0\\
52	0\\
53	0\\
54	0\\
55	0\\
56	0\\
57	0\\
58	0\\
59	0\\
60	0\\
61	0\\
62	0\\
63	0\\
64	0\\
65	0\\
66	0\\
67	0\\
68	0\\
69	0\\
70	0\\
71	0\\
72	0\\
73	0\\
74	0\\
75	0\\
76	0\\
77	0\\
78	0\\
79	0\\
80	0\\
81	0\\
82	0\\
83	0\\
84	0\\
85	0\\
86	0\\
87	0\\
88	0\\
89	0\\
90	0\\
91	0\\
92	0\\
93	0\\
94	0\\
95	0\\
96	0\\
97	0\\
98	0\\
99	0\\
100	0\\
};
\addlegendentry{$\mathbf{h_{2}}$}

\end{axis}

\begin{axis}[%
width=1.935in,
height=3.2in,
at={(3.327in,0.512in)},
scale only axis,
xmin=0,
xmax=100,
xlabel style={font=\color{white!15!black}, align=center},
xlabel={Sample Index\\[1ex](b) Estimated},
ymin=0,
ymax=1,
axis background/.style={fill=white},
legend style={legend cell align=left, align=left, draw=white!15!black}
]
\addplot [color=mycolor1]
  table[row sep=crcr]{%
0	0.0127733468311408\\
1	0.0151737048883005\\
2	0.00566015113172259\\
3	0.00414692160178796\\
4	0.0179272364793141\\
5	0.00785652499180719\\
6	0.0121428133588073\\
7	0.0110094817450992\\
8	0.0122950997492282\\
9	0.0190395066649776\\
10	0.0204935122915291\\
11	0.0172085251668384\\
12	0.016516704934076\\
13	0.00542417851869009\\
14	0.00785297507181714\\
15	0.0136010346327346\\
16	0.00998835951653785\\
17	0.0180858789133732\\
18	0.020584733359916\\
19	0.0452171348084683\\
20	0.00847828526980451\\
21	0.0148900130802882\\
22	0.0144979635782038\\
23	0.0146178925739016\\
24	0.0135351481742705\\
25	0.017470861349399\\
26	0.00846852076633401\\
27	0.00636835837198311\\
28	0.00601204781117791\\
29	0.0130587649189409\\
30	0.0109293593629212\\
31	0.0171387050419759\\
32	0.0031140952941041\\
33	0.0183525674572671\\
34	0.00329896379769143\\
35	0.0237750611247826\\
36	0.0463297599675439\\
37	0.0420434065694495\\
38	0.137063503958004\\
39	0.00922460231503127\\
40	0.026058257048259\\
41	0.0306967496793052\\
42	0.203077528347844\\
43	0.642542108574108\\
44	0.180155500548312\\
45	0.0694508330708971\\
46	0.158365041308472\\
47	0.0578274903312002\\
48	0.0694954384251709\\
49	0.0422178061109001\\
50	0.117662685295221\\
51	0.379116322536032\\
52	0.289019813646244\\
53	0.182928406019519\\
54	0.152219968842099\\
55	0.0818152317716108\\
56	0.126316547894528\\
57	0.0221130295151771\\
58	0.0187058592738809\\
59	0.0288618407915019\\
60	0.12626749797952\\
61	0.276388817893841\\
62	0.107445406179574\\
63	0.039546558369191\\
64	0.0496750844913228\\
65	0.0323937011675134\\
66	0.0169511681611351\\
67	0.0071032189507068\\
68	0.019162002931408\\
69	0.0354012335455555\\
70	0.0275437010204249\\
71	0.0159823376345617\\
72	0.0108875835314569\\
73	0.0088755561721767\\
74	0.00364060188652487\\
75	0.0193537179028965\\
76	0.02622415307244\\
77	0.00737446055367567\\
78	0.0230599531540574\\
79	0.0189249270454747\\
80	0.0122590018028824\\
81	0.00899864677288089\\
82	0.0147954889937659\\
83	0.0221423233380551\\
84	0.00430833593778706\\
85	0.0127796047125912\\
86	0.00980960489367716\\
87	0.0194345995863467\\
88	0.00589263928414983\\
89	0.00855348311490875\\
90	0.00941115767601054\\
91	0.0146708093609331\\
92	0.0116503612534255\\
93	0.0139309563204492\\
94	0.012887744771615\\
95	0.00630157268977638\\
96	0.0140816963302085\\
97	0.00614155191932838\\
98	0.0303063239559211\\
99	0.0252957262635837\\
};
\addlegendentry{$\mathbf{\hat{h}_{1}}$}

\addplot [color=mycolor2]
  table[row sep=crcr]{%
0	2.71757744059646e-05\\
1	1.7006560484762e-05\\
2	1.02544135875004e-05\\
3	7.03257520670958e-05\\
4	2.62116083804337e-05\\
5	1.87614770685758e-05\\
6	5.63209143302426e-05\\
7	6.52590876047834e-05\\
8	2.1351897780359e-05\\
9	6.24329835217234e-05\\
10	5.81136051962565e-05\\
11	7.1664054519868e-05\\
12	4.10313645963564e-05\\
13	6.33332265915376e-05\\
14	5.5996035108749e-05\\
15	4.17382952678925e-05\\
16	9.5211316676807e-05\\
17	9.30930912089441e-05\\
18	2.09551521022068e-05\\
19	4.04625334803688e-05\\
20	2.0622175202493e-05\\
21	4.2932992437956e-05\\
22	7.3137864826807e-05\\
23	5.20825777782406e-05\\
24	7.28462957853059e-05\\
25	8.22032029493481e-05\\
26	5.76310377340651e-05\\
27	8.81880527292109e-05\\
28	9.22921627075297e-05\\
29	0.000139121674551638\\
30	9.41949399517955e-05\\
31	0.00069756471793528\\
32	0.000140879226309041\\
33	6.13750937586359e-05\\
34	7.86038781230862e-05\\
35	0.000100119596334265\\
36	0.000177705263856427\\
37	2.48698431448353e-05\\
38	0.000475637617471475\\
39	0.00071824077043137\\
40	0.000229139831318688\\
41	0.000931043016058845\\
42	0.000219203450781614\\
43	5.58733169941263e-05\\
44	0.000205837379335636\\
45	0.000143587453211801\\
46	0.000386049529573353\\
47	0.00040994552409607\\
48	0.000144927178045948\\
49	0.999997208822538\\
50	0.000145109124627466\\
51	0.000409584484623909\\
52	0.000386516469506924\\
53	0.000146517705934571\\
54	0.000209567674386355\\
55	5.54571460755656e-05\\
56	0.000217112757843256\\
57	0.000927454458325307\\
58	0.000226020283258059\\
59	0.000712487259037789\\
60	0.000477460484795613\\
61	2.58607749983409e-05\\
62	0.000178474688438168\\
63	0.000104955105739982\\
64	8.24197639648874e-05\\
65	6.09211732109893e-05\\
66	0.000139986431485609\\
67	0.000694817612177501\\
68	9.25892925126455e-05\\
69	0.000136184354408252\\
70	9.50054791554289e-05\\
71	0.000100142296030111\\
72	6.0471638992989e-05\\
73	6.71374237449462e-05\\
74	6.90857275534497e-05\\
75	3.70745496839784e-05\\
76	6.37853904367928e-05\\
77	3.78678169716272e-05\\
78	1.51723532668575e-05\\
79	4.48774341720076e-05\\
80	2.79687255222162e-05\\
81	8.1361716018422e-05\\
82	9.99765272199293e-05\\
83	3.96752430299799e-05\\
84	4.89261557415111e-05\\
85	6.92316000675438e-05\\
86	3.04192634511787e-05\\
87	6.54117294684017e-05\\
88	6.1649748599774e-05\\
89	5.67401435712691e-05\\
90	2.03328096788637e-05\\
91	4.7702436843646e-05\\
92	6.6942490338394e-05\\
93	4.57947998497955e-05\\
94	2.54915270694946e-05\\
95	8.51364132932785e-05\\
96	1.26956894955461e-05\\
97	1.75435798941113e-05\\
98	1.16422072123024e-05\\
99	2.31197204237554e-05\\
};
\addlegendentry{$\mathbf{\hat{h}_{2}}$}

\end{axis}
\end{tikzpicture}%