% This file was created by matlab2tikz.
%
%The latest updates can be retrieved from
%  http://www.mathworks.com/matlabcentral/fileexchange/22022-matlab2tikz-matlab2tikz
%where you can also make suggestions and rate matlab2tikz.
%
\definecolor{mycolor1}{rgb}{0.00000,0.44700,0.74100}%
\definecolor{mycolor2}{rgb}{0.85000,0.32500,0.09800}%
%
\begin{tikzpicture}

\begin{axis}[%
width=1.935in,
height=3.2in,
at={(0.758in,0.512in)},
scale only axis,
xmin=0,
xmax=100,
xlabel style={font=\color{white!15!black}, align=center},
xlabel={Sample Index\\[1ex](a) Actual},
ymin=0,
ymax=1,
axis background/.style={fill=white},
legend style={legend cell align=left, align=left, draw=white!15!black}
]
\addplot [color=mycolor1]
  table[row sep=crcr]{%
1	0.0216926152020066\\
2	0.0241183965289278\\
3	0.0267807478156139\\
4	0.0354280601095614\\
5	0.221828667704926\\
6	0.648965745595675\\
7	0.241270440438586\\
8	0.0776642628644082\\
9	0.0581044824071981\\
10	0.0611489366831747\\
11	0.0798140419847986\\
12	0.062735544320507\\
13	0.113011040425493\\
14	0.377485382687519\\
15	0.331649248845691\\
16	0.18615433793772\\
17	0.146493252817741\\
18	0.0847190801249442\\
19	0.0628278567269286\\
20	0.0148364296169451\\
21	0.0250471739922352\\
22	0.0344835915107885\\
23	0.116323790948646\\
24	0.279210940275387\\
25	0.101045410677318\\
26	0.0464379665429307\\
27	0.041398863205924\\
28	0.0263226969199998\\
29	0.0221848789960478\\
30	0.0197642774213948\\
31	0.0186496517239344\\
32	0.0219339353832985\\
33	0.018414044189717\\
34	0.00937919788338426\\
35	0.0100670783096178\\
36	0.0098135024549665\\
37	0.00937197330245933\\
38	0.00884810306396591\\
39	0.00821513429074651\\
40	0.00732026654240377\\
41	0.00945021173361951\\
42	0.0127255218727005\\
43	0.00946415089832864\\
44	0.00862800399957479\\
45	0.00816256372793386\\
46	0.00784857678072338\\
47	0.00764005346579914\\
48	0.00755773656417068\\
49	0.00776075567554332\\
50	0.00986938420958768\\
51	0.00319649311885596\\
52	0.00500292172051245\\
53	0.00524752973649041\\
54	0.00526667690567613\\
55	0.00521575322380608\\
56	0.00513704586881206\\
57	0.00504647235310817\\
58	0.00495116794332671\\
59	0.00485468351773321\\
60	0.00475890010347922\\
61	0.00466484578572566\\
62	0.00457308311118313\\
63	0.00448390798586452\\
64	0.0043974582605137\\
65	0.00431377595094964\\
66	0.00423284428954661\\
67	0.00415461047403326\\
68	0.00407899997367922\\
69	0.00400592569101114\\
70	0.00393529390404367\\
71	0.0038670081481966\\
72	0.00380097175500134\\
73	0.00373708950172093\\
74	0.00367526866536834\\
75	0.00361541967416126\\
76	0.00355745648532918\\
77	0.00350129677649243\\
78	0.00344686201027152\\
79	0.00339407741330312\\
80	0.00334287189828014\\
81	0.0032931779490063\\
82	0.00324493148246751\\
83	0.00319807169773062\\
84	0.003152540918526\\
85	0.00310828443427485\\
86	0.00306525034282854\\
87	0.00302338939712195\\
88	0.00298265485717807\\
89	0.00294300234835571\\
90	0.00290438972634362\\
91	0.0028667769491261\\
92	0.00283012595595264\\
93	0.0027944005532083\\
94	0.00275956630699144\\
95	0.0027255904421446\\
96	0.00269244174744817\\
97	0.00266009048666622\\
98	0.00262850831512411\\
99	0\\
100	0\\
};
\addlegendentry{$\mathbf{h_1}$}

\addplot [color=mycolor2]
  table[row sep=crcr]{%
1	0.00108294891904515\\
2	0.00115806441999571\\
3	0.00125656841390277\\
4	0.00139359850086552\\
5	0.00159676508941691\\
6	0.00191784013184518\\
7	0.00245777585368985\\
8	0.00342819163679349\\
9	0.00533730915065768\\
10	0.00974214709050295\\
11	0.0244449264542886\\
12	0.973731186814765\\
13	0.0500739614470277\\
14	0.0426946282907342\\
15	0.00536788790071817\\
16	0.0362080823589407\\
17	0.176144271962331\\
18	0.115663212635922\\
19	0.0234963057121139\\
20	0.0138738178597906\\
21	0.00966054585381422\\
22	0.00731818549393035\\
23	0.00584139575065055\\
24	0.0048330083027894\\
25	0.00410500747522503\\
26	0.00355723928842746\\
27	0.00313167065616096\\
28	0.00279247304593218\\
29	0.00251639833876938\\
30	0.00228774297450139\\
31	0.00209554142652578\\
32	0.00193191967393617\\
33	0.00179108704155738\\
34	0.00166869616651274\\
35	0\\
36	0\\
37	0\\
38	0\\
39	0\\
40	0\\
41	0\\
42	0\\
43	0\\
44	0\\
45	0\\
46	0\\
47	0\\
48	0\\
49	0\\
50	0\\
51	0\\
52	0\\
53	0\\
54	0\\
55	0\\
56	0\\
57	0\\
58	0\\
59	0\\
60	0\\
61	0\\
62	0\\
63	0\\
64	0\\
65	0\\
66	0\\
67	0\\
68	0\\
69	0\\
70	0\\
71	0\\
72	0\\
73	0\\
74	0\\
75	0\\
76	0\\
77	0\\
78	0\\
79	0\\
80	0\\
81	0\\
82	0\\
83	0\\
84	0\\
85	0\\
86	0\\
87	0\\
88	0\\
89	0\\
90	0\\
91	0\\
92	0\\
93	0\\
94	0\\
95	0\\
96	0\\
97	0\\
98	0\\
99	0\\
100	0\\
};
\addlegendentry{$\mathbf{h_{2}}$}

\end{axis}

\begin{axis}[%
width=1.935in,
height=3.2in,
at={(3.327in,0.512in)},
scale only axis,
xmin=0,
xmax=200,
xlabel style={font=\color{white!15!black}, align=center},
xlabel={Sample Index\\[1ex](b) Estimated},
ymin=0,
ymax=0.14,
axis background/.style={fill=white},
legend style={legend cell align=left, align=left, draw=white!15!black}
]
\addplot [color=mycolor1]
  table[row sep=crcr]{%
0	0.00231961408953298\\
1	0.00446106520893719\\
2	0.00635550450703493\\
3	0.0069699588141228\\
4	0.0307200453363465\\
5	0.0855312580307496\\
6	0.0679528151852126\\
7	0.0736199540388895\\
8	0.0706379960109309\\
9	0.0788683990079474\\
10	0.0720775240463656\\
11	0.0793376172966483\\
12	0.0684765540829547\\
13	0.0340624687192561\\
14	0.0672832910813364\\
15	0.0770647557642139\\
16	0.0627173453068741\\
17	0.071449904194827\\
18	0.0782559734908449\\
19	0.0715370351039281\\
20	0.0536292095692058\\
21	0.0668042575702277\\
22	0.0741387055936588\\
23	0.0813136057574946\\
24	0.0816763017898477\\
25	0.0839015615654088\\
26	0.0951386146723241\\
27	0.0949712647206324\\
28	0.0986846580905081\\
29	0.088867855076829\\
30	0.0966246856610194\\
31	0.117938843546878\\
32	0.11580830507908\\
33	0.121826167394515\\
34	0.110728442200966\\
35	0.117672518449576\\
36	0.123390650133821\\
37	0.123105826959399\\
38	0.122301292428276\\
39	0.104100267049679\\
40	0.108314579791867\\
41	0.0931303916395598\\
42	0.0961690006139487\\
43	0.0884469317593398\\
44	0.0966256574347162\\
45	0.107894079341952\\
46	0.0941303637601956\\
47	0.0757966770007401\\
48	0.0823525594596158\\
49	0.0846513657619787\\
50	0.0836485349961216\\
51	0.0779040767543854\\
52	0.0952278023491833\\
53	0.102104561068214\\
54	0.105507385315226\\
55	0.0996103696281895\\
56	0.106623231637657\\
57	0.110798868805793\\
58	0.121208321687201\\
59	0.109072092570994\\
60	0.101301003115644\\
61	0.0940437465096942\\
62	0.105856243847074\\
63	0.108411532247629\\
64	0.105713826448991\\
65	0.0911370615652654\\
66	0.0941631557596325\\
67	0.0866978979805944\\
68	0.0863364670011799\\
69	0.0857874343251444\\
70	0.0866115623656838\\
71	0.0864535070261582\\
72	0.0924679814661178\\
73	0.0856750559350083\\
74	0.0969562517460518\\
75	0.102952443382321\\
76	0.129432572033783\\
77	0.111797135223512\\
78	0.108975066103174\\
79	0.116896593274909\\
80	0.115356128202389\\
81	0.114023512913369\\
82	0.108830478317729\\
83	0.125206013851786\\
84	0.133737232677536\\
85	0.121215707435488\\
86	0.112876995747131\\
87	0.0993943081565636\\
88	0.101562544177697\\
89	0.0935443049127085\\
90	0.102957162830762\\
91	0.0899417620314931\\
92	0.0831565761623583\\
93	0.0977459287922067\\
94	0.0977569568493819\\
95	0.0991998625323396\\
96	0.0992602738736127\\
97	0.103216523171844\\
98	0.0906030971381011\\
99	0.0838536496874915\\
100	0.0888521648350673\\
101	0.0828994925344255\\
102	0.0936711583569844\\
103	0.0989953309708849\\
104	0.0913216117261009\\
105	0.0938481123201805\\
106	0.0978638556563984\\
107	0.101880035873101\\
108	0.0447689408239878\\
109	0.0729591294875819\\
110	0.0770632619668241\\
111	0.0671491016210302\\
112	0.0561785091790314\\
113	0.0519633168981038\\
114	0.0493522897893548\\
115	0.0394596549405339\\
116	0.0652067041479861\\
117	0.0346805782843265\\
118	0.0244493019986997\\
119	0.0308124603834654\\
120	0.0300078379698909\\
121	0.0353669463713054\\
122	0.0368731611889105\\
123	0.0307285085198301\\
124	0.0315919820890582\\
125	0.025101321719125\\
126	0.0175243577951515\\
127	0.0117911871542325\\
128	0.00837637745005324\\
129	0.00679507973575353\\
130	0.00518925553955012\\
131	0.00452748174198444\\
132	0.003769246787053\\
133	0.00337977966620039\\
134	0.00396794024262243\\
135	0.00306262225244943\\
136	0.0032453096890503\\
137	0.00280254748718359\\
138	0.00290365597780687\\
139	0.0026304714521131\\
140	0.00255456368046031\\
141	0.00220919113327197\\
142	0.00190063747871624\\
143	0.00251281496113441\\
144	0.00233486691148481\\
145	0.00236282879775682\\
146	0.00248796575038152\\
147	0.00263967453716721\\
148	0.00271460187047048\\
149	0.00262683161331667\\
150	0.00252560360276182\\
151	0.00236767699047188\\
152	0.00195802988537455\\
153	0.00195422713434381\\
154	0.00183273514197051\\
155	0.00155513463401373\\
156	0.00126662372718835\\
157	0.000999963151998381\\
158	0.000817963569396005\\
159	0.000911045422422636\\
160	0.00117254417391568\\
161	0.00141636193889941\\
162	0.00163814891332591\\
163	0.00180867961910458\\
164	0.00188137295511886\\
165	0.00190002404036369\\
166	0.00183924532175041\\
167	0.00167423106346093\\
168	0.00148182578058615\\
169	0.0011687982149787\\
170	0.000809967513617521\\
171	0.000464055985802205\\
172	0.000202129275278767\\
173	0.000387870034452426\\
174	0.000692237729879337\\
175	0.000947075985924412\\
176	0.00119419451892046\\
177	0.0013929698435427\\
178	0.00152240584088864\\
179	0.00155706901333021\\
180	0.00151629265258373\\
181	0.00139066590232262\\
182	0.00119190025052077\\
183	0.00090791318144443\\
184	0.000622553336099204\\
185	0.000351998285447807\\
186	0.000227798070100032\\
187	0.000465520657217026\\
188	0.000729507026386052\\
189	0.00101383117632067\\
190	0.00122997461154827\\
191	0.00135044018375906\\
192	0.0014079099375861\\
193	0.00137845664658528\\
194	0.00130567898212014\\
195	0.00116200449644239\\
196	0.00097913838833238\\
197	0.000731835599654007\\
198	0.000503434317552967\\
199	0.000269922245541421\\
};
\addlegendentry{$\mathbf{\hat{h}_{1}}$}

\addplot [color=mycolor2]
  table[row sep=crcr]{%
0	0.000113179335227813\\
1	0.000218887420139442\\
2	0.000327749690609584\\
3	0.000463062511928842\\
4	0.000602052091733487\\
5	0.00075386295448648\\
6	0.000933213858659286\\
7	0.00120347618960613\\
8	0.00161571161322843\\
9	0.00234876727154405\\
10	0.00444110141142737\\
11	0.10516748409418\\
12	0.0904335017163967\\
13	0.0860881279894091\\
14	0.0952639082881925\\
15	0.0928040983100347\\
16	0.0800895373251972\\
17	0.0777397677597172\\
18	0.0889245540477119\\
19	0.0942210679424855\\
20	0.0909719680737882\\
21	0.102280107179847\\
22	0.101193124205505\\
23	0.0957122713256249\\
24	0.0909440333049563\\
25	0.105690655486972\\
26	0.0905151177003365\\
27	0.0911682468772447\\
28	0.0866715098822137\\
29	0.0802892204018046\\
30	0.0811611990017364\\
31	0.0793766127573495\\
32	0.0986886839169013\\
33	0.113525936017849\\
34	0.112792923266876\\
35	0.101611665537938\\
36	0.0903819302924993\\
37	0.109075264663757\\
38	0.114459115375609\\
39	0.111363241918847\\
40	0.103947288385866\\
41	0.118263280884782\\
42	0.129365261270433\\
43	0.113469364184988\\
44	0.112549112542554\\
45	0.108097108431783\\
46	0.107274334747657\\
47	0.083002154912894\\
48	0.0891444118187781\\
49	0.0970134503317593\\
50	0.0919837674017467\\
51	0.097562803048534\\
52	0.105076252783134\\
53	0.0965883925659441\\
54	0.095634209328204\\
55	0.0900464634731383\\
56	0.102818593895854\\
57	0.0922561935824531\\
58	0.0945196853693609\\
59	0.1108651008707\\
60	0.110732423289911\\
61	0.0889197895865633\\
62	0.0949803687344877\\
63	0.101405229475049\\
64	0.120635570442128\\
65	0.113254472865045\\
66	0.0943517824360244\\
67	0.0816338339010085\\
68	0.092559884933682\\
69	0.0917455828390373\\
70	0.0929702173309847\\
71	0.0886055960929323\\
72	0.114194128813067\\
73	0.107857232337069\\
74	0.0897812055521371\\
75	0.0981579455508221\\
76	0.108634182480077\\
77	0.093823275164636\\
78	0.100353055898216\\
79	0.103149369826603\\
80	0.120945877469665\\
81	0.109186580111953\\
82	0.125391455786688\\
83	0.124838444643029\\
84	0.116676474166009\\
85	0.109009930453823\\
86	0.112324023469289\\
87	0.101554987359517\\
88	0.0832586751513981\\
89	0.0943369109546417\\
90	0.115192580697321\\
91	0.102135306278989\\
92	0.0913942821817318\\
93	0.077342703134327\\
94	0.0849041878619019\\
95	0.0873106463394477\\
96	0.100143491047228\\
97	0.091307838800109\\
98	0.0854446790836647\\
99	0.10235378180185\\
100	0.0937526942025968\\
101	0.0882297479392678\\
102	0.107306307602764\\
103	0.111753479925653\\
104	0.0959522070321657\\
105	0.08103771650142\\
106	0.0917357887532032\\
107	0.0826575859799312\\
108	0.0760503824686499\\
109	0.0853999644121216\\
110	0.0927379694870055\\
111	0.079221519372758\\
112	0.0754125780543265\\
113	0.0823610564048697\\
114	0.0184261330605995\\
115	0.0169123455696956\\
116	0.00755055187756089\\
117	0.00859574351993135\\
118	0.00808503785843477\\
119	0.0139931775053503\\
120	0.00444651723933167\\
121	0.00269582458105568\\
122	0.00184103412135343\\
123	0.00167926263053067\\
124	0.00130116430331181\\
125	0.00123679299997959\\
126	0.00129672379684107\\
127	0.00125076212204121\\
128	0.0012066012333268\\
129	0.00109283386604277\\
130	0.00097765447315848\\
131	0.000832566808023034\\
132	0.00066948575393842\\
133	0.000495560850330089\\
134	0.000322204778546419\\
135	0.000166808649075182\\
136	3.39232800013801e-06\\
137	3.36156272153138e-07\\
138	6.47359490819247e-07\\
139	3.46013183609175e-06\\
140	8.94943829084817e-06\\
141	1.32554055027488e-05\\
142	7.89241627500894e-06\\
143	3.96498816141054e-06\\
144	9.89864111561352e-07\\
145	2.6727937772578e-06\\
146	1.2043432227654e-06\\
147	7.54017920168453e-07\\
148	1.02997811179447e-06\\
149	2.58498460415493e-06\\
150	6.61613423733922e-06\\
151	8.49878222493108e-06\\
152	2.41574882776053e-06\\
153	1.43633511642253e-06\\
154	8.92019263589041e-07\\
155	1.04540896545611e-06\\
156	8.33978288429328e-07\\
157	4.51597561289522e-07\\
158	1.36785441291186e-06\\
159	6.24169247454861e-07\\
160	1.07761195230945e-06\\
161	9.86332643175629e-07\\
162	8.04864360047927e-07\\
163	3.77645171683555e-07\\
164	6.0860157358715e-07\\
165	1.14039422199212e-06\\
166	9.7924880753319e-07\\
167	1.12754144102131e-06\\
168	6.07177548280911e-07\\
169	6.32734504792956e-07\\
170	1.02410638483212e-06\\
171	4.25521032973945e-07\\
172	2.902570679724e-07\\
173	4.42481600645754e-07\\
174	6.01071394055034e-07\\
175	4.23611018645418e-07\\
176	4.56173659739562e-07\\
177	8.39695768449082e-07\\
178	8.20324703639715e-07\\
179	2.25358947345747e-07\\
180	3.37491690289556e-07\\
181	2.27801950751018e-07\\
182	3.05595752363776e-07\\
183	6.35852870697721e-07\\
184	5.30211042545232e-07\\
185	2.21847062051245e-07\\
186	4.29213229878077e-07\\
187	8.45158351358854e-07\\
188	1.4641498393331e-06\\
189	3.39426010383571e-07\\
190	1.23012575070846e-06\\
191	2.47512113162968e-07\\
192	3.39661592168629e-07\\
193	7.11718596946381e-07\\
194	1.02956369679407e-06\\
195	6.27001131203825e-07\\
196	4.87301571654155e-07\\
197	4.27420129793441e-07\\
198	1.7281925749718e-06\\
199	3.30518510625184e-06\\
};
\addlegendentry{$\mathbf{\hat{h}_{2}}$}

\end{axis}
\end{tikzpicture}%