% This file was created by matlab2tikz.
%
%The latest updates can be retrieved from
%  http://www.mathworks.com/matlabcentral/fileexchange/22022-matlab2tikz-matlab2tikz
%where you can also make suggestions and rate matlab2tikz.
%
\definecolor{mycolor1}{rgb}{0.00000,0.44700,0.74100}%
\definecolor{mycolor2}{rgb}{0.85000,0.32500,0.09800}%
%
\begin{tikzpicture}

\begin{axis}[%
width=1.935in,
height=3.2in,
at={(0.758in,0.512in)},
scale only axis,
xmin=0,
xmax=100,
xlabel style={font=\color{white!15!black}, align=center},
xlabel={Sample Index\\[1ex](a) Actual},
ymin=0,
ymax=1,
axis background/.style={fill=white},
legend style={legend cell align=left, align=left, draw=white!15!black}
]
\addplot [color=mycolor1]
  table[row sep=crcr]{%
1	0.0216926152020066\\
2	0.0241183965289278\\
3	0.0267807478156139\\
4	0.0354280601095614\\
5	0.221828667704926\\
6	0.648965745595675\\
7	0.241270440438586\\
8	0.0776642628644082\\
9	0.0581044824071981\\
10	0.0611489366831747\\
11	0.0798140419847986\\
12	0.062735544320507\\
13	0.113011040425493\\
14	0.377485382687519\\
15	0.331649248845691\\
16	0.18615433793772\\
17	0.146493252817741\\
18	0.0847190801249442\\
19	0.0628278567269286\\
20	0.0148364296169451\\
21	0.0250471739922352\\
22	0.0344835915107885\\
23	0.116323790948646\\
24	0.279210940275387\\
25	0.101045410677318\\
26	0.0464379665429307\\
27	0.041398863205924\\
28	0.0263226969199998\\
29	0.0221848789960478\\
30	0.0197642774213948\\
31	0.0186496517239344\\
32	0.0219339353832985\\
33	0.018414044189717\\
34	0.00937919788338426\\
35	0.0100670783096178\\
36	0.0098135024549665\\
37	0.00937197330245933\\
38	0.00884810306396591\\
39	0.00821513429074651\\
40	0.00732026654240377\\
41	0.00945021173361951\\
42	0.0127255218727005\\
43	0.00946415089832864\\
44	0.00862800399957479\\
45	0.00816256372793386\\
46	0.00784857678072338\\
47	0.00764005346579914\\
48	0.00755773656417068\\
49	0.00776075567554332\\
50	0.00986938420958768\\
51	0.00319649311885596\\
52	0.00500292172051245\\
53	0.00524752973649041\\
54	0.00526667690567613\\
55	0.00521575322380608\\
56	0.00513704586881206\\
57	0.00504647235310817\\
58	0.00495116794332671\\
59	0.00485468351773321\\
60	0.00475890010347922\\
61	0.00466484578572566\\
62	0.00457308311118313\\
63	0.00448390798586452\\
64	0.0043974582605137\\
65	0.00431377595094964\\
66	0.00423284428954661\\
67	0.00415461047403326\\
68	0.00407899997367922\\
69	0.00400592569101114\\
70	0.00393529390404367\\
71	0.0038670081481966\\
72	0.00380097175500134\\
73	0.00373708950172093\\
74	0.00367526866536834\\
75	0.00361541967416126\\
76	0.00355745648532918\\
77	0.00350129677649243\\
78	0.00344686201027152\\
79	0.00339407741330312\\
80	0.00334287189828014\\
81	0.0032931779490063\\
82	0.00324493148246751\\
83	0.00319807169773062\\
84	0.003152540918526\\
85	0.00310828443427485\\
86	0.00306525034282854\\
87	0.00302338939712195\\
88	0.00298265485717807\\
89	0.00294300234835571\\
90	0.00290438972634362\\
91	0.0028667769491261\\
92	0.00283012595595264\\
93	0.0027944005532083\\
94	0.00275956630699144\\
95	0.0027255904421446\\
96	0.00269244174744817\\
97	0.00266009048666622\\
98	0.00262850831512411\\
99	0\\
100	0\\
};
\addlegendentry{$\mathbf{h_1}$}

\addplot [color=mycolor2]
  table[row sep=crcr]{%
1	0.00108294891904515\\
2	0.00115806441999571\\
3	0.00125656841390277\\
4	0.00139359850086552\\
5	0.00159676508941691\\
6	0.00191784013184518\\
7	0.00245777585368985\\
8	0.00342819163679349\\
9	0.00533730915065768\\
10	0.00974214709050295\\
11	0.0244449264542886\\
12	0.973731186814765\\
13	0.0500739614470277\\
14	0.0426946282907342\\
15	0.00536788790071817\\
16	0.0362080823589407\\
17	0.176144271962331\\
18	0.115663212635922\\
19	0.0234963057121139\\
20	0.0138738178597906\\
21	0.00966054585381422\\
22	0.00731818549393035\\
23	0.00584139575065055\\
24	0.0048330083027894\\
25	0.00410500747522503\\
26	0.00355723928842746\\
27	0.00313167065616096\\
28	0.00279247304593218\\
29	0.00251639833876938\\
30	0.00228774297450139\\
31	0.00209554142652578\\
32	0.00193191967393617\\
33	0.00179108704155738\\
34	0.00166869616651274\\
35	0\\
36	0\\
37	0\\
38	0\\
39	0\\
40	0\\
41	0\\
42	0\\
43	0\\
44	0\\
45	0\\
46	0\\
47	0\\
48	0\\
49	0\\
50	0\\
51	0\\
52	0\\
53	0\\
54	0\\
55	0\\
56	0\\
57	0\\
58	0\\
59	0\\
60	0\\
61	0\\
62	0\\
63	0\\
64	0\\
65	0\\
66	0\\
67	0\\
68	0\\
69	0\\
70	0\\
71	0\\
72	0\\
73	0\\
74	0\\
75	0\\
76	0\\
77	0\\
78	0\\
79	0\\
80	0\\
81	0\\
82	0\\
83	0\\
84	0\\
85	0\\
86	0\\
87	0\\
88	0\\
89	0\\
90	0\\
91	0\\
92	0\\
93	0\\
94	0\\
95	0\\
96	0\\
97	0\\
98	0\\
99	0\\
100	0\\
};
\addlegendentry{$\mathbf{h_{2}}$}

\end{axis}

\begin{axis}[%
width=1.935in,
height=3.2in,
at={(3.327in,0.512in)},
scale only axis,
xmin=0,
xmax=60,
xlabel style={font=\color{white!15!black}, align=center},
xlabel={Sample Index\\[1ex](b) Estimated},
ymin=0,
ymax=0.4,
axis background/.style={fill=white},
legend style={legend cell align=left, align=left, draw=white!15!black}
]
\addplot [color=mycolor1]
  table[row sep=crcr]{%
0	0.0122950293605085\\
1	0.0349934217115214\\
2	0.0581777747002293\\
3	0.0722438601799608\\
4	0.116345951197545\\
5	0.189472501492339\\
6	0.246427429105009\\
7	0.265689326770075\\
8	0.234371697128799\\
9	0.182944639477467\\
10	0.154935223155643\\
11	0.149538241190393\\
12	0.15367118690016\\
13	0.217435777573194\\
14	0.310463824579784\\
15	0.372275447314066\\
16	0.352037588659468\\
17	0.263192912139611\\
18	0.147055358590435\\
19	0.0669973731576851\\
20	0.0796434206431542\\
21	0.0697618564453088\\
22	0.0795352182568608\\
23	0.138834740014389\\
24	0.181416481417525\\
25	0.182131876909667\\
26	0.134555329794459\\
27	0.0647178154563379\\
28	0.0345239240075222\\
29	0.0483120435715752\\
30	0.0636984493671361\\
31	0.0397062665307109\\
32	0.0278011913122446\\
33	0.0483821029045299\\
34	0.0620858383131043\\
35	0.0619812282180416\\
36	0.0431882754184814\\
37	0.0201860669732753\\
38	0.00840907329050172\\
39	0.0130903259202\\
40	0.0213338988736646\\
41	0.0249820957178939\\
42	0.0184882452348384\\
43	0.0117733440216079\\
44	0.00446315290946442\\
45	0.002034544663537\\
46	0.00314937779514074\\
47	0.0041234886955994\\
48	0.0030765991169473\\
49	0.00379312712028802\\
50	0.00301379065720012\\
};
\addlegendentry{$\mathbf{\hat{h}_{1}}$}

\addplot [color=mycolor2]
  table[row sep=crcr]{%
0	0.000403753519252204\\
1	0.000675945570867264\\
2	0.000776348723636853\\
3	0.00158071305238849\\
4	0.00324575653587288\\
5	0.00577367765112331\\
6	0.0235152396991048\\
7	0.0534335973861624\\
8	0.0733644116562207\\
9	0.0702677019946277\\
10	0.183974041037578\\
11	0.307594666035976\\
12	0.383790086635692\\
13	0.377080992531209\\
14	0.294507769635371\\
15	0.192254351301982\\
16	0.13360681848707\\
17	0.118653549659402\\
18	0.123165142271937\\
19	0.189403549233944\\
20	0.287349923230402\\
21	0.336015750139428\\
22	0.311475056554886\\
23	0.228787527554081\\
24	0.111882683291273\\
25	0.0358919903845598\\
26	0.0232218400079478\\
27	0.0250615712073521\\
28	0.0249412449005324\\
29	0.0111822099746419\\
30	0.00194725837787024\\
31	0.00802642278920326\\
32	0.0119974110486801\\
33	0.012310590668869\\
34	0.00611774483628765\\
35	0.0039944412335197\\
36	0.00350047109334168\\
37	0.00701057929979486\\
38	0.000851734295645745\\
39	0.0105612323221997\\
40	0.00957612636638912\\
41	0.00861603272923206\\
42	0.00786917128306266\\
43	0.00677687682116854\\
44	0.00311795330945954\\
45	0.0037679088777627\\
46	0.00582305390365572\\
47	0.00751841180493588\\
48	0.00681848081316659\\
49	0.00470682740087114\\
50	0.00206118595737766\\
};
\addlegendentry{$\mathbf{\hat{h}_{2}}$}

\end{axis}
\end{tikzpicture}%