% This file was created by matlab2tikz.
%
%The latest updates can be retrieved from
%  http://www.mathworks.com/matlabcentral/fileexchange/22022-matlab2tikz-matlab2tikz
%where you can also make suggestions and rate matlab2tikz.
%
\definecolor{mycolor1}{rgb}{0.00000,0.44700,0.74100}%
\definecolor{mycolor2}{rgb}{0.85000,0.32500,0.09800}%
%
\begin{tikzpicture}

\begin{axis}[%
width=1.935in,
height=3.2in,
at={(0.758in,0.512in)},
scale only axis,
xmin=0,
xmax=100,
xlabel style={font=\color{white!15!black}, align=center},
xlabel={Sample Index\\[1ex](a) Actual},
ymin=0,
ymax=1,
axis background/.style={fill=white},
legend style={legend cell align=left, align=left, draw=white!15!black}
]
\addplot [color=mycolor1]
  table[row sep=crcr]{%
1	0.0216926152020066\\
2	0.0241183965289278\\
3	0.0267807478156139\\
4	0.0354280601095614\\
5	0.221828667704926\\
6	0.648965745595675\\
7	0.241270440438586\\
8	0.0776642628644082\\
9	0.0581044824071981\\
10	0.0611489366831747\\
11	0.0798140419847986\\
12	0.062735544320507\\
13	0.113011040425493\\
14	0.377485382687519\\
15	0.331649248845691\\
16	0.18615433793772\\
17	0.146493252817741\\
18	0.0847190801249442\\
19	0.0628278567269286\\
20	0.0148364296169451\\
21	0.0250471739922352\\
22	0.0344835915107885\\
23	0.116323790948646\\
24	0.279210940275387\\
25	0.101045410677318\\
26	0.0464379665429307\\
27	0.041398863205924\\
28	0.0263226969199998\\
29	0.0221848789960478\\
30	0.0197642774213948\\
31	0.0186496517239344\\
32	0.0219339353832985\\
33	0.018414044189717\\
34	0.00937919788338426\\
35	0.0100670783096178\\
36	0.0098135024549665\\
37	0.00937197330245933\\
38	0.00884810306396591\\
39	0.00821513429074651\\
40	0.00732026654240377\\
41	0.00945021173361951\\
42	0.0127255218727005\\
43	0.00946415089832864\\
44	0.00862800399957479\\
45	0.00816256372793386\\
46	0.00784857678072338\\
47	0.00764005346579914\\
48	0.00755773656417068\\
49	0.00776075567554332\\
50	0.00986938420958768\\
51	0.00319649311885596\\
52	0.00500292172051245\\
53	0.00524752973649041\\
54	0.00526667690567613\\
55	0.00521575322380608\\
56	0.00513704586881206\\
57	0.00504647235310817\\
58	0.00495116794332671\\
59	0.00485468351773321\\
60	0.00475890010347922\\
61	0.00466484578572566\\
62	0.00457308311118313\\
63	0.00448390798586452\\
64	0.0043974582605137\\
65	0.00431377595094964\\
66	0.00423284428954661\\
67	0.00415461047403326\\
68	0.00407899997367922\\
69	0.00400592569101114\\
70	0.00393529390404367\\
71	0.0038670081481966\\
72	0.00380097175500134\\
73	0.00373708950172093\\
74	0.00367526866536834\\
75	0.00361541967416126\\
76	0.00355745648532918\\
77	0.00350129677649243\\
78	0.00344686201027152\\
79	0.00339407741330312\\
80	0.00334287189828014\\
81	0.0032931779490063\\
82	0.00324493148246751\\
83	0.00319807169773062\\
84	0.003152540918526\\
85	0.00310828443427485\\
86	0.00306525034282854\\
87	0.00302338939712195\\
88	0.00298265485717807\\
89	0.00294300234835571\\
90	0.00290438972634362\\
91	0.0028667769491261\\
92	0.00283012595595264\\
93	0.0027944005532083\\
94	0.00275956630699144\\
95	0.0027255904421446\\
96	0.00269244174744817\\
97	0.00266009048666622\\
98	0.00262850831512411\\
99	0\\
100	0\\
};
\addlegendentry{$\mathbf{h_1}$}

\addplot [color=mycolor2]
  table[row sep=crcr]{%
1	0.00108294891904515\\
2	0.00115806441999571\\
3	0.00125656841390277\\
4	0.00139359850086552\\
5	0.00159676508941691\\
6	0.00191784013184518\\
7	0.00245777585368985\\
8	0.00342819163679349\\
9	0.00533730915065768\\
10	0.00974214709050295\\
11	0.0244449264542886\\
12	0.973731186814765\\
13	0.0500739614470277\\
14	0.0426946282907342\\
15	0.00536788790071817\\
16	0.0362080823589407\\
17	0.176144271962331\\
18	0.115663212635922\\
19	0.0234963057121139\\
20	0.0138738178597906\\
21	0.00966054585381422\\
22	0.00731818549393035\\
23	0.00584139575065055\\
24	0.0048330083027894\\
25	0.00410500747522503\\
26	0.00355723928842746\\
27	0.00313167065616096\\
28	0.00279247304593218\\
29	0.00251639833876938\\
30	0.00228774297450139\\
31	0.00209554142652578\\
32	0.00193191967393617\\
33	0.00179108704155738\\
34	0.00166869616651274\\
35	0\\
36	0\\
37	0\\
38	0\\
39	0\\
40	0\\
41	0\\
42	0\\
43	0\\
44	0\\
45	0\\
46	0\\
47	0\\
48	0\\
49	0\\
50	0\\
51	0\\
52	0\\
53	0\\
54	0\\
55	0\\
56	0\\
57	0\\
58	0\\
59	0\\
60	0\\
61	0\\
62	0\\
63	0\\
64	0\\
65	0\\
66	0\\
67	0\\
68	0\\
69	0\\
70	0\\
71	0\\
72	0\\
73	0\\
74	0\\
75	0\\
76	0\\
77	0\\
78	0\\
79	0\\
80	0\\
81	0\\
82	0\\
83	0\\
84	0\\
85	0\\
86	0\\
87	0\\
88	0\\
89	0\\
90	0\\
91	0\\
92	0\\
93	0\\
94	0\\
95	0\\
96	0\\
97	0\\
98	0\\
99	0\\
100	0\\
};
\addlegendentry{$\mathbf{h_{2}}$}

\end{axis}

\begin{axis}[%
width=1.935in,
height=3.2in,
at={(3.327in,0.512in)},
scale only axis,
xmin=0,
xmax=60,
xlabel style={font=\color{white!15!black}, align=center},
xlabel={Sample Index\\[1ex](b) Estimated},
ymin=0,
ymax=1,
axis background/.style={fill=white},
legend style={legend cell align=left, align=left, draw=white!15!black}
]
\addplot [color=mycolor1]
  table[row sep=crcr]{%
0	0.00613814913172144\\
1	6.27408077432733e-05\\
2	0.000101911849617778\\
3	3.97417661579661e-05\\
4	0.000103001239049722\\
5	2.13315348376451e-05\\
6	5.03770092260615e-05\\
7	0.00325024494624259\\
8	0.0178018573647919\\
9	0.00780098795917229\\
10	0.0116798421892032\\
11	0.0172247964488194\\
12	0.0301700914460091\\
13	0.0920500834454501\\
14	0.0116839414345146\\
15	0.0180213714815931\\
16	0.00655745403618773\\
17	0.187582844308556\\
18	0.691760940092796\\
19	0.201128922206579\\
20	0.0263848576680829\\
21	0.135048421255628\\
22	0.0622371987519315\\
23	0.0917728507360428\\
24	0.0193627839233075\\
25	0.0950393684581593\\
26	0.398013966095178\\
27	0.297670303667976\\
28	0.165192148665636\\
29	0.118986003589417\\
30	0.0592250598821974\\
31	0.0959005878139493\\
32	0.0198026308716808\\
33	0.019195923933233\\
34	0.0360326495065546\\
35	0.106262353814337\\
36	0.273264909986689\\
37	0.0642457158368833\\
38	0.00781602483403763\\
39	0.00192345566795087\\
40	0.00632610186313231\\
41	0.0030958854677009\\
42	0.01034439060355\\
43	0.0110756726567532\\
44	0.0271852762125867\\
45	0.00581296295202513\\
46	0.000184461749876029\\
47	5.16318464465487e-05\\
48	0.000408519502272152\\
49	7.77374673948355e-05\\
50	0.000141024044352592\\
};
\addlegendentry{$\mathbf{\hat{h}_{1}}$}

\addplot [color=mycolor2]
  table[row sep=crcr]{%
0	2.86633076174685e-05\\
1	2.63374595397026e-05\\
2	1.58652578299439e-05\\
3	3.70092313937785e-05\\
4	0.00226762557524329\\
5	0.00323234091230863\\
6	0.0493591733480942\\
7	0.00296767024172487\\
8	0.00801895070920394\\
9	0.00264447987256878\\
10	0.0012796991867156\\
11	0.00366996806443798\\
12	1.09957892846497e-05\\
13	0.0316326903938024\\
14	0.0536960238476562\\
15	0.0129533205899861\\
16	0.0779477511914571\\
17	0.00291787526730922\\
18	0.00125823534885617\\
19	0.0134781333675976\\
20	0.00836511376432627\\
21	0.0168767103211658\\
22	0.0276382698234743\\
23	0.00381557804764483\\
24	0.985733254458684\\
25	0.00311753848676258\\
26	0.0278336184648026\\
27	0.0184799961103301\\
28	0.00867319239513116\\
29	0.0132207244309763\\
30	0.00100990219323757\\
31	0.0022910630552437\\
32	0.078067206349693\\
33	0.013075609846835\\
34	0.0542421430312922\\
35	0.0327680413516982\\
36	9.18956700251275e-06\\
37	0.00393537856620312\\
38	0.00199559813416056\\
39	0.00351601355470647\\
40	0.00812969322872698\\
41	0.00317482966572929\\
42	0.050401306107788\\
43	0.0028563551104198\\
44	0.00216502019441772\\
45	2.81156024918818e-05\\
46	2.44692030614638e-05\\
47	1.89362750776553e-05\\
48	3.49185162060888e-05\\
49	7.94674317794389e-05\\
50	0.00234838149654876\\
};
\addlegendentry{$\mathbf{\hat{h}_{2}}$}

\end{axis}
\end{tikzpicture}%