% This file was created by matlab2tikz.
%
%The latest updates can be retrieved from
%  http://www.mathworks.com/matlabcentral/fileexchange/22022-matlab2tikz-matlab2tikz
%where you can also make suggestions and rate matlab2tikz.
%
\definecolor{mycolor1}{rgb}{0.00000,0.44700,0.74100}%
\definecolor{mycolor2}{rgb}{0.85000,0.32500,0.09800}%
%
\begin{tikzpicture}

\begin{axis}[%
width=1.935in,
height=3.2in,
at={(0.758in,0.512in)},
scale only axis,
xmin=0,
xmax=100,
xlabel style={font=\color{white!15!black}, align=center},
xlabel={Sample Index\\[1ex](a) Actual},
ymin=0,
ymax=1,
axis background/.style={fill=white},
legend style={legend cell align=left, align=left, draw=white!15!black}
]
\addplot [color=mycolor1]
  table[row sep=crcr]{%
1	0.0216926152020066\\
2	0.0241183965289278\\
3	0.0267807478156139\\
4	0.0354280601095614\\
5	0.221828667704926\\
6	0.648965745595675\\
7	0.241270440438586\\
8	0.0776642628644082\\
9	0.0581044824071981\\
10	0.0611489366831747\\
11	0.0798140419847986\\
12	0.062735544320507\\
13	0.113011040425493\\
14	0.377485382687519\\
15	0.331649248845691\\
16	0.18615433793772\\
17	0.146493252817741\\
18	0.0847190801249442\\
19	0.0628278567269286\\
20	0.0148364296169451\\
21	0.0250471739922352\\
22	0.0344835915107885\\
23	0.116323790948646\\
24	0.279210940275387\\
25	0.101045410677318\\
26	0.0464379665429307\\
27	0.041398863205924\\
28	0.0263226969199998\\
29	0.0221848789960478\\
30	0.0197642774213948\\
31	0.0186496517239344\\
32	0.0219339353832985\\
33	0.018414044189717\\
34	0.00937919788338426\\
35	0.0100670783096178\\
36	0.0098135024549665\\
37	0.00937197330245933\\
38	0.00884810306396591\\
39	0.00821513429074651\\
40	0.00732026654240377\\
41	0.00945021173361951\\
42	0.0127255218727005\\
43	0.00946415089832864\\
44	0.00862800399957479\\
45	0.00816256372793386\\
46	0.00784857678072338\\
47	0.00764005346579914\\
48	0.00755773656417068\\
49	0.00776075567554332\\
50	0.00986938420958768\\
51	0.00319649311885596\\
52	0.00500292172051245\\
53	0.00524752973649041\\
54	0.00526667690567613\\
55	0.00521575322380608\\
56	0.00513704586881206\\
57	0.00504647235310817\\
58	0.00495116794332671\\
59	0.00485468351773321\\
60	0.00475890010347922\\
61	0.00466484578572566\\
62	0.00457308311118313\\
63	0.00448390798586452\\
64	0.0043974582605137\\
65	0.00431377595094964\\
66	0.00423284428954661\\
67	0.00415461047403326\\
68	0.00407899997367922\\
69	0.00400592569101114\\
70	0.00393529390404367\\
71	0.0038670081481966\\
72	0.00380097175500134\\
73	0.00373708950172093\\
74	0.00367526866536834\\
75	0.00361541967416126\\
76	0.00355745648532918\\
77	0.00350129677649243\\
78	0.00344686201027152\\
79	0.00339407741330312\\
80	0.00334287189828014\\
81	0.0032931779490063\\
82	0.00324493148246751\\
83	0.00319807169773062\\
84	0.003152540918526\\
85	0.00310828443427485\\
86	0.00306525034282854\\
87	0.00302338939712195\\
88	0.00298265485717807\\
89	0.00294300234835571\\
90	0.00290438972634362\\
91	0.0028667769491261\\
92	0.00283012595595264\\
93	0.0027944005532083\\
94	0.00275956630699144\\
95	0.0027255904421446\\
96	0.00269244174744817\\
97	0.00266009048666622\\
98	0.00262850831512411\\
99	0\\
100	0\\
};
\addlegendentry{$\mathbf{h_1}$}

\addplot [color=mycolor2]
  table[row sep=crcr]{%
1	0.00108294891904515\\
2	0.00115806441999571\\
3	0.00125656841390277\\
4	0.00139359850086552\\
5	0.00159676508941691\\
6	0.00191784013184518\\
7	0.00245777585368985\\
8	0.00342819163679349\\
9	0.00533730915065768\\
10	0.00974214709050295\\
11	0.0244449264542886\\
12	0.973731186814765\\
13	0.0500739614470277\\
14	0.0426946282907342\\
15	0.00536788790071817\\
16	0.0362080823589407\\
17	0.176144271962331\\
18	0.115663212635922\\
19	0.0234963057121139\\
20	0.0138738178597906\\
21	0.00966054585381422\\
22	0.00731818549393035\\
23	0.00584139575065055\\
24	0.0048330083027894\\
25	0.00410500747522503\\
26	0.00355723928842746\\
27	0.00313167065616096\\
28	0.00279247304593218\\
29	0.00251639833876938\\
30	0.00228774297450139\\
31	0.00209554142652578\\
32	0.00193191967393617\\
33	0.00179108704155738\\
34	0.00166869616651274\\
35	0\\
36	0\\
37	0\\
38	0\\
39	0\\
40	0\\
41	0\\
42	0\\
43	0\\
44	0\\
45	0\\
46	0\\
47	0\\
48	0\\
49	0\\
50	0\\
51	0\\
52	0\\
53	0\\
54	0\\
55	0\\
56	0\\
57	0\\
58	0\\
59	0\\
60	0\\
61	0\\
62	0\\
63	0\\
64	0\\
65	0\\
66	0\\
67	0\\
68	0\\
69	0\\
70	0\\
71	0\\
72	0\\
73	0\\
74	0\\
75	0\\
76	0\\
77	0\\
78	0\\
79	0\\
80	0\\
81	0\\
82	0\\
83	0\\
84	0\\
85	0\\
86	0\\
87	0\\
88	0\\
89	0\\
90	0\\
91	0\\
92	0\\
93	0\\
94	0\\
95	0\\
96	0\\
97	0\\
98	0\\
99	0\\
100	0\\
};
\addlegendentry{$\mathbf{h_{2}}$}

\end{axis}

\begin{axis}[%
width=1.935in,
height=3.2in,
at={(3.327in,0.512in)},
scale only axis,
xmin=0,
xmax=110,
xlabel style={font=\color{white!15!black}, align=center},
xlabel={Sample Index\\[1ex](b) Estimated},
ymin=0,
ymax=1,
axis background/.style={fill=white},
legend style={legend cell align=left, align=left, draw=white!15!black}
]
\addplot [color=mycolor1]
  table[row sep=crcr]{%
0	0.000859825082150412\\
1	0.00113119176827114\\
2	0.00148302530612293\\
3	0.00240741956816988\\
4	0.000964948642610386\\
5	0.00200798467238774\\
6	0.000530112107912093\\
7	0.00106294905738702\\
8	0.000739664642861878\\
9	0.00129392913137702\\
10	0.000793104120272773\\
11	0.000690817150532916\\
12	0.000863496903666243\\
13	0.00120948459116809\\
14	0.00133720310171034\\
15	0.000769719978478958\\
16	0.00288769827233414\\
17	0.000366088639455663\\
18	0.00124427371582079\\
19	0.00183141258078958\\
20	0.00162708208404211\\
21	0.001767201423692\\
22	0.00138837072359328\\
23	0.00155363124501995\\
24	0.00377625869817097\\
25	0.00173508098418734\\
26	0.000996261562964264\\
27	0.00320313836294367\\
28	0.00366023979387517\\
29	0.00885697357766964\\
30	0.0199095171264472\\
31	0.00457714949300081\\
32	0.00693030069281788\\
33	0.00618755464936694\\
34	0.006952523500998\\
35	0.00776637424523158\\
36	0.00875245112232068\\
37	0.0170524414746504\\
38	0.0322773947993604\\
39	0.0204374566170147\\
40	0.0228797501475177\\
41	0.0340028410207891\\
42	0.0462867674021357\\
43	0.106626440217831\\
44	0.0281765941398319\\
45	0.031315208109302\\
46	0.0259831467450358\\
47	0.193187445000574\\
48	0.660187450525191\\
49	0.209153057582452\\
50	0.043417792460315\\
51	0.146767411302308\\
52	0.0741496899792767\\
53	0.101334277301673\\
54	0.0373513984787958\\
55	0.105227532019035\\
56	0.39250367629245\\
57	0.293764143542609\\
58	0.172853616189922\\
59	0.129718628233243\\
60	0.0718292526944121\\
61	0.105601587238599\\
62	0.0312960886608515\\
63	0.0374488610533728\\
64	0.0508180643212654\\
65	0.118247923866058\\
66	0.272869932372113\\
67	0.078926135279099\\
68	0.0247466953779425\\
69	0.021056083097508\\
70	0.0231899207115061\\
71	0.0204996176425624\\
72	0.0275567907697378\\
73	0.030154990595135\\
74	0.0428267270525991\\
75	0.0220650943639298\\
76	0.00601479063025256\\
77	0.00460720136717462\\
78	0.015888005561082\\
79	0.0135463705508665\\
80	0.00857336083721551\\
81	0.0104165400853657\\
82	0.00926125328894632\\
83	0.0127556839890234\\
84	0.00981890757226309\\
85	0.0118222371213557\\
86	0.00978971633090872\\
87	0.00616849883086034\\
88	0.00885895351653\\
89	0.00861462745851379\\
90	0.00953584384852145\\
91	0.00996031038598179\\
92	0.0109716347876246\\
93	0.0041947266044322\\
94	0.00554138297913293\\
95	0.00550426782091982\\
96	0.00506039967646333\\
97	0.00515817917851638\\
98	0.00485381009161281\\
99	0.00584137355976735\\
100	0.00512082624603446\\
101	0.00488925664556466\\
102	0.00455382013438397\\
103	0.00467626348896122\\
104	0.00335878825770048\\
105	0.00424457164652883\\
106	0.00415737176549422\\
107	0.00486081190088008\\
108	0.0027859409241283\\
109	0.00309886420303124\\
110	0.00637518770939698\\
};
\addlegendentry{$\mathbf{\hat{h}_{1}}$}

\addplot [color=mycolor2]
  table[row sep=crcr]{%
0	0.000850176494443314\\
1	0.000182994122924188\\
2	0.000536764117443437\\
3	0.000632681342985161\\
4	0.000589158970867502\\
5	0.000363663912851688\\
6	0.000597057429013722\\
7	0.00115089505337956\\
8	0.000797820685510998\\
9	0.000775265665087359\\
10	0.00202201521632213\\
11	0.00127693842690024\\
12	0.00148582702287336\\
13	0.0010720601253872\\
14	0.000692707550886574\\
15	0.00124813887801071\\
16	0.00164041368220833\\
17	0.00140824232940062\\
18	0.0014437269369244\\
19	0.000550137416667822\\
20	0.00329772085643599\\
21	0.00223575651073939\\
22	0.001665345018632\\
23	0.0020803581833378\\
24	0.00193999138805672\\
25	0.00122248367414049\\
26	0.00318074103468727\\
27	0.00373257472308356\\
28	0.00582595124905903\\
29	0.00441524739030273\\
30	0.00268241832463384\\
31	0.00229120547732959\\
32	0.00170023046475127\\
33	0.00226623364532072\\
34	0.00760719045201922\\
35	0.00723441738686733\\
36	0.048403125835547\\
37	0.00847986702097293\\
38	0.0113472725766322\\
39	0.00751237928981\\
40	0.00573380281374271\\
41	0.008327176959208\\
42	0.000999818818847496\\
43	0.0330566255099816\\
44	0.0513109606379336\\
45	0.0157049168689809\\
46	0.0728027686055449\\
47	0.00770849518887768\\
48	0.00443928034481873\\
49	0.0156200959389017\\
50	0.0123397353969713\\
51	0.0212353478510325\\
52	0.0294986182946959\\
53	0.00703701636212114\\
54	0.985819246435666\\
55	0.00703844867301925\\
56	0.0294987860803363\\
57	0.0212306022267743\\
58	0.0123419479449703\\
59	0.0156159880848053\\
60	0.00443860884109268\\
61	0.00770824735964334\\
62	0.0728063770403262\\
63	0.0156938615279375\\
64	0.0513063273020631\\
65	0.0330538126986278\\
66	0.000989769505367144\\
67	0.00833555668211879\\
68	0.00573549040728977\\
69	0.00750782567729094\\
70	0.0113360147997871\\
71	0.0084916388209207\\
72	0.0484013348104432\\
73	0.00724605150874645\\
74	0.00759273628739476\\
75	0.00225538226481622\\
76	0.00168634533946699\\
77	0.00228999765079965\\
78	0.00269010976933775\\
79	0.00439369593066819\\
80	0.00583475689576721\\
81	0.00371215229599578\\
82	0.0031912771211639\\
83	0.00121908345904165\\
84	0.00191234971858474\\
85	0.00207594743174721\\
86	0.00164233720569063\\
87	0.0022150326826594\\
88	0.00325503073631882\\
89	0.000555495301758934\\
90	0.0014211042110262\\
91	0.0013902337969263\\
92	0.00161394154943523\\
93	0.00123181946910743\\
94	0.000653233613829469\\
95	0.0010389746578491\\
96	0.00146404797801675\\
97	0.00125643082212471\\
98	0.00200698658388843\\
99	0.00077442345381649\\
100	0.00080645310150877\\
101	0.00117102499353547\\
102	0.000627200985290598\\
103	0.000287642916968105\\
104	0.000531419879979267\\
105	0.000626580036090433\\
106	0.000532738617069787\\
107	0.000220246404089894\\
108	0.000724009566145177\\
109	0.000556064431327271\\
110	0.000711729379599794\\
};
\addlegendentry{$\mathbf{\hat{h}_{2}}$}

\end{axis}
\end{tikzpicture}%