% This file was created by matlab2tikz.
%
%The latest updates can be retrieved from
%  http://www.mathworks.com/matlabcentral/fileexchange/22022-matlab2tikz-matlab2tikz
%where you can also make suggestions and rate matlab2tikz.
%
\definecolor{mycolor1}{rgb}{0.00000,0.44700,0.74100}%
\definecolor{mycolor2}{rgb}{0.85000,0.32500,0.09800}%
%
\begin{tikzpicture}

\begin{axis}[%
width=1.935in,
height=3.2in,
at={(0.758in,0.512in)},
scale only axis,
xmin=0,
xmax=100,
xlabel style={font=\color{white!15!black}, align=center},
xlabel={Sample Index\\[1ex](a) Actual},
ymin=0,
ymax=1,
axis background/.style={fill=white},
legend style={legend cell align=left, align=left, draw=white!15!black}
]
\addplot [color=mycolor1]
  table[row sep=crcr]{%
1	0.0216926152020066\\
2	0.0241183965289278\\
3	0.0267807478156139\\
4	0.0354280601095614\\
5	0.221828667704926\\
6	0.648965745595675\\
7	0.241270440438586\\
8	0.0776642628644082\\
9	0.0581044824071981\\
10	0.0611489366831747\\
11	0.0798140419847986\\
12	0.062735544320507\\
13	0.113011040425493\\
14	0.377485382687519\\
15	0.331649248845691\\
16	0.18615433793772\\
17	0.146493252817741\\
18	0.0847190801249442\\
19	0.0628278567269286\\
20	0.0148364296169451\\
21	0.0250471739922352\\
22	0.0344835915107885\\
23	0.116323790948646\\
24	0.279210940275387\\
25	0.101045410677318\\
26	0.0464379665429307\\
27	0.041398863205924\\
28	0.0263226969199998\\
29	0.0221848789960478\\
30	0.0197642774213948\\
31	0.0186496517239344\\
32	0.0219339353832985\\
33	0.018414044189717\\
34	0.00937919788338426\\
35	0.0100670783096178\\
36	0.0098135024549665\\
37	0.00937197330245933\\
38	0.00884810306396591\\
39	0.00821513429074651\\
40	0.00732026654240377\\
41	0.00945021173361951\\
42	0.0127255218727005\\
43	0.00946415089832864\\
44	0.00862800399957479\\
45	0.00816256372793386\\
46	0.00784857678072338\\
47	0.00764005346579914\\
48	0.00755773656417068\\
49	0.00776075567554332\\
50	0.00986938420958768\\
51	0.00319649311885596\\
52	0.00500292172051245\\
53	0.00524752973649041\\
54	0.00526667690567613\\
55	0.00521575322380608\\
56	0.00513704586881206\\
57	0.00504647235310817\\
58	0.00495116794332671\\
59	0.00485468351773321\\
60	0.00475890010347922\\
61	0.00466484578572566\\
62	0.00457308311118313\\
63	0.00448390798586452\\
64	0.0043974582605137\\
65	0.00431377595094964\\
66	0.00423284428954661\\
67	0.00415461047403326\\
68	0.00407899997367922\\
69	0.00400592569101114\\
70	0.00393529390404367\\
71	0.0038670081481966\\
72	0.00380097175500134\\
73	0.00373708950172093\\
74	0.00367526866536834\\
75	0.00361541967416126\\
76	0.00355745648532918\\
77	0.00350129677649243\\
78	0.00344686201027152\\
79	0.00339407741330312\\
80	0.00334287189828014\\
81	0.0032931779490063\\
82	0.00324493148246751\\
83	0.00319807169773062\\
84	0.003152540918526\\
85	0.00310828443427485\\
86	0.00306525034282854\\
87	0.00302338939712195\\
88	0.00298265485717807\\
89	0.00294300234835571\\
90	0.00290438972634362\\
91	0.0028667769491261\\
92	0.00283012595595264\\
93	0.0027944005532083\\
94	0.00275956630699144\\
95	0.0027255904421446\\
96	0.00269244174744817\\
97	0.00266009048666622\\
98	0.00262850831512411\\
99	0\\
100	0\\
};
\addlegendentry{$\mathbf{h_1}$}

\addplot [color=mycolor2]
  table[row sep=crcr]{%
1	0.00108294891904515\\
2	0.00115806441999571\\
3	0.00125656841390277\\
4	0.00139359850086552\\
5	0.00159676508941691\\
6	0.00191784013184518\\
7	0.00245777585368985\\
8	0.00342819163679349\\
9	0.00533730915065768\\
10	0.00974214709050295\\
11	0.0244449264542886\\
12	0.973731186814765\\
13	0.0500739614470277\\
14	0.0426946282907342\\
15	0.00536788790071817\\
16	0.0362080823589407\\
17	0.176144271962331\\
18	0.115663212635922\\
19	0.0234963057121139\\
20	0.0138738178597906\\
21	0.00966054585381422\\
22	0.00731818549393035\\
23	0.00584139575065055\\
24	0.0048330083027894\\
25	0.00410500747522503\\
26	0.00355723928842746\\
27	0.00313167065616096\\
28	0.00279247304593218\\
29	0.00251639833876938\\
30	0.00228774297450139\\
31	0.00209554142652578\\
32	0.00193191967393617\\
33	0.00179108704155738\\
34	0.00166869616651274\\
35	0\\
36	0\\
37	0\\
38	0\\
39	0\\
40	0\\
41	0\\
42	0\\
43	0\\
44	0\\
45	0\\
46	0\\
47	0\\
48	0\\
49	0\\
50	0\\
51	0\\
52	0\\
53	0\\
54	0\\
55	0\\
56	0\\
57	0\\
58	0\\
59	0\\
60	0\\
61	0\\
62	0\\
63	0\\
64	0\\
65	0\\
66	0\\
67	0\\
68	0\\
69	0\\
70	0\\
71	0\\
72	0\\
73	0\\
74	0\\
75	0\\
76	0\\
77	0\\
78	0\\
79	0\\
80	0\\
81	0\\
82	0\\
83	0\\
84	0\\
85	0\\
86	0\\
87	0\\
88	0\\
89	0\\
90	0\\
91	0\\
92	0\\
93	0\\
94	0\\
95	0\\
96	0\\
97	0\\
98	0\\
99	0\\
100	0\\
};
\addlegendentry{$\mathbf{h_{2}}$}

\end{axis}

\begin{axis}[%
width=1.935in,
height=3.2in,
at={(3.327in,0.512in)},
scale only axis,
xmin=0,
xmax=100,
xlabel style={font=\color{white!15!black}, align=center},
xlabel={Sample Index\\[1ex](b) Estimated},
ymin=0,
ymax=1,
axis background/.style={fill=white},
legend style={legend cell align=left, align=left, draw=white!15!black}
]
\addplot [color=mycolor1]
  table[row sep=crcr]{%
0	0.000387717473649774\\
1	0.000539453631203377\\
2	0.000299243316864692\\
3	0.00297427461769422\\
4	0.00145976471801647\\
5	0.000834453051235691\\
6	0.000389608402095419\\
7	0.000493792513180158\\
8	0.000914653489785812\\
9	0.000928616937292262\\
10	0.000610892589408648\\
11	0.00163570229613038\\
12	0.00048211629731529\\
13	0.00402697489875563\\
14	0.000887140784573058\\
15	0.00274446421618702\\
16	0.00270354565080913\\
17	0.00225603389683985\\
18	0.00242080777885067\\
19	0.00874853748474431\\
20	0.0207236159241035\\
21	0.000576397738361626\\
22	0.00885885763209665\\
23	0.00654334911564405\\
24	0.00528856510321867\\
25	0.0077604402482393\\
26	0.00879506898927726\\
27	0.0159615205205355\\
28	0.0332295327187212\\
29	0.0209754959128988\\
30	0.0227053346149332\\
31	0.0336439309441848\\
32	0.0460649641616721\\
33	0.106321997729404\\
34	0.0305986359333706\\
35	0.0333862395993786\\
36	0.023735445673582\\
37	0.192290599783095\\
38	0.661007411743247\\
39	0.208123852465594\\
40	0.045117284127217\\
41	0.142992197931963\\
42	0.074083220682081\\
43	0.104750298515103\\
44	0.0351754066214139\\
45	0.105933905037775\\
46	0.390465468045325\\
47	0.294280840975628\\
48	0.174265103581682\\
49	0.130479380121437\\
50	0.0715848737328483\\
51	0.107601223666889\\
52	0.0336114700007037\\
53	0.0377694600183991\\
54	0.0516859763320287\\
55	0.117034612619209\\
56	0.273515638427026\\
57	0.0790334936937251\\
58	0.0225095582957942\\
59	0.0188476568314984\\
60	0.0241344483315699\\
61	0.0194205900332626\\
62	0.0273944348046756\\
63	0.0332700025477045\\
64	0.0418374099773096\\
65	0.0224743705289965\\
66	0.00643634618939707\\
67	0.0071365558540838\\
68	0.0153092317555833\\
69	0.0154836017382645\\
70	0.00897187950507883\\
71	0.00655441883326018\\
72	0.00871938032060521\\
73	0.0130287840221602\\
74	0.00783923133801111\\
75	0.0122355646028419\\
76	0.0103103326992516\\
77	0.00904085450281489\\
78	0.00876837024227636\\
79	0.00871116948248684\\
80	0.00889585809588095\\
81	0.00835881897689534\\
82	0.0107089052434766\\
83	0.00425152680897719\\
84	0.00509100390064303\\
85	0.00719386439941734\\
86	0.00499991136233383\\
87	0.00506561156725765\\
88	0.00579530060869109\\
89	0.00307902136132536\\
90	0.00419755886056544\\
};
\addlegendentry{$\mathbf{\hat{h}_{1}}$}

\addplot [color=mycolor2]
  table[row sep=crcr]{%
0	0.00110874179479227\\
1	0.0014679038733093\\
2	0.00131581869685657\\
3	0.00148279058943379\\
4	0.000949872299116802\\
5	0.00147707506988068\\
6	0.00143680505728866\\
7	0.00145422587339715\\
8	0.000951802522697524\\
9	0.000670295910306719\\
10	0.00263733366820375\\
11	0.00164730759483264\\
12	0.00220009132381445\\
13	0.00276397405395196\\
14	0.00182604031119763\\
15	0.00130504922881666\\
16	0.00379724208598419\\
17	0.00396946084632172\\
18	0.00598060755050829\\
19	0.00470259296253317\\
20	0.00284852984460659\\
21	0.00295438065230012\\
22	0.00164965166124917\\
23	0.00260920506368209\\
24	0.00729155380220588\\
25	0.00755526961882796\\
26	0.0501400495427789\\
27	0.00791086257025692\\
28	0.0116154482000587\\
29	0.0079802840408537\\
30	0.00670000006829681\\
31	0.00866534817958864\\
32	0.000851638798915848\\
33	0.0348506443446981\\
34	0.0525627412205211\\
35	0.0170602243258942\\
36	0.0750189911698876\\
37	0.00773721673572683\\
38	0.00484751062587601\\
39	0.0167248883629507\\
40	0.0125805508161151\\
41	0.0210989576609931\\
42	0.0305130090565179\\
43	0.00748328151880169\\
44	0.984873811396276\\
45	0.0074881589885877\\
46	0.030509586896078\\
47	0.0210882281092416\\
48	0.0125770876580081\\
49	0.0167229712345968\\
50	0.00484586774718744\\
51	0.00774214502262423\\
52	0.0750274639747425\\
53	0.0170541385665042\\
54	0.052559400908951\\
55	0.0348333792490754\\
56	0.000866763403253356\\
57	0.00867061337592797\\
58	0.0066850285069579\\
59	0.00796262298372051\\
60	0.0116051114569049\\
61	0.00792908027406106\\
62	0.0501413186211919\\
63	0.00759366131738239\\
64	0.00729053984874542\\
65	0.00259475236162686\\
66	0.00161316888198988\\
67	0.00291754223609766\\
68	0.00284090872021696\\
69	0.004683157745326\\
70	0.00597922457857549\\
71	0.00394788255753568\\
72	0.00375984078407073\\
73	0.00127741553443558\\
74	0.00176422022562197\\
75	0.0026949381071193\\
76	0.00214521984515406\\
77	0.0015936483444043\\
78	0.00260469943663757\\
79	0.000674168893995844\\
80	0.000953264275593706\\
81	0.00142290786279006\\
82	0.00136215513517834\\
83	0.00140267504338637\\
84	0.000953248776263856\\
85	0.00138597866657988\\
86	0.00122574535347411\\
87	0.0013362106884965\\
88	0.00099434609425253\\
89	0.000962108996932013\\
90	0.000497840664827819\\
};
\addlegendentry{$\mathbf{\hat{h}_{2}}$}

\end{axis}
\end{tikzpicture}%