% This file was created by matlab2tikz.
%
%The latest updates can be retrieved from
%  http://www.mathworks.com/matlabcentral/fileexchange/22022-matlab2tikz-matlab2tikz
%where you can also make suggestions and rate matlab2tikz.
%
\definecolor{mycolor1}{rgb}{0.00000,0.44700,0.74100}%
\definecolor{mycolor2}{rgb}{0.85000,0.32500,0.09800}%
%
\begin{tikzpicture}

\begin{axis}[%
width=1.972in,
height=3.2in,
at={(0.772in,0.512in)},
scale only axis,
xmin=0,
xmax=150,
xlabel style={font=\color{white!15!black}, align=center},
xlabel={Sample Index\\[1ex](a) Actual},
ymin=0,
ymax=0.7,
axis background/.style={fill=white},
legend style={legend cell align=left, align=left, draw=white!15!black}
]
\addplot [color=mycolor1]
  table[row sep=crcr]{%
1	0.0234657806037261\\
2	0.0272334504034075\\
3	0.0326864300765018\\
4	0.0414541482980318\\
5	0.0586677033458464\\
6	0.117843438362983\\
7	0.159969331461504\\
8	0.174397116945152\\
9	0.616552810702634\\
10	0.0882137642931462\\
11	0.0472681903124796\\
12	0.0327587509505929\\
13	0.0272256709659274\\
14	0.0412344622245766\\
15	0.0186762848129325\\
16	0.0451940046978057\\
17	0.0153724087875252\\
18	0.0239672675363248\\
19	0.0400285717874473\\
20	0.0828333966509162\\
21	0.557624977131952\\
22	0.149414784250917\\
23	0.109138078132702\\
24	0.0381681231028791\\
25	0.032799759178118\\
26	0.191519461959093\\
27	0.0734580287558902\\
28	0.0358315656953253\\
29	0.0179563195827385\\
30	0.0169149242156914\\
31	0.0179798517146348\\
32	0.0199431506445131\\
33	0.0279225394655299\\
34	0.0908594243819801\\
35	0.0439964246924232\\
36	0.330890477505262\\
37	0.037800506563543\\
38	0.020261933748638\\
39	0.0138181229977315\\
40	0.0211497159554441\\
41	0.0112042208144458\\
42	0.00964538908702694\\
43	0.00864780826327016\\
44	0.00787736374270682\\
45	0.00720180133294831\\
46	0.00651453200193765\\
47	0.00565492088107664\\
48	0.0112814316241706\\
49	0.0075966567083061\\
50	0.0102713040739602\\
51	0.00787142060243747\\
52	0.00711780022683946\\
53	0.00668443537322835\\
54	0.00638223966522588\\
55	0.00615487020840034\\
56	0.00598242225636516\\
57	0.00586293416152974\\
58	0.00581626175933958\\
59	0.00593494184987807\\
60	0.00707647204853056\\
61	0.00861312572402681\\
62	0.00240649054353041\\
63	0.0036902508247688\\
64	0.0040125763148678\\
65	0.00408542983582614\\
66	0.00408934467211144\\
67	0.00406760360864643\\
68	0.00403657730104579\\
69	0.00400486664899167\\
70	0.00397913876457006\\
71	0.00396763365360209\\
72	0.00398577860522856\\
73	0.00407460869510253\\
74	0.00440882178496405\\
75	0.00852319154542653\\
76	0.00211982859547221\\
77	0.00279674481878385\\
78	0.00295234209521732\\
79	0.00299967450324673\\
80	0.00300734384297471\\
81	0.00299658049652506\\
82	0.00297609501762909\\
83	0.00295010695632826\\
84	0.00292089738309008\\
85	0.00288979839106794\\
86	0.00285763293534116\\
87	0.00282493110979805\\
88	0.00279204510261472\\
89	0.00275921420187501\\
90	0.00272660345813555\\
91	0.00269432766245323\\
92	0.00266246675038502\\
93	0.00263107599882434\\
94	0.00260019295165966\\
95	0.00256984222925479\\
96	0.00254003893333548\\
97	0.0025107910982644\\
98	0.00248210148178531\\
99	0.00245396889001376\\
100	0.00242638916874131\\
101	0.00239935595223708\\
102	0.00237286123354156\\
103	0.00234689580183488\\
104	0.00232144957979209\\
105	0.00229651188498403\\
106	0.00227207163310714\\
107	0.0022481174963278\\
108	0.00222463802675857\\
109	0.00220162175268604\\
110	0.00217905725339276\\
111	0.0021569332170867\\
112	0.00213523848544673\\
113	0.00211396208753109\\
114	0.00209309326520902\\
115	0.00207262149182518\\
116	0.00205253648545491\\
117	0.00203282821783402\\
118	0.00201348691983224\\
119	0.00199450308416773\\
120	0.00197586746592614\\
121	0.00195757108133911\\
122	0.0019396052051902\\
123	0.0019219613671484\\
124	0.00190463134727109\\
125	0.00188760717087541\\
126	0.00187088110293773\\
127	0.00185444564215264\\
128	0.0018382935147574\\
129	0.00182241766820821\\
130	0.00180681126477794\\
131	0.00179146767513212\\
132	0.00177638047192757\\
133	0.00176154342347035\\
134	0.00174695048746156\\
135	0.0017325958048528\\
136	0.00171847369382931\\
137	0.00170457864393352\\
138	0.0016909053103386\\
139	0.00167744850827835\\
140	0.00166420320763913\\
141	0.00165116452771496\\
142	0.00163832773212761\\
143	0.00162568822391149\\
144	0.00161324154076111\\
145	0.0016009833504405\\
146	0.00158890944635072\\
147	0.00157701574325256\\
148	0.00156529827314105\\
149	0\\
150	0\\
};
\addlegendentry{$\mathbf{h_1}$}

\addplot [color=mycolor2]
  table[row sep=crcr]{%
1	0.019775303219206\\
2	0.0210217764534023\\
3	0.0224372323963497\\
4	0.024058742711813\\
5	0.0259351263737046\\
6	0.0281320174688059\\
7	0.0307398096072034\\
8	0.0338865833958781\\
9	0.0377600935275399\\
10	0.0426472101764649\\
11	0.0490094599986528\\
12	0.0576401827385178\\
13	0.0700288298559564\\
14	0.0893407156606893\\
15	0.123700774100431\\
16	0.202175033398071\\
17	0.564479813098353\\
18	0.690442426104836\\
19	0.212260509632627\\
20	0.126132345068284\\
21	0.100380135781766\\
22	0.0378663697499036\\
23	0.0333199748773482\\
24	0.0149453064107011\\
25	0.10083899339379\\
26	0.161002397050911\\
27	0.0405118251764787\\
28	0.0383644765554957\\
29	0.0341227495803863\\
30	0.0306469105251072\\
31	0.0278570926171954\\
32	0.0255709383506331\\
33	0.0236574529195357\\
34	0.0220274984760589\\
35	0.0206190941704396\\
36	0.0193877726649002\\
37	0.0183006807256663\\
38	0.0173329207549748\\
39	0.016465211935799\\
40	0.0156823459816501\\
41	0.0149721364414517\\
42	0.0143246843629073\\
43	0.0137318527665838\\
44	0.0131868826449622\\
45	0.0126841071808284\\
46	0.0122187355837443\\
47	0.0117866872087634\\
48	0.0113844626077037\\
49	0.0110090421200206\\
50	0.0106578052804057\\
51	0\\
52	0\\
53	0\\
54	0\\
55	0\\
56	0\\
57	0\\
58	0\\
59	0\\
60	0\\
61	0\\
62	0\\
63	0\\
64	0\\
65	0\\
66	0\\
67	0\\
68	0\\
69	0\\
70	0\\
71	0\\
72	0\\
73	0\\
74	0\\
75	0\\
76	0\\
77	0\\
78	0\\
79	0\\
80	0\\
81	0\\
82	0\\
83	0\\
84	0\\
85	0\\
86	0\\
87	0\\
88	0\\
89	0\\
90	0\\
91	0\\
92	0\\
93	0\\
94	0\\
95	0\\
96	0\\
97	0\\
98	0\\
99	0\\
100	0\\
101	0\\
102	0\\
103	0\\
104	0\\
105	0\\
106	0\\
107	0\\
108	0\\
109	0\\
110	0\\
111	0\\
112	0\\
113	0\\
114	0\\
115	0\\
116	0\\
117	0\\
118	0\\
119	0\\
120	0\\
121	0\\
122	0\\
123	0\\
124	0\\
125	0\\
126	0\\
127	0\\
128	0\\
129	0\\
130	0\\
131	0\\
132	0\\
133	0\\
134	0\\
135	0\\
136	0\\
137	0\\
138	0\\
139	0\\
140	0\\
141	0\\
142	0\\
143	0\\
144	0\\
145	0\\
146	0\\
147	0\\
148	0\\
149	0\\
150	0\\
};
\addlegendentry{$\mathbf{h_{2}}$}

\end{axis}

\begin{axis}[%
width=1.972in,
height=3.2in,
at={(3.386in,0.512in)},
scale only axis,
xmin=0,
xmax=150,
xlabel style={font=\color{white!15!black}, align=center},
xlabel={Sample Index\\[1ex](b) Estimated},
ymin=0,
ymax=0.6,
axis background/.style={fill=white},
legend style={legend cell align=left, align=left, draw=white!15!black}
]
\addplot [color=mycolor1]
  table[row sep=crcr]{%
0	0.0906787650405258\\
1	0.0685681020083402\\
2	0.0507256680615379\\
3	0.0409562389420615\\
4	0.040416895662649\\
5	0.0355369219131241\\
6	0.0282920862049476\\
7	0.0914560374397798\\
8	0.0793733822724065\\
9	0.062023428317267\\
10	0.0749686359163841\\
11	0.0442497744978535\\
12	0.0203440808378185\\
13	0.0449326011232773\\
14	0.0107121316502443\\
15	0.0233522371021241\\
16	0.0527768643129931\\
17	0.0232964677404177\\
18	0.0952115357088912\\
19	0.047095311943858\\
20	0.0391885198656915\\
21	0.0340900182052715\\
22	0.0581720925493307\\
23	0.0705643344887705\\
24	0.0233057561744386\\
25	0.057226090649435\\
26	0.0386043472781597\\
27	0.0381650569298138\\
28	0.0252427756984715\\
29	0.0815749862738071\\
30	0.0623667240692152\\
31	0.0845528721317725\\
32	0.0576895650261928\\
33	0.088130627588623\\
34	0.0347685713706032\\
35	0.037335860262106\\
36	0.0138565934186056\\
37	0.0839290985136611\\
38	0.00895939190089818\\
39	0.0492992875462515\\
40	0.0630969661572918\\
41	0.0168994318171735\\
42	0.079943249452918\\
43	0.0631037027051211\\
44	0.0789983366528489\\
45	0.0618708036687864\\
46	0.00166025397220939\\
47	0.0357717147337298\\
48	0.012255609416107\\
49	0.0395902267241423\\
50	0.0434860556503091\\
51	0.0562824944086503\\
52	0.0231706217718124\\
53	0.0344106590850871\\
54	0.0441362896841983\\
55	0.0157806276864934\\
56	0.035420589570012\\
57	0.0589509369615133\\
58	0.0362779707674839\\
59	0.0444455744918316\\
60	0.0627400614697807\\
61	0.0765317727395904\\
62	0.0991568941991762\\
63	0.06013175170668\\
64	0.0639487937527631\\
65	0.0321135935726137\\
66	0.0152843242737686\\
67	0.0217995028836396\\
68	0.0289425597678319\\
69	0.0529452496689881\\
70	0.0402785491374283\\
71	0.0599747119640838\\
72	0.0541857924648091\\
73	0.0772264629063419\\
74	0.102811034563043\\
75	0.0707165630765348\\
76	0.0869692089817647\\
77	0.0425578862802414\\
78	0.0551669527112556\\
79	0.0693771931726744\\
80	0.0732648503054565\\
81	0.0280361281177603\\
82	0.0425097811478943\\
83	0.124721201954465\\
84	0.0498564473599346\\
85	0.0931051020720038\\
86	0.0654142843802492\\
87	0.0366573599076492\\
88	0.0482084509688873\\
89	0.0828602621082549\\
90	0.043901731686811\\
91	0.0436217653468796\\
92	0.0997464941797894\\
93	0.0268202792780251\\
94	0.0723828373043324\\
95	0.116465956294766\\
96	0.100034275967777\\
97	0.0743213889759371\\
98	0.0361419736088688\\
99	0.0374921033879177\\
100	0.024887452291432\\
101	0.0723658123124277\\
102	0.10282147485151\\
103	0.104537918028958\\
104	0.0621741914940977\\
105	0.0372268963929233\\
106	0.0519881695302711\\
107	0.0395526374887386\\
108	0.100320608068709\\
109	0.0270991934660688\\
110	0.0586680330648006\\
111	0.146612487096308\\
112	0.023844510839713\\
113	0.0873895898720601\\
114	0.0840860198394997\\
115	0.0754124249525398\\
116	0.115257140939567\\
117	0.113216859016714\\
118	0.105605930212733\\
119	0.0839170081575907\\
120	0.0636356366114309\\
121	0.0212643787575102\\
122	0.0975977057591577\\
123	0.0717637751620807\\
124	0.0830709983603957\\
125	0.0555795916967395\\
126	0.0242999106333841\\
127	0.0541538773245957\\
128	0.0295590724632348\\
129	0.0758764845880383\\
130	0.0532728290524853\\
131	0.04457941914941\\
132	0.0441122117568773\\
133	0.0551899305858418\\
134	0.11942995142165\\
135	0.0474991380498464\\
136	0.051119107313649\\
137	0.167249977055775\\
138	0.118572251366791\\
139	0.0243190046494527\\
140	0.0649783489586619\\
141	0.114294388455394\\
142	0.059643062067118\\
143	0.0169752739163211\\
144	0.0494391138854294\\
145	0.126033501825558\\
146	0.0698143202182576\\
147	0.138834773959771\\
148	0.0204170732979959\\
149	0.581011586512205\\
};
\addlegendentry{$\mathbf{\hat{h}_{1}}$}

\addplot [color=mycolor2]
  table[row sep=crcr]{%
0	0.0222429943543335\\
1	0.0480892176885944\\
2	0.0174024301728187\\
3	0.0444473895083608\\
4	0.105757677418586\\
5	0.0788688436393656\\
6	0.0926028271895637\\
7	0.0720618167745593\\
8	0.0308761014842019\\
9	0.0925899287566831\\
10	0.083425645204236\\
11	0.0438390885663475\\
12	0.0333495796000865\\
13	0.0559249120040508\\
14	0.0345654805036223\\
15	0.00150401042045806\\
16	0.00968938921340707\\
17	0.0667304625294693\\
18	0.00669907748914944\\
19	0.064291063654468\\
20	0.0194383815819173\\
21	0.12197462447439\\
22	0.0638807799470263\\
23	0.0628963180666697\\
24	0.0634918062617675\\
25	0.0658945486686227\\
26	0.0306681745784872\\
27	0.0470864283110678\\
28	0.10392166298212\\
29	0.0852390422815503\\
30	0.0737869336509215\\
31	0.058225597794121\\
32	0.0892802772951438\\
33	0.022490320122976\\
34	0.0395601314945098\\
35	0.04215292050637\\
36	0.0438076038666368\\
37	0.0273655107554361\\
38	0.0706685571137746\\
39	0.0258527993585392\\
40	0.0203505046001444\\
41	0.041852288066562\\
42	0.0456458433035065\\
43	0.0614868563526737\\
44	0.0814303328304478\\
45	0.088241637548951\\
46	0.133108561281514\\
47	0.0437716608370919\\
48	0.0881859761821692\\
49	0.0647825828551042\\
50	0.128329645069133\\
51	0.137625027906412\\
52	0.0831489995408696\\
53	0.115704094896094\\
54	0.0614045190569317\\
55	0.0267679618017465\\
56	0.0998108626324746\\
57	0.0851542641314646\\
58	0.0700730281790082\\
59	0.10706089536838\\
60	0.0219726008110996\\
61	0.076930207564641\\
62	0.0418118990821182\\
63	0.0730969987784414\\
64	0.116586958146328\\
65	0.100715867501611\\
66	0.0991707351423721\\
67	0.0613708852764655\\
68	0.0470529051108452\\
69	0.0457773487449123\\
70	0.0855136400761693\\
71	0.0876400254653839\\
72	0.127765668301495\\
73	0.0799838525202907\\
74	0.0407521517540973\\
75	0.0401143812632968\\
76	0.0712187769321754\\
77	0.0695536606798338\\
78	0.0545058912009597\\
79	0.0805477980689694\\
80	0.0674097288381431\\
81	0.0337346819581775\\
82	0.0598111029325194\\
83	0.0713205493916064\\
84	0.0803415451151486\\
85	0.0566633323560863\\
86	0.0949149848058358\\
87	0.0953944137187463\\
88	0.0564288211587429\\
89	0.0736117149876426\\
90	0.0470075033460414\\
91	0.12946205748973\\
92	0.0657814335842357\\
93	0.0621322967319593\\
94	0.0509817330739539\\
95	0.0531680186238636\\
96	0.043512407310459\\
97	0.0821537528707051\\
98	0.0973804708023087\\
99	0.0656952654755061\\
100	0.0433756853794988\\
101	0.0259774955612759\\
102	0.0369405184652453\\
103	0.0826261410281317\\
104	0.0721870909675432\\
105	0.0165562587601252\\
106	0.0532182308215464\\
107	0.0378102620108541\\
108	0.0796978776534863\\
109	0.0434801484136972\\
110	0.056749152245695\\
111	0.0676496768913765\\
112	0.145598326212201\\
113	0.0593649039640621\\
114	0.0593550773752048\\
115	0.0212063256577688\\
116	0.0287665911562349\\
117	0.109393024473359\\
118	0.10996745187587\\
119	0.138696522951223\\
120	0.073806716072969\\
121	0.0380045462086861\\
122	0.0847571583226685\\
123	0.0846863759812607\\
124	0.110944237556159\\
125	0.0945571921706301\\
126	0.146746249176248\\
127	0.0429123443640452\\
128	0.042460876106676\\
129	0.169763825497306\\
130	0.0559076987408801\\
131	0.161870347064213\\
132	0.170704086329919\\
133	0.0707589371202013\\
134	0.150731394800225\\
135	0.0672782424939524\\
136	0.117653947148168\\
137	0.0738845451469259\\
138	0.0816141386892458\\
139	0.0655811730943729\\
140	0.149920396098558\\
141	0.117212868137593\\
142	0.0231140862122494\\
143	0.0952724903701704\\
144	0.0545282756393787\\
145	0.220111396865706\\
146	0.192543786447079\\
147	0.0390176276358504\\
148	0.0207084002287646\\
149	0.130818346720439\\
};
\addlegendentry{$\mathbf{\hat{h}_{2}}$}

\end{axis}
\end{tikzpicture}%