% This file was created by matlab2tikz.
%
%The latest updates can be retrieved from
%  http://www.mathworks.com/matlabcentral/fileexchange/22022-matlab2tikz-matlab2tikz
%where you can also make suggestions and rate matlab2tikz.
%
\definecolor{mycolor1}{rgb}{0.00000,0.44700,0.74100}%
\definecolor{mycolor2}{rgb}{0.85000,0.32500,0.09800}%
%
\begin{tikzpicture}

\begin{axis}[%
width=1.935in,
height=3.2in,
at={(0.758in,0.512in)},
scale only axis,
xmin=0,
xmax=200,
xlabel style={font=\color{white!15!black}, align=center},
xlabel={Sample Index\\[1ex](a) Actual},
ymin=0,
ymax=1,
axis background/.style={fill=white},
legend style={legend cell align=left, align=left, draw=white!15!black}
]
\addplot [color=mycolor1]
  table[row sep=crcr]{%
1	0.0167418731260698\\
2	0.018659722218203\\
3	0.0211495716349754\\
4	0.0245407494314006\\
5	0.029505643974117\\
6	0.0377161636169434\\
7	0.0550750576238134\\
8	0.131028403455825\\
9	0.141533477104454\\
10	0.158175166246243\\
11	0.163761757297189\\
12	0.600100605556833\\
13	0.118033417583129\\
14	0.0610914209628117\\
15	0.0426162246246858\\
16	0.0332715711707656\\
17	0.0321939439283243\\
18	0.0268871008873183\\
19	0.0316920608120786\\
20	0.0286771919664519\\
21	0.00773119825769845\\
22	0.0330073087209196\\
23	0.019415059292473\\
24	0.0177688778425817\\
25	0.0188194600762088\\
26	0.0237714798713867\\
27	0.0430806655948836\\
28	0.586023006720236\\
29	0.0970905103802927\\
30	0.0246981078960262\\
31	0.0780346253424249\\
32	0.0580455436901626\\
33	0.0681836526256362\\
34	0.163824852865525\\
35	0.0446106828365612\\
36	0.06119675966513\\
37	0.00907835157153909\\
38	0.0310093774848825\\
39	0.00125972832884384\\
40	0.005422098150711\\
41	0.0107374596162295\\
42	0.0165479326643041\\
43	0.024789327411243\\
44	0.0446277431282512\\
45	0.058019450740893\\
46	0.074843365423057\\
47	0.199666615467323\\
48	0.216838516027539\\
49	0.0783890355452335\\
50	0.0495529240878659\\
51	0.0370791446049236\\
52	0.0307530810094058\\
53	0.0155757068681131\\
54	0.0198807977432187\\
55	0.0179871495341263\\
56	0.0162887905400521\\
57	0.0148728268904216\\
58	0.0136909847461918\\
59	0.0126943671543235\\
60	0.011846112844806\\
61	0.0111233301448608\\
62	0.0105291449791113\\
63	0.0102108676347222\\
64	0.00751288118280402\\
65	0.00739035992869396\\
66	0.0116365722557393\\
67	0.00899390796280924\\
68	0.00831157148096884\\
69	0.00788086875151191\\
70	0.00754217236777393\\
71	0.00725475830161164\\
72	0.00700327644843893\\
73	0.006780818536885\\
74	0.00658453626015097\\
75	0.00641472878078445\\
76	0.00627599401250467\\
77	0.00618216997550965\\
78	0.00617516728867787\\
79	0.00642745729543014\\
80	0.00873051939586948\\
81	0.00471465923588381\\
82	0.00195996010568866\\
83	0.004980313957114\\
84	0.00475839614864904\\
85	0.00464733241660508\\
86	0.00455444244400457\\
87	0.00446749239384432\\
88	0.00438406292262191\\
89	0.00430366820355207\\
90	0.00422628355118023\\
91	0.00415201532524293\\
92	0.00408104289588831\\
93	0.00401365198230764\\
94	0.00395033763548775\\
95	0.00389203620501121\\
96	0.00384070443755282\\
97	0.00380107128140597\\
98	0.00378779867734327\\
99	0.00387836096292209\\
100	0.00228454900881806\\
101	0.00321909463290553\\
102	0.00328982387499096\\
103	0.00328100374444436\\
104	0.00325253146337885\\
105	0.00321692683031362\\
106	0.00317840637543852\\
107	0.00313876414674543\\
108	0.00309887602618152\\
109	0.00305920797263281\\
110	0.00302002111537278\\
111	0.00298146552488656\\
112	0.00294362726599965\\
113	0.0029065537719176\\
114	0.00287026833389302\\
115	0.00283477876811283\\
116	0.00280008280049957\\
117	0.00276617151884636\\
118	0.00273303164395387\\
119	0.00270064705586787\\
120	0.00266899983729428\\
121	0.00263807099659409\\
122	0.00260784097374635\\
123	0.00257828999668392\\
124	0.00254939833288439\\
125	0.00252114646667125\\
126	0.00249351522323938\\
127	0.00246648585412356\\
128	0.00244004009455901\\
129	0.00241416020024051\\
130	0.00238882896892876\\
131	0.0023640297508985\\
132	0.00233974645117835\\
133	0.00231596352577768\\
134	0.00229266597354371\\
135	0.00226983932488367\\
136	0.00224746962828519\\
137	0.00222554343533969\\
138	0.00220404778480324\\
139	0.00218297018609978\\
140	0.00216229860257188\\
141	0.00214202143470905\\
142	0.00212212750352594\\
143	0.00210260603421662\\
144	0.00208344664017788\\
145	0.00206463930746792\\
146	0.00204617437974413\\
147	0.00202804254371082\\
148	0.00201023481509265\\
149	0.00199274252514179\\
150	0.00197555730767936\\
151	0.0019586710866655\\
152	0.00194207606428942\\
153	0.00192576470956709\\
154	0.00190972974743187\\
155	0.00189396414830307\\
156	0.00187846111811499\\
157	0.00186321408878906\\
158	0.00184821670913216\\
159	0.00183346283614256\\
160	0.00181894652670628\\
161	0.00180466202966742\\
162	0.00179060377825436\\
163	0.00177676638284649\\
164	0.00176314462406556\\
165	0.00174973344617591\\
166	0.0017365279507797\\
167	0.00172352339079259\\
168	0.00171071516468654\\
169	0.00169809881098722\\
170	0.00168567000301325\\
171	0.00167342454384613\\
172	0.00166135836151948\\
173	0.00164946750441694\\
174	0.00163774813686889\\
175	0.00162619653493841\\
176	0.00161480908238697\\
177	0.00160358226681213\\
178	0.001592512675948\\
179	0.00158159699412143\\
180	0.00157083199885632\\
181	0.00156021455761888\\
182	0.00154974162469766\\
183	0.00153941023821136\\
184	0.00152921751723897\\
185	0.00151916065906659\\
186	0.00150923693654504\\
187	0.00149944369555362\\
188	0.00148977835256491\\
189	0.00148023839230615\\
190	0.0014708213655126\\
191	0.00146152488676917\\
192	0.00145234663243548\\
193	0.00144328433865201\\
194	0.00143433579942216\\
195	0.0014254988647679\\
196	0.00141677143895562\\
197	0.00140815147878894\\
198	0.00139963699196521\\
199	0\\
200	0\\
};
\addlegendentry{$\mathbf{h_1}$}

\addplot [color=mycolor2]
  table[row sep=crcr]{%
1	0.00495033386861547\\
2	0.00515738368500011\\
3	0.00538309861623286\\
4	0.00563019833310769\\
5	0.00590197136255583\\
6	0.00620243506959928\\
7	0.00653655369620811\\
8	0.00691054090538825\\
9	0.00733228812251618\\
10	0.00781198494389501\\
11	0.00836304134465097\\
12	0.0090034999823859\\
13	0.00975827527656913\\
14	0.0106628508662167\\
15	0.0117696896019869\\
16	0.0131600228416925\\
17	0.0149671880151623\\
18	0.0174273921400842\\
19	0.0210049332363351\\
20	0.0267613442180004\\
21	0.037792597580649\\
22	0.068721841139076\\
23	0.97572931769219\\
24	0.0649085399616321\\
25	0.0262918397391367\\
26	0.0126468169615953\\
27	0.00419508123086451\\
28	0.0214241856295046\\
29	0.0134643328328179\\
30	0.00412679327935559\\
31	0.0112712342656943\\
32	0.0282552508318709\\
33	0.111702725947746\\
34	0.12653020104749\\
35	0.0361926668223949\\
36	0.024130019396178\\
37	0.019518168382204\\
38	0.0163235660243771\\
39	0.0140849625225472\\
40	0.0124312948441269\\
41	0.0111552918846637\\
42	0.0101369616841952\\
43	0.00930266674553233\\
44	0.00860476970863487\\
45	0.00801105372801389\\
46	0.00749890841387189\\
47	0.00705196472677567\\
48	0.00665805661850076\\
49	0.0063079366485928\\
50	0.00599443852440938\\
51	0.00571191453485358\\
52	0.00545584764793091\\
53	0.0052225778141873\\
54	0.00500910486747672\\
55	0.00481294397681212\\
56	0.00463201789166602\\
57	0.00446457542356871\\
58	0.00430912894812168\\
59	0.00416440590497024\\
60	0.00402931074167137\\
61	0.00390289474814389\\
62	0.00378433192171684\\
63	0.00367289949042518\\
64	0.0035679620699816\\
65	0.00346895868109233\\
66	0.00337539203747226\\
67	0.00328681965070268\\
68	0.00320284639950925\\
69	0\\
70	0\\
71	0\\
72	0\\
73	0\\
74	0\\
75	0\\
76	0\\
77	0\\
78	0\\
79	0\\
80	0\\
81	0\\
82	0\\
83	0\\
84	0\\
85	0\\
86	0\\
87	0\\
88	0\\
89	0\\
90	0\\
91	0\\
92	0\\
93	0\\
94	0\\
95	0\\
96	0\\
97	0\\
98	0\\
99	0\\
100	0\\
101	0\\
102	0\\
103	0\\
104	0\\
105	0\\
106	0\\
107	0\\
108	0\\
109	0\\
110	0\\
111	0\\
112	0\\
113	0\\
114	0\\
115	0\\
116	0\\
117	0\\
118	0\\
119	0\\
120	0\\
121	0\\
122	0\\
123	0\\
124	0\\
125	0\\
126	0\\
127	0\\
128	0\\
129	0\\
130	0\\
131	0\\
132	0\\
133	0\\
134	0\\
135	0\\
136	0\\
137	0\\
138	0\\
139	0\\
140	0\\
141	0\\
142	0\\
143	0\\
144	0\\
145	0\\
146	0\\
147	0\\
148	0\\
149	0\\
150	0\\
151	0\\
152	0\\
153	0\\
154	0\\
155	0\\
156	0\\
157	0\\
158	0\\
159	0\\
160	0\\
161	0\\
162	0\\
163	0\\
164	0\\
165	0\\
166	0\\
167	0\\
168	0\\
169	0\\
170	0\\
171	0\\
172	0\\
173	0\\
174	0\\
175	0\\
176	0\\
177	0\\
178	0\\
179	0\\
180	0\\
181	0\\
182	0\\
183	0\\
184	0\\
185	0\\
186	0\\
187	0\\
188	0\\
189	0\\
190	0\\
191	0\\
192	0\\
193	0\\
194	0\\
195	0\\
196	0\\
197	0\\
198	0\\
199	0\\
200	0\\
};
\addlegendentry{$\mathbf{h_{2}}$}

\end{axis}

\begin{axis}[%
width=1.935in,
height=3.2in,
at={(3.327in,0.512in)},
scale only axis,
xmin=0,
xmax=200,
xlabel style={font=\color{white!15!black}, align=center},
xlabel={Sample Index\\[1ex](b) Estimated},
ymin=0,
ymax=0.45,
axis background/.style={fill=white},
legend style={legend cell align=left, align=left, draw=white!15!black}
]
\addplot [color=mycolor1]
  table[row sep=crcr]{%
0	0.00225462563165731\\
1	0.00313630434542971\\
2	0.00296369130404885\\
3	0.00282894795614943\\
4	0.00140960813342746\\
5	0.00228521800703965\\
6	0.00335495918015485\\
7	0.00686650256330733\\
8	0.0465080211827436\\
9	0.059142317278844\\
10	0.00775131856267429\\
11	0.130867177815362\\
12	0.252046120681139\\
13	0.266367556015524\\
14	0.220206939739086\\
15	0.163507971454842\\
16	0.158016086149869\\
17	0.17743907184797\\
18	0.166823589269574\\
19	0.134245176705927\\
20	0.154030134474206\\
21	0.196547795832516\\
22	0.201449879184307\\
23	0.166254099393203\\
24	0.110525021486649\\
25	0.073493542004154\\
26	0.0715771403862694\\
27	0.141501577586264\\
28	0.207450847176981\\
29	0.212711545708759\\
30	0.184956116186352\\
31	0.140147364729784\\
32	0.144929848816907\\
33	0.155621005311782\\
34	0.153179920733604\\
35	0.142341863308272\\
36	0.162115693789736\\
37	0.174632302394474\\
38	0.156808656822047\\
39	0.100537295002776\\
40	0.0321788049291542\\
41	0.0067712118334521\\
42	0.00645065424824607\\
43	0.00441454206981501\\
44	0.0311478673036561\\
45	0.0527026537964477\\
46	0.0600669493633826\\
47	0.121279164172507\\
48	0.170267222629175\\
49	0.164419631091207\\
50	0.128343939791415\\
51	0.0859568239856926\\
52	0.0801813316649523\\
53	0.0874755056420716\\
54	0.0834405669522187\\
55	0.0789328774083558\\
56	0.0927014686145542\\
57	0.0957556803306891\\
58	0.0937171956716231\\
59	0.0732251431048775\\
60	0.0477772025455579\\
61	0.025020148242005\\
62	0.0222327515037231\\
63	0.0179295217774642\\
64	0.0154323781059397\\
65	0.0226314113934828\\
66	0.0215607188276766\\
67	0.0220127538761877\\
68	0.0209726522975485\\
69	0.0179160784556518\\
70	0.0124768027831947\\
71	0.00761942206533711\\
72	0.00257780019552905\\
73	0.00553308999219049\\
74	0.00459317369608211\\
75	0.00616694385548912\\
76	0.00686046601979174\\
77	0.00552760717970403\\
78	0.00465848048809495\\
79	0.00429200734145757\\
80	0.00461894143572597\\
81	0.00622602169175976\\
82	0.00451619437430314\\
83	0.00309583179207419\\
84	0.00198105043195521\\
85	0.00183520484130714\\
86	0.00128176576918535\\
87	7.33898844445859e-05\\
88	0.00171145893180349\\
89	0.00378462682544855\\
90	0.00402588374414186\\
91	0.00292884758981009\\
92	0.00262134531738974\\
93	0.00248687654718723\\
94	0.000910819004296214\\
95	0.000456032214401236\\
96	0.000719911372466883\\
97	0.000815245741872417\\
98	0.000638329102381989\\
99	0.00169304030698594\\
100	0.00377516921314976\\
101	0.00423697655085627\\
102	0.00350547197589506\\
103	0.00237181860129156\\
104	0.00174551634441311\\
105	0.00208561228879314\\
106	0.00219441889881417\\
107	0.00165824519211778\\
108	0.00213769878540904\\
109	0.002784484091401\\
110	0.00283723094010833\\
111	0.00248040649552062\\
112	0.00171443988216071\\
113	0.00115879174227252\\
114	0.000777663464055588\\
115	0.000730536654770219\\
116	0.000407976580311536\\
117	0.000441287747986319\\
118	0.000423838673279342\\
119	0.000549007055924877\\
120	0.000689202460354045\\
121	0.000619097270791979\\
122	0.000534432232278635\\
123	0.000326117760435715\\
124	0.000177414115397875\\
125	8.33015240974099e-05\\
126	7.1235894885826e-05\\
127	6.89189140546886e-05\\
128	0.000160921442252883\\
129	0.000121461647209361\\
130	0.00015766554876131\\
131	0.000189080020110193\\
132	0.000124137079404213\\
133	9.89640574834187e-05\\
134	2.44096426469345e-05\\
135	1.19158419877739e-05\\
136	5.05167344798862e-05\\
137	2.96597385348701e-05\\
138	1.44024329429081e-05\\
139	6.81689200732071e-05\\
140	4.39964429264346e-05\\
141	7.72500140200307e-05\\
142	3.88830366022669e-05\\
143	4.91568205085573e-05\\
144	1.5503146548278e-05\\
145	7.076037438318e-05\\
146	4.49860863246329e-05\\
147	5.56548313701086e-05\\
148	3.41311105157153e-05\\
149	3.39116627372292e-05\\
150	5.02754975097983e-05\\
151	4.52513853372456e-05\\
152	0.000124478204540892\\
153	0.000103902071061379\\
154	0.000104961909148085\\
155	4.72323425030367e-05\\
156	0.000114939615008831\\
157	9.69872630327849e-05\\
158	0.000116326765195696\\
159	0.000170538453518616\\
160	0.000215218459769017\\
161	0.000130944762477599\\
162	0.00017745997851447\\
163	0.0003975905494246\\
164	0.000355972151067224\\
165	0.000305462539626892\\
166	0.00029510516515695\\
167	0.000343390261763725\\
168	0.00042965963099598\\
169	0.00032649543137639\\
170	0.000168302775436028\\
171	0.000327957251791731\\
172	0.000509777883211651\\
173	0.000464205279806678\\
174	0.000379026517082734\\
175	0.000196648857304413\\
176	7.42235577959262e-05\\
177	0.000172464597463021\\
178	0.000255441526673262\\
179	0.000345106483907719\\
180	0.000260143641906147\\
181	0.000251954132331896\\
182	0.000261732747397301\\
183	0.000298593047801184\\
184	0.000359323559411199\\
185	0.000293941524466134\\
186	0.000219632227352044\\
187	0.000338816922011742\\
188	0.000442028018464438\\
189	0.000420544030721817\\
190	0.00025199371576349\\
};
\addlegendentry{$\mathbf{\hat{h}_{1}}$}

\addplot [color=mycolor2]
  table[row sep=crcr]{%
0	0.000767179435896619\\
1	0.00111566221114799\\
2	0.00104445859581987\\
3	0.0009464031482413\\
4	0.000601657905362895\\
5	0.000709297264115381\\
6	0.000736790115159221\\
7	0.000519511563202\\
8	0.000571104421129755\\
9	0.000795687445995193\\
10	0.000716382466138751\\
11	0.000883394786105669\\
12	0.000403324121901734\\
13	0.000474440205978624\\
14	0.000347497329181119\\
15	9.18586010939027e-05\\
16	0.000470102121791464\\
17	0.000382315258440447\\
18	0.000306924346671939\\
19	0.000725202862745042\\
20	0.00121433850862593\\
21	0.00339557699041648\\
22	0.136046815632599\\
23	0.351516602447243\\
24	0.420705797193989\\
25	0.370427711612679\\
26	0.286062676541082\\
27	0.241601541586124\\
28	0.248807790563904\\
29	0.240613058016505\\
30	0.192100627916523\\
31	0.211659952350411\\
32	0.275897326339899\\
33	0.25516212368791\\
34	0.180910620903698\\
35	0.11012394692538\\
36	0.0726491766027811\\
37	0.0567384762409865\\
38	0.0679885187533345\\
39	0.0420116180754868\\
40	0.00814676028334912\\
41	0.0110368042600665\\
42	0.00599434582932564\\
43	0.00661768830168847\\
44	0.00674002671992134\\
45	0.00499344700614395\\
46	0.00283744411371841\\
47	0.00208025589596493\\
48	0.00755058020544846\\
49	0.00877878673428098\\
50	0.00664272954957602\\
51	0.00633202424303269\\
52	0.0043993257198323\\
53	0.00352819412977864\\
54	0.00387482306709374\\
55	0.00358369072424414\\
56	0.00709231939125656\\
57	0.00686938228701698\\
58	0.00339237863823355\\
59	0.00163201496612702\\
60	0.00199391833880043\\
61	0.0019049057920442\\
62	0.00173483492676663\\
63	0.00163041543462276\\
64	0.00338184546204477\\
65	0.00494948682740305\\
66	0.00383717170868865\\
67	0.00408317051910241\\
68	0.00510264706295878\\
69	0.0030641204182451\\
70	0.00119633740122437\\
71	0.00104689771008419\\
72	0.00118195851869596\\
73	0.00162458544502199\\
74	0.0015899162303977\\
75	0.00269415920884495\\
76	0.0038303980910814\\
77	0.00352394046774126\\
78	0.00331619695265255\\
79	0.00346732539262599\\
80	0.00372021202206349\\
81	0.00345077429073897\\
82	0.00250426408289451\\
83	0.0021147669775923\\
84	0.00396170953492352\\
85	0.00459419031758648\\
86	0.00357393796698214\\
87	0.00206674456728697\\
88	0.00122124892799719\\
89	0.000872266338319662\\
90	0.00117388747949351\\
91	0.00116055734317406\\
92	0.000434332301006018\\
93	2.5028592727442e-05\\
94	1.41393312193186e-05\\
95	1.16614566313051e-05\\
96	1.08724210932897e-05\\
97	5.90334706378626e-06\\
98	6.54348755130503e-07\\
99	9.42363994464456e-06\\
100	1.49556009841604e-05\\
101	1.07134848356026e-05\\
102	2.92903076482398e-06\\
103	7.73320662003102e-06\\
104	1.06893762628041e-05\\
105	8.25415411366307e-06\\
106	1.19303843332746e-05\\
107	1.53733428018489e-05\\
108	2.22976718100425e-05\\
109	2.2859701984741e-05\\
110	2.57904400723673e-05\\
111	2.53485736219653e-05\\
112	1.41502090667645e-05\\
113	8.79637386442245e-06\\
114	1.29627262988304e-05\\
115	1.63235594359818e-05\\
116	1.13031282413193e-05\\
117	9.75611041807273e-06\\
118	5.67319306523442e-06\\
119	2.69610551598353e-06\\
120	6.38383823116999e-06\\
121	1.17253658758951e-05\\
122	1.33033455419875e-05\\
123	1.17768802957629e-05\\
124	1.71611707066707e-05\\
125	1.96700345690972e-05\\
126	1.78542770820856e-05\\
127	1.68396763080412e-05\\
128	1.51352568275259e-05\\
129	1.12277895177041e-05\\
130	1.50491909810547e-05\\
131	1.67768347681618e-05\\
132	1.44671822293499e-05\\
133	1.05421920775098e-05\\
134	9.88464376057835e-06\\
135	1.2990895627756e-05\\
136	1.39885987912966e-05\\
137	1.47711242402315e-05\\
138	1.76089572367617e-05\\
139	1.98107480881875e-05\\
140	1.46245318681886e-05\\
141	8.18963136868815e-07\\
142	7.54600609664152e-06\\
143	9.75751723314022e-06\\
144	1.46136625759719e-05\\
145	1.94634076542131e-05\\
146	2.21427049323676e-05\\
147	1.97961390223632e-05\\
148	1.75039353818941e-05\\
149	1.16526544649895e-05\\
150	6.31344407898596e-07\\
151	1.233348124132e-05\\
152	2.72098066764148e-05\\
153	3.95025982688523e-05\\
154	3.4178089410368e-05\\
155	8.8514867754981e-06\\
156	2.79013330193411e-05\\
157	4.36168060536441e-05\\
158	4.94375063499206e-05\\
159	6.20814102306205e-05\\
160	5.72747784364888e-05\\
161	5.09281639912162e-05\\
162	4.55126212213031e-05\\
163	9.1945372684633e-05\\
164	0.000127795123817932\\
165	0.000103213961528809\\
166	5.94708712544935e-05\\
167	0.000102083301598738\\
168	0.000109432534888094\\
169	0.000142084943297392\\
170	0.000101898556478833\\
171	0.000207612687744455\\
172	0.000251076605072467\\
173	0.000209883426305183\\
174	0.000491934968716239\\
175	0.000542346071625694\\
176	0.000482365778253668\\
177	0.000501021036417464\\
178	0.000533315424336873\\
179	0.000549290820992902\\
180	0.000458512110427124\\
181	0.000318471948113259\\
182	0.00043201676695221\\
183	0.000678115693764301\\
184	0.000625855423275175\\
185	0.000372284511897474\\
186	0.000203536252760256\\
187	0.000141173050056988\\
188	0.000155032877894568\\
189	0.000189540355506474\\
190	0.000129938045174686\\
};
\addlegendentry{$\mathbf{\hat{h}_{2}}$}

\end{axis}
\end{tikzpicture}%