% This file was created by matlab2tikz.
%
%The latest updates can be retrieved from
%  http://www.mathworks.com/matlabcentral/fileexchange/22022-matlab2tikz-matlab2tikz
%where you can also make suggestions and rate matlab2tikz.
%
\definecolor{mycolor1}{rgb}{0.00000,0.44700,0.74100}%
\definecolor{mycolor2}{rgb}{0.85000,0.32500,0.09800}%
%
\begin{tikzpicture}

\begin{axis}[%
width=1.935in,
height=3.2in,
at={(0.758in,0.512in)},
scale only axis,
xmin=0,
xmax=200,
xlabel style={font=\color{white!15!black}, align=center},
xlabel={Sample Index\\[1ex](a) Actual},
ymin=0,
ymax=1,
axis background/.style={fill=white},
legend style={legend cell align=left, align=left, draw=white!15!black}
]
\addplot [color=mycolor1]
  table[row sep=crcr]{%
1	0.0167418731260698\\
2	0.018659722218203\\
3	0.0211495716349754\\
4	0.0245407494314006\\
5	0.029505643974117\\
6	0.0377161636169434\\
7	0.0550750576238134\\
8	0.131028403455825\\
9	0.141533477104454\\
10	0.158175166246243\\
11	0.163761757297189\\
12	0.600100605556833\\
13	0.118033417583129\\
14	0.0610914209628117\\
15	0.0426162246246858\\
16	0.0332715711707656\\
17	0.0321939439283243\\
18	0.0268871008873183\\
19	0.0316920608120786\\
20	0.0286771919664519\\
21	0.00773119825769845\\
22	0.0330073087209196\\
23	0.019415059292473\\
24	0.0177688778425817\\
25	0.0188194600762088\\
26	0.0237714798713867\\
27	0.0430806655948836\\
28	0.586023006720236\\
29	0.0970905103802927\\
30	0.0246981078960262\\
31	0.0780346253424249\\
32	0.0580455436901626\\
33	0.0681836526256362\\
34	0.163824852865525\\
35	0.0446106828365612\\
36	0.06119675966513\\
37	0.00907835157153909\\
38	0.0310093774848825\\
39	0.00125972832884384\\
40	0.005422098150711\\
41	0.0107374596162295\\
42	0.0165479326643041\\
43	0.024789327411243\\
44	0.0446277431282512\\
45	0.058019450740893\\
46	0.074843365423057\\
47	0.199666615467323\\
48	0.216838516027539\\
49	0.0783890355452335\\
50	0.0495529240878659\\
51	0.0370791446049236\\
52	0.0307530810094058\\
53	0.0155757068681131\\
54	0.0198807977432187\\
55	0.0179871495341263\\
56	0.0162887905400521\\
57	0.0148728268904216\\
58	0.0136909847461918\\
59	0.0126943671543235\\
60	0.011846112844806\\
61	0.0111233301448608\\
62	0.0105291449791113\\
63	0.0102108676347222\\
64	0.00751288118280402\\
65	0.00739035992869396\\
66	0.0116365722557393\\
67	0.00899390796280924\\
68	0.00831157148096884\\
69	0.00788086875151191\\
70	0.00754217236777393\\
71	0.00725475830161164\\
72	0.00700327644843893\\
73	0.006780818536885\\
74	0.00658453626015097\\
75	0.00641472878078445\\
76	0.00627599401250467\\
77	0.00618216997550965\\
78	0.00617516728867787\\
79	0.00642745729543014\\
80	0.00873051939586948\\
81	0.00471465923588381\\
82	0.00195996010568866\\
83	0.004980313957114\\
84	0.00475839614864904\\
85	0.00464733241660508\\
86	0.00455444244400457\\
87	0.00446749239384432\\
88	0.00438406292262191\\
89	0.00430366820355207\\
90	0.00422628355118023\\
91	0.00415201532524293\\
92	0.00408104289588831\\
93	0.00401365198230764\\
94	0.00395033763548775\\
95	0.00389203620501121\\
96	0.00384070443755282\\
97	0.00380107128140597\\
98	0.00378779867734327\\
99	0.00387836096292209\\
100	0.00228454900881806\\
101	0.00321909463290553\\
102	0.00328982387499096\\
103	0.00328100374444436\\
104	0.00325253146337885\\
105	0.00321692683031362\\
106	0.00317840637543852\\
107	0.00313876414674543\\
108	0.00309887602618152\\
109	0.00305920797263281\\
110	0.00302002111537278\\
111	0.00298146552488656\\
112	0.00294362726599965\\
113	0.0029065537719176\\
114	0.00287026833389302\\
115	0.00283477876811283\\
116	0.00280008280049957\\
117	0.00276617151884636\\
118	0.00273303164395387\\
119	0.00270064705586787\\
120	0.00266899983729428\\
121	0.00263807099659409\\
122	0.00260784097374635\\
123	0.00257828999668392\\
124	0.00254939833288439\\
125	0.00252114646667125\\
126	0.00249351522323938\\
127	0.00246648585412356\\
128	0.00244004009455901\\
129	0.00241416020024051\\
130	0.00238882896892876\\
131	0.0023640297508985\\
132	0.00233974645117835\\
133	0.00231596352577768\\
134	0.00229266597354371\\
135	0.00226983932488367\\
136	0.00224746962828519\\
137	0.00222554343533969\\
138	0.00220404778480324\\
139	0.00218297018609978\\
140	0.00216229860257188\\
141	0.00214202143470905\\
142	0.00212212750352594\\
143	0.00210260603421662\\
144	0.00208344664017788\\
145	0.00206463930746792\\
146	0.00204617437974413\\
147	0.00202804254371082\\
148	0.00201023481509265\\
149	0.00199274252514179\\
150	0.00197555730767936\\
151	0.0019586710866655\\
152	0.00194207606428942\\
153	0.00192576470956709\\
154	0.00190972974743187\\
155	0.00189396414830307\\
156	0.00187846111811499\\
157	0.00186321408878906\\
158	0.00184821670913216\\
159	0.00183346283614256\\
160	0.00181894652670628\\
161	0.00180466202966742\\
162	0.00179060377825436\\
163	0.00177676638284649\\
164	0.00176314462406556\\
165	0.00174973344617591\\
166	0.0017365279507797\\
167	0.00172352339079259\\
168	0.00171071516468654\\
169	0.00169809881098722\\
170	0.00168567000301325\\
171	0.00167342454384613\\
172	0.00166135836151948\\
173	0.00164946750441694\\
174	0.00163774813686889\\
175	0.00162619653493841\\
176	0.00161480908238697\\
177	0.00160358226681213\\
178	0.001592512675948\\
179	0.00158159699412143\\
180	0.00157083199885632\\
181	0.00156021455761888\\
182	0.00154974162469766\\
183	0.00153941023821136\\
184	0.00152921751723897\\
185	0.00151916065906659\\
186	0.00150923693654504\\
187	0.00149944369555362\\
188	0.00148977835256491\\
189	0.00148023839230615\\
190	0.0014708213655126\\
191	0.00146152488676917\\
192	0.00145234663243548\\
193	0.00144328433865201\\
194	0.00143433579942216\\
195	0.0014254988647679\\
196	0.00141677143895562\\
197	0.00140815147878894\\
198	0.00139963699196521\\
199	0\\
200	0\\
};
\addlegendentry{$\mathbf{h_1}$}

\addplot [color=mycolor2]
  table[row sep=crcr]{%
1	0.00495033386861547\\
2	0.00515738368500011\\
3	0.00538309861623286\\
4	0.00563019833310769\\
5	0.00590197136255583\\
6	0.00620243506959928\\
7	0.00653655369620811\\
8	0.00691054090538825\\
9	0.00733228812251618\\
10	0.00781198494389501\\
11	0.00836304134465097\\
12	0.0090034999823859\\
13	0.00975827527656913\\
14	0.0106628508662167\\
15	0.0117696896019869\\
16	0.0131600228416925\\
17	0.0149671880151623\\
18	0.0174273921400842\\
19	0.0210049332363351\\
20	0.0267613442180004\\
21	0.037792597580649\\
22	0.068721841139076\\
23	0.97572931769219\\
24	0.0649085399616321\\
25	0.0262918397391367\\
26	0.0126468169615953\\
27	0.00419508123086451\\
28	0.0214241856295046\\
29	0.0134643328328179\\
30	0.00412679327935559\\
31	0.0112712342656943\\
32	0.0282552508318709\\
33	0.111702725947746\\
34	0.12653020104749\\
35	0.0361926668223949\\
36	0.024130019396178\\
37	0.019518168382204\\
38	0.0163235660243771\\
39	0.0140849625225472\\
40	0.0124312948441269\\
41	0.0111552918846637\\
42	0.0101369616841952\\
43	0.00930266674553233\\
44	0.00860476970863487\\
45	0.00801105372801389\\
46	0.00749890841387189\\
47	0.00705196472677567\\
48	0.00665805661850076\\
49	0.0063079366485928\\
50	0.00599443852440938\\
51	0.00571191453485358\\
52	0.00545584764793091\\
53	0.0052225778141873\\
54	0.00500910486747672\\
55	0.00481294397681212\\
56	0.00463201789166602\\
57	0.00446457542356871\\
58	0.00430912894812168\\
59	0.00416440590497024\\
60	0.00402931074167137\\
61	0.00390289474814389\\
62	0.00378433192171684\\
63	0.00367289949042518\\
64	0.0035679620699816\\
65	0.00346895868109233\\
66	0.00337539203747226\\
67	0.00328681965070268\\
68	0.00320284639950925\\
69	0\\
70	0\\
71	0\\
72	0\\
73	0\\
74	0\\
75	0\\
76	0\\
77	0\\
78	0\\
79	0\\
80	0\\
81	0\\
82	0\\
83	0\\
84	0\\
85	0\\
86	0\\
87	0\\
88	0\\
89	0\\
90	0\\
91	0\\
92	0\\
93	0\\
94	0\\
95	0\\
96	0\\
97	0\\
98	0\\
99	0\\
100	0\\
101	0\\
102	0\\
103	0\\
104	0\\
105	0\\
106	0\\
107	0\\
108	0\\
109	0\\
110	0\\
111	0\\
112	0\\
113	0\\
114	0\\
115	0\\
116	0\\
117	0\\
118	0\\
119	0\\
120	0\\
121	0\\
122	0\\
123	0\\
124	0\\
125	0\\
126	0\\
127	0\\
128	0\\
129	0\\
130	0\\
131	0\\
132	0\\
133	0\\
134	0\\
135	0\\
136	0\\
137	0\\
138	0\\
139	0\\
140	0\\
141	0\\
142	0\\
143	0\\
144	0\\
145	0\\
146	0\\
147	0\\
148	0\\
149	0\\
150	0\\
151	0\\
152	0\\
153	0\\
154	0\\
155	0\\
156	0\\
157	0\\
158	0\\
159	0\\
160	0\\
161	0\\
162	0\\
163	0\\
164	0\\
165	0\\
166	0\\
167	0\\
168	0\\
169	0\\
170	0\\
171	0\\
172	0\\
173	0\\
174	0\\
175	0\\
176	0\\
177	0\\
178	0\\
179	0\\
180	0\\
181	0\\
182	0\\
183	0\\
184	0\\
185	0\\
186	0\\
187	0\\
188	0\\
189	0\\
190	0\\
191	0\\
192	0\\
193	0\\
194	0\\
195	0\\
196	0\\
197	0\\
198	0\\
199	0\\
200	0\\
};
\addlegendentry{$\mathbf{h_{2}}$}

\end{axis}

\begin{axis}[%
width=1.935in,
height=3.2in,
at={(3.327in,0.512in)},
scale only axis,
xmin=0,
xmax=200,
xlabel style={font=\color{white!15!black}, align=center},
xlabel={Sample Index\\[1ex](b) Estimated},
ymin=0,
ymax=1,
axis background/.style={fill=white},
legend style={legend cell align=left, align=left, draw=white!15!black}
]
\addplot [color=mycolor1]
  table[row sep=crcr]{%
0	4.43824500315688e-05\\
1	1.40490414772018e-05\\
2	0.00011325541198167\\
3	5.61226271136566e-05\\
4	0.000119217440537809\\
5	0.000124614972314993\\
6	5.66255260174896e-05\\
7	0.000115625188404321\\
8	0.000152648838920905\\
9	4.22468321517119e-05\\
10	3.87030708456621e-05\\
11	7.06194590736578e-05\\
12	0.000102181212080754\\
13	0.000111568263437482\\
14	4.22112955493318e-05\\
15	4.00951681773564e-05\\
16	0.000199240697092449\\
17	7.19515169563226e-05\\
18	0.000112156263785058\\
19	9.28937548438346e-05\\
20	0.000119495270235036\\
21	2.59371667290416e-05\\
22	9.54510038665821e-05\\
23	1.52366313460349e-05\\
24	6.33528099306261e-05\\
25	0.000138684105666476\\
26	5.23832246529928e-05\\
27	9.95789562460295e-05\\
28	0.000108900867716649\\
29	0.00020432867645357\\
30	8.90951821154346e-05\\
31	2.5445386907612e-05\\
32	5.0515859186235e-05\\
33	4.09971067410709e-05\\
34	0.000103034210217776\\
35	8.02311934810689e-05\\
36	0.000122103476759537\\
37	6.66604332158852e-05\\
38	5.28637499059957e-05\\
39	2.52836702019877e-05\\
40	8.24943347802584e-05\\
41	5.5917884331364e-05\\
42	7.22689881206332e-05\\
43	5.86524907050393e-05\\
44	4.34868724688423e-05\\
45	3.57428949865964e-05\\
46	9.88386901550167e-05\\
47	0.00010481195523987\\
48	4.65249419379835e-05\\
49	2.6564715682957e-05\\
50	0.000191626946312515\\
51	7.74082394766604e-05\\
52	5.43300348972114e-05\\
53	8.08570098520051e-05\\
54	3.5041995181961e-05\\
55	8.43311308494932e-05\\
56	7.52699557826264e-05\\
57	4.15479487748242e-05\\
58	0.000226528374031132\\
59	0.000103534024159705\\
60	5.78550205973778e-05\\
61	9.02511630119425e-05\\
62	6.78724502090051e-05\\
63	7.2817979638942e-05\\
64	5.45753583465696e-05\\
65	0.000169023635988479\\
66	2.18665125006412e-05\\
67	5.50625476861528e-05\\
68	0.00858349386547575\\
69	0.00100143053960241\\
70	0.0029416356243668\\
71	0.000105676404649278\\
72	0.0178601477463668\\
73	0.000396113904452476\\
74	0.0187684600380457\\
75	0.0207248597691284\\
76	0.00839619975684603\\
77	0.0823956791103711\\
78	0.00179630899188837\\
79	0.000170212897037388\\
80	1.46162724486235e-05\\
81	7.50487087730987e-05\\
82	0.0284490988450311\\
83	0.0452715089202663\\
84	0.142015212436134\\
85	0.0937773351192897\\
86	0.126306575729073\\
87	0.210454444668027\\
88	0.596656646766915\\
89	0.123059977420367\\
90	0.0505874828375505\\
91	0.00745880593871477\\
92	0.0338319588703374\\
93	0.0583092308418805\\
94	0.0621499320458297\\
95	0.000208605988496746\\
96	0.0124765940943632\\
97	6.06454308694919e-05\\
98	0.0246289501772899\\
99	0.00808157189080179\\
100	0.0225614906102494\\
101	0.0194358059431371\\
102	0.0233115028177592\\
103	0.067540035114816\\
104	0.607174713721265\\
105	0.114301258592208\\
106	0.0112658682910568\\
107	0.0494068326759126\\
108	0.041894992816966\\
109	0.0616427528239216\\
110	0.168999245400772\\
111	0.00247515638819371\\
112	0.0306863640290062\\
113	0.0237578973616702\\
114	0.00447511187306109\\
115	0.000140919754202591\\
116	4.01153510190269e-05\\
117	0.000105168124012406\\
118	0.00030432980057578\\
119	4.12939984875679e-05\\
120	0.0457745452270009\\
121	0.0482247517928142\\
122	0.0626449333125516\\
123	0.219246628579147\\
124	0.172228959887073\\
125	0.0607125121860302\\
126	0.0332695314961417\\
127	0.00453354513322895\\
128	0.00719327452117372\\
129	0.00148969566918854\\
130	0.000143931744701469\\
131	5.40177050860364e-05\\
132	0.000155284254694367\\
133	0.000226069980240649\\
134	0.000250541582420223\\
135	0.000161251416604462\\
136	7.05618810442457e-05\\
137	0.000107571602490923\\
138	0.000138629059330228\\
139	0.0035625633316467\\
140	0.00142818249101871\\
141	3.84292552613499e-05\\
142	0.000356063082219308\\
143	9.26406440323156e-05\\
144	0.000262456517009451\\
145	0.000140264701610348\\
146	7.58865544441264e-05\\
147	0.000193119881800215\\
148	8.70587166055041e-05\\
149	0.000112875812035832\\
150	0.000115204301960807\\
151	6.54648140573327e-05\\
152	6.14137368052285e-05\\
153	4.88128974342886e-05\\
154	4.2538047900018e-05\\
155	4.00990908581452e-05\\
156	9.04081612509233e-05\\
157	0.000110337960600255\\
158	9.28403499162587e-05\\
159	5.41881572976181e-05\\
160	7.15151111344061e-05\\
161	8.5549993599823e-05\\
162	0.000122190189955773\\
163	8.43625149147359e-05\\
164	8.980264381513e-05\\
165	0.000146420975367386\\
166	9.72601665229075e-05\\
167	5.90699136204875e-05\\
168	0.000175025002459835\\
169	9.28643648512288e-05\\
170	0.000100332005432881\\
171	0.00011688354781484\\
172	5.4005787315518e-05\\
173	5.6977796681843e-05\\
174	0.000125896307537902\\
175	4.30706111173478e-05\\
176	5.99915215276937e-05\\
177	0.000168785730208222\\
178	6.77963043383487e-05\\
179	0.000146548704830606\\
180	0.000103099604224107\\
181	0.000112961084671164\\
182	2.18546562609293e-05\\
183	3.69303946849893e-05\\
184	7.73748427841988e-05\\
185	4.77319891294766e-05\\
186	8.59356019165108e-05\\
187	0.000129794540184608\\
188	0.000104215536504861\\
189	0.000145877027577422\\
190	7.5786112963038e-05\\
191	7.66243338778242e-05\\
192	7.92592489043737e-05\\
193	5.83688955636984e-05\\
194	7.3006745159071e-05\\
195	5.73718747691368e-06\\
196	4.33804475607932e-05\\
197	7.72191925726592e-05\\
198	9.55690842353049e-05\\
199	3.56919538746334e-05\\
};
\addlegendentry{$\mathbf{\hat{h}_{1}}$}

\addplot [color=mycolor2]
  table[row sep=crcr]{%
0	1.06602554507303e-05\\
1	1.57955560748991e-05\\
2	4.0052596056424e-06\\
3	2.81494298220314e-05\\
4	1.2122228883012e-05\\
5	1.81179067835098e-05\\
6	8.00701244064163e-06\\
7	2.16241858347751e-05\\
8	3.73144492987893e-05\\
9	2.7721804904662e-05\\
10	2.66770574412669e-05\\
11	3.37833774608082e-05\\
12	1.06673738812889e-05\\
13	3.14345653112805e-05\\
14	2.15330209553209e-05\\
15	2.94527394758956e-05\\
16	2.00762315991404e-05\\
17	9.29938691709048e-06\\
18	3.25447273110481e-05\\
19	2.87814882915433e-05\\
20	1.50613942488346e-05\\
21	3.28326769563735e-06\\
22	1.67518534657058e-05\\
23	2.34009132902492e-05\\
24	3.21254183555211e-05\\
25	2.66023295137531e-05\\
26	2.6308227070291e-05\\
27	3.96130137058768e-05\\
28	1.18865974390854e-05\\
29	3.16518843757341e-05\\
30	6.30341917381942e-06\\
31	3.01310479296892e-05\\
32	1.31175288450912e-05\\
33	1.94832007346263e-05\\
34	2.15588743061651e-05\\
35	1.64012496878157e-05\\
36	1.64563420328028e-05\\
37	1.15872948268779e-05\\
38	1.91605248200983e-05\\
39	1.78677586926065e-05\\
40	4.72970728261891e-05\\
41	2.40180174361791e-05\\
42	1.42555718110859e-05\\
43	4.3956116619019e-05\\
44	4.63585454095249e-05\\
45	5.70980934692578e-05\\
46	1.83944948575606e-05\\
47	2.1604012420325e-05\\
48	7.32501412483514e-06\\
49	2.05279175659234e-06\\
50	2.35248432137181e-05\\
51	2.71244401260828e-05\\
52	6.52691052726755e-06\\
53	4.30287593473322e-05\\
54	1.84541423172789e-05\\
55	7.04150134180819e-06\\
56	2.90726492900368e-05\\
57	3.19685054257653e-05\\
58	3.01708587035936e-05\\
59	0.000439773396700752\\
60	0.0122123679560894\\
61	0.00752368354093798\\
62	2.45696865716006e-05\\
63	0.0261437944033867\\
64	0.00890251365461095\\
65	0.00484794563306455\\
66	0.00537996811832729\\
67	0.00099638342497689\\
68	1.22831131955742e-05\\
69	3.83014421306887e-05\\
70	3.10812203583147e-05\\
71	1.63187633066836e-05\\
72	6.6513179801685e-05\\
73	0.0093376842913572\\
74	2.47662121385797e-05\\
75	7.9720737037763e-06\\
76	0.0109997111910105\\
77	0.00926085364004962\\
78	0.0035808870227166\\
79	0.025354241505598\\
80	0.031488857814356\\
81	0.0155843323075554\\
82	0.00293627405139559\\
83	0.0685969174237763\\
84	0.0057924268320093\\
85	0.000940337989944876\\
86	0.00946798255192324\\
87	0.00127117897935791\\
88	0.00167590226194325\\
89	4.99647353156003e-05\\
90	0.00504077954291323\\
91	0.00789504273689811\\
92	0.00353650327606272\\
93	0.00387766846594683\\
94	0.000622980350861006\\
95	4.2276785204033e-05\\
96	0.0290752121746631\\
97	0.0121238391715756\\
98	2.08683974360945e-05\\
99	0.990724670170728\\
100	1.17386936542573e-05\\
101	0.0126564100734964\\
102	0.0295631360899048\\
103	3.5695541619632e-05\\
104	0.00118952936100136\\
105	0.0050615004726477\\
106	0.00302684225897192\\
107	0.00755491719620084\\
108	0.00404490300085713\\
109	6.17640848486859e-05\\
110	0.00184582500249463\\
111	0.00121526465023703\\
112	0.00956931335083229\\
113	0.000237251561625492\\
114	0.0049789110225481\\
115	0.0685736776160481\\
116	0.00268915042109317\\
117	0.0158777680341609\\
118	0.031574000102504\\
119	0.0259341301165899\\
120	0.00427800171392616\\
121	0.00965548454118231\\
122	0.0114254502433009\\
123	3.10381260666129e-05\\
124	1.20427739586616e-05\\
125	0.00965067021788992\\
126	0.000393347829060479\\
127	1.44527546676654e-05\\
128	2.32922395365092e-05\\
129	8.83255376587934e-05\\
130	4.34114150120445e-06\\
131	0.000653535897099465\\
132	0.00596873464219039\\
133	0.00475630292812044\\
134	0.0087069655590141\\
135	0.0266581015544844\\
136	1.75074823746098e-05\\
137	0.00802743918203243\\
138	0.0128667556519714\\
139	0.000944340960494141\\
140	4.22849788104284e-05\\
141	3.21594655517608e-05\\
142	4.0877690354168e-05\\
143	2.61122486308261e-05\\
144	3.94569984755653e-05\\
145	4.57091350326982e-05\\
146	1.60298823091074e-05\\
147	2.18814895187734e-05\\
148	1.98329087919394e-05\\
149	5.9342919918885e-06\\
150	9.64210355992146e-06\\
151	1.31947548214157e-05\\
152	9.53458571330169e-06\\
153	4.29448460162096e-05\\
154	3.55635124706714e-05\\
155	7.23271432999048e-05\\
156	2.34180791771424e-05\\
157	2.73887330558846e-05\\
158	3.64218955045269e-05\\
159	1.97604757989105e-05\\
160	1.85024081707837e-05\\
161	7.76758341195141e-06\\
162	1.76061042421907e-05\\
163	2.43889984214637e-05\\
164	2.83519942749908e-05\\
165	1.69598740043492e-05\\
166	3.92713756086336e-06\\
167	1.55525567268441e-05\\
168	4.49661558775783e-06\\
169	2.01040920196312e-05\\
170	1.84672216840274e-05\\
171	4.02645367550221e-05\\
172	2.22532741653982e-05\\
173	3.14875112963514e-05\\
174	7.65846852040381e-06\\
175	2.61088917247391e-05\\
176	1.04041105946137e-05\\
177	1.91333091454443e-05\\
178	2.21034067562194e-05\\
179	4.10999260753851e-05\\
180	3.46808518023136e-05\\
181	1.37429421838682e-06\\
182	1.48197018714741e-05\\
183	2.21488359798715e-05\\
184	2.34723023239766e-05\\
185	2.57290591965462e-05\\
186	1.19277724300828e-05\\
187	3.89775865758078e-05\\
188	2.41950336750815e-05\\
189	2.42069797784174e-05\\
190	3.00210490794648e-05\\
191	1.78108000707868e-05\\
192	7.67986294558818e-06\\
193	2.28071751111964e-05\\
194	8.33776223923265e-06\\
195	3.50447608442042e-05\\
196	2.76355041798605e-06\\
197	2.88132194623133e-05\\
198	1.58514580382246e-05\\
199	1.53644843053375e-05\\
};
\addlegendentry{$\mathbf{\hat{h}_{2}}$}

\end{axis}
\end{tikzpicture}%