% This file was created by matlab2tikz.
%
%The latest updates can be retrieved from
%  http://www.mathworks.com/matlabcentral/fileexchange/22022-matlab2tikz-matlab2tikz
%where you can also make suggestions and rate matlab2tikz.
%
\definecolor{mycolor1}{rgb}{0.00000,0.44700,0.74100}%
\definecolor{mycolor2}{rgb}{0.85000,0.32500,0.09800}%
%
\begin{tikzpicture}

\begin{axis}[%
width=1.935in,
height=3.2in,
at={(0.758in,0.512in)},
scale only axis,
xmin=0,
xmax=200,
xlabel style={font=\color{white!15!black}, align=center},
xlabel={Sample Index\\[1ex](a) Actual},
ymin=0,
ymax=1,
axis background/.style={fill=white},
legend style={legend cell align=left, align=left, draw=white!15!black}
]
\addplot [color=mycolor1]
  table[row sep=crcr]{%
1	0.0167418731260698\\
2	0.018659722218203\\
3	0.0211495716349754\\
4	0.0245407494314006\\
5	0.029505643974117\\
6	0.0377161636169434\\
7	0.0550750576238134\\
8	0.131028403455825\\
9	0.141533477104454\\
10	0.158175166246243\\
11	0.163761757297189\\
12	0.600100605556833\\
13	0.118033417583129\\
14	0.0610914209628117\\
15	0.0426162246246858\\
16	0.0332715711707656\\
17	0.0321939439283243\\
18	0.0268871008873183\\
19	0.0316920608120786\\
20	0.0286771919664519\\
21	0.00773119825769845\\
22	0.0330073087209196\\
23	0.019415059292473\\
24	0.0177688778425817\\
25	0.0188194600762088\\
26	0.0237714798713867\\
27	0.0430806655948836\\
28	0.586023006720236\\
29	0.0970905103802927\\
30	0.0246981078960262\\
31	0.0780346253424249\\
32	0.0580455436901626\\
33	0.0681836526256362\\
34	0.163824852865525\\
35	0.0446106828365612\\
36	0.06119675966513\\
37	0.00907835157153909\\
38	0.0310093774848825\\
39	0.00125972832884384\\
40	0.005422098150711\\
41	0.0107374596162295\\
42	0.0165479326643041\\
43	0.024789327411243\\
44	0.0446277431282512\\
45	0.058019450740893\\
46	0.074843365423057\\
47	0.199666615467323\\
48	0.216838516027539\\
49	0.0783890355452335\\
50	0.0495529240878659\\
51	0.0370791446049236\\
52	0.0307530810094058\\
53	0.0155757068681131\\
54	0.0198807977432187\\
55	0.0179871495341263\\
56	0.0162887905400521\\
57	0.0148728268904216\\
58	0.0136909847461918\\
59	0.0126943671543235\\
60	0.011846112844806\\
61	0.0111233301448608\\
62	0.0105291449791113\\
63	0.0102108676347222\\
64	0.00751288118280402\\
65	0.00739035992869396\\
66	0.0116365722557393\\
67	0.00899390796280924\\
68	0.00831157148096884\\
69	0.00788086875151191\\
70	0.00754217236777393\\
71	0.00725475830161164\\
72	0.00700327644843893\\
73	0.006780818536885\\
74	0.00658453626015097\\
75	0.00641472878078445\\
76	0.00627599401250467\\
77	0.00618216997550965\\
78	0.00617516728867787\\
79	0.00642745729543014\\
80	0.00873051939586948\\
81	0.00471465923588381\\
82	0.00195996010568866\\
83	0.004980313957114\\
84	0.00475839614864904\\
85	0.00464733241660508\\
86	0.00455444244400457\\
87	0.00446749239384432\\
88	0.00438406292262191\\
89	0.00430366820355207\\
90	0.00422628355118023\\
91	0.00415201532524293\\
92	0.00408104289588831\\
93	0.00401365198230764\\
94	0.00395033763548775\\
95	0.00389203620501121\\
96	0.00384070443755282\\
97	0.00380107128140597\\
98	0.00378779867734327\\
99	0.00387836096292209\\
100	0.00228454900881806\\
101	0.00321909463290553\\
102	0.00328982387499096\\
103	0.00328100374444436\\
104	0.00325253146337885\\
105	0.00321692683031362\\
106	0.00317840637543852\\
107	0.00313876414674543\\
108	0.00309887602618152\\
109	0.00305920797263281\\
110	0.00302002111537278\\
111	0.00298146552488656\\
112	0.00294362726599965\\
113	0.0029065537719176\\
114	0.00287026833389302\\
115	0.00283477876811283\\
116	0.00280008280049957\\
117	0.00276617151884636\\
118	0.00273303164395387\\
119	0.00270064705586787\\
120	0.00266899983729428\\
121	0.00263807099659409\\
122	0.00260784097374635\\
123	0.00257828999668392\\
124	0.00254939833288439\\
125	0.00252114646667125\\
126	0.00249351522323938\\
127	0.00246648585412356\\
128	0.00244004009455901\\
129	0.00241416020024051\\
130	0.00238882896892876\\
131	0.0023640297508985\\
132	0.00233974645117835\\
133	0.00231596352577768\\
134	0.00229266597354371\\
135	0.00226983932488367\\
136	0.00224746962828519\\
137	0.00222554343533969\\
138	0.00220404778480324\\
139	0.00218297018609978\\
140	0.00216229860257188\\
141	0.00214202143470905\\
142	0.00212212750352594\\
143	0.00210260603421662\\
144	0.00208344664017788\\
145	0.00206463930746792\\
146	0.00204617437974413\\
147	0.00202804254371082\\
148	0.00201023481509265\\
149	0.00199274252514179\\
150	0.00197555730767936\\
151	0.0019586710866655\\
152	0.00194207606428942\\
153	0.00192576470956709\\
154	0.00190972974743187\\
155	0.00189396414830307\\
156	0.00187846111811499\\
157	0.00186321408878906\\
158	0.00184821670913216\\
159	0.00183346283614256\\
160	0.00181894652670628\\
161	0.00180466202966742\\
162	0.00179060377825436\\
163	0.00177676638284649\\
164	0.00176314462406556\\
165	0.00174973344617591\\
166	0.0017365279507797\\
167	0.00172352339079259\\
168	0.00171071516468654\\
169	0.00169809881098722\\
170	0.00168567000301325\\
171	0.00167342454384613\\
172	0.00166135836151948\\
173	0.00164946750441694\\
174	0.00163774813686889\\
175	0.00162619653493841\\
176	0.00161480908238697\\
177	0.00160358226681213\\
178	0.001592512675948\\
179	0.00158159699412143\\
180	0.00157083199885632\\
181	0.00156021455761888\\
182	0.00154974162469766\\
183	0.00153941023821136\\
184	0.00152921751723897\\
185	0.00151916065906659\\
186	0.00150923693654504\\
187	0.00149944369555362\\
188	0.00148977835256491\\
189	0.00148023839230615\\
190	0.0014708213655126\\
191	0.00146152488676917\\
192	0.00145234663243548\\
193	0.00144328433865201\\
194	0.00143433579942216\\
195	0.0014254988647679\\
196	0.00141677143895562\\
197	0.00140815147878894\\
198	0.00139963699196521\\
199	0\\
200	0\\
};
\addlegendentry{$\mathbf{h_1}$}

\addplot [color=mycolor2]
  table[row sep=crcr]{%
1	0.00495033386861547\\
2	0.00515738368500011\\
3	0.00538309861623286\\
4	0.00563019833310769\\
5	0.00590197136255583\\
6	0.00620243506959928\\
7	0.00653655369620811\\
8	0.00691054090538825\\
9	0.00733228812251618\\
10	0.00781198494389501\\
11	0.00836304134465097\\
12	0.0090034999823859\\
13	0.00975827527656913\\
14	0.0106628508662167\\
15	0.0117696896019869\\
16	0.0131600228416925\\
17	0.0149671880151623\\
18	0.0174273921400842\\
19	0.0210049332363351\\
20	0.0267613442180004\\
21	0.037792597580649\\
22	0.068721841139076\\
23	0.97572931769219\\
24	0.0649085399616321\\
25	0.0262918397391367\\
26	0.0126468169615953\\
27	0.00419508123086451\\
28	0.0214241856295046\\
29	0.0134643328328179\\
30	0.00412679327935559\\
31	0.0112712342656943\\
32	0.0282552508318709\\
33	0.111702725947746\\
34	0.12653020104749\\
35	0.0361926668223949\\
36	0.024130019396178\\
37	0.019518168382204\\
38	0.0163235660243771\\
39	0.0140849625225472\\
40	0.0124312948441269\\
41	0.0111552918846637\\
42	0.0101369616841952\\
43	0.00930266674553233\\
44	0.00860476970863487\\
45	0.00801105372801389\\
46	0.00749890841387189\\
47	0.00705196472677567\\
48	0.00665805661850076\\
49	0.0063079366485928\\
50	0.00599443852440938\\
51	0.00571191453485358\\
52	0.00545584764793091\\
53	0.0052225778141873\\
54	0.00500910486747672\\
55	0.00481294397681212\\
56	0.00463201789166602\\
57	0.00446457542356871\\
58	0.00430912894812168\\
59	0.00416440590497024\\
60	0.00402931074167137\\
61	0.00390289474814389\\
62	0.00378433192171684\\
63	0.00367289949042518\\
64	0.0035679620699816\\
65	0.00346895868109233\\
66	0.00337539203747226\\
67	0.00328681965070268\\
68	0.00320284639950925\\
69	0\\
70	0\\
71	0\\
72	0\\
73	0\\
74	0\\
75	0\\
76	0\\
77	0\\
78	0\\
79	0\\
80	0\\
81	0\\
82	0\\
83	0\\
84	0\\
85	0\\
86	0\\
87	0\\
88	0\\
89	0\\
90	0\\
91	0\\
92	0\\
93	0\\
94	0\\
95	0\\
96	0\\
97	0\\
98	0\\
99	0\\
100	0\\
101	0\\
102	0\\
103	0\\
104	0\\
105	0\\
106	0\\
107	0\\
108	0\\
109	0\\
110	0\\
111	0\\
112	0\\
113	0\\
114	0\\
115	0\\
116	0\\
117	0\\
118	0\\
119	0\\
120	0\\
121	0\\
122	0\\
123	0\\
124	0\\
125	0\\
126	0\\
127	0\\
128	0\\
129	0\\
130	0\\
131	0\\
132	0\\
133	0\\
134	0\\
135	0\\
136	0\\
137	0\\
138	0\\
139	0\\
140	0\\
141	0\\
142	0\\
143	0\\
144	0\\
145	0\\
146	0\\
147	0\\
148	0\\
149	0\\
150	0\\
151	0\\
152	0\\
153	0\\
154	0\\
155	0\\
156	0\\
157	0\\
158	0\\
159	0\\
160	0\\
161	0\\
162	0\\
163	0\\
164	0\\
165	0\\
166	0\\
167	0\\
168	0\\
169	0\\
170	0\\
171	0\\
172	0\\
173	0\\
174	0\\
175	0\\
176	0\\
177	0\\
178	0\\
179	0\\
180	0\\
181	0\\
182	0\\
183	0\\
184	0\\
185	0\\
186	0\\
187	0\\
188	0\\
189	0\\
190	0\\
191	0\\
192	0\\
193	0\\
194	0\\
195	0\\
196	0\\
197	0\\
198	0\\
199	0\\
200	0\\
};
\addlegendentry{$\mathbf{h_{2}}$}

\end{axis}

\begin{axis}[%
width=1.935in,
height=3.2in,
at={(3.327in,0.512in)},
scale only axis,
xmin=0,
xmax=210,
xlabel style={font=\color{white!15!black}, align=center},
xlabel={Sample Index\\[1ex](b) Estimated},
ymin=0,
ymax=1,
axis background/.style={fill=white},
legend style={legend cell align=left, align=left, draw=white!15!black}
]
\addplot [color=mycolor1]
  table[row sep=crcr]{%
0	0.000102263260687398\\
1	0.000101040204050729\\
2	0.000142397063704155\\
3	4.54182331965028e-05\\
4	7.30311976105607e-05\\
5	9.41382820409388e-05\\
6	3.5674311590611e-05\\
7	7.93767677155075e-05\\
8	4.43307070557962e-05\\
9	4.56777873320104e-05\\
10	3.37308542957196e-05\\
11	7.52622238587033e-05\\
12	2.66956290534777e-05\\
13	0.000106482307550288\\
14	0.000126979571286752\\
15	6.74342606866014e-05\\
16	7.87552956778639e-05\\
17	3.8696187844867e-05\\
18	0.0001249456385434\\
19	5.75206003807905e-05\\
20	0.000149975720088246\\
21	8.83856761080201e-05\\
22	0.000124194225558126\\
23	0.000107797704008935\\
24	0.000124901068973361\\
25	2.41972102699358e-05\\
26	6.48698899195412e-05\\
27	5.72057112675416e-05\\
28	0.00013322002733192\\
29	6.32444724426771e-05\\
30	9.82706421664073e-05\\
31	0.000135709688262291\\
32	7.19475589149639e-05\\
33	9.52743122300564e-05\\
34	2.36763706020694e-05\\
35	6.11607722468296e-05\\
36	0.000104697649531559\\
37	3.30157468208472e-05\\
38	6.9971602882056e-05\\
39	0.000166199682863957\\
40	8.74195682915694e-05\\
41	8.03385721129861e-05\\
42	8.40477435937386e-05\\
43	0.000140580701346212\\
44	5.5281887622627e-05\\
45	0.000176295905452154\\
46	7.20560984237301e-05\\
47	7.66430307176515e-05\\
48	3.15721491502205e-05\\
49	4.26641512861495e-05\\
50	3.43333035416949e-05\\
51	0.000109914714308711\\
52	4.08915876118916e-05\\
53	8.73915351353185e-05\\
54	0.000100163441510301\\
55	4.12926697601295e-05\\
56	6.69282476734838e-05\\
57	0.000142002304616462\\
58	8.29045745527918e-05\\
59	4.54969877126482e-05\\
60	4.88282455219788e-05\\
61	4.56312742628587e-05\\
62	6.83065451341562e-05\\
63	0.000212499038504014\\
64	5.74487861317411e-05\\
65	0.000120843189038948\\
66	6.28594420753169e-05\\
67	3.48560981177706e-05\\
68	0.00017463222799586\\
69	7.61806526224024e-05\\
70	0.000215921511366661\\
71	9.39788897920371e-05\\
72	5.38844667458752e-05\\
73	0.00658246103509415\\
74	0.000173121440459391\\
75	0.000457411055277767\\
76	1.63415696063241e-05\\
77	0.0165804522210606\\
78	7.81860762139763e-05\\
79	0.0170051230527398\\
80	0.0210595558476883\\
81	0.00818125591990911\\
82	0.0846960825093905\\
83	0.00135931809731662\\
84	8.22630799560685e-05\\
85	2.04380463442548e-05\\
86	0.000421122507902337\\
87	0.0293865166835804\\
88	0.0442815999002905\\
89	0.141788718656713\\
90	0.0900149327346075\\
91	0.125401827462475\\
92	0.20654890997001\\
93	0.597246762336064\\
94	0.122906897365425\\
95	0.0516194093336244\\
96	0.00642104773270919\\
97	0.0338327152254249\\
98	0.0601111634539034\\
99	0.0598795889388588\\
100	0.000357933597575604\\
101	0.0122797700998297\\
102	1.85049374862565e-05\\
103	0.0244318207888\\
104	0.00526147879855871\\
105	0.0227972152622305\\
106	0.0209820823607477\\
107	0.0242052645350853\\
108	0.0655751898764038\\
109	0.608006812587811\\
110	0.116261634565378\\
111	0.0106658042510595\\
112	0.049555108724139\\
113	0.0423090029039284\\
114	0.0620559414192511\\
115	0.169063617397641\\
116	0.00171833258529826\\
117	0.0304087519670147\\
118	0.0235531541057177\\
119	0.00297165589513027\\
120	8.7382909800104e-05\\
121	3.87738950256246e-05\\
122	0.00014851148777061\\
123	0.000131946578303992\\
124	0.000108008437111305\\
125	0.0445692364844519\\
126	0.04539856217522\\
127	0.0640785217018285\\
128	0.219408327727346\\
129	0.172572025511027\\
130	0.0633380451523482\\
131	0.0341477877249546\\
132	0.00498110778486492\\
133	0.00674217666795158\\
134	0.000368325524282018\\
135	6.45296218535265e-05\\
136	9.83664437234618e-05\\
137	5.32426480534289e-05\\
138	8.30769216182191e-05\\
139	1.70714319165876e-05\\
140	8.49713145938889e-05\\
141	0.000175226778038392\\
142	5.25162602349943e-05\\
143	5.64201847969779e-05\\
144	0.00220968615402959\\
145	0.00207284375431929\\
146	5.88743116656565e-05\\
147	0.000142789553299574\\
148	6.93478204782071e-05\\
149	9.78961673272058e-05\\
150	3.8007103682629e-05\\
151	5.06129131268155e-05\\
152	7.07464722671076e-05\\
153	7.71839545704027e-05\\
154	4.48967245857821e-05\\
155	5.94390580269552e-05\\
156	0.00015094212601476\\
157	0.000141784573120387\\
158	8.19666327524748e-05\\
159	5.12293491457652e-05\\
160	7.7622103875527e-05\\
161	0.000111650081374999\\
162	2.58600013515622e-05\\
163	0.000162220985566968\\
164	9.18425099844103e-05\\
165	7.45752885325379e-05\\
166	2.79965565263516e-05\\
167	3.73912709016898e-05\\
168	3.55533144147411e-05\\
169	0.000199976180520794\\
170	6.09966680077417e-05\\
171	8.65549828385405e-05\\
172	5.75299645820286e-05\\
173	0.000114649311086498\\
174	7.63251308619612e-05\\
175	3.29917539192649e-05\\
176	0.000162426247401472\\
177	0.000166131002919116\\
178	8.4406939859278e-05\\
179	5.14696472519332e-05\\
180	7.14983744095138e-05\\
181	8.22469259956103e-05\\
182	9.62602335227097e-05\\
183	8.47322695936981e-05\\
184	2.30737931810009e-05\\
185	3.63463110836637e-05\\
186	3.51477830131549e-05\\
187	4.16994914312794e-05\\
188	2.33172869462779e-05\\
189	2.05866294376329e-05\\
190	0.000138035262488814\\
191	0.000128473824786616\\
192	3.37701797385963e-05\\
193	0.000186761364076417\\
194	7.65649157951899e-05\\
195	0.000104811950057912\\
196	0.000109684993224872\\
197	0.0001655076673877\\
198	8.65806370734129e-05\\
199	0.000131769418684322\\
200	2.71214615284342e-05\\
201	9.48736316123699e-05\\
202	5.55956397023807e-05\\
203	3.32021367872693e-05\\
204	0.000116043682313079\\
205	6.55682962431937e-05\\
206	7.9127269642241e-05\\
207	8.30765291834864e-05\\
208	0.000104945218715032\\
209	4.71007417718695e-05\\
210	3.79873094959002e-05\\
};
\addlegendentry{$\mathbf{\hat{h}_{1}}$}

\addplot [color=mycolor2]
  table[row sep=crcr]{%
0	4.24429088058108e-05\\
1	2.75355697545377e-05\\
2	2.45948377194503e-05\\
3	8.3400697470707e-06\\
4	1.7695533760264e-05\\
5	1.10631389954954e-05\\
6	3.25335834387126e-05\\
7	2.54663718033242e-05\\
8	2.34852379352018e-05\\
9	2.44026624831552e-05\\
10	9.38367304692808e-06\\
11	1.1599184057803e-05\\
12	1.86887268729941e-05\\
13	3.0748450847482e-05\\
14	1.85846548063215e-05\\
15	2.45471202824769e-05\\
16	2.39496575917109e-05\\
17	2.33175342821178e-05\\
18	1.40939797299653e-05\\
19	2.0794874689191e-06\\
20	3.14866139991024e-05\\
21	7.35520016960021e-06\\
22	3.5363774012202e-05\\
23	2.38911580234836e-05\\
24	1.6229104207292e-05\\
25	1.64073710558236e-05\\
26	1.87078695569955e-05\\
27	1.5263900978336e-05\\
28	1.84805098785693e-05\\
29	8.31987854199374e-06\\
30	1.52380060518848e-05\\
31	2.68656801294568e-05\\
32	1.27312569223019e-05\\
33	2.35770617177927e-05\\
34	5.81432336244574e-05\\
35	9.11483207495163e-06\\
36	1.56532269926912e-05\\
37	1.08260639589958e-05\\
38	2.86014742433876e-05\\
39	1.80492329502144e-05\\
40	4.36818872603176e-05\\
41	3.92164886279717e-05\\
42	7.57271773728662e-06\\
43	2.59546067003071e-05\\
44	3.78441059830529e-05\\
45	1.03749554614661e-05\\
46	4.4296350718025e-06\\
47	8.96975924635439e-06\\
48	3.76774328840991e-06\\
49	3.71109102359803e-05\\
50	3.11971192158107e-05\\
51	1.99720273964141e-05\\
52	3.55016444248206e-05\\
53	2.08375703637224e-05\\
54	5.74253374107451e-06\\
55	3.01285579045623e-06\\
56	1.27430575750801e-05\\
57	1.89716228327607e-05\\
58	4.24097926297638e-05\\
59	1.08697749486088e-05\\
60	2.07565477861889e-05\\
61	1.39810261605393e-05\\
62	3.49417219113655e-05\\
63	7.14819884740889e-06\\
64	0.000109590537141114\\
65	0.0124245301864576\\
66	0.00780246964155388\\
67	6.84417039975992e-05\\
68	0.0267820933396195\\
69	0.00854898042119447\\
70	0.00503936779739332\\
71	0.004580543315578\\
72	0.000619564181921083\\
73	3.6024934680717e-05\\
74	1.47711083904891e-05\\
75	3.8634312513464e-05\\
76	1.30477740591184e-05\\
77	0.000188742496380536\\
78	0.00945532092551677\\
79	1.43134755778776e-05\\
80	0.000117139816678296\\
81	0.0103580733486207\\
82	0.00900085696161359\\
83	0.0044486132416504\\
84	0.0255492193507336\\
85	0.0310385688018123\\
86	0.0156361144845739\\
87	0.00377049464313241\\
88	0.0678486740707028\\
89	0.00559303504385488\\
90	0.0011380686351068\\
91	0.00878560426242237\\
92	0.00144305371811654\\
93	0.00219531929314249\\
94	5.32061246074325e-05\\
95	0.00530152982023594\\
96	0.00823068910152426\\
97	0.0029412058656947\\
98	0.00368282101341722\\
99	0.000862775280080227\\
100	1.64321066078497e-05\\
101	0.0281864513699754\\
102	0.0119441231851432\\
103	3.82664573213681e-05\\
104	0.990889655690752\\
105	4.48380212256334e-05\\
106	0.0124795319011567\\
107	0.0287010147129356\\
108	5.12398495687186e-06\\
109	0.00138771271375567\\
110	0.00489587348882493\\
111	0.00238399124369824\\
112	0.00782075140683371\\
113	0.00432800465331969\\
114	9.88182890894344e-05\\
115	0.00231897555298074\\
116	0.00140776724802857\\
117	0.00887887210138041\\
118	0.000390747785085124\\
119	0.00476746215545361\\
120	0.067825614891622\\
121	0.0035647919830925\\
122	0.0159155111243557\\
123	0.0311021896207521\\
124	0.0260498535994671\\
125	0.00512638705851207\\
126	0.0094193254812902\\
127	0.010716593965554\\
128	0.000113080001164921\\
129	2.49222507365247e-05\\
130	0.00966392512638706\\
131	0.000471884840567082\\
132	2.16385631073784e-05\\
133	2.16783722384355e-05\\
134	2.82163686219085e-05\\
135	4.10265906696585e-05\\
136	0.000274122336399786\\
137	0.00517939907005425\\
138	0.00496026996474033\\
139	0.00842767690235312\\
140	0.0272123596610656\\
141	2.7313231954195e-05\\
142	0.00827746862893393\\
143	0.0130035231361788\\
144	0.00054897992075493\\
145	2.91503397873496e-05\\
146	2.23782947771602e-05\\
147	7.15672677579387e-06\\
148	2.00399167684277e-05\\
149	1.87892618897749e-05\\
150	4.1341991861214e-05\\
151	1.86655279743148e-05\\
152	1.37080389036283e-05\\
153	9.52280532873202e-06\\
154	1.77886987312325e-05\\
155	2.94625221574472e-05\\
156	5.82302946706681e-05\\
157	2.31238361869317e-05\\
158	3.3329598368385e-05\\
159	3.09859817071069e-05\\
160	6.34494289293593e-06\\
161	8.89187916164809e-06\\
162	9.44343968365236e-06\\
163	1.67795769544679e-05\\
164	3.99230324802919e-05\\
165	3.45407421808805e-05\\
166	2.99629831340942e-06\\
167	3.71861759472169e-05\\
168	4.2039813470947e-05\\
169	3.07143750036466e-05\\
170	3.34344436251735e-05\\
171	1.44098278244411e-05\\
172	1.80439823328712e-05\\
173	1.25717360828201e-05\\
174	6.23723106613662e-05\\
175	2.23831665674363e-05\\
176	2.58595103415917e-05\\
177	2.03110699557226e-05\\
178	3.64749468682953e-06\\
179	1.29350964412705e-05\\
180	2.76641059346316e-05\\
181	8.38595378778185e-06\\
182	9.00632546491364e-06\\
183	2.50880322210654e-05\\
184	1.63297286446561e-05\\
185	1.40608357022715e-05\\
186	4.84975651962495e-05\\
187	1.74689274743021e-05\\
188	3.50926543469777e-05\\
189	1.03697029073021e-05\\
190	1.68748650581743e-05\\
191	3.13183377003013e-05\\
192	3.13908592980875e-05\\
193	2.11393863230901e-05\\
194	1.80538976134728e-05\\
195	1.06700472316061e-05\\
196	2.89123103126048e-05\\
197	1.669529554462e-06\\
198	5.48884042794986e-06\\
199	2.39308245205756e-05\\
200	1.02378431568113e-05\\
201	1.03195406971838e-05\\
202	2.40619462553953e-05\\
203	2.49142076106721e-05\\
204	1.83038496434167e-05\\
205	1.4777491934095e-05\\
206	2.15239089437036e-05\\
207	3.62866892432857e-05\\
208	5.02481006345632e-05\\
209	1.83693616269571e-05\\
210	2.2099639121332e-05\\
};
\addlegendentry{$\mathbf{\hat{h}_{2}}$}

\end{axis}
\end{tikzpicture}%