% This file was created by matlab2tikz.
%
%The latest updates can be retrieved from
%  http://www.mathworks.com/matlabcentral/fileexchange/22022-matlab2tikz-matlab2tikz
%where you can also make suggestions and rate matlab2tikz.
%
\definecolor{mycolor1}{rgb}{0.00000,0.44700,0.74100}%
\definecolor{mycolor2}{rgb}{0.85000,0.32500,0.09800}%
%
\begin{tikzpicture}

\begin{axis}[%
width=1.935in,
height=3.2in,
at={(0.758in,0.512in)},
scale only axis,
xmin=0,
xmax=200,
xlabel style={font=\color{white!15!black}, align=center},
xlabel={Sample Index\\[1ex](a)},
ymin=0,
ymax=1,
axis background/.style={fill=white},
legend style={legend cell align=left, align=left, draw=white!15!black}
]
\addplot [color=mycolor1]
  table[row sep=crcr]{%
1	0.0167418731260698\\
2	0.018659722218203\\
3	0.0211495716349754\\
4	0.0245407494314006\\
5	0.029505643974117\\
6	0.0377161636169434\\
7	0.0550750576238134\\
8	0.131028403455825\\
9	0.141533477104454\\
10	0.158175166246243\\
11	0.163761757297189\\
12	0.600100605556833\\
13	0.118033417583129\\
14	0.0610914209628117\\
15	0.0426162246246858\\
16	0.0332715711707656\\
17	0.0321939439283243\\
18	0.0268871008873183\\
19	0.0316920608120786\\
20	0.0286771919664519\\
21	0.00773119825769845\\
22	0.0330073087209196\\
23	0.019415059292473\\
24	0.0177688778425817\\
25	0.0188194600762088\\
26	0.0237714798713867\\
27	0.0430806655948836\\
28	0.586023006720236\\
29	0.0970905103802927\\
30	0.0246981078960262\\
31	0.0780346253424249\\
32	0.0580455436901626\\
33	0.0681836526256362\\
34	0.163824852865525\\
35	0.0446106828365612\\
36	0.06119675966513\\
37	0.00907835157153909\\
38	0.0310093774848825\\
39	0.00125972832884384\\
40	0.005422098150711\\
41	0.0107374596162295\\
42	0.0165479326643041\\
43	0.024789327411243\\
44	0.0446277431282512\\
45	0.058019450740893\\
46	0.074843365423057\\
47	0.199666615467323\\
48	0.216838516027539\\
49	0.0783890355452335\\
50	0.0495529240878659\\
51	0.0370791446049236\\
52	0.0307530810094058\\
53	0.0155757068681131\\
54	0.0198807977432187\\
55	0.0179871495341263\\
56	0.0162887905400521\\
57	0.0148728268904216\\
58	0.0136909847461918\\
59	0.0126943671543235\\
60	0.011846112844806\\
61	0.0111233301448608\\
62	0.0105291449791113\\
63	0.0102108676347222\\
64	0.00751288118280402\\
65	0.00739035992869396\\
66	0.0116365722557393\\
67	0.00899390796280924\\
68	0.00831157148096884\\
69	0.00788086875151191\\
70	0.00754217236777393\\
71	0.00725475830161164\\
72	0.00700327644843893\\
73	0.006780818536885\\
74	0.00658453626015097\\
75	0.00641472878078445\\
76	0.00627599401250467\\
77	0.00618216997550965\\
78	0.00617516728867787\\
79	0.00642745729543014\\
80	0.00873051939586948\\
81	0.00471465923588381\\
82	0.00195996010568866\\
83	0.004980313957114\\
84	0.00475839614864904\\
85	0.00464733241660508\\
86	0.00455444244400457\\
87	0.00446749239384432\\
88	0.00438406292262191\\
89	0.00430366820355207\\
90	0.00422628355118023\\
91	0.00415201532524293\\
92	0.00408104289588831\\
93	0.00401365198230764\\
94	0.00395033763548775\\
95	0.00389203620501121\\
96	0.00384070443755282\\
97	0.00380107128140597\\
98	0.00378779867734327\\
99	0.00387836096292209\\
100	0.00228454900881806\\
101	0.00321909463290553\\
102	0.00328982387499096\\
103	0.00328100374444436\\
104	0.00325253146337885\\
105	0.00321692683031362\\
106	0.00317840637543852\\
107	0.00313876414674543\\
108	0.00309887602618152\\
109	0.00305920797263281\\
110	0.00302002111537278\\
111	0.00298146552488656\\
112	0.00294362726599965\\
113	0.0029065537719176\\
114	0.00287026833389302\\
115	0.00283477876811283\\
116	0.00280008280049957\\
117	0.00276617151884636\\
118	0.00273303164395387\\
119	0.00270064705586787\\
120	0.00266899983729428\\
121	0.00263807099659409\\
122	0.00260784097374635\\
123	0.00257828999668392\\
124	0.00254939833288439\\
125	0.00252114646667125\\
126	0.00249351522323938\\
127	0.00246648585412356\\
128	0.00244004009455901\\
129	0.00241416020024051\\
130	0.00238882896892876\\
131	0.0023640297508985\\
132	0.00233974645117835\\
133	0.00231596352577768\\
134	0.00229266597354371\\
135	0.00226983932488367\\
136	0.00224746962828519\\
137	0.00222554343533969\\
138	0.00220404778480324\\
139	0.00218297018609978\\
140	0.00216229860257188\\
141	0.00214202143470905\\
142	0.00212212750352594\\
143	0.00210260603421662\\
144	0.00208344664017788\\
145	0.00206463930746792\\
146	0.00204617437974413\\
147	0.00202804254371082\\
148	0.00201023481509265\\
149	0.00199274252514179\\
150	0.00197555730767936\\
151	0.0019586710866655\\
152	0.00194207606428942\\
153	0.00192576470956709\\
154	0.00190972974743187\\
155	0.00189396414830307\\
156	0.00187846111811499\\
157	0.00186321408878906\\
158	0.00184821670913216\\
159	0.00183346283614256\\
160	0.00181894652670628\\
161	0.00180466202966742\\
162	0.00179060377825436\\
163	0.00177676638284649\\
164	0.00176314462406556\\
165	0.00174973344617591\\
166	0.0017365279507797\\
167	0.00172352339079259\\
168	0.00171071516468654\\
169	0.00169809881098722\\
170	0.00168567000301325\\
171	0.00167342454384613\\
172	0.00166135836151948\\
173	0.00164946750441694\\
174	0.00163774813686889\\
175	0.00162619653493841\\
176	0.00161480908238697\\
177	0.00160358226681213\\
178	0.001592512675948\\
179	0.00158159699412143\\
180	0.00157083199885632\\
181	0.00156021455761888\\
182	0.00154974162469766\\
183	0.00153941023821136\\
184	0.00152921751723897\\
185	0.00151916065906659\\
186	0.00150923693654504\\
187	0.00149944369555362\\
188	0.00148977835256491\\
189	0.00148023839230615\\
190	0.0014708213655126\\
191	0.00146152488676917\\
192	0.00145234663243548\\
193	0.00144328433865201\\
194	0.00143433579942216\\
195	0.0014254988647679\\
196	0.00141677143895562\\
197	0.00140815147878894\\
198	0.00139963699196521\\
199	0\\
200	0\\
};
\addlegendentry{$\mathbf{h_1}$}

\addplot [color=mycolor2]
  table[row sep=crcr]{%
1	0.00495033386861547\\
2	0.00515738368500011\\
3	0.00538309861623286\\
4	0.00563019833310769\\
5	0.00590197136255583\\
6	0.00620243506959928\\
7	0.00653655369620811\\
8	0.00691054090538825\\
9	0.00733228812251618\\
10	0.00781198494389501\\
11	0.00836304134465097\\
12	0.0090034999823859\\
13	0.00975827527656913\\
14	0.0106628508662167\\
15	0.0117696896019869\\
16	0.0131600228416925\\
17	0.0149671880151623\\
18	0.0174273921400842\\
19	0.0210049332363351\\
20	0.0267613442180004\\
21	0.037792597580649\\
22	0.068721841139076\\
23	0.97572931769219\\
24	0.0649085399616321\\
25	0.0262918397391367\\
26	0.0126468169615953\\
27	0.00419508123086451\\
28	0.0214241856295046\\
29	0.0134643328328179\\
30	0.00412679327935559\\
31	0.0112712342656943\\
32	0.0282552508318709\\
33	0.111702725947746\\
34	0.12653020104749\\
35	0.0361926668223949\\
36	0.024130019396178\\
37	0.019518168382204\\
38	0.0163235660243771\\
39	0.0140849625225472\\
40	0.0124312948441269\\
41	0.0111552918846637\\
42	0.0101369616841952\\
43	0.00930266674553233\\
44	0.00860476970863487\\
45	0.00801105372801389\\
46	0.00749890841387189\\
47	0.00705196472677567\\
48	0.00665805661850076\\
49	0.0063079366485928\\
50	0.00599443852440938\\
51	0.00571191453485358\\
52	0.00545584764793091\\
53	0.0052225778141873\\
54	0.00500910486747672\\
55	0.00481294397681212\\
56	0.00463201789166602\\
57	0.00446457542356871\\
58	0.00430912894812168\\
59	0.00416440590497024\\
60	0.00402931074167137\\
61	0.00390289474814389\\
62	0.00378433192171684\\
63	0.00367289949042518\\
64	0.0035679620699816\\
65	0.00346895868109233\\
66	0.00337539203747226\\
67	0.00328681965070268\\
68	0.00320284639950925\\
69	0\\
70	0\\
71	0\\
72	0\\
73	0\\
74	0\\
75	0\\
76	0\\
77	0\\
78	0\\
79	0\\
80	0\\
81	0\\
82	0\\
83	0\\
84	0\\
85	0\\
86	0\\
87	0\\
88	0\\
89	0\\
90	0\\
91	0\\
92	0\\
93	0\\
94	0\\
95	0\\
96	0\\
97	0\\
98	0\\
99	0\\
100	0\\
101	0\\
102	0\\
103	0\\
104	0\\
105	0\\
106	0\\
107	0\\
108	0\\
109	0\\
110	0\\
111	0\\
112	0\\
113	0\\
114	0\\
115	0\\
116	0\\
117	0\\
118	0\\
119	0\\
120	0\\
121	0\\
122	0\\
123	0\\
124	0\\
125	0\\
126	0\\
127	0\\
128	0\\
129	0\\
130	0\\
131	0\\
132	0\\
133	0\\
134	0\\
135	0\\
136	0\\
137	0\\
138	0\\
139	0\\
140	0\\
141	0\\
142	0\\
143	0\\
144	0\\
145	0\\
146	0\\
147	0\\
148	0\\
149	0\\
150	0\\
151	0\\
152	0\\
153	0\\
154	0\\
155	0\\
156	0\\
157	0\\
158	0\\
159	0\\
160	0\\
161	0\\
162	0\\
163	0\\
164	0\\
165	0\\
166	0\\
167	0\\
168	0\\
169	0\\
170	0\\
171	0\\
172	0\\
173	0\\
174	0\\
175	0\\
176	0\\
177	0\\
178	0\\
179	0\\
180	0\\
181	0\\
182	0\\
183	0\\
184	0\\
185	0\\
186	0\\
187	0\\
188	0\\
189	0\\
190	0\\
191	0\\
192	0\\
193	0\\
194	0\\
195	0\\
196	0\\
197	0\\
198	0\\
199	0\\
200	0\\
};
\addlegendentry{$\mathbf{h_{2}}$}

\end{axis}

\begin{axis}[%
width=1.935in,
height=3.2in,
at={(3.327in,0.512in)},
scale only axis,
xmin=0,
xmax=200,
xlabel style={font=\color{white!15!black}, align=center},
xlabel={Sample Index\\[1ex](b)},
ymin=0,
ymax=0.14,
axis background/.style={fill=white},
legend style={legend cell align=left, align=left, draw=white!15!black}
]
\addplot [color=mycolor1]
  table[row sep=crcr]{%
0	0.0301470436882103\\
1	0.0385912379465763\\
2	0.0281835116019632\\
3	0.0266610781458454\\
4	0.0257433844830842\\
5	0.0374277630362328\\
6	0.0412554813512199\\
7	0.0472434607520678\\
8	0.0458044449945074\\
9	0.0469647413564331\\
10	0.0454935752915124\\
11	0.0383417578830559\\
12	0.0409743784035166\\
13	0.0416064366323215\\
14	0.0485787701281209\\
15	0.0551069069998087\\
16	0.0459596175266462\\
17	0.0494258827687306\\
18	0.0711882776774849\\
19	0.0727208253237252\\
20	0.0933519965105062\\
21	0.0844870316127828\\
22	0.0815102066724766\\
23	0.0802887591536954\\
24	0.0779365989132547\\
25	0.0746314426447062\\
26	0.0640337328963145\\
27	0.0534148059174863\\
28	0.0493448636370581\\
29	0.0437397079282313\\
30	0.0431571324669155\\
31	0.0457756307188603\\
32	0.0380195773331181\\
33	0.0329076262885601\\
34	0.0260498493137881\\
35	0.0188096251266468\\
36	0.0372378921470796\\
37	0.051432910967001\\
38	0.0468015369715418\\
39	0.0643269095026984\\
40	0.0761380236080753\\
41	0.089182472763178\\
42	0.0919878748518436\\
43	0.0986927211006081\\
44	0.0979286775532667\\
45	0.10386355339885\\
46	0.104067961363985\\
47	0.10710035252031\\
48	0.111092841209395\\
49	0.109349017297168\\
50	0.114060934918286\\
51	0.114887724176272\\
52	0.107278897430701\\
53	0.105680952451318\\
54	0.0997595446439512\\
55	0.100392102864437\\
56	0.101923047728448\\
57	0.0857442748838574\\
58	0.081086264233756\\
59	0.0738302925362999\\
60	0.0711681519761204\\
61	0.0634290214623008\\
62	0.0560318128086986\\
63	0.0352049422093089\\
64	0.0365358158590863\\
65	0.0392326994652897\\
66	0.0380813098946838\\
67	0.0393874290797078\\
68	0.0495745170917903\\
69	0.0530625538583436\\
70	0.0634017354868892\\
71	0.0676858019719552\\
72	0.0734497973299525\\
73	0.0865008609454364\\
74	0.0895236474355778\\
75	0.0982130954882765\\
76	0.110077341008275\\
77	0.115250991870234\\
78	0.121479057511831\\
79	0.122869618493064\\
80	0.119225748569553\\
81	0.122218489097696\\
82	0.112626577801207\\
83	0.110639702201739\\
84	0.112590279225939\\
85	0.105258116094001\\
86	0.104410827663002\\
87	0.107220728207966\\
88	0.103356421647465\\
89	0.100523218998217\\
90	0.0882036519795685\\
91	0.0832745130599188\\
92	0.0771455143301695\\
93	0.0628787550631036\\
94	0.0552034991648872\\
95	0.0456029631791031\\
96	0.0361700698201557\\
97	0.035586988860941\\
98	0.0395945027111049\\
99	0.0430244330475498\\
100	0.0510418734837364\\
101	0.0571825735231905\\
102	0.0588320117105324\\
103	0.0690099184898361\\
104	0.078019014000146\\
105	0.0813970020825139\\
106	0.096311236231632\\
107	0.100220715637597\\
108	0.109015681955246\\
109	0.113553795613591\\
110	0.116120764340954\\
111	0.12182550089135\\
112	0.123061226639174\\
113	0.119303259375168\\
114	0.115958171920153\\
115	0.108918658877464\\
116	0.106523334653565\\
117	0.106467035760503\\
118	0.101662809857978\\
119	0.10159695865427\\
120	0.0951141616430763\\
121	0.0850876394563591\\
122	0.0761885219590893\\
123	0.0743627979756022\\
124	0.0710375344695277\\
125	0.0773132990720207\\
126	0.0617242742303517\\
127	0.0527437713390121\\
128	0.0508557506456307\\
129	0.0460331710656262\\
130	0.044556790188713\\
131	0.047681614065711\\
132	0.0415694217999003\\
133	0.0436618358715567\\
134	0.0539323108461579\\
135	0.0632536270091916\\
136	0.0606993104733056\\
137	0.0751126196698673\\
138	0.074646510135763\\
139	0.0751001059270467\\
140	0.0742604233011147\\
141	0.0772968978121161\\
142	0.0947453385045763\\
143	0.0939467729966189\\
144	0.0921019816264027\\
145	0.0907878531461775\\
146	0.0862943584718267\\
147	0.0934259108723627\\
148	0.0913045226448587\\
149	0.0836891658696392\\
150	0.086244856418353\\
151	0.0703746546519581\\
152	0.0545729208809178\\
153	0.0374790732735946\\
154	0.0361476723562217\\
155	0.0376646831664816\\
156	0.037547291451077\\
157	0.0357132915197004\\
158	0.0326758099354608\\
159	0.0239066688549987\\
160	0.0205573802717434\\
161	0.0178113573901858\\
162	0.0184165086115513\\
163	0.0171959047773858\\
164	0.0354297330315181\\
165	0.0419917944960593\\
166	0.0446315303755774\\
167	0.0472239393109846\\
168	0.0521553616498932\\
169	0.0535391710797258\\
170	0.060181086221181\\
171	0.0534530357772871\\
172	0.0318658191435617\\
173	0.0374536856055301\\
174	0.0283682369782109\\
175	0.0311572024317106\\
176	0.031380980245524\\
177	0.0280456433520152\\
178	0.0265394880075087\\
179	0.0212609514507311\\
180	0.0270619640980335\\
181	0.0282489097853618\\
182	0.0201218281151085\\
183	0.016455860145808\\
184	0.0149917811453105\\
185	0.0111224837790092\\
186	0.00900157739540436\\
187	0.00459136663260394\\
188	0.00304115965401505\\
189	0.00385964521130109\\
190	0.00725151359236861\\
191	0.0108413855618282\\
192	0.0107775770829384\\
193	0.0132760246923831\\
194	0.0113932123526252\\
195	0.0091479675252931\\
196	0.00998339312356045\\
197	0.00780532763675196\\
198	0.00859037972556982\\
199	0.00970079118103451\\
};
\addlegendentry{$\mathbf{\hat{h}_{1}}$}

\addplot [color=mycolor2]
  table[row sep=crcr]{%
0	0.000350598804412277\\
1	0.000206683047513994\\
2	0.000573177079874082\\
3	0.000807934646835719\\
4	0.000703990734098384\\
5	0.00121379230178685\\
6	0.00116555905127906\\
7	0.00544528162133481\\
8	0.0014968627308207\\
9	0.00630294045195557\\
10	0.0148545210724409\\
11	0.00707188947625225\\
12	0.0138193898203445\\
13	0.0399923205514174\\
14	0.0546148548651315\\
15	0.0958442631915756\\
16	0.0991185166879409\\
17	0.102196330192436\\
18	0.111976340091078\\
19	0.114604287110679\\
20	0.105496648856419\\
21	0.104788704874601\\
22	0.103337585524821\\
23	0.10156201434015\\
24	0.0960661231398321\\
25	0.0915838772308801\\
26	0.0905468228117363\\
27	0.0858681338825783\\
28	0.0813988816661134\\
29	0.0745944262842117\\
30	0.067569802464753\\
31	0.0601933612440759\\
32	0.0592857846302352\\
33	0.0529359297138664\\
34	0.0555119265993265\\
35	0.056916369937717\\
36	0.0559869518219681\\
37	0.0589345129091214\\
38	0.0663721842458206\\
39	0.0713489642393092\\
40	0.0736461674940365\\
41	0.0706467984138707\\
42	0.069370025902023\\
43	0.076156625929273\\
44	0.0855618710966337\\
45	0.0919625135225205\\
46	0.0969015898794213\\
47	0.105453908729563\\
48	0.104181221660936\\
49	0.0963423407021236\\
50	0.0991407095738048\\
51	0.108160543686479\\
52	0.111198265607791\\
53	0.116539162015106\\
54	0.111510766931588\\
55	0.108560710322031\\
56	0.105423795122876\\
57	0.108538191394078\\
58	0.0959161551966625\\
59	0.0883302145864894\\
60	0.0873314677266843\\
61	0.0786166860260309\\
62	0.0722838338130296\\
63	0.0694734683626192\\
64	0.066886405887134\\
65	0.0620057124510248\\
66	0.0500991888353926\\
67	0.0510235610376003\\
68	0.0522387945309613\\
69	0.047947474960098\\
70	0.0551340837112976\\
71	0.0532817286119012\\
72	0.0577213508962842\\
73	0.0631063936049105\\
74	0.0722072497903711\\
75	0.076318737857895\\
76	0.0900378629819552\\
77	0.0854944076244931\\
78	0.0891276812898276\\
79	0.0948310723738708\\
80	0.0968285798228283\\
81	0.098356497533033\\
82	0.107755610324779\\
83	0.110795945320847\\
84	0.113528037796686\\
85	0.112143182338076\\
86	0.111503001395591\\
87	0.109986339414058\\
88	0.10427883067601\\
89	0.0989951521712031\\
90	0.095903630489778\\
91	0.0859628369277359\\
92	0.0792115734502762\\
93	0.0688201853286851\\
94	0.0635724334435663\\
95	0.0621072711722842\\
96	0.055839316677107\\
97	0.0548664799489784\\
98	0.0540073841091442\\
99	0.0507949058739672\\
100	0.0473554104646751\\
101	0.0532946931416607\\
102	0.0567721629409018\\
103	0.0607699706287619\\
104	0.0663741265562109\\
105	0.0719041442415364\\
106	0.0810794963042406\\
107	0.0874642453240983\\
108	0.0905988078204504\\
109	0.0892476041486525\\
110	0.0932971890863728\\
111	0.0927286684375887\\
112	0.094668157820312\\
113	0.0970778103333628\\
114	0.103870266364211\\
115	0.108309152535289\\
116	0.106542574549927\\
117	0.101740879504462\\
118	0.103695655418087\\
119	0.0985953206914326\\
120	0.1052797605209\\
121	0.103841612905807\\
122	0.102219023011935\\
123	0.0987738341262674\\
124	0.0943942366709466\\
125	0.0869412912481057\\
126	0.0842791406933484\\
127	0.0747288098473175\\
128	0.0732712650792455\\
129	0.0715145636634356\\
130	0.0589557307218312\\
131	0.0537190769473249\\
132	0.0469769814136031\\
133	0.0454996783309255\\
134	0.045039735348498\\
135	0.0443773984067128\\
136	0.0461972584864005\\
137	0.0585670583057451\\
138	0.0626979124843634\\
139	0.0704664792242285\\
140	0.0784886298264931\\
141	0.081492923012636\\
142	0.0832477016925983\\
143	0.0885098117590051\\
144	0.0927360434963403\\
145	0.104028931983078\\
146	0.102978976796251\\
147	0.0892963324307429\\
148	0.0757434890888114\\
149	0.0724968649928621\\
150	0.0658021594987446\\
151	0.0618978120737772\\
152	0.0617923165316906\\
153	0.0581680495967576\\
154	0.0519250923742981\\
155	0.045834031307728\\
156	0.0322702920395153\\
157	0.0211899227811516\\
158	0.0191479602925608\\
159	0.012947532036876\\
160	0.00502766256249166\\
161	0.00127425962298136\\
162	0.00283588056529758\\
163	0.0111195857030164\\
164	0.00916195644963999\\
165	0.0139903620473356\\
166	0.00601756017211896\\
167	0.0177470166344041\\
168	0.0142387716700365\\
169	0.0220037186412911\\
170	0.0198106781109115\\
171	0.0143016160723117\\
172	0.0137516796712048\\
173	0.0186164559579122\\
174	0.0216880828303443\\
175	0.0100583460082038\\
176	0.00592863395159868\\
177	0.00755502250338715\\
178	0.00721799390169404\\
179	0.00780156847090421\\
180	0.00699636822159817\\
181	0.00915057244755281\\
182	0.00748451932451099\\
183	0.00680289712377996\\
184	0.00657584301501798\\
185	0.00766615908618715\\
186	0.00360582960176906\\
187	0.000680831869085343\\
188	0.00126803338449574\\
189	0.000867800440052502\\
190	0.000892396677895085\\
191	0.00183443157194196\\
192	0.0010632776992893\\
193	0.000387665473796638\\
194	0.000796678264040909\\
195	0.00102884144238151\\
196	0.00123324131379149\\
197	0.00144158551753312\\
198	0.00209678379919811\\
199	0.00212224210616268\\
};
\addlegendentry{$\mathbf{\hat{h}_{2}}$}

\end{axis}
\end{tikzpicture}%