% This file was created by matlab2tikz.
%
%The latest updates can be retrieved from
%  http://www.mathworks.com/matlabcentral/fileexchange/22022-matlab2tikz-matlab2tikz
%where you can also make suggestions and rate matlab2tikz.
%
\definecolor{mycolor1}{rgb}{0.00000,0.44700,0.74100}%
\definecolor{mycolor2}{rgb}{0.85000,0.32500,0.09800}%
%
\begin{tikzpicture}

\begin{axis}[%
width=1.952in,
height=3.2in,
at={(0.758in,0.512in)},
scale only axis,
xmin=0,
xmax=20,
xlabel style={font=\color{white!15!black}, align=center},
xlabel={Sample Index\\[1ex](a) Actual},
ymin=0,
ymax=0.9,
axis background/.style={fill=white},
legend style={legend cell align=left, align=left, draw=white!15!black}
]
\addplot [color=mycolor1]
  table[row sep=crcr]{%
1	0.0444337104356374\\
2	0.738127803558165\\
3	0.357839506790865\\
4	0.481268775571525\\
5	0.10955194752004\\
6	0.267783168107473\\
7	0.0769544524124665\\
8	0.0372836026936495\\
9	0.027789744685169\\
10	0.0196434178633453\\
11	0.0212138243269196\\
12	0.0147156812719569\\
13	0.0126517206023441\\
14	0.0111331007215966\\
15	0.00994473974674355\\
16	0.00898571135769806\\
17	0.00819466874468931\\
18	0.00753086667278431\\
19	0.00696589032366256\\
20	0.00647923877975415\\
};
\addlegendentry{$\mathbf{h_1}$}

\addplot [color=mycolor2]
  table[row sep=crcr]{%
1	0.0696363384444256\\
2	0.13399148454392\\
3	0.889181852408627\\
4	0.426869408918664\\
5	0.0527923084371181\\
6	0.0393468637154593\\
7	0\\
8	0\\
9	0\\
10	0\\
11	0\\
12	0\\
13	0\\
14	0\\
15	0\\
16	0\\
17	0\\
18	0\\
19	0\\
20	0\\
};
\addlegendentry{$\mathbf{h_{2}}$}

\end{axis}

\begin{axis}[%
width=1.952in,
height=3.2in,
at={(3.327in,0.512in)},
scale only axis,
xmin=0,
xmax=30,
xlabel style={font=\color{white!15!black}, align=center},
xlabel={Sample Index\\[1ex](b) Estimated},
ymin=0,
ymax=1,
axis background/.style={fill=white},
legend style={legend cell align=left, align=left, draw=white!15!black}
]
\addplot [color=mycolor1]
  table[row sep=crcr]{%
0	0.00204101160368069\\
1	0.0033736671844648\\
2	0.00600251683211784\\
3	0.00784097192364944\\
4	0.00809610058985062\\
5	0.00659246362170158\\
6	0.0212451766993742\\
7	0.0290751621338804\\
8	0.030578271729141\\
9	0.0423074091788048\\
10	0.0411928707520981\\
11	0.214140154084437\\
12	0.156687690425373\\
13	0.762790869830818\\
14	0.221747375402619\\
15	0.381898679032253\\
16	0.289099947842126\\
17	0.18295528232228\\
18	0.159682771729177\\
19	0.0278631534664535\\
20	0.0357729758744586\\
21	0.0293691572662954\\
22	0.0286019589748521\\
23	0.0169043862114645\\
24	0.00486392119772482\\
25	0.00580898689074569\\
26	0.00751585789192036\\
27	0.00722996041187252\\
28	0.0038841255354639\\
29	0.00226700439454681\\
30	0.00501328138263899\\
};
\addlegendentry{$\mathbf{\hat{h}_{1}}$}

\addplot [color=mycolor2]
  table[row sep=crcr]{%
0	0.00351319267351836\\
1	0.00629302982404183\\
2	0.00674374362044817\\
3	0.00681589689241165\\
4	0.00837593365504992\\
5	0.0139255070218446\\
6	0.0159153750097112\\
7	0.0271130075791229\\
8	0.0177407697033983\\
9	0.0572056488661322\\
10	0.0781297673833244\\
11	0.0844365370054333\\
12	0.176809506995427\\
13	0.0273055910819859\\
14	0.948444112178579\\
15	0.0272874962504884\\
16	0.176805401313292\\
17	0.0844358474841647\\
18	0.0780563789746433\\
19	0.0571701804587997\\
20	0.0176721149748193\\
21	0.0270143547988139\\
22	0.0156922689517586\\
23	0.0137649380185284\\
24	0.00863507690240745\\
25	0.00695347707079295\\
26	0.00600262199851319\\
27	0.00465840798738144\\
28	0.00470399739446852\\
29	0.00504960742008547\\
30	0.00526476190737333\\
};
\addlegendentry{$\mathbf{\hat{h}_{2}}$}

\end{axis}
\end{tikzpicture}%