% This file was created by matlab2tikz.
%
%The latest updates can be retrieved from
%  http://www.mathworks.com/matlabcentral/fileexchange/22022-matlab2tikz-matlab2tikz
%where you can also make suggestions and rate matlab2tikz.
%
\definecolor{mycolor1}{rgb}{0.00000,0.44700,0.74100}%
\definecolor{mycolor2}{rgb}{0.85000,0.32500,0.09800}%
%
\begin{tikzpicture}

\begin{axis}[%
width=1.952in,
height=3.2in,
at={(0.758in,0.512in)},
scale only axis,
xmin=0,
xmax=20,
xlabel style={font=\color{white!15!black}, align=center},
xlabel={Sample Index\\[1ex](a) Actual},
ymin=0,
ymax=0.9,
axis background/.style={fill=white},
legend style={legend cell align=left, align=left, draw=white!15!black}
]
\addplot [color=mycolor1]
  table[row sep=crcr]{%
1	0.0444337104356374\\
2	0.738127803558165\\
3	0.357839506790865\\
4	0.481268775571525\\
5	0.10955194752004\\
6	0.267783168107473\\
7	0.0769544524124665\\
8	0.0372836026936495\\
9	0.027789744685169\\
10	0.0196434178633453\\
11	0.0212138243269196\\
12	0.0147156812719569\\
13	0.0126517206023441\\
14	0.0111331007215966\\
15	0.00994473974674355\\
16	0.00898571135769806\\
17	0.00819466874468931\\
18	0.00753086667278431\\
19	0.00696589032366256\\
20	0.00647923877975415\\
};
\addlegendentry{$\mathbf{h_1}$}

\addplot [color=mycolor2]
  table[row sep=crcr]{%
1	0.0696363384444256\\
2	0.13399148454392\\
3	0.889181852408627\\
4	0.426869408918664\\
5	0.0527923084371181\\
6	0.0393468637154593\\
7	0\\
8	0\\
9	0\\
10	0\\
11	0\\
12	0\\
13	0\\
14	0\\
15	0\\
16	0\\
17	0\\
18	0\\
19	0\\
20	0\\
};
\addlegendentry{$\mathbf{h_{2}}$}

\end{axis}

\begin{axis}[%
width=1.952in,
height=3.2in,
at={(3.327in,0.512in)},
scale only axis,
xmin=0,
xmax=30,
xlabel style={font=\color{white!15!black}, align=center},
xlabel={Sample Index\\[1ex](b) Estimated},
ymin=0,
ymax=1,
axis background/.style={fill=white},
legend style={legend cell align=left, align=left, draw=white!15!black}
]
\addplot [color=mycolor1]
  table[row sep=crcr]{%
0	0.0018898771167325\\
1	0.00118139276508582\\
2	0.00187992754286284\\
3	0.000983438545651838\\
4	0.00238865026081114\\
5	0.000438498609191003\\
6	0.00199281183109249\\
7	0.0019346432724248\\
8	0.00560280989678443\\
9	0.0165957944337636\\
10	0.0499173748248646\\
11	0.0911623609200783\\
12	0.243508666298661\\
13	0.762152527263965\\
14	0.335667409339291\\
15	0.377509258871878\\
16	0.209060500786273\\
17	0.179053383264708\\
18	0.119182852842394\\
19	0.0453047871345335\\
20	0.0173101935953235\\
21	0.0152710109452089\\
22	0.0188544574764112\\
23	0.0144124768745209\\
24	0.00797422764546791\\
25	0.00879602313529322\\
26	0.00947626132434077\\
27	0.00617681604915609\\
28	0.00618017337978691\\
29	0.00550257925091561\\
30	0.0072158037637225\\
};
\addlegendentry{$\mathbf{\hat{h}_{1}}$}

\addplot [color=mycolor2]
  table[row sep=crcr]{%
0	0.00236962971188983\\
1	0.00341357490554161\\
2	0.0029496257608256\\
3	0.00330629885724384\\
4	0.0047013820874379\\
5	0.0056414581678946\\
6	0.00554471327932445\\
7	0.00729191495071194\\
8	0.0108699187263983\\
9	0.0236293636225501\\
10	0.0434515610776431\\
11	0.0273630273188284\\
12	0.0997377223889028\\
13	0.0600903382118693\\
14	0.982800247598651\\
15	0.0600908635388233\\
16	0.099734453594734\\
17	0.0273609136760828\\
18	0.0434530475311944\\
19	0.0236353538309586\\
20	0.0108657054293119\\
21	0.00728392688224784\\
22	0.0055292069884241\\
23	0.00563410420298067\\
24	0.00470375483460548\\
25	0.00331095986592598\\
26	0.00290806442597673\\
27	0.00320027015998751\\
28	0.00242783346474831\\
29	0.00288206481821302\\
30	0.00211661368156644\\
};
\addlegendentry{$\mathbf{\hat{h}_{2}}$}

\end{axis}
\end{tikzpicture}%