% This file was created by matlab2tikz.
%
%The latest updates can be retrieved from
%  http://www.mathworks.com/matlabcentral/fileexchange/22022-matlab2tikz-matlab2tikz
%where you can also make suggestions and rate matlab2tikz.
%
\definecolor{mycolor1}{rgb}{0.00000,0.44700,0.74100}%
\definecolor{mycolor2}{rgb}{0.85000,0.32500,0.09800}%
%
\begin{tikzpicture}

\begin{axis}[%
width=1.935in,
height=3.2in,
at={(0.758in,0.512in)},
scale only axis,
xmin=0,
xmax=150,
xlabel style={font=\color{white!15!black}, align=center},
xlabel={Sample Index\\[1ex](a) Actual},
ymin=0,
ymax=0.8,
axis background/.style={fill=white},
legend style={legend cell align=left, align=left, draw=white!15!black}
]
\addplot [color=mycolor1]
  table[row sep=crcr]{%
1	0.0151830319933043\\
2	0.0185496696438093\\
3	0.023502065016884\\
4	0.0315038869286449\\
5	0.0469062512391942\\
6	0.0954908680191146\\
7	0.0858266491267274\\
8	0.265807368316819\\
9	0.796648883752005\\
10	0.216493826260265\\
11	0.0878556377176694\\
12	0.07193222497443\\
13	0.105696480077463\\
14	0.149868327351951\\
15	0.0510921191197441\\
16	0.152868392263622\\
17	0.048017719918991\\
18	0.0109949328175406\\
19	0.0126732962157991\\
20	0.0175843103691614\\
21	0.0258891023896794\\
22	0.171301952341992\\
23	0.1212921102575\\
24	0.0235386564372659\\
25	0.00858129954461538\\
26	0.133991438537226\\
27	0.17851624212042\\
28	0.0777373619575687\\
29	0.110031729625206\\
30	0.00959913684727289\\
31	0.0101692934073309\\
32	0.0218927776733185\\
33	0.0485547145239866\\
34	0.028524787741674\\
35	0.0931132420825283\\
36	0.0761344452933766\\
37	0.0369812132104379\\
38	0.0270699566667011\\
39	0.026458256765523\\
40	0.0700820910745542\\
41	0.00787266021999488\\
42	0.00768771367639978\\
43	0.00738222171836111\\
44	0.00713402148494006\\
45	0.00716369066636382\\
46	0.00788882227497034\\
47	0.0112512475897253\\
48	0.0626689062200538\\
49	0.0427206763331481\\
50	0.00951578480873744\\
51	0.00243896181448075\\
52	0.0015691552028362\\
53	0.00146457511195334\\
54	0.00155057599858872\\
55	0.0017720937565566\\
56	0.00217432997301489\\
57	0.00286457318035984\\
58	0.00410346836174264\\
59	0.00676291579585115\\
60	0.0170053910864941\\
61	0.0301833155479945\\
62	0.0511202697583185\\
63	0.0105005975636433\\
64	0.00640544843735559\\
65	0.00470250391841775\\
66	0.00371961016971575\\
67	0.00305007107550002\\
68	0.00254202566702992\\
69	0.00212653652112194\\
70	0.0017767046983006\\
71	0.00152001410442311\\
72	0.00153304600268641\\
73	0.00230867360183963\\
74	0.00526136383537744\\
75	0.038333522890848\\
76	0.0121668181991512\\
77	0.00627619518067768\\
78	0.00457506177246321\\
79	0.00374737764088975\\
80	0.00324686636810371\\
81	0.00290502633566605\\
82	0.00265270743485525\\
83	0.00245624767322843\\
84	0.00229725334120465\\
85	0.0021647918883538\\
86	0.00205193428439391\\
87	0.00195406009034949\\
88	0.00186795865192442\\
89	0.00179132151185079\\
90	0.00172244056348044\\
91	0.00166002062260405\\
92	0.00160305868824092\\
93	0.00155076366110332\\
94	0.00150250147009903\\
95	0.00145775664490856\\
96	0.00141610482103629\\
97	0.00137719268617519\\
98	0.0013407230999277\\
99	0.00130644387932209\\
100	0.00127413922704226\\
101	0.00124362309491465\\
102	0.00121473398501049\\
103	0.00118733083279375\\
104	0.00116128971457897\\
105	0.00113650118998977\\
106	0.00111286813865705\\
107	0.00109030398529933\\
108	0.00106873123273224\\
109	0.00104808024105737\\
110	0.00102828820519932\\
111	0.00100929829342004\\
112	0.000991058917376328\\
113	0.000973523110361595\\
114	0.000956647995060137\\
115	0.000940394325788187\\
116	0.00092472609305463\\
117	0.000909610180527103\\
118	0.000895016066279295\\
119	0.000880915561628906\\
120	0.000867282582022485\\
121	0.000854092945356868\\
122	0.000841324193880593\\
123	0.000828955436438686\\
124	0.000816967208330094\\
125	0.000805341346466144\\
126	0.000794060877864884\\
127	0.000783109919805542\\
128	0.000772473590206662\\
129	0.000762137926996426\\
130	0.000752089815411914\\
131	0.000742316922307892\\
132	0.000732807636680009\\
133	0.000723551015708443\\
134	0.000714536735717782\\
135	0.000705755047526231\\
136	0.000697196735719498\\
137	0.000688853081443639\\
138	0.000680715828357098\\
139	0.000672777151427449\\
140	0.000665029628290027\\
141	0.000657466212923161\\
142	0.000650080211416905\\
143	0.000642865259640033\\
144	0.000635815302630011\\
145	0.000628924575548207\\
146	0.000622187586061679\\
147	0.000615599098024618\\
148	0.000609154116346598\\
149	0\\
150	0\\
};
\addlegendentry{$\mathbf{h_1}$}

\addplot [color=mycolor2]
  table[row sep=crcr]{%
1	0.0116283672604953\\
2	0.0123927463124993\\
3	0.0132649499786597\\
4	0.0142694730472227\\
5	0.0154388022064217\\
6	0.0168169460018562\\
7	0.0184650059045602\\
8	0.0204703044623656\\
9	0.0229620194387964\\
10	0.0261394268228958\\
11	0.030326372246617\\
12	0.0360853656003085\\
13	0.0444837647244236\\
14	0.0578138510431174\\
15	0.0820182949536605\\
16	0.138539152408166\\
17	0.40529101126893\\
18	0.531857257093217\\
19	0.183644612933698\\
20	0.136508722860241\\
21	0.200047586884045\\
22	0.106492504443086\\
23	0.0269767303978956\\
24	0.0384718138974967\\
25	0.247242183991229\\
26	0.550925101963883\\
27	0.195827754207156\\
28	0.0577902570880743\\
29	0.0334777071537313\\
30	0.0243597557761845\\
31	0.0197080234406676\\
32	0.0168717713396733\\
33	0.0149315700239635\\
34	0.0134968721772165\\
35	0.0123767429153913\\
36	0.0114674702329188\\
37	0.0107078852605367\\
38	0.0100594473104557\\
39	0.0094965290561411\\
40	0.00900131573338651\\
41	0.00856095738478305\\
42	0.00816589392182006\\
43	0.00780882485328738\\
44	0.00748405042307228\\
45	0.00718703568900882\\
46	0.00691411334689385\\
47	0.00666227571208106\\
48	0.00642902565379269\\
49	0.0062122675203184\\
50	0.00601022582354538\\
51	0\\
52	0\\
53	0\\
54	0\\
55	0\\
56	0\\
57	0\\
58	0\\
59	0\\
60	0\\
61	0\\
62	0\\
63	0\\
64	0\\
65	0\\
66	0\\
67	0\\
68	0\\
69	0\\
70	0\\
71	0\\
72	0\\
73	0\\
74	0\\
75	0\\
76	0\\
77	0\\
78	0\\
79	0\\
80	0\\
81	0\\
82	0\\
83	0\\
84	0\\
85	0\\
86	0\\
87	0\\
88	0\\
89	0\\
90	0\\
91	0\\
92	0\\
93	0\\
94	0\\
95	0\\
96	0\\
97	0\\
98	0\\
99	0\\
100	0\\
101	0\\
102	0\\
103	0\\
104	0\\
105	0\\
106	0\\
107	0\\
108	0\\
109	0\\
110	0\\
111	0\\
112	0\\
113	0\\
114	0\\
115	0\\
116	0\\
117	0\\
118	0\\
119	0\\
120	0\\
121	0\\
122	0\\
123	0\\
124	0\\
125	0\\
126	0\\
127	0\\
128	0\\
129	0\\
130	0\\
131	0\\
132	0\\
133	0\\
134	0\\
135	0\\
136	0\\
137	0\\
138	0\\
139	0\\
140	0\\
141	0\\
142	0\\
143	0\\
144	0\\
145	0\\
146	0\\
147	0\\
148	0\\
149	0\\
150	0\\
};
\addlegendentry{$\mathbf{h_{2}}$}

\end{axis}

\begin{axis}[%
width=1.935in,
height=3.2in,
at={(3.327in,0.512in)},
scale only axis,
xmin=0,
xmax=150,
xlabel style={font=\color{white!15!black}, align=center},
xlabel={Sample Index\\[1ex](b) Estimated},
ymin=0,
ymax=0.6,
axis background/.style={fill=white},
legend style={legend cell align=left, align=left, draw=white!15!black}
]
\addplot [color=mycolor1]
  table[row sep=crcr]{%
0	0.00691463023009127\\
1	0.021404375828559\\
2	0.0366784616219529\\
3	0.0484620281658401\\
4	0.0639945304396961\\
5	0.102509314348968\\
6	0.101956557143433\\
7	0.129611322980676\\
8	0.137986153452952\\
9	0.494915696294307\\
10	0.424230892454676\\
11	0.0973805286921801\\
12	0.18547964346863\\
13	0.129839097252462\\
14	0.101757791466054\\
15	0.0717462497343141\\
16	0.196772711518118\\
17	0.146999072549387\\
18	0.116876649728605\\
19	0.0823653121627277\\
20	0.0743718563925422\\
21	0.174037148440771\\
22	0.202360132394728\\
23	0.144054565581913\\
24	0.000387020238668778\\
25	0.0267388363714551\\
26	0.20983388007581\\
27	0.237072191030089\\
28	0.117398452545981\\
29	0.0625134433218426\\
30	0.098711967804229\\
31	0.0577961743834197\\
32	0.0728139376324023\\
33	0.0956681496651138\\
34	0.108787919380655\\
35	0.157128573584825\\
36	0.150508251179805\\
37	0.127243211064284\\
38	0.0515332307660667\\
39	0.0598674373298829\\
40	0.0760560670967973\\
41	0.0286281044333418\\
42	0.0255698253704137\\
43	0.00607541571927276\\
44	0.0239749161201528\\
45	0.0348358761444358\\
46	0.0208164485620536\\
47	0.0565344977492846\\
48	0.0461724940844624\\
49	0.0292401030010843\\
50	0.0145483994577744\\
51	0.0147607559711377\\
52	0.00573443767672944\\
53	0.00399858250104765\\
54	0.00652342791054334\\
55	0.00543707726441674\\
56	0.0154693984995468\\
57	0.00601067750442608\\
58	0.0055911006825169\\
59	0.00990955838751854\\
60	0.0206303730571955\\
61	0.0148206315189098\\
62	0.0523041250146352\\
63	0.0542864301429318\\
64	0.0212801466246979\\
65	0.00464648219797629\\
66	0.00512904346435815\\
67	0.0125077466905608\\
68	0.0167430764234602\\
69	0.00741017257272332\\
70	0.00649758198945768\\
71	0.00854536888212672\\
72	0.00661858353628864\\
73	0.0132666661038067\\
74	0.0264695710123472\\
75	0.034411852034882\\
76	0.0125818340336727\\
77	0.0161576383649009\\
78	0.0192376551077458\\
79	0.00806589903971337\\
80	0.00150104685008554\\
81	0.00444184750352522\\
82	0.00868064459941341\\
83	0.0105150765104668\\
84	0.00583634818217079\\
85	0.00144748068694514\\
86	0.00258186878065013\\
87	0.00815667579400473\\
88	0.00769646870769484\\
89	0.00150326202343347\\
90	0.0010712016713176\\
91	0.0042065378429484\\
92	0.00639843706645246\\
93	0.00374681312910402\\
94	0.00140332573035345\\
95	0.00228139782294487\\
96	0.00385454776620438\\
97	0.00447922797422823\\
98	0.00305405275956307\\
99	0.00177444830633102\\
100	0.00190625394132803\\
101	0.00415061183622097\\
102	0.00294017955391373\\
103	0.00128718043741956\\
104	0.0016320823249616\\
105	0.00356259162344723\\
106	0.0025376978079288\\
107	0.00193858628790468\\
108	0.00203291240092576\\
109	0.00219129617743691\\
110	0.00252237345408536\\
111	0.00249977969156665\\
112	0.00142913546903924\\
113	0.00190755452706055\\
114	0.00228388011543258\\
115	0.00241196792746832\\
116	0.00174240023005682\\
117	0.00123884356567045\\
118	0.00167614637374167\\
119	0.00232057842012845\\
120	0.00192993930759018\\
121	0.00128628260670924\\
122	0.00153419374280373\\
123	0.00193381914549443\\
124	0.00178265201182617\\
125	0.00163269331791107\\
126	0.00134346333882026\\
127	0.00145835180220949\\
128	0.00167736092903687\\
129	0.00160728460337734\\
130	0.00138559028477641\\
131	0.00134811225684587\\
132	0.00147160878889679\\
133	0.0014879744056788\\
134	0.00138755337568386\\
135	0.00130545890766289\\
136	0.0013201692041064\\
137	0.00140995574919894\\
138	0.00140703551391498\\
139	0.00128704228516563\\
140	0.00122375412799588\\
141	0.00131086657224277\\
142	0.00134034175470216\\
143	0.00124297679658781\\
144	0.0011787967277721\\
145	0.0012004796677933\\
146	0.00126367443756594\\
147	0.00124665473914843\\
148	0.000880703264734186\\
149	0.00032607635163224\\
};
\addlegendentry{$\mathbf{\hat{h}_{1}}$}
\addplot [color=mycolor2]
  table[row sep=crcr]{%
0	0.00506771858184791\\
1	0.0149146671534993\\
2	0.0233722498842281\\
3	0.0262101710200265\\
4	0.0267113408729786\\
5	0.0276463499749989\\
6	0.0308843485936986\\
7	0.035394148073695\\
8	0.0391052356953044\\
9	0.0423852437808966\\
10	0.047978782551522\\
11	0.0567868640129251\\
12	0.0687662488032977\\
13	0.0845905538552165\\
14	0.110304195723422\\
15	0.163111734072589\\
16	0.341616589149862\\
17	0.20309778912393\\
18	0.25413364315809\\
19	0.530393373205874\\
20	0.430312121552733\\
21	0.203474521232234\\
22	0.0829868004684005\\
23	0.135396036166938\\
24	0.110954028955034\\
25	0.183060459825928\\
26	0.264283830672313\\
27	0.129990026520424\\
28	0.166811983313712\\
29	0.0874482491592794\\
30	0.0506767656309717\\
31	0.0279617665716991\\
32	0.0123481244713807\\
33	0.0383481092633287\\
34	0.0334652560559024\\
35	0.0331294632828746\\
36	0.0183794830650443\\
37	0.0132555392109642\\
38	0.0173886572636515\\
39	0.0259959522967911\\
40	0.0177695952073337\\
41	0.0128845871382672\\
42	0.0219996989819317\\
43	0.0154731631975247\\
44	0.0155917688492175\\
45	0.016886758256058\\
46	0.00664877595929231\\
47	0.00950508951904762\\
48	0.0215048351745207\\
49	0.0154611248348099\\
50	0.00374815957593295\\
51	0.0060014920959482\\
52	0.000970047264992154\\
53	0.00195186681064046\\
54	0.00512113584975255\\
55	0.00576551079970158\\
56	0.00557876746621787\\
57	0.0050933632771628\\
58	0.00255465377102893\\
59	0.00763714584857291\\
60	0.00393216274346871\\
61	0.00469543011814561\\
62	0.00375107115371075\\
63	0.00221945979919518\\
64	0.00358729967899672\\
65	0.000483314642183038\\
66	0.00210085073660416\\
67	0.00241266063008453\\
68	0.00207630285387055\\
69	0.00347056282794817\\
70	0.00443936135472899\\
71	0.000839544007356144\\
72	0.0043627935941814\\
73	0.000870668154833714\\
74	0.00410383866780679\\
75	0.000928320481775579\\
76	0.00180059135268507\\
77	0.000213716581822963\\
78	4.99376598159246e-05\\
79	1.32165317958769e-05\\
80	8.70180102844737e-06\\
81	1.109217958136e-05\\
82	1.47353864947519e-05\\
83	1.04493148557745e-05\\
84	7.99471161419615e-06\\
85	1.20439352792791e-05\\
86	1.80504534652858e-05\\
87	1.25944021177635e-05\\
88	1.22353079961601e-05\\
89	1.28702305721434e-05\\
90	9.11734606302405e-06\\
91	1.32091302084718e-05\\
92	7.73475039206975e-06\\
93	5.77484998426636e-06\\
94	6.15696668320608e-06\\
95	8.12638537360741e-06\\
96	1.06876301960245e-05\\
97	1.71548681357109e-05\\
98	1.59197085142541e-05\\
99	1.19666268841148e-05\\
100	1.54868053447492e-05\\
101	5.10004387724732e-06\\
102	3.79812657095407e-06\\
103	6.1616954134131e-06\\
104	1.60588387121053e-05\\
105	1.44381467602741e-05\\
106	2.11537067683049e-05\\
107	7.81536630262106e-06\\
108	6.97998270792784e-06\\
109	9.94739972032757e-06\\
110	1.51086069475486e-05\\
111	1.17783451551741e-05\\
112	1.55728722916632e-06\\
113	1.08404726007172e-05\\
114	1.01611528934977e-05\\
115	1.20212799357585e-05\\
116	1.29871692274536e-05\\
117	7.73239043024738e-06\\
118	2.32913883530279e-05\\
119	2.11838083924029e-05\\
120	1.45710562389534e-05\\
121	2.04363129513057e-05\\
122	7.55365516572896e-06\\
123	4.9326209996142e-06\\
124	7.3570049999855e-06\\
125	2.12856758591653e-05\\
126	8.38615959488344e-06\\
127	1.06118522597466e-05\\
128	2.36108307360021e-05\\
129	1.8866361556697e-05\\
130	6.11103843510574e-06\\
131	1.51078122106941e-05\\
132	2.83198269120386e-05\\
133	1.25639646078527e-05\\
134	9.48949011370583e-06\\
135	2.63849185117249e-05\\
136	1.85779080368906e-05\\
137	3.21275153751423e-05\\
138	1.17752710572177e-05\\
139	2.86962909533057e-05\\
140	1.49147658817737e-05\\
141	3.26869731695968e-05\\
142	1.79193034487936e-05\\
143	4.57753754678688e-05\\
144	1.70070948577598e-05\\
145	3.80750472048455e-05\\
146	2.95984463030516e-05\\
147	3.75641657147495e-05\\
148	2.00873919512439e-05\\
149	2.27057311942166e-05\\
};
\addlegendentry{$\mathbf{\hat{h}_{2}}$}

\end{axis}
\end{tikzpicture}%