% This file was created by matlab2tikz.
%
%The latest updates can be retrieved from
%  http://www.mathworks.com/matlabcentral/fileexchange/22022-matlab2tikz-matlab2tikz
%where you can also make suggestions and rate matlab2tikz.
%
\definecolor{mycolor1}{rgb}{0.00000,0.44700,0.74100}%
\definecolor{mycolor2}{rgb}{0.85000,0.32500,0.09800}%
%
\begin{tikzpicture}

\begin{axis}[%
width=1.952in,
height=3.2in,
at={(0.758in,0.512in)},
scale only axis,
xmin=0,
xmax=20,
xlabel style={font=\color{white!15!black}, align=center},
xlabel={Sample Index\\[1ex](a)},
ymin=0,
ymax=1,
axis background/.style={fill=white},
legend style={legend cell align=left, align=left, draw=white!15!black}
]
\addplot [color=mycolor1]
  table[row sep=crcr]{%
1	0.113205605745861\\
2	0.919292270364926\\
3	0.256025577129562\\
4	0.221212160951117\\
5	0.110921817870281\\
6	0.0400328712358033\\
7	0.0687168441611535\\
8	0.0506014016738843\\
9	0.0552835931164163\\
10	0.0346525615393867\\
11	0.020191452822011\\
12	0.0185296152559968\\
13	0.0171404774442808\\
14	0.0156211388830756\\
15	0.0142945116316957\\
16	0.0131617720182863\\
17	0.0121914691582677\\
18	0.0113534257007881\\
19	0.0106231383936872\\
20	0.00998136168461187\\
};
\addlegendentry{$\mathbf{h_1}$}

\addplot [color=mycolor2]
  table[row sep=crcr]{%
1	0.0495723015654782\\
2	0.0685334241945042\\
3	0.511321702955238\\
4	0.765196656162612\\
5	0.358164812724738\\
6	0.132619444637821\\
7	0\\
8	0\\
9	0\\
10	0\\
11	0\\
12	0\\
13	0\\
14	0\\
15	0\\
16	0\\
17	0\\
18	0\\
19	0\\
20	0\\
};
\addlegendentry{$\mathbf{h_{2}}$}

\end{axis}

\begin{axis}[%
width=1.952in,
height=3.2in,
at={(3.327in,0.512in)},
scale only axis,
xmin=0,
xmax=20,
xlabel style={font=\color{white!15!black}, align=center},
xlabel={Sample Index\\[1ex](b)},
ymin=-0.2,
ymax=1,
axis background/.style={fill=white},
legend style={legend cell align=left, align=left, draw=white!15!black}
]
\addplot [color=mycolor1]
  table[row sep=crcr]{%
0	0.000693764556774139\\
0.25	0.00233159416756521\\
0.5	0.00452322907360883\\
0.75	0.00766566222608642\\
1	0.0118634259839016\\
1.25	0.0173979049614452\\
1.5	0.0228455661134763\\
1.75	0.0271820718157621\\
2	0.0295076810943031\\
2.25	0.0284020162364921\\
2.5	0.0251958790367705\\
2.75	0.0207095390708657\\
3	0.0159023913293959\\
3.25	0.0119612991697278\\
3.5	0.00890453928211835\\
3.75	0.00676331203033843\\
4	0.0052900359702504\\
4.25	0.00333903735867398\\
4.5	0.00172518809225689\\
4.75	0.0006218485801412\\
5	0.000357874155450273\\
5.25	0.00316909489367827\\
5.5	0.00736733307537978\\
5.75	0.013685769749068\\
6	0.0239394492189047\\
6.25	0.0402296735184976\\
6.5	0.0676976770872614\\
6.75	0.110603551104529\\
7	0.17215900721372\\
7.25	0.248329154843418\\
7.5	0.344830759258231\\
7.75	0.457676551080849\\
8	0.577242049816825\\
8.25	0.704265975572618\\
8.5	0.796253297517474\\
8.75	0.829060601228348\\
9	0.787853313981523\\
9.25	0.646673095619289\\
9.5	0.459747588671151\\
9.75	0.265034036131183\\
10	0.100166605637847\\
10.25	0.0208098995039023\\
10.5	-0.0031991940129969\\
10.75	0.0123882841005803\\
11	0.0447162667579573\\
11.25	0.0498541806342115\\
11.5	0.0443887965129399\\
11.75	0.030051992441471\\
12	0.0130747971923627\\
12.25	0.0127183030249845\\
12.5	0.0171335094567312\\
12.75	0.0245613657580692\\
13	0.0322424064589537\\
13.25	0.0327783269085467\\
13.5	0.0312428600492282\\
13.75	0.0286474292823112\\
14	0.0261527086869001\\
14.25	0.0263473478246944\\
14.5	0.0269239857104925\\
14.75	0.0269127849105538\\
15	0.0253305681020899\\
15.25	0.0199824921382745\\
15.5	0.0132649904255158\\
15.75	0.00640391546130884\\
16	0.000691785970415995\\
16.25	-0.00171850147234455\\
16.5	-0.00213113113204713\\
16.75	-0.00115082163469896\\
17	0.000381909834628053\\
17.25	0.000887734921052767\\
17.5	0.000964206563533026\\
17.75	0.000684821877483936\\
18	0.000290066862086297\\
18.25	0.000443024256384602\\
18.5	0.000817468194892586\\
18.75	0.00138875941057469\\
19	0.00207355658791119\\
19.25	0.00275751401221309\\
19.5	0.00332847157709747\\
19.75	0.00370324916640317\\
};
\addlegendentry{$\mathbf{\hat{h}_{1}}$}

\addplot [color=mycolor2]
  table[row sep=crcr]{%
0	2.79276481749993e-05\\
0.25	2.82289159160951e-05\\
0.5	2.81171121741192e-05\\
0.75	2.72430234156865e-05\\
1	2.53723239665016e-05\\
1.25	1.81990697015322e-05\\
1.5	1.22521060602616e-05\\
1.75	9.25468594250598e-06\\
2	9.56363336117472e-06\\
2.25	2.38676120885786e-05\\
2.5	3.16790651379137e-05\\
2.75	2.6824098862603e-05\\
3	9.13611974141501e-06\\
3.25	-5.7217382742139e-05\\
3.5	-8.91930837526734e-05\\
3.75	-5.04253866338111e-05\\
4	8.03529909915993e-05\\
4.25	0.00039458562967488\\
4.5	0.000723511135476039\\
4.75	0.000992184557046984\\
5	0.00115459190124146\\
5.25	-0.00346924812998789\\
5.5	-0.00572570410397936\\
5.75	-0.00398677820177807\\
6	0.00163705206661733\\
6.25	0.0282960565823448\\
6.5	0.0431574448299679\\
6.75	0.0362404014034175\\
7	0.00635880289464714\\
7.25	-0.080202288913511\\
7.5	-0.134605186940015\\
7.75	-0.114224526661732\\
8	0.00676807216043615\\
8.25	0.2957103978402\\
8.5	0.612335607126673\\
8.75	0.872041780024888\\
9	0.999909598886885\\
9.25	0.872032885050724\\
9.5	0.612320767045973\\
9.75	0.295694819646532\\
10	0.00675792712235881\\
10.25	-0.1142217433398\\
10.5	-0.134587210823519\\
10.75	-0.0801709006381685\\
11	0.00639803080638028\\
11.25	0.0362768857206734\\
11.5	0.0431837277103461\\
11.75	0.0283070125591511\\
12	0.0016309329039389\\
12.25	-0.00400683310347272\\
12.5	-0.00575553084472999\\
12.75	-0.00350332449565777\\
13	0.00112199135972261\\
13.25	0.00096625574379856\\
13.5	0.000707103734221093\\
13.75	0.000388172591585067\\
14	8.21897917801197e-05\\
14.25	-4.49594062932714e-05\\
14.5	-8.32789432034238e-05\\
14.75	-5.31030025582644e-05\\
15	1.05760981956566e-05\\
15.25	2.73592075394047e-05\\
15.5	3.20937868715237e-05\\
15.75	2.48417335873056e-05\\
16	1.13875151920592e-05\\
16.25	1.10651672761955e-05\\
16.5	1.37924822961174e-05\\
16.75	1.92374985299299e-05\\
17	2.57629695717806e-05\\
17.25	2.70152397933395e-05\\
17.5	2.724010371572e-05\\
17.75	2.66250566200239e-05\\
18	2.53892430732136e-05\\
18.25	2.3679019508873e-05\\
18.5	2.17427024732694e-05\\
18.75	1.97048741127138e-05\\
19	1.76322093551271e-05\\
19.25	1.55524038706371e-05\\
19.5	1.35117383554308e-05\\
19.75	1.15782584744779e-05\\
};
\addlegendentry{$\mathbf{\hat{h}_{2}}$}

\end{axis}
\end{tikzpicture}%