\relax 
\providecommand\hyper@newdestlabel[2]{}
\@writefile{toc}{\contentsline {chapter}{\numberline {6}THE ``BRUTE FORCE" METHOD}{113}{chapter.6}}
\newlabel{ch:6}{{6}{113}{THE ``BRUTE FORCE" METHOD}{chapter.6}{}}
\newlabel{eq:brute-obj}{{6.1}{113}{THE ``BRUTE FORCE" METHOD}{equation.6.0.1}{}}
\@writefile{toc}{\contentsline {section}{\numberline {6.1}Brute Force Derivation}{113}{section.6.1}}
\newlabel{eq:brute-lagrangian}{{6.2}{113}{Brute Force Derivation}{equation.6.1.2}{}}
\newlabel{eq:brute-derivative-lagrangian}{{6.3}{113}{Brute Force Derivation}{equation.6.1.3}{}}
\newlabel{eq:brute-update-lambda}{{6.4}{113}{Brute Force Derivation}{equation.6.1.4}{}}
\newlabel{eq:brute-tilde-lambda}{{6.5}{114}{Brute Force Derivation}{equation.6.1.5}{}}
\newlabel{eq:brute-update-complete}{{6.6}{114}{Brute Force Derivation}{equation.6.1.6}{}}
\@writefile{toc}{\contentsline {subsection}{\numberline {6.1.1}Algorithm Advantages, Disadvantages and Implementation}{114}{subsection.6.1.1}}
\@writefile{lof}{\contentsline {figure}{\numberline {6.1}{\ignorespaces Results of the non-adaptive BF algorithm with 250,000 data samples, with SNR = 60 dB, at various sampling rates for wideband simulation, (a) 20 MHz, (b) 100 MHz, (c) 150 MHz, and (d) 200 MHz, for impulse response set IR-1.\relax }}{115}{figure.caption.99}}
\newlabel{fig:NBF_ideal_30v3000}{{6.1}{115}{Results of the non-adaptive BF algorithm with 250,000 data samples, with SNR = 60 dB, at various sampling rates for wideband simulation, (a) 20 MHz, (b) 100 MHz, (c) 150 MHz, and (d) 200 MHz, for impulse response set IR-1.\relax }{figure.caption.99}{}}
\@writefile{toc}{\contentsline {section}{\numberline {6.2}Variations}{115}{section.6.2}}
\@writefile{toc}{\contentsline {subsection}{\numberline {6.2.1}Adaptive Brute Force}{115}{subsection.6.2.1}}
\@writefile{lof}{\contentsline {figure}{\numberline {6.2}{\ignorespaces Results of the non-adaptive BF algorithm with 250,000 data samples, with SNR = 60 dB, at various sampling rates for wideband simulation, (a) 20 MHz, (b) 100 MHz, (c) 150 MHz, and (d) 200 MHz, for impulse response set IR-2.\relax }}{116}{figure.caption.100}}
\newlabel{fig:NBF_NITF_30v3000}{{6.2}{116}{Results of the non-adaptive BF algorithm with 250,000 data samples, with SNR = 60 dB, at various sampling rates for wideband simulation, (a) 20 MHz, (b) 100 MHz, (c) 150 MHz, and (d) 200 MHz, for impulse response set IR-2.\relax }{figure.caption.100}{}}
\newlabel{eq:brute-adaptive-update-complete}{{6.7}{116}{Adaptive Brute Force}{equation.6.2.7}{}}
\@writefile{lof}{\contentsline {figure}{\numberline {6.3}{\ignorespaces Results of the Adaptive BF algorithm with 250,000 data samples, with SNR = 60 dB, at various sampling rates for wideband simulation, (a) 20 MHz, (b) 100 MHz, (c) 150 MHz, and (d) 200 MHz, for impulse response set IR-1\relax }}{117}{figure.caption.101}}
\newlabel{fig:ABF_ideal_30v3000}{{6.3}{117}{Results of the Adaptive BF algorithm with 250,000 data samples, with SNR = 60 dB, at various sampling rates for wideband simulation, (a) 20 MHz, (b) 100 MHz, (c) 150 MHz, and (d) 200 MHz, for impulse response set IR-1\relax }{figure.caption.101}{}}
\@writefile{lof}{\contentsline {figure}{\numberline {6.4}{\ignorespaces Results of the Adaptive BF algorithm with 250,000 data samples, with SNR = 60 dB, at various sampling rates for wideband simulation, (a) 20 MHz, (b) 100 MHz, (c) 150 MHz, and (d) 200 MHz, for impulse response set IR-2\relax }}{118}{figure.caption.102}}
\newlabel{fig:ABF_NITF_30v3000}{{6.4}{118}{Results of the Adaptive BF algorithm with 250,000 data samples, with SNR = 60 dB, at various sampling rates for wideband simulation, (a) 20 MHz, (b) 100 MHz, (c) 150 MHz, and (d) 200 MHz, for impulse response set IR-2\relax }{figure.caption.102}{}}
\@writefile{lof}{\contentsline {figure}{\numberline {6.5}{\ignorespaces Results of the Adaptive BF algorithm with 250,000 data samples, with SNR = 60 dB, at various sampling rates for narrowband simulation, (a) 20 MHz, (b) 100 MHz, (c) 150 MHz, and (d) 200 MHz, for impulse response set IR-1\relax }}{119}{figure.caption.103}}
\newlabel{fig:ABF_narrow_30v3000}{{6.5}{119}{Results of the Adaptive BF algorithm with 250,000 data samples, with SNR = 60 dB, at various sampling rates for narrowband simulation, (a) 20 MHz, (b) 100 MHz, (c) 150 MHz, and (d) 200 MHz, for impulse response set IR-1\relax }{figure.caption.103}{}}
\@writefile{toc}{\contentsline {subsection}{\numberline {6.2.2}Varied Adaptive Brute Force}{119}{subsection.6.2.2}}
\@writefile{lof}{\contentsline {figure}{\numberline {6.6}{\ignorespaces Results of the Adaptive BF algorithm with 2,500 data samples, with SNR = 60 dB, at various sampling rates for wideband simulation, (a) 20 MHz, (b) 100 MHz, (c) 150 MHz, and (d) 200 MHz, for impulse response set IR-1\relax }}{120}{figure.caption.104}}
\newlabel{fig:ABF_Nless_30v3000}{{6.6}{120}{Results of the Adaptive BF algorithm with 2,500 data samples, with SNR = 60 dB, at various sampling rates for wideband simulation, (a) 20 MHz, (b) 100 MHz, (c) 150 MHz, and (d) 200 MHz, for impulse response set IR-1\relax }{figure.caption.104}{}}
\newlabel{eq:brute-varied-obj}{{6.8}{120}{Varied Adaptive Brute Force}{equation.6.2.8}{}}
\@writefile{lof}{\contentsline {figure}{\numberline {6.7}{\ignorespaces Results of the Adaptive BF algorithm with 250,000 data samples, with SNR = 20 dB, at various sampling rates for wideband simulation, (a) 20 MHz, (b) 100 MHz, (c) 150 MHz, and (d) 200 MHz, for impulse response set IR-1\relax }}{121}{figure.caption.105}}
\newlabel{fig:ABF_noisy_30v3000}{{6.7}{121}{Results of the Adaptive BF algorithm with 250,000 data samples, with SNR = 20 dB, at various sampling rates for wideband simulation, (a) 20 MHz, (b) 100 MHz, (c) 150 MHz, and (d) 200 MHz, for impulse response set IR-1\relax }{figure.caption.105}{}}
\newlabel{eq:brute-varied-adaptive-update-complete}{{6.9}{121}{Varied Adaptive Brute Force}{equation.6.2.9}{}}
\@writefile{lof}{\contentsline {figure}{\numberline {6.8}{\ignorespaces Results of the Adaptive BF algorithm with 250,000 data samples, with SNR = 60 dB for wideband simulation at 200 MHz sampling rate for incorrect model order estimates (a) $L/2$, (b) $L-10$, (c) $2L$, and (d) $L + 10$, for impulse response set IR-1\relax }}{122}{figure.caption.106}}
\newlabel{fig:ABF_wrongModel_30v3000}{{6.8}{122}{Results of the Adaptive BF algorithm with 250,000 data samples, with SNR = 60 dB for wideband simulation at 200 MHz sampling rate for incorrect model order estimates (a) $L/2$, (b) $L-10$, (c) $2L$, and (d) $L + 10$, for impulse response set IR-1\relax }{figure.caption.106}{}}
\@writefile{toc}{\contentsline {subsection}{\numberline {6.2.3}Dual Fixed-Peak Brute Force}{122}{subsection.6.2.3}}
\newlabel{eq:brute-dfp-obj}{{6.10}{122}{Dual Fixed-Peak Brute Force}{equation.6.2.10}{}}
\@writefile{lof}{\contentsline {figure}{\numberline {6.9}{\ignorespaces Results of the Adaptive BF algorithm with 250,000 data samples, with SNR = 60 dB, at various sampling rates for wideband simulation, (a) 20 MHz, (b) 100 MHz, (c) 150 MHz, and (d) 200 MHz, for impulse response set IR-1 with a normalized random start.\relax }}{123}{figure.caption.107}}
\newlabel{fig:ABF_random_30v3000}{{6.9}{123}{Results of the Adaptive BF algorithm with 250,000 data samples, with SNR = 60 dB, at various sampling rates for wideband simulation, (a) 20 MHz, (b) 100 MHz, (c) 150 MHz, and (d) 200 MHz, for impulse response set IR-1 with a normalized random start.\relax }{figure.caption.107}{}}
\newlabel{eq:brute-dfp-lagrangian}{{6.11}{123}{Dual Fixed-Peak Brute Force}{equation.6.2.11}{}}
\newlabel{eq:brute-dfp-derivative-lagrangian}{{6.12}{123}{Dual Fixed-Peak Brute Force}{equation.6.2.12}{}}
\@writefile{lof}{\contentsline {figure}{\numberline {6.10}{\ignorespaces Results of the VBF algorithm with 250,000 data samples, with SNR = 60 dB, at various sampling rates for wideband simulation, (a) 20 MHz, (b) 100 MHz, (c) 150 MHz, and (d) 200 MHz, for impulse response set IR-1\relax }}{124}{figure.caption.108}}
\newlabel{fig:VBF_ideal_30v3000}{{6.10}{124}{Results of the VBF algorithm with 250,000 data samples, with SNR = 60 dB, at various sampling rates for wideband simulation, (a) 20 MHz, (b) 100 MHz, (c) 150 MHz, and (d) 200 MHz, for impulse response set IR-1\relax }{figure.caption.108}{}}
\newlabel{eq:brute-dfp-update-lambda-mu}{{6.13}{124}{Dual Fixed-Peak Brute Force}{equation.6.2.13}{}}
\@writefile{lof}{\contentsline {figure}{\numberline {6.11}{\ignorespaces Results of the VBF algorithm with 250,000 data samples, with SNR = 60 dB, at various sampling rates for wideband simulation, (a) 20 MHz, (b) 100 MHz, (c) 150 MHz, and (d) 200 MHz, for impulse response set IR-2\relax }}{125}{figure.caption.109}}
\newlabel{fig:VBF_NITF_30v3000}{{6.11}{125}{Results of the VBF algorithm with 250,000 data samples, with SNR = 60 dB, at various sampling rates for wideband simulation, (a) 20 MHz, (b) 100 MHz, (c) 150 MHz, and (d) 200 MHz, for impulse response set IR-2\relax }{figure.caption.109}{}}
\newlabel{eq:brute-dfp-lambda-mu}{{6.16}{125}{Dual Fixed-Peak Brute Force}{equation.6.2.16}{}}
\@writefile{lof}{\contentsline {figure}{\numberline {6.12}{\ignorespaces Results of the DFPBF algorithm with 250,000 data samples, with SNR = 60 dB, at various sampling rates for wideband simulation, (a) 20 MHz, (b) 100 MHz, (c) 150 MHz, and (d) 200 MHz, for impulse response set IR-1\relax }}{126}{figure.caption.110}}
\newlabel{fig:DFPBF_ideal_30v3000}{{6.12}{126}{Results of the DFPBF algorithm with 250,000 data samples, with SNR = 60 dB, at various sampling rates for wideband simulation, (a) 20 MHz, (b) 100 MHz, (c) 150 MHz, and (d) 200 MHz, for impulse response set IR-1\relax }{figure.caption.110}{}}
\newlabel{eq:brute-dfp-update-complete}{{6.17}{126}{Dual Fixed-Peak Brute Force}{equation.6.2.17}{}}
\@writefile{lof}{\contentsline {figure}{\numberline {6.13}{\ignorespaces Results of the DFPBF algorithm with 250,000 data samples, with SNR = 60 dB, at various sampling rates for wideband simulation, (a) 20 MHz, (b) 100 MHz, (c) 150 MHz, and (d) 200 MHz, for impulse response set IR-2\relax }}{127}{figure.caption.111}}
\newlabel{fig:DFPBF_NITF_30v3000}{{6.13}{127}{Results of the DFPBF algorithm with 250,000 data samples, with SNR = 60 dB, at various sampling rates for wideband simulation, (a) 20 MHz, (b) 100 MHz, (c) 150 MHz, and (d) 200 MHz, for impulse response set IR-2\relax }{figure.caption.111}{}}
\@writefile{lof}{\contentsline {figure}{\numberline {6.14}{\ignorespaces Results of the DFPBF algorithm with 250,000 data samples, with SNR = 60 dB, at various sampling rates for narrowband simulation, (a) 20 MHz, (b) 100 MHz, (c) 150 MHz, and (d) 200 MHz, for impulse response set IR-1\relax }}{128}{figure.caption.112}}
\newlabel{fig:DFPBF_narrow_30v3000}{{6.14}{128}{Results of the DFPBF algorithm with 250,000 data samples, with SNR = 60 dB, at various sampling rates for narrowband simulation, (a) 20 MHz, (b) 100 MHz, (c) 150 MHz, and (d) 200 MHz, for impulse response set IR-1\relax }{figure.caption.112}{}}
\@writefile{lof}{\contentsline {figure}{\numberline {6.15}{\ignorespaces Results of the DFPBF algorithm with 2,500 data samples, with SNR = 60 dB, at various sampling rates for wideband simulation, (a) 20 MHz, (b) 100 MHz, (c) 150 MHz, and (d) 200 MHz, for transfer function set TF-1\relax }}{129}{figure.caption.113}}
\newlabel{fig:DFPBF_Nless_30v3000}{{6.15}{129}{Results of the DFPBF algorithm with 2,500 data samples, with SNR = 60 dB, at various sampling rates for wideband simulation, (a) 20 MHz, (b) 100 MHz, (c) 150 MHz, and (d) 200 MHz, for transfer function set TF-1\relax }{figure.caption.113}{}}
\@writefile{lof}{\contentsline {figure}{\numberline {6.16}{\ignorespaces Results of the DFPBF algorithm with 250,000 data samples, with SNR = 20 dB, at various sampling rates for wideband simulation, (a) 20 MHz, (b) 100 MHz, (c) 150 MHz, and (d) 200 MHz, for impulse response set IR-1\relax }}{130}{figure.caption.114}}
\newlabel{fig:DFPBF_noisy_30v3000}{{6.16}{130}{Results of the DFPBF algorithm with 250,000 data samples, with SNR = 20 dB, at various sampling rates for wideband simulation, (a) 20 MHz, (b) 100 MHz, (c) 150 MHz, and (d) 200 MHz, for impulse response set IR-1\relax }{figure.caption.114}{}}
\@writefile{toc}{\contentsline {section}{\numberline {6.3}Data Verification}{130}{section.6.3}}
\@writefile{toc}{\contentsline {subsection}{\numberline {6.3.1}Simulation}{130}{subsection.6.3.1}}
\@writefile{toc}{\contentsline {subsubsection}{``Ideal'' Simulation}{130}{section*.117}}
\@writefile{lof}{\contentsline {figure}{\numberline {6.17}{\ignorespaces Results of the DFPBF algorithm with 250,000 data samples, with SNR = 60 dB for wideband simulation at 200 MHz sampling rate for incorrect model order estimates (a) $L/2$, (b) $L-10$, (c) $2L$, and (d) $L + 10$, for impulse response set IR-1\relax }}{131}{figure.caption.115}}
\newlabel{fig:DFPBF_wrongModel_30v3000}{{6.17}{131}{Results of the DFPBF algorithm with 250,000 data samples, with SNR = 60 dB for wideband simulation at 200 MHz sampling rate for incorrect model order estimates (a) $L/2$, (b) $L-10$, (c) $2L$, and (d) $L + 10$, for impulse response set IR-1\relax }{figure.caption.115}{}}
\@writefile{toc}{\contentsline {subsubsection}{Signal Bandwidth}{131}{section*.118}}
\@writefile{toc}{\contentsline {subsubsection}{Noise}{131}{section*.119}}
\@writefile{toc}{\contentsline {subsubsection}{Sample Size}{131}{section*.120}}
\@writefile{toc}{\contentsline {subsubsection}{Model Order}{131}{section*.121}}
\@writefile{toc}{\contentsline {subsubsection}{Initial Estimates}{131}{section*.122}}
\@writefile{lof}{\contentsline {figure}{\numberline {6.18}{\ignorespaces Results of the DFPBF algorithm with 250,000 data samples, with SNR = 60 dB, at various sampling rates for wideband simulation, (a) 20 MHz, (b) 100 MHz, (c) 150 MHz, and (d) 200 MHz, for impulse response set IR-1 with a normalized random start.\relax }}{132}{figure.caption.116}}
\newlabel{fig:DFPBF_random_30v3000}{{6.18}{132}{Results of the DFPBF algorithm with 250,000 data samples, with SNR = 60 dB, at various sampling rates for wideband simulation, (a) 20 MHz, (b) 100 MHz, (c) 150 MHz, and (d) 200 MHz, for impulse response set IR-1 with a normalized random start.\relax }{figure.caption.116}{}}
\@writefile{lot}{\contentsline {table}{\numberline {6.1}{\ignorespaces \relax }}{133}{table.caption.123}}
\newlabel{tab:BF_ideal_results}{{6.1}{133}{\relax }{table.caption.123}{}}
\@writefile{lot}{\contentsline {table}{\numberline {6.2}{\ignorespaces \relax }}{134}{table.caption.124}}
\newlabel{tab:BF_narrow_results}{{6.2}{134}{\relax }{table.caption.124}{}}
\@writefile{lot}{\contentsline {table}{\numberline {6.3}{\ignorespaces \relax }}{135}{table.caption.125}}
\newlabel{tab:BF_noisy_results}{{6.3}{135}{\relax }{table.caption.125}{}}
\@writefile{lot}{\contentsline {table}{\numberline {6.4}{\ignorespaces \relax }}{136}{table.caption.126}}
\newlabel{tab:BF_nless_results}{{6.4}{136}{\relax }{table.caption.126}{}}
\@writefile{lot}{\contentsline {table}{\numberline {6.5}{\ignorespaces \relax }}{137}{table.caption.127}}
\newlabel{tab:BF_wrongModel_under1_results}{{6.5}{137}{\relax }{table.caption.127}{}}
\@writefile{lot}{\contentsline {table}{\numberline {6.6}{\ignorespaces \relax }}{138}{table.caption.128}}
\newlabel{tab:BF_wrongModel_under2_results}{{6.6}{138}{\relax }{table.caption.128}{}}
\@writefile{lot}{\contentsline {table}{\numberline {6.7}{\ignorespaces \relax }}{139}{table.caption.129}}
\newlabel{tab:BF_wrongModel_over1_results}{{6.7}{139}{\relax }{table.caption.129}{}}
\@writefile{lot}{\contentsline {table}{\numberline {6.8}{\ignorespaces \relax }}{140}{table.caption.130}}
\newlabel{tab:BF_wrongModel_over2_results}{{6.8}{140}{\relax }{table.caption.130}{}}
\@writefile{lot}{\contentsline {table}{\numberline {6.9}{\ignorespaces \relax }}{141}{table.caption.131}}
\newlabel{tab:BF_random_results}{{6.9}{141}{\relax }{table.caption.131}{}}
\@setckpt{Chapters/Chapter_6/ch_6_Brute}{
\setcounter{page}{142}
\setcounter{equation}{17}
\setcounter{enumi}{4}
\setcounter{enumii}{0}
\setcounter{enumiii}{0}
\setcounter{enumiv}{0}
\setcounter{footnote}{0}
\setcounter{mpfootnote}{0}
\setcounter{part}{0}
\setcounter{chapter}{6}
\setcounter{section}{3}
\setcounter{subsection}{1}
\setcounter{subsubsection}{0}
\setcounter{paragraph}{0}
\setcounter{subparagraph}{0}
\setcounter{figure}{18}
\setcounter{table}{9}
\setcounter{savemainpageno}{0}
\setcounter{savefrontpageno}{20}
\setcounter{savetotalpageno}{0}
\setcounter{float@type}{16}
\setcounter{alg}{0}
\setcounter{parentequation}{0}
\setcounter{lstnumber}{1}
\setcounter{ContinuedFloat}{0}
\setcounter{subfigure}{4}
\setcounter{subtable}{0}
\setcounter{Item}{6}
\setcounter{Hfootnote}{8}
\setcounter{bookmark@seq@number}{61}
\setcounter{lstlisting}{0}
\setcounter{section@level}{3}
}
