\relax 
\providecommand\hyper@newdestlabel[2]{}
\citation{conf:AED,art:MultiChannelBID,art:BSI,art:FastMLforBID,art:AlgBEwMultiAntennas,art:LS_Approach_BCID,art:Det_BID_Multi-FIRSystems,art:AdaptBESparse,art:IDinBDeconv,art:SparseBDeConv}
\citation{book:AcousticMIMOSigProc,art:AdaptiveTDEUsingFilterConstraints,art:TDEviaMinEntropy,art:AEDDecomp,conf:MAPEofTD,work:BSNCID}
\@writefile{toc}{\contentsline {chapter}{\numberline {3}PROBLEM OVERVIEW}{9}{chapter.3}}
\newlabel{ch:3}{{3}{9}{PROBLEM OVERVIEW}{chapter.3}{}}
\@writefile{toc}{\contentsline {section}{\numberline {3.1}Objective}{9}{section.3.1}}
\@writefile{toc}{\contentsline {section}{\numberline {3.2}Simulations}{10}{section.3.2}}
\@writefile{toc}{\contentsline {subsection}{\numberline {3.2.1}Narrowband vs Wideband}{10}{subsection.3.2.1}}
\@writefile{lof}{\contentsline {figure}{\numberline {3.1}{\ignorespaces The environment used to simulate transfer functions and the location of the simulated transmitter\relax }}{11}{figure.caption.6}}
\providecommand*\caption@xref[2]{\@setref\relax\@undefined{#1}}
\newlabel{fig:simEnv}{{3.1}{11}{The environment used to simulate transfer functions and the location of the simulated transmitter\relax }{figure.caption.6}{}}
\@writefile{toc}{\contentsline {subsection}{\numberline {3.2.2}Coding Modifications}{11}{subsection.3.2.2}}
\@writefile{lof}{\contentsline {figure}{\numberline {3.2}{\ignorespaces The environment used to simulate transfer functions with the location of various receivers\relax }}{12}{figure.caption.7}}
\newlabel{fig:simEnv_rec}{{3.2}{12}{The environment used to simulate transfer functions with the location of various receivers\relax }{figure.caption.7}{}}
\@writefile{toc}{\contentsline {section}{\numberline {3.3}Data Collection}{12}{section.3.3}}
\@writefile{lof}{\contentsline {figure}{\numberline {3.3}{\ignorespaces Normalized delay between channel 30, $\mathbf  {h}_1$, vs channel 1024, $\mathbf  {h}_2$, at 1500 MHz\relax }}{13}{figure.caption.8}}
\newlabel{fig:peak_comparison}{{3.3}{13}{Normalized delay between channel 30, $\mathbf {h}_1$, vs channel 1024, $\mathbf {h}_2$, at 1500 MHz\relax }{figure.caption.8}{}}
\@writefile{toc}{\contentsline {section}{\numberline {3.4}Data Sets}{13}{section.3.4}}
\newlabel{sec:DataSets}{{3.4}{13}{Data Sets}{section.3.4}{}}
\@writefile{toc}{\contentsline {subsection}{\numberline {3.4.1}USU Data Sets}{13}{subsection.3.4.1}}
\@writefile{toc}{\contentsline {subsection}{\numberline {3.4.2}UMD Data Sets}{13}{subsection.3.4.2}}
\@writefile{lof}{\contentsline {figure}{\numberline {3.4}{\ignorespaces Power spectral density comparison for (a) wideband, versus (b) narrowband data at 20 MHz\relax }}{14}{figure.caption.9}}
\newlabel{fig:freq_comparison}{{3.4}{14}{Power spectral density comparison for (a) wideband, versus (b) narrowband data at 20 MHz\relax }{figure.caption.9}{}}
\newlabel{fig:LTS}{{\caption@xref {fig:LTS}{ on input line 10}}{15}{Data Collection}{figure.caption.10}{}}
\newlabel{sub@fig:LTS}{{}{15}{Data Collection}{figure.caption.10}{}}
\newlabel{fig:USU}{{\caption@xref {fig:USU}{ on input line 15}}{15}{Data Collection}{figure.caption.10}{}}
\newlabel{sub@fig:USU}{{a}{15}{Data Collection}{figure.caption.10}{}}
\@writefile{lof}{\contentsline {figure}{\numberline {3.5}{\ignorespaces The basic outline of the data collection sites. The orange circles, like in Figure \ref  {fig:simEnv_rec}, depict the approximate locations of receiver antennas in the ceiling, and the black lines depict a rough sketch of the floor layout of the buildings\relax }}{15}{figure.caption.10}}
\newlabel{fig:dataSets}{{3.5}{15}{The basic outline of the data collection sites. The orange circles, like in Figure \ref {fig:simEnv_rec}, depict the approximate locations of receiver antennas in the ceiling, and the black lines depict a rough sketch of the floor layout of the buildings\relax }{figure.caption.10}{}}
\@setckpt{Chapters/Chapter_3/ch_3_problem_overview}{
\setcounter{page}{16}
\setcounter{equation}{0}
\setcounter{enumi}{2}
\setcounter{enumii}{0}
\setcounter{enumiii}{0}
\setcounter{enumiv}{0}
\setcounter{footnote}{1}
\setcounter{mpfootnote}{0}
\setcounter{part}{0}
\setcounter{chapter}{3}
\setcounter{section}{4}
\setcounter{subsection}{2}
\setcounter{subsubsection}{0}
\setcounter{paragraph}{0}
\setcounter{subparagraph}{0}
\setcounter{figure}{5}
\setcounter{table}{0}
\setcounter{savemainpageno}{0}
\setcounter{savefrontpageno}{11}
\setcounter{savetotalpageno}{0}
\setcounter{float@type}{16}
\setcounter{alg}{0}
\setcounter{parentequation}{0}
\setcounter{lstnumber}{1}
\setcounter{ContinuedFloat}{0}
\setcounter{subfigure}{2}
\setcounter{subtable}{0}
\setcounter{Item}{2}
\setcounter{Hfootnote}{3}
\setcounter{bookmark@seq@number}{19}
\setcounter{lstlisting}{0}
\setcounter{section@level}{2}
}
