% This file was created by matlab2tikz.
%
%The latest updates can be retrieved from
%  http://www.mathworks.com/matlabcentral/fileexchange/22022-matlab2tikz-matlab2tikz
%where you can also make suggestions and rate matlab2tikz.
%
\definecolor{mycolor1}{rgb}{0.00000,0.44700,0.74100}%
\definecolor{mycolor2}{rgb}{0.85000,0.32500,0.09800}%
%
\begin{tikzpicture}

\begin{axis}[%
width=1.935in,
height=3.2in,
at={(0.758in,0.512in)},
scale only axis,
xmin=0,
xmax=100,
xlabel style={font=\color{white!15!black}, align=center},
xlabel={Sample Index\\[1ex](a) Actual},
ymin=0,
ymax=0.8,
axis background/.style={fill=white},
legend style={legend cell align=left, align=left, draw=white!15!black}
]
\addplot [color=mycolor1]
  table[row sep=crcr]{%
1	0.0129538532238509\\
2	0.0157278361368032\\
3	0.0191571608138802\\
4	0.0255923724575832\\
5	0.13057228915146\\
6	0.790598288418654\\
7	0.353827376030412\\
8	0.122418300101408\\
9	0.229084031593214\\
10	0.118243319340586\\
11	0.168368944374742\\
12	0.0163735399430034\\
13	0.0206849651924714\\
14	0.0262956791329175\\
15	0.151852199158411\\
16	0.152742171024721\\
17	0.110720168991091\\
18	0.123153341936425\\
19	0.125894992669405\\
20	0.0746063601393855\\
21	0.0186653655418556\\
22	0.0250643995407145\\
23	0.00974111680189212\\
24	0.0779603151980655\\
25	0.0307172164925168\\
26	0.0208261989317089\\
27	0.0752294272267323\\
28	0.0144668561504321\\
29	0.0123363814366294\\
30	0.0122598477519198\\
31	0.0155350862563734\\
32	0.0418132873290243\\
33	0.0573531042253119\\
34	0.0129196281383963\\
35	0.00895205820328393\\
36	0.00773833898796016\\
37	0.00748874666873079\\
38	0.00800183229182001\\
39	0.00975691772335202\\
40	0.0159028691535576\\
41	0.0384196893347397\\
42	0.0314876195631017\\
43	0.010044387559483\\
44	0.00616684731235577\\
45	0.00479175222070565\\
46	0.00437058826387638\\
47	0.00459828758875363\\
48	0.005652668265702\\
49	0.0087419213913912\\
50	0.0260232215344717\\
51	0.0227474232041571\\
52	0.00780973732786325\\
53	0.00473741257906885\\
54	0.00342802499502385\\
55	0.0027071673231627\\
56	0.00225206144341568\\
57	0.001938695300116\\
58	0.0017095024412107\\
59	0.00153423834592061\\
60	0.00139554782547471\\
61	0.00128278764759102\\
62	0.00118908147787501\\
63	0.00110979542168412\\
64	0.0010416958422628\\
65	0.000982458809342531\\
66	0.000930371514391801\\
67	0.000884143640819322\\
68	0.000842784330423255\\
69	0.000805519676312384\\
70	0.000771736027647173\\
71	0.000740940180026644\\
72	0.000712730877370764\\
73	0.000686778053613698\\
74	0.000662807472321918\\
75	0.000640589196550035\\
76	0.000619928819626308\\
77	0.000600660714929267\\
78	0.000582642781753098\\
79	0.000565752313398667\\
80	0.000549882716621264\\
81	0.000534940883763175\\
82	0.000520845070183068\\
83	0.000507523166470246\\
84	0.00049491128175685\\
85	0.000482952574159901\\
86	0.000471596279030148\\
87	0.000460796896662062\\
88	0.000450513509420678\\
89	0.000440709204573525\\
90	0.000431350583981088\\
91	0.000422407345569488\\
92	0.000413851924447944\\
93	0.000405659183842499\\
94	0.000397806147840094\\
95	0.000390271769389961\\
96	0.000383036728166029\\
97	0.00037608325382988\\
98	0.000369394970986201\\
99	0\\
100	0\\
};
\addlegendentry{$\mathbf{h_1}$}

\addplot [color=mycolor2]
  table[row sep=crcr]{%
1	0.0089849246842337\\
2	0.00955586856755047\\
3	0.0102000386246561\\
4	0.0109303448856752\\
5	0.0117611964369887\\
6	0.0127063869488681\\
7	0.013771787577086\\
8	0.0149309370172528\\
9	0.0160361992437888\\
10	0.0164244433772478\\
11	0.0125495760932937\\
12	0.664036312008792\\
13	0.0850193487524877\\
14	0.131745330322907\\
15	0.128609472347745\\
16	0.0491456993245761\\
17	0.382620258465008\\
18	0.593903782219221\\
19	0.0828507132426594\\
20	0.0515719011856109\\
21	0.0378681896084267\\
22	0.030017391607479\\
23	0.0248946679351547\\
24	0.0212776230780299\\
25	0.0185834085331559\\
26	0.0164971010401923\\
27	0.0148330326444681\\
28	0.0134744221797144\\
29	0.0123440432735997\\
30	0.0113887411741417\\
31	0.0105707107326117\\
32	0.00986231811042315\\
33	0.00924289003134423\\
34	0.00869664894813821\\
35	0\\
36	0\\
37	0\\
38	0\\
39	0\\
40	0\\
41	0\\
42	0\\
43	0\\
44	0\\
45	0\\
46	0\\
47	0\\
48	0\\
49	0\\
50	0\\
51	0\\
52	0\\
53	0\\
54	0\\
55	0\\
56	0\\
57	0\\
58	0\\
59	0\\
60	0\\
61	0\\
62	0\\
63	0\\
64	0\\
65	0\\
66	0\\
67	0\\
68	0\\
69	0\\
70	0\\
71	0\\
72	0\\
73	0\\
74	0\\
75	0\\
76	0\\
77	0\\
78	0\\
79	0\\
80	0\\
81	0\\
82	0\\
83	0\\
84	0\\
85	0\\
86	0\\
87	0\\
88	0\\
89	0\\
90	0\\
91	0\\
92	0\\
93	0\\
94	0\\
95	0\\
96	0\\
97	0\\
98	0\\
99	0\\
100	0\\
};
\addlegendentry{$\mathbf{h_{2}}$}

\end{axis}

\begin{axis}[%
width=1.935in,
height=3.2in,
at={(3.327in,0.512in)},
scale only axis,
xmin=0,
xmax=100,
xlabel style={font=\color{white!15!black}, align=center},
xlabel={Sample Index\\[1ex](b) Estimated},
ymin=0,
ymax=1,
axis background/.style={fill=white},
legend style={legend cell align=left, align=left, draw=white!15!black}
]
\addplot [color=mycolor1]
  table[row sep=crcr]{%
0	0.000141505015816087\\
1	6.55683002710871e-05\\
2	0.00169741447916526\\
3	0.00187738053226959\\
4	0.000245190099989083\\
5	0.00070897442812122\\
6	0.00363494449598743\\
7	0.000162083322152175\\
8	0.00147152483164687\\
9	9.75965072645666e-05\\
10	0.000116092313758517\\
11	0.0112748262996095\\
12	0.00819966037075985\\
13	0.000214797840926046\\
14	7.49206953862249e-05\\
15	0.000276072556819094\\
16	0.000184289963159238\\
17	4.51305462720312e-05\\
18	0.000327206638824274\\
19	0.00738348739252209\\
20	0.00872873390656373\\
21	0.00663671355922345\\
22	0.00926421225297715\\
23	0.00626776960274722\\
24	0.0214338069520755\\
25	0.0118839747288078\\
26	0.0300888839599581\\
27	0.019492964640628\\
28	0.0122889647074473\\
29	0.0138658683763921\\
30	0.0262701299731809\\
31	0.0600527331421347\\
32	0.111983022057015\\
33	0.043348952575195\\
34	0.00814768384242379\\
35	0.0535085058219785\\
36	0.0896520065357236\\
37	0.367034499130709\\
38	0.585706586835435\\
39	0.064677082779626\\
40	0.0580010763150926\\
41	0.0421419087173891\\
42	0.112335418915715\\
43	0.544815596540601\\
44	0.144865070670839\\
45	0.10379286188797\\
46	0.172979061636779\\
47	0.126128281035823\\
48	0.116030474395491\\
49	0.130428325098863\\
50	0.0710344628929574\\
51	0.0438986056275044\\
52	0.117296712213412\\
53	0.0859889885002883\\
54	0.0387415772462195\\
55	0.0993342859381695\\
56	0.0863067979442005\\
57	0.0503199499864062\\
58	0.062464527474943\\
59	0.0124240363996149\\
60	0.00343077478723639\\
61	0.0662874694688065\\
62	0.0266190792693231\\
63	0.0135388730887384\\
64	0.0167294665137937\\
65	0.00749010299265555\\
66	0.0183618588465778\\
67	0.0037478801236948\\
68	0.0250813161848029\\
69	0.0284945498398151\\
70	0.0230839672664391\\
71	0.0036126317716097\\
72	0.0107158074117841\\
73	0.02152097728122\\
74	0.00507881933789139\\
75	0.00201833902857937\\
76	0.00190065710402393\\
77	0.00582418603985173\\
78	0.0153623726125992\\
79	0.00558050651094109\\
80	0.00313227145181491\\
81	0.000121426315169017\\
82	0.020175441123551\\
83	0.00197876672521519\\
84	0.00122737477899136\\
85	9.90555446841106e-05\\
86	0.000798349404788118\\
87	0.00877367457653518\\
88	0.00747886489092494\\
89	0.00135243236562419\\
90	0.000960850071140233\\
91	0.000165414225046652\\
92	7.16960877443435e-05\\
93	0.000175947032320586\\
94	0.000649056353770028\\
95	0.000237297008905101\\
96	4.39458276480523e-05\\
97	0.000248335858432088\\
98	3.65667764342527e-05\\
99	4.58834058147765e-05\\
};
\addlegendentry{$\mathbf{\hat{h}_{1}}$}

\addplot [color=mycolor2]
  table[row sep=crcr]{%
0	5.46102226238955e-05\\
1	2.12673474097351e-05\\
2	0.000403312257051881\\
3	5.90402481832491e-05\\
4	0.000268126194931338\\
5	0.00825401307730665\\
6	4.97763136105153e-05\\
7	0.000133282775591411\\
8	0.00132720013357229\\
9	0.00181920990713971\\
10	0.000193951372454302\\
11	0.00266617555647745\\
12	0.00116716473695819\\
13	0.00290022092125431\\
14	0.00788300486513006\\
15	0.00681553860436521\\
16	0.00413214876454935\\
17	0.00763675089601729\\
18	0.000852339040277604\\
19	0.000170684438572496\\
20	0.00145443953990445\\
21	0.00207214065886853\\
22	0.013574838772582\\
23	0.0277971358600364\\
24	0.00659554035238544\\
25	0.00674071819298167\\
26	0.0018513706655685\\
27	0.0064215566935961\\
28	0.0159978575469707\\
29	0.0163461437156702\\
30	0.0139234267670169\\
31	0.0171524103851522\\
32	0.00798743978784425\\
33	0.00869449925380987\\
34	0.00138864073603293\\
35	0.00348182851859698\\
36	0.0630894971640235\\
37	0.066728522810646\\
38	0.0579847848670855\\
39	0.0516189206550201\\
40	0.0668851658855381\\
41	0.0288247370300972\\
42	0.010412743618327\\
43	0.089600978445703\\
44	0.103343591339056\\
45	0.022875637901532\\
46	0.116171659215314\\
47	0.0186119389868233\\
48	0.0161657165852035\\
49	0.941927813971162\\
50	0.0167910653706692\\
51	0.0193815355028292\\
52	0.116169082235105\\
53	0.0228592310845009\\
54	0.103799060423944\\
55	0.0892918709586261\\
56	0.0107968991055695\\
57	0.0286576437334711\\
58	0.0673396912664219\\
59	0.0517433757021835\\
60	0.0590951152823624\\
61	0.0676499889876998\\
62	0.0656323680899077\\
63	0.0040709424846403\\
64	0.00165665824176202\\
65	0.00876334629827964\\
66	0.00824454427401835\\
67	0.0180460712986503\\
68	0.0130993643606111\\
69	0.0172555484606126\\
70	0.0175221326925118\\
71	0.00700927139746549\\
72	0.00124311304755722\\
73	0.00836437832700774\\
74	0.00642857165187088\\
75	0.0301595183205791\\
76	0.0156068391603491\\
77	0.000602599870671772\\
78	0.00329919608903596\\
79	0.00016827117135486\\
80	0.00086853736456863\\
81	0.00785477487681108\\
82	0.00488827474936168\\
83	0.00959231842918718\\
84	0.0109349760479338\\
85	0.0045800124773809\\
86	0.00180821983841442\\
87	0.00207677827264788\\
88	0.000486996580716891\\
89	0.00236424920381173\\
90	0.000540965474027473\\
91	0.000130450191826977\\
92	6.52236288441558e-05\\
93	0.0122748605441441\\
94	0.00161985617152767\\
95	0.00033823770318301\\
96	0.000154899249204728\\
97	0.000133183768029261\\
98	8.77554205490687e-05\\
99	4.96261738860914e-05\\
};
\addlegendentry{$\mathbf{\hat{h}_{2}}$}

\end{axis}
\end{tikzpicture}%