% This file was created by matlab2tikz.
%
%The latest updates can be retrieved from
%  http://www.mathworks.com/matlabcentral/fileexchange/22022-matlab2tikz-matlab2tikz
%where you can also make suggestions and rate matlab2tikz.
%
\definecolor{mycolor1}{rgb}{0.00000,0.44700,0.74100}%
\definecolor{mycolor2}{rgb}{0.85000,0.32500,0.09800}%
%
\begin{tikzpicture}

\begin{axis}[%
width=1.935in,
height=3.2in,
at={(0.758in,0.512in)},
scale only axis,
xmin=0,
xmax=100,
xlabel style={font=\color{white!15!black}, align=center},
xlabel={Sample Index\\[1ex](a) Actual},
ymin=0,
ymax=1,
axis background/.style={fill=white},
legend style={legend cell align=left, align=left, draw=white!15!black}
]
\addplot [color=mycolor1]
  table[row sep=crcr]{%
1	0.0216926152020066\\
2	0.0241183965289278\\
3	0.0267807478156139\\
4	0.0354280601095614\\
5	0.221828667704926\\
6	0.648965745595675\\
7	0.241270440438586\\
8	0.0776642628644082\\
9	0.0581044824071981\\
10	0.0611489366831747\\
11	0.0798140419847986\\
12	0.062735544320507\\
13	0.113011040425493\\
14	0.377485382687519\\
15	0.331649248845691\\
16	0.18615433793772\\
17	0.146493252817741\\
18	0.0847190801249442\\
19	0.0628278567269286\\
20	0.0148364296169451\\
21	0.0250471739922352\\
22	0.0344835915107885\\
23	0.116323790948646\\
24	0.279210940275387\\
25	0.101045410677318\\
26	0.0464379665429307\\
27	0.041398863205924\\
28	0.0263226969199998\\
29	0.0221848789960478\\
30	0.0197642774213948\\
31	0.0186496517239344\\
32	0.0219339353832985\\
33	0.018414044189717\\
34	0.00937919788338426\\
35	0.0100670783096178\\
36	0.0098135024549665\\
37	0.00937197330245933\\
38	0.00884810306396591\\
39	0.00821513429074651\\
40	0.00732026654240377\\
41	0.00945021173361951\\
42	0.0127255218727005\\
43	0.00946415089832864\\
44	0.00862800399957479\\
45	0.00816256372793386\\
46	0.00784857678072338\\
47	0.00764005346579914\\
48	0.00755773656417068\\
49	0.00776075567554332\\
50	0.00986938420958768\\
51	0.00319649311885596\\
52	0.00500292172051245\\
53	0.00524752973649041\\
54	0.00526667690567613\\
55	0.00521575322380608\\
56	0.00513704586881206\\
57	0.00504647235310817\\
58	0.00495116794332671\\
59	0.00485468351773321\\
60	0.00475890010347922\\
61	0.00466484578572566\\
62	0.00457308311118313\\
63	0.00448390798586452\\
64	0.0043974582605137\\
65	0.00431377595094964\\
66	0.00423284428954661\\
67	0.00415461047403326\\
68	0.00407899997367922\\
69	0.00400592569101114\\
70	0.00393529390404367\\
71	0.0038670081481966\\
72	0.00380097175500134\\
73	0.00373708950172093\\
74	0.00367526866536834\\
75	0.00361541967416126\\
76	0.00355745648532918\\
77	0.00350129677649243\\
78	0.00344686201027152\\
79	0.00339407741330312\\
80	0.00334287189828014\\
81	0.0032931779490063\\
82	0.00324493148246751\\
83	0.00319807169773062\\
84	0.003152540918526\\
85	0.00310828443427485\\
86	0.00306525034282854\\
87	0.00302338939712195\\
88	0.00298265485717807\\
89	0.00294300234835571\\
90	0.00290438972634362\\
91	0.0028667769491261\\
92	0.00283012595595264\\
93	0.0027944005532083\\
94	0.00275956630699144\\
95	0.0027255904421446\\
96	0.00269244174744817\\
97	0.00266009048666622\\
98	0.00262850831512411\\
99	0\\
100	0\\
};
\addlegendentry{$\mathbf{h_1}$}

\addplot [color=mycolor2]
  table[row sep=crcr]{%
1	0.00108294891904515\\
2	0.00115806441999571\\
3	0.00125656841390277\\
4	0.00139359850086552\\
5	0.00159676508941691\\
6	0.00191784013184518\\
7	0.00245777585368985\\
8	0.00342819163679349\\
9	0.00533730915065768\\
10	0.00974214709050295\\
11	0.0244449264542886\\
12	0.973731186814765\\
13	0.0500739614470277\\
14	0.0426946282907342\\
15	0.00536788790071817\\
16	0.0362080823589407\\
17	0.176144271962331\\
18	0.115663212635922\\
19	0.0234963057121139\\
20	0.0138738178597906\\
21	0.00966054585381422\\
22	0.00731818549393035\\
23	0.00584139575065055\\
24	0.0048330083027894\\
25	0.00410500747522503\\
26	0.00355723928842746\\
27	0.00313167065616096\\
28	0.00279247304593218\\
29	0.00251639833876938\\
30	0.00228774297450139\\
31	0.00209554142652578\\
32	0.00193191967393617\\
33	0.00179108704155738\\
34	0.00166869616651274\\
35	0\\
36	0\\
37	0\\
38	0\\
39	0\\
40	0\\
41	0\\
42	0\\
43	0\\
44	0\\
45	0\\
46	0\\
47	0\\
48	0\\
49	0\\
50	0\\
51	0\\
52	0\\
53	0\\
54	0\\
55	0\\
56	0\\
57	0\\
58	0\\
59	0\\
60	0\\
61	0\\
62	0\\
63	0\\
64	0\\
65	0\\
66	0\\
67	0\\
68	0\\
69	0\\
70	0\\
71	0\\
72	0\\
73	0\\
74	0\\
75	0\\
76	0\\
77	0\\
78	0\\
79	0\\
80	0\\
81	0\\
82	0\\
83	0\\
84	0\\
85	0\\
86	0\\
87	0\\
88	0\\
89	0\\
90	0\\
91	0\\
92	0\\
93	0\\
94	0\\
95	0\\
96	0\\
97	0\\
98	0\\
99	0\\
100	0\\
};
\addlegendentry{$\mathbf{h_{2}}$}

\end{axis}

\begin{axis}[%
width=1.935in,
height=3.2in,
at={(3.327in,0.512in)},
scale only axis,
xmin=0,
xmax=100,
xlabel style={font=\color{white!15!black}, align=center},
xlabel={Sample Index\\[1ex](b) Estimated},
ymin=0,
ymax=1,
axis background/.style={fill=white},
legend style={legend cell align=left, align=left, draw=white!15!black}
]
\addplot [color=mycolor1]
  table[row sep=crcr]{%
0	0.00228107307541278\\
1	0.00194076446305499\\
2	0.000162809335802069\\
3	0.0038306284450875\\
4	0.00538584104246714\\
5	0.00241806937066314\\
6	0.0030525870389545\\
7	0.00203576921502785\\
8	0.00167046152417914\\
9	0.00554610068541379\\
10	0.00913241027685183\\
11	0.00846685183184515\\
12	0.00534452860773765\\
13	0.0059335345523315\\
14	0.00173915068592019\\
15	0.00159813691531422\\
16	0.00192095726786149\\
17	0.0095473199707179\\
18	0.00430981536891024\\
19	0.0191921749338693\\
20	0.0437756133780544\\
21	0.00368792843179969\\
22	0.0158897688552403\\
23	0.0027763245398821\\
24	0.00942778142422743\\
25	0.00920726899111183\\
26	0.0133985544812292\\
27	0.038562964332182\\
28	0.0816638964394885\\
29	0.050477132853909\\
30	0.0615286891586932\\
31	0.0394008251767485\\
32	0.0227410239738361\\
33	0.0791473961381257\\
34	0.0225315457955363\\
35	0.0422956044415731\\
36	0.0104831598044854\\
37	0.176176570542011\\
38	0.667103039689396\\
39	0.2066978031795\\
40	0.0317731430380431\\
41	0.112332664298284\\
42	0.0847461748360804\\
43	0.126491569820586\\
44	0.0336038056831134\\
45	0.0995960635908246\\
46	0.367771134179617\\
47	0.287244343410369\\
48	0.188795778427732\\
49	0.123901549536357\\
50	0.0822974398069399\\
51	0.0794024894186452\\
52	0.0585536477378735\\
53	0.0422049900873465\\
54	0.0728278319323139\\
55	0.142637478063267\\
56	0.26536520094615\\
57	0.0658690518500956\\
58	0.0103068580243387\\
59	0.0161668787924155\\
60	0.0179755878197617\\
61	0.0154576871362182\\
62	0.0349624541187312\\
63	0.0543871396400342\\
64	0.0757292183323037\\
65	0.0363207853660753\\
66	0.021806396882166\\
67	0.00902062049562523\\
68	0.0253155538380868\\
69	0.0196422563535026\\
70	0.0180880463366151\\
71	0.00968560261694165\\
72	0.0177080156347797\\
73	0.0265538743317079\\
74	0.0181163898501276\\
75	0.0183178364457174\\
76	0.00687010188647595\\
77	0.00700702940582752\\
78	0.0109123248384028\\
79	0.0125644297226048\\
80	0.012623007924754\\
81	0.0181111908569212\\
82	0.0164675557844174\\
83	0.00414801037409048\\
84	0.00980331171997432\\
85	0.00906275362819143\\
86	0.0076733735412023\\
87	0.00486678096269652\\
88	0.00402069276468128\\
89	0.00598200984168458\\
};
\addlegendentry{$\mathbf{\hat{h}_{1}}$}

\addplot [color=mycolor2]
  table[row sep=crcr]{%
0	0.00412632836950126\\
1	0.00460844003501431\\
2	0.00212027637651727\\
3	0.00248129653432852\\
4	0.000965583132025138\\
5	0.00179699532569418\\
6	0.00325504281745128\\
7	0.0039544697121066\\
8	0.00401708377769892\\
9	0.00175438994409418\\
10	0.00929915655335494\\
11	0.00645457393696367\\
12	0.00686912368673595\\
13	0.00562673556405266\\
14	0.00495924986973642\\
15	0.00557291753101605\\
16	0.0160794660994636\\
17	0.0115364997192915\\
18	0.0216909869440553\\
19	0.0135042226503967\\
20	0.00276958990534238\\
21	0.0044758520825728\\
22	0.00291522139492568\\
23	0.00558551465371945\\
24	0.00961175979005348\\
25	0.0200598577265536\\
26	0.0832307616743632\\
27	0.0213821157641987\\
28	0.0316072817870881\\
29	0.0163689054772404\\
30	0.0133792397716971\\
31	0.0106265771839637\\
32	0.00260099152384079\\
33	0.0617649252999883\\
34	0.0776892631010915\\
35	0.0334204927734179\\
36	0.129508736295821\\
37	0.00774336058582994\\
38	0.0225717560096311\\
39	0.0410622731272422\\
40	0.0266954195140011\\
41	0.0304601403478131\\
42	0.0462608216721843\\
43	0.0114783801609618\\
44	0.954165471313337\\
45	0.0114626776712447\\
46	0.0462596954655485\\
47	0.0304567492105956\\
48	0.0267279949172541\\
49	0.0410905114260687\\
50	0.0225036654365627\\
51	0.00769779783200458\\
52	0.129592760724706\\
53	0.0333141377518037\\
54	0.0776392756943192\\
55	0.0616458793270889\\
56	0.00265656214617975\\
57	0.0107985946457225\\
58	0.0132089911258164\\
59	0.016160621765995\\
60	0.0314364748037581\\
61	0.0214376625919234\\
62	0.083156641619953\\
63	0.0202666983057304\\
64	0.00937402962229026\\
65	0.00547381784703235\\
66	0.00298178689563024\\
67	0.00445136035750316\\
68	0.00295360669297734\\
69	0.0132473071845002\\
70	0.021790070619674\\
71	0.011200781489639\\
72	0.0162920186595023\\
73	0.0056735829778564\\
74	0.00465580427922556\\
75	0.0054161007101782\\
76	0.00622468505171144\\
77	0.00591825196398391\\
78	0.00896748052828306\\
79	0.00132241207818911\\
80	0.00336718662827328\\
81	0.00340533607909472\\
82	0.00298875375624705\\
83	0.00161982198467978\\
84	0.00069650296094176\\
85	0.00177216756447444\\
86	0.00178995232653138\\
87	0.00355975910024063\\
88	0.0038261920786529\\
89	0.00237304231535506\\
};
\addlegendentry{$\mathbf{\hat{h}_{2}}$}

\end{axis}
\end{tikzpicture}%