% This file was created by matlab2tikz.
%
%The latest updates can be retrieved from
%  http://www.mathworks.com/matlabcentral/fileexchange/22022-matlab2tikz-matlab2tikz
%where you can also make suggestions and rate matlab2tikz.
%
\definecolor{mycolor1}{rgb}{0.00000,0.44700,0.74100}%
\definecolor{mycolor2}{rgb}{0.85000,0.32500,0.09800}%
%
\begin{tikzpicture}

\begin{axis}[%
width=1.935in,
height=3.2in,
at={(0.758in,0.512in)},
scale only axis,
xmin=0,
xmax=100,
xlabel style={font=\color{white!15!black}, align=center},
xlabel={Sample Index\\[1ex](a) Actual},
ymin=0,
ymax=1,
axis background/.style={fill=white},
legend style={legend cell align=left, align=left, draw=white!15!black}
]
\addplot [color=mycolor1]
  table[row sep=crcr]{%
1	0.0216926152020066\\
2	0.0241183965289278\\
3	0.0267807478156139\\
4	0.0354280601095614\\
5	0.221828667704926\\
6	0.648965745595675\\
7	0.241270440438586\\
8	0.0776642628644082\\
9	0.0581044824071981\\
10	0.0611489366831747\\
11	0.0798140419847986\\
12	0.062735544320507\\
13	0.113011040425493\\
14	0.377485382687519\\
15	0.331649248845691\\
16	0.18615433793772\\
17	0.146493252817741\\
18	0.0847190801249442\\
19	0.0628278567269286\\
20	0.0148364296169451\\
21	0.0250471739922352\\
22	0.0344835915107885\\
23	0.116323790948646\\
24	0.279210940275387\\
25	0.101045410677318\\
26	0.0464379665429307\\
27	0.041398863205924\\
28	0.0263226969199998\\
29	0.0221848789960478\\
30	0.0197642774213948\\
31	0.0186496517239344\\
32	0.0219339353832985\\
33	0.018414044189717\\
34	0.00937919788338426\\
35	0.0100670783096178\\
36	0.0098135024549665\\
37	0.00937197330245933\\
38	0.00884810306396591\\
39	0.00821513429074651\\
40	0.00732026654240377\\
41	0.00945021173361951\\
42	0.0127255218727005\\
43	0.00946415089832864\\
44	0.00862800399957479\\
45	0.00816256372793386\\
46	0.00784857678072338\\
47	0.00764005346579914\\
48	0.00755773656417068\\
49	0.00776075567554332\\
50	0.00986938420958768\\
51	0.00319649311885596\\
52	0.00500292172051245\\
53	0.00524752973649041\\
54	0.00526667690567613\\
55	0.00521575322380608\\
56	0.00513704586881206\\
57	0.00504647235310817\\
58	0.00495116794332671\\
59	0.00485468351773321\\
60	0.00475890010347922\\
61	0.00466484578572566\\
62	0.00457308311118313\\
63	0.00448390798586452\\
64	0.0043974582605137\\
65	0.00431377595094964\\
66	0.00423284428954661\\
67	0.00415461047403326\\
68	0.00407899997367922\\
69	0.00400592569101114\\
70	0.00393529390404367\\
71	0.0038670081481966\\
72	0.00380097175500134\\
73	0.00373708950172093\\
74	0.00367526866536834\\
75	0.00361541967416126\\
76	0.00355745648532918\\
77	0.00350129677649243\\
78	0.00344686201027152\\
79	0.00339407741330312\\
80	0.00334287189828014\\
81	0.0032931779490063\\
82	0.00324493148246751\\
83	0.00319807169773062\\
84	0.003152540918526\\
85	0.00310828443427485\\
86	0.00306525034282854\\
87	0.00302338939712195\\
88	0.00298265485717807\\
89	0.00294300234835571\\
90	0.00290438972634362\\
91	0.0028667769491261\\
92	0.00283012595595264\\
93	0.0027944005532083\\
94	0.00275956630699144\\
95	0.0027255904421446\\
96	0.00269244174744817\\
97	0.00266009048666622\\
98	0.00262850831512411\\
99	0\\
100	0\\
};
\addlegendentry{$\mathbf{h_1}$}

\addplot [color=mycolor2]
  table[row sep=crcr]{%
1	0.00108294891904515\\
2	0.00115806441999571\\
3	0.00125656841390277\\
4	0.00139359850086552\\
5	0.00159676508941691\\
6	0.00191784013184518\\
7	0.00245777585368985\\
8	0.00342819163679349\\
9	0.00533730915065768\\
10	0.00974214709050295\\
11	0.0244449264542886\\
12	0.973731186814765\\
13	0.0500739614470277\\
14	0.0426946282907342\\
15	0.00536788790071817\\
16	0.0362080823589407\\
17	0.176144271962331\\
18	0.115663212635922\\
19	0.0234963057121139\\
20	0.0138738178597906\\
21	0.00966054585381422\\
22	0.00731818549393035\\
23	0.00584139575065055\\
24	0.0048330083027894\\
25	0.00410500747522503\\
26	0.00355723928842746\\
27	0.00313167065616096\\
28	0.00279247304593218\\
29	0.00251639833876938\\
30	0.00228774297450139\\
31	0.00209554142652578\\
32	0.00193191967393617\\
33	0.00179108704155738\\
34	0.00166869616651274\\
35	0\\
36	0\\
37	0\\
38	0\\
39	0\\
40	0\\
41	0\\
42	0\\
43	0\\
44	0\\
45	0\\
46	0\\
47	0\\
48	0\\
49	0\\
50	0\\
51	0\\
52	0\\
53	0\\
54	0\\
55	0\\
56	0\\
57	0\\
58	0\\
59	0\\
60	0\\
61	0\\
62	0\\
63	0\\
64	0\\
65	0\\
66	0\\
67	0\\
68	0\\
69	0\\
70	0\\
71	0\\
72	0\\
73	0\\
74	0\\
75	0\\
76	0\\
77	0\\
78	0\\
79	0\\
80	0\\
81	0\\
82	0\\
83	0\\
84	0\\
85	0\\
86	0\\
87	0\\
88	0\\
89	0\\
90	0\\
91	0\\
92	0\\
93	0\\
94	0\\
95	0\\
96	0\\
97	0\\
98	0\\
99	0\\
100	0\\
};
\addlegendentry{$\mathbf{h_{2}}$}

\end{axis}

\begin{axis}[%
width=1.935in,
height=3.2in,
at={(3.327in,0.512in)},
scale only axis,
xmin=0,
xmax=100,
xlabel style={font=\color{white!15!black}, align=center},
xlabel={Sample Index\\[1ex](b) Estimated},
ymin=0,
ymax=1,
axis background/.style={fill=white},
legend style={legend cell align=left, align=left, draw=white!15!black}
]
\addplot [color=mycolor1]
  table[row sep=crcr]{%
0	1.29256430782897e-05\\
1	0.000117887704298752\\
2	7.80280186943205e-05\\
3	0.000101822031287651\\
4	0.000169748467311725\\
5	1.69599300410037e-05\\
6	0.000214143150415601\\
7	0.000106373478088773\\
8	6.97574957897187e-05\\
9	0.00104181545341779\\
10	0.00327208529740822\\
11	0.0043895923697663\\
12	0.00349900711395533\\
13	0.00190431454631905\\
14	9.83638855609773e-05\\
15	2.68846293938904e-05\\
16	3.81659102275659e-05\\
17	0.00343163417161685\\
18	0.000543797058970903\\
19	0.0147320924121003\\
20	0.0403366674239801\\
21	0.000263249375422601\\
22	0.0113803856869094\\
23	1.15656906553483e-05\\
24	0.00462179136914519\\
25	0.0044461247917062\\
26	0.00949897101498636\\
27	0.0350157137471368\\
28	0.0758331507674664\\
29	0.0461725766637628\\
30	0.0587053931102509\\
31	0.0335218864145219\\
32	0.0176827450143803\\
33	0.0735651490911023\\
34	0.0181052386554551\\
35	0.0365123331280858\\
36	0.00683607359505947\\
37	0.177458645617542\\
38	0.677691175300636\\
39	0.204786210076493\\
40	0.0272081385325214\\
41	0.109578635300505\\
42	0.0822810785840279\\
43	0.123361287508754\\
44	0.0280538052486805\\
45	0.0970320332302541\\
46	0.370376130637039\\
47	0.28814671418577\\
48	0.186060491329754\\
49	0.122819596909937\\
50	0.0788628270901984\\
51	0.0773699720673799\\
52	0.0555011003437078\\
53	0.0366051630169197\\
54	0.0678826150792244\\
55	0.14093399143937\\
56	0.267086756515381\\
57	0.0626259223161209\\
58	0.00814841741834545\\
59	0.0107401473996545\\
60	0.0123976424670231\\
61	0.0112835580823647\\
62	0.0324831523067918\\
63	0.0476167112809405\\
64	0.0722046177667686\\
65	0.0328039566635611\\
66	0.01815675149774\\
67	0.00474264062265844\\
68	0.0211625890261478\\
69	0.0156362945340954\\
70	0.0115160949041517\\
71	0.00543542888686505\\
72	0.0124455928758405\\
73	0.0223494026842081\\
74	0.0129597851051357\\
75	0.0144216195190125\\
76	0.00428228072143881\\
77	0.00443268375035077\\
78	0.00663131891924891\\
79	0.00741435776831595\\
80	0.00778343861179121\\
81	0.0116396299670284\\
82	0.0116336346909262\\
83	9.78398268508723e-05\\
84	0.00476488155805291\\
85	0.00388445870925274\\
86	0.00276832485943361\\
87	0.00168982491229451\\
88	0.000220740673986845\\
89	0.000402509673678461\\
};
\addlegendentry{$\mathbf{\hat{h}_{1}}$}

\addplot [color=mycolor2]
  table[row sep=crcr]{%
0	0.00149538577374204\\
1	0.00124106171274582\\
2	3.30831452120323e-05\\
3	1.36233416489564e-05\\
4	4.56289011053335e-05\\
5	6.31225650673207e-05\\
6	0.000393430718178138\\
7	0.000931604630788391\\
8	0.000919253868049183\\
9	4.21406727986237e-05\\
10	0.00588761541149304\\
11	0.00338483494078917\\
12	0.00232334853439096\\
13	0.00272021912250659\\
14	0.000775792505554483\\
15	0.00337401068373674\\
16	0.013822445053504\\
17	0.00753817911173554\\
18	0.0186857001671677\\
19	0.00868313538829163\\
20	0.00093383493283424\\
21	0.00323860497912653\\
22	0.00138339547503023\\
23	0.00468873646827583\\
24	0.00607107533185154\\
25	0.0161151603670007\\
26	0.0784094239613761\\
27	0.0182392187795612\\
28	0.0277416809238771\\
29	0.0129611154021263\\
30	0.00936806914865767\\
31	0.00713466375025901\\
32	0.000260451631323805\\
33	0.0572603877277563\\
34	0.0771715237985021\\
35	0.0281447907575992\\
36	0.127077067974337\\
37	0.00526088688232825\\
38	0.0189551466350549\\
39	0.0383224361123051\\
40	0.0234109254523556\\
41	0.026200572219325\\
42	0.0441366560303909\\
43	0.00977003546658019\\
44	0.958686768529109\\
45	0.00888689545544872\\
46	0.0446230700047402\\
47	0.0287368773302417\\
48	0.0238952946528735\\
49	0.0393274594225235\\
50	0.0189605288918296\\
51	0.00458203921048775\\
52	0.127516852268269\\
53	0.0285487366425327\\
54	0.0776584250362831\\
55	0.0587441679395938\\
56	4.0713832451338e-05\\
57	0.00759618116906014\\
58	0.010561698555197\\
59	0.0138811452566446\\
60	0.028417365062458\\
61	0.0177376325422565\\
62	0.080144922359772\\
63	0.0162592632720791\\
64	0.00575575992427326\\
65	0.00422731164907416\\
66	0.00114202146850499\\
67	0.00231404346530629\\
68	0.00116333778235682\\
69	0.00898473246186206\\
70	0.0179095391970922\\
71	0.00782793465455986\\
72	0.0150765591004563\\
73	0.00389852473454672\\
74	0.000966130245146982\\
75	0.00277031251991172\\
76	0.00352677193506207\\
77	0.00407534384645542\\
78	0.00648532450656751\\
79	0.000129545389246488\\
80	0.000484559461336761\\
81	0.000621354874955562\\
82	0.000842472747420676\\
83	3.9971311499644e-05\\
84	3.20401240101068e-05\\
85	1.96120752763191e-05\\
86	2.47318253868975e-05\\
87	0.0014140559054264\\
88	0.00147634869299914\\
89	0.000835738879897743\\
};
\addlegendentry{$\mathbf{\hat{h}_{2}}$}

\end{axis}
\end{tikzpicture}%