% This file was created by matlab2tikz.
%
%The latest updates can be retrieved from
%  http://www.mathworks.com/matlabcentral/fileexchange/22022-matlab2tikz-matlab2tikz
%where you can also make suggestions and rate matlab2tikz.
%
\definecolor{mycolor1}{rgb}{0.00000,0.44700,0.74100}%
\definecolor{mycolor2}{rgb}{0.85000,0.32500,0.09800}%
%
\begin{tikzpicture}

\begin{axis}[%
width=1.935in,
height=3.2in,
at={(0.758in,0.512in)},
scale only axis,
xmin=0,
xmax=100,
xlabel style={font=\color{white!15!black}, align=center},
xlabel={Sample Index\\[1ex](a) Actual},
ymin=0,
ymax=1,
axis background/.style={fill=white},
legend style={legend cell align=left, align=left, draw=white!15!black}
]
\addplot [color=mycolor1]
  table[row sep=crcr]{%
1	0.0216926152020066\\
2	0.0241183965289278\\
3	0.0267807478156139\\
4	0.0354280601095614\\
5	0.221828667704926\\
6	0.648965745595675\\
7	0.241270440438586\\
8	0.0776642628644082\\
9	0.0581044824071981\\
10	0.0611489366831747\\
11	0.0798140419847986\\
12	0.062735544320507\\
13	0.113011040425493\\
14	0.377485382687519\\
15	0.331649248845691\\
16	0.18615433793772\\
17	0.146493252817741\\
18	0.0847190801249442\\
19	0.0628278567269286\\
20	0.0148364296169451\\
21	0.0250471739922352\\
22	0.0344835915107885\\
23	0.116323790948646\\
24	0.279210940275387\\
25	0.101045410677318\\
26	0.0464379665429307\\
27	0.041398863205924\\
28	0.0263226969199998\\
29	0.0221848789960478\\
30	0.0197642774213948\\
31	0.0186496517239344\\
32	0.0219339353832985\\
33	0.018414044189717\\
34	0.00937919788338426\\
35	0.0100670783096178\\
36	0.0098135024549665\\
37	0.00937197330245933\\
38	0.00884810306396591\\
39	0.00821513429074651\\
40	0.00732026654240377\\
41	0.00945021173361951\\
42	0.0127255218727005\\
43	0.00946415089832864\\
44	0.00862800399957479\\
45	0.00816256372793386\\
46	0.00784857678072338\\
47	0.00764005346579914\\
48	0.00755773656417068\\
49	0.00776075567554332\\
50	0.00986938420958768\\
51	0.00319649311885596\\
52	0.00500292172051245\\
53	0.00524752973649041\\
54	0.00526667690567613\\
55	0.00521575322380608\\
56	0.00513704586881206\\
57	0.00504647235310817\\
58	0.00495116794332671\\
59	0.00485468351773321\\
60	0.00475890010347922\\
61	0.00466484578572566\\
62	0.00457308311118313\\
63	0.00448390798586452\\
64	0.0043974582605137\\
65	0.00431377595094964\\
66	0.00423284428954661\\
67	0.00415461047403326\\
68	0.00407899997367922\\
69	0.00400592569101114\\
70	0.00393529390404367\\
71	0.0038670081481966\\
72	0.00380097175500134\\
73	0.00373708950172093\\
74	0.00367526866536834\\
75	0.00361541967416126\\
76	0.00355745648532918\\
77	0.00350129677649243\\
78	0.00344686201027152\\
79	0.00339407741330312\\
80	0.00334287189828014\\
81	0.0032931779490063\\
82	0.00324493148246751\\
83	0.00319807169773062\\
84	0.003152540918526\\
85	0.00310828443427485\\
86	0.00306525034282854\\
87	0.00302338939712195\\
88	0.00298265485717807\\
89	0.00294300234835571\\
90	0.00290438972634362\\
91	0.0028667769491261\\
92	0.00283012595595264\\
93	0.0027944005532083\\
94	0.00275956630699144\\
95	0.0027255904421446\\
96	0.00269244174744817\\
97	0.00266009048666622\\
98	0.00262850831512411\\
99	0\\
100	0\\
};
\addlegendentry{$\mathbf{h_1}$}

\addplot [color=mycolor2]
  table[row sep=crcr]{%
1	0.00108294891904515\\
2	0.00115806441999571\\
3	0.00125656841390277\\
4	0.00139359850086552\\
5	0.00159676508941691\\
6	0.00191784013184518\\
7	0.00245777585368985\\
8	0.00342819163679349\\
9	0.00533730915065768\\
10	0.00974214709050295\\
11	0.0244449264542886\\
12	0.973731186814765\\
13	0.0500739614470277\\
14	0.0426946282907342\\
15	0.00536788790071817\\
16	0.0362080823589407\\
17	0.176144271962331\\
18	0.115663212635922\\
19	0.0234963057121139\\
20	0.0138738178597906\\
21	0.00966054585381422\\
22	0.00731818549393035\\
23	0.00584139575065055\\
24	0.0048330083027894\\
25	0.00410500747522503\\
26	0.00355723928842746\\
27	0.00313167065616096\\
28	0.00279247304593218\\
29	0.00251639833876938\\
30	0.00228774297450139\\
31	0.00209554142652578\\
32	0.00193191967393617\\
33	0.00179108704155738\\
34	0.00166869616651274\\
35	0\\
36	0\\
37	0\\
38	0\\
39	0\\
40	0\\
41	0\\
42	0\\
43	0\\
44	0\\
45	0\\
46	0\\
47	0\\
48	0\\
49	0\\
50	0\\
51	0\\
52	0\\
53	0\\
54	0\\
55	0\\
56	0\\
57	0\\
58	0\\
59	0\\
60	0\\
61	0\\
62	0\\
63	0\\
64	0\\
65	0\\
66	0\\
67	0\\
68	0\\
69	0\\
70	0\\
71	0\\
72	0\\
73	0\\
74	0\\
75	0\\
76	0\\
77	0\\
78	0\\
79	0\\
80	0\\
81	0\\
82	0\\
83	0\\
84	0\\
85	0\\
86	0\\
87	0\\
88	0\\
89	0\\
90	0\\
91	0\\
92	0\\
93	0\\
94	0\\
95	0\\
96	0\\
97	0\\
98	0\\
99	0\\
100	0\\
};
\addlegendentry{$\mathbf{h_{2}}$}

\end{axis}

\begin{axis}[%
width=1.935in,
height=3.2in,
at={(3.327in,0.512in)},
scale only axis,
xmin=0,
xmax=100,
xlabel style={font=\color{white!15!black}, align=center},
xlabel={Sample Index\\[1ex](b) Estimated},
ymin=0,
ymax=1,
axis background/.style={fill=white},
legend style={legend cell align=left, align=left, draw=white!15!black}
]
\addplot [color=mycolor1]
  table[row sep=crcr]{%
0	5.04825121297928e-05\\
1	9.30393142444073e-05\\
2	7.94395561209611e-05\\
3	1.45596724386983e-05\\
4	0.000112083506308459\\
5	2.88841205729683e-05\\
6	6.390049432657e-05\\
7	0.00013883581245402\\
8	3.68406180535856e-05\\
9	0.000765251438200586\\
10	5.18508797736373e-05\\
11	3.2724980965985e-05\\
12	4.34563959494118e-05\\
13	5.71302381040713e-05\\
14	0.000271569200563482\\
15	0.00443457681681575\\
16	0.00330665502995981\\
17	0.00229377406201114\\
18	0.00122207077839375\\
19	0.000147859217079367\\
20	0.000131172920736309\\
21	0.00020714438848412\\
22	0.00301291511891487\\
23	4.82793528031685e-05\\
24	0.0144804424270094\\
25	0.0401173219206032\\
26	0.000392616907041468\\
27	0.0114292147243568\\
28	0.000103770912214631\\
29	0.00405744316293036\\
30	0.00385976182879681\\
31	0.00913622771666234\\
32	0.0333484658592321\\
33	0.073677489838723\\
34	0.0455565837490465\\
35	0.0570002760157901\\
36	0.0332401146872976\\
37	0.0187357702159808\\
38	0.0756285945488779\\
39	0.017888999648818\\
40	0.0348464633800059\\
41	0.00658408744034563\\
42	0.178876195047891\\
43	0.677898844907819\\
44	0.203889132259342\\
45	0.0261426484705194\\
46	0.110484833862787\\
47	0.0818185732159074\\
48	0.122664223518483\\
49	0.0276005772092177\\
50	0.0966715792419676\\
51	0.371485141146414\\
52	0.289087941338361\\
53	0.185826155945255\\
54	0.123239506288872\\
55	0.0787007965759793\\
56	0.0783973763276472\\
57	0.0537469746472892\\
58	0.0363831014101926\\
59	0.0670812668963704\\
60	0.140241985075707\\
61	0.266828181016067\\
62	0.0623835028061579\\
63	0.007446433240855\\
64	0.0105354077409606\\
65	0.0125933064005114\\
66	0.0115086459545384\\
67	0.0321273413228547\\
68	0.0475284199840207\\
69	0.0710190615790017\\
70	0.0311463285707218\\
71	0.0169194060148847\\
72	0.00535556651324174\\
73	0.0215130799886652\\
74	0.0143863942545478\\
75	0.011361934036724\\
76	0.00495472340100443\\
77	0.012081361852878\\
78	0.0214482655500493\\
79	0.0124996088839644\\
80	0.0136172333743474\\
81	0.00431751667627794\\
82	0.00361926136192466\\
83	0.00662653146408087\\
84	0.00594460483269812\\
85	0.00578089570073026\\
86	0.0101068406722377\\
87	0.0119235687891593\\
88	0.00109316568042544\\
89	0.00394864551519999\\
90	0.00432630500359839\\
91	0.00316783319124955\\
92	0.00253869377156883\\
93	0.000503688275239155\\
94	0.000155081033600962\\
95	0.00224124457164283\\
96	0.00266192875607748\\
97	0.00298193254098173\\
98	0.00175753617728534\\
99	0.00149046988155236\\
};
\addlegendentry{$\mathbf{\hat{h}_{1}}$}

\addplot [color=mycolor2]
  table[row sep=crcr]{%
0	9.14443073872642e-05\\
1	3.89979365899654e-05\\
2	2.92401141705441e-05\\
3	0.000149132116468183\\
4	0.00040256814209569\\
5	0.00174518840624008\\
6	0.000550466874597165\\
7	6.21799057706155e-05\\
8	0.000121600181663218\\
9	2.53789405957798e-05\\
10	1.62585700871507e-05\\
11	0.000104223764032457\\
12	0.000894658927022316\\
13	0.00113795565761598\\
14	5.85590921764075e-05\\
15	0.00616708177517732\\
16	0.0030345712749135\\
17	0.00250433445717243\\
18	0.00224841939358906\\
19	0.00131287557024116\\
20	0.00409361515528896\\
21	0.0124863262888755\\
22	0.00703307740077228\\
23	0.0173877356277643\\
24	0.0101260977218641\\
25	0.000902322783328156\\
26	0.00296279219970824\\
27	0.000919803845065528\\
28	0.00433944125994068\\
29	0.00549614677338276\\
30	0.0160478730952034\\
31	0.0771662669973238\\
32	0.0175698599503673\\
33	0.0272787372962019\\
34	0.0132486411116674\\
35	0.00871576516113063\\
36	0.00699818726855879\\
37	0.000132454308739372\\
38	0.0567905723096016\\
39	0.0765911623028245\\
40	0.0277065910755369\\
41	0.125171484711865\\
42	0.00511495854084178\\
43	0.0178809620382219\\
44	0.037151643563864\\
45	0.0227304286319431\\
46	0.0262090862240276\\
47	0.0438103469078654\\
48	0.00958279605846945\\
49	0.959873356178206\\
50	0.0086881640371495\\
51	0.0442198299021069\\
52	0.0287490268170706\\
53	0.0232775786581453\\
54	0.0381321511728872\\
55	0.0178611488336288\\
56	0.00446166584475315\\
57	0.125571116187946\\
58	0.0281520447063426\\
59	0.0772187184176524\\
60	0.058517555920871\\
61	1.10163438681927e-05\\
62	0.00757879684944561\\
63	0.010029399193802\\
64	0.0143519108775649\\
65	0.0277359861359743\\
66	0.0171271401858876\\
67	0.0789387667554047\\
68	0.0161796121888746\\
69	0.00523748447630343\\
70	0.00389599271936653\\
71	0.000545258667271869\\
72	0.00192866090560001\\
73	0.000894647947623046\\
74	0.0102815970824033\\
75	0.0170293467800478\\
76	0.00763310255505002\\
77	0.0138237090683745\\
78	0.00459720440808221\\
79	0.00139737321767003\\
80	0.00226297632436567\\
81	0.00356740407033881\\
82	0.00371427271377014\\
83	0.00660925270658822\\
84	7.30140051925913e-05\\
85	0.000906039399614138\\
86	0.000518575870127043\\
87	0.000506114159798504\\
88	9.43940548008798e-06\\
89	1.57479929326672e-05\\
90	0.000485614321263371\\
91	1.67031119350788e-05\\
92	0.00112246588157713\\
93	0.00176007019853997\\
94	0.00066322515700893\\
95	2.69551212393709e-05\\
96	3.70704879679743e-05\\
97	0.000126855300263003\\
98	0.000342172120788775\\
99	0.000567959786957719\\
};
\addlegendentry{$\mathbf{\hat{h}_{2}}$}

\end{axis}
\end{tikzpicture}%