% This file was created by matlab2tikz.
%
%The latest updates can be retrieved from
%  http://www.mathworks.com/matlabcentral/fileexchange/22022-matlab2tikz-matlab2tikz
%where you can also make suggestions and rate matlab2tikz.
%
\definecolor{mycolor1}{rgb}{0.00000,0.44700,0.74100}%
\definecolor{mycolor2}{rgb}{0.85000,0.32500,0.09800}%
%
\begin{tikzpicture}

\begin{axis}[%
width=1.935in,
height=3.2in,
at={(0.758in,0.512in)},
scale only axis,
xmin=0,
xmax=100,
xlabel style={font=\color{white!15!black}, align=center},
xlabel={Sample Index\\[1ex](a) Actual},
ymin=0,
ymax=1,
axis background/.style={fill=white},
legend style={legend cell align=left, align=left, draw=white!15!black}
]
\addplot [color=mycolor1]
  table[row sep=crcr]{%
1	0.0216926152020066\\
2	0.0241183965289278\\
3	0.0267807478156139\\
4	0.0354280601095614\\
5	0.221828667704926\\
6	0.648965745595675\\
7	0.241270440438586\\
8	0.0776642628644082\\
9	0.0581044824071981\\
10	0.0611489366831747\\
11	0.0798140419847986\\
12	0.062735544320507\\
13	0.113011040425493\\
14	0.377485382687519\\
15	0.331649248845691\\
16	0.18615433793772\\
17	0.146493252817741\\
18	0.0847190801249442\\
19	0.0628278567269286\\
20	0.0148364296169451\\
21	0.0250471739922352\\
22	0.0344835915107885\\
23	0.116323790948646\\
24	0.279210940275387\\
25	0.101045410677318\\
26	0.0464379665429307\\
27	0.041398863205924\\
28	0.0263226969199998\\
29	0.0221848789960478\\
30	0.0197642774213948\\
31	0.0186496517239344\\
32	0.0219339353832985\\
33	0.018414044189717\\
34	0.00937919788338426\\
35	0.0100670783096178\\
36	0.0098135024549665\\
37	0.00937197330245933\\
38	0.00884810306396591\\
39	0.00821513429074651\\
40	0.00732026654240377\\
41	0.00945021173361951\\
42	0.0127255218727005\\
43	0.00946415089832864\\
44	0.00862800399957479\\
45	0.00816256372793386\\
46	0.00784857678072338\\
47	0.00764005346579914\\
48	0.00755773656417068\\
49	0.00776075567554332\\
50	0.00986938420958768\\
51	0.00319649311885596\\
52	0.00500292172051245\\
53	0.00524752973649041\\
54	0.00526667690567613\\
55	0.00521575322380608\\
56	0.00513704586881206\\
57	0.00504647235310817\\
58	0.00495116794332671\\
59	0.00485468351773321\\
60	0.00475890010347922\\
61	0.00466484578572566\\
62	0.00457308311118313\\
63	0.00448390798586452\\
64	0.0043974582605137\\
65	0.00431377595094964\\
66	0.00423284428954661\\
67	0.00415461047403326\\
68	0.00407899997367922\\
69	0.00400592569101114\\
70	0.00393529390404367\\
71	0.0038670081481966\\
72	0.00380097175500134\\
73	0.00373708950172093\\
74	0.00367526866536834\\
75	0.00361541967416126\\
76	0.00355745648532918\\
77	0.00350129677649243\\
78	0.00344686201027152\\
79	0.00339407741330312\\
80	0.00334287189828014\\
81	0.0032931779490063\\
82	0.00324493148246751\\
83	0.00319807169773062\\
84	0.003152540918526\\
85	0.00310828443427485\\
86	0.00306525034282854\\
87	0.00302338939712195\\
88	0.00298265485717807\\
89	0.00294300234835571\\
90	0.00290438972634362\\
91	0.0028667769491261\\
92	0.00283012595595264\\
93	0.0027944005532083\\
94	0.00275956630699144\\
95	0.0027255904421446\\
96	0.00269244174744817\\
97	0.00266009048666622\\
98	0.00262850831512411\\
99	0\\
100	0\\
};
\addlegendentry{$\mathbf{h_1}$}

\addplot [color=mycolor2]
  table[row sep=crcr]{%
1	0.00108294891904515\\
2	0.00115806441999571\\
3	0.00125656841390277\\
4	0.00139359850086552\\
5	0.00159676508941691\\
6	0.00191784013184518\\
7	0.00245777585368985\\
8	0.00342819163679349\\
9	0.00533730915065768\\
10	0.00974214709050295\\
11	0.0244449264542886\\
12	0.973731186814765\\
13	0.0500739614470277\\
14	0.0426946282907342\\
15	0.00536788790071817\\
16	0.0362080823589407\\
17	0.176144271962331\\
18	0.115663212635922\\
19	0.0234963057121139\\
20	0.0138738178597906\\
21	0.00966054585381422\\
22	0.00731818549393035\\
23	0.00584139575065055\\
24	0.0048330083027894\\
25	0.00410500747522503\\
26	0.00355723928842746\\
27	0.00313167065616096\\
28	0.00279247304593218\\
29	0.00251639833876938\\
30	0.00228774297450139\\
31	0.00209554142652578\\
32	0.00193191967393617\\
33	0.00179108704155738\\
34	0.00166869616651274\\
35	0\\
36	0\\
37	0\\
38	0\\
39	0\\
40	0\\
41	0\\
42	0\\
43	0\\
44	0\\
45	0\\
46	0\\
47	0\\
48	0\\
49	0\\
50	0\\
51	0\\
52	0\\
53	0\\
54	0\\
55	0\\
56	0\\
57	0\\
58	0\\
59	0\\
60	0\\
61	0\\
62	0\\
63	0\\
64	0\\
65	0\\
66	0\\
67	0\\
68	0\\
69	0\\
70	0\\
71	0\\
72	0\\
73	0\\
74	0\\
75	0\\
76	0\\
77	0\\
78	0\\
79	0\\
80	0\\
81	0\\
82	0\\
83	0\\
84	0\\
85	0\\
86	0\\
87	0\\
88	0\\
89	0\\
90	0\\
91	0\\
92	0\\
93	0\\
94	0\\
95	0\\
96	0\\
97	0\\
98	0\\
99	0\\
100	0\\
};
\addlegendentry{$\mathbf{h_{2}}$}

\end{axis}

\begin{axis}[%
width=1.935in,
height=3.2in,
at={(3.327in,0.512in)},
scale only axis,
xmin=0,
xmax=100,
xlabel style={font=\color{white!15!black}, align=center},
xlabel={Sample Index\\[1ex](b) Estimated},
ymin=0,
ymax=0.9,
axis background/.style={fill=white},
legend style={legend cell align=left, align=left, draw=white!15!black}
]
\addplot [color=mycolor1]
  table[row sep=crcr]{%
0	0.0214986857136717\\
1	0.0264178196596156\\
2	0.0896380635504859\\
3	0.028079105482867\\
4	0.0251432475012637\\
5	0.00145129081586638\\
6	0.0141518213382796\\
7	0.0626872195458968\\
8	0.0183442468142105\\
9	0.00607865032038267\\
10	0.0957893116107985\\
11	0.0709432790551765\\
12	0.100874322246836\\
13	0.0271220084642792\\
14	0.0347191818135978\\
15	0.0591210151823768\\
16	0.0730423313001831\\
17	0.0290663778451318\\
18	0.0746629138229593\\
19	0.0579947734480827\\
20	0.054292874020125\\
21	0.101681148291758\\
22	0.0326407168051945\\
23	0.0690182513188232\\
24	0.0832152980666742\\
25	0.0674131457437691\\
26	0.0714768936752239\\
27	0.0395287813901998\\
28	0.0261565936969992\\
29	0.0723139260212134\\
30	0.114220137046872\\
31	0.00577843245370659\\
32	0.059828152719042\\
33	0.0930500070388032\\
34	0.0252729572993668\\
35	0.112717482437218\\
36	0.0099349073577441\\
37	0.0580128927663965\\
38	0.103759666323464\\
39	0.0969197610028318\\
40	0.0309655526879135\\
41	0.0152470265687059\\
42	0.0921929875391737\\
43	0.542884741473978\\
44	0.202586741463112\\
45	0.0276801699155034\\
46	0.0963837843784898\\
47	0.0826809415490214\\
48	0.125799779724199\\
49	0.00945516273081047\\
50	0.0331724595058261\\
51	0.339689908719461\\
52	0.256143372206979\\
53	0.116082731284548\\
54	0.117137465622299\\
55	0.040666234732444\\
56	0.111797698505906\\
57	0.0571938268520343\\
58	0.0729733513973588\\
59	0.0839355454116449\\
60	0.0339497387829684\\
61	0.218575375969036\\
62	0.118128812144167\\
63	0.127052402261638\\
64	0.0781474530090468\\
65	0.0841154616326205\\
66	0.0286172037354139\\
67	0.000880876740658709\\
68	0.119767994300799\\
69	0.114753557097357\\
70	0.133762933128316\\
71	0.0308021898672515\\
72	0.0375603611882803\\
73	0.0269154003688342\\
74	0.112886196440046\\
75	0.0462655196248851\\
76	0.0423594508079147\\
77	0.0444394416965779\\
78	0.0531571270308136\\
79	0.0550238225619873\\
80	0.00298614502762452\\
81	0.0429446043691491\\
82	0.0890029000079083\\
83	0.0264499562167759\\
84	0.0731976830854548\\
85	0.029202874628921\\
86	0.0690616435066134\\
87	0.0292184985420851\\
88	0.0415413728041201\\
89	0.0187857411469149\\
90	0.0344646466557079\\
91	0.0295863090433157\\
92	0.123465413345376\\
93	0.00178437138716199\\
94	0.0584864531706793\\
95	0.0215161596471953\\
96	0.0539728030186794\\
97	0.0365118162743541\\
98	0.0315288103608249\\
99	0.0170236329161429\\
};
\addlegendentry{$\mathbf{\hat{h}_{1}}$}

\addplot [color=mycolor2]
  table[row sep=crcr]{%
0	0.0107294773412995\\
1	0.0362864267690742\\
2	0.0367255471557067\\
3	0.0142778948139944\\
4	0.0130326977501807\\
5	0.00650794964055264\\
6	0.0287552287360616\\
7	0.00154200356229548\\
8	0.0760210821393594\\
9	0.00677355690063518\\
10	0.0345255555450305\\
11	0.0189464038688051\\
12	0.00518025090334378\\
13	0.0501391165465213\\
14	0.0244541256604607\\
15	0.02750235772626\\
16	0.046863599546907\\
17	0.0184244507148057\\
18	0.0663970661514139\\
19	0.0692225786954176\\
20	0.0154745308776008\\
21	0.106325386127551\\
22	0.0579203814658082\\
23	0.036884136422209\\
24	0.0300837829386209\\
25	0.0603620303113352\\
26	0.045858080408334\\
27	0.00505164845195235\\
28	0.0251220310570424\\
29	0.0231549237626283\\
30	0.0322119051906485\\
31	0.0515011835446081\\
32	0.0119922995037074\\
33	0.061591198904077\\
34	0.0110653475012643\\
35	0.0574313956715266\\
36	0.0473854083241163\\
37	0.00907301773849416\\
38	0.0493618386018373\\
39	0.124286584683961\\
40	0.0474010735082948\\
41	0.124560394858177\\
42	0.00832258908270799\\
43	0.0539050267264853\\
44	0.0250286494238679\\
45	0.0400705346380929\\
46	0.0284527437010287\\
47	0.0379263203615399\\
48	0.0848778903926233\\
49	0.879063215043319\\
50	0.0275728915096452\\
51	0.029311798636964\\
52	0.00445710262194337\\
53	0.0123633055323078\\
54	0.0400783416127995\\
55	0.0519695620622788\\
56	0.00183804552709283\\
57	0.0974672510031051\\
58	0.0246389949348056\\
59	0.0509517769289135\\
60	0.0640307335897722\\
61	0.0559873041132413\\
62	0.0296792327439736\\
63	0.0669524666519066\\
64	0.0363543750165183\\
65	0.0266776245983401\\
66	0.0772475864718691\\
67	0.112470586499909\\
68	0.0839131250323644\\
69	0.0576647914658577\\
70	0.0530093226880413\\
71	0.0372440731172684\\
72	0.0582241136805847\\
73	0.0150180472512193\\
74	0.111118319066356\\
75	0.0165658045972602\\
76	0.0454829292645459\\
77	0.0459169646436573\\
78	0.00820279493627161\\
79	0.0483607764075627\\
80	0.0816581947070165\\
81	0.025350449691779\\
82	0.0198842604275833\\
83	0.0404308231462333\\
84	0.0393579655975942\\
85	0.024848849252018\\
86	0.0312179828435162\\
87	0.00420571828884752\\
88	0.0226305363372853\\
89	0.0401041821586479\\
90	0.0528242933488402\\
91	0.021906268781931\\
92	0.0422091541074194\\
93	0.0225591268830273\\
94	0.0380052711364865\\
95	0.0154976518051509\\
96	0.0227053270691339\\
97	0.0109530770589167\\
98	0.0106280700800544\\
99	0.0194371117379656\\
};
\addlegendentry{$\mathbf{\hat{h}_{2}}$}

\end{axis}
\end{tikzpicture}%