% This file was created by matlab2tikz.
%
%The latest updates can be retrieved from
%  http://www.mathworks.com/matlabcentral/fileexchange/22022-matlab2tikz-matlab2tikz
%where you can also make suggestions and rate matlab2tikz.
%
\definecolor{mycolor1}{rgb}{0.00000,0.44700,0.74100}%
\definecolor{mycolor2}{rgb}{0.85000,0.32500,0.09800}%
%
\begin{tikzpicture}

\begin{axis}[%
width=1.935in,
height=3.2in,
at={(0.758in,0.512in)},
scale only axis,
xmin=0,
xmax=150,
xlabel style={font=\color{white!15!black}, align=center},
xlabel={Sample Index\\[1ex](a) Actual},
ymin=0,
ymax=0.8,
axis background/.style={fill=white},
legend style={legend cell align=left, align=left, draw=white!15!black}
]
\addplot [color=mycolor1]
  table[row sep=crcr]{%
1	0.0151830319933043\\
2	0.0185496696438093\\
3	0.023502065016884\\
4	0.0315038869286449\\
5	0.0469062512391942\\
6	0.0954908680191146\\
7	0.0858266491267274\\
8	0.265807368316819\\
9	0.796648883752005\\
10	0.216493826260265\\
11	0.0878556377176694\\
12	0.07193222497443\\
13	0.105696480077463\\
14	0.149868327351951\\
15	0.0510921191197441\\
16	0.152868392263622\\
17	0.048017719918991\\
18	0.0109949328175406\\
19	0.0126732962157991\\
20	0.0175843103691614\\
21	0.0258891023896794\\
22	0.171301952341992\\
23	0.1212921102575\\
24	0.0235386564372659\\
25	0.00858129954461538\\
26	0.133991438537226\\
27	0.17851624212042\\
28	0.0777373619575687\\
29	0.110031729625206\\
30	0.00959913684727289\\
31	0.0101692934073309\\
32	0.0218927776733185\\
33	0.0485547145239866\\
34	0.028524787741674\\
35	0.0931132420825283\\
36	0.0761344452933766\\
37	0.0369812132104379\\
38	0.0270699566667011\\
39	0.026458256765523\\
40	0.0700820910745542\\
41	0.00787266021999488\\
42	0.00768771367639978\\
43	0.00738222171836111\\
44	0.00713402148494006\\
45	0.00716369066636382\\
46	0.00788882227497034\\
47	0.0112512475897253\\
48	0.0626689062200538\\
49	0.0427206763331481\\
50	0.00951578480873744\\
51	0.00243896181448075\\
52	0.0015691552028362\\
53	0.00146457511195334\\
54	0.00155057599858872\\
55	0.0017720937565566\\
56	0.00217432997301489\\
57	0.00286457318035984\\
58	0.00410346836174264\\
59	0.00676291579585115\\
60	0.0170053910864941\\
61	0.0301833155479945\\
62	0.0511202697583185\\
63	0.0105005975636433\\
64	0.00640544843735559\\
65	0.00470250391841775\\
66	0.00371961016971575\\
67	0.00305007107550002\\
68	0.00254202566702992\\
69	0.00212653652112194\\
70	0.0017767046983006\\
71	0.00152001410442311\\
72	0.00153304600268641\\
73	0.00230867360183963\\
74	0.00526136383537744\\
75	0.038333522890848\\
76	0.0121668181991512\\
77	0.00627619518067768\\
78	0.00457506177246321\\
79	0.00374737764088975\\
80	0.00324686636810371\\
81	0.00290502633566605\\
82	0.00265270743485525\\
83	0.00245624767322843\\
84	0.00229725334120465\\
85	0.0021647918883538\\
86	0.00205193428439391\\
87	0.00195406009034949\\
88	0.00186795865192442\\
89	0.00179132151185079\\
90	0.00172244056348044\\
91	0.00166002062260405\\
92	0.00160305868824092\\
93	0.00155076366110332\\
94	0.00150250147009903\\
95	0.00145775664490856\\
96	0.00141610482103629\\
97	0.00137719268617519\\
98	0.0013407230999277\\
99	0.00130644387932209\\
100	0.00127413922704226\\
101	0.00124362309491465\\
102	0.00121473398501049\\
103	0.00118733083279375\\
104	0.00116128971457897\\
105	0.00113650118998977\\
106	0.00111286813865705\\
107	0.00109030398529933\\
108	0.00106873123273224\\
109	0.00104808024105737\\
110	0.00102828820519932\\
111	0.00100929829342004\\
112	0.000991058917376328\\
113	0.000973523110361595\\
114	0.000956647995060137\\
115	0.000940394325788187\\
116	0.00092472609305463\\
117	0.000909610180527103\\
118	0.000895016066279295\\
119	0.000880915561628906\\
120	0.000867282582022485\\
121	0.000854092945356868\\
122	0.000841324193880593\\
123	0.000828955436438686\\
124	0.000816967208330094\\
125	0.000805341346466144\\
126	0.000794060877864884\\
127	0.000783109919805542\\
128	0.000772473590206662\\
129	0.000762137926996426\\
130	0.000752089815411914\\
131	0.000742316922307892\\
132	0.000732807636680009\\
133	0.000723551015708443\\
134	0.000714536735717782\\
135	0.000705755047526231\\
136	0.000697196735719498\\
137	0.000688853081443639\\
138	0.000680715828357098\\
139	0.000672777151427449\\
140	0.000665029628290027\\
141	0.000657466212923161\\
142	0.000650080211416905\\
143	0.000642865259640033\\
144	0.000635815302630011\\
145	0.000628924575548207\\
146	0.000622187586061679\\
147	0.000615599098024618\\
148	0.000609154116346598\\
149	0\\
150	0\\
};
\addlegendentry{$\mathbf{h_1}$}

\addplot [color=mycolor2]
  table[row sep=crcr]{%
1	0.0116283672604953\\
2	0.0123927463124993\\
3	0.0132649499786597\\
4	0.0142694730472227\\
5	0.0154388022064217\\
6	0.0168169460018562\\
7	0.0184650059045602\\
8	0.0204703044623656\\
9	0.0229620194387964\\
10	0.0261394268228958\\
11	0.030326372246617\\
12	0.0360853656003085\\
13	0.0444837647244236\\
14	0.0578138510431174\\
15	0.0820182949536605\\
16	0.138539152408166\\
17	0.40529101126893\\
18	0.531857257093217\\
19	0.183644612933698\\
20	0.136508722860241\\
21	0.200047586884045\\
22	0.106492504443086\\
23	0.0269767303978956\\
24	0.0384718138974967\\
25	0.247242183991229\\
26	0.550925101963883\\
27	0.195827754207156\\
28	0.0577902570880743\\
29	0.0334777071537313\\
30	0.0243597557761845\\
31	0.0197080234406676\\
32	0.0168717713396733\\
33	0.0149315700239635\\
34	0.0134968721772165\\
35	0.0123767429153913\\
36	0.0114674702329188\\
37	0.0107078852605367\\
38	0.0100594473104557\\
39	0.0094965290561411\\
40	0.00900131573338651\\
41	0.00856095738478305\\
42	0.00816589392182006\\
43	0.00780882485328738\\
44	0.00748405042307228\\
45	0.00718703568900882\\
46	0.00691411334689385\\
47	0.00666227571208106\\
48	0.00642902565379269\\
49	0.0062122675203184\\
50	0.00601022582354538\\
51	0\\
52	0\\
53	0\\
54	0\\
55	0\\
56	0\\
57	0\\
58	0\\
59	0\\
60	0\\
61	0\\
62	0\\
63	0\\
64	0\\
65	0\\
66	0\\
67	0\\
68	0\\
69	0\\
70	0\\
71	0\\
72	0\\
73	0\\
74	0\\
75	0\\
76	0\\
77	0\\
78	0\\
79	0\\
80	0\\
81	0\\
82	0\\
83	0\\
84	0\\
85	0\\
86	0\\
87	0\\
88	0\\
89	0\\
90	0\\
91	0\\
92	0\\
93	0\\
94	0\\
95	0\\
96	0\\
97	0\\
98	0\\
99	0\\
100	0\\
101	0\\
102	0\\
103	0\\
104	0\\
105	0\\
106	0\\
107	0\\
108	0\\
109	0\\
110	0\\
111	0\\
112	0\\
113	0\\
114	0\\
115	0\\
116	0\\
117	0\\
118	0\\
119	0\\
120	0\\
121	0\\
122	0\\
123	0\\
124	0\\
125	0\\
126	0\\
127	0\\
128	0\\
129	0\\
130	0\\
131	0\\
132	0\\
133	0\\
134	0\\
135	0\\
136	0\\
137	0\\
138	0\\
139	0\\
140	0\\
141	0\\
142	0\\
143	0\\
144	0\\
145	0\\
146	0\\
147	0\\
148	0\\
149	0\\
150	0\\
};
\addlegendentry{$\mathbf{h_{2}}$}

\end{axis}

\begin{axis}[%
width=1.935in,
height=3.2in,
at={(3.327in,0.512in)},
scale only axis,
xmin=0,
xmax=150,
xlabel style={font=\color{white!15!black}, align=center},
xlabel={Sample Index\\[1ex](b) Estimated},
ymin=0,
ymax=1,
axis background/.style={fill=white},
legend style={legend cell align=left, align=left, draw=white!15!black}
]
\addplot [color=mycolor1]
  table[row sep=crcr]{%
0	0.000206577590563627\\
1	9.99636798425737e-05\\
2	7.39908322149242e-05\\
3	1.4793764907255e-05\\
4	0.000268339571371271\\
5	0.000371022535406572\\
6	0.000105473495281111\\
7	2.1179735774679e-05\\
8	0.000112783528203299\\
9	0.000159059537174571\\
10	0.000153860383423963\\
11	0.000176716169384013\\
12	0.00031182384907848\\
13	0.000245687367267251\\
14	0.000461941921843733\\
15	2.11336335160429e-05\\
16	5.32710996152053e-05\\
17	0.00695274767614151\\
18	0.00719524412023847\\
19	0.000244208038317191\\
20	6.84628363206086e-05\\
21	2.85304428293701e-05\\
22	0.00014543323998855\\
23	0.000186561086118016\\
24	0.000162562346357014\\
25	9.43904993845487e-05\\
26	0.000419190958783814\\
27	9.19324462122129e-05\\
28	0.000131943702987635\\
29	0.00325210159649141\\
30	0.00699872949574153\\
31	0.00174197496612398\\
32	6.33017996708728e-05\\
33	0.00531877004977839\\
34	0.00331990110692336\\
35	0.0115342400389012\\
36	0.0135398968787848\\
37	0.0175295068438368\\
38	0.00360238041918905\\
39	0.00810666197126089\\
40	0.0144066791364953\\
41	0.013204367897532\\
42	0.00746383202091837\\
43	0.0132461913539134\\
44	0.00814132804484972\\
45	0.0036786111241677\\
46	0.0139712929346372\\
47	0.0364754207064078\\
48	0.0451714607123239\\
49	0.0734616152018177\\
50	0.0350046523555328\\
51	0.0185192749394647\\
52	0.0153308343253229\\
53	0.0223602641329218\\
54	0.0247752496387305\\
55	0.0228363109960123\\
56	0.219670117506557\\
57	0.533074604440821\\
58	0.261980567732184\\
59	0.027398039759484\\
60	0.0291151658999967\\
61	0.0268596832125164\\
62	0.0782028154688598\\
63	0.110230379064437\\
64	0.0745987433367625\\
65	0.45765530793966\\
66	0.347136772093179\\
67	0.217279098486673\\
68	0.119763121544095\\
69	0.111461695946088\\
70	0.103848332782154\\
71	0.12147197286719\\
72	0.0323313013151722\\
73	0.0841451518216338\\
74	0.0842128426352274\\
75	0.0898093320210752\\
76	0.0575245635596147\\
77	0.0817595434260271\\
78	0.0990330761076278\\
79	0.0830129177224935\\
80	0.0171106567053923\\
81	0.0826236307541566\\
82	0.082268112622787\\
83	0.0474887380200381\\
84	0.128882847236898\\
85	0.107982439484589\\
86	0.0396027582603009\\
87	0.0229546338539684\\
88	0.0823592464221114\\
89	0.0465283467348602\\
90	0.0678145799226281\\
91	0.080414929277976\\
92	0.0784586779831691\\
93	0.0114620625016632\\
94	0.0042290622691386\\
95	0.0230325121836143\\
96	0.0165287257714674\\
97	0.0276991812698279\\
98	0.00312271758022351\\
99	0.018689091513906\\
100	0.00398404253116784\\
101	0.0168985398067\\
102	0.00197604266706436\\
103	0.0162965411424401\\
104	0.0123500958011215\\
105	0.0319664203673873\\
106	0.0171674233126151\\
107	0.0123439970355859\\
108	0.000372796856697655\\
109	0.0161217775721184\\
110	0.0156683234467714\\
111	0.0100033071761706\\
112	0.0108202987168346\\
113	0.00572693888420586\\
114	0.000719147459937868\\
115	0.000700543194170645\\
116	0.0022708475153419\\
117	0.0188109735602768\\
118	0.0243018374240969\\
119	9.2889961988347e-05\\
120	0.000101041913897111\\
121	0.000132151644294113\\
122	0.00224566516372296\\
123	0.0126181467405763\\
124	0.00817242226948512\\
125	0.000306776108707003\\
126	3.36406357734578e-05\\
127	4.39527195785065e-05\\
128	0.00761049431211691\\
129	0.00357999891416061\\
130	0.00447761592116358\\
131	0.00524132020589577\\
132	0.0175457723950082\\
133	0.00523171317395557\\
134	0.00243285615325272\\
135	0.000312121847492112\\
136	0.000412867923347995\\
137	3.38050873173391e-05\\
138	3.85537702266543e-05\\
139	9.24908013039751e-05\\
140	0.000211387277024769\\
141	0.000141060429099812\\
142	9.12129523532486e-05\\
143	0.000129233944942843\\
144	7.91186648054848e-05\\
145	0.000117234888961706\\
146	5.34560168617827e-05\\
147	1.37955495826658e-05\\
148	0.00010717574452232\\
149	0.000312832820991719\\
};
\addlegendentry{$\mathbf{\hat{h}_{1}}$}

\addplot [color=mycolor2]
  table[row sep=crcr]{%
0	0.000110713894441262\\
1	6.22334278496877e-05\\
2	1.18662281865857e-05\\
3	0.000160922932879354\\
4	3.7166514656374e-05\\
5	9.39357787470826e-06\\
6	5.66974014367369e-06\\
7	0.00155270403547352\\
8	0.00739533722713654\\
9	0.000850991485334382\\
10	0.000412317292694892\\
11	4.05999942868985e-05\\
12	0.000153571205834728\\
13	4.84257503505574e-05\\
14	3.35775342144605e-05\\
15	0.00180907192381398\\
16	7.54224810707543e-05\\
17	0.00243682397655517\\
18	0.000156136163690533\\
19	3.73711340055805e-05\\
20	5.1061987148851e-05\\
21	0.00911824130307867\\
22	0.00659681743781501\\
23	0.00223696533334819\\
24	0.000856213424492563\\
25	0.00405208838566406\\
26	0.00130879367093621\\
27	0.00302581966604381\\
28	0.000266747640594324\\
29	0.00227365990626249\\
30	0.00391518891903029\\
31	0.00331496279333715\\
32	0.000103233345550907\\
33	0.00172869140965387\\
34	0.0132925645882179\\
35	0.0197776953759265\\
36	0.000547496642410659\\
37	0.00486281692592304\\
38	0.00548967027987811\\
39	0.00604817356635213\\
40	0.00691345682802948\\
41	0.00834516708866572\\
42	0.00178348782421478\\
43	0.0133832238778257\\
44	0.0112116082327818\\
45	0.00666398829331291\\
46	0.00987248640581594\\
47	0.0192422702826938\\
48	0.0216593623136228\\
49	0.0129757455697275\\
50	0.0101463089823468\\
51	0.0101760376607582\\
52	0.0123801894697209\\
53	0.00333594042527123\\
54	0.034965717430477\\
55	0.0371491296299884\\
56	0.0658741566602449\\
57	0.0400084951698864\\
58	0.0023990711906624\\
59	0.0270760849190824\\
60	0.0461269123078068\\
61	0.0440619532200838\\
62	0.0226629306978112\\
63	0.00100739566977625\\
64	0.0052481030056056\\
65	0.0449281532189823\\
66	0.0789221508997198\\
67	0.0408996445669385\\
68	0.00993606049233401\\
69	0.0583790135805397\\
70	0.0877730599977434\\
71	0.0331954116930883\\
72	0.0306558570085351\\
73	0.0901159606435563\\
74	0.950145824792028\\
75	0.0905656882450811\\
76	0.0301524902104932\\
77	0.0327690084287242\\
78	0.0880068120961348\\
79	0.0573102517890348\\
80	0.00970086270994821\\
81	0.0416318915699334\\
82	0.0789196350957876\\
83	0.0444047405647512\\
84	0.00492121340817689\\
85	0.00249961741071254\\
86	0.0225866568855282\\
87	0.0455853672717219\\
88	0.047312410001362\\
89	0.0257069751679357\\
90	0.00312566957413525\\
91	0.0409797026499827\\
92	0.0670597983875955\\
93	0.0382417762490069\\
94	0.0363981185009648\\
95	0.00419979249262031\\
96	0.0128640572450383\\
97	0.0105827091816423\\
98	0.0108684450000801\\
99	0.0137570119070372\\
100	0.023001834506126\\
101	0.0211847493823164\\
102	0.00986253497678037\\
103	0.00652826629454134\\
104	0.0115604172052233\\
105	0.0144285516640165\\
106	0.00263992892646519\\
107	0.00886575296175766\\
108	0.00748820742746697\\
109	0.00640650294639167\\
110	0.00692205108765637\\
111	0.0044863093889874\\
112	0.000443052313444351\\
113	0.0216697900899323\\
114	0.0152543487262088\\
115	0.00263728158818028\\
116	0.000128230346101497\\
117	0.00300498262881344\\
118	0.00398300834631884\\
119	0.00354452002084007\\
120	0.000219039366146396\\
121	0.00230943870974429\\
122	0.00151568058196961\\
123	0.00324989299635229\\
124	0.00129930543282024\\
125	0.00293664662349693\\
126	0.00927439968546811\\
127	0.0116422497177839\\
128	0.00028913743602872\\
129	2.74981394292433e-05\\
130	9.66960214322245e-05\\
131	0.00193757784741827\\
132	2.94940957313496e-05\\
133	0.00281203154972916\\
134	4.90754154801745e-05\\
135	1.21327924308353e-05\\
136	0.000140591824534398\\
137	6.04432835813883e-05\\
138	0.000514279875710574\\
139	0.00167494043835335\\
140	0.0103002245318682\\
141	0.00243265852973922\\
142	5.55915271542151e-05\\
143	1.48917361312048e-05\\
144	0.000103247219865355\\
145	0.000172139122803148\\
146	3.4453211471821e-05\\
147	7.38470459616212e-05\\
148	5.56256267310965e-05\\
149	0.00030652138077991\\
};
\addlegendentry{$\mathbf{\hat{h}_{2}}$}

\end{axis}
\end{tikzpicture}%