% This file was created by matlab2tikz.
%
%The latest updates can be retrieved from
%  http://www.mathworks.com/matlabcentral/fileexchange/22022-matlab2tikz-matlab2tikz
%where you can also make suggestions and rate matlab2tikz.
%
\definecolor{mycolor1}{rgb}{0.00000,0.44700,0.74100}%
\definecolor{mycolor2}{rgb}{0.85000,0.32500,0.09800}%
%
\begin{tikzpicture}

\begin{axis}[%
width=1.935in,
height=3.2in,
at={(0.758in,0.512in)},
scale only axis,
xmin=0,
xmax=200,
xlabel style={font=\color{white!15!black}, align=center},
xlabel={Sample Index\\[1ex](a) Actual},
ymin=0,
ymax=1,
axis background/.style={fill=white},
legend style={legend cell align=left, align=left, draw=white!15!black}
]
\addplot [color=mycolor1]
  table[row sep=crcr]{%
1	0.0167418731260698\\
2	0.018659722218203\\
3	0.0211495716349754\\
4	0.0245407494314006\\
5	0.029505643974117\\
6	0.0377161636169434\\
7	0.0550750576238134\\
8	0.131028403455825\\
9	0.141533477104454\\
10	0.158175166246243\\
11	0.163761757297189\\
12	0.600100605556833\\
13	0.118033417583129\\
14	0.0610914209628117\\
15	0.0426162246246858\\
16	0.0332715711707656\\
17	0.0321939439283243\\
18	0.0268871008873183\\
19	0.0316920608120786\\
20	0.0286771919664519\\
21	0.00773119825769845\\
22	0.0330073087209196\\
23	0.019415059292473\\
24	0.0177688778425817\\
25	0.0188194600762088\\
26	0.0237714798713867\\
27	0.0430806655948836\\
28	0.586023006720236\\
29	0.0970905103802927\\
30	0.0246981078960262\\
31	0.0780346253424249\\
32	0.0580455436901626\\
33	0.0681836526256362\\
34	0.163824852865525\\
35	0.0446106828365612\\
36	0.06119675966513\\
37	0.00907835157153909\\
38	0.0310093774848825\\
39	0.00125972832884384\\
40	0.005422098150711\\
41	0.0107374596162295\\
42	0.0165479326643041\\
43	0.024789327411243\\
44	0.0446277431282512\\
45	0.058019450740893\\
46	0.074843365423057\\
47	0.199666615467323\\
48	0.216838516027539\\
49	0.0783890355452335\\
50	0.0495529240878659\\
51	0.0370791446049236\\
52	0.0307530810094058\\
53	0.0155757068681131\\
54	0.0198807977432187\\
55	0.0179871495341263\\
56	0.0162887905400521\\
57	0.0148728268904216\\
58	0.0136909847461918\\
59	0.0126943671543235\\
60	0.011846112844806\\
61	0.0111233301448608\\
62	0.0105291449791113\\
63	0.0102108676347222\\
64	0.00751288118280402\\
65	0.00739035992869396\\
66	0.0116365722557393\\
67	0.00899390796280924\\
68	0.00831157148096884\\
69	0.00788086875151191\\
70	0.00754217236777393\\
71	0.00725475830161164\\
72	0.00700327644843893\\
73	0.006780818536885\\
74	0.00658453626015097\\
75	0.00641472878078445\\
76	0.00627599401250467\\
77	0.00618216997550965\\
78	0.00617516728867787\\
79	0.00642745729543014\\
80	0.00873051939586948\\
81	0.00471465923588381\\
82	0.00195996010568866\\
83	0.004980313957114\\
84	0.00475839614864904\\
85	0.00464733241660508\\
86	0.00455444244400457\\
87	0.00446749239384432\\
88	0.00438406292262191\\
89	0.00430366820355207\\
90	0.00422628355118023\\
91	0.00415201532524293\\
92	0.00408104289588831\\
93	0.00401365198230764\\
94	0.00395033763548775\\
95	0.00389203620501121\\
96	0.00384070443755282\\
97	0.00380107128140597\\
98	0.00378779867734327\\
99	0.00387836096292209\\
100	0.00228454900881806\\
101	0.00321909463290553\\
102	0.00328982387499096\\
103	0.00328100374444436\\
104	0.00325253146337885\\
105	0.00321692683031362\\
106	0.00317840637543852\\
107	0.00313876414674543\\
108	0.00309887602618152\\
109	0.00305920797263281\\
110	0.00302002111537278\\
111	0.00298146552488656\\
112	0.00294362726599965\\
113	0.0029065537719176\\
114	0.00287026833389302\\
115	0.00283477876811283\\
116	0.00280008280049957\\
117	0.00276617151884636\\
118	0.00273303164395387\\
119	0.00270064705586787\\
120	0.00266899983729428\\
121	0.00263807099659409\\
122	0.00260784097374635\\
123	0.00257828999668392\\
124	0.00254939833288439\\
125	0.00252114646667125\\
126	0.00249351522323938\\
127	0.00246648585412356\\
128	0.00244004009455901\\
129	0.00241416020024051\\
130	0.00238882896892876\\
131	0.0023640297508985\\
132	0.00233974645117835\\
133	0.00231596352577768\\
134	0.00229266597354371\\
135	0.00226983932488367\\
136	0.00224746962828519\\
137	0.00222554343533969\\
138	0.00220404778480324\\
139	0.00218297018609978\\
140	0.00216229860257188\\
141	0.00214202143470905\\
142	0.00212212750352594\\
143	0.00210260603421662\\
144	0.00208344664017788\\
145	0.00206463930746792\\
146	0.00204617437974413\\
147	0.00202804254371082\\
148	0.00201023481509265\\
149	0.00199274252514179\\
150	0.00197555730767936\\
151	0.0019586710866655\\
152	0.00194207606428942\\
153	0.00192576470956709\\
154	0.00190972974743187\\
155	0.00189396414830307\\
156	0.00187846111811499\\
157	0.00186321408878906\\
158	0.00184821670913216\\
159	0.00183346283614256\\
160	0.00181894652670628\\
161	0.00180466202966742\\
162	0.00179060377825436\\
163	0.00177676638284649\\
164	0.00176314462406556\\
165	0.00174973344617591\\
166	0.0017365279507797\\
167	0.00172352339079259\\
168	0.00171071516468654\\
169	0.00169809881098722\\
170	0.00168567000301325\\
171	0.00167342454384613\\
172	0.00166135836151948\\
173	0.00164946750441694\\
174	0.00163774813686889\\
175	0.00162619653493841\\
176	0.00161480908238697\\
177	0.00160358226681213\\
178	0.001592512675948\\
179	0.00158159699412143\\
180	0.00157083199885632\\
181	0.00156021455761888\\
182	0.00154974162469766\\
183	0.00153941023821136\\
184	0.00152921751723897\\
185	0.00151916065906659\\
186	0.00150923693654504\\
187	0.00149944369555362\\
188	0.00148977835256491\\
189	0.00148023839230615\\
190	0.0014708213655126\\
191	0.00146152488676917\\
192	0.00145234663243548\\
193	0.00144328433865201\\
194	0.00143433579942216\\
195	0.0014254988647679\\
196	0.00141677143895562\\
197	0.00140815147878894\\
198	0.00139963699196521\\
199	0\\
200	0\\
};
\addlegendentry{$\mathbf{h_1}$}

\addplot [color=mycolor2]
  table[row sep=crcr]{%
1	0.00495033386861547\\
2	0.00515738368500011\\
3	0.00538309861623286\\
4	0.00563019833310769\\
5	0.00590197136255583\\
6	0.00620243506959928\\
7	0.00653655369620811\\
8	0.00691054090538825\\
9	0.00733228812251618\\
10	0.00781198494389501\\
11	0.00836304134465097\\
12	0.0090034999823859\\
13	0.00975827527656913\\
14	0.0106628508662167\\
15	0.0117696896019869\\
16	0.0131600228416925\\
17	0.0149671880151623\\
18	0.0174273921400842\\
19	0.0210049332363351\\
20	0.0267613442180004\\
21	0.037792597580649\\
22	0.068721841139076\\
23	0.97572931769219\\
24	0.0649085399616321\\
25	0.0262918397391367\\
26	0.0126468169615953\\
27	0.00419508123086451\\
28	0.0214241856295046\\
29	0.0134643328328179\\
30	0.00412679327935559\\
31	0.0112712342656943\\
32	0.0282552508318709\\
33	0.111702725947746\\
34	0.12653020104749\\
35	0.0361926668223949\\
36	0.024130019396178\\
37	0.019518168382204\\
38	0.0163235660243771\\
39	0.0140849625225472\\
40	0.0124312948441269\\
41	0.0111552918846637\\
42	0.0101369616841952\\
43	0.00930266674553233\\
44	0.00860476970863487\\
45	0.00801105372801389\\
46	0.00749890841387189\\
47	0.00705196472677567\\
48	0.00665805661850076\\
49	0.0063079366485928\\
50	0.00599443852440938\\
51	0.00571191453485358\\
52	0.00545584764793091\\
53	0.0052225778141873\\
54	0.00500910486747672\\
55	0.00481294397681212\\
56	0.00463201789166602\\
57	0.00446457542356871\\
58	0.00430912894812168\\
59	0.00416440590497024\\
60	0.00402931074167137\\
61	0.00390289474814389\\
62	0.00378433192171684\\
63	0.00367289949042518\\
64	0.0035679620699816\\
65	0.00346895868109233\\
66	0.00337539203747226\\
67	0.00328681965070268\\
68	0.00320284639950925\\
69	0\\
70	0\\
71	0\\
72	0\\
73	0\\
74	0\\
75	0\\
76	0\\
77	0\\
78	0\\
79	0\\
80	0\\
81	0\\
82	0\\
83	0\\
84	0\\
85	0\\
86	0\\
87	0\\
88	0\\
89	0\\
90	0\\
91	0\\
92	0\\
93	0\\
94	0\\
95	0\\
96	0\\
97	0\\
98	0\\
99	0\\
100	0\\
101	0\\
102	0\\
103	0\\
104	0\\
105	0\\
106	0\\
107	0\\
108	0\\
109	0\\
110	0\\
111	0\\
112	0\\
113	0\\
114	0\\
115	0\\
116	0\\
117	0\\
118	0\\
119	0\\
120	0\\
121	0\\
122	0\\
123	0\\
124	0\\
125	0\\
126	0\\
127	0\\
128	0\\
129	0\\
130	0\\
131	0\\
132	0\\
133	0\\
134	0\\
135	0\\
136	0\\
137	0\\
138	0\\
139	0\\
140	0\\
141	0\\
142	0\\
143	0\\
144	0\\
145	0\\
146	0\\
147	0\\
148	0\\
149	0\\
150	0\\
151	0\\
152	0\\
153	0\\
154	0\\
155	0\\
156	0\\
157	0\\
158	0\\
159	0\\
160	0\\
161	0\\
162	0\\
163	0\\
164	0\\
165	0\\
166	0\\
167	0\\
168	0\\
169	0\\
170	0\\
171	0\\
172	0\\
173	0\\
174	0\\
175	0\\
176	0\\
177	0\\
178	0\\
179	0\\
180	0\\
181	0\\
182	0\\
183	0\\
184	0\\
185	0\\
186	0\\
187	0\\
188	0\\
189	0\\
190	0\\
191	0\\
192	0\\
193	0\\
194	0\\
195	0\\
196	0\\
197	0\\
198	0\\
199	0\\
200	0\\
};
\addlegendentry{$\mathbf{h_{2}}$}

\end{axis}

\begin{axis}[%
width=1.935in,
height=3.2in,
at={(3.327in,0.512in)},
scale only axis,
xmin=0,
xmax=200,
xlabel style={font=\color{white!15!black}, align=center},
xlabel={Sample Index\\[1ex](b) Estimated},
ymin=0,
ymax=0.45,
axis background/.style={fill=white},
legend style={legend cell align=left, align=left, draw=white!15!black}
]
\addplot [color=mycolor1]
  table[row sep=crcr]{%
0	0.0463543558568478\\
1	0.0438565797812311\\
2	0.0220530614634261\\
3	0.012962915172159\\
4	0.0434833603785034\\
5	0.175750783908703\\
6	0.127786066020331\\
7	0.0233167584891127\\
8	0.0376218847923858\\
9	0.0257355135197886\\
10	0.0752290127745049\\
11	0.0627465143463886\\
12	0.011056300789063\\
13	0.015994644689181\\
14	0.116344219888589\\
15	0.0536988019341152\\
16	0.0312090167049859\\
17	0.00657162976312287\\
18	0.0281969974968587\\
19	0.0349185420131965\\
20	0.133764278637241\\
21	0.0385467149330813\\
22	0.0224232593663717\\
23	0.0371012566763292\\
24	0.0575782042375161\\
25	0.0564062789304258\\
26	0.0169605845323595\\
27	0.0177150705496162\\
28	0.0287636819810569\\
29	0.0416567496233115\\
30	0.140429401178028\\
31	0.0459535584671651\\
32	0.0281705098948615\\
33	0.0813903045782343\\
34	0.0964534752587189\\
35	0.0795863492785725\\
36	0.0399178244991061\\
37	0.0378295945788393\\
38	0.110895294357036\\
39	0.0536593385461268\\
40	0.00893306257659051\\
41	0.100585144394841\\
42	0.0284350076944956\\
43	0.0145068467230103\\
44	0.0220749416475715\\
45	0.0187371638866488\\
46	0.0562116745236048\\
47	0.0523365553476402\\
48	0.00684655777978035\\
49	0.102729787009104\\
50	0.0808992692144345\\
51	0.0757398712309649\\
52	0.0112826084439512\\
53	0.0481199112971403\\
54	0.00968280751273235\\
55	0.0270026453043712\\
56	0.115925758553092\\
57	0.109780647444016\\
58	0.132273347269111\\
59	0.0103285873187847\\
60	0.0633397710675462\\
61	0.138133464903385\\
62	0.0499138958541612\\
63	0.0549483397672171\\
64	0.0385348067747573\\
65	0.110751897387155\\
66	0.066619522739481\\
67	0.0514797274926919\\
68	0.0948311511971316\\
69	0.0275176655227921\\
70	0.0174603149430529\\
71	0.0148031710624716\\
72	0.0334326200157629\\
73	0.0125422487241049\\
74	0.0832346277375734\\
75	0.0991956420433029\\
76	0.00899807227396649\\
77	0.135951136009939\\
78	0.0288732143183159\\
79	0.113678117422207\\
80	0.052057188555949\\
81	0.0991911895207016\\
82	0.0073177631529421\\
83	0.0653229881981541\\
84	0.116297289972768\\
85	0.0141915923275656\\
86	0.0496518120465923\\
87	0.0863929702330511\\
88	0.113873290016276\\
89	0.11341546390784\\
90	0.0710805953624031\\
91	0.118409616600332\\
92	0.0352916011620662\\
93	0.0051241713780342\\
94	0.113009373536129\\
95	0.116410395004696\\
96	0.11252294294471\\
97	0.0533169149192127\\
98	0.0203226169682881\\
99	0.0423324200761586\\
100	0.0674803786514072\\
101	0.0805517791797127\\
102	0.0591697214391345\\
103	0.057306600048773\\
104	0.139444522947608\\
105	0.0882543735899998\\
106	0.127016364561764\\
107	0.0508179249879856\\
108	0.0380465611262843\\
109	0.0559493980892615\\
110	0.104279446968137\\
111	0.062650971101871\\
112	0.0205872958806047\\
113	0.0336850597996106\\
114	0.107774532252675\\
115	0.0196810142199092\\
116	0.173332615367517\\
117	0.0612066015611607\\
118	0.0566833175445216\\
119	0.105824326083339\\
120	0.148583080590641\\
121	0.0889773963662634\\
122	0.0138206048471402\\
123	0.129972012380855\\
124	0.126868284943415\\
125	0.063853416604581\\
126	0.0559241913442977\\
127	0.00737722906119922\\
128	0.0501323390756978\\
129	0.0407205218461915\\
130	0.0403109687985027\\
131	0.0653164842934069\\
132	0.0420094249118788\\
133	0.0727847163544152\\
134	0.0426893779747587\\
135	0.0125623777900939\\
136	0.130175974617713\\
137	0.0597093524117157\\
138	0.0111301795681586\\
139	0.057128166364331\\
140	0.0159932854005182\\
141	0.0168466552904155\\
142	0.00373169955461763\\
143	0.0855440120139659\\
144	0.019362502841042\\
145	0.0179866832070479\\
146	0.0522120790888911\\
147	0.106741701892055\\
148	0.0618451794161594\\
149	0.100651007121036\\
150	0.0157590777785712\\
151	0.0466784144477825\\
152	0.0721039605750385\\
153	0.058566023711899\\
154	0.157823082501422\\
155	0.0759664174247116\\
156	0.0484250081471405\\
157	0.0607143396996775\\
158	0.118119519169336\\
159	0.0511637068595889\\
160	0.0855100623276708\\
161	0.0833508319251981\\
162	0.00386111562149196\\
163	0.0576987770631785\\
164	0.0526473175956834\\
165	0.0544368112234958\\
166	0.0277886954704682\\
167	0.0144071660733128\\
168	0.118082471405025\\
169	0.011725260188446\\
170	0.0234311385502805\\
171	0.0842918661637224\\
172	0.0443671472648427\\
173	0.0490963832404769\\
174	0.0575835096217639\\
175	0.0933574190342107\\
176	0.00592270963249919\\
177	0.0182339471984713\\
178	0.0898630758969913\\
179	0.032864326316208\\
180	0.0534854085253953\\
181	0.0401078105240996\\
182	0.0847184721724061\\
183	0.0179446621772174\\
184	0.0941372763049644\\
185	0.0150774363163151\\
186	0.0393277147204773\\
187	0.0574338072357476\\
188	0.00876010800711627\\
189	0.0207694633805607\\
190	0.046693697633818\\
191	0.10283538961591\\
192	0.074524994151756\\
193	0.0430821052854412\\
194	0.0405954790512411\\
195	0.0795109595032271\\
196	0.040463588156207\\
197	0.0638071436053611\\
198	0.014804468475221\\
199	0.0175574930737865\\
};
\addlegendentry{$\mathbf{\hat{h}_{1}}$}

\addplot [color=mycolor2]
  table[row sep=crcr]{%
0	0.162655720436683\\
1	0.0586022470107696\\
2	0.105974161781457\\
3	0.129384646688952\\
4	0.0302209245661168\\
5	0.0712615863494029\\
6	0.0842608137855138\\
7	0.0428108906416066\\
8	0.0582991401520043\\
9	0.0661450670159685\\
10	0.0999488098813154\\
11	0.0435391938827946\\
12	0.0402185236233603\\
13	0.0406327389944256\\
14	0.0253674705749885\\
15	0.0354185868391001\\
16	0.112820222107301\\
17	0.0104434888473313\\
18	0.000132160795481073\\
19	0.0178250594361679\\
20	0.0254481546229183\\
21	0.0518466811569505\\
22	0.0261245602944719\\
23	0.0341492498138207\\
24	0.0576982580498854\\
25	0.22214159647361\\
26	0.045312184486016\\
27	0.055498364247914\\
28	0.0402994325601514\\
29	0.0574918744621124\\
30	0.0402749383581374\\
31	0.110213528838305\\
32	0.0471880861103552\\
33	0.063889965985286\\
34	0.0735485740767344\\
35	0.0676253092047499\\
36	0.0170015536815359\\
37	0.0137052890916849\\
38	0.0228179850493794\\
39	0.0281886979389524\\
40	0.0832917794643755\\
41	0.072198357552941\\
42	0.0319135933235336\\
43	0.032219954690728\\
44	0.0211645899872595\\
45	0.0826110686075651\\
46	0.0146231398164949\\
47	0.0609037272908778\\
48	0.0120802365556958\\
49	0.00988592710683519\\
50	0.0660032772919941\\
51	0.022675838662138\\
52	0.136583919585031\\
53	0.0882992160498049\\
54	0.0669287114389793\\
55	0.0434915607481221\\
56	0.0248029200640997\\
57	0.0434317676779336\\
58	0.0294929739387099\\
59	0.0755335203245354\\
60	0.046377456754801\\
61	0.0659560649881018\\
62	0.00582557679695066\\
63	0.0787825768653286\\
64	0.0362068604332913\\
65	0.0301710988223661\\
66	0.0486493693012533\\
67	0.11933793167349\\
68	0.0608316342788324\\
69	0.063219745220253\\
70	0.0747713242647504\\
71	0.0424219643035403\\
72	0.0626082769585969\\
73	0.135187664300392\\
74	0.0831128992180087\\
75	0.0588200925013832\\
76	0.0420365624427576\\
77	0.0755692346056501\\
78	0.041874511098194\\
79	0.05932271951829\\
80	0.0297237763310102\\
81	0.00605993400856471\\
82	0.0597714332262726\\
83	0.0661693237109521\\
84	0.0572621193710561\\
85	0.075213728443352\\
86	0.0561503530890815\\
87	0.0260453590631842\\
88	0.0119209284510744\\
89	0.146499568891218\\
90	0.0919361477992968\\
91	0.0451205801783965\\
92	0.0648346993754087\\
93	0.00370608760614989\\
94	0.085465757433045\\
95	0.0285733348203404\\
96	0.0371629861865371\\
97	0.0499700151063594\\
98	0.0872525680572931\\
99	0.414993834274327\\
100	0.104025237450769\\
101	0.17587564374748\\
102	0.0162370412433753\\
103	0.0873335504954548\\
104	0.0441035433084325\\
105	0.0130786298861683\\
106	0.0695353401630792\\
107	0.0664140208831848\\
108	0.0537507565420332\\
109	0.0155419523373797\\
110	0.0414523926141674\\
111	0.0238948843602417\\
112	0.0444809290712873\\
113	0.0231907068186722\\
114	0.0780906554894163\\
115	0.0859767249791748\\
116	0.0538723343958534\\
117	0.0519994537516785\\
118	0.0542330823200475\\
119	0.0617884262901548\\
120	0.0395814769166472\\
121	0.0685226684490699\\
122	0.0808434121915376\\
123	0.0631722769523649\\
124	0.0808640360774912\\
125	0.0247673648768438\\
126	0.0533901932990992\\
127	0.0400034703183443\\
128	0.0542880286647377\\
129	0.113774150241985\\
130	0.0693618568255314\\
131	0.0227035104309283\\
132	0.0984167685136092\\
133	0.0641994127970912\\
134	0.0305247574976674\\
135	0.00905957014098806\\
136	0.0535164190785005\\
137	0.0059217145702731\\
138	0.143530975613607\\
139	0.0129576249996162\\
140	0.0158546469969301\\
141	0.0626372381445115\\
142	0.0618980330358113\\
143	0.0466991727802149\\
144	0.152705963451099\\
145	0.056375469507358\\
146	0.0289680716407171\\
147	0.0802677927868433\\
148	0.0256044680425402\\
149	0.0701936648540009\\
150	0.0910730545194395\\
151	0.0213593087219314\\
152	0.0128394795623086\\
153	0.013420872248018\\
154	0.0289104230031386\\
155	0.0594904797580324\\
156	0.0226127717172275\\
157	0.0634034479619908\\
158	0.00118953171843995\\
159	0.0367468325658036\\
160	0.072750027808512\\
161	0.0104302961842289\\
162	0.0151910686779875\\
163	0.0559276261527809\\
164	0.0266801768185354\\
165	0.0393838576935266\\
166	0.0248941005067634\\
167	0.0316306157356034\\
168	0.0501562205517403\\
169	0.0511934961642556\\
170	0.0852858918709365\\
171	0.0237023105129274\\
172	0.00876223298110633\\
173	0.0750652084747882\\
174	0.0381716917078868\\
175	0.0120714617511903\\
176	0.0500820032265244\\
177	0.0751157302840906\\
178	0.0176958529517143\\
179	0.0740566660264977\\
180	0.0722001202346714\\
181	0.00139850000091792\\
182	0.0892639650951104\\
183	0.0446739902861057\\
184	0.0353532920541105\\
185	0.0969296089248923\\
186	0.14090310517165\\
187	0.0704401491471034\\
188	0.0066682107600885\\
189	0.0801159787514924\\
190	0.0363836707569851\\
191	0.052827546639025\\
192	0.0550632850201886\\
193	0.0264162885466654\\
194	0.0168266004141512\\
195	0.0703653732280827\\
196	0.0698364142738293\\
197	0.0343616051454835\\
198	0.0144570171058276\\
199	0.0127791268040592\\
};
\addlegendentry{$\mathbf{\hat{h}_{2}}$}

\end{axis}
\end{tikzpicture}%