% This file was created by matlab2tikz.
%
%The latest updates can be retrieved from
%  http://www.mathworks.com/matlabcentral/fileexchange/22022-matlab2tikz-matlab2tikz
%where you can also make suggestions and rate matlab2tikz.
%
\definecolor{mycolor1}{rgb}{0.00000,0.44700,0.74100}%
\definecolor{mycolor2}{rgb}{0.85000,0.32500,0.09800}%
%
\begin{tikzpicture}

\begin{axis}[%
width=1.952in,
height=3.2in,
at={(0.758in,0.512in)},
scale only axis,
xmin=0,
xmax=20,
xlabel style={font=\color{white!15!black}, align=center},
xlabel={Sample Index\\[1ex](a) Actual},
ymin=0,
ymax=1,
axis background/.style={fill=white},
legend style={legend cell align=left, align=left, draw=white!15!black}
]
\addplot [color=mycolor1]
  table[row sep=crcr]{%
1	0.113205605745861\\
2	0.919292270364926\\
3	0.256025577129562\\
4	0.221212160951117\\
5	0.110921817870281\\
6	0.0400328712358033\\
7	0.0687168441611535\\
8	0.0506014016738843\\
9	0.0552835931164163\\
10	0.0346525615393867\\
11	0.020191452822011\\
12	0.0185296152559968\\
13	0.0171404774442808\\
14	0.0156211388830756\\
15	0.0142945116316957\\
16	0.0131617720182863\\
17	0.0121914691582677\\
18	0.0113534257007881\\
19	0.0106231383936872\\
20	0.00998136168461187\\
};
\addlegendentry{$\mathbf{h_1}$}

\addplot [color=mycolor2]
  table[row sep=crcr]{%
1	0.0495723015654782\\
2	0.0685334241945042\\
3	0.511321702955238\\
4	0.765196656162612\\
5	0.358164812724738\\
6	0.132619444637821\\
7	0\\
8	0\\
9	0\\
10	0\\
11	0\\
12	0\\
13	0\\
14	0\\
15	0\\
16	0\\
17	0\\
18	0\\
19	0\\
20	0\\
};
\addlegendentry{$\mathbf{h_{2}}$}

\end{axis}

\begin{axis}[%
width=1.952in,
height=3.2in,
at={(3.327in,0.512in)},
scale only axis,
xmin=0,
xmax=20,
xlabel style={font=\color{white!15!black}, align=center},
xlabel={Sample Index\\[1ex](b) Estimated},
ymin=0,
ymax=1,
axis background/.style={fill=white},
legend style={legend cell align=left, align=left, draw=white!15!black}
]
\addplot [color=mycolor1]
  table[row sep=crcr]{%
0	0.0391217446054109\\
1	0.0251058634445501\\
2	0.000640506518454819\\
3	0.0198688340237042\\
4	0.0784119264731858\\
5	0.22491696470065\\
6	0.208482647155363\\
7	0.772401923426428\\
8	0.480102909325924\\
9	0.19128371891331\\
10	0.0514210095357477\\
11	0.109992773634881\\
12	0.10368470496689\\
13	0.0414899524476125\\
14	0.0356925323183136\\
15	0.0531648738236116\\
16	0.0275694800743546\\
17	0.0286438483680721\\
18	0.020948165065648\\
19	0.0146841853034254\\
};
\addlegendentry{$\mathbf{\hat{h}_{1}}$}

\addplot [color=mycolor2]
  table[row sep=crcr]{%
0	0.0185139908100545\\
1	0.0310609334932231\\
2	0.0320070875486031\\
3	0.0400263105639438\\
4	0.0476138020675434\\
5	0.0699210391331007\\
6	0.143819348431423\\
7	0.110527864561329\\
8	4.68997460084797e-06\\
9	0.93447700531125\\
10	0.19676483194584\\
11	0.133073750458815\\
12	0.128802722300534\\
13	0.0536483833728823\\
14	0.0511656747677024\\
15	0.0382127524509815\\
16	0.0305633638296582\\
17	0.0349692864214469\\
18	0.0166736712218284\\
19	0.0188611637416404\\
};
\addlegendentry{$\mathbf{\hat{h}_{2}}$}

\end{axis}
\end{tikzpicture}%