% This file was created by matlab2tikz.
%
%The latest updates can be retrieved from
%  http://www.mathworks.com/matlabcentral/fileexchange/22022-matlab2tikz-matlab2tikz
%where you can also make suggestions and rate matlab2tikz.
%
\definecolor{mycolor1}{rgb}{0.00000,0.44700,0.74100}%
\definecolor{mycolor2}{rgb}{0.85000,0.32500,0.09800}%
%
\begin{tikzpicture}

\begin{axis}[%
width=1.952in,
height=3.2in,
at={(0.758in,0.512in)},
scale only axis,
xmin=0,
xmax=20,
xlabel style={font=\color{white!15!black}, align=center},
xlabel={Sample Index\\[1ex](a) Actual},
ymin=0,
ymax=0.9,
axis background/.style={fill=white},
legend style={legend cell align=left, align=left, draw=white!15!black}
]
\addplot [color=mycolor1]
  table[row sep=crcr]{%
1	0.0444337104356374\\
2	0.738127803558165\\
3	0.357839506790865\\
4	0.481268775571525\\
5	0.10955194752004\\
6	0.267783168107473\\
7	0.0769544524124665\\
8	0.0372836026936495\\
9	0.027789744685169\\
10	0.0196434178633453\\
11	0.0212138243269196\\
12	0.0147156812719569\\
13	0.0126517206023441\\
14	0.0111331007215966\\
15	0.00994473974674355\\
16	0.00898571135769806\\
17	0.00819466874468931\\
18	0.00753086667278431\\
19	0.00696589032366256\\
20	0.00647923877975415\\
};
\addlegendentry{$\mathbf{h_1}$}

\addplot [color=mycolor2]
  table[row sep=crcr]{%
1	0.0696363384444256\\
2	0.13399148454392\\
3	0.889181852408627\\
4	0.426869408918664\\
5	0.0527923084371181\\
6	0.0393468637154593\\
7	0\\
8	0\\
9	0\\
10	0\\
11	0\\
12	0\\
13	0\\
14	0\\
15	0\\
16	0\\
17	0\\
18	0\\
19	0\\
20	0\\
};
\addlegendentry{$\mathbf{h_{2}}$}

\end{axis}

\begin{axis}[%
width=1.952in,
height=3.2in,
at={(3.327in,0.512in)},
scale only axis,
xmin=0,
xmax=20,
xlabel style={font=\color{white!15!black}, align=center},
xlabel={Sample Index\\[1ex](b) Estimated},
ymin=-0.2,
ymax=1,
axis background/.style={fill=white},
legend style={legend cell align=left, align=left, draw=white!15!black}
]
\addplot [color=mycolor1]
  table[row sep=crcr]{%
0	0.0261829244922796\\
0.25	0.0278118158819017\\
0.5	0.0293885267121989\\
0.75	0.0308305300679444\\
1	0.0320000774579231\\
1.25	0.0329459590628259\\
1.5	0.0330631387027325\\
1.75	0.0320537320582728\\
2	0.0297890885117921\\
2.25	0.0259203311628964\\
2.5	0.0215736423509005\\
2.75	0.0175624113080111\\
3	0.0146918862104161\\
3.25	0.0137366929024476\\
3.5	0.0148239839245362\\
3.75	0.0179136979471615\\
4	0.0226910319932952\\
4.25	0.0284211911204788\\
4.5	0.0349385962971436\\
4.75	0.0419006735109772\\
5	0.0491227566312097\\
5.25	0.0550366737465454\\
5.5	0.0624441634225844\\
5.75	0.0725273078075487\\
6	0.0861243917813909\\
6.25	0.11204212404915\\
6.5	0.137275102175887\\
6.75	0.158785806133882\\
7	0.176988055236189\\
7.25	0.174653540640412\\
7.5	0.193828084293936\\
7.75	0.251877167675967\\
8	0.356456680879103\\
8.25	0.538009086059404\\
8.5	0.716762180290825\\
8.75	0.845235037658934\\
9	0.884015588898182\\
9.25	0.767465014938638\\
9.5	0.572597435088871\\
9.75	0.348184862253825\\
10	0.147295361264836\\
10.25	0.0548916866605094\\
10.5	0.0296583469087975\\
10.75	0.0542735641976166\\
11	0.100925674995942\\
11.25	0.112964620637369\\
11.5	0.111247606554602\\
11.75	0.0964755568516683\\
12	0.075087921240097\\
12.25	0.0684831391786311\\
12.5	0.0651200051454384\\
12.75	0.0647420938625854\\
13	0.0659289431239462\\
13.25	0.063340513173093\\
13.5	0.060304035155593\\
13.75	0.0568261791644026\\
14	0.0529465427673629\\
14.25	0.0490220444624491\\
14.5	0.0445633250443455\\
14.75	0.0394469055389338\\
15	0.0336792870581404\\
15.25	0.026867824391969\\
15.5	0.0203404609380061\\
15.75	0.014882231539989\\
16	0.011142423153421\\
16.25	0.0100545019330004\\
16.5	0.0106794467307933\\
16.75	0.0123795996260069\\
17	0.0144149224153705\\
17.25	0.0155691042958651\\
17.5	0.0163189627822437\\
17.75	0.0167927826471552\\
18	0.0172569805654568\\
18.25	0.018308719426885\\
18.5	0.0196911951059226\\
18.75	0.0213611644159145\\
19	0.02319603882363\\
19.25	0.025021519253816\\
19.5	0.026687756147291\\
19.75	0.0280739642428455\\
};
\addlegendentry{$\mathbf{\hat{h}_{1}}$}

\addplot [color=mycolor2]
  table[row sep=crcr]{%
0	0.00906781066954399\\
0.25	0.00947278511255645\\
0.5	0.00978649762646299\\
0.75	0.00993635312918784\\
1	0.00988466367414377\\
1.25	0.00960969808798915\\
1.5	0.00921067833786503\\
1.75	0.00879383428172477\\
2	0.00848241308045699\\
2.25	0.00839645815911111\\
2.5	0.00862985793906692\\
2.75	0.00924080955079171\\
3	0.0102425943085745\\
3.25	0.0115462676925716\\
3.5	0.0131721407038741\\
3.75	0.0150506028417079\\
4	0.0170871759934075\\
4.25	0.0191431744090587\\
4.5	0.0211782983777543\\
4.75	0.023148521509135\\
5	0.0250547557294302\\
5.25	0.0231699523101659\\
5.5	0.0233511268483949\\
5.75	0.0270216281651497\\
6	0.0342398030391937\\
6.25	0.0596363178260266\\
6.5	0.0760577748928309\\
6.75	0.0755500689504456\\
7	0.0575128928564094\\
7.25	-0.00653500878736306\\
7.5	-0.0412854334806989\\
7.75	-0.0110692303308499\\
8	0.105148341072392\\
8.25	0.363691596455489\\
8.5	0.643590497914579\\
8.75	0.871578144704375\\
9	0.982975093384032\\
9.25	0.871580912548614\\
9.5	0.643594483645142\\
9.75	0.363694383570807\\
10	0.10514794070797\\
10.25	-0.0110790959472052\\
10.5	-0.0412983732360704\\
10.75	-0.00653890482236044\\
11	0.0575329993952318\\
11.25	0.0756186226982314\\
11.5	0.0761759244663913\\
11.75	0.059791285256589\\
12	0.0344070825414572\\
12.25	0.0271576443973065\\
12.5	0.0234339589775897\\
12.75	0.0231916867247098\\
13	0.0250231060176178\\
13.25	0.0230948474772721\\
13.5	0.021125404754479\\
13.75	0.0191104308370726\\
14	0.0170866986559498\\
14.25	0.015079925931673\\
14.5	0.0132298633363356\\
14.75	0.0116278446630886\\
15	0.0103423214963886\\
15.25	0.00934934816137938\\
15.5	0.00874658457124291\\
15.75	0.00852517582922783\\
16	0.00862978268623821\\
16.25	0.00898897733424993\\
16.5	0.0094472868179159\\
16.75	0.00987125603907254\\
17	0.0101534443147331\\
17.25	0.0101510839074012\\
17.5	0.00999235908930858\\
17.75	0.00976331551073612\\
18	0.00956428268536236\\
18.25	0.0095309200726943\\
18.5	0.00963546466940071\\
18.75	0.00985992903273487\\
19	0.0101533446148482\\
19.25	0.0104426482754439\\
19.5	0.0106654788895233\\
19.75	0.0107716572354845\\
};
\addlegendentry{$\mathbf{\hat{h}_{2}}$}

\end{axis}
\end{tikzpicture}%