\relax 
\providecommand\hyper@newdestlabel[2]{}
\@writefile{toc}{\contentsline {chapter}{\numberline {6}THE ``BRUTE FORCE" METHOD}{117}{chapter.6}}
\newlabel{ch:6}{{6}{117}{THE ``BRUTE FORCE" METHOD}{chapter.6}{}}
\newlabel{eq:brute-obj}{{6.1}{117}{THE ``BRUTE FORCE" METHOD}{equation.6.0.1}{}}
\@writefile{toc}{\contentsline {section}{\numberline {6.1}Brute Force Derivation}{117}{section.6.1}}
\newlabel{eq:brute-lagrangian}{{6.2}{117}{Brute Force Derivation}{equation.6.1.2}{}}
\newlabel{eq:brute-derivative-lagrangian}{{6.3}{117}{Brute Force Derivation}{equation.6.1.3}{}}
\newlabel{eq:brute-update-lambda}{{6.4}{118}{Brute Force Derivation}{equation.6.1.4}{}}
\newlabel{eq:brute-tilde-lambda}{{6.5}{118}{Brute Force Derivation}{equation.6.1.5}{}}
\newlabel{eq:brute-update-complete}{{6.6}{118}{Brute Force Derivation}{equation.6.1.6}{}}
\@writefile{toc}{\contentsline {subsection}{\numberline {6.1.1}Algorithm Advantages, Disadvantages and Implementation}{118}{subsection.6.1.1}}
\@writefile{lof}{\contentsline {figure}{\numberline {6.1}{\ignorespaces Results of the non-adaptive BF algorithm with 250,000 data samples, with SNR = 60 dB, at various sampling rates for wideband simulation, (a) 20 MHz, (b) 100 MHz, (c) 150 MHz, and (d) 200 MHz, for impulse response set IR-1, seed 0.\relax }}{119}{figure.caption.104}}
\newlabel{fig:NBF_ideal_30v3000}{{6.1}{119}{Results of the non-adaptive BF algorithm with 250,000 data samples, with SNR = 60 dB, at various sampling rates for wideband simulation, (a) 20 MHz, (b) 100 MHz, (c) 150 MHz, and (d) 200 MHz, for impulse response set IR-1, seed 0.\relax }{figure.caption.104}{}}
\@writefile{toc}{\contentsline {section}{\numberline {6.2}Variations}{119}{section.6.2}}
\@writefile{lof}{\contentsline {figure}{\numberline {6.2}{\ignorespaces Results of the non-adaptive BF algorithm with 250,000 data samples, with SNR = 60 dB, at various sampling rates for wideband simulation, (a) 20 MHz, (b) 100 MHz, (c) 150 MHz, and (d) 200 MHz, for impulse response set IR-2, seed 0.\relax }}{120}{figure.caption.105}}
\newlabel{fig:NBF_NITF_30v3000}{{6.2}{120}{Results of the non-adaptive BF algorithm with 250,000 data samples, with SNR = 60 dB, at various sampling rates for wideband simulation, (a) 20 MHz, (b) 100 MHz, (c) 150 MHz, and (d) 200 MHz, for impulse response set IR-2, seed 0.\relax }{figure.caption.105}{}}
\@writefile{toc}{\contentsline {subsection}{\numberline {6.2.1}Adaptive Brute Force}{120}{subsection.6.2.1}}
\newlabel{eq:brute-adaptive-update-complete}{{6.7}{120}{Adaptive Brute Force}{equation.6.2.7}{}}
\@writefile{lof}{\contentsline {figure}{\numberline {6.3}{\ignorespaces Results of the Adaptive BF algorithm with 250,000 data samples, with SNR = 60 dB, at various sampling rates for wideband simulation, (a) 20 MHz, (b) 100 MHz, (c) 150 MHz, and (d) 200 MHz, for impulse response set IR-1, seed 0.\relax }}{121}{figure.caption.106}}
\newlabel{fig:ABF_ideal_30v3000}{{6.3}{121}{Results of the Adaptive BF algorithm with 250,000 data samples, with SNR = 60 dB, at various sampling rates for wideband simulation, (a) 20 MHz, (b) 100 MHz, (c) 150 MHz, and (d) 200 MHz, for impulse response set IR-1, seed 0.\relax }{figure.caption.106}{}}
\@writefile{lof}{\contentsline {figure}{\numberline {6.4}{\ignorespaces Results of the Adaptive BF algorithm with 250,000 data samples, with SNR = 60 dB, at various sampling rates for wideband simulation, (a) 20 MHz, (b) 100 MHz, (c) 150 MHz, and (d) 200 MHz, for impulse response set IR-2, seed 0.\relax }}{122}{figure.caption.107}}
\newlabel{fig:ABF_NITF_30v3000}{{6.4}{122}{Results of the Adaptive BF algorithm with 250,000 data samples, with SNR = 60 dB, at various sampling rates for wideband simulation, (a) 20 MHz, (b) 100 MHz, (c) 150 MHz, and (d) 200 MHz, for impulse response set IR-2, seed 0.\relax }{figure.caption.107}{}}
\@writefile{lof}{\contentsline {figure}{\numberline {6.5}{\ignorespaces Results of the Adaptive BF algorithm with 250,000 data samples, with SNR = 60 dB, at various sampling rates for narrowband simulation, (a) 20 MHz, (b) 100 MHz, (c) 150 MHz, and (d) 200 MHz, for impulse response set IR-1, seed 0.\relax }}{123}{figure.caption.108}}
\newlabel{fig:ABF_narrow_30v3000}{{6.5}{123}{Results of the Adaptive BF algorithm with 250,000 data samples, with SNR = 60 dB, at various sampling rates for narrowband simulation, (a) 20 MHz, (b) 100 MHz, (c) 150 MHz, and (d) 200 MHz, for impulse response set IR-1, seed 0.\relax }{figure.caption.108}{}}
\@writefile{lof}{\contentsline {figure}{\numberline {6.6}{\ignorespaces Results of the Adaptive BF algorithm with 2,500 data samples, with SNR = 60 dB, at various sampling rates for wideband simulation, (a) 20 MHz, (b) 100 MHz, (c) 150 MHz, and (d) 200 MHz, for impulse response set IR-1, seed 0.\relax }}{124}{figure.caption.109}}
\newlabel{fig:ABF_Nless_30v3000}{{6.6}{124}{Results of the Adaptive BF algorithm with 2,500 data samples, with SNR = 60 dB, at various sampling rates for wideband simulation, (a) 20 MHz, (b) 100 MHz, (c) 150 MHz, and (d) 200 MHz, for impulse response set IR-1, seed 0.\relax }{figure.caption.109}{}}
\@writefile{toc}{\contentsline {subsection}{\numberline {6.2.2}Varied Adaptive Brute Force}{124}{subsection.6.2.2}}
\newlabel{eq:brute-varied-obj}{{6.8}{124}{Varied Adaptive Brute Force}{equation.6.2.8}{}}
\@writefile{lof}{\contentsline {figure}{\numberline {6.7}{\ignorespaces Results of the Adaptive BF algorithm with 250,000 data samples, with SNR = 20 dB, at various sampling rates for wideband simulation, (a) 20 MHz, (b) 100 MHz, (c) 150 MHz, and (d) 200 MHz, for impulse response set IR-1, seed 0.\relax }}{125}{figure.caption.110}}
\newlabel{fig:ABF_noisy_30v3000}{{6.7}{125}{Results of the Adaptive BF algorithm with 250,000 data samples, with SNR = 20 dB, at various sampling rates for wideband simulation, (a) 20 MHz, (b) 100 MHz, (c) 150 MHz, and (d) 200 MHz, for impulse response set IR-1, seed 0.\relax }{figure.caption.110}{}}
\newlabel{eq:brute-varied-adaptive-update-complete}{{6.9}{125}{Varied Adaptive Brute Force}{equation.6.2.9}{}}
\@writefile{lof}{\contentsline {figure}{\numberline {6.8}{\ignorespaces Results of the Adaptive BF algorithm with 250,000 data samples, with SNR = 60 dB for wideband simulation at 200 MHz sampling rate for incorrect model order estimates (a) $L/2$, (b) $L-10$, (c) $2L$, and (d) $L + 10$, for impulse response set IR-1, seed 0.\relax }}{126}{figure.caption.111}}
\newlabel{fig:ABF_wrongModel_30v3000}{{6.8}{126}{Results of the Adaptive BF algorithm with 250,000 data samples, with SNR = 60 dB for wideband simulation at 200 MHz sampling rate for incorrect model order estimates (a) $L/2$, (b) $L-10$, (c) $2L$, and (d) $L + 10$, for impulse response set IR-1, seed 0.\relax }{figure.caption.111}{}}
\@writefile{toc}{\contentsline {subsection}{\numberline {6.2.3}Dual Fixed-Peak Brute Force}{126}{subsection.6.2.3}}
\newlabel{eq:brute-dfp-obj}{{6.10}{126}{Dual Fixed-Peak Brute Force}{equation.6.2.10}{}}
\@writefile{lof}{\contentsline {figure}{\numberline {6.9}{\ignorespaces Results of the Adaptive BF algorithm with 250,000 data samples, with SNR = 60 dB, at various sampling rates for wideband simulation, (a) 20 MHz, (b) 100 MHz, (c) 150 MHz, and (d) 200 MHz, for impulse response set IR-1 with a normalized random start.\relax }}{127}{figure.caption.112}}
\newlabel{fig:ABF_random_30v3000}{{6.9}{127}{Results of the Adaptive BF algorithm with 250,000 data samples, with SNR = 60 dB, at various sampling rates for wideband simulation, (a) 20 MHz, (b) 100 MHz, (c) 150 MHz, and (d) 200 MHz, for impulse response set IR-1 with a normalized random start.\relax }{figure.caption.112}{}}
\newlabel{eq:brute-dfp-lagrangian}{{6.11}{127}{Dual Fixed-Peak Brute Force}{equation.6.2.11}{}}
\newlabel{eq:brute-dfp-derivative-lagrangian}{{6.12}{127}{Dual Fixed-Peak Brute Force}{equation.6.2.12}{}}
\@writefile{lof}{\contentsline {figure}{\numberline {6.10}{\ignorespaces Results of the VBF algorithm with 250,000 data samples, with SNR = 60 dB, at various sampling rates for wideband simulation, (a) 20 MHz, (b) 100 MHz, (c) 150 MHz, and (d) 200 MHz, for impulse response set IR-1, seed 0.\relax }}{128}{figure.caption.113}}
\newlabel{fig:VBF_ideal_30v3000}{{6.10}{128}{Results of the VBF algorithm with 250,000 data samples, with SNR = 60 dB, at various sampling rates for wideband simulation, (a) 20 MHz, (b) 100 MHz, (c) 150 MHz, and (d) 200 MHz, for impulse response set IR-1, seed 0.\relax }{figure.caption.113}{}}
\newlabel{eq:brute-dfp-update-lambda-mu}{{6.13}{128}{Dual Fixed-Peak Brute Force}{equation.6.2.13}{}}
\@writefile{lof}{\contentsline {figure}{\numberline {6.11}{\ignorespaces Results of the VBF algorithm with 250,000 data samples, with SNR = 60 dB, at various sampling rates for wideband simulation, (a) 20 MHz, (b) 100 MHz, (c) 150 MHz, and (d) 200 MHz, for impulse response set IR-2, seed 0.\relax }}{129}{figure.caption.114}}
\newlabel{fig:VBF_NITF_30v3000}{{6.11}{129}{Results of the VBF algorithm with 250,000 data samples, with SNR = 60 dB, at various sampling rates for wideband simulation, (a) 20 MHz, (b) 100 MHz, (c) 150 MHz, and (d) 200 MHz, for impulse response set IR-2, seed 0.\relax }{figure.caption.114}{}}
\newlabel{eq:brute-dfp-lambda-mu}{{6.16}{129}{Dual Fixed-Peak Brute Force}{equation.6.2.16}{}}
\@writefile{lof}{\contentsline {figure}{\numberline {6.12}{\ignorespaces Results of the DFPBF algorithm with 250,000 data samples, with SNR = 60 dB, at various sampling rates for wideband simulation, (a) 20 MHz, (b) 100 MHz, (c) 150 MHz, and (d) 200 MHz, for impulse response set IR-1, seed 0.\relax }}{130}{figure.caption.115}}
\newlabel{fig:DFPBF_ideal_30v3000}{{6.12}{130}{Results of the DFPBF algorithm with 250,000 data samples, with SNR = 60 dB, at various sampling rates for wideband simulation, (a) 20 MHz, (b) 100 MHz, (c) 150 MHz, and (d) 200 MHz, for impulse response set IR-1, seed 0.\relax }{figure.caption.115}{}}
\newlabel{eq:brute-dfp-update-complete}{{6.17}{130}{Dual Fixed-Peak Brute Force}{equation.6.2.17}{}}
\@writefile{lof}{\contentsline {figure}{\numberline {6.13}{\ignorespaces Results of the DFPBF algorithm with 250,000 data samples, with SNR = 60 dB, at various sampling rates for wideband simulation, (a) 20 MHz, (b) 100 MHz, (c) 150 MHz, and (d) 200 MHz, for impulse response set IR-2, seed 0.\relax }}{131}{figure.caption.116}}
\newlabel{fig:DFPBF_NITF_30v3000}{{6.13}{131}{Results of the DFPBF algorithm with 250,000 data samples, with SNR = 60 dB, at various sampling rates for wideband simulation, (a) 20 MHz, (b) 100 MHz, (c) 150 MHz, and (d) 200 MHz, for impulse response set IR-2, seed 0.\relax }{figure.caption.116}{}}
\@writefile{lof}{\contentsline {figure}{\numberline {6.14}{\ignorespaces Results of the DFPBF algorithm with 250,000 data samples, with SNR = 60 dB, at various sampling rates for narrowband simulation, (a) 20 MHz, (b) 100 MHz, (c) 150 MHz, and (d) 200 MHz, for impulse response set IR-1, seed 0.\relax }}{132}{figure.caption.117}}
\newlabel{fig:DFPBF_narrow_30v3000}{{6.14}{132}{Results of the DFPBF algorithm with 250,000 data samples, with SNR = 60 dB, at various sampling rates for narrowband simulation, (a) 20 MHz, (b) 100 MHz, (c) 150 MHz, and (d) 200 MHz, for impulse response set IR-1, seed 0.\relax }{figure.caption.117}{}}
\@writefile{lof}{\contentsline {figure}{\numberline {6.15}{\ignorespaces Results of the DFPBF algorithm with 2,500 data samples, with SNR = 60 dB, at various sampling rates for wideband simulation, (a) 20 MHz, (b) 100 MHz, (c) 150 MHz, and (d) 200 MHz, for impulse response set IR-1, seed 0.\relax }}{133}{figure.caption.118}}
\newlabel{fig:DFPBF_nless_30v3000}{{6.15}{133}{Results of the DFPBF algorithm with 2,500 data samples, with SNR = 60 dB, at various sampling rates for wideband simulation, (a) 20 MHz, (b) 100 MHz, (c) 150 MHz, and (d) 200 MHz, for impulse response set IR-1, seed 0.\relax }{figure.caption.118}{}}
\@writefile{lof}{\contentsline {figure}{\numberline {6.16}{\ignorespaces Results of the DFPBF algorithm with 250,000 data samples, with SNR = 20 dB, at various sampling rates for wideband simulation, (a) 20 MHz, (b) 100 MHz, (c) 150 MHz, and (d) 200 MHz, for impulse response set IR-1, seed 0.\relax }}{134}{figure.caption.119}}
\newlabel{fig:DFPBF_noisy_30v3000}{{6.16}{134}{Results of the DFPBF algorithm with 250,000 data samples, with SNR = 20 dB, at various sampling rates for wideband simulation, (a) 20 MHz, (b) 100 MHz, (c) 150 MHz, and (d) 200 MHz, for impulse response set IR-1, seed 0.\relax }{figure.caption.119}{}}
\@writefile{toc}{\contentsline {section}{\numberline {6.3}Data Verification}{134}{section.6.3}}
\@writefile{toc}{\contentsline {subsection}{\numberline {6.3.1}Simulation}{134}{subsection.6.3.1}}
\@writefile{lof}{\contentsline {figure}{\numberline {6.17}{\ignorespaces Results of the DFPBF algorithm with 250,000 data samples, with SNR = 60 dB for wideband simulation at 200 MHz sampling rate for incorrect model order estimates (a) $L/2$, (b) $L-10$, (c) $2L$, and (d) $L + 10$, for impulse response set IR-1, seed 0.\relax }}{135}{figure.caption.120}}
\newlabel{fig:DFPBF_wrongModel_30v3000}{{6.17}{135}{Results of the DFPBF algorithm with 250,000 data samples, with SNR = 60 dB for wideband simulation at 200 MHz sampling rate for incorrect model order estimates (a) $L/2$, (b) $L-10$, (c) $2L$, and (d) $L + 10$, for impulse response set IR-1, seed 0.\relax }{figure.caption.120}{}}
\@writefile{toc}{\contentsline {subsubsection}{``Ideal'' Simulation}{135}{section*.122}}
\@writefile{lof}{\contentsline {figure}{\numberline {6.18}{\ignorespaces Results of the DFPBF algorithm with 250,000 data samples, with SNR = 60 dB, at various sampling rates for wideband simulation, (a) 20 MHz, (b) 100 MHz, (c) 150 MHz, and (d) 200 MHz, for impulse response set IR-1, seed 0 with a normalized random start.\relax }}{136}{figure.caption.121}}
\newlabel{fig:DFPBF_random_30v3000}{{6.18}{136}{Results of the DFPBF algorithm with 250,000 data samples, with SNR = 60 dB, at various sampling rates for wideband simulation, (a) 20 MHz, (b) 100 MHz, (c) 150 MHz, and (d) 200 MHz, for impulse response set IR-1, seed 0 with a normalized random start.\relax }{figure.caption.121}{}}
\@writefile{toc}{\contentsline {subsubsection}{Signal Bandwidth}{136}{section*.123}}
\@writefile{toc}{\contentsline {subsubsection}{Noise}{137}{section*.124}}
\@writefile{toc}{\contentsline {subsubsection}{Sample Size}{137}{section*.125}}
\@writefile{toc}{\contentsline {subsubsection}{Model Order}{137}{section*.126}}
\@writefile{toc}{\contentsline {subsubsection}{Initial Estimates}{138}{section*.127}}
\@writefile{lot}{\contentsline {table}{\numberline {6.1}{\ignorespaces Numerical results for the BF algorithms in the ``ideal'' case.\relax }}{139}{table.caption.128}}
\newlabel{tab:BF_ideal_results}{{6.1}{139}{Numerical results for the BF algorithms in the ``ideal'' case.\relax }{table.caption.128}{}}
\@writefile{lot}{\contentsline {table}{\numberline {6.2}{\ignorespaces Numerical results for the BF algorithms in the narrowband case.\relax }}{140}{table.caption.129}}
\newlabel{tab:BF_narrow_results}{{6.2}{140}{Numerical results for the BF algorithms in the narrowband case.\relax }{table.caption.129}{}}
\@writefile{lot}{\contentsline {table}{\numberline {6.3}{\ignorespaces Numerical results for the BF algorithms in the noisy case.\relax }}{141}{table.caption.130}}
\newlabel{tab:BF_noisy_results}{{6.3}{141}{Numerical results for the BF algorithms in the noisy case.\relax }{table.caption.130}{}}
\@writefile{lot}{\contentsline {table}{\numberline {6.4}{\ignorespaces Numerical results for the BF algorithms in the smaller data size case.\relax }}{142}{table.caption.131}}
\newlabel{tab:BF_nless_results}{{6.4}{142}{Numerical results for the BF algorithms in the smaller data size case.\relax }{table.caption.131}{}}
\@writefile{lot}{\contentsline {table}{\numberline {6.5}{\ignorespaces Numerical results for the BF algorithms in the wrong model order, $L/2$, case.\relax }}{143}{table.caption.132}}
\newlabel{tab:BF_wrongModel_under1_results}{{6.5}{143}{Numerical results for the BF algorithms in the wrong model order, $L/2$, case.\relax }{table.caption.132}{}}
\@writefile{lot}{\contentsline {table}{\numberline {6.6}{\ignorespaces Numerical results for the BF algorithms in the wrong model order, $L-10$, case.\relax }}{144}{table.caption.133}}
\newlabel{tab:BF_wrongModel_under2_results}{{6.6}{144}{Numerical results for the BF algorithms in the wrong model order, $L-10$, case.\relax }{table.caption.133}{}}
\@writefile{lot}{\contentsline {table}{\numberline {6.7}{\ignorespaces Numerical results for the BF algorithms in the wrong model order, $2L$, case.\relax }}{145}{table.caption.134}}
\newlabel{tab:BF_wrongModel_over1_results}{{6.7}{145}{Numerical results for the BF algorithms in the wrong model order, $2L$, case.\relax }{table.caption.134}{}}
\@writefile{lot}{\contentsline {table}{\numberline {6.8}{\ignorespaces Numerical results for the BF algorithms in the wrong model order, $L+10$, case.\relax }}{146}{table.caption.135}}
\newlabel{tab:BF_wrongModel_over2_results}{{6.8}{146}{Numerical results for the BF algorithms in the wrong model order, $L+10$, case.\relax }{table.caption.135}{}}
\@writefile{lot}{\contentsline {table}{\numberline {6.9}{\ignorespaces Numerical results for the BF algorithms in the normalized random start case.\relax }}{147}{table.caption.136}}
\newlabel{tab:BF_random_results}{{6.9}{147}{Numerical results for the BF algorithms in the normalized random start case.\relax }{table.caption.136}{}}
\@writefile{toc}{\contentsline {section}{\numberline {6.4}Algorithm Comparison}{148}{section.6.4}}
\@setckpt{Chapters/Chapter_6/ch_6_Brute}{
\setcounter{page}{149}
\setcounter{equation}{17}
\setcounter{enumi}{3}
\setcounter{enumii}{0}
\setcounter{enumiii}{0}
\setcounter{enumiv}{0}
\setcounter{footnote}{0}
\setcounter{mpfootnote}{0}
\setcounter{part}{0}
\setcounter{chapter}{6}
\setcounter{section}{4}
\setcounter{subsection}{0}
\setcounter{subsubsection}{0}
\setcounter{paragraph}{0}
\setcounter{subparagraph}{0}
\setcounter{figure}{18}
\setcounter{table}{9}
\setcounter{savemainpageno}{0}
\setcounter{savefrontpageno}{22}
\setcounter{savetotalpageno}{0}
\setcounter{float@type}{16}
\setcounter{alg}{0}
\setcounter{parentequation}{0}
\setcounter{lstnumber}{1}
\setcounter{LT@tables}{0}
\setcounter{LT@chunks}{0}
\setcounter{ContinuedFloat}{0}
\setcounter{subfigure}{4}
\setcounter{subtable}{0}
\setcounter{Item}{12}
\setcounter{Hfootnote}{8}
\setcounter{bookmark@seq@number}{61}
\setcounter{lstlisting}{0}
\setcounter{section@level}{1}
}
