<?xml version="1.0" encoding="UTF-8"?>
<kml xmlns="http://www.opengis.net/kml/2.2" xmlns:gx="http://www.google.com/kml/ext/2.2" xmlns:kml="http://www.opengis.net/kml/2.2" xmlns:atom="http://www.w3.org/2005/Atom">
<Document>
	<name>/opt/data/processed/002_2020-02-26_14-52-53_796916007/prob_tdoa_cfuse</name>
	<open>1</open>
	<Style id="target">
		<IconStyle>
			<color>9e00ffff</color>
			<scale>1.0</scale>
			<Icon>
				<href>/opt/data/target.png</href>
			</Icon>
		</IconStyle>
		<LabelStyle>
			<scale>1.0</scale>
		</LabelStyle>
	</Style>
	<GroundOverlay>
		<name>tdoa_cfuse</name>
		<description>2-D Probability Surface</description>
		<color>4fffffff</color>
		<visibility>0</visibility>
		<Icon>
			<href>/opt/data/processed/002_2020-02-26_14-52-53_796916007/prob_tdoa_cfuse_0.png</href>
			<viewBoundScale>0.75</viewBoundScale>
			<name>Prob Heatmap</name>
		</Icon>
		<altitude>0.0</altitude>
		<altitudeMode>absolute</altitudeMode>
		<LatLonBox>
			<north>39.006698</north>
			<south>39.003282</south>
			<east>-76.94183</east>
			<west>-76.94547</west>
		</LatLonBox>
	</GroundOverlay>
	<Placemark id="fix">
		<description>Fix Method:tdoa_cfuse</description>
		<styleUrl>#target</styleUrl>
		<Point>
			<coordinates>-76.9454771094,39.0032886719, 0.0</coordinates>
			<altitudeMode>absolute</altitudeMode>
		</Point>
	</Placemark>
	<Placemark>
		<Polygon>
			<altitudeMode>absolute</altitudeMode>
			<outerBoundaryIs>
				<LinearRing>
					<coordinates>
						-76.9453438496,39.0032886718,0.0
						-76.9453445736,39.0032778466,0.0
						-76.9453467585,39.0032671401,0.0
						-76.9453503678,39.0032566694,0.0
						-76.9453553635,39.0032465494,0.0
						-76.9453616983,39.0032368909,0.0
						-76.945369297,39.0032277997,0.0
						-76.945378079,39.0032193754,0.0
						-76.945387936,39.0032117104,0.0
						-76.9453987806,39.0032048885,0.0
						-76.9454104822,39.0031989846,0.0
						-76.9454229099,39.0031940634,0.0
						-76.9454359242,39.0031901787,0.0
						-76.9454494045,39.0031873731,0.0
						-76.9454631586,39.0031856773,0.0
						-76.9454771094,39.00318511,0.0
						-76.9454910602,39.0031856773,0.0
						-76.9455048143,39.0031873731,0.0
						-76.9455182946,39.0031901787,0.0
						-76.9455313089,39.0031940634,0.0
						-76.9455437365,39.0031989846,0.0
						-76.9455554382,39.0032048885,0.0
						-76.9455662828,39.0032117104,0.0
						-76.9455761398,39.0032193754,0.0
						-76.9455849218,39.0032277997,0.0
						-76.9455925205,39.0032368909,0.0
						-76.9455988552,39.0032465494,0.0
						-76.9456038509,39.0032566694,0.0
						-76.9456074602,39.0032671401,0.0
						-76.9456096452,39.0032778466,0.0
						-76.9456103692,39.0032886718,0.0
						-76.9456096424,39.003299497,0.0
						-76.9456074602,39.0033102035,0.0
						-76.9456038538,39.0033206742,0.0
						-76.9455988522,39.0033307942,0.0
						-76.9455925142,39.0033404528,0.0
						-76.9455849218,39.003349544,0.0
						-76.9455761471,39.0033579682,0.0
						-76.9455662746,39.0033656333,0.0
						-76.9455554475,39.0033724552,0.0
						-76.9455437365,39.0033783591,0.0
						-76.9455313021,39.0033832803,0.0
						-76.9455182768,39.0033871651,0.0
						-76.9455048143,39.0033899707,0.0
						-76.9454910078,39.0033916664,0.0
						-76.9454771094,39.0033922337,0.0
						-76.9454632109,39.0033916664,0.0
						-76.9454494045,39.0033899707,0.0
						-76.9454359419,39.0033871651,0.0
						-76.9454229166,39.0033832803,0.0
						-76.9454104822,39.0033783591,0.0
						-76.9453987713,39.0033724552,0.0
						-76.9453879442,39.0033656333,0.0
						-76.9453780716,39.0033579682,0.0
						-76.945369297,39.003349544,0.0
						-76.9453617046,39.0033404528,0.0
						-76.9453553665,39.0033307942,0.0
						-76.945350365,39.0033206742,0.0
						-76.9453467585,39.0033102035,0.0
						-76.9453445763,39.003299497,0.0
						-76.9453445736,39.0032778466,0.0
					</coordinates>
				</LinearRing>
			</outerBoundaryIs>
			<innerBoundaryIs>
				<LinearRing>
					<coordinates>
						-76.9453438496,39.0032886718,0.0
						-76.9453445736,39.0032778466,0.0
						-76.9453467585,39.0032671401,0.0
						-76.9453503678,39.0032566694,0.0
						-76.9453553635,39.0032465494,0.0
						-76.9453616983,39.0032368909,0.0
						-76.945369297,39.0032277997,0.0
						-76.945378079,39.0032193754,0.0
						-76.945387936,39.0032117104,0.0
						-76.9453987806,39.0032048885,0.0
						-76.9454104822,39.0031989846,0.0
						-76.9454229099,39.0031940634,0.0
						-76.9454359242,39.0031901787,0.0
						-76.9454494045,39.0031873731,0.0
						-76.9454631586,39.0031856773,0.0
						-76.9454771094,39.00318511,0.0
						-76.9454910602,39.0031856773,0.0
						-76.9455048143,39.0031873731,0.0
						-76.9455182946,39.0031901787,0.0
						-76.9455313089,39.0031940634,0.0
						-76.9455437365,39.0031989846,0.0
						-76.9455554382,39.0032048885,0.0
						-76.9455662828,39.0032117104,0.0
						-76.9455761398,39.0032193754,0.0
						-76.9455849218,39.0032277997,0.0
						-76.9455925205,39.0032368909,0.0
						-76.9455988552,39.0032465494,0.0
						-76.9456038509,39.0032566694,0.0
						-76.9456074602,39.0032671401,0.0
						-76.9456096452,39.0032778466,0.0
						-76.9456103692,39.0032886718,0.0
						-76.9456096424,39.003299497,0.0
						-76.9456074602,39.0033102035,0.0
						-76.9456038538,39.0033206742,0.0
						-76.9455988522,39.0033307942,0.0
						-76.9455925142,39.0033404528,0.0
						-76.9455849218,39.003349544,0.0
						-76.9455761471,39.0033579682,0.0
						-76.9455662746,39.0033656333,0.0
						-76.9455554475,39.0033724552,0.0
						-76.9455437365,39.0033783591,0.0
						-76.9455313021,39.0033832803,0.0
						-76.9455182768,39.0033871651,0.0
						-76.9455048143,39.0033899707,0.0
						-76.9454910078,39.0033916664,0.0
						-76.9454771094,39.0033922337,0.0
						-76.9454632109,39.0033916664,0.0
						-76.9454494045,39.0033899707,0.0
						-76.9454359419,39.0033871651,0.0
						-76.9454229166,39.0033832803,0.0
						-76.9454104822,39.0033783591,0.0
						-76.9453987713,39.0033724552,0.0
						-76.9453879442,39.0033656333,0.0
						-76.9453780716,39.0033579682,0.0
						-76.945369297,39.003349544,0.0
						-76.9453617046,39.0033404528,0.0
						-76.9453553665,39.0033307942,0.0
						-76.945350365,39.0033206742,0.0
						-76.9453467585,39.0033102035,0.0
						-76.9453445763,39.003299497,0.0
						-76.9453445736,39.0032778466,0.0
					</coordinates>
				</LinearRing>
			</innerBoundaryIs>
		</Polygon>
		<Style>
			<LineStyle>
				<color>9e00ffff</color>
				<width>3.0</width>
			</LineStyle>
			<PolyStyle>
				<color>9e00ffff</color>
			</PolyStyle>
		</Style>
	</Placemark>
	</Document>
</kml>