\relax 
\providecommand\hyper@newdestlabel[2]{}
\@writefile{toc}{\contentsline {chapter}{\numberline {6}THE BRUTE FORCE METHOD}{53}{chapter.6}}
\newlabel{ch:6}{{6}{53}{THE BRUTE FORCE METHOD}{chapter.6}{}}
\newlabel{eq:brute-obj}{{6.1}{53}{THE BRUTE FORCE METHOD}{equation.6.0.1}{}}
\@writefile{toc}{\contentsline {section}{\numberline {6.1}Brute Force Derivation}{53}{section.6.1}}
\newlabel{eq:brute-lagrangian}{{6.2}{53}{Brute Force Derivation}{equation.6.1.2}{}}
\newlabel{eq:brute-derivative-lagrangian}{{6.3}{53}{Brute Force Derivation}{equation.6.1.3}{}}
\newlabel{eq:brute-update-lambda}{{6.4}{53}{Brute Force Derivation}{equation.6.1.4}{}}
\newlabel{eq:brute-tilde-lambda}{{6.5}{54}{Brute Force Derivation}{equation.6.1.5}{}}
\newlabel{eq:brute-update-complete}{{6.6}{54}{Brute Force Derivation}{equation.6.1.6}{}}
\@writefile{toc}{\contentsline {subsection}{\numberline {6.1.1}Algorithm Advantages, Implementations, and Modifications}{54}{subsection.6.1.1}}
\newlabel{eq:brute-adaptive-update-complete}{{6.7}{54}{Algorithm Advantages, Implementations, and Modifications}{equation.6.1.7}{}}
\@writefile{toc}{\contentsline {section}{\numberline {6.2}Variations}{54}{section.6.2}}
\@writefile{lof}{\contentsline {figure}{\numberline {6.1}{\ignorespaces Results of the Non Adaptive BF algorithm with 250,000 data samples, with SNR = 60 dB, at various sampling rates for wideband simulation, (a) 20 MHz, (b) 100 MHz, (c) 150 MHz, and (d) 200 MHz, for transfer function set TF-1\relax }}{55}{figure.caption.40}}
\newlabel{fig:NBF_ideal_30v3000}{{6.1}{55}{Results of the Non Adaptive BF algorithm with 250,000 data samples, with SNR = 60 dB, at various sampling rates for wideband simulation, (a) 20 MHz, (b) 100 MHz, (c) 150 MHz, and (d) 200 MHz, for transfer function set TF-1\relax }{figure.caption.40}{}}
\@writefile{toc}{\contentsline {subsection}{\numberline {6.2.1}Varied Brute Force}{55}{subsection.6.2.1}}
\newlabel{eq:brute-varied-obj}{{6.8}{55}{Varied Brute Force}{equation.6.2.8}{}}
\@writefile{lof}{\contentsline {figure}{\numberline {6.2}{\ignorespaces Results of the Adaptive BF algorithm with 250,000 data samples, with SNR = 60 dB, at various sampling rates for wideband simulation, (a) 20 MHz, (b) 100 MHz, (c) 150 MHz, and (d) 200 MHz, for transfer function set TF-1\relax }}{56}{figure.caption.41}}
\newlabel{fig:ABF_ideal_30v3000}{{6.2}{56}{Results of the Adaptive BF algorithm with 250,000 data samples, with SNR = 60 dB, at various sampling rates for wideband simulation, (a) 20 MHz, (b) 100 MHz, (c) 150 MHz, and (d) 200 MHz, for transfer function set TF-1\relax }{figure.caption.41}{}}
\newlabel{eq:brute-varied-adaptive-update-complete}{{6.9}{56}{Varied Brute Force}{equation.6.2.9}{}}
\@writefile{lof}{\contentsline {figure}{\numberline {6.3}{\ignorespaces Results of the Adaptive BF algorithm with 250,000 data samples, with SNR = 60 dB, at various sampling rates for wideband simulation, (a) 20 MHz, (b) 100 MHz, (c) 150 MHz, and (d) 200 MHz, for transfer function set TF-2\relax }}{57}{figure.caption.42}}
\newlabel{fig:ABF_NITF_30v3000}{{6.3}{57}{Results of the Adaptive BF algorithm with 250,000 data samples, with SNR = 60 dB, at various sampling rates for wideband simulation, (a) 20 MHz, (b) 100 MHz, (c) 150 MHz, and (d) 200 MHz, for transfer function set TF-2\relax }{figure.caption.42}{}}
\@writefile{toc}{\contentsline {subsection}{\numberline {6.2.2}Dual Fixed-Peak Brute Force}{57}{subsection.6.2.2}}
\newlabel{eq:brute-dfp-obj}{{6.10}{57}{Dual Fixed-Peak Brute Force}{equation.6.2.10}{}}
\@writefile{lof}{\contentsline {figure}{\numberline {6.4}{\ignorespaces Results of the Adaptive BF algorithm with 250,000 data samples, with SNR = 60 dB, at various sampling rates for narrowband simulation, (a) 20 MHz, (b) 100 MHz, (c) 150 MHz, and (d) 200 MHz, for transfer function set TF-1\relax }}{58}{figure.caption.43}}
\newlabel{fig:ABF_narrow_30v3000}{{6.4}{58}{Results of the Adaptive BF algorithm with 250,000 data samples, with SNR = 60 dB, at various sampling rates for narrowband simulation, (a) 20 MHz, (b) 100 MHz, (c) 150 MHz, and (d) 200 MHz, for transfer function set TF-1\relax }{figure.caption.43}{}}
\newlabel{eq:brute-dfp-lagrangian}{{6.11}{58}{Dual Fixed-Peak Brute Force}{equation.6.2.11}{}}
\newlabel{eq:brute-dfp-derivative-lagrangian}{{6.12}{58}{Dual Fixed-Peak Brute Force}{equation.6.2.12}{}}
\@writefile{lof}{\contentsline {figure}{\numberline {6.5}{\ignorespaces Results of the Adaptive BF algorithm with 2,500 data samples, with SNR = 60 dB, at various sampling rates for wideband simulation, (a) 20 MHz, (b) 100 MHz, (c) 150 MHz, and (d) 200 MHz, for transfer function set TF-1\relax }}{59}{figure.caption.44}}
\newlabel{fig:ABF_Nless_30v3000}{{6.5}{59}{Results of the Adaptive BF algorithm with 2,500 data samples, with SNR = 60 dB, at various sampling rates for wideband simulation, (a) 20 MHz, (b) 100 MHz, (c) 150 MHz, and (d) 200 MHz, for transfer function set TF-1\relax }{figure.caption.44}{}}
\newlabel{eq:brute-dfp-update-lambda-mu}{{6.13}{59}{Dual Fixed-Peak Brute Force}{equation.6.2.13}{}}
\@writefile{lof}{\contentsline {figure}{\numberline {6.6}{\ignorespaces Results of the Adaptive BF algorithm with 250,000 data samples, with SNR = 20 dB, at various sampling rates for wideband simulation, (a) 20 MHz, (b) 100 MHz, (c) 150 MHz, and (d) 200 MHz, for transfer function set TF-1\relax }}{60}{figure.caption.45}}
\newlabel{fig:ABF_noisy_30v3000}{{6.6}{60}{Results of the Adaptive BF algorithm with 250,000 data samples, with SNR = 20 dB, at various sampling rates for wideband simulation, (a) 20 MHz, (b) 100 MHz, (c) 150 MHz, and (d) 200 MHz, for transfer function set TF-1\relax }{figure.caption.45}{}}
\newlabel{eq:brute-dfp-lambda-mu}{{6.16}{60}{Dual Fixed-Peak Brute Force}{equation.6.2.16}{}}
\@writefile{lof}{\contentsline {figure}{\numberline {6.7}{\ignorespaces Results of the Adaptive BF algorithm with 250,000 data samples, with SNR = 60 dB for wideband simulation at 200 MHz sampling rate for incorrect model order estimates (a) $L/2$, (b) $L-10$, (c) $2L$, and (d) $L + 10$, for transfer function set TF-1\relax }}{61}{figure.caption.46}}
\newlabel{fig:ABF_wrongModel_30v3000}{{6.7}{61}{Results of the Adaptive BF algorithm with 250,000 data samples, with SNR = 60 dB for wideband simulation at 200 MHz sampling rate for incorrect model order estimates (a) $L/2$, (b) $L-10$, (c) $2L$, and (d) $L + 10$, for transfer function set TF-1\relax }{figure.caption.46}{}}
\newlabel{eq:brute-dfp-update-complete}{{6.17}{61}{Dual Fixed-Peak Brute Force}{equation.6.2.17}{}}
\@writefile{lof}{\contentsline {figure}{\numberline {6.8}{\ignorespaces Results of the VBF algorithm with 250,000 data samples, with SNR = 60 dB, at various sampling rates for wideband simulation, (a) 20 MHz, (b) 100 MHz, (c) 150 MHz, and (d) 200 MHz, for transfer function set TF-1\relax }}{62}{figure.caption.47}}
\newlabel{fig:VBF_ideal_30v3000}{{6.8}{62}{Results of the VBF algorithm with 250,000 data samples, with SNR = 60 dB, at various sampling rates for wideband simulation, (a) 20 MHz, (b) 100 MHz, (c) 150 MHz, and (d) 200 MHz, for transfer function set TF-1\relax }{figure.caption.47}{}}
\@writefile{toc}{\contentsline {section}{\numberline {6.3}Data Verification}{62}{section.6.3}}
\@writefile{toc}{\contentsline {subsection}{\numberline {6.3.1}Simulation}{62}{subsection.6.3.1}}
\@writefile{toc}{\contentsline {subsubsection}{Wideband vs Narrowband}{62}{section*.59}}
\@writefile{lof}{\contentsline {figure}{\numberline {6.9}{\ignorespaces Results of the VBF algorithm with 250,000 data samples, with SNR = 60 dB, at various sampling rates for wideband simulation, (a) 20 MHz, (b) 100 MHz, (c) 150 MHz, and (d) 200 MHz, for transfer function set TF-2\relax }}{63}{figure.caption.48}}
\newlabel{fig:VBF_NITF_30v3000}{{6.9}{63}{Results of the VBF algorithm with 250,000 data samples, with SNR = 60 dB, at various sampling rates for wideband simulation, (a) 20 MHz, (b) 100 MHz, (c) 150 MHz, and (d) 200 MHz, for transfer function set TF-2\relax }{figure.caption.48}{}}
\@writefile{toc}{\contentsline {subsection}{\numberline {6.3.2}Observed Data}{63}{subsection.6.3.2}}
\@writefile{toc}{\contentsline {subsubsection}{Wideband vs Narrowband}{63}{section*.60}}
\@writefile{toc}{\contentsline {section}{\numberline {6.4}Issues with the Algorithms}{63}{section.6.4}}
\@writefile{toc}{\contentsline {section}{\numberline {6.5}Possible Improvements}{63}{section.6.5}}
\@writefile{lof}{\contentsline {figure}{\numberline {6.10}{\ignorespaces Results of the VBF algorithm with 250,000 data samples, with SNR = 60 dB, at various sampling rates for narrowband simulation, (a) 20 MHz, (b) 100 MHz, (c) 150 MHz, and (d) 200 MHz, for transfer function set TF-1\relax }}{64}{figure.caption.49}}
\newlabel{fig:VBF_narrow_30v3000}{{6.10}{64}{Results of the VBF algorithm with 250,000 data samples, with SNR = 60 dB, at various sampling rates for narrowband simulation, (a) 20 MHz, (b) 100 MHz, (c) 150 MHz, and (d) 200 MHz, for transfer function set TF-1\relax }{figure.caption.49}{}}
\@writefile{lof}{\contentsline {figure}{\numberline {6.11}{\ignorespaces Results of the VBF algorithm with 2,500 data samples, with SNR = 60 dB, at various sampling rates for wideband simulation, (a) 20 MHz, (b) 100 MHz, (c) 150 MHz, and (d) 200 MHz, for transfer function set TF-1\relax }}{65}{figure.caption.50}}
\newlabel{fig:VBF_Nless_30v3000}{{6.11}{65}{Results of the VBF algorithm with 2,500 data samples, with SNR = 60 dB, at various sampling rates for wideband simulation, (a) 20 MHz, (b) 100 MHz, (c) 150 MHz, and (d) 200 MHz, for transfer function set TF-1\relax }{figure.caption.50}{}}
\@writefile{lof}{\contentsline {figure}{\numberline {6.12}{\ignorespaces Results of the VBF algorithm with 250,000 data samples, with SNR = 20 dB, at various sampling rates for wideband simulation, (a) 20 MHz, (b) 100 MHz, (c) 150 MHz, and (d) 200 MHz, for transfer function set TF-1\relax }}{66}{figure.caption.51}}
\newlabel{fig:VBF_noisy_30v3000}{{6.12}{66}{Results of the VBF algorithm with 250,000 data samples, with SNR = 20 dB, at various sampling rates for wideband simulation, (a) 20 MHz, (b) 100 MHz, (c) 150 MHz, and (d) 200 MHz, for transfer function set TF-1\relax }{figure.caption.51}{}}
\@writefile{lof}{\contentsline {figure}{\numberline {6.13}{\ignorespaces Results of the VBF algorithm with 250,000 data samples, with SNR = 60 dB for wideband simulation at 200 MHz sampling rate for incorrect model order estimates (a) $L/2$, (b) $L-10$, (c) $2L$, and (d) $L + 10$, for transfer function set TF-1\relax }}{67}{figure.caption.52}}
\newlabel{fig:VBF_wrongModel_30v3000}{{6.13}{67}{Results of the VBF algorithm with 250,000 data samples, with SNR = 60 dB for wideband simulation at 200 MHz sampling rate for incorrect model order estimates (a) $L/2$, (b) $L-10$, (c) $2L$, and (d) $L + 10$, for transfer function set TF-1\relax }{figure.caption.52}{}}
\@writefile{lof}{\contentsline {figure}{\numberline {6.14}{\ignorespaces Results of the DFPBF algorithm with 250,000 data samples, with SNR = 60 dB, at various sampling rates for wideband simulation, (a) 20 MHz, (b) 100 MHz, (c) 150 MHz, and (d) 200 MHz, for transfer function set TF-1\relax }}{68}{figure.caption.53}}
\newlabel{fig:DFPBF_ideal_30v3000}{{6.14}{68}{Results of the DFPBF algorithm with 250,000 data samples, with SNR = 60 dB, at various sampling rates for wideband simulation, (a) 20 MHz, (b) 100 MHz, (c) 150 MHz, and (d) 200 MHz, for transfer function set TF-1\relax }{figure.caption.53}{}}
\@writefile{lof}{\contentsline {figure}{\numberline {6.15}{\ignorespaces Results of the DFPBF algorithm with 250,000 data samples, with SNR = 60 dB, at various sampling rates for wideband simulation, (a) 20 MHz, (b) 100 MHz, (c) 150 MHz, and (d) 200 MHz, for transfer function set TF-2\relax }}{69}{figure.caption.54}}
\newlabel{fig:DFPBF_NITF_30v3000}{{6.15}{69}{Results of the DFPBF algorithm with 250,000 data samples, with SNR = 60 dB, at various sampling rates for wideband simulation, (a) 20 MHz, (b) 100 MHz, (c) 150 MHz, and (d) 200 MHz, for transfer function set TF-2\relax }{figure.caption.54}{}}
\@writefile{lof}{\contentsline {figure}{\numberline {6.16}{\ignorespaces Results of the DFPBF algorithm with 250,000 data samples, with SNR = 60 dB, at various sampling rates for narrowband simulation, (a) 20 MHz, (b) 100 MHz, (c) 150 MHz, and (d) 200 MHz, for transfer function set TF-1\relax }}{70}{figure.caption.55}}
\newlabel{fig:DFPBF_narrow_30v3000}{{6.16}{70}{Results of the DFPBF algorithm with 250,000 data samples, with SNR = 60 dB, at various sampling rates for narrowband simulation, (a) 20 MHz, (b) 100 MHz, (c) 150 MHz, and (d) 200 MHz, for transfer function set TF-1\relax }{figure.caption.55}{}}
\@writefile{lof}{\contentsline {figure}{\numberline {6.17}{\ignorespaces Results of the DFPBF algorithm with 2,500 data samples, with SNR = 60 dB, at various sampling rates for wideband simulation, (a) 20 MHz, (b) 100 MHz, (c) 150 MHz, and (d) 200 MHz, for transfer function set TF-1\relax }}{71}{figure.caption.56}}
\newlabel{fig:DFPBF_Nless_30v3000}{{6.17}{71}{Results of the DFPBF algorithm with 2,500 data samples, with SNR = 60 dB, at various sampling rates for wideband simulation, (a) 20 MHz, (b) 100 MHz, (c) 150 MHz, and (d) 200 MHz, for transfer function set TF-1\relax }{figure.caption.56}{}}
\@writefile{lof}{\contentsline {figure}{\numberline {6.18}{\ignorespaces Results of the DFPBF algorithm with 250,000 data samples, with SNR = 20 dB, at various sampling rates for wideband simulation, (a) 20 MHz, (b) 100 MHz, (c) 150 MHz, and (d) 200 MHz, for transfer function set TF-1\relax }}{72}{figure.caption.57}}
\newlabel{fig:DFPBF_noisy_30v3000}{{6.18}{72}{Results of the DFPBF algorithm with 250,000 data samples, with SNR = 20 dB, at various sampling rates for wideband simulation, (a) 20 MHz, (b) 100 MHz, (c) 150 MHz, and (d) 200 MHz, for transfer function set TF-1\relax }{figure.caption.57}{}}
\@writefile{lof}{\contentsline {figure}{\numberline {6.19}{\ignorespaces Results of the DFPBF algorithm with 250,000 data samples, with SNR = 60 dB for wideband simulation at 200 MHz sampling rate for incorrect model order estimates (a) $L/2$, (b) $L-10$, (c) $2L$, and (d) $L + 10$, for transfer function set TF-1\relax }}{73}{figure.caption.58}}
\newlabel{fig:DFPBF_wrongModel_30v3000}{{6.19}{73}{Results of the DFPBF algorithm with 250,000 data samples, with SNR = 60 dB for wideband simulation at 200 MHz sampling rate for incorrect model order estimates (a) $L/2$, (b) $L-10$, (c) $2L$, and (d) $L + 10$, for transfer function set TF-1\relax }{figure.caption.58}{}}
\@setckpt{Chapters/Chapter_6/ch_6_Brute}{
\setcounter{page}{74}
\setcounter{equation}{17}
\setcounter{enumi}{2}
\setcounter{enumii}{0}
\setcounter{enumiii}{0}
\setcounter{enumiv}{0}
\setcounter{footnote}{0}
\setcounter{mpfootnote}{0}
\setcounter{part}{0}
\setcounter{chapter}{6}
\setcounter{section}{5}
\setcounter{subsection}{0}
\setcounter{subsubsection}{0}
\setcounter{paragraph}{0}
\setcounter{subparagraph}{0}
\setcounter{figure}{19}
\setcounter{table}{0}
\setcounter{savemainpageno}{0}
\setcounter{savefrontpageno}{11}
\setcounter{savetotalpageno}{0}
\setcounter{float@type}{16}
\setcounter{alg}{0}
\setcounter{parentequation}{0}
\setcounter{lstnumber}{1}
\setcounter{ContinuedFloat}{0}
\setcounter{subfigure}{4}
\setcounter{subtable}{0}
\setcounter{Item}{2}
\setcounter{Hfootnote}{6}
\setcounter{bookmark@seq@number}{57}
\setcounter{lstlisting}{0}
\setcounter{section@level}{1}
}
