\relax 
\providecommand\hyper@newdestlabel[2]{}
\@writefile{toc}{\contentsline {chapter}{\numberline {7}RESULTS}{142}{chapter.7}}
\newlabel{ch:8}{{7}{142}{RESULTS}{chapter.7}{}}
\@writefile{toc}{\contentsline {section}{\numberline {7.1}Comparison of Algorithms}{142}{section.7.1}}
\@writefile{lot}{\contentsline {table}{\numberline {7.1}{\ignorespaces Comparison of the Algorithm Complexity\relax }}{143}{table.caption.132}}
\newlabel{tab:compAlgComplexity}{{7.1}{143}{Comparison of the Algorithm Complexity\relax }{table.caption.132}{}}
\@writefile{lot}{\contentsline {table}{\numberline {7.2}{\ignorespaces Table of various variables used in simulation.\relax }}{144}{table.caption.133}}
\newlabel{tab:Sim_Variable_Values_Code}{{7.2}{144}{Table of various variables used in simulation.\relax }{table.caption.133}{}}
\@writefile{toc}{\contentsline {section}{\numberline {7.2}Effects of Various Parameters}{144}{section.7.2}}
\@writefile{toc}{\contentsline {subsection}{\numberline {7.2.1}Bandwidth}{144}{subsection.7.2.1}}
\@writefile{toc}{\contentsline {subsection}{\numberline {7.2.2}Noise}{144}{subsection.7.2.2}}
\@writefile{toc}{\contentsline {subsection}{\numberline {7.2.3}Sample Rate}{144}{subsection.7.2.3}}
\@writefile{toc}{\contentsline {subsection}{\numberline {7.2.4}Number of Samples}{144}{subsection.7.2.4}}
\@writefile{toc}{\contentsline {section}{\numberline {7.3}Observations with Real Data}{144}{section.7.3}}
\@setckpt{Chapters/Chapter_8/ch_8_results}{
\setcounter{page}{145}
\setcounter{equation}{0}
\setcounter{enumi}{4}
\setcounter{enumii}{0}
\setcounter{enumiii}{0}
\setcounter{enumiv}{0}
\setcounter{footnote}{0}
\setcounter{mpfootnote}{0}
\setcounter{part}{0}
\setcounter{chapter}{7}
\setcounter{section}{3}
\setcounter{subsection}{0}
\setcounter{subsubsection}{0}
\setcounter{paragraph}{0}
\setcounter{subparagraph}{0}
\setcounter{figure}{0}
\setcounter{table}{2}
\setcounter{savemainpageno}{0}
\setcounter{savefrontpageno}{20}
\setcounter{savetotalpageno}{0}
\setcounter{float@type}{16}
\setcounter{alg}{0}
\setcounter{parentequation}{0}
\setcounter{lstnumber}{1}
\setcounter{ContinuedFloat}{0}
\setcounter{subfigure}{0}
\setcounter{subtable}{0}
\setcounter{Item}{6}
\setcounter{Hfootnote}{8}
\setcounter{bookmark@seq@number}{69}
\setcounter{lstlisting}{0}
\setcounter{section@level}{1}
}
