% This file was created by matlab2tikz.
%
%The latest updates can be retrieved from
%  http://www.mathworks.com/matlabcentral/fileexchange/22022-matlab2tikz-matlab2tikz
%where you can also make suggestions and rate matlab2tikz.
%
\definecolor{mycolor1}{rgb}{0.00000,0.44700,0.74100}%
\definecolor{mycolor2}{rgb}{0.85000,0.32500,0.09800}%
%
\begin{tikzpicture}

\begin{axis}[%
width=1.935in,
height=3.2in,
at={(0.758in,0.512in)},
scale only axis,
xmin=0,
xmax=100,
xlabel style={font=\color{white!15!black}, align=center},
xlabel={Sample Index\\[1ex](a) Actual},
ymin=0,
ymax=1,
axis background/.style={fill=white},
legend style={legend cell align=left, align=left, draw=white!15!black}
]
\addplot [color=mycolor1]
  table[row sep=crcr]{%
1	0.0216926152020066\\
2	0.0241183965289278\\
3	0.0267807478156139\\
4	0.0354280601095614\\
5	0.221828667704926\\
6	0.648965745595675\\
7	0.241270440438586\\
8	0.0776642628644082\\
9	0.0581044824071981\\
10	0.0611489366831747\\
11	0.0798140419847986\\
12	0.062735544320507\\
13	0.113011040425493\\
14	0.377485382687519\\
15	0.331649248845691\\
16	0.18615433793772\\
17	0.146493252817741\\
18	0.0847190801249442\\
19	0.0628278567269286\\
20	0.0148364296169451\\
21	0.0250471739922352\\
22	0.0344835915107885\\
23	0.116323790948646\\
24	0.279210940275387\\
25	0.101045410677318\\
26	0.0464379665429307\\
27	0.041398863205924\\
28	0.0263226969199998\\
29	0.0221848789960478\\
30	0.0197642774213948\\
31	0.0186496517239344\\
32	0.0219339353832985\\
33	0.018414044189717\\
34	0.00937919788338426\\
35	0.0100670783096178\\
36	0.0098135024549665\\
37	0.00937197330245933\\
38	0.00884810306396591\\
39	0.00821513429074651\\
40	0.00732026654240377\\
41	0.00945021173361951\\
42	0.0127255218727005\\
43	0.00946415089832864\\
44	0.00862800399957479\\
45	0.00816256372793386\\
46	0.00784857678072338\\
47	0.00764005346579914\\
48	0.00755773656417068\\
49	0.00776075567554332\\
50	0.00986938420958768\\
51	0.00319649311885596\\
52	0.00500292172051245\\
53	0.00524752973649041\\
54	0.00526667690567613\\
55	0.00521575322380608\\
56	0.00513704586881206\\
57	0.00504647235310817\\
58	0.00495116794332671\\
59	0.00485468351773321\\
60	0.00475890010347922\\
61	0.00466484578572566\\
62	0.00457308311118313\\
63	0.00448390798586452\\
64	0.0043974582605137\\
65	0.00431377595094964\\
66	0.00423284428954661\\
67	0.00415461047403326\\
68	0.00407899997367922\\
69	0.00400592569101114\\
70	0.00393529390404367\\
71	0.0038670081481966\\
72	0.00380097175500134\\
73	0.00373708950172093\\
74	0.00367526866536834\\
75	0.00361541967416126\\
76	0.00355745648532918\\
77	0.00350129677649243\\
78	0.00344686201027152\\
79	0.00339407741330312\\
80	0.00334287189828014\\
81	0.0032931779490063\\
82	0.00324493148246751\\
83	0.00319807169773062\\
84	0.003152540918526\\
85	0.00310828443427485\\
86	0.00306525034282854\\
87	0.00302338939712195\\
88	0.00298265485717807\\
89	0.00294300234835571\\
90	0.00290438972634362\\
91	0.0028667769491261\\
92	0.00283012595595264\\
93	0.0027944005532083\\
94	0.00275956630699144\\
95	0.0027255904421446\\
96	0.00269244174744817\\
97	0.00266009048666622\\
98	0.00262850831512411\\
99	0\\
100	0\\
};
\addlegendentry{$\mathbf{h_1}$}

\addplot [color=mycolor2]
  table[row sep=crcr]{%
1	0.00108294891904515\\
2	0.00115806441999571\\
3	0.00125656841390277\\
4	0.00139359850086552\\
5	0.00159676508941691\\
6	0.00191784013184518\\
7	0.00245777585368985\\
8	0.00342819163679349\\
9	0.00533730915065768\\
10	0.00974214709050295\\
11	0.0244449264542886\\
12	0.973731186814765\\
13	0.0500739614470277\\
14	0.0426946282907342\\
15	0.00536788790071817\\
16	0.0362080823589407\\
17	0.176144271962331\\
18	0.115663212635922\\
19	0.0234963057121139\\
20	0.0138738178597906\\
21	0.00966054585381422\\
22	0.00731818549393035\\
23	0.00584139575065055\\
24	0.0048330083027894\\
25	0.00410500747522503\\
26	0.00355723928842746\\
27	0.00313167065616096\\
28	0.00279247304593218\\
29	0.00251639833876938\\
30	0.00228774297450139\\
31	0.00209554142652578\\
32	0.00193191967393617\\
33	0.00179108704155738\\
34	0.00166869616651274\\
35	0\\
36	0\\
37	0\\
38	0\\
39	0\\
40	0\\
41	0\\
42	0\\
43	0\\
44	0\\
45	0\\
46	0\\
47	0\\
48	0\\
49	0\\
50	0\\
51	0\\
52	0\\
53	0\\
54	0\\
55	0\\
56	0\\
57	0\\
58	0\\
59	0\\
60	0\\
61	0\\
62	0\\
63	0\\
64	0\\
65	0\\
66	0\\
67	0\\
68	0\\
69	0\\
70	0\\
71	0\\
72	0\\
73	0\\
74	0\\
75	0\\
76	0\\
77	0\\
78	0\\
79	0\\
80	0\\
81	0\\
82	0\\
83	0\\
84	0\\
85	0\\
86	0\\
87	0\\
88	0\\
89	0\\
90	0\\
91	0\\
92	0\\
93	0\\
94	0\\
95	0\\
96	0\\
97	0\\
98	0\\
99	0\\
100	0\\
};
\addlegendentry{$\mathbf{h_{2}}$}

\end{axis}

\begin{axis}[%
width=1.935in,
height=3.2in,
at={(3.327in,0.512in)},
scale only axis,
xmin=0,
xmax=100,
xlabel style={font=\color{white!15!black}, align=center},
xlabel={Sample Index\\[1ex](b) Estimated},
ymin=0,
ymax=1,
axis background/.style={fill=white},
legend style={legend cell align=left, align=left, draw=white!15!black}
]
\addplot [color=mycolor1]
  table[row sep=crcr]{%
0	0.0127550145697692\\
1	0.0336297607499001\\
2	0.00634092171175605\\
3	0.0127088155166792\\
4	0.00412279051300279\\
5	0.0117507677863098\\
6	0.0328473398180143\\
7	0.0113359842364831\\
8	0.00368877042026749\\
9	0.0219611379621205\\
10	0.00758254858031136\\
11	0.0174400785219338\\
12	0.00420794580763372\\
13	0.00896301969258059\\
14	0.0126648914459434\\
15	0.0123090243472919\\
16	0.0238996334844435\\
17	0.0103968439761588\\
18	0.00243897992448475\\
19	0.0131323100219247\\
20	0.0235890655123991\\
21	0.0237899957256008\\
22	0.0149718844294322\\
23	0.00941382948910131\\
24	0.014523955326952\\
25	0.0243032107965831\\
26	0.0214305905555561\\
27	0.0145448785781556\\
28	0.0187933052810616\\
29	0.00428550764035114\\
30	0.0143381893481976\\
31	0.0150317296791888\\
32	0.0149576336252341\\
33	0.00260809631013948\\
34	0.00831952134802751\\
35	0.0151310788847124\\
36	0.0289332343988871\\
37	0.0448829251842131\\
38	0.131951021434028\\
39	0.0145753923750175\\
40	0.0334905929644404\\
41	0.0182931081808836\\
42	0.205915236670353\\
43	0.637429340403799\\
44	0.182190036633552\\
45	0.0789698575183872\\
46	0.169619043023134\\
47	0.0453417043196223\\
48	0.055586793387484\\
49	0.0596610941817415\\
50	0.120295052338109\\
51	0.396680024471903\\
52	0.291417932904913\\
53	0.187475132315724\\
54	0.150908943864587\\
55	0.0701902763660057\\
56	0.145887652196755\\
57	0.00644291782113057\\
58	0.0236758019694581\\
59	0.0298627021843917\\
60	0.120100686359594\\
61	0.258722763908976\\
62	0.080102736535668\\
63	0.0297101945082693\\
64	0.0186729633323531\\
65	0.0178746297703372\\
66	0.0144201331897666\\
67	0.0106452014383594\\
68	0.0354733544734105\\
69	0.0425522083124201\\
70	0.00697927510660402\\
71	0.00346195238212127\\
72	0.0102634322197646\\
73	0.0117805121169078\\
74	0.0230744992371169\\
75	0.013103671395041\\
76	0.0145126366296351\\
77	0.00902959124777975\\
78	0.00555666968546838\\
79	0.025088126630191\\
80	0.00761886151773136\\
81	0.0191574006021856\\
82	0.0348709135645492\\
83	0.00251354456156297\\
84	0.0187791724262181\\
85	0.00110312616018663\\
86	0.0134943598471727\\
87	0.00581128477896319\\
88	0.0282682208232236\\
89	0.0255995743501368\\
90	0.00838019449246935\\
91	0.0114811661903959\\
92	0.0108857580551546\\
93	0.0170293433314313\\
94	0.0294937245308043\\
95	0.0138121868397089\\
96	0.0158526555901575\\
97	0.00193780199832542\\
98	0.0159715845793888\\
99	0.0177637692888718\\
};
\addlegendentry{$\mathbf{\hat{h}_{1}}$}

\addplot [color=mycolor2]
  table[row sep=crcr]{%
0	0.000143809920834691\\
1	0.000272470454514788\\
2	0.000158152679015739\\
3	0.000130979216916689\\
4	0.000353837156347155\\
5	0.000132769821498424\\
6	0.000129553354546585\\
7	0.000326420422773973\\
8	0.000208085636434671\\
9	7.23984001739253e-05\\
10	0.000227689735339277\\
11	0.00021684924863536\\
12	0.000205150306607835\\
13	0.000222068055325916\\
14	0.000128727099862519\\
15	9.62852088151283e-05\\
16	0.000185274316292213\\
17	1.28473166682453e-05\\
18	0.000241529441628809\\
19	0.000244173971908133\\
20	0.00011367591217819\\
21	0.000274997682220713\\
22	0.000234740432592469\\
23	0.000379749457554436\\
24	0.000347154227708347\\
25	7.59120564165792e-05\\
26	0.000311827679357095\\
27	0.000203567675826614\\
28	8.359975654244e-05\\
29	0.00013833075366962\\
30	0.000201615154376509\\
31	0.00193073388158623\\
32	0.00040760015463167\\
33	0.000207161115307819\\
34	0.000158950544042175\\
35	8.20604960774828e-05\\
36	0.000705909451406391\\
37	3.98068270584995e-06\\
38	0.00172485991584804\\
39	0.00248374604874678\\
40	0.000544447184034783\\
41	0.00330219506020704\\
42	0.000636693144755325\\
43	0.000308596785120902\\
44	0.000778692764624579\\
45	0.00048528501202128\\
46	0.00134747122151475\\
47	0.00151857928570265\\
48	0.000476779811275024\\
49	0.999967948927528\\
50	0.000473354926887705\\
51	0.00150975045354574\\
52	0.00135246071486182\\
53	0.000492383942778952\\
54	0.000789096512138262\\
55	0.000280995244876526\\
56	0.00064435399175951\\
57	0.00330748111052778\\
58	0.000559597557131076\\
59	0.00249505694983776\\
60	0.0017382170450218\\
61	3.63900650332865e-05\\
62	0.000702258097825025\\
63	8.77486399597321e-05\\
64	0.000169835557205975\\
65	0.000231621388996593\\
66	0.000402284454002267\\
67	0.00192329507832942\\
68	0.000201316369191291\\
69	0.000132178508261901\\
70	9.70272787468176e-05\\
71	0.000224831989956975\\
72	0.000335303766599556\\
73	6.32237377061024e-05\\
74	0.000336292715931462\\
75	0.000411885699432638\\
76	0.00017525566807111\\
77	0.000253821392833292\\
78	0.000116115608343587\\
79	0.000278492496760433\\
80	0.000217796472619895\\
81	2.25849281852629e-06\\
82	0.000173924344728444\\
83	0.000105997888833356\\
84	0.000107209822223397\\
85	0.000255901608905646\\
86	0.000157636342481636\\
87	0.00024170769138979\\
88	0.000221624180459894\\
89	6.06461975386575e-05\\
90	0.000209000250515637\\
91	0.000291808312026206\\
92	0.000155206133021995\\
93	0.000149860108745637\\
94	0.000299222070368141\\
95	0.000107472117896548\\
96	0.000119333912821009\\
97	0.00024580329963927\\
98	0.000169350310950471\\
99	0.000368345842915059\\
};
\addlegendentry{$\mathbf{\hat{h}_{2}}$}

\end{axis}
\end{tikzpicture}%