% This file was created by matlab2tikz.
%
%The latest updates can be retrieved from
%  http://www.mathworks.com/matlabcentral/fileexchange/22022-matlab2tikz-matlab2tikz
%where you can also make suggestions and rate matlab2tikz.
%
\definecolor{mycolor1}{rgb}{0.00000,0.44700,0.74100}%
\definecolor{mycolor2}{rgb}{0.85000,0.32500,0.09800}%
%
\begin{tikzpicture}

\begin{axis}[%
width=1.935in,
height=3.2in,
at={(0.758in,0.512in)},
scale only axis,
xmin=0,
xmax=150,
xlabel style={font=\color{white!15!black}, align=center},
xlabel={Sample Index\\[1ex](a) Actual},
ymin=0,
ymax=0.7,
axis background/.style={fill=white},
legend style={legend cell align=left, align=left, draw=white!15!black}
]
\addplot [color=mycolor1]
  table[row sep=crcr]{%
1	0.0234657806037261\\
2	0.0272334504034075\\
3	0.0326864300765018\\
4	0.0414541482980318\\
5	0.0586677033458464\\
6	0.117843438362983\\
7	0.159969331461504\\
8	0.174397116945152\\
9	0.616552810702634\\
10	0.0882137642931462\\
11	0.0472681903124796\\
12	0.0327587509505929\\
13	0.0272256709659274\\
14	0.0412344622245766\\
15	0.0186762848129325\\
16	0.0451940046978057\\
17	0.0153724087875252\\
18	0.0239672675363248\\
19	0.0400285717874473\\
20	0.0828333966509162\\
21	0.557624977131952\\
22	0.149414784250917\\
23	0.109138078132702\\
24	0.0381681231028791\\
25	0.032799759178118\\
26	0.191519461959093\\
27	0.0734580287558902\\
28	0.0358315656953253\\
29	0.0179563195827385\\
30	0.0169149242156914\\
31	0.0179798517146348\\
32	0.0199431506445131\\
33	0.0279225394655299\\
34	0.0908594243819801\\
35	0.0439964246924232\\
36	0.330890477505262\\
37	0.037800506563543\\
38	0.020261933748638\\
39	0.0138181229977315\\
40	0.0211497159554441\\
41	0.0112042208144458\\
42	0.00964538908702694\\
43	0.00864780826327016\\
44	0.00787736374270682\\
45	0.00720180133294831\\
46	0.00651453200193765\\
47	0.00565492088107664\\
48	0.0112814316241706\\
49	0.0075966567083061\\
50	0.0102713040739602\\
51	0.00787142060243747\\
52	0.00711780022683946\\
53	0.00668443537322835\\
54	0.00638223966522588\\
55	0.00615487020840034\\
56	0.00598242225636516\\
57	0.00586293416152974\\
58	0.00581626175933958\\
59	0.00593494184987807\\
60	0.00707647204853056\\
61	0.00861312572402681\\
62	0.00240649054353041\\
63	0.0036902508247688\\
64	0.0040125763148678\\
65	0.00408542983582614\\
66	0.00408934467211144\\
67	0.00406760360864643\\
68	0.00403657730104579\\
69	0.00400486664899167\\
70	0.00397913876457006\\
71	0.00396763365360209\\
72	0.00398577860522856\\
73	0.00407460869510253\\
74	0.00440882178496405\\
75	0.00852319154542653\\
76	0.00211982859547221\\
77	0.00279674481878385\\
78	0.00295234209521732\\
79	0.00299967450324673\\
80	0.00300734384297471\\
81	0.00299658049652506\\
82	0.00297609501762909\\
83	0.00295010695632826\\
84	0.00292089738309008\\
85	0.00288979839106794\\
86	0.00285763293534116\\
87	0.00282493110979805\\
88	0.00279204510261472\\
89	0.00275921420187501\\
90	0.00272660345813555\\
91	0.00269432766245323\\
92	0.00266246675038502\\
93	0.00263107599882434\\
94	0.00260019295165966\\
95	0.00256984222925479\\
96	0.00254003893333548\\
97	0.0025107910982644\\
98	0.00248210148178531\\
99	0.00245396889001376\\
100	0.00242638916874131\\
101	0.00239935595223708\\
102	0.00237286123354156\\
103	0.00234689580183488\\
104	0.00232144957979209\\
105	0.00229651188498403\\
106	0.00227207163310714\\
107	0.0022481174963278\\
108	0.00222463802675857\\
109	0.00220162175268604\\
110	0.00217905725339276\\
111	0.0021569332170867\\
112	0.00213523848544673\\
113	0.00211396208753109\\
114	0.00209309326520902\\
115	0.00207262149182518\\
116	0.00205253648545491\\
117	0.00203282821783402\\
118	0.00201348691983224\\
119	0.00199450308416773\\
120	0.00197586746592614\\
121	0.00195757108133911\\
122	0.0019396052051902\\
123	0.0019219613671484\\
124	0.00190463134727109\\
125	0.00188760717087541\\
126	0.00187088110293773\\
127	0.00185444564215264\\
128	0.0018382935147574\\
129	0.00182241766820821\\
130	0.00180681126477794\\
131	0.00179146767513212\\
132	0.00177638047192757\\
133	0.00176154342347035\\
134	0.00174695048746156\\
135	0.0017325958048528\\
136	0.00171847369382931\\
137	0.00170457864393352\\
138	0.0016909053103386\\
139	0.00167744850827835\\
140	0.00166420320763913\\
141	0.00165116452771496\\
142	0.00163832773212761\\
143	0.00162568822391149\\
144	0.00161324154076111\\
145	0.0016009833504405\\
146	0.00158890944635072\\
147	0.00157701574325256\\
148	0.00156529827314105\\
149	0\\
150	0\\
};
\addlegendentry{$\mathbf{h_1}$}

\addplot [color=mycolor2]
  table[row sep=crcr]{%
1	0.019775303219206\\
2	0.0210217764534023\\
3	0.0224372323963497\\
4	0.024058742711813\\
5	0.0259351263737046\\
6	0.0281320174688059\\
7	0.0307398096072034\\
8	0.0338865833958781\\
9	0.0377600935275399\\
10	0.0426472101764649\\
11	0.0490094599986528\\
12	0.0576401827385178\\
13	0.0700288298559564\\
14	0.0893407156606893\\
15	0.123700774100431\\
16	0.202175033398071\\
17	0.564479813098353\\
18	0.690442426104836\\
19	0.212260509632627\\
20	0.126132345068284\\
21	0.100380135781766\\
22	0.0378663697499036\\
23	0.0333199748773482\\
24	0.0149453064107011\\
25	0.10083899339379\\
26	0.161002397050911\\
27	0.0405118251764787\\
28	0.0383644765554957\\
29	0.0341227495803863\\
30	0.0306469105251072\\
31	0.0278570926171954\\
32	0.0255709383506331\\
33	0.0236574529195357\\
34	0.0220274984760589\\
35	0.0206190941704396\\
36	0.0193877726649002\\
37	0.0183006807256663\\
38	0.0173329207549748\\
39	0.016465211935799\\
40	0.0156823459816501\\
41	0.0149721364414517\\
42	0.0143246843629073\\
43	0.0137318527665838\\
44	0.0131868826449622\\
45	0.0126841071808284\\
46	0.0122187355837443\\
47	0.0117866872087634\\
48	0.0113844626077037\\
49	0.0110090421200206\\
50	0.0106578052804057\\
51	0\\
52	0\\
53	0\\
54	0\\
55	0\\
56	0\\
57	0\\
58	0\\
59	0\\
60	0\\
61	0\\
62	0\\
63	0\\
64	0\\
65	0\\
66	0\\
67	0\\
68	0\\
69	0\\
70	0\\
71	0\\
72	0\\
73	0\\
74	0\\
75	0\\
76	0\\
77	0\\
78	0\\
79	0\\
80	0\\
81	0\\
82	0\\
83	0\\
84	0\\
85	0\\
86	0\\
87	0\\
88	0\\
89	0\\
90	0\\
91	0\\
92	0\\
93	0\\
94	0\\
95	0\\
96	0\\
97	0\\
98	0\\
99	0\\
100	0\\
101	0\\
102	0\\
103	0\\
104	0\\
105	0\\
106	0\\
107	0\\
108	0\\
109	0\\
110	0\\
111	0\\
112	0\\
113	0\\
114	0\\
115	0\\
116	0\\
117	0\\
118	0\\
119	0\\
120	0\\
121	0\\
122	0\\
123	0\\
124	0\\
125	0\\
126	0\\
127	0\\
128	0\\
129	0\\
130	0\\
131	0\\
132	0\\
133	0\\
134	0\\
135	0\\
136	0\\
137	0\\
138	0\\
139	0\\
140	0\\
141	0\\
142	0\\
143	0\\
144	0\\
145	0\\
146	0\\
147	0\\
148	0\\
149	0\\
150	0\\
};
\addlegendentry{$\mathbf{h_{2}}$}

\end{axis}

\begin{axis}[%
width=1.935in,
height=3.2in,
at={(3.327in,0.512in)},
scale only axis,
xmin=0,
xmax=150,
xlabel style={font=\color{white!15!black}, align=center},
xlabel={Sample Index\\[1ex](b) Estimated},
ymin=0,
ymax=0.3,
axis background/.style={fill=white},
legend style={legend cell align=left, align=left, draw=white!15!black}
]
\addplot [color=mycolor1]
  table[row sep=crcr]{%
0	0.0580554456715495\\
1	0.127322789296323\\
2	0.0680188331985843\\
3	0.0859633972993975\\
4	1.80492098830675e-05\\
5	0.0847526124794892\\
6	0.155544507463342\\
7	2.67106746568191e-05\\
8	0.021148343547402\\
9	0.174480312999209\\
10	0.112599990032527\\
11	0.116654118362906\\
12	0.0799371303460916\\
13	0.0684033636216311\\
14	1.35961416951932e-05\\
15	0.0393289881516629\\
16	0.0652989734829122\\
17	0.0189211807484054\\
18	0.0631815878320582\\
19	0.0453163980499449\\
20	0.0469383249200405\\
21	0.0945692056228916\\
22	0.0394755240797732\\
23	1.21170962962159e-05\\
24	0.0223999967098781\\
25	0.059695451251794\\
26	0.0932993776845326\\
27	0.0586119445091451\\
28	0.0356261085793009\\
29	0.0360045060555526\\
30	0.111231097476754\\
31	0.0621270659556487\\
32	0.0421328741508103\\
33	0.0825175118883157\\
34	0.0497688156248727\\
35	0.00728965006519089\\
36	0.0815502241046139\\
37	0.0993276847987376\\
38	0.0066436487591067\\
39	0.00562880951645324\\
40	0.0255853299854201\\
41	0.21565310872701\\
42	3.24588526035938e-05\\
43	0.00556323419570301\\
44	0.0456473822206517\\
45	0.00223202921797739\\
46	0.103709006489042\\
47	0.0967196033461328\\
48	0.0084786459440174\\
49	0.0336649277843613\\
50	0.0812380959266312\\
51	0.0904020346332032\\
52	0.0183435648681837\\
53	0.0630368847052643\\
54	0.030399811013832\\
55	0.0147838027214564\\
56	0.0729697262962278\\
57	0.0275265644214369\\
58	0.026828827041796\\
59	0.0479899145610831\\
60	0.101261031566421\\
61	0.0559587198029719\\
62	0.118328072455558\\
63	0.118812644780362\\
64	0.073452486575604\\
65	0.0368763100501979\\
66	0.0523076007507724\\
67	0.10249517387049\\
68	0.0549827186808314\\
69	0.109698491153101\\
70	0.0336539976581946\\
71	0.096817557390481\\
72	0.193916385521104\\
73	0.0520321154652853\\
74	2.84226655996346e-05\\
75	0.044521811272773\\
76	0.0440618919004944\\
77	0.0766637448617602\\
78	0.0366830195736558\\
79	0.0962579947951314\\
80	0.0408601160492923\\
81	0.138048621938219\\
82	0.0578083382860255\\
83	0.152031766053321\\
84	0.104085940091065\\
85	0.0767304999705875\\
86	0.0592171920430436\\
87	0.062878795889568\\
88	0.0386212119964123\\
89	0.00949403940168089\\
90	0.0565921284897074\\
91	0.0838457876804644\\
92	0.17257075336969\\
93	0.117229613126064\\
94	0.108006113813714\\
95	0.042626408817089\\
96	0.0658181759755702\\
97	0.0603680884944438\\
98	0.0810604844956121\\
99	0.127010119028927\\
100	0.0731995118840134\\
101	0.0647719356906701\\
102	0.0720604107177688\\
103	0.0606190180247832\\
104	0.112966590861336\\
105	0.0640068634145149\\
106	0.0490195257223123\\
107	0.025599308053252\\
108	0.122347765418433\\
109	0.00130688092122382\\
110	0.00322539303149429\\
111	0.141073842297651\\
112	0.077358280449796\\
113	0.0708799422400852\\
114	0.046051377473059\\
115	0.0813616306144312\\
116	0.0392219616871726\\
117	0.13505851742766\\
118	0.104384520296059\\
119	1.42167400353409e-05\\
120	0.0871014941152456\\
121	0.0333387007125458\\
122	0.10339168963223\\
123	0.061811930323992\\
124	0.0769171526284748\\
125	0.0315882451353537\\
126	0.00628913534829907\\
127	0.0479973063856692\\
128	0.150501844450555\\
129	0.0554893904864324\\
130	0.161608911663304\\
131	0.0592856396049319\\
132	0.0792725045420663\\
133	0.0398372720222462\\
134	0.000385497509221821\\
135	0.0256598635444884\\
136	0.0045580712237538\\
137	0.170604303379795\\
138	0.0511348277234475\\
139	0.116443375078755\\
140	0.10803265163704\\
141	0.0667606196978989\\
142	0.178516511871619\\
143	0.0960590405803924\\
144	0.0140628472769115\\
145	0.0744393410945886\\
146	0.00523273403951878\\
147	0.148051257918569\\
148	0.108696100793562\\
149	0.0234068234714011\\
};
\addlegendentry{$\mathbf{\hat{h}_{1}}$}

\addplot [color=mycolor2]
  table[row sep=crcr]{%
0	0.0484191212725948\\
1	0.0293551020232233\\
2	0.0394718525292951\\
3	0.0936793268951725\\
4	0.032791078715988\\
5	0.0406582795370175\\
6	0.0512249729357083\\
7	0.0167478406724633\\
8	0.00657006239839126\\
9	0.115741758328003\\
10	0.127570000667116\\
11	0.115320391900717\\
12	0.0258830700250099\\
13	0.0986031768114566\\
14	0.0541244628340386\\
15	0.142452590082251\\
16	0.0479789501759144\\
17	0.0690809599386554\\
18	0.12293222074748\\
19	0.0651615755461633\\
20	0.054692922519925\\
21	0.10417164305327\\
22	0.0653446601672897\\
23	0.0244976250258706\\
24	0.028447247115608\\
25	0.146889439105717\\
26	0.00566133933627223\\
27	0.0225884374558801\\
28	1.37032324480253e-05\\
29	0.0161718858833999\\
30	0.0383632178091096\\
31	0.0745212464576934\\
32	0.00413648180396798\\
33	0.0511017365653731\\
34	0.0568704227658832\\
35	0.0299863744847836\\
36	0.0613286462966782\\
37	0.0855810951235465\\
38	0.0646192749238173\\
39	0.011991065252491\\
40	0.0488675396874498\\
41	0.0492271880113749\\
42	0.128553642425869\\
43	0.0651826808146555\\
44	0.0790020308469887\\
45	0.148108239404416\\
46	0.0708681743371913\\
47	0.0465713210789517\\
48	0.0581322346602717\\
49	0.0444071904530307\\
50	0.0811011505101655\\
51	0.0220430163375059\\
52	0.00338766480426587\\
53	0.116182577934484\\
54	0.145097050568526\\
55	0.0475905168377482\\
56	0.0230476746743064\\
57	0.105460553229724\\
58	0.126171597528787\\
59	0.132710771758612\\
60	0.0948218730420799\\
61	0.0527940325969829\\
62	0.0354562705585181\\
63	0.0367279579311524\\
64	0.131550906418653\\
65	0.116327713176069\\
66	0.0381363490360936\\
67	0.149456992812952\\
68	0.0416017407748785\\
69	0.0707876907085584\\
70	0.0407877132059755\\
71	0.0385628808675185\\
72	0.115795642094982\\
73	0.0605115916978551\\
74	0.089506798449754\\
75	0.115027683189301\\
76	0.0158883266436287\\
77	0.143981731525126\\
78	0.0595625660937362\\
79	0.0234751813334736\\
80	0.0602321253161796\\
81	0.101843938123317\\
82	0.0420547972638544\\
83	0.0206219527987301\\
84	0.0455593920803623\\
85	0.197011218283263\\
86	0.0568591677582203\\
87	0.0493759263445672\\
88	0.0602305257471766\\
89	0.0268850559379122\\
90	0.0742165675017712\\
91	0.115021128741144\\
92	0.273045955925608\\
93	0.112895008039689\\
94	0.0500325361951747\\
95	0.0351546865517158\\
96	0.0176062486429759\\
97	0.17933402609104\\
98	0.12765278592286\\
99	0.0065805866943359\\
100	0.141443492914134\\
101	0.0164455631043523\\
102	0.0423854656077886\\
103	0.0591745610468546\\
104	0.0844927536119511\\
105	0.0173597165936883\\
106	0.0871895430270582\\
107	0.0110548055547105\\
108	0.145088942561233\\
109	0.120688826878487\\
110	0.0491212911008469\\
111	0.00705644573678523\\
112	0.0774612503647787\\
113	0.0401630293340656\\
114	0.142989974807566\\
115	0.0152601562412019\\
116	0.0740079801389373\\
117	0.0600758035004407\\
118	0.0118762059723046\\
119	0.00716925091155648\\
120	0.00864661341992579\\
121	0.000934434400041588\\
122	0.0505632963235187\\
123	0.0385624914339525\\
124	0.165408133717787\\
125	0.0529291120375219\\
126	0.145138580677534\\
127	0.149918739906655\\
128	0.110280681712072\\
129	0.0709165835915257\\
130	0.097733273681092\\
131	0.0214276715860038\\
132	0.0453165657965477\\
133	0.0340024827234586\\
134	0.0964272913246508\\
135	0.0401215637580558\\
136	0.0103845727646883\\
137	0.0403419148875918\\
138	0.0330992820264528\\
139	0.110249198882048\\
140	0.0879266162912684\\
141	0.0195005041425193\\
142	0.0222443658457422\\
143	0.0607109082985986\\
144	1.90060543127107e-05\\
145	0.0324269215552027\\
146	0.0454296957625436\\
147	0.0616995508889785\\
148	0.0210398373861515\\
149	0.11456951324251\\
};
\addlegendentry{$\mathbf{\hat{h}_{2}}$}

\end{axis}
\end{tikzpicture}%