% This file was created by matlab2tikz.
%
%The latest updates can be retrieved from
%  http://www.mathworks.com/matlabcentral/fileexchange/22022-matlab2tikz-matlab2tikz
%where you can also make suggestions and rate matlab2tikz.
%
\definecolor{mycolor1}{rgb}{0.00000,0.44700,0.74100}%
\definecolor{mycolor2}{rgb}{0.85000,0.32500,0.09800}%
%
\begin{tikzpicture}

\begin{axis}[%
width=1.935in,
height=3.2in,
at={(0.758in,0.512in)},
scale only axis,
xmin=0,
xmax=150,
xlabel style={font=\color{white!15!black}, align=center},
xlabel={Sample Index\\[1ex](a) Actual},
ymin=0,
ymax=0.7,
axis background/.style={fill=white},
legend style={legend cell align=left, align=left, draw=white!15!black}
]
\addplot [color=mycolor1]
  table[row sep=crcr]{%
1	0.0234657806037261\\
2	0.0272334504034075\\
3	0.0326864300765018\\
4	0.0414541482980318\\
5	0.0586677033458464\\
6	0.117843438362983\\
7	0.159969331461504\\
8	0.174397116945152\\
9	0.616552810702634\\
10	0.0882137642931462\\
11	0.0472681903124796\\
12	0.0327587509505929\\
13	0.0272256709659274\\
14	0.0412344622245766\\
15	0.0186762848129325\\
16	0.0451940046978057\\
17	0.0153724087875252\\
18	0.0239672675363248\\
19	0.0400285717874473\\
20	0.0828333966509162\\
21	0.557624977131952\\
22	0.149414784250917\\
23	0.109138078132702\\
24	0.0381681231028791\\
25	0.032799759178118\\
26	0.191519461959093\\
27	0.0734580287558902\\
28	0.0358315656953253\\
29	0.0179563195827385\\
30	0.0169149242156914\\
31	0.0179798517146348\\
32	0.0199431506445131\\
33	0.0279225394655299\\
34	0.0908594243819801\\
35	0.0439964246924232\\
36	0.330890477505262\\
37	0.037800506563543\\
38	0.020261933748638\\
39	0.0138181229977315\\
40	0.0211497159554441\\
41	0.0112042208144458\\
42	0.00964538908702694\\
43	0.00864780826327016\\
44	0.00787736374270682\\
45	0.00720180133294831\\
46	0.00651453200193765\\
47	0.00565492088107664\\
48	0.0112814316241706\\
49	0.0075966567083061\\
50	0.0102713040739602\\
51	0.00787142060243747\\
52	0.00711780022683946\\
53	0.00668443537322835\\
54	0.00638223966522588\\
55	0.00615487020840034\\
56	0.00598242225636516\\
57	0.00586293416152974\\
58	0.00581626175933958\\
59	0.00593494184987807\\
60	0.00707647204853056\\
61	0.00861312572402681\\
62	0.00240649054353041\\
63	0.0036902508247688\\
64	0.0040125763148678\\
65	0.00408542983582614\\
66	0.00408934467211144\\
67	0.00406760360864643\\
68	0.00403657730104579\\
69	0.00400486664899167\\
70	0.00397913876457006\\
71	0.00396763365360209\\
72	0.00398577860522856\\
73	0.00407460869510253\\
74	0.00440882178496405\\
75	0.00852319154542653\\
76	0.00211982859547221\\
77	0.00279674481878385\\
78	0.00295234209521732\\
79	0.00299967450324673\\
80	0.00300734384297471\\
81	0.00299658049652506\\
82	0.00297609501762909\\
83	0.00295010695632826\\
84	0.00292089738309008\\
85	0.00288979839106794\\
86	0.00285763293534116\\
87	0.00282493110979805\\
88	0.00279204510261472\\
89	0.00275921420187501\\
90	0.00272660345813555\\
91	0.00269432766245323\\
92	0.00266246675038502\\
93	0.00263107599882434\\
94	0.00260019295165966\\
95	0.00256984222925479\\
96	0.00254003893333548\\
97	0.0025107910982644\\
98	0.00248210148178531\\
99	0.00245396889001376\\
100	0.00242638916874131\\
101	0.00239935595223708\\
102	0.00237286123354156\\
103	0.00234689580183488\\
104	0.00232144957979209\\
105	0.00229651188498403\\
106	0.00227207163310714\\
107	0.0022481174963278\\
108	0.00222463802675857\\
109	0.00220162175268604\\
110	0.00217905725339276\\
111	0.0021569332170867\\
112	0.00213523848544673\\
113	0.00211396208753109\\
114	0.00209309326520902\\
115	0.00207262149182518\\
116	0.00205253648545491\\
117	0.00203282821783402\\
118	0.00201348691983224\\
119	0.00199450308416773\\
120	0.00197586746592614\\
121	0.00195757108133911\\
122	0.0019396052051902\\
123	0.0019219613671484\\
124	0.00190463134727109\\
125	0.00188760717087541\\
126	0.00187088110293773\\
127	0.00185444564215264\\
128	0.0018382935147574\\
129	0.00182241766820821\\
130	0.00180681126477794\\
131	0.00179146767513212\\
132	0.00177638047192757\\
133	0.00176154342347035\\
134	0.00174695048746156\\
135	0.0017325958048528\\
136	0.00171847369382931\\
137	0.00170457864393352\\
138	0.0016909053103386\\
139	0.00167744850827835\\
140	0.00166420320763913\\
141	0.00165116452771496\\
142	0.00163832773212761\\
143	0.00162568822391149\\
144	0.00161324154076111\\
145	0.0016009833504405\\
146	0.00158890944635072\\
147	0.00157701574325256\\
148	0.00156529827314105\\
149	0\\
150	0\\
};
\addlegendentry{$\mathbf{h_1}$}

\addplot [color=mycolor2]
  table[row sep=crcr]{%
1	0.019775303219206\\
2	0.0210217764534023\\
3	0.0224372323963497\\
4	0.024058742711813\\
5	0.0259351263737046\\
6	0.0281320174688059\\
7	0.0307398096072034\\
8	0.0338865833958781\\
9	0.0377600935275399\\
10	0.0426472101764649\\
11	0.0490094599986528\\
12	0.0576401827385178\\
13	0.0700288298559564\\
14	0.0893407156606893\\
15	0.123700774100431\\
16	0.202175033398071\\
17	0.564479813098353\\
18	0.690442426104836\\
19	0.212260509632627\\
20	0.126132345068284\\
21	0.100380135781766\\
22	0.0378663697499036\\
23	0.0333199748773482\\
24	0.0149453064107011\\
25	0.10083899339379\\
26	0.161002397050911\\
27	0.0405118251764787\\
28	0.0383644765554957\\
29	0.0341227495803863\\
30	0.0306469105251072\\
31	0.0278570926171954\\
32	0.0255709383506331\\
33	0.0236574529195357\\
34	0.0220274984760589\\
35	0.0206190941704396\\
36	0.0193877726649002\\
37	0.0183006807256663\\
38	0.0173329207549748\\
39	0.016465211935799\\
40	0.0156823459816501\\
41	0.0149721364414517\\
42	0.0143246843629073\\
43	0.0137318527665838\\
44	0.0131868826449622\\
45	0.0126841071808284\\
46	0.0122187355837443\\
47	0.0117866872087634\\
48	0.0113844626077037\\
49	0.0110090421200206\\
50	0.0106578052804057\\
51	0\\
52	0\\
53	0\\
54	0\\
55	0\\
56	0\\
57	0\\
58	0\\
59	0\\
60	0\\
61	0\\
62	0\\
63	0\\
64	0\\
65	0\\
66	0\\
67	0\\
68	0\\
69	0\\
70	0\\
71	0\\
72	0\\
73	0\\
74	0\\
75	0\\
76	0\\
77	0\\
78	0\\
79	0\\
80	0\\
81	0\\
82	0\\
83	0\\
84	0\\
85	0\\
86	0\\
87	0\\
88	0\\
89	0\\
90	0\\
91	0\\
92	0\\
93	0\\
94	0\\
95	0\\
96	0\\
97	0\\
98	0\\
99	0\\
100	0\\
101	0\\
102	0\\
103	0\\
104	0\\
105	0\\
106	0\\
107	0\\
108	0\\
109	0\\
110	0\\
111	0\\
112	0\\
113	0\\
114	0\\
115	0\\
116	0\\
117	0\\
118	0\\
119	0\\
120	0\\
121	0\\
122	0\\
123	0\\
124	0\\
125	0\\
126	0\\
127	0\\
128	0\\
129	0\\
130	0\\
131	0\\
132	0\\
133	0\\
134	0\\
135	0\\
136	0\\
137	0\\
138	0\\
139	0\\
140	0\\
141	0\\
142	0\\
143	0\\
144	0\\
145	0\\
146	0\\
147	0\\
148	0\\
149	0\\
150	0\\
};
\addlegendentry{$\mathbf{h_{2}}$}

\end{axis}

\begin{axis}[%
width=1.935in,
height=3.2in,
at={(3.327in,0.512in)},
scale only axis,
xmin=0,
xmax=150,
xlabel style={font=\color{white!15!black}, align=center},
xlabel={Sample Index\\[1ex](b) Estimated},
ymin=0,
ymax=1,
axis background/.style={fill=white},
legend style={legend cell align=left, align=left, draw=white!15!black}
]
\addplot [color=mycolor1]
  table[row sep=crcr]{%
0	5.7901404914184e-05\\
1	1.17176775789718e-05\\
2	3.9013252390564e-05\\
3	3.66007703780282e-05\\
4	0.000139813453599519\\
5	3.62226366668695e-05\\
6	3.45117387048353e-05\\
7	4.89592473303869e-05\\
8	0.000107492469397128\\
9	3.37025241135151e-05\\
10	4.11985797884534e-05\\
11	9.78629422823342e-05\\
12	4.71553520240084e-05\\
13	3.05352845782221e-05\\
14	4.17843703804304e-05\\
15	8.35029033539831e-05\\
16	9.0297249289614e-06\\
17	5.02882523345941e-05\\
18	0.000180394134577171\\
19	1.99367940369382e-05\\
20	5.4672704076131e-05\\
21	6.41881277217612e-05\\
22	0.000100282723358301\\
23	2.08663039838717e-05\\
24	8.94885930967897e-05\\
25	3.15463051978475e-05\\
26	4.80295856641131e-05\\
27	4.96796901600891e-05\\
28	7.35727388317978e-05\\
29	5.71438705549897e-05\\
30	7.10524719608234e-05\\
31	2.03309424941497e-05\\
32	5.98979679732855e-05\\
33	9.65297602548097e-05\\
34	3.81942681901511e-05\\
35	3.24354982891827e-05\\
36	2.03898584149783e-05\\
37	0.000405354252346495\\
38	0.00574546344722318\\
39	0.00369215449090624\\
40	6.10730884585218e-05\\
41	0.000811507004685404\\
42	0.000170714262414853\\
43	0.000656028501713091\\
44	0.00108347669468062\\
45	0.00134860971319784\\
46	9.66422369418247e-05\\
47	0.00151088090365764\\
48	0.00598064778886413\\
49	0.000826341649879526\\
50	0.0151942881547007\\
51	0.0465488500207518\\
52	0.0134250645403756\\
53	0.00293111751706374\\
54	0.031121572952692\\
55	7.61169995723525e-05\\
56	0.0137351612915501\\
57	0.11328988904289\\
58	0.0312507829701719\\
59	0.0241790524324418\\
60	0.0274687932191748\\
61	0.0150638283315886\\
62	0.0382415415035819\\
63	0.154029933699362\\
64	0.0241755738107045\\
65	0.495877566415143\\
66	0.410062300158757\\
67	0.10284375551199\\
68	0.0708372296064274\\
69	0.0330829591218035\\
70	0.107294853348166\\
71	0.0217316714981359\\
72	0.0463200863628066\\
73	0.0029165181025702\\
74	0.0676812649296369\\
75	0.0710177465692774\\
76	0.102259074679794\\
77	0.261128045789239\\
78	0.48837623739919\\
79	0.179587331273773\\
80	0.0514030730137113\\
81	0.0668639987738408\\
82	0.105452163694065\\
83	0.0874185853443114\\
84	0.107784531347325\\
85	0.0100974761374077\\
86	0.0210262627133453\\
87	0.0198565085872519\\
88	0.0125443864073302\\
89	0.0288723424081209\\
90	0.0821081723726905\\
91	0.0996777110085423\\
92	0.287176980399714\\
93	0.0988717863504205\\
94	0.025699037010286\\
95	0.0295352983473176\\
96	0.00422770584384142\\
97	7.6160537093734e-05\\
98	7.5018363092648e-05\\
99	0.000293439076317581\\
100	0.00880744207156561\\
101	4.12168389596968e-05\\
102	0.000214152744844955\\
103	0.00799660623423747\\
104	0.0298951497538731\\
105	0.0113552458029863\\
106	6.03337976669393e-05\\
107	0.00696450404523605\\
108	9.24331867410558e-05\\
109	0.000154558262371065\\
110	4.93251185583944e-05\\
111	1.52167533931915e-05\\
112	9.1203694081579e-05\\
113	7.91252710983014e-05\\
114	5.72658490685066e-05\\
115	4.00838197794819e-05\\
116	4.98283154182316e-05\\
117	0.00151986838326352\\
118	0.000111230199291352\\
119	0.000125381039465378\\
120	4.96116243465563e-05\\
121	7.24489129850809e-05\\
122	2.9261255872177e-05\\
123	2.18877522368707e-05\\
124	1.72469708816413e-05\\
125	8.40202466889841e-05\\
126	4.48323802464181e-05\\
127	0.000125597140294791\\
128	5.13240283923673e-05\\
129	8.38477182638406e-05\\
130	4.05422300971493e-05\\
131	3.79491713486818e-05\\
132	4.08431869299313e-05\\
133	8.75645719966252e-06\\
134	4.06686864202315e-05\\
135	6.82271310976172e-05\\
136	5.50334344551082e-05\\
137	2.82694553275924e-05\\
138	8.73664903873476e-05\\
139	4.3027174596787e-05\\
140	3.39407870555796e-05\\
141	8.24723530311679e-05\\
142	2.97205305165559e-05\\
143	5.77572603496558e-05\\
144	7.45382739242481e-05\\
145	0.000107695307386344\\
146	2.23553432988883e-05\\
147	8.80700253155717e-05\\
148	3.33134753006508e-05\\
149	3.72653151453948e-05\\
};
\addlegendentry{$\mathbf{\hat{h}_{1}}$}

\addplot [color=mycolor2]
  table[row sep=crcr]{%
0	1.08117651838085e-05\\
1	3.28463100569056e-05\\
2	6.86932833841335e-06\\
3	2.39562070474974e-05\\
4	2.54680491298822e-05\\
5	2.72396662379475e-05\\
6	1.4864316520123e-05\\
7	2.89292144563762e-05\\
8	6.0657229863734e-06\\
9	7.12070162264683e-06\\
10	2.73875853861196e-05\\
11	3.48113577678471e-06\\
12	2.19943526165085e-05\\
13	1.67544583700727e-05\\
14	2.60179728219808e-05\\
15	1.93657761504312e-05\\
16	1.67278785576085e-05\\
17	3.36119129273686e-05\\
18	5.13702124655931e-05\\
19	2.85734047991508e-06\\
20	3.59403029979611e-05\\
21	1.58842368056669e-05\\
22	2.71547789138515e-05\\
23	1.24849381639001e-05\\
24	2.59590340610708e-05\\
25	1.61406068059451e-05\\
26	1.19233148470442e-05\\
27	5.44940990430156e-05\\
28	2.64737104410416e-05\\
29	4.15778822377908e-05\\
30	7.77279208153206e-05\\
31	3.02315164092114e-05\\
32	0.00066409185702579\\
33	0.0020188555033666\\
34	0.000806508881623391\\
35	0.00211303929578849\\
36	2.55095390878377e-05\\
37	0.000336383330847861\\
38	5.82113040459637e-05\\
39	3.82525815197184e-05\\
40	0.000435429775437025\\
41	0.000325701996200145\\
42	0.0027574668784727\\
43	4.73360696836448e-05\\
44	0.000237875370769514\\
45	0.0117206458115532\\
46	0.00614198979999087\\
47	0.0430214552150195\\
48	0.00671664057682599\\
49	0.0167895923119801\\
50	0.00770095971993561\\
51	0.00351163010594437\\
52	1.05261644530352e-05\\
53	0.00146286924885837\\
54	0.00577111351084084\\
55	0.00645961944569682\\
56	0.00404959116656805\\
57	0.0223433492666626\\
58	0.0124958745433918\\
59	0.0484298114798707\\
60	0.0280919187504195\\
61	0.0352109169240665\\
62	0.0955502049316645\\
63	0.0146084025426153\\
64	0.0213930551530806\\
65	0.00358129148843675\\
66	0.00602478580874843\\
67	0.0116686770512154\\
68	0.0102286050783956\\
69	0.00769700129829865\\
70	0.00847121072990966\\
71	0.0202350908526301\\
72	0.0282750712446569\\
73	0.0246165970444284\\
74	0.980196537476136\\
75	0.024461392839134\\
76	0.0277110013844277\\
77	0.019562235041756\\
78	0.00911007756170149\\
79	0.00870171720990777\\
80	0.0108088844256684\\
81	0.0118359876670835\\
82	0.00699771573704927\\
83	0.00431224103645454\\
84	0.020553298127506\\
85	0.0147059117882952\\
86	0.0949376224064629\\
87	0.0356266276495408\\
88	0.0275368317869554\\
89	0.0492478979507739\\
90	0.0125764776881993\\
91	0.0229639578429653\\
92	0.00425211913189285\\
93	0.00725062117065063\\
94	0.00527039184309124\\
95	0.0011661840169294\\
96	7.18313684108948e-06\\
97	0.00330475204784727\\
98	0.00737717556948927\\
99	0.01660843082958\\
100	0.00639615100497726\\
101	0.043861240670721\\
102	0.00600229570983966\\
103	0.0115076252681595\\
104	0.000728418196635688\\
105	5.34974840118768e-05\\
106	0.00249497656528398\\
107	0.00040510193691126\\
108	0.000608500679154815\\
109	3.84377608075125e-05\\
110	8.20179127371551e-05\\
111	0.000302419790544904\\
112	1.58172259632803e-05\\
113	0.00180369284529718\\
114	0.000479573639282185\\
115	0.00184870520675043\\
116	0.00121497749144612\\
117	1.06203287327604e-05\\
118	2.82066155223047e-05\\
119	3.8469536357944e-05\\
120	2.05262426441513e-05\\
121	5.10943440332788e-05\\
122	1.00884401894483e-05\\
123	1.63585306251475e-05\\
124	1.28823373458364e-05\\
125	1.20017324005143e-05\\
126	6.27865012807804e-05\\
127	3.45448832090805e-05\\
128	2.74463428670429e-05\\
129	2.99346331631258e-06\\
130	6.54534542266773e-05\\
131	3.36559651885219e-05\\
132	1.06984674691262e-05\\
133	2.401308439832e-05\\
134	2.44805488989999e-05\\
135	1.5952680040323e-05\\
136	2.75853497958066e-05\\
137	6.52433872446124e-06\\
138	3.40393776249371e-05\\
139	2.3958925601339e-05\\
140	2.06016923593207e-05\\
141	2.33995888721352e-05\\
142	2.8968660768434e-05\\
143	2.38892629766989e-05\\
144	3.92314119934021e-05\\
145	2.82612144281616e-05\\
146	1.85123056002751e-06\\
147	3.16090745576027e-05\\
148	1.1985422016767e-05\\
149	2.25228284195305e-05\\
};
\addlegendentry{$\mathbf{\hat{h}_{2}}$}

\end{axis}
\end{tikzpicture}%