% This file was created by matlab2tikz.
%
%The latest updates can be retrieved from
%  http://www.mathworks.com/matlabcentral/fileexchange/22022-matlab2tikz-matlab2tikz
%where you can also make suggestions and rate matlab2tikz.
%
\definecolor{mycolor1}{rgb}{0.00000,0.44700,0.74100}%
\definecolor{mycolor2}{rgb}{0.85000,0.32500,0.09800}%
%
\begin{tikzpicture}

\begin{axis}[%
width=1.935in,
height=3.2in,
at={(0.758in,0.512in)},
scale only axis,
xmin=0,
xmax=150,
xlabel style={font=\color{white!15!black}, align=center},
xlabel={Sample Index\\[1ex](a) Actual},
ymin=0,
ymax=0.8,
axis background/.style={fill=white},
legend style={legend cell align=left, align=left, draw=white!15!black}
]
\addplot [color=mycolor1]
  table[row sep=crcr]{%
1	0.0151830319933043\\
2	0.0185496696438093\\
3	0.023502065016884\\
4	0.0315038869286449\\
5	0.0469062512391942\\
6	0.0954908680191146\\
7	0.0858266491267274\\
8	0.265807368316819\\
9	0.796648883752005\\
10	0.216493826260265\\
11	0.0878556377176694\\
12	0.07193222497443\\
13	0.105696480077463\\
14	0.149868327351951\\
15	0.0510921191197441\\
16	0.152868392263622\\
17	0.048017719918991\\
18	0.0109949328175406\\
19	0.0126732962157991\\
20	0.0175843103691614\\
21	0.0258891023896794\\
22	0.171301952341992\\
23	0.1212921102575\\
24	0.0235386564372659\\
25	0.00858129954461538\\
26	0.133991438537226\\
27	0.17851624212042\\
28	0.0777373619575687\\
29	0.110031729625206\\
30	0.00959913684727289\\
31	0.0101692934073309\\
32	0.0218927776733185\\
33	0.0485547145239866\\
34	0.028524787741674\\
35	0.0931132420825283\\
36	0.0761344452933766\\
37	0.0369812132104379\\
38	0.0270699566667011\\
39	0.026458256765523\\
40	0.0700820910745542\\
41	0.00787266021999488\\
42	0.00768771367639978\\
43	0.00738222171836111\\
44	0.00713402148494006\\
45	0.00716369066636382\\
46	0.00788882227497034\\
47	0.0112512475897253\\
48	0.0626689062200538\\
49	0.0427206763331481\\
50	0.00951578480873744\\
51	0.00243896181448075\\
52	0.0015691552028362\\
53	0.00146457511195334\\
54	0.00155057599858872\\
55	0.0017720937565566\\
56	0.00217432997301489\\
57	0.00286457318035984\\
58	0.00410346836174264\\
59	0.00676291579585115\\
60	0.0170053910864941\\
61	0.0301833155479945\\
62	0.0511202697583185\\
63	0.0105005975636433\\
64	0.00640544843735559\\
65	0.00470250391841775\\
66	0.00371961016971575\\
67	0.00305007107550002\\
68	0.00254202566702992\\
69	0.00212653652112194\\
70	0.0017767046983006\\
71	0.00152001410442311\\
72	0.00153304600268641\\
73	0.00230867360183963\\
74	0.00526136383537744\\
75	0.038333522890848\\
76	0.0121668181991512\\
77	0.00627619518067768\\
78	0.00457506177246321\\
79	0.00374737764088975\\
80	0.00324686636810371\\
81	0.00290502633566605\\
82	0.00265270743485525\\
83	0.00245624767322843\\
84	0.00229725334120465\\
85	0.0021647918883538\\
86	0.00205193428439391\\
87	0.00195406009034949\\
88	0.00186795865192442\\
89	0.00179132151185079\\
90	0.00172244056348044\\
91	0.00166002062260405\\
92	0.00160305868824092\\
93	0.00155076366110332\\
94	0.00150250147009903\\
95	0.00145775664490856\\
96	0.00141610482103629\\
97	0.00137719268617519\\
98	0.0013407230999277\\
99	0.00130644387932209\\
100	0.00127413922704226\\
101	0.00124362309491465\\
102	0.00121473398501049\\
103	0.00118733083279375\\
104	0.00116128971457897\\
105	0.00113650118998977\\
106	0.00111286813865705\\
107	0.00109030398529933\\
108	0.00106873123273224\\
109	0.00104808024105737\\
110	0.00102828820519932\\
111	0.00100929829342004\\
112	0.000991058917376328\\
113	0.000973523110361595\\
114	0.000956647995060137\\
115	0.000940394325788187\\
116	0.00092472609305463\\
117	0.000909610180527103\\
118	0.000895016066279295\\
119	0.000880915561628906\\
120	0.000867282582022485\\
121	0.000854092945356868\\
122	0.000841324193880593\\
123	0.000828955436438686\\
124	0.000816967208330094\\
125	0.000805341346466144\\
126	0.000794060877864884\\
127	0.000783109919805542\\
128	0.000772473590206662\\
129	0.000762137926996426\\
130	0.000752089815411914\\
131	0.000742316922307892\\
132	0.000732807636680009\\
133	0.000723551015708443\\
134	0.000714536735717782\\
135	0.000705755047526231\\
136	0.000697196735719498\\
137	0.000688853081443639\\
138	0.000680715828357098\\
139	0.000672777151427449\\
140	0.000665029628290027\\
141	0.000657466212923161\\
142	0.000650080211416905\\
143	0.000642865259640033\\
144	0.000635815302630011\\
145	0.000628924575548207\\
146	0.000622187586061679\\
147	0.000615599098024618\\
148	0.000609154116346598\\
149	0\\
150	0\\
};
\addlegendentry{$\mathbf{h_1}$}

\addplot [color=mycolor2]
  table[row sep=crcr]{%
1	0.0116283672604953\\
2	0.0123927463124993\\
3	0.0132649499786597\\
4	0.0142694730472227\\
5	0.0154388022064217\\
6	0.0168169460018562\\
7	0.0184650059045602\\
8	0.0204703044623656\\
9	0.0229620194387964\\
10	0.0261394268228958\\
11	0.030326372246617\\
12	0.0360853656003085\\
13	0.0444837647244236\\
14	0.0578138510431174\\
15	0.0820182949536605\\
16	0.138539152408166\\
17	0.40529101126893\\
18	0.531857257093217\\
19	0.183644612933698\\
20	0.136508722860241\\
21	0.200047586884045\\
22	0.106492504443086\\
23	0.0269767303978956\\
24	0.0384718138974967\\
25	0.247242183991229\\
26	0.550925101963883\\
27	0.195827754207156\\
28	0.0577902570880743\\
29	0.0334777071537313\\
30	0.0243597557761845\\
31	0.0197080234406676\\
32	0.0168717713396733\\
33	0.0149315700239635\\
34	0.0134968721772165\\
35	0.0123767429153913\\
36	0.0114674702329188\\
37	0.0107078852605367\\
38	0.0100594473104557\\
39	0.0094965290561411\\
40	0.00900131573338651\\
41	0.00856095738478305\\
42	0.00816589392182006\\
43	0.00780882485328738\\
44	0.00748405042307228\\
45	0.00718703568900882\\
46	0.00691411334689385\\
47	0.00666227571208106\\
48	0.00642902565379269\\
49	0.0062122675203184\\
50	0.00601022582354538\\
51	0\\
52	0\\
53	0\\
54	0\\
55	0\\
56	0\\
57	0\\
58	0\\
59	0\\
60	0\\
61	0\\
62	0\\
63	0\\
64	0\\
65	0\\
66	0\\
67	0\\
68	0\\
69	0\\
70	0\\
71	0\\
72	0\\
73	0\\
74	0\\
75	0\\
76	0\\
77	0\\
78	0\\
79	0\\
80	0\\
81	0\\
82	0\\
83	0\\
84	0\\
85	0\\
86	0\\
87	0\\
88	0\\
89	0\\
90	0\\
91	0\\
92	0\\
93	0\\
94	0\\
95	0\\
96	0\\
97	0\\
98	0\\
99	0\\
100	0\\
101	0\\
102	0\\
103	0\\
104	0\\
105	0\\
106	0\\
107	0\\
108	0\\
109	0\\
110	0\\
111	0\\
112	0\\
113	0\\
114	0\\
115	0\\
116	0\\
117	0\\
118	0\\
119	0\\
120	0\\
121	0\\
122	0\\
123	0\\
124	0\\
125	0\\
126	0\\
127	0\\
128	0\\
129	0\\
130	0\\
131	0\\
132	0\\
133	0\\
134	0\\
135	0\\
136	0\\
137	0\\
138	0\\
139	0\\
140	0\\
141	0\\
142	0\\
143	0\\
144	0\\
145	0\\
146	0\\
147	0\\
148	0\\
149	0\\
150	0\\
};
\addlegendentry{$\mathbf{h_{2}}$}

\end{axis}

\begin{axis}[%
width=1.935in,
height=3.2in,
at={(3.327in,0.512in)},
scale only axis,
xmin=0,
xmax=150,
xlabel style={font=\color{white!15!black}, align=center},
xlabel={Sample Index\\[1ex](b) Estimated},
ymin=0,
ymax=1,
axis background/.style={fill=white},
legend style={legend cell align=left, align=left, draw=white!15!black}
]
\addplot [color=mycolor1]
  table[row sep=crcr]{%
0	1.95164563351213e-05\\
1	2.65982836719152e-05\\
2	1.77116652362652e-05\\
3	9.91688978789749e-06\\
4	3.36289764670487e-06\\
5	2.98875312925489e-05\\
6	9.80858359154322e-06\\
7	2.25357213956244e-05\\
8	2.5022028512042e-05\\
9	1.52230416394646e-05\\
10	3.62963371515898e-05\\
11	2.99201418553991e-05\\
12	1.44244951020444e-05\\
13	2.77331615889389e-05\\
14	1.77926718966223e-05\\
15	1.46821794551931e-05\\
16	2.00954964035177e-05\\
17	9.04489669635563e-06\\
18	2.35430436084591e-05\\
19	3.53068723905699e-05\\
20	2.83036462017962e-05\\
21	1.59387013370509e-05\\
22	1.61210234402647e-05\\
23	2.58908734574269e-05\\
24	3.29154495636184e-05\\
25	1.27326203212427e-05\\
26	1.93522236416322e-05\\
27	1.90224849610523e-05\\
28	1.74365684665914e-05\\
29	2.53537774953727e-05\\
30	1.21716218482908e-05\\
31	5.0797414725565e-06\\
32	2.89649561986999e-05\\
33	6.64903004230664e-06\\
34	3.33942307300965e-05\\
35	3.51941152144072e-05\\
36	1.94289493868999e-05\\
37	0.00111461573807002\\
38	2.66905132416572e-05\\
39	5.33899783066452e-05\\
40	1.99028837068137e-05\\
41	3.48469966121173e-05\\
42	3.85082405007553e-05\\
43	7.98598355811141e-05\\
44	3.26124512709143e-05\\
45	3.00537652458288e-05\\
46	0.00170197053835938\\
47	0.0192957554490045\\
48	0.0369282322881006\\
49	0.0596134699571206\\
50	0.01494190008708\\
51	0.00126017758352859\\
52	0.00451445002573011\\
53	0.00850058989866073\\
54	0.014850132833591\\
55	0.0121853560702993\\
56	0.217457594901808\\
57	0.558404415751304\\
58	0.266761142288831\\
59	0.0119837725392164\\
60	0.015076697221039\\
61	0.0112296393301677\\
62	0.0635836513347256\\
63	0.100185432524213\\
64	0.060935382787648\\
65	0.480232187670475\\
66	0.359225757005981\\
67	0.213662052181863\\
68	0.107337036435844\\
69	0.0989635556877497\\
70	0.0866941069060247\\
71	0.111192566642455\\
72	0.0161536556019697\\
73	0.0845628730519899\\
74	0.0744933992406563\\
75	0.0811937228138649\\
76	0.0462187477843265\\
77	0.0745367342170826\\
78	0.0861036166732307\\
79	0.0728787134458198\\
80	0.00169227607954212\\
81	0.0702904331820922\\
82	0.0749590772826381\\
83	0.0363336327102619\\
84	0.119693221942839\\
85	0.1028267735156\\
86	0.0204795146674266\\
87	0.00887027455076195\\
88	0.0789117040762007\\
89	0.0294699298132409\\
90	0.0571439244258799\\
91	0.071820382019733\\
92	0.0680807005269109\\
93	7.3332756906057e-05\\
94	6.27863933298417e-06\\
95	0.00886824497535279\\
96	7.69092146904915e-06\\
97	0.0145122854566499\\
98	2.27211357160701e-05\\
99	0.00206995229752423\\
100	1.68835981426105e-05\\
101	0.00716593187924575\\
102	2.89199738898268e-05\\
103	2.88411471735011e-05\\
104	3.28200227020714e-05\\
105	0.0235417456335433\\
106	0.00763002335798728\\
107	4.0666221553459e-05\\
108	6.55703250190831e-06\\
109	0.00964369195469111\\
110	0.00584459633114036\\
111	1.211361672414e-05\\
112	2.16020485952442e-05\\
113	2.91144561755494e-05\\
114	2.08889456465366e-05\\
115	3.24324318812211e-05\\
116	7.89359889385128e-06\\
117	0.00928513112742341\\
118	0.0175447360439884\\
119	1.90951281920703e-05\\
120	6.58281745717724e-06\\
121	9.72867523581417e-06\\
122	2.92284680685365e-05\\
123	0.00238958882228137\\
124	2.09611156549468e-05\\
125	1.67463034213197e-05\\
126	2.81442104114111e-05\\
127	1.89968580657449e-05\\
128	2.14851812898101e-05\\
129	2.73185922865433e-05\\
130	4.40330801944708e-05\\
131	3.94156489791028e-05\\
132	0.00793273879934723\\
133	1.93267674777962e-05\\
134	1.57543139839949e-05\\
135	1.87898287239134e-05\\
136	8.41896431510774e-06\\
137	1.92213475923752e-05\\
138	3.00930882420085e-05\\
139	1.6629946513562e-06\\
140	1.77926208095606e-05\\
141	2.19725443716587e-05\\
142	3.07631172093771e-05\\
143	2.15364863929565e-05\\
144	1.38956768417958e-05\\
145	1.72320509165652e-05\\
146	1.62976377702899e-05\\
147	3.17224205643379e-05\\
148	2.8372679328275e-05\\
149	2.27631372668909e-05\\
};
\addlegendentry{$\mathbf{\hat{h}_{1}}$}

\addplot [color=mycolor2]
  table[row sep=crcr]{%
0	2.58918933170771e-05\\
1	1.84480771731439e-05\\
2	3.89670489222742e-06\\
3	9.03053759363614e-06\\
4	3.26408935935358e-05\\
5	2.91905022821006e-06\\
6	8.51596389126526e-06\\
7	4.7068070213692e-06\\
8	0.00055769877712398\\
9	1.32251546612826e-05\\
10	1.333917564411e-05\\
11	1.4066926195953e-05\\
12	9.86217880162531e-06\\
13	3.39475731612481e-06\\
14	2.59859108792468e-05\\
15	2.69940091984678e-06\\
16	1.03229935914038e-05\\
17	3.12917807366635e-05\\
18	5.84297131696836e-06\\
19	1.47330978827577e-05\\
20	9.58725229083092e-06\\
21	0.000905534020849412\\
22	0.00251536116184394\\
23	6.40774360433557e-06\\
24	3.2364978820649e-06\\
25	1.53097517100856e-05\\
26	7.08064141385137e-06\\
27	9.69988410745356e-06\\
28	1.12418713771419e-05\\
29	1.13815904208378e-05\\
30	2.06850095860568e-05\\
31	1.35545938898034e-05\\
32	7.89799050620088e-06\\
33	7.64886450903011e-06\\
34	0.0102854928250408\\
35	0.0140022610683497\\
36	4.30923656162391e-06\\
37	9.33960171569005e-06\\
38	5.56134305545335e-05\\
39	4.46017036644871e-05\\
40	1.40057550188006e-05\\
41	0.000887569337135506\\
42	1.55515349781618e-05\\
43	0.00755730448355805\\
44	0.00315464697570823\\
45	0.00148483789537794\\
46	0.00230134545406451\\
47	0.0122508693897125\\
48	0.0163493730693585\\
49	0.00508366573557084\\
50	0.00156373989558242\\
51	0.0012869235205242\\
52	0.00277724832201685\\
53	7.74626648200389e-06\\
54	0.0283325463988071\\
55	0.0330170877679117\\
56	0.0630332278504454\\
57	0.0348497837441643\\
58	1.52353020970208e-05\\
59	0.0231754800311384\\
60	0.0427166931490652\\
61	0.0371659853850501\\
62	0.0144702450922086\\
63	4.24063507216089e-06\\
64	2.60024180146779e-05\\
65	0.0384939977515573\\
66	0.0785565771060973\\
67	0.0377332668429585\\
68	0.00351278407188627\\
69	0.0601197115229852\\
70	0.0856729057661983\\
71	0.0289135086337587\\
72	0.0296092908869973\\
73	0.0908557290252991\\
74	0.956171152328132\\
75	0.0923114948888998\\
76	0.0278288262009904\\
77	0.0273409239149539\\
78	0.0866738590052504\\
79	0.0565103802944488\\
80	0.00264493869178887\\
81	0.0397229026560068\\
82	0.0789455339134881\\
83	0.0371863914998893\\
84	1.16772767766477e-05\\
85	3.73906208363924e-05\\
86	0.0136343733596714\\
87	0.0407193840031845\\
88	0.0452376125605031\\
89	0.0193737359247613\\
90	2.4941847667168e-05\\
91	0.0380539030158782\\
92	0.0665149678827666\\
93	0.0356136302281912\\
94	0.0325911385751072\\
95	6.56695162830278e-06\\
96	0.00423750889971117\\
97	0.00182120815848916\\
98	0.0034431289603891\\
99	0.0066270328025526\\
100	0.018744788202552\\
101	0.0161499285217671\\
102	0.0023967933617181\\
103	0.000223928143742415\\
104	0.00400341756322295\\
105	0.00974587587628421\\
106	1.73396175369785e-05\\
107	0.00162835664975455\\
108	0.000750646938082952\\
109	4.04629787463717e-05\\
110	0.00119565558939545\\
111	8.68065014720185e-07\\
112	6.69107666469673e-06\\
113	0.0174459553035437\\
114	0.0138926445411903\\
115	1.06205260824187e-05\\
116	1.08132053105698e-05\\
117	1.43697729188238e-05\\
118	1.86906389804649e-05\\
119	1.06870382097584e-05\\
120	1.69819555750366e-05\\
121	2.94097481321048e-06\\
122	2.02256612284226e-05\\
123	1.92514099432625e-05\\
124	7.35613308531452e-06\\
125	4.20231667064767e-06\\
126	0.00735240339095971\\
127	0.00589684825581137\\
128	6.24715097030347e-06\\
129	1.52327164923756e-05\\
130	2.0430943372342e-05\\
131	2.21398894852364e-05\\
132	7.38119531472523e-06\\
133	7.38261617927599e-06\\
134	2.65752752732014e-05\\
135	7.23370081156527e-06\\
136	1.91876816764269e-06\\
137	1.81570765962699e-05\\
138	1.80822126760176e-05\\
139	3.10161538282781e-06\\
140	0.00619622366849059\\
141	1.5741190302609e-05\\
142	1.71355810152868e-05\\
143	8.78405899526368e-06\\
144	1.76588728260602e-05\\
145	8.82278739601583e-06\\
146	9.59510842251929e-06\\
147	1.36363782699526e-05\\
148	9.50441180748812e-06\\
149	6.48230777932494e-06\\
};
\addlegendentry{$\mathbf{\hat{h}_{2}}$}

\end{axis}
\end{tikzpicture}%