% This file was created by matlab2tikz.
%
%The latest updates can be retrieved from
%  http://www.mathworks.com/matlabcentral/fileexchange/22022-matlab2tikz-matlab2tikz
%where you can also make suggestions and rate matlab2tikz.
%
\definecolor{mycolor1}{rgb}{0.00000,0.44700,0.74100}%
\definecolor{mycolor2}{rgb}{0.85000,0.32500,0.09800}%
%
\begin{tikzpicture}

\begin{axis}[%
width=1.935in,
height=3.2in,
at={(0.758in,0.512in)},
scale only axis,
xmin=0,
xmax=200,
xlabel style={font=\color{white!15!black}, align=center},
xlabel={Sample Index\\[1ex](a) Actual},
ymin=0,
ymax=0.8,
axis background/.style={fill=white},
legend style={legend cell align=left, align=left, draw=white!15!black}
]
\addplot [color=mycolor1]
  table[row sep=crcr]{%
1	0.0182020814388773\\
2	0.02012510100002\\
3	0.022545111927633\\
4	0.0257092221775269\\
5	0.0300926257860288\\
6	0.0368070113207646\\
7	0.0496139700658591\\
8	0.100781801849891\\
9	0.104249814301154\\
10	0.21590224856942\\
11	0.240903318316862\\
12	0.758685269567618\\
13	0.209267020187496\\
14	0.0771785197863095\\
15	0.0494891771958471\\
16	0.0356405661348903\\
17	0.15523755961894\\
18	0.0271597451025023\\
19	0.145703442549891\\
20	0.0520738574541381\\
21	0.0740609080662357\\
22	0.104935155821669\\
23	0.0417678670288507\\
24	0.0299752622866834\\
25	0.0250001918328842\\
26	0.0229720939063182\\
27	0.0247245078055356\\
28	0.00362513039017358\\
29	0.14722576142865\\
30	0.0387273782761153\\
31	0.131677926596125\\
32	0.0785526041407005\\
33	0.0810464121808255\\
34	0.160588901862689\\
35	0.0744890994278548\\
36	0.134536712627009\\
37	0.0173820440229542\\
38	0.137082339999381\\
39	0.0170525437502556\\
40	0.00749074921495884\\
41	0.00341378303693337\\
42	0.00620877458876847\\
43	0.0141607494626642\\
44	0.0397125400502968\\
45	0.0472710882981607\\
46	0.117933825228246\\
47	0.104860760134015\\
48	0.0231680488862733\\
49	0.0173960896964215\\
50	0.01565840529932\\
51	0.0158238796681408\\
52	0.0214800847634647\\
53	0.069515335423337\\
54	0.00705654101536576\\
55	0.0048265337253162\\
56	0.00444892816390271\\
57	0.00420482397187746\\
58	0.00394665996283891\\
59	0.00367152522573874\\
60	0.00340609944322399\\
61	0.00324100673075721\\
62	0.00352226036423774\\
63	0.00577590294104206\\
64	0.0646039488883014\\
65	0.0152053951030713\\
66	0.025205330150814\\
67	0.0111279282265277\\
68	0.00808273026447386\\
69	0.00668378513225385\\
70	0.0058444881598292\\
71	0.00526118842255355\\
72	0.00481495459253537\\
73	0.00444984685034709\\
74	0.00413772241899909\\
75	0.00386847400652643\\
76	0.00365640479604675\\
77	0.00358022933512563\\
78	0.0039436041841542\\
79	0.00596743145716452\\
80	0.0193053572626292\\
81	0.0244955947722078\\
82	0.0480492514955312\\
83	0.00881743040387132\\
84	0.00673618414357698\\
85	0.00583169570033062\\
86	0.00529290215994122\\
87	0.0049263520005684\\
88	0.00465711125291308\\
89	0.0044495340289191\\
90	0.00428463427284004\\
91	0.00415172046176833\\
92	0.00404487765081529\\
93	0.00396151732265935\\
94	0.00390215289068892\\
95	0.00387150614980524\\
96	0.00388240228065188\\
97	0.00396861770551536\\
98	0.0042393791899913\\
99	0.00529535495453836\\
100	0.0384422656208756\\
101	0.00196598430595653\\
102	0.00227127045262919\\
103	0.0024323424968646\\
104	0.0025024611202\\
105	0.00253048915714305\\
106	0.00253672908189185\\
107	0.00253067827009284\\
108	0.00251728582017171\\
109	0.00249934971595597\\
110	0.00247855194358738\\
111	0.00245595212950105\\
112	0.00243224240902919\\
113	0.0024078877120558\\
114	0.00238320712614353\\
115	0.00235842317784567\\
116	0.00233369278997705\\
117	0.00230912733940947\\
118	0.00228480600224308\\
119	0.00226078483862737\\
120	0.00223710310173484\\
121	0.00221378769593874\\
122	0.00219085637556591\\
123	0.00216832007097849\\
124	0.00214618460011501\\
125	0.00212445194095342\\
126	0.00210312118614787\\
127	0.002082189264892\\
128	0.00206165149248505\\
129	0.00204150199113677\\
130	0.00202173401371152\\
131	0.00200234019373144\\
132	0.00198331273896169\\
133	0.0019646435815544\\
134	0.00194632449455517\\
135	0.00192834718223092\\
136	0.00191070334993457\\
137	0.00189338475791222\\
138	0.00187638326246988\\
139	0.00185969084716353\\
140	0.00184329964609891\\
141	0.00182720196098313\\
142	0.00181139027322501\\
143	0.00179585725211227\\
144	0.00178059575988462\\
145	0.00176559885435432\\
146	0.00175085978959665\\
147	0.00173637201512792\\
148	0.00172212917390737\\
149	0.00170812509943172\\
150	0.00169435381214015\\
151	0.00168080951530347\\
152	0.00166748659053823\\
153	0.00165437959305814\\
154	0.00164148324675288\\
155	0.00162879243916746\\
156	0.00161630221643902\\
157	0.0016040077782369\\
158	0.00159190447274199\\
159	0.00157998779169339\\
160	0.00156825336552436\\
161	0.00155669695860377\\
162	0.00154531446459552\\
163	0.00153410190194422\\
164	0.00152305540949421\\
165	0.00151217124224425\\
166	0.00150144576724133\\
167	0.00149087545961318\\
168	0.00148045689873912\\
169	0.00147018676455811\\
170	0.00146006183401068\\
171	0.00145007897761323\\
172	0.00144023515616105\\
173	0.00143052741755604\\
174	0.0014209528937561\\
175	0.00141150879784194\\
176	0.00140219242119743\\
177	0.0013930011307999\\
178	0.00138393236661579\\
179	0.00137498363909773\\
180	0.0013661525267803\\
181	0.00135743667396858\\
182	0.00134883378851806\\
183	0.00134034163970044\\
184	0.00133195805615281\\
185	0.00132368092390639\\
186	0.00131550818449211\\
187	0.00130743783311859\\
188	0.00129946791692105\\
189	0.00129159653327689\\
190	0.00128382182818601\\
191	0.00127614199471266\\
192	0.00126855527148628\\
193	0.00126105994125928\\
194	0.00125365432951856\\
195	0.00124633680314903\\
196	0.00123910576914731\\
197	0.00123195967338265\\
198	0.00122489699940362\\
199	0\\
200	0\\
};
\addlegendentry{$\mathbf{h_1}$}

\addplot [color=mycolor2]
  table[row sep=crcr]{%
1	0.00774703480118937\\
2	0.00804603929146471\\
3	0.00836973275649019\\
4	0.00872140343539048\\
5	0.00910497030680877\\
6	0.00952514700926037\\
7	0.00998766130776543\\
8	0.0104995540104486\\
9	0.0110695940567668\\
10	0.0117088677650987\\
11	0.0124316367204608\\
12	0.013256623866012\\
13	0.0142090087041013\\
14	0.0153236507623596\\
15	0.0166505577523129\\
16	0.0182647317357061\\
17	0.0202852710510938\\
18	0.0229161572207696\\
19	0.0265452456738114\\
20	0.0320322468033177\\
21	0.0418192089559173\\
22	0.0672236903861102\\
23	0.764800043449489\\
24	0.0299885302146741\\
25	0.0061115763360554\\
26	0.0242678676400095\\
27	0.0514933555988865\\
28	0.195228919998726\\
29	0.085859180908406\\
30	0.0163105896710166\\
31	0.0145786853171939\\
32	0.0559865681218998\\
33	0.251050340252552\\
34	0.336624236311341\\
35	0.408546548232539\\
36	0.036057069833403\\
37	0.032029118563816\\
38	0.0279234399827533\\
39	0.024556464147634\\
40	0.0218789138558169\\
41	0.0197265840855051\\
42	0.0179656432193082\\
43	0.016499807231079\\
44	0.0152607166923053\\
45	0.0141992302040502\\
46	0.0132793478490471\\
47	0.0124741733162898\\
48	0.011763234520885\\
49	0.0111306817804915\\
50	0.0105640541254365\\
51	0.0100534184529814\\
52	0.00959075767384862\\
53	0.00916952821967447\\
54	0.00878433483782754\\
55	0.00843068801165144\\
56	0.00810482052737742\\
57	0.00780354701585278\\
58	0.00752415515294532\\
59	0.00726432048229959\\
60	0.00702203907403127\\
61	0.00679557379902244\\
62	0.00658341110359303\\
63	0.00638422595921995\\
64	0.00619685323339502\\
65	0.00602026414575953\\
66	0.00585354678274153\\
67	0.00569588987471922\\
68	0.00554656921368661\\
69	0\\
70	0\\
71	0\\
72	0\\
73	0\\
74	0\\
75	0\\
76	0\\
77	0\\
78	0\\
79	0\\
80	0\\
81	0\\
82	0\\
83	0\\
84	0\\
85	0\\
86	0\\
87	0\\
88	0\\
89	0\\
90	0\\
91	0\\
92	0\\
93	0\\
94	0\\
95	0\\
96	0\\
97	0\\
98	0\\
99	0\\
100	0\\
101	0\\
102	0\\
103	0\\
104	0\\
105	0\\
106	0\\
107	0\\
108	0\\
109	0\\
110	0\\
111	0\\
112	0\\
113	0\\
114	0\\
115	0\\
116	0\\
117	0\\
118	0\\
119	0\\
120	0\\
121	0\\
122	0\\
123	0\\
124	0\\
125	0\\
126	0\\
127	0\\
128	0\\
129	0\\
130	0\\
131	0\\
132	0\\
133	0\\
134	0\\
135	0\\
136	0\\
137	0\\
138	0\\
139	0\\
140	0\\
141	0\\
142	0\\
143	0\\
144	0\\
145	0\\
146	0\\
147	0\\
148	0\\
149	0\\
150	0\\
151	0\\
152	0\\
153	0\\
154	0\\
155	0\\
156	0\\
157	0\\
158	0\\
159	0\\
160	0\\
161	0\\
162	0\\
163	0\\
164	0\\
165	0\\
166	0\\
167	0\\
168	0\\
169	0\\
170	0\\
171	0\\
172	0\\
173	0\\
174	0\\
175	0\\
176	0\\
177	0\\
178	0\\
179	0\\
180	0\\
181	0\\
182	0\\
183	0\\
184	0\\
185	0\\
186	0\\
187	0\\
188	0\\
189	0\\
190	0\\
191	0\\
192	0\\
193	0\\
194	0\\
195	0\\
196	0\\
197	0\\
198	0\\
199	0\\
200	0\\
};
\addlegendentry{$\mathbf{h_{2}}$}

\end{axis}

\begin{axis}[%
width=1.935in,
height=3.2in,
at={(3.327in,0.512in)},
scale only axis,
xmin=0,
xmax=200,
xlabel style={font=\color{white!15!black}, align=center},
xlabel={Sample Index\\[1ex](b) Estimated},
ymin=0,
ymax=1,
axis background/.style={fill=white},
legend style={legend cell align=left, align=left, draw=white!15!black}
]
\addplot [color=mycolor1]
  table[row sep=crcr]{%
0	5.05487542248549e-05\\
1	7.35539113254171e-05\\
2	6.6936223658669e-05\\
3	7.36981293244597e-05\\
4	4.54995033158944e-05\\
5	2.34522960347346e-05\\
6	4.66412369508864e-05\\
7	3.70923276377828e-05\\
8	8.26714179090709e-06\\
9	5.81396903215526e-05\\
10	5.40166374873251e-05\\
11	4.99545360933928e-05\\
12	2.49584610183744e-05\\
13	2.79105008902358e-05\\
14	4.34310811887455e-05\\
15	2.08839639131384e-05\\
16	2.44919756363611e-05\\
17	4.5220723730319e-05\\
18	5.88233981513801e-05\\
19	3.74123756939606e-05\\
20	4.48235620500162e-05\\
21	0.000105356109447627\\
22	5.84446488705638e-05\\
23	5.02445356418891e-05\\
24	2.4041092199668e-05\\
25	0.000102840751062916\\
26	5.84097969610901e-05\\
27	4.54232525655705e-05\\
28	4.88930429613044e-05\\
29	3.34244123953696e-05\\
30	2.47827928220675e-05\\
31	0.000139097634606442\\
32	2.222729546405e-05\\
33	1.78431598869242e-05\\
34	7.74064330151023e-05\\
35	0.000104686999020942\\
36	3.70109730764822e-05\\
37	5.26275830525989e-05\\
38	2.23666199305401e-05\\
39	0.000150651766223577\\
40	2.23804951178126e-05\\
41	6.78167848271123e-05\\
42	8.72731697047673e-05\\
43	7.20670937671443e-06\\
44	2.98453351444822e-05\\
45	6.91378283751919e-05\\
46	6.69919208581725e-05\\
47	7.44836768992311e-05\\
48	0.000106923541022732\\
49	1.69988370299899e-05\\
50	2.87864264733675e-05\\
51	1.40046925369553e-05\\
52	6.83703520614369e-05\\
53	4.63117359499869e-05\\
54	0.000116617559402963\\
55	0.000124701069883361\\
56	3.88820547269734e-05\\
57	4.85273635650148e-05\\
58	2.6595719945095e-05\\
59	4.16025957273953e-05\\
60	6.41695204688053e-05\\
61	7.18008866020711e-05\\
62	7.02259441245284e-05\\
63	8.30930533266228e-05\\
64	0.0109925685676872\\
65	0.00407432327344815\\
66	0.0215202467545219\\
67	3.33351079728186e-05\\
68	0.00560426500130266\\
69	0.0160049248932813\\
70	0.00563890819607239\\
71	0.0370445981629995\\
72	0.0384254244489174\\
73	0.0177144152760749\\
74	0.00900098978039578\\
75	0.178971385925359\\
76	0.418523481174416\\
77	0.355759905925001\\
78	0.117292986448315\\
79	0.0328070351452167\\
80	8.07705514928427e-05\\
81	0.0511403388320157\\
82	0.0546976993906246\\
83	0.0208556599004969\\
84	0.0189830417975542\\
85	0.0639198534930728\\
86	0.110430231384101\\
87	0.194363197717109\\
88	0.606829405292297\\
89	0.226366216154613\\
90	0.0864944477164893\\
91	0.0307524115237836\\
92	0.0199439058787104\\
93	0.0698830481289041\\
94	0.0403097127454515\\
95	0.128031367851634\\
96	0.0718965369747022\\
97	1.95973652757979e-05\\
98	0.14788061640501\\
99	0.0603185224418092\\
100	0.000215708620632946\\
101	0.0696560098941025\\
102	0.0591603213048401\\
103	0.0469649760231078\\
104	0.0279674813554839\\
105	0.083189792752642\\
106	0.0120907206159445\\
107	0.0463328624023671\\
108	0.0285175432826751\\
109	0.105867569607322\\
110	0.17480624154339\\
111	0.071122664064531\\
112	0.0592122136297613\\
113	0.00425281709496489\\
114	0.110615193236275\\
115	9.37684067633183e-05\\
116	4.49089721026982e-05\\
117	0.00381006329979586\\
118	0.0356304683469547\\
119	0.00319493500488334\\
120	0.0132460764180192\\
121	0.0166930874599036\\
122	0.0900947125953641\\
123	0.0902934111857746\\
124	0.000111332484585927\\
125	3.73489157780201e-05\\
126	8.85688814883478e-05\\
127	0.000616922704288996\\
128	4.5795398232854e-05\\
129	6.37714822128384e-05\\
130	0.0228454816761603\\
131	9.98337167764017e-05\\
132	5.75186821456514e-05\\
133	8.14523515642972e-05\\
134	3.29526926341211e-05\\
135	0.00413948784728257\\
136	2.19230378922295e-05\\
137	1.22123030820492e-05\\
138	0.000114101526758152\\
139	6.86853878524037e-05\\
140	0.0407997927983198\\
141	9.59973528345379e-05\\
142	0.00741918545564865\\
143	5.47538862758657e-05\\
144	6.33560002691154e-05\\
145	0.000137202189402858\\
146	0.000585918934321234\\
147	0.0076604500479519\\
148	2.93505813621452e-05\\
149	1.18615826537912e-05\\
150	0.000110173935242566\\
151	5.54829503823471e-05\\
152	9.72697467792212e-05\\
153	8.36164735282828e-05\\
154	6.41625114803776e-05\\
155	3.8785847623073e-05\\
156	4.22640033033547e-05\\
157	0.000583601058907298\\
158	0.0208418304875671\\
159	5.57918058278985e-05\\
160	1.43372528255553e-05\\
161	2.14582099787259e-05\\
162	1.09002992679458e-05\\
163	2.33386650446246e-05\\
164	6.42420750255826e-05\\
165	2.67598548468392e-05\\
166	4.56165789520847e-05\\
167	5.21958959731084e-05\\
168	3.05475389137132e-05\\
169	5.62223251867932e-05\\
170	2.40498760362864e-05\\
171	5.54427469583446e-05\\
172	0.000106959603211948\\
173	7.56529465126019e-05\\
174	0.000159224317011701\\
175	6.05499723208135e-05\\
176	0.0133335515792611\\
177	4.67878479874959e-05\\
178	7.29013281183789e-05\\
179	5.59944558715238e-05\\
180	5.95503935270673e-05\\
181	7.11811971745321e-05\\
182	3.96206739493622e-05\\
183	9.88657930181018e-05\\
184	3.17091810279812e-05\\
185	1.26037497308479e-05\\
186	8.10967336352707e-05\\
187	0.000147302992029154\\
188	9.24606986381299e-05\\
189	9.37894969838578e-05\\
190	5.80471396252238e-05\\
191	0.000100335244292939\\
192	2.69423852694563e-05\\
193	2.65482130951369e-05\\
194	3.48133481470721e-05\\
195	6.12351318682534e-05\\
196	1.01955359141036e-05\\
197	8.65243621202934e-05\\
198	5.62523242437311e-05\\
199	6.01771743029611e-05\\
};
\addlegendentry{$\mathbf{\hat{h}_{1}}$}

\addplot [color=mycolor2]
  table[row sep=crcr]{%
0	4.35801861987117e-05\\
1	8.58612511295463e-06\\
2	1.80010169610798e-05\\
3	7.7581676889169e-06\\
4	2.34728292432383e-05\\
5	1.05953815390749e-05\\
6	3.76633292792342e-05\\
7	3.13924568257945e-05\\
8	1.42054167552377e-05\\
9	2.20641124993622e-05\\
10	2.32369120378294e-05\\
11	0.00180135074820903\\
12	1.79481305688742e-05\\
13	4.25946682262343e-06\\
14	2.26687368269858e-05\\
15	2.70980245615204e-05\\
16	3.03731035633454e-05\\
17	8.60749219759717e-06\\
18	1.00205441210525e-05\\
19	6.75233568623688e-05\\
20	2.19557358595988e-05\\
21	1.73206212994642e-05\\
22	1.81777878771244e-05\\
23	1.51806934642539e-05\\
24	2.53774421298733e-05\\
25	3.95802665526272e-05\\
26	1.00834498810116e-05\\
27	7.96230028872609e-06\\
28	5.91145855218655e-05\\
29	0.000852431539094169\\
30	0.00306070559986465\\
31	1.4300044190971e-05\\
32	4.69710046948304e-05\\
33	1.48388437462379e-05\\
34	1.52133782214983e-05\\
35	2.86831390726542e-05\\
36	4.6716669357295e-05\\
37	3.27226459937605e-05\\
38	3.96428901691611e-05\\
39	3.3768893077128e-05\\
40	4.66166803537832e-06\\
41	3.76317228763224e-05\\
42	7.91149325690683e-05\\
43	1.07040844103449e-05\\
44	3.36730136714914e-05\\
45	0.00207376837081693\\
46	0.0036326541193299\\
47	0.00761958315934272\\
48	2.81858360518772e-05\\
49	1.7358199547403e-05\\
50	2.14463844220535e-05\\
51	4.11495496114709e-05\\
52	9.71575942700021e-06\\
53	6.05036827521017e-05\\
54	4.32774286155608e-05\\
55	2.91224566669565e-05\\
56	0.00102184789148966\\
57	9.78110892818683e-05\\
58	0.00873031349553283\\
59	9.64464968369299e-05\\
60	3.52522708026564e-05\\
61	2.23823253757651e-06\\
62	0.00105004186935348\\
63	0.0010583554010094\\
64	0.00991375758995428\\
65	0.0134094884564158\\
66	0.010343195932732\\
67	2.57718006018947e-05\\
68	0.00141511178908581\\
69	0.00295569852492805\\
70	1.28599374802779e-05\\
71	1.31501377885357e-05\\
72	0.0122427993524913\\
73	0.0252412015807179\\
74	4.97842558927481e-05\\
75	0.0238671448523577\\
76	0.00617875226156868\\
77	0.023374695610908\\
78	0.0132288562208933\\
79	0.00963551533423412\\
80	0.0269025215868262\\
81	0.00728227719621772\\
82	0.0193664796837991\\
83	0.0122530795126155\\
84	0.00771952747911474\\
85	0.0040538128396553\\
86	5.91338790247401e-06\\
87	0.00299816188768552\\
88	0.0152252120629465\\
89	0.0262886329604418\\
90	0.00592850963487586\\
91	1.96120952412717e-05\\
92	0.0280701932400713\\
93	0.00516843041778566\\
94	0.0405420056706034\\
95	0.0141823928991974\\
96	0.0400781729093451\\
97	0.0397739856820674\\
98	0.018501955112097\\
99	0.988465645159461\\
100	0.018246539017726\\
101	0.0399610638338166\\
102	0.0394794296144013\\
103	0.0135131698554875\\
104	0.041084983368966\\
105	0.00527616377213283\\
106	0.0279986096894151\\
107	1.26593726046048e-05\\
108	0.00591084249383511\\
109	0.0269415657082912\\
110	0.0150955064967758\\
111	0.00290657242229732\\
112	6.04296398155795e-05\\
113	0.00356651338939583\\
114	0.00720357916570747\\
115	0.0122573030200085\\
116	0.0197838282679486\\
117	0.00772108449779081\\
118	0.0280317201946933\\
119	0.0102924382335208\\
120	0.0137504226401266\\
121	0.0242220201478969\\
122	0.00627196866234763\\
123	0.0245141881055042\\
124	5.80583662498118e-05\\
125	0.0259774591163824\\
126	0.0122270861041216\\
127	5.82358479490691e-06\\
128	9.64098798441663e-06\\
129	0.00268186245686187\\
130	0.0017379987492319\\
131	3.71352649640492e-05\\
132	0.0115730937717383\\
133	0.0140636521134232\\
134	0.0104400926111264\\
135	0.000964138135741683\\
136	0.00177819784611636\\
137	7.20027254949295e-06\\
138	4.61762719161423e-05\\
139	0.000407574772011153\\
140	0.00966181500174092\\
141	0.000675453937769807\\
142	0.00128997800005464\\
143	3.41460236391887e-05\\
144	3.53788881844087e-05\\
145	4.94479599622021e-05\\
146	1.44652065812399e-05\\
147	2.10996455832008e-05\\
148	2.52100846307518e-05\\
149	2.08508123370372e-05\\
150	5.54544826556943e-05\\
151	0.00802903178202569\\
152	0.00379190438007034\\
153	0.00247993718133743\\
154	3.78543309238882e-05\\
155	1.56429523227366e-05\\
156	7.41225705352166e-05\\
157	3.16946205455625e-05\\
158	1.64122760619314e-05\\
159	3.3537048514694e-05\\
160	4.00567550863538e-05\\
161	3.42152884096383e-05\\
162	4.83390140054185e-05\\
163	1.37023818039855e-06\\
164	2.7939575376856e-05\\
165	1.11578731518112e-05\\
166	3.89382148826677e-05\\
167	7.73218654911477e-06\\
168	0.00410784094148459\\
169	0.00139114672722708\\
170	0.000330292090742992\\
171	7.51344992009861e-06\\
172	2.73548377749479e-05\\
173	5.33471962065926e-05\\
174	1.82974654427492e-05\\
175	7.63965371665588e-06\\
176	1.96048782462077e-05\\
177	8.78807271603775e-06\\
178	1.18478120439647e-05\\
179	6.26909879952349e-05\\
180	1.49289953776915e-05\\
181	1.83126329822353e-05\\
182	4.00179898337327e-05\\
183	3.35249800271268e-05\\
184	1.82413442193367e-05\\
185	1.94777284658545e-05\\
186	2.86093136815056e-06\\
187	0.00261116879150993\\
188	4.8520195517611e-05\\
189	1.89928281895348e-05\\
190	2.66369748286288e-05\\
191	3.31557875389151e-05\\
192	4.4090136534036e-05\\
193	2.56266756505073e-05\\
194	1.76541830465398e-05\\
195	1.05481736733661e-05\\
196	1.13160987155491e-05\\
197	1.96124437667043e-05\\
198	3.28950698781218e-05\\
199	3.63434231652957e-05\\
};
\addlegendentry{$\mathbf{\hat{h}_{2}}$}

\end{axis}
\end{tikzpicture}%