% This file was created by matlab2tikz.
%
%The latest updates can be retrieved from
%  http://www.mathworks.com/matlabcentral/fileexchange/22022-matlab2tikz-matlab2tikz
%where you can also make suggestions and rate matlab2tikz.
%
\definecolor{mycolor1}{rgb}{0.00000,0.44700,0.74100}%
\definecolor{mycolor2}{rgb}{0.85000,0.32500,0.09800}%
%
\begin{tikzpicture}

\begin{axis}[%
width=1.935in,
height=3.2in,
at={(0.758in,0.512in)},
scale only axis,
xmin=0,
xmax=200,
xlabel style={font=\color{white!15!black}, align=center},
xlabel={Sample Index\\[1ex](a) Actual},
ymin=0,
ymax=1,
axis background/.style={fill=white},
legend style={legend cell align=left, align=left, draw=white!15!black}
]
\addplot [color=mycolor1]
  table[row sep=crcr]{%
1	0.0167418731260698\\
2	0.018659722218203\\
3	0.0211495716349754\\
4	0.0245407494314006\\
5	0.029505643974117\\
6	0.0377161636169434\\
7	0.0550750576238134\\
8	0.131028403455825\\
9	0.141533477104454\\
10	0.158175166246243\\
11	0.163761757297189\\
12	0.600100605556833\\
13	0.118033417583129\\
14	0.0610914209628117\\
15	0.0426162246246858\\
16	0.0332715711707656\\
17	0.0321939439283243\\
18	0.0268871008873183\\
19	0.0316920608120786\\
20	0.0286771919664519\\
21	0.00773119825769845\\
22	0.0330073087209196\\
23	0.019415059292473\\
24	0.0177688778425817\\
25	0.0188194600762088\\
26	0.0237714798713867\\
27	0.0430806655948836\\
28	0.586023006720236\\
29	0.0970905103802927\\
30	0.0246981078960262\\
31	0.0780346253424249\\
32	0.0580455436901626\\
33	0.0681836526256362\\
34	0.163824852865525\\
35	0.0446106828365612\\
36	0.06119675966513\\
37	0.00907835157153909\\
38	0.0310093774848825\\
39	0.00125972832884384\\
40	0.005422098150711\\
41	0.0107374596162295\\
42	0.0165479326643041\\
43	0.024789327411243\\
44	0.0446277431282512\\
45	0.058019450740893\\
46	0.074843365423057\\
47	0.199666615467323\\
48	0.216838516027539\\
49	0.0783890355452335\\
50	0.0495529240878659\\
51	0.0370791446049236\\
52	0.0307530810094058\\
53	0.0155757068681131\\
54	0.0198807977432187\\
55	0.0179871495341263\\
56	0.0162887905400521\\
57	0.0148728268904216\\
58	0.0136909847461918\\
59	0.0126943671543235\\
60	0.011846112844806\\
61	0.0111233301448608\\
62	0.0105291449791113\\
63	0.0102108676347222\\
64	0.00751288118280402\\
65	0.00739035992869396\\
66	0.0116365722557393\\
67	0.00899390796280924\\
68	0.00831157148096884\\
69	0.00788086875151191\\
70	0.00754217236777393\\
71	0.00725475830161164\\
72	0.00700327644843893\\
73	0.006780818536885\\
74	0.00658453626015097\\
75	0.00641472878078445\\
76	0.00627599401250467\\
77	0.00618216997550965\\
78	0.00617516728867787\\
79	0.00642745729543014\\
80	0.00873051939586948\\
81	0.00471465923588381\\
82	0.00195996010568866\\
83	0.004980313957114\\
84	0.00475839614864904\\
85	0.00464733241660508\\
86	0.00455444244400457\\
87	0.00446749239384432\\
88	0.00438406292262191\\
89	0.00430366820355207\\
90	0.00422628355118023\\
91	0.00415201532524293\\
92	0.00408104289588831\\
93	0.00401365198230764\\
94	0.00395033763548775\\
95	0.00389203620501121\\
96	0.00384070443755282\\
97	0.00380107128140597\\
98	0.00378779867734327\\
99	0.00387836096292209\\
100	0.00228454900881806\\
101	0.00321909463290553\\
102	0.00328982387499096\\
103	0.00328100374444436\\
104	0.00325253146337885\\
105	0.00321692683031362\\
106	0.00317840637543852\\
107	0.00313876414674543\\
108	0.00309887602618152\\
109	0.00305920797263281\\
110	0.00302002111537278\\
111	0.00298146552488656\\
112	0.00294362726599965\\
113	0.0029065537719176\\
114	0.00287026833389302\\
115	0.00283477876811283\\
116	0.00280008280049957\\
117	0.00276617151884636\\
118	0.00273303164395387\\
119	0.00270064705586787\\
120	0.00266899983729428\\
121	0.00263807099659409\\
122	0.00260784097374635\\
123	0.00257828999668392\\
124	0.00254939833288439\\
125	0.00252114646667125\\
126	0.00249351522323938\\
127	0.00246648585412356\\
128	0.00244004009455901\\
129	0.00241416020024051\\
130	0.00238882896892876\\
131	0.0023640297508985\\
132	0.00233974645117835\\
133	0.00231596352577768\\
134	0.00229266597354371\\
135	0.00226983932488367\\
136	0.00224746962828519\\
137	0.00222554343533969\\
138	0.00220404778480324\\
139	0.00218297018609978\\
140	0.00216229860257188\\
141	0.00214202143470905\\
142	0.00212212750352594\\
143	0.00210260603421662\\
144	0.00208344664017788\\
145	0.00206463930746792\\
146	0.00204617437974413\\
147	0.00202804254371082\\
148	0.00201023481509265\\
149	0.00199274252514179\\
150	0.00197555730767936\\
151	0.0019586710866655\\
152	0.00194207606428942\\
153	0.00192576470956709\\
154	0.00190972974743187\\
155	0.00189396414830307\\
156	0.00187846111811499\\
157	0.00186321408878906\\
158	0.00184821670913216\\
159	0.00183346283614256\\
160	0.00181894652670628\\
161	0.00180466202966742\\
162	0.00179060377825436\\
163	0.00177676638284649\\
164	0.00176314462406556\\
165	0.00174973344617591\\
166	0.0017365279507797\\
167	0.00172352339079259\\
168	0.00171071516468654\\
169	0.00169809881098722\\
170	0.00168567000301325\\
171	0.00167342454384613\\
172	0.00166135836151948\\
173	0.00164946750441694\\
174	0.00163774813686889\\
175	0.00162619653493841\\
176	0.00161480908238697\\
177	0.00160358226681213\\
178	0.001592512675948\\
179	0.00158159699412143\\
180	0.00157083199885632\\
181	0.00156021455761888\\
182	0.00154974162469766\\
183	0.00153941023821136\\
184	0.00152921751723897\\
185	0.00151916065906659\\
186	0.00150923693654504\\
187	0.00149944369555362\\
188	0.00148977835256491\\
189	0.00148023839230615\\
190	0.0014708213655126\\
191	0.00146152488676917\\
192	0.00145234663243548\\
193	0.00144328433865201\\
194	0.00143433579942216\\
195	0.0014254988647679\\
196	0.00141677143895562\\
197	0.00140815147878894\\
198	0.00139963699196521\\
199	0\\
200	0\\
};
\addlegendentry{$\mathbf{h_1}$}

\addplot [color=mycolor2]
  table[row sep=crcr]{%
1	0.00495033386861547\\
2	0.00515738368500011\\
3	0.00538309861623286\\
4	0.00563019833310769\\
5	0.00590197136255583\\
6	0.00620243506959928\\
7	0.00653655369620811\\
8	0.00691054090538825\\
9	0.00733228812251618\\
10	0.00781198494389501\\
11	0.00836304134465097\\
12	0.0090034999823859\\
13	0.00975827527656913\\
14	0.0106628508662167\\
15	0.0117696896019869\\
16	0.0131600228416925\\
17	0.0149671880151623\\
18	0.0174273921400842\\
19	0.0210049332363351\\
20	0.0267613442180004\\
21	0.037792597580649\\
22	0.068721841139076\\
23	0.97572931769219\\
24	0.0649085399616321\\
25	0.0262918397391367\\
26	0.0126468169615953\\
27	0.00419508123086451\\
28	0.0214241856295046\\
29	0.0134643328328179\\
30	0.00412679327935559\\
31	0.0112712342656943\\
32	0.0282552508318709\\
33	0.111702725947746\\
34	0.12653020104749\\
35	0.0361926668223949\\
36	0.024130019396178\\
37	0.019518168382204\\
38	0.0163235660243771\\
39	0.0140849625225472\\
40	0.0124312948441269\\
41	0.0111552918846637\\
42	0.0101369616841952\\
43	0.00930266674553233\\
44	0.00860476970863487\\
45	0.00801105372801389\\
46	0.00749890841387189\\
47	0.00705196472677567\\
48	0.00665805661850076\\
49	0.0063079366485928\\
50	0.00599443852440938\\
51	0.00571191453485358\\
52	0.00545584764793091\\
53	0.0052225778141873\\
54	0.00500910486747672\\
55	0.00481294397681212\\
56	0.00463201789166602\\
57	0.00446457542356871\\
58	0.00430912894812168\\
59	0.00416440590497024\\
60	0.00402931074167137\\
61	0.00390289474814389\\
62	0.00378433192171684\\
63	0.00367289949042518\\
64	0.0035679620699816\\
65	0.00346895868109233\\
66	0.00337539203747226\\
67	0.00328681965070268\\
68	0.00320284639950925\\
69	0\\
70	0\\
71	0\\
72	0\\
73	0\\
74	0\\
75	0\\
76	0\\
77	0\\
78	0\\
79	0\\
80	0\\
81	0\\
82	0\\
83	0\\
84	0\\
85	0\\
86	0\\
87	0\\
88	0\\
89	0\\
90	0\\
91	0\\
92	0\\
93	0\\
94	0\\
95	0\\
96	0\\
97	0\\
98	0\\
99	0\\
100	0\\
101	0\\
102	0\\
103	0\\
104	0\\
105	0\\
106	0\\
107	0\\
108	0\\
109	0\\
110	0\\
111	0\\
112	0\\
113	0\\
114	0\\
115	0\\
116	0\\
117	0\\
118	0\\
119	0\\
120	0\\
121	0\\
122	0\\
123	0\\
124	0\\
125	0\\
126	0\\
127	0\\
128	0\\
129	0\\
130	0\\
131	0\\
132	0\\
133	0\\
134	0\\
135	0\\
136	0\\
137	0\\
138	0\\
139	0\\
140	0\\
141	0\\
142	0\\
143	0\\
144	0\\
145	0\\
146	0\\
147	0\\
148	0\\
149	0\\
150	0\\
151	0\\
152	0\\
153	0\\
154	0\\
155	0\\
156	0\\
157	0\\
158	0\\
159	0\\
160	0\\
161	0\\
162	0\\
163	0\\
164	0\\
165	0\\
166	0\\
167	0\\
168	0\\
169	0\\
170	0\\
171	0\\
172	0\\
173	0\\
174	0\\
175	0\\
176	0\\
177	0\\
178	0\\
179	0\\
180	0\\
181	0\\
182	0\\
183	0\\
184	0\\
185	0\\
186	0\\
187	0\\
188	0\\
189	0\\
190	0\\
191	0\\
192	0\\
193	0\\
194	0\\
195	0\\
196	0\\
197	0\\
198	0\\
199	0\\
200	0\\
};
\addlegendentry{$\mathbf{h_{2}}$}

\end{axis}

\begin{axis}[%
width=1.935in,
height=3.2in,
at={(3.327in,0.512in)},
scale only axis,
xmin=0,
xmax=209,
xlabel style={font=\color{white!15!black}, align=center},
xlabel={Sample Index\\[1ex](b) Estimated},
ymin=0,
ymax=1,
axis background/.style={fill=white},
legend style={legend cell align=left, align=left, draw=white!15!black}
]
\addplot [color=mycolor1]
  table[row sep=crcr]{%
0	2.51830826547256e-05\\
1	8.35729450549856e-05\\
2	9.58456559029023e-06\\
3	3.23218598391998e-05\\
4	2.10602151269188e-05\\
5	7.78655296363032e-05\\
6	0.000107482664672101\\
7	8.20665822571624e-06\\
8	1.1340845004787e-05\\
9	6.61490849354314e-05\\
10	6.40777934818317e-05\\
11	0.000217306505806106\\
12	0.000108880092042405\\
13	1.83218770093987e-05\\
14	2.57557607145185e-05\\
15	6.07194623781653e-05\\
16	7.25872507818362e-05\\
17	6.05581624107475e-05\\
18	9.67530541467423e-05\\
19	2.48350406414149e-05\\
20	0.000133492669603981\\
21	6.46509262918646e-05\\
22	4.93840664625059e-05\\
23	0.000137709822198325\\
24	9.59580659600093e-05\\
25	1.05590885912846e-05\\
26	6.49715689967429e-05\\
27	9.0057950319654e-05\\
28	4.00905578218521e-05\\
29	9.41363049155306e-05\\
30	7.36869271213609e-05\\
31	0.000122870580474851\\
32	1.28706506169106e-05\\
33	2.92626878320192e-05\\
34	2.59286050708218e-05\\
35	4.71227163027153e-05\\
36	6.0891521438746e-05\\
37	5.35480968373796e-05\\
38	1.32407509025262e-05\\
39	9.92908217951565e-05\\
40	3.1460845190524e-05\\
41	4.33912452313946e-05\\
42	3.97856383888508e-05\\
43	7.22332940732942e-05\\
44	8.64957958874901e-05\\
45	6.96863023792908e-05\\
46	4.48481083393906e-05\\
47	4.23320233357641e-05\\
48	2.35871739430676e-05\\
49	3.62710898492373e-05\\
50	1.20321757431194e-05\\
51	2.1866351999272e-05\\
52	7.01019309815445e-05\\
53	1.28218549247885e-05\\
54	3.50755235200326e-05\\
55	7.5997421455902e-05\\
56	5.93141298211346e-05\\
57	0.000134259002897898\\
58	3.57477670482302e-05\\
59	2.37188812233792e-05\\
60	5.28741017377537e-05\\
61	0.00015551109155692\\
62	8.3472910692623e-05\\
63	0.000101749541055862\\
64	7.91422462458115e-05\\
65	5.64594159953219e-05\\
66	7.93494557121466e-05\\
67	0.000216775488109631\\
68	0.000127527677201489\\
69	2.81319101876003e-05\\
70	0.000122584808471778\\
71	3.03439340384329e-05\\
72	0.000186204771135218\\
73	0.0139662604379933\\
74	0.00294000261724408\\
75	0.00493513706957862\\
76	1.25497131216356e-05\\
77	0.0232044740940105\\
78	0.000107224465388151\\
79	0.0221409639271322\\
80	0.0247209736779995\\
81	0.00883711372690323\\
82	0.0833750966850325\\
83	0.00134920083627964\\
84	7.87824661701517e-05\\
85	0.000121698666237485\\
86	0.00240829671986636\\
87	0.0314475043426449\\
88	0.0494086790971095\\
89	0.144740975651576\\
90	0.0965735616442718\\
91	0.126567524886152\\
92	0.208842811649815\\
93	0.593378298726576\\
94	0.125373323341816\\
95	0.0513700744993685\\
96	0.00869456313205909\\
97	0.035425594527144\\
98	0.0584977920622297\\
99	0.061891002293175\\
100	0.00161275744009061\\
101	0.0140063041546303\\
102	0.000138840125095317\\
103	0.0258484336390367\\
104	0.0116780571417299\\
105	0.0249856989531708\\
106	0.0224237275410331\\
107	0.0297319688189968\\
108	0.0675774202653937\\
109	0.603881610401312\\
110	0.118628486880218\\
111	0.0117208830633501\\
112	0.0519075919956908\\
113	0.0435926138256554\\
114	0.060966964801899\\
115	0.169036282497734\\
116	0.00447690388608991\\
117	0.0330768188850265\\
118	0.0268672389872369\\
119	0.00378703603059688\\
120	0.000167064178155298\\
121	3.54905508038355e-05\\
122	0.000199584872371818\\
123	0.00159852409944969\\
124	0.000339126565690862\\
125	0.0549465078056724\\
126	0.048615644150585\\
127	0.065736379881016\\
128	0.21999981424947\\
129	0.172307156995707\\
130	0.0641398881450603\\
131	0.0360792636175291\\
132	0.00751228673109697\\
133	0.0120045737268224\\
134	0.00318367378227837\\
135	9.75378666259158e-05\\
136	6.1610602818341e-05\\
137	0.000774306483801588\\
138	0.000198429006797485\\
139	3.99444218746693e-05\\
140	5.76052592551004e-05\\
141	0.000149492370698225\\
142	0.000129308080709784\\
143	9.11896199754033e-05\\
144	0.00797179842489699\\
145	0.0053221212221469\\
146	1.5360340801631e-05\\
147	0.000159615190597705\\
148	4.01456864298389e-05\\
149	3.43776069078756e-05\\
150	7.8243149321953e-05\\
151	3.1127104896036e-05\\
152	4.85590469766876e-05\\
153	2.71305478575983e-05\\
154	3.77743440427174e-05\\
155	3.20963826159904e-05\\
156	1.28507380465193e-05\\
157	5.22924052934535e-05\\
158	0.000104209021950924\\
159	2.53801107702383e-05\\
160	2.75111550968994e-05\\
161	0.00010015939466883\\
162	5.23143729681816e-05\\
163	4.65051931814762e-05\\
164	7.73592883060295e-05\\
165	9.07194701391478e-05\\
166	0.000128587271132331\\
167	9.63491206937473e-05\\
168	9.88646124137775e-06\\
169	4.49953757902106e-05\\
170	2.0819409708557e-05\\
171	0.000133932612773704\\
172	0.000197075764544195\\
173	8.77147704126456e-05\\
174	3.92367795127239e-05\\
175	0.000118433597456176\\
176	3.82505960359229e-05\\
177	8.13611155780547e-05\\
178	2.21856438584594e-05\\
179	8.69385794980034e-05\\
180	4.97483567230607e-05\\
181	2.36900263747776e-05\\
182	5.35076163451567e-05\\
183	7.42299858739961e-05\\
184	6.29428079562757e-05\\
185	4.0185645663059e-05\\
186	6.77330012456132e-05\\
187	4.93531340690802e-05\\
188	3.87979102625258e-05\\
189	7.09833724771912e-05\\
190	0.000168918584669994\\
191	0.000184676702848685\\
192	2.6461224518513e-05\\
193	2.17840619032355e-05\\
194	9.67015070442368e-05\\
195	8.52147354484951e-05\\
196	0.000141457459060949\\
197	5.62957677007329e-05\\
198	1.20729583686276e-05\\
199	0.000108883666201329\\
200	8.6241957286594e-05\\
201	4.43819027372096e-05\\
202	2.68520735180474e-05\\
203	8.05013357912846e-05\\
204	0.00012632756402592\\
205	4.98812108117662e-05\\
206	7.30633224479363e-05\\
207	0.000116403341609272\\
208	4.62534953219752e-05\\
209	9.17247531327838e-05\\
};
\addlegendentry{$\mathbf{\hat{h}_{1}}$}

\addplot [color=mycolor2]
  table[row sep=crcr]{%
0	1.09268417627286e-05\\
1	3.25807466031478e-05\\
2	2.05080110654265e-05\\
3	1.69418611779274e-05\\
4	1.7972221495836e-05\\
5	3.81620499300831e-06\\
6	5.60735885523539e-05\\
7	3.66081563960092e-05\\
8	1.01042806725221e-05\\
9	1.43708893477243e-05\\
10	9.81829385229573e-06\\
11	9.65803608289688e-06\\
12	2.23746495818537e-05\\
13	1.95441175936141e-05\\
14	2.47321853733731e-06\\
15	1.32387625567995e-05\\
16	2.60809986735221e-06\\
17	3.22968680066642e-05\\
18	6.65511348773221e-06\\
19	2.95592401019726e-05\\
20	2.38555854577065e-05\\
21	2.37981253135377e-05\\
22	4.68997893182461e-05\\
23	2.03642028972248e-05\\
24	1.51495521059836e-05\\
25	2.30079451931549e-05\\
26	3.57914954760088e-05\\
27	8.50440130024909e-06\\
28	1.37823966796953e-05\\
29	1.60323287292735e-05\\
30	2.21130288386357e-05\\
31	5.37866284408584e-05\\
32	1.29887246072489e-05\\
33	1.12602442910709e-05\\
34	9.64180354880426e-06\\
35	1.50705918183688e-05\\
36	2.50360488798252e-05\\
37	2.03895400172879e-05\\
38	3.69181290816804e-05\\
39	2.21456312513562e-05\\
40	2.47721383920498e-05\\
41	2.56630628182824e-05\\
42	4.27274563280272e-05\\
43	2.98859889709865e-06\\
44	5.26248463866797e-06\\
45	7.62841988392625e-06\\
46	8.44247093838153e-06\\
47	1.28589842483695e-05\\
48	1.17670876956668e-05\\
49	3.9851224270736e-05\\
50	5.69889635273959e-05\\
51	1.39445175667806e-05\\
52	6.55521435216406e-05\\
53	8.71983441024141e-06\\
54	1.08939138956899e-05\\
55	3.16736139254943e-05\\
56	3.98900679693746e-06\\
57	2.45939685661888e-05\\
58	1.42773150857363e-05\\
59	9.27755168977965e-06\\
60	3.27856556408874e-06\\
61	1.81796272989031e-05\\
62	2.26885061898768e-05\\
63	3.74191672202844e-05\\
64	0.00109935427275507\\
65	0.0148035652773207\\
66	0.0092678196258098\\
67	1.69262375875023e-05\\
68	0.0300098842133836\\
69	0.0102414228893657\\
70	0.00594495110221658\\
71	0.0055076798907456\\
72	0.00154918602672343\\
73	1.90837274533348e-05\\
74	2.82200937593065e-05\\
75	5.06028202568436e-05\\
76	1.04936118735537e-05\\
77	0.000625924715928034\\
78	0.010968279853055\\
79	7.03604731827102e-06\\
80	0.000141163108857634\\
81	0.0125150649357169\\
82	0.0103831212140008\\
83	0.00521791522920761\\
84	0.028878584168322\\
85	0.0359989693510635\\
86	0.0178101401981781\\
87	0.00453632959394188\\
88	0.0770187236818355\\
89	0.00679759103136639\\
90	0.000936714997650554\\
91	0.0104861136187629\\
92	0.0019059761290962\\
93	0.00221460143346061\\
94	8.09297939581431e-05\\
95	0.00715509414839716\\
96	0.0101342859568968\\
97	0.00393249280019762\\
98	0.00494540871097407\\
99	0.000950229683377906\\
100	0.000683886983293821\\
101	0.0334487223873203\\
102	0.0138361402772913\\
103	3.37853748360315e-05\\
104	0.987971711156038\\
105	2.34067183538096e-05\\
106	0.0144399652121078\\
107	0.0340474485111771\\
108	0.000134479465564912\\
109	0.00146568047099571\\
110	0.00632959748374317\\
111	0.00331700560826477\\
112	0.00971747602387166\\
113	0.00588935288740085\\
114	0.000532312882104835\\
115	0.00260125213879724\\
116	0.0019776254520642\\
117	0.0105405562352859\\
118	0.000139394986429023\\
119	0.00584234175191217\\
120	0.0769816274632902\\
121	0.00421283982242901\\
122	0.0181801330803241\\
123	0.0360972824462207\\
124	0.0295056668493954\\
125	0.00602298561042404\\
126	0.0107856891844213\\
127	0.012956593165216\\
128	0.000135110937697736\\
129	1.03654324931632e-05\\
130	0.0113596258766841\\
131	0.00110749748957824\\
132	1.58955450463268e-05\\
133	3.9694274931655e-05\\
134	8.34707862063861e-05\\
135	1.57970378439033e-05\\
136	0.00103771868035804\\
137	0.00620777718201988\\
138	0.00580192339635614\\
139	0.0100340422415676\\
140	0.0304753457557075\\
141	1.87787230180043e-05\\
142	0.00982958706690031\\
143	0.0155527251654262\\
144	0.00164356790674715\\
145	3.7566717542518e-05\\
146	2.57034836181298e-05\\
147	2.73821946666525e-05\\
148	1.00698554395397e-05\\
149	1.43219575755891e-05\\
150	6.5971993309273e-06\\
151	1.9945280779153e-05\\
152	4.29350247503141e-06\\
153	1.66387848931597e-05\\
154	4.98767669152748e-06\\
155	1.05059965950797e-05\\
156	8.67579442251169e-05\\
157	1.42440798162732e-05\\
158	6.35287592474407e-05\\
159	3.14014188333347e-05\\
160	1.1822092882191e-05\\
161	1.54407089334245e-05\\
162	1.59646563285293e-05\\
163	5.07642487586677e-06\\
164	6.63764009086603e-06\\
165	1.45250296015988e-05\\
166	5.11132822564322e-05\\
167	2.94709543549216e-05\\
168	2.78575657959125e-05\\
169	2.46085583531451e-05\\
170	2.74981000028906e-05\\
171	1.57465481567773e-05\\
172	1.50711988983047e-05\\
173	1.37421900478993e-05\\
174	4.79897122270166e-06\\
175	1.01672239397245e-05\\
176	5.53658677825272e-06\\
177	5.107848054792e-05\\
178	2.70675438379188e-05\\
179	2.0331550454065e-05\\
180	1.84129822401291e-06\\
181	1.07848084995125e-05\\
182	3.22797887623608e-05\\
183	1.23896126715134e-05\\
184	1.58155958627755e-05\\
185	2.61362248397257e-05\\
186	4.87985501626186e-05\\
187	2.03666245646666e-05\\
188	2.581530286061e-05\\
189	1.44335597145615e-05\\
190	2.45403757625746e-05\\
191	2.99491992190482e-05\\
192	1.01657802990024e-05\\
193	1.84489612419414e-05\\
194	7.81820772528629e-07\\
195	2.09346293728099e-05\\
196	1.66345814173966e-05\\
197	1.12466088706462e-05\\
198	2.37676525837634e-05\\
199	1.77284959234852e-05\\
200	1.40500832610809e-05\\
201	3.46775710361679e-05\\
202	5.90564983362495e-05\\
203	1.08568532064165e-05\\
204	2.28403617121937e-05\\
205	8.58813084628997e-06\\
206	1.37822091133485e-05\\
207	4.81862972820672e-05\\
208	1.03813351453744e-05\\
209	1.67002544279636e-05\\
};
\addlegendentry{$\mathbf{\hat{h}_{2}}$}

\end{axis}
\end{tikzpicture}%