% This file was created by matlab2tikz.
%
%The latest updates can be retrieved from
%  http://www.mathworks.com/matlabcentral/fileexchange/22022-matlab2tikz-matlab2tikz
%where you can also make suggestions and rate matlab2tikz.
%
\definecolor{mycolor1}{rgb}{0.00000,0.44700,0.74100}%
\definecolor{mycolor2}{rgb}{0.85000,0.32500,0.09800}%
%
\begin{tikzpicture}

\begin{axis}[%
width=1.952in,
height=3.2in,
at={(0.758in,0.512in)},
scale only axis,
xmin=0,
xmax=20,
xlabel style={font=\color{white!15!black}, align=center},
xlabel={Sample Index\\[1ex](a) Actual},
ymin=0,
ymax=0.9,
axis background/.style={fill=white},
legend style={legend cell align=left, align=left, draw=white!15!black}
]
\addplot [color=mycolor1]
  table[row sep=crcr]{%
1	0.0444337104356374\\
2	0.738127803558165\\
3	0.357839506790865\\
4	0.481268775571525\\
5	0.10955194752004\\
6	0.267783168107473\\
7	0.0769544524124665\\
8	0.0372836026936495\\
9	0.027789744685169\\
10	0.0196434178633453\\
11	0.0212138243269196\\
12	0.0147156812719569\\
13	0.0126517206023441\\
14	0.0111331007215966\\
15	0.00994473974674355\\
16	0.00898571135769806\\
17	0.00819466874468931\\
18	0.00753086667278431\\
19	0.00696589032366256\\
20	0.00647923877975415\\
};
\addlegendentry{$\mathbf{h_1}$}

\addplot [color=mycolor2]
  table[row sep=crcr]{%
1	0.0696363384444256\\
2	0.13399148454392\\
3	0.889181852408627\\
4	0.426869408918664\\
5	0.0527923084371181\\
6	0.0393468637154593\\
7	0\\
8	0\\
9	0\\
10	0\\
11	0\\
12	0\\
13	0\\
14	0\\
15	0\\
16	0\\
17	0\\
18	0\\
19	0\\
20	0\\
};
\addlegendentry{$\mathbf{h_{2}}$}

\end{axis}

\begin{axis}[%
width=1.952in,
height=3.2in,
at={(3.327in,0.512in)},
scale only axis,
xmin=0,
xmax=20,
xlabel style={font=\color{white!15!black}, align=center},
xlabel={Sample Index\\[1ex](b) Estimated},
ymin=-0.2,
ymax=1,
axis background/.style={fill=white},
legend style={legend cell align=left, align=left, draw=white!15!black}
]
\addplot [color=mycolor1]
  table[row sep=crcr]{%
0	0.026752338989671\\
0.25	0.0260629178564012\\
0.5	0.0255570855102265\\
0.75	0.0253421561982327\\
1	0.0253839186664967\\
1.25	0.0258915783128236\\
1.5	0.0259006121951935\\
1.75	0.0248731527678072\\
2	0.0224709601923728\\
2.25	0.0179915630451989\\
2.5	0.012955314859632\\
2.75	0.00842209169745226\\
3	0.00546686850643291\\
3.25	0.00531685036402177\\
3.5	0.00783884808717183\\
3.75	0.0128669533661954\\
4	0.0198947354387323\\
4.25	0.0277933116702026\\
4.5	0.0364880779075571\\
4.75	0.0455572240673339\\
5	0.0547332493965478\\
5.25	0.0623434650814971\\
5.5	0.071056104042547\\
5.75	0.0818956632393147\\
6	0.0955326070596184\\
6.25	0.121224461608227\\
6.5	0.144968593615804\\
6.75	0.163550845233668\\
7	0.177580964664752\\
7.25	0.168722774411831\\
7.5	0.182642970191588\\
7.75	0.238419799134665\\
8	0.34466207379532\\
8.25	0.534651767153789\\
8.5	0.722447649392911\\
8.75	0.857025195333498\\
9	0.896048872821785\\
9.25	0.768658313623454\\
9.5	0.558435877985116\\
9.75	0.318190435797926\\
10	0.105209967143026\\
10.25	0.0112880156657681\\
10.5	-0.00900768394774516\\
10.75	0.0249493555398258\\
11	0.0824589757501074\\
11.25	0.101504215170068\\
11.5	0.104688311171711\\
11.75	0.0927392369500915\\
12	0.0727080904069643\\
12.25	0.0681190301757431\\
12.5	0.0662627254550347\\
12.75	0.0668840134849145\\
13	0.0685015096774232\\
13.25	0.0653085339794334\\
13.5	0.0613044719725459\\
13.75	0.0567874783815108\\
14	0.0520789309496094\\
14.25	0.0477247674118825\\
14.5	0.0433905541747222\\
14.75	0.0389409204982612\\
15	0.0342191126920351\\
15.25	0.0288858038350496\\
15.5	0.0233579409303476\\
15.75	0.0179210660424466\\
16	0.0129368104626639\\
16.25	0.00874663812617089\\
16.5	0.00573187750790719\\
16.75	0.00412001643817991\\
17	0.00396569670638241\\
17.25	0.00528922670569602\\
17.5	0.00751891089604433\\
17.75	0.0101439485179963\\
18	0.0126602975003369\\
18.25	0.0144969671324013\\
18.5	0.0157241272326972\\
18.75	0.016419290453197\\
19	0.0168085348031197\\
19.25	0.0171909719994828\\
19.5	0.0178834306007414\\
19.75	0.0191132953202785\\
};
\addlegendentry{$\mathbf{\hat{h}_{1}}$}

\addplot [color=mycolor2]
  table[row sep=crcr]{%
0	0.0135177822901334\\
0.25	0.0129215825037563\\
0.5	0.0123481746464146\\
0.75	0.0118222625149888\\
1	0.0113717934415041\\
1.25	0.0110336793520271\\
1.5	0.0108407100226375\\
1.75	0.0108397494980621\\
2	0.0110879732163574\\
2.25	0.0116079285546535\\
2.5	0.0125375466875789\\
2.75	0.013961519850838\\
3	0.015937896540223\\
3.25	0.0184034306351493\\
3.5	0.0214536755993762\\
3.75	0.0250433855263255\\
4	0.0290602984874701\\
4.25	0.0333111042615293\\
4.5	0.0376328166161648\\
4.75	0.041848133838986\\
5	0.0458292795036403\\
5.25	0.0461886536513765\\
5.5	0.0480903076764497\\
5.75	0.052858505668794\\
6	0.0606989186383363\\
6.25	0.084798415444216\\
6.5	0.101395523404316\\
6.75	0.103733737541771\\
7	0.0915211803888106\\
7.25	0.0394972535231575\\
7.5	0.0146076514660472\\
7.75	0.0483029429618857\\
8	0.158814204476738\\
8.25	0.395774752447443\\
8.5	0.650601609621474\\
8.75	0.857367850117726\\
9	0.957979183135467\\
9.25	0.857460830996358\\
9.5	0.650775198038445\\
9.75	0.396006525275198\\
10	0.15907606897711\\
10.25	0.0485583595226913\\
10.5	0.0148379340708704\\
10.75	0.0396957852083994\\
11	0.0916922029315413\\
11.25	0.103898386127392\\
11.5	0.1015587059755\\
11.75	0.084954761987486\\
12	0.0608313876484577\\
12.25	0.0529332915538742\\
12.5	0.0480808431237454\\
12.75	0.0460740405254739\\
13	0.0455994004250858\\
13.25	0.0415056668626756\\
13.5	0.037197794634365\\
13.75	0.0328179669734539\\
14	0.0285536050514497\\
14.25	0.024578861272096\\
14.5	0.0210734247491894\\
14.75	0.0181386348707207\\
15	0.0158075284810006\\
15.25	0.0139718715150808\\
15.5	0.0126927282332151\\
15.75	0.0119123269222893\\
16	0.0115505436663042\\
16.25	0.0114560268387881\\
16.5	0.0116431708494467\\
16.75	0.0120635362429321\\
17	0.0126641466117201\\
17.25	0.0134058416851266\\
17.5	0.0141838491791538\\
17.75	0.0149147521985289\\
18	0.0155264072244507\\
18.25	0.0159321369199672\\
18.5	0.0161765469199519\\
18.75	0.0162949135985682\\
19	0.0163446068435291\\
19.25	0.0163876808173901\\
19.5	0.0165034175262514\\
19.75	0.0167504574959912\\
};
\addlegendentry{$\mathbf{\hat{h}_{2}}$}

\end{axis}
\end{tikzpicture}%