\relax 
\providecommand\hyper@newdestlabel[2]{}
\citation{book:matComp}
\@writefile{toc}{\contentsline {chapter}{\numberline {7}RESULTS}{148}{chapter.7}}
\newlabel{ch:8}{{7}{148}{RESULTS}{chapter.7}{}}
\@writefile{toc}{\contentsline {section}{\numberline {7.1}Comparison of Algorithms}{148}{section.7.1}}
\@writefile{toc}{\contentsline {subsection}{\numberline {7.1.1}Algorithm Complexity}{148}{subsection.7.1.1}}
\@writefile{lot}{\contentsline {table}{\numberline {7.1}{\ignorespaces Comparison of the computational complexity of the algorithms.\relax }}{149}{table.caption.134}}
\newlabel{tab:compAlgComplexity}{{7.1}{149}{Comparison of the computational complexity of the algorithms.\relax }{table.caption.134}{}}
\@writefile{lot}{\contentsline {table}{\numberline {7.2}{\ignorespaces Table of various variables used in simulation.\relax }}{150}{table.caption.135}}
\newlabel{tab:Sim_Variable_Values_Code}{{7.2}{150}{Table of various variables used in simulation.\relax }{table.caption.135}{}}
\@writefile{toc}{\contentsline {subsection}{\numberline {7.1.2}Simulation Results}{150}{subsection.7.1.2}}
\@writefile{toc}{\contentsline {subsubsection}{MATLAB Conditions}{150}{section*.136}}
\@writefile{toc}{\contentsline {subsubsection}{Results}{151}{section*.137}}
\@writefile{toc}{\contentsline {paragraph}{\textbf  {\textit  {Effects of Various Parameters:}}}{151}{section*.138}}
\@writefile{toc}{\contentsline {subparagraph}{\relax $\@@underline {\hbox {Signal Bandwidth and Sample Rate:}}\mathsurround \z@ $\relax }{151}{section*.139}}
\@writefile{toc}{\contentsline {subparagraph}{\relax $\@@underline {\hbox {Noise:}}\mathsurround \z@ $\relax }{152}{section*.140}}
\@writefile{toc}{\contentsline {subparagraph}{\relax $\@@underline {\hbox {Sample Size:}}\mathsurround \z@ $\relax }{152}{section*.141}}
\@writefile{toc}{\contentsline {subparagraph}{\relax $\@@underline {\hbox {Channel Order:}}\mathsurround \z@ $\relax }{153}{section*.142}}
\@writefile{toc}{\contentsline {subparagraph}{\relax $\@@underline {\hbox {Initial Channel Estimates:}}\mathsurround \z@ $\relax }{153}{section*.143}}
\@writefile{toc}{\contentsline {subsection}{\numberline {7.1.3}Results with Real Observed Data}{153}{subsection.7.1.3}}
\@writefile{toc}{\contentsline {subsubsection}{Testing Conditions}{153}{section*.144}}
\@writefile{toc}{\contentsline {subsubsection}{Results}{154}{section*.145}}
\@writefile{toc}{\contentsline {section}{\numberline {7.2}Final Observations}{154}{section.7.2}}
\@setckpt{Chapters/Chapter_8/ch_8_results}{
\setcounter{page}{155}
\setcounter{equation}{0}
\setcounter{enumi}{4}
\setcounter{enumii}{0}
\setcounter{enumiii}{0}
\setcounter{enumiv}{0}
\setcounter{footnote}{2}
\setcounter{mpfootnote}{0}
\setcounter{part}{0}
\setcounter{chapter}{7}
\setcounter{section}{2}
\setcounter{subsection}{0}
\setcounter{subsubsection}{0}
\setcounter{paragraph}{0}
\setcounter{subparagraph}{0}
\setcounter{figure}{0}
\setcounter{table}{2}
\setcounter{savemainpageno}{0}
\setcounter{savefrontpageno}{22}
\setcounter{savetotalpageno}{0}
\setcounter{float@type}{16}
\setcounter{alg}{0}
\setcounter{parentequation}{0}
\setcounter{lstnumber}{1}
\setcounter{LT@tables}{0}
\setcounter{LT@chunks}{0}
\setcounter{ContinuedFloat}{0}
\setcounter{subfigure}{0}
\setcounter{subtable}{0}
\setcounter{Item}{6}
\setcounter{Hfootnote}{10}
\setcounter{bookmark@seq@number}{68}
\setcounter{lstlisting}{0}
\setcounter{section@level}{1}
}
