4
R41-0-TX/RX,000317F9BC,41.741465,-111.807645,0.0
R43-0-TX/RX,000317F9BE,41.742194,-111.807575,0.0
R42-0-TX/RX,000317F9C2,41.742008,-111.807575,0.0
R40-0-TX/RX,0003185E44,41.741265,-111.807945,0.0
 -74.79726, -71.83530, -74.87275, -76.78635
 -75.17513, -72.01157, -75.95166, -76.83313
 -74.72364, -71.62012, -75.52216, -76.68975
 -74.40157, -71.94734, -74.07339, -76.43719
 -74.01276, -71.58159, -72.32923, -75.95845
 -71.00977, -71.10056, -71.34920, -75.55943
 -68.89185, -71.03389, -71.21967, -75.33018
 -69.76335, -70.89146, -70.55931, -75.31192
 -70.69279, -70.83509, -70.76787, -75.28241
 -71.06135, -71.04632, -70.93467, -75.40201
 -70.62807, -70.99990, -70.67433, -75.44807
 -69.70387, -70.83766, -70.59780, -75.18887
 -68.76833, -70.80344, -70.58912, -75.47598
 -68.78595, -71.27406, -71.27276, -75.52893
 -72.12524, -71.56616, -71.97702, -75.69994
 -74.42892, -71.76917, -73.18805, -76.11559
 -75.04633, -71.70298, -74.37770, -76.63632
 -75.13173, -71.72248, -75.48503, -76.86455
 -75.23402, -71.82977, -75.68143, -76.87592
 -74.70088, -71.85432, -74.29057, -76.61405
 -74.41873, -71.69205, -72.44221, -76.01764
 -71.69777, -71.23579, -71.22499, -75.64634
 -68.78880, -70.86457, -70.76731, -75.47652
 -68.90557, -70.84354, -70.29298, -75.35336
 -70.17629, -70.84800, -70.39036, -75.31134
 -70.76782, -71.03703, -70.58273, -75.50980
 -70.52923, -70.89701, -70.39815, -75.28953
 -69.82620, -71.04453, -70.09889, -75.55640
 -68.60168, -70.90296, -70.18336, -75.39443
 -68.17859, -71.18863, -70.91057, -75.56416
 -70.77510, -71.61020, -71.42767, -75.68877
 -74.30381, -71.68439, -72.59381, -76.06020
 -74.93379, -71.78892, -73.98785, -76.52188
 -75.00692, -71.78861, -75.31264, -76.97896
 -75.10620, -71.98325, -75.72803, -77.02097
 -74.85406, -71.83482, -74.91438, -76.85426
 -74.58847, -71.60476, -73.32084, -76.33437
 -73.04613, -71.39735, -71.79891, -75.78412
 -69.66232, -71.03478, -71.25787, -75.50396
 -68.94493, -70.81110, -70.90841, -75.49048
 -70.18138, -70.81566, -70.61037, -75.25121
 -70.86488, -70.91328, -70.96929, -75.52394
 -70.90392, -70.87939, -70.88600, -75.44287
 -70.28401, -70.92508, -70.66496, -75.46463
 -69.15912, -70.92818, -70.44700, -75.45723
 -68.51234, -70.90129, -71.08658, -75.70379
 -70.12595, -71.46738, -71.56367, -75.57419
 -73.96336, -71.73143, -72.31967, -75.89868
 -74.80296, -71.59599, -73.78622, -76.44819
 -74.94193, -71.72124, -74.87304, -76.66000
 -75.23562, -71.55804, -75.56121, -76.91222
 -75.11243, -71.93525, -75.16623, -76.85722
 -74.77321, -71.98329, -73.62753, -76.57042
 -73.75272, -71.43211, -72.01240, -75.90559
 -70.19637, -71.07690, -70.90668, -75.65439
 -68.55845, -70.74693, -70.78658, -75.43365
 -69.66982, -70.73203, -70.21502, -75.31122
 -70.48752, -70.87081, -70.55521, -75.28419
 -70.60992, -71.03750, -70.58586, -75.36838
 -70.18107, -70.76843, -70.23162, -75.35112
 -69.18279, -70.90657, -70.07766, -75.39634
 -68.34822, -70.92956, -70.45699, -75.54798
 -68.73524, -71.37215, -71.13420, -75.64219
 -72.91301, -71.61748, -71.88402, -75.87883
 -74.74944, -71.71371, -73.30141, -76.49957
 -74.78874, -71.79836, -74.50703, -76.82906
 -74.97926, -71.84138, -75.64740, -76.89664
 -74.93843, -71.94974, -75.60272, -76.87107
 -74.61552, -71.84908, -74.22372, -76.50081
 -74.20230, -71.54874, -72.48009, -75.91502
 -71.07675, -71.21875, -71.42102, -75.60061
 -68.86603, -70.86861, -71.22440, -75.33048
 -69.45235, -70.69334, -70.73135, -75.32521
 -70.64407, -70.71883, -70.70045, -75.24625
 -71.12180, -70.91338, -71.10532, -75.49015
 -70.84179, -70.86812, -70.79582, -75.51428
 -69.81190, -70.68501, -70.60612, -75.41736
 -68.83743, -70.82230, -70.73872, -75.43831
 -68.76506, -71.08213, -71.26151, -75.62288
 -71.72446, -71.57947, -71.87328, -75.70151
 -74.47008, -71.77246, -73.00689, -76.12952
 -74.41926, -71.65691, -74.22771, -76.54309
 -74.66466, -71.70339, -75.36658, -76.79211
 -74.80553, -71.74072, -75.62851, -76.84920
 -74.41333, -71.82269, -74.59650, -76.69281
 -74.11491, -71.71857, -72.75166, -76.23254
 -71.93504, -71.28364, -71.56808, -75.77963
 -69.00333, -70.95569, -70.89129, -75.39449
 -68.80257, -70.86135, -70.41749, -75.19052
 -69.93025, -70.82182, -70.40096, -75.13142
 -70.32806, -70.98541, -70.61491, -75.28739
 -70.39676, -70.96891, -70.42814, -75.21613
 -69.56525, -70.93627, -70.22035, -75.51138
 -68.64485, -70.92026, -70.13980, -75.34927
 -68.20827, -71.10242, -70.83723, -75.55959
 -70.26106, -71.36284, -71.29617, -75.71712
 -74.14190, -71.52656, -72.44173, -75.97916
 -74.69561, -71.53117, -73.80195, -76.44772
 -75.00696, -72.09653, -75.23977, -76.79253
 -75.13177, -71.66544, -75.68219, -76.62908
 -74.53195, -71.75272, -75.13467, -76.74992
 -74.08327, -71.79596, -73.50105, -76.28745
 -73.30566, -71.52353, -71.94562, -75.86371
 -69.91739, -71.18259, -71.26810, -75.52223
 -68.99633, -70.89745, -70.98190, -75.37751
 -70.10773, -70.65005, -70.72183, -75.40408
 -70.77912, -70.92883, -70.97424, -75.39730
 -70.97903, -70.98668, -70.99340, -75.38620
 -70.38876, -70.90230, -70.57341, -75.29733
 -69.30388, -70.87919, -70.46719, -75.46091
 -68.61149, -70.66424, -70.90871, -75.50659
 -69.42842, -71.44022, -71.52608, -75.52091
 -73.39570, -71.71313, -72.16329, -75.84301
 -74.61768, -71.54214, -73.54329, -76.24490
 -74.80005, -71.47852, -74.76619, -76.73331
 -74.99740, -71.78423, -75.66512, -76.94051
 -75.05314, -71.78876, -75.41090, -76.74892
 -74.56345, -71.88596, -73.78171, -76.51677
 -73.94878, -71.46035, -72.13676, -75.92746
 -70.50629, -71.01469, -71.08443, -75.60337
 -68.44919, -70.76976, -70.72437, -75.24266
 -69.45365, -70.69563, -70.22559, -75.16600
 -70.41300, -70.79790, -70.42602, -75.25741
 -70.68255, -71.01482, -70.69698, -75.25222
 -70.25375, -70.60254, -70.28787, -75.38280
 -69.24072, -70.97351, -70.20701, -75.43842
 -68.31327, -70.94780, -70.44936, -75.40825
 -68.62804, -71.23042, -71.18875, -75.54550
 -72.19243, -71.55540, -71.84839, -75.77242
 -74.35358, -71.72581, -73.07052, -76.20131
 -74.37353, -71.90230, -74.38304, -76.58128
 -75.07791, -72.02381, -75.55875, -76.74179
 -75.21649, -71.83380, -75.65826, -76.83511
 -74.73475, -71.59657, -74.45676, -76.53427
 -74.52522, -71.66230, -72.71776, -76.18108
 -71.57053, -71.33191, -71.65993, -75.65625
 -68.95423, -71.18774, -71.20718, -75.50644
 -68.98528, -70.79107, -70.67498, -75.44581
 -70.31297, -70.79177, -70.85012, -75.30074
 -70.86021, -70.79639, -70.84489, -75.39586
 -70.63477, -70.99108, -70.75083, -75.45456
 -69.69497, -70.92702, -70.65338, -75.32487
 -68.82414, -70.71670, -70.57665, -75.47697
 -68.56467, -71.15843, -71.26424, -75.55766
 -70.94956, -71.48985, -71.76945, -75.72849
 -74.29605, -71.62454, -72.64276, -76.18650
 -74.52888, -71.52928, -74.15000, -76.47495
 -74.50623, -71.66605, -75.46681, -76.80693
 -74.71291, -71.77290, -75.66166, -76.83666
 -74.68484, -71.90941, -74.90952, -76.71162
 -74.14954, -71.66577, -73.04987, -76.30170
 -72.68178, -71.40230, -71.59601, -75.72552
 -69.13170, -70.96097, -70.93490, -75.47794
 -68.53214, -70.74612, -70.40119, -75.43246
 -69.82776, -70.96790, -70.29277, -75.21992
 -70.50285, -70.90530, -70.52509, -75.53533
 -70.42744, -70.74662, -70.56327, -75.34603
 -69.88706, -70.77149, -70.12717, -75.44520
 -68.71351, -70.79166, -70.19618, -75.50926
 -68.18759, -71.07104, -70.74097, -75.44450
 -69.58502, -71.59536, -71.17351, -75.61311
 -73.27674, -71.63875, -72.32220, -76.02241
 -74.46585, -71.73150, -73.73359, -76.52047
 -74.64269, -71.89876, -75.05630, -76.90459
 -74.76347, -71.86543, -75.73875, -77.05057
 -74.57479, -71.65407, -75.29338, -76.78835
 -74.32134, -71.70776, -73.71819, -76.39518
 -73.60991, -71.57008, -72.17926, -75.93655
 -70.25640, -71.19906, -71.36153, -75.55170
 -68.52932, -71.03301, -71.08089, -75.53471
 -69.84290, -70.80830, -70.69540, -75.37519
 -70.59550, -70.71029, -70.82431, -75.41153
 -70.87951, -71.00507, -70.88705, -75.59202
 -70.31122, -71.02808, -70.63239, -75.37801
 -69.34962, -70.91695, -70.47704, -75.41998
 -68.48934, -70.77802, -70.93341, -75.43412
 -69.03786, -71.36639, -71.56924, -75.75094
 -72.79572, -71.91901, -72.10948, -75.99461
 -74.41734, -71.73102, -73.56308, -76.48435
 -74.41852, -71.81245, -74.54921, -76.85452
 -75.02167, -71.52441, -75.50027, -76.95046
 -74.67651, -71.76604, -75.47361, -76.89079
 -74.77170, -71.82253, -74.00539, -76.60709
 -74.37758, -71.58936, -72.23619, -76.07867
 -71.01102, -71.15892, -71.15592, -75.69588
 -68.60242, -70.80930, -70.72636, -75.52272
 -69.11069, -70.77979, -70.26418, -75.22194
 -70.27916, -70.89107, -70.50778, -75.26210
 -70.64269, -70.83974, -70.63550, -75.45341
 -70.40627, -70.85113, -70.42329, -75.34963
 -69.45899, -71.06328, -70.25726, -75.40300
 -68.36862, -70.91220, -70.25451, -75.50030
 -68.38252, -71.12885, -70.92542, -75.59006
 -71.61652, -71.55923, -71.62109, -75.67616
 -74.51514, -71.62065, -72.90387, -76.29964
