\relax 
\providecommand\hyper@newdestlabel[2]{}
\@writefile{toc}{\contentsline {chapter}{\numberline {8}CONCLUSION}{145}{chapter.8}}
\newlabel{ch:9}{{8}{145}{CONCLUSION}{chapter.8}{}}
\@writefile{toc}{\contentsline {section}{\numberline {8.1}Future Work}{145}{section.8.1}}
\@setckpt{Chapters/Chapter_9/ch_9_conclusion}{
\setcounter{page}{146}
\setcounter{equation}{0}
\setcounter{enumi}{4}
\setcounter{enumii}{0}
\setcounter{enumiii}{0}
\setcounter{enumiv}{0}
\setcounter{footnote}{0}
\setcounter{mpfootnote}{0}
\setcounter{part}{0}
\setcounter{chapter}{8}
\setcounter{section}{1}
\setcounter{subsection}{0}
\setcounter{subsubsection}{0}
\setcounter{paragraph}{0}
\setcounter{subparagraph}{0}
\setcounter{figure}{0}
\setcounter{table}{0}
\setcounter{savemainpageno}{0}
\setcounter{savefrontpageno}{20}
\setcounter{savetotalpageno}{0}
\setcounter{float@type}{16}
\setcounter{alg}{0}
\setcounter{parentequation}{0}
\setcounter{lstnumber}{1}
\setcounter{ContinuedFloat}{0}
\setcounter{subfigure}{0}
\setcounter{subtable}{0}
\setcounter{Item}{6}
\setcounter{Hfootnote}{8}
\setcounter{bookmark@seq@number}{71}
\setcounter{lstlisting}{0}
\setcounter{section@level}{1}
}
