% This file was created by matlab2tikz.
%
%The latest updates can be retrieved from
%  http://www.mathworks.com/matlabcentral/fileexchange/22022-matlab2tikz-matlab2tikz
%where you can also make suggestions and rate matlab2tikz.
%
\definecolor{mycolor1}{rgb}{0.00000,0.44700,0.74100}%
\definecolor{mycolor2}{rgb}{0.85000,0.32500,0.09800}%
%
\begin{tikzpicture}

\begin{axis}[%
width=1.935in,
height=3.2in,
at={(0.758in,0.512in)},
scale only axis,
xmin=0,
xmax=150,
xlabel style={font=\color{white!15!black}, align=center},
xlabel={Sample Index\\[1ex](a) Actual},
ymin=0,
ymax=0.7,
axis background/.style={fill=white},
legend style={legend cell align=left, align=left, draw=white!15!black}
]
\addplot [color=mycolor1]
  table[row sep=crcr]{%
1	0.0234657806037261\\
2	0.0272334504034075\\
3	0.0326864300765018\\
4	0.0414541482980318\\
5	0.0586677033458464\\
6	0.117843438362983\\
7	0.159969331461504\\
8	0.174397116945152\\
9	0.616552810702634\\
10	0.0882137642931462\\
11	0.0472681903124796\\
12	0.0327587509505929\\
13	0.0272256709659274\\
14	0.0412344622245766\\
15	0.0186762848129325\\
16	0.0451940046978057\\
17	0.0153724087875252\\
18	0.0239672675363248\\
19	0.0400285717874473\\
20	0.0828333966509162\\
21	0.557624977131952\\
22	0.149414784250917\\
23	0.109138078132702\\
24	0.0381681231028791\\
25	0.032799759178118\\
26	0.191519461959093\\
27	0.0734580287558902\\
28	0.0358315656953253\\
29	0.0179563195827385\\
30	0.0169149242156914\\
31	0.0179798517146348\\
32	0.0199431506445131\\
33	0.0279225394655299\\
34	0.0908594243819801\\
35	0.0439964246924232\\
36	0.330890477505262\\
37	0.037800506563543\\
38	0.020261933748638\\
39	0.0138181229977315\\
40	0.0211497159554441\\
41	0.0112042208144458\\
42	0.00964538908702694\\
43	0.00864780826327016\\
44	0.00787736374270682\\
45	0.00720180133294831\\
46	0.00651453200193765\\
47	0.00565492088107664\\
48	0.0112814316241706\\
49	0.0075966567083061\\
50	0.0102713040739602\\
51	0.00787142060243747\\
52	0.00711780022683946\\
53	0.00668443537322835\\
54	0.00638223966522588\\
55	0.00615487020840034\\
56	0.00598242225636516\\
57	0.00586293416152974\\
58	0.00581626175933958\\
59	0.00593494184987807\\
60	0.00707647204853056\\
61	0.00861312572402681\\
62	0.00240649054353041\\
63	0.0036902508247688\\
64	0.0040125763148678\\
65	0.00408542983582614\\
66	0.00408934467211144\\
67	0.00406760360864643\\
68	0.00403657730104579\\
69	0.00400486664899167\\
70	0.00397913876457006\\
71	0.00396763365360209\\
72	0.00398577860522856\\
73	0.00407460869510253\\
74	0.00440882178496405\\
75	0.00852319154542653\\
76	0.00211982859547221\\
77	0.00279674481878385\\
78	0.00295234209521732\\
79	0.00299967450324673\\
80	0.00300734384297471\\
81	0.00299658049652506\\
82	0.00297609501762909\\
83	0.00295010695632826\\
84	0.00292089738309008\\
85	0.00288979839106794\\
86	0.00285763293534116\\
87	0.00282493110979805\\
88	0.00279204510261472\\
89	0.00275921420187501\\
90	0.00272660345813555\\
91	0.00269432766245323\\
92	0.00266246675038502\\
93	0.00263107599882434\\
94	0.00260019295165966\\
95	0.00256984222925479\\
96	0.00254003893333548\\
97	0.0025107910982644\\
98	0.00248210148178531\\
99	0.00245396889001376\\
100	0.00242638916874131\\
101	0.00239935595223708\\
102	0.00237286123354156\\
103	0.00234689580183488\\
104	0.00232144957979209\\
105	0.00229651188498403\\
106	0.00227207163310714\\
107	0.0022481174963278\\
108	0.00222463802675857\\
109	0.00220162175268604\\
110	0.00217905725339276\\
111	0.0021569332170867\\
112	0.00213523848544673\\
113	0.00211396208753109\\
114	0.00209309326520902\\
115	0.00207262149182518\\
116	0.00205253648545491\\
117	0.00203282821783402\\
118	0.00201348691983224\\
119	0.00199450308416773\\
120	0.00197586746592614\\
121	0.00195757108133911\\
122	0.0019396052051902\\
123	0.0019219613671484\\
124	0.00190463134727109\\
125	0.00188760717087541\\
126	0.00187088110293773\\
127	0.00185444564215264\\
128	0.0018382935147574\\
129	0.00182241766820821\\
130	0.00180681126477794\\
131	0.00179146767513212\\
132	0.00177638047192757\\
133	0.00176154342347035\\
134	0.00174695048746156\\
135	0.0017325958048528\\
136	0.00171847369382931\\
137	0.00170457864393352\\
138	0.0016909053103386\\
139	0.00167744850827835\\
140	0.00166420320763913\\
141	0.00165116452771496\\
142	0.00163832773212761\\
143	0.00162568822391149\\
144	0.00161324154076111\\
145	0.0016009833504405\\
146	0.00158890944635072\\
147	0.00157701574325256\\
148	0.00156529827314105\\
149	0\\
150	0\\
};
\addlegendentry{$\mathbf{h_1}$}

\addplot [color=mycolor2]
  table[row sep=crcr]{%
1	0.019775303219206\\
2	0.0210217764534023\\
3	0.0224372323963497\\
4	0.024058742711813\\
5	0.0259351263737046\\
6	0.0281320174688059\\
7	0.0307398096072034\\
8	0.0338865833958781\\
9	0.0377600935275399\\
10	0.0426472101764649\\
11	0.0490094599986528\\
12	0.0576401827385178\\
13	0.0700288298559564\\
14	0.0893407156606893\\
15	0.123700774100431\\
16	0.202175033398071\\
17	0.564479813098353\\
18	0.690442426104836\\
19	0.212260509632627\\
20	0.126132345068284\\
21	0.100380135781766\\
22	0.0378663697499036\\
23	0.0333199748773482\\
24	0.0149453064107011\\
25	0.10083899339379\\
26	0.161002397050911\\
27	0.0405118251764787\\
28	0.0383644765554957\\
29	0.0341227495803863\\
30	0.0306469105251072\\
31	0.0278570926171954\\
32	0.0255709383506331\\
33	0.0236574529195357\\
34	0.0220274984760589\\
35	0.0206190941704396\\
36	0.0193877726649002\\
37	0.0183006807256663\\
38	0.0173329207549748\\
39	0.016465211935799\\
40	0.0156823459816501\\
41	0.0149721364414517\\
42	0.0143246843629073\\
43	0.0137318527665838\\
44	0.0131868826449622\\
45	0.0126841071808284\\
46	0.0122187355837443\\
47	0.0117866872087634\\
48	0.0113844626077037\\
49	0.0110090421200206\\
50	0.0106578052804057\\
51	0\\
52	0\\
53	0\\
54	0\\
55	0\\
56	0\\
57	0\\
58	0\\
59	0\\
60	0\\
61	0\\
62	0\\
63	0\\
64	0\\
65	0\\
66	0\\
67	0\\
68	0\\
69	0\\
70	0\\
71	0\\
72	0\\
73	0\\
74	0\\
75	0\\
76	0\\
77	0\\
78	0\\
79	0\\
80	0\\
81	0\\
82	0\\
83	0\\
84	0\\
85	0\\
86	0\\
87	0\\
88	0\\
89	0\\
90	0\\
91	0\\
92	0\\
93	0\\
94	0\\
95	0\\
96	0\\
97	0\\
98	0\\
99	0\\
100	0\\
101	0\\
102	0\\
103	0\\
104	0\\
105	0\\
106	0\\
107	0\\
108	0\\
109	0\\
110	0\\
111	0\\
112	0\\
113	0\\
114	0\\
115	0\\
116	0\\
117	0\\
118	0\\
119	0\\
120	0\\
121	0\\
122	0\\
123	0\\
124	0\\
125	0\\
126	0\\
127	0\\
128	0\\
129	0\\
130	0\\
131	0\\
132	0\\
133	0\\
134	0\\
135	0\\
136	0\\
137	0\\
138	0\\
139	0\\
140	0\\
141	0\\
142	0\\
143	0\\
144	0\\
145	0\\
146	0\\
147	0\\
148	0\\
149	0\\
150	0\\
};
\addlegendentry{$\mathbf{h_{2}}$}

\end{axis}

\begin{axis}[%
width=1.935in,
height=3.2in,
at={(3.327in,0.512in)},
scale only axis,
xmin=0,
xmax=150,
xlabel style={font=\color{white!15!black}, align=center},
xlabel={Sample Index\\[1ex](b) Estimated},
ymin=0,
ymax=1,
axis background/.style={fill=white},
legend style={legend cell align=left, align=left, draw=white!15!black}
]
\addplot [color=mycolor1]
  table[row sep=crcr]{%
0	7.22941804135192e-05\\
1	8.64863701848134e-05\\
2	6.60870523777198e-05\\
3	2.61684466010024e-05\\
4	4.07915437076675e-05\\
5	4.80388286583727e-05\\
6	6.27875007343303e-05\\
7	6.24556574167175e-05\\
8	4.48059447383652e-05\\
9	8.18252733832432e-05\\
10	7.85313303565108e-05\\
11	7.98531672303889e-05\\
12	3.66383026380957e-05\\
13	2.05771293991299e-05\\
14	6.90224592889405e-05\\
15	9.23613881124421e-05\\
16	6.31551293879136e-05\\
17	4.18033931032449e-05\\
18	2.97846620361296e-05\\
19	6.27572603869231e-06\\
20	8.20957038112454e-05\\
21	4.18475146976919e-05\\
22	2.63504254627965e-05\\
23	8.70541577996032e-05\\
24	4.33797414598874e-05\\
25	8.85282361953278e-05\\
26	0.000100074899496682\\
27	0.00010191174501277\\
28	3.17706255379089e-05\\
29	0.000266471471571022\\
30	8.01685201256336e-05\\
31	5.73452456315603e-05\\
32	1.23206754782078e-05\\
33	6.23546991012787e-05\\
34	0.000127129001710109\\
35	2.8546873704792e-05\\
36	4.99418796099748e-05\\
37	0.000441062565414659\\
38	0.00499078538649424\\
39	0.00526125604498101\\
40	0.000413121584806389\\
41	0.000685511679574205\\
42	6.6241586950564e-05\\
43	0.00176259059510367\\
44	6.27730590577115e-05\\
45	0.00147454851555176\\
46	0.000294416264060635\\
47	0.00101733605198146\\
48	0.00601239161904271\\
49	0.00142349827542563\\
50	0.0143618514452142\\
51	0.0461325748375447\\
52	0.0137092188702093\\
53	0.00356567272474318\\
54	0.0294739249502049\\
55	9.12078481257026e-05\\
56	0.0139651591337124\\
57	0.112816769893621\\
58	0.0315629110700306\\
59	0.0257107606318185\\
60	0.0259542151784582\\
61	0.0135227524667241\\
62	0.0409402986495812\\
63	0.154908834038193\\
64	0.0241336094899137\\
65	0.494805294994212\\
66	0.409309772635947\\
67	0.102158962684729\\
68	0.0723205159169869\\
69	0.0327145736978668\\
70	0.103134625501298\\
71	0.0214507595334269\\
72	0.0444955215042838\\
73	0.00225410228433563\\
74	0.0680913638126806\\
75	0.0740095688231972\\
76	0.102380286757284\\
77	0.260901910386718\\
78	0.489190319835638\\
79	0.178958282312035\\
80	0.0526687669754697\\
81	0.066998457543737\\
82	0.106808595098408\\
83	0.0885948418102815\\
84	0.106195671678193\\
85	0.010266254025857\\
86	0.0195663760879498\\
87	0.0200340264488012\\
88	0.010503713280371\\
89	0.0289009157795686\\
90	0.082425391944073\\
91	0.10003640325708\\
92	0.288890220515412\\
93	0.0990232838379555\\
94	0.026892413127843\\
95	0.0293736724939244\\
96	0.00506292058103119\\
97	0.000380239284792578\\
98	0.000748077533789655\\
99	0.00273476584078612\\
100	0.0114796054716676\\
101	5.09199101187216e-05\\
102	7.02197639551775e-05\\
103	0.00768760607650362\\
104	0.0293225620077436\\
105	0.0143850040067258\\
106	0.000111017481175034\\
107	0.00685876868625659\\
108	3.09918757177996e-05\\
109	0.000164155000710053\\
110	3.72035040148425e-05\\
111	4.0942842132737e-05\\
112	4.63343873577374e-05\\
113	3.75665298694859e-05\\
114	0.000127457886872421\\
115	3.69214662175091e-05\\
116	0.000138900427783474\\
117	0.000589779659559509\\
118	3.15573837003989e-05\\
119	0.000136626395174327\\
120	4.28269427216688e-05\\
121	5.26459762558225e-05\\
122	3.00093201280412e-05\\
123	6.17116139602899e-05\\
124	2.46252732096624e-05\\
125	1.64426038270425e-05\\
126	5.80670883814605e-05\\
127	3.06741228838338e-05\\
128	9.10295745637928e-05\\
129	3.68919522134325e-05\\
130	1.77661212864033e-05\\
131	6.41849682284614e-06\\
132	8.21034657582154e-05\\
133	2.37586878758331e-05\\
134	7.12092335675454e-05\\
135	4.18151200142095e-05\\
136	6.00456041578294e-05\\
137	2.69835170448965e-05\\
138	9.36734101375562e-05\\
139	5.05935024763272e-05\\
140	6.73095233837766e-05\\
141	6.58854446353545e-05\\
142	7.61149546556233e-05\\
143	8.11835908554925e-05\\
144	5.3001705563207e-05\\
145	3.15423614651294e-05\\
146	6.56957388606645e-05\\
147	6.18907957326031e-05\\
148	6.37493060318599e-05\\
149	1.81912585548047e-05\\
};
\addlegendentry{$\mathbf{\hat{h}_{1}}$}

\addplot [color=mycolor2]
  table[row sep=crcr]{%
0	9.43639839558637e-06\\
1	3.5897603003951e-05\\
2	2.68622498141845e-05\\
3	1.64166051661768e-05\\
4	1.72791828842505e-05\\
5	1.16573050914639e-05\\
6	2.22162853861089e-05\\
7	1.23692901431087e-05\\
8	3.05025921739259e-05\\
9	5.93410617071161e-06\\
10	1.37022867729718e-05\\
11	5.67322586316743e-05\\
12	2.17711437700705e-05\\
13	2.47236032149747e-05\\
14	2.29925952000189e-06\\
15	2.74497974484113e-05\\
16	3.50428041160428e-06\\
17	2.43146963776563e-05\\
18	4.69770112145459e-05\\
19	1.15618702141327e-05\\
20	1.66919230640929e-05\\
21	4.73462830688616e-05\\
22	3.14839284345011e-05\\
23	4.16941497592758e-05\\
24	6.41611920872081e-05\\
25	1.65329640452112e-05\\
26	2.57802219624951e-05\\
27	2.40012942253439e-06\\
28	2.7554675287497e-05\\
29	8.79025964395687e-06\\
30	2.31477173057274e-05\\
31	9.98133783706413e-06\\
32	0.000544369223744659\\
33	0.00234980967318687\\
34	0.000553181243644918\\
35	0.00320649351113995\\
36	2.94458985456794e-05\\
37	0.00083725644878694\\
38	4.62293765187987e-05\\
39	4.42966380887137e-05\\
40	0.000130571680004859\\
41	0.000406142511203924\\
42	0.00252999873790324\\
43	1.93383578336421e-05\\
44	0.00149447156883849\\
45	0.0117207717437286\\
46	0.00598011520892531\\
47	0.0426958478554875\\
48	0.00673508414094869\\
49	0.0171199230972795\\
50	0.00780030641760458\\
51	0.00435233186152632\\
52	1.33174781896112e-05\\
53	0.00147939035776139\\
54	0.00528227714357177\\
55	0.00619743033011724\\
56	0.00445139270522036\\
57	0.0223997713101075\\
58	0.0137824802337938\\
59	0.048267384449414\\
60	0.0282490669793422\\
61	0.0347741712431768\\
62	0.0954666583106619\\
63	0.0145652524525851\\
64	0.0213332276924543\\
65	0.00403270663488744\\
66	0.00625812989807182\\
67	0.0120697983277701\\
68	0.00976572802963141\\
69	0.00790403294992663\\
70	0.00758226653404634\\
71	0.0197385908567454\\
72	0.0281001448043003\\
73	0.0244482568963711\\
74	0.980261107496182\\
75	0.0242930621081975\\
76	0.0275186165566118\\
77	0.0191052371495998\\
78	0.00823004874538667\\
79	0.00902924779616305\\
80	0.0104312923109307\\
81	0.0121972302644583\\
82	0.00743783959072224\\
83	0.00465090587281237\\
84	0.0204960607414077\\
85	0.0145400674826901\\
86	0.0949760297293069\\
87	0.0352548189283764\\
88	0.0276885309405131\\
89	0.0491438280814482\\
90	0.0138188248486037\\
91	0.0229958689934293\\
92	0.00451920127715408\\
93	0.00705823721273081\\
94	0.00476267194073242\\
95	0.00112521371207403\\
96	7.28115448799754e-06\\
97	0.00400822664199064\\
98	0.00744413665504529\\
99	0.0167815427658404\\
100	0.00637885810494206\\
101	0.0434177393469173\\
102	0.00591223314224014\\
103	0.0114507065926299\\
104	0.00176202231204984\\
105	0.000133395710716544\\
106	0.00231664452914072\\
107	0.000487769578591782\\
108	0.000433461987958682\\
109	5.06812454973452e-05\\
110	5.27418048217675e-05\\
111	0.000737119127170336\\
112	3.62354093478272e-05\\
113	0.00288372755328369\\
114	0.000403663028401119\\
115	0.00227495714613567\\
116	0.00119507996495974\\
117	1.44051008323192e-05\\
118	1.73749866987004e-05\\
119	1.60088877892412e-05\\
120	3.33935563744043e-05\\
121	2.06305552631426e-05\\
122	3.22235394005816e-05\\
123	1.05801114496382e-05\\
124	5.58957650896929e-05\\
125	4.42410836210793e-05\\
126	3.22924615725701e-05\\
127	3.10839930137965e-05\\
128	1.52980490309605e-05\\
129	3.79575112910688e-06\\
130	5.61416628293799e-05\\
131	1.56419795569716e-05\\
132	1.4412477541109e-05\\
133	3.24314823767916e-05\\
134	4.92990681813933e-06\\
135	3.66143227602819e-05\\
136	1.57077660860945e-05\\
137	6.19705808831127e-05\\
138	1.18631890768733e-05\\
139	1.95601890582343e-05\\
140	3.60335304261695e-05\\
141	8.038590807375e-06\\
142	2.09751953473475e-05\\
143	1.62204954854477e-05\\
144	1.8894882332339e-05\\
145	2.25721393197428e-05\\
146	3.59354221852708e-05\\
147	3.20365661316009e-05\\
148	1.03551767739596e-05\\
149	7.93427820090132e-06\\
};
\addlegendentry{$\mathbf{\hat{h}_{2}}$}

\end{axis}
\end{tikzpicture}%