% This file was created by matlab2tikz.
%
%The latest updates can be retrieved from
%  http://www.mathworks.com/matlabcentral/fileexchange/22022-matlab2tikz-matlab2tikz
%where you can also make suggestions and rate matlab2tikz.
%
\definecolor{mycolor1}{rgb}{0.00000,0.44700,0.74100}%
\definecolor{mycolor2}{rgb}{0.85000,0.32500,0.09800}%
%
\begin{tikzpicture}

\begin{axis}[%
width=1.935in,
height=3.2in,
at={(0.758in,0.512in)},
scale only axis,
xmin=0,
xmax=100,
xlabel style={font=\color{white!15!black}, align=center},
xlabel={Sample Index\\[1ex](a) Actual},
ymin=0,
ymax=1,
axis background/.style={fill=white},
legend style={legend cell align=left, align=left, draw=white!15!black}
]
\addplot [color=mycolor1]
  table[row sep=crcr]{%
1	0.0216926152020066\\
2	0.0241183965289278\\
3	0.0267807478156139\\
4	0.0354280601095614\\
5	0.221828667704926\\
6	0.648965745595675\\
7	0.241270440438586\\
8	0.0776642628644082\\
9	0.0581044824071981\\
10	0.0611489366831747\\
11	0.0798140419847986\\
12	0.062735544320507\\
13	0.113011040425493\\
14	0.377485382687519\\
15	0.331649248845691\\
16	0.18615433793772\\
17	0.146493252817741\\
18	0.0847190801249442\\
19	0.0628278567269286\\
20	0.0148364296169451\\
21	0.0250471739922352\\
22	0.0344835915107885\\
23	0.116323790948646\\
24	0.279210940275387\\
25	0.101045410677318\\
26	0.0464379665429307\\
27	0.041398863205924\\
28	0.0263226969199998\\
29	0.0221848789960478\\
30	0.0197642774213948\\
31	0.0186496517239344\\
32	0.0219339353832985\\
33	0.018414044189717\\
34	0.00937919788338426\\
35	0.0100670783096178\\
36	0.0098135024549665\\
37	0.00937197330245933\\
38	0.00884810306396591\\
39	0.00821513429074651\\
40	0.00732026654240377\\
41	0.00945021173361951\\
42	0.0127255218727005\\
43	0.00946415089832864\\
44	0.00862800399957479\\
45	0.00816256372793386\\
46	0.00784857678072338\\
47	0.00764005346579914\\
48	0.00755773656417068\\
49	0.00776075567554332\\
50	0.00986938420958768\\
51	0.00319649311885596\\
52	0.00500292172051245\\
53	0.00524752973649041\\
54	0.00526667690567613\\
55	0.00521575322380608\\
56	0.00513704586881206\\
57	0.00504647235310817\\
58	0.00495116794332671\\
59	0.00485468351773321\\
60	0.00475890010347922\\
61	0.00466484578572566\\
62	0.00457308311118313\\
63	0.00448390798586452\\
64	0.0043974582605137\\
65	0.00431377595094964\\
66	0.00423284428954661\\
67	0.00415461047403326\\
68	0.00407899997367922\\
69	0.00400592569101114\\
70	0.00393529390404367\\
71	0.0038670081481966\\
72	0.00380097175500134\\
73	0.00373708950172093\\
74	0.00367526866536834\\
75	0.00361541967416126\\
76	0.00355745648532918\\
77	0.00350129677649243\\
78	0.00344686201027152\\
79	0.00339407741330312\\
80	0.00334287189828014\\
81	0.0032931779490063\\
82	0.00324493148246751\\
83	0.00319807169773062\\
84	0.003152540918526\\
85	0.00310828443427485\\
86	0.00306525034282854\\
87	0.00302338939712195\\
88	0.00298265485717807\\
89	0.00294300234835571\\
90	0.00290438972634362\\
91	0.0028667769491261\\
92	0.00283012595595264\\
93	0.0027944005532083\\
94	0.00275956630699144\\
95	0.0027255904421446\\
96	0.00269244174744817\\
97	0.00266009048666622\\
98	0.00262850831512411\\
99	0\\
100	0\\
};
\addlegendentry{$\mathbf{h_1}$}

\addplot [color=mycolor2]
  table[row sep=crcr]{%
1	0.00108294891904515\\
2	0.00115806441999571\\
3	0.00125656841390277\\
4	0.00139359850086552\\
5	0.00159676508941691\\
6	0.00191784013184518\\
7	0.00245777585368985\\
8	0.00342819163679349\\
9	0.00533730915065768\\
10	0.00974214709050295\\
11	0.0244449264542886\\
12	0.973731186814765\\
13	0.0500739614470277\\
14	0.0426946282907342\\
15	0.00536788790071817\\
16	0.0362080823589407\\
17	0.176144271962331\\
18	0.115663212635922\\
19	0.0234963057121139\\
20	0.0138738178597906\\
21	0.00966054585381422\\
22	0.00731818549393035\\
23	0.00584139575065055\\
24	0.0048330083027894\\
25	0.00410500747522503\\
26	0.00355723928842746\\
27	0.00313167065616096\\
28	0.00279247304593218\\
29	0.00251639833876938\\
30	0.00228774297450139\\
31	0.00209554142652578\\
32	0.00193191967393617\\
33	0.00179108704155738\\
34	0.00166869616651274\\
35	0\\
36	0\\
37	0\\
38	0\\
39	0\\
40	0\\
41	0\\
42	0\\
43	0\\
44	0\\
45	0\\
46	0\\
47	0\\
48	0\\
49	0\\
50	0\\
51	0\\
52	0\\
53	0\\
54	0\\
55	0\\
56	0\\
57	0\\
58	0\\
59	0\\
60	0\\
61	0\\
62	0\\
63	0\\
64	0\\
65	0\\
66	0\\
67	0\\
68	0\\
69	0\\
70	0\\
71	0\\
72	0\\
73	0\\
74	0\\
75	0\\
76	0\\
77	0\\
78	0\\
79	0\\
80	0\\
81	0\\
82	0\\
83	0\\
84	0\\
85	0\\
86	0\\
87	0\\
88	0\\
89	0\\
90	0\\
91	0\\
92	0\\
93	0\\
94	0\\
95	0\\
96	0\\
97	0\\
98	0\\
99	0\\
100	0\\
};
\addlegendentry{$\mathbf{h_{2}}$}

\end{axis}

\begin{axis}[%
width=1.935in,
height=3.2in,
at={(3.327in,0.512in)},
scale only axis,
xmin=0,
xmax=100,
xlabel style={font=\color{white!15!black}, align=center},
xlabel={Sample Index\\[1ex](b) Estimated},
ymin=0,
ymax=1,
axis background/.style={fill=white},
legend style={legend cell align=left, align=left, draw=white!15!black}
]
\addplot [color=mycolor1]
  table[row sep=crcr]{%
0	0.00336199370946534\\
1	0.0041898513886251\\
2	0.00160285927771823\\
3	0.00642539529578334\\
4	0.00916476165885685\\
5	0.00708298372825251\\
6	0.00525549299403233\\
7	0.00376586301169923\\
8	0.0020307257205805\\
9	0.00938341532375277\\
10	0.0162402948205626\\
11	0.0158043511650407\\
12	0.00981385743499923\\
13	0.00785377065627921\\
14	0.0057660193417081\\
15	0.00515546107294427\\
16	0.00401185174377673\\
17	0.0117261747604708\\
18	0.00235011601172673\\
19	0.0258935677253256\\
20	0.0525613472631917\\
21	0.00112724932159123\\
22	0.0202953719839118\\
23	0.00542804002463773\\
24	0.00822295574668765\\
25	0.0183129641237635\\
26	0.0150549719124327\\
27	0.0486018846385639\\
28	0.10116292121774\\
29	0.059842746379152\\
30	0.0772713320974636\\
31	0.0432860627617829\\
32	0.0148432962764402\\
33	0.0716238825699937\\
34	0.017906905057678\\
35	0.0498367776740028\\
36	0.00921085675739283\\
37	0.170678610378283\\
38	0.66270542546472\\
39	0.201040004133896\\
40	0.0383565130713075\\
41	0.0957526618604455\\
42	0.0910928376215298\\
43	0.130709288829856\\
44	0.0344125211931014\\
45	0.098081648712023\\
46	0.351239656299142\\
47	0.280407022229017\\
48	0.200191115625362\\
49	0.124667311730894\\
50	0.0878061720478757\\
51	0.0685465399765681\\
52	0.0680496300769947\\
53	0.0397687939993365\\
54	0.081076420178659\\
55	0.153480694169403\\
56	0.264404315230694\\
57	0.0608810964232657\\
58	0.0191811448234624\\
59	0.0214010062329641\\
60	0.0188898339356319\\
61	0.0147767604416659\\
62	0.0375928791103354\\
63	0.0676727170766112\\
64	0.0909637313175099\\
65	0.0426464421702203\\
66	0.0262316769390039\\
67	0.01507289040825\\
68	0.0320822688569554\\
69	0.0193865227362845\\
70	0.0262037900288434\\
71	0.0137502951862626\\
72	0.0238972372321786\\
73	0.03904958804569\\
74	0.0243254648651415\\
75	0.0228852883155407\\
76	0.0036774965094667\\
77	0.00828357516608886\\
78	0.0132675944397787\\
79	0.0173257945810419\\
80	0.0150409688213849\\
81	0.0252683225016018\\
82	0.021729867439263\\
83	0.00517849533019222\\
84	0.0159153369306918\\
85	0.0113454165372579\\
86	0.0124521382493423\\
87	0.00519214648846161\\
88	0.00355720549085822\\
89	0.00548405941256442\\
90	0.00651356277260785\\
};
\addlegendentry{$\mathbf{\hat{h}_{1}}$}

\addplot [color=mycolor2]
  table[row sep=crcr]{%
0	0.00467768073739669\\
1	0.00530254492261759\\
2	0.00133670662654361\\
3	0.00318262769875546\\
4	0.000253962050587665\\
5	0.00100769197022058\\
6	0.00335650744137851\\
7	0.00542491885126148\\
8	0.00742161740268711\\
9	0.00408665771460813\\
10	0.0128574553073806\\
11	0.00966185520479432\\
12	0.00882537794994421\\
13	0.00657750535704858\\
14	0.00588902211014185\\
15	0.00851411391300826\\
16	0.0224001817010623\\
17	0.0143694169385319\\
18	0.0286784800545355\\
19	0.0171373522626661\\
20	0.00394036180793592\\
21	0.00619130485761033\\
22	0.00537771944114501\\
23	0.00694090129333186\\
24	0.0115686898286458\\
25	0.0267830207128964\\
26	0.0916372267036334\\
27	0.0274651959531882\\
28	0.0391375854332559\\
29	0.0167714643619088\\
30	0.0139263100664012\\
31	0.0103903729605766\\
32	0.00264824653336029\\
33	0.0701728494515976\\
34	0.0786857234403479\\
35	0.0389270452721689\\
36	0.141271065295173\\
37	0.00992579418755627\\
38	0.035493085025374\\
39	0.0564576323912326\\
40	0.0327362369378544\\
41	0.0323966261940002\\
42	0.0474092724671273\\
43	0.0134060636624794\\
44	0.942012509969631\\
45	0.0133616015488373\\
46	0.0473886298442386\\
47	0.0323449551719939\\
48	0.0327999117169579\\
49	0.0565745669100155\\
50	0.0352677513889401\\
51	0.0097884833921698\\
52	0.141509397114776\\
53	0.0385729181721569\\
54	0.0785008489554305\\
55	0.0697891674613017\\
56	0.00278892769687877\\
57	0.0109402108917378\\
58	0.013406734538536\\
59	0.0161670472854975\\
60	0.0385365100726821\\
61	0.0276941887745159\\
62	0.0913071412920752\\
63	0.0275383443309963\\
64	0.0109130956586056\\
65	0.00660509057826772\\
66	0.0058296007286508\\
67	0.00678363721043818\\
68	0.00482192785823982\\
69	0.0166907291527249\\
70	0.0286595635124105\\
71	0.0135833893804636\\
72	0.0230745850230109\\
73	0.00864500830403134\\
74	0.00550361632643411\\
75	0.00642777327108667\\
76	0.00722847883910003\\
77	0.0088835582200936\\
78	0.0109718218303112\\
79	0.00346008856654808\\
80	0.00581651642741358\\
81	0.00402951299069681\\
82	0.00445128666632797\\
83	0.0025854559892514\\
84	0.00173101202675868\\
85	0.00221408989700903\\
86	0.00187936254192685\\
87	0.00477747270553051\\
88	0.00460164802442439\\
89	0.00366555734778659\\
90	0.000777849381486859\\
};
\addlegendentry{$\mathbf{\hat{h}_{2}}$}

\end{axis}
\end{tikzpicture}%