% This file was created by matlab2tikz.
%
%The latest updates can be retrieved from
%  http://www.mathworks.com/matlabcentral/fileexchange/22022-matlab2tikz-matlab2tikz
%where you can also make suggestions and rate matlab2tikz.
%
\definecolor{mycolor1}{rgb}{0.00000,0.44700,0.74100}%
\definecolor{mycolor2}{rgb}{0.85000,0.32500,0.09800}%
%
\begin{tikzpicture}

\begin{axis}[%
width=1.935in,
height=3.2in,
at={(0.758in,0.512in)},
scale only axis,
xmin=0,
xmax=100,
xlabel style={font=\color{white!15!black}, align=center},
xlabel={Sample Index\\[1ex](a) Actual},
ymin=0,
ymax=1,
axis background/.style={fill=white},
legend style={legend cell align=left, align=left, draw=white!15!black}
]
\addplot [color=mycolor1]
  table[row sep=crcr]{%
1	0.0216926152020066\\
2	0.0241183965289278\\
3	0.0267807478156139\\
4	0.0354280601095614\\
5	0.221828667704926\\
6	0.648965745595675\\
7	0.241270440438586\\
8	0.0776642628644082\\
9	0.0581044824071981\\
10	0.0611489366831747\\
11	0.0798140419847986\\
12	0.062735544320507\\
13	0.113011040425493\\
14	0.377485382687519\\
15	0.331649248845691\\
16	0.18615433793772\\
17	0.146493252817741\\
18	0.0847190801249442\\
19	0.0628278567269286\\
20	0.0148364296169451\\
21	0.0250471739922352\\
22	0.0344835915107885\\
23	0.116323790948646\\
24	0.279210940275387\\
25	0.101045410677318\\
26	0.0464379665429307\\
27	0.041398863205924\\
28	0.0263226969199998\\
29	0.0221848789960478\\
30	0.0197642774213948\\
31	0.0186496517239344\\
32	0.0219339353832985\\
33	0.018414044189717\\
34	0.00937919788338426\\
35	0.0100670783096178\\
36	0.0098135024549665\\
37	0.00937197330245933\\
38	0.00884810306396591\\
39	0.00821513429074651\\
40	0.00732026654240377\\
41	0.00945021173361951\\
42	0.0127255218727005\\
43	0.00946415089832864\\
44	0.00862800399957479\\
45	0.00816256372793386\\
46	0.00784857678072338\\
47	0.00764005346579914\\
48	0.00755773656417068\\
49	0.00776075567554332\\
50	0.00986938420958768\\
51	0.00319649311885596\\
52	0.00500292172051245\\
53	0.00524752973649041\\
54	0.00526667690567613\\
55	0.00521575322380608\\
56	0.00513704586881206\\
57	0.00504647235310817\\
58	0.00495116794332671\\
59	0.00485468351773321\\
60	0.00475890010347922\\
61	0.00466484578572566\\
62	0.00457308311118313\\
63	0.00448390798586452\\
64	0.0043974582605137\\
65	0.00431377595094964\\
66	0.00423284428954661\\
67	0.00415461047403326\\
68	0.00407899997367922\\
69	0.00400592569101114\\
70	0.00393529390404367\\
71	0.0038670081481966\\
72	0.00380097175500134\\
73	0.00373708950172093\\
74	0.00367526866536834\\
75	0.00361541967416126\\
76	0.00355745648532918\\
77	0.00350129677649243\\
78	0.00344686201027152\\
79	0.00339407741330312\\
80	0.00334287189828014\\
81	0.0032931779490063\\
82	0.00324493148246751\\
83	0.00319807169773062\\
84	0.003152540918526\\
85	0.00310828443427485\\
86	0.00306525034282854\\
87	0.00302338939712195\\
88	0.00298265485717807\\
89	0.00294300234835571\\
90	0.00290438972634362\\
91	0.0028667769491261\\
92	0.00283012595595264\\
93	0.0027944005532083\\
94	0.00275956630699144\\
95	0.0027255904421446\\
96	0.00269244174744817\\
97	0.00266009048666622\\
98	0.00262850831512411\\
99	0\\
100	0\\
};
\addlegendentry{$\mathbf{h_1}$}

\addplot [color=mycolor2]
  table[row sep=crcr]{%
1	0.00108294891904515\\
2	0.00115806441999571\\
3	0.00125656841390277\\
4	0.00139359850086552\\
5	0.00159676508941691\\
6	0.00191784013184518\\
7	0.00245777585368985\\
8	0.00342819163679349\\
9	0.00533730915065768\\
10	0.00974214709050295\\
11	0.0244449264542886\\
12	0.973731186814765\\
13	0.0500739614470277\\
14	0.0426946282907342\\
15	0.00536788790071817\\
16	0.0362080823589407\\
17	0.176144271962331\\
18	0.115663212635922\\
19	0.0234963057121139\\
20	0.0138738178597906\\
21	0.00966054585381422\\
22	0.00731818549393035\\
23	0.00584139575065055\\
24	0.0048330083027894\\
25	0.00410500747522503\\
26	0.00355723928842746\\
27	0.00313167065616096\\
28	0.00279247304593218\\
29	0.00251639833876938\\
30	0.00228774297450139\\
31	0.00209554142652578\\
32	0.00193191967393617\\
33	0.00179108704155738\\
34	0.00166869616651274\\
35	0\\
36	0\\
37	0\\
38	0\\
39	0\\
40	0\\
41	0\\
42	0\\
43	0\\
44	0\\
45	0\\
46	0\\
47	0\\
48	0\\
49	0\\
50	0\\
51	0\\
52	0\\
53	0\\
54	0\\
55	0\\
56	0\\
57	0\\
58	0\\
59	0\\
60	0\\
61	0\\
62	0\\
63	0\\
64	0\\
65	0\\
66	0\\
67	0\\
68	0\\
69	0\\
70	0\\
71	0\\
72	0\\
73	0\\
74	0\\
75	0\\
76	0\\
77	0\\
78	0\\
79	0\\
80	0\\
81	0\\
82	0\\
83	0\\
84	0\\
85	0\\
86	0\\
87	0\\
88	0\\
89	0\\
90	0\\
91	0\\
92	0\\
93	0\\
94	0\\
95	0\\
96	0\\
97	0\\
98	0\\
99	0\\
100	0\\
};
\addlegendentry{$\mathbf{h_{2}}$}

\end{axis}

\begin{axis}[%
width=1.935in,
height=3.2in,
at={(3.327in,0.512in)},
scale only axis,
xmin=0,
xmax=100,
xlabel style={font=\color{white!15!black}, align=center},
xlabel={Sample Index\\[1ex](b) Estimated},
ymin=0,
ymax=1,
axis background/.style={fill=white},
legend style={legend cell align=left, align=left, draw=white!15!black}
]
\addplot [color=mycolor1]
  table[row sep=crcr]{%
0	7.44854224300181e-05\\
1	2.26627026862984e-05\\
2	8.22477711042735e-05\\
3	7.32222423966415e-05\\
4	0.000122227184493038\\
5	0.000102342094767832\\
6	1.09012380603218e-05\\
7	3.53202374609391e-05\\
8	2.79694910959463e-05\\
9	0.000215248941504657\\
10	2.71680884918072e-05\\
11	6.38743450825002e-05\\
12	7.16018153390737e-05\\
13	8.47007115333262e-05\\
14	8.61599465243352e-05\\
15	5.66110224688421e-05\\
16	7.22101132420271e-05\\
17	9.51994792718239e-05\\
18	8.51592512676059e-05\\
19	0.000120350513675222\\
20	0.00464009764700723\\
21	4.72765170425853e-05\\
22	0.000132259133476097\\
23	0.000182911550128584\\
24	3.59570046086925e-05\\
25	0.000117464733057117\\
26	0.000153634924714997\\
27	0.00162167301689619\\
28	0.0129286756768192\\
29	0.0048735713002684\\
30	0.00794623706716351\\
31	0.0145927619075865\\
32	0.0274604506735328\\
33	0.0946814546089788\\
34	0.0119460522683905\\
35	0.0138545958446147\\
36	0.00666561197723567\\
37	0.186447494229928\\
38	0.691654204588314\\
39	0.201157676157498\\
40	0.0276107957521707\\
41	0.137652713020059\\
42	0.0588990944122773\\
43	0.0870595646328756\\
44	0.0181776302113447\\
45	0.0951947228344781\\
46	0.400113053829701\\
47	0.296393807632281\\
48	0.163650955305826\\
49	0.118804168387638\\
50	0.0596284491910666\\
51	0.0993894963925616\\
52	0.0162060916180336\\
53	0.0157712188465333\\
54	0.0316912682787593\\
55	0.103873350775278\\
56	0.276085198738033\\
57	0.0626556189299972\\
58	0.00709591463402532\\
59	0.000940762574141655\\
60	0.0056647873876012\\
61	0.00104018732771782\\
62	0.00870483366438266\\
63	0.0111192865195232\\
64	0.0248222830103971\\
65	0.00472320805482417\\
66	0.000452398746171066\\
67	5.12605263601372e-05\\
68	0.000252782271921691\\
69	0.000322397001837214\\
70	4.37335659769762e-05\\
71	0.000169869401693685\\
72	5.10264291530637e-05\\
73	0.000181013891573834\\
74	5.1900254016985e-05\\
75	0.000292391907709241\\
76	0.000124920045785931\\
77	6.80275479370317e-05\\
78	7.03012795199789e-05\\
79	3.75654403762907e-05\\
80	8.64465796407018e-05\\
81	0.000158844975889192\\
82	9.59682061436977e-05\\
83	2.36969902454067e-05\\
84	2.52489190813289e-05\\
85	4.58113799174084e-05\\
86	8.50253441775942e-05\\
87	8.30091019863736e-05\\
88	2.35822838936525e-05\\
89	0.000107581598138826\\
90	1.63703259096118e-05\\
};
\addlegendentry{$\mathbf{\hat{h}_{1}}$}

\addplot [color=mycolor2]
  table[row sep=crcr]{%
0	1.30577288981595e-05\\
1	2.79086007833581e-05\\
2	7.52262934323456e-06\\
3	1.66900708999434e-05\\
4	3.10590245030669e-05\\
5	8.39332687002184e-06\\
6	2.83445705398258e-05\\
7	2.33099773670886e-05\\
8	2.6886332660542e-05\\
9	1.66064748466231e-05\\
10	3.22579206512082e-05\\
11	7.5396224619328e-05\\
12	6.64629858331612e-06\\
13	3.36182650307913e-05\\
14	4.10741014398541e-05\\
15	2.04917488052538e-05\\
16	0.000226524205349122\\
17	5.23096784225723e-06\\
18	0.00166964137382441\\
19	7.15370615904994e-05\\
20	1.89478231370385e-05\\
21	1.69148651381141e-05\\
22	1.86277274531115e-05\\
23	2.93656420762174e-05\\
24	0.00153042623254387\\
25	0.00253170305389549\\
26	0.045312755448195\\
27	0.00187067578591597\\
28	0.00641460649383498\\
29	0.00198447038333199\\
30	0.00144466573810043\\
31	0.00400675450990784\\
32	2.38996543333632e-05\\
33	0.0292309336939548\\
34	0.0494385365389353\\
35	0.0114200992276637\\
36	0.0710917288915427\\
37	0.00271155107026296\\
38	0.000583909468102601\\
39	0.0118812177778823\\
40	0.00650878538988276\\
41	0.0164197686579593\\
42	0.0256031757322217\\
43	0.00259340289000745\\
44	0.988061568483129\\
45	0.00192778299789294\\
46	0.0257898304697981\\
47	0.0178657183450565\\
48	0.00680501396465011\\
49	0.0114968545529594\\
50	0.000364394722160636\\
51	0.00210835493360497\\
52	0.0712261589240937\\
53	0.0114914932303458\\
54	0.0499614688732677\\
55	0.0302014529299063\\
56	2.27823665896262e-05\\
57	0.00421511683396447\\
58	0.00209337243819358\\
59	0.00283474623621899\\
60	0.00650820884219796\\
61	0.00209259358407681\\
62	0.0461133712497029\\
63	0.00219000456681283\\
64	0.00139840351043552\\
65	2.41185253454519e-05\\
66	1.63308361332668e-05\\
67	2.6343142958686e-06\\
68	1.95209599240688e-05\\
69	8.77681348094246e-05\\
70	0.00135515419932322\\
71	8.48311477191166e-06\\
72	0.000226520883396977\\
73	2.11153642698301e-05\\
74	4.27035414300904e-05\\
75	3.52395077808313e-05\\
76	1.0783730381046e-05\\
77	7.3903446690443e-05\\
78	3.29162944593446e-05\\
79	1.18970422311976e-05\\
80	2.76969975897605e-05\\
81	1.99599355169169e-05\\
82	2.53713713454986e-05\\
83	9.6042689422833e-06\\
84	3.83242259724115e-05\\
85	6.79798227169896e-06\\
86	3.07337240410022e-06\\
87	3.99328573984728e-05\\
88	1.33207971950761e-05\\
89	1.78948197244e-05\\
90	2.52896350857194e-05\\
};
\addlegendentry{$\mathbf{\hat{h}_{2}}$}

\end{axis}
\end{tikzpicture}%