% This file was created by matlab2tikz.
%
%The latest updates can be retrieved from
%  http://www.mathworks.com/matlabcentral/fileexchange/22022-matlab2tikz-matlab2tikz
%where you can also make suggestions and rate matlab2tikz.
%
\definecolor{mycolor1}{rgb}{0.00000,0.44700,0.74100}%
\definecolor{mycolor2}{rgb}{0.85000,0.32500,0.09800}%
%
\begin{tikzpicture}

\begin{axis}[%
width=1.935in,
height=3.2in,
at={(0.758in,0.512in)},
scale only axis,
xmin=0,
xmax=150,
xlabel style={font=\color{white!15!black}, align=center},
xlabel={Sample Index\\[1ex](a) Actual},
ymin=0,
ymax=0.7,
axis background/.style={fill=white},
legend style={legend cell align=left, align=left, draw=white!15!black}
]
\addplot [color=mycolor1]
  table[row sep=crcr]{%
1	0.0234657806037261\\
2	0.0272334504034075\\
3	0.0326864300765018\\
4	0.0414541482980318\\
5	0.0586677033458464\\
6	0.117843438362983\\
7	0.159969331461504\\
8	0.174397116945152\\
9	0.616552810702634\\
10	0.0882137642931462\\
11	0.0472681903124796\\
12	0.0327587509505929\\
13	0.0272256709659274\\
14	0.0412344622245766\\
15	0.0186762848129325\\
16	0.0451940046978057\\
17	0.0153724087875252\\
18	0.0239672675363248\\
19	0.0400285717874473\\
20	0.0828333966509162\\
21	0.557624977131952\\
22	0.149414784250917\\
23	0.109138078132702\\
24	0.0381681231028791\\
25	0.032799759178118\\
26	0.191519461959093\\
27	0.0734580287558902\\
28	0.0358315656953253\\
29	0.0179563195827385\\
30	0.0169149242156914\\
31	0.0179798517146348\\
32	0.0199431506445131\\
33	0.0279225394655299\\
34	0.0908594243819801\\
35	0.0439964246924232\\
36	0.330890477505262\\
37	0.037800506563543\\
38	0.020261933748638\\
39	0.0138181229977315\\
40	0.0211497159554441\\
41	0.0112042208144458\\
42	0.00964538908702694\\
43	0.00864780826327016\\
44	0.00787736374270682\\
45	0.00720180133294831\\
46	0.00651453200193765\\
47	0.00565492088107664\\
48	0.0112814316241706\\
49	0.0075966567083061\\
50	0.0102713040739602\\
51	0.00787142060243747\\
52	0.00711780022683946\\
53	0.00668443537322835\\
54	0.00638223966522588\\
55	0.00615487020840034\\
56	0.00598242225636516\\
57	0.00586293416152974\\
58	0.00581626175933958\\
59	0.00593494184987807\\
60	0.00707647204853056\\
61	0.00861312572402681\\
62	0.00240649054353041\\
63	0.0036902508247688\\
64	0.0040125763148678\\
65	0.00408542983582614\\
66	0.00408934467211144\\
67	0.00406760360864643\\
68	0.00403657730104579\\
69	0.00400486664899167\\
70	0.00397913876457006\\
71	0.00396763365360209\\
72	0.00398577860522856\\
73	0.00407460869510253\\
74	0.00440882178496405\\
75	0.00852319154542653\\
76	0.00211982859547221\\
77	0.00279674481878385\\
78	0.00295234209521732\\
79	0.00299967450324673\\
80	0.00300734384297471\\
81	0.00299658049652506\\
82	0.00297609501762909\\
83	0.00295010695632826\\
84	0.00292089738309008\\
85	0.00288979839106794\\
86	0.00285763293534116\\
87	0.00282493110979805\\
88	0.00279204510261472\\
89	0.00275921420187501\\
90	0.00272660345813555\\
91	0.00269432766245323\\
92	0.00266246675038502\\
93	0.00263107599882434\\
94	0.00260019295165966\\
95	0.00256984222925479\\
96	0.00254003893333548\\
97	0.0025107910982644\\
98	0.00248210148178531\\
99	0.00245396889001376\\
100	0.00242638916874131\\
101	0.00239935595223708\\
102	0.00237286123354156\\
103	0.00234689580183488\\
104	0.00232144957979209\\
105	0.00229651188498403\\
106	0.00227207163310714\\
107	0.0022481174963278\\
108	0.00222463802675857\\
109	0.00220162175268604\\
110	0.00217905725339276\\
111	0.0021569332170867\\
112	0.00213523848544673\\
113	0.00211396208753109\\
114	0.00209309326520902\\
115	0.00207262149182518\\
116	0.00205253648545491\\
117	0.00203282821783402\\
118	0.00201348691983224\\
119	0.00199450308416773\\
120	0.00197586746592614\\
121	0.00195757108133911\\
122	0.0019396052051902\\
123	0.0019219613671484\\
124	0.00190463134727109\\
125	0.00188760717087541\\
126	0.00187088110293773\\
127	0.00185444564215264\\
128	0.0018382935147574\\
129	0.00182241766820821\\
130	0.00180681126477794\\
131	0.00179146767513212\\
132	0.00177638047192757\\
133	0.00176154342347035\\
134	0.00174695048746156\\
135	0.0017325958048528\\
136	0.00171847369382931\\
137	0.00170457864393352\\
138	0.0016909053103386\\
139	0.00167744850827835\\
140	0.00166420320763913\\
141	0.00165116452771496\\
142	0.00163832773212761\\
143	0.00162568822391149\\
144	0.00161324154076111\\
145	0.0016009833504405\\
146	0.00158890944635072\\
147	0.00157701574325256\\
148	0.00156529827314105\\
149	0\\
150	0\\
};
\addlegendentry{$\mathbf{h_1}$}

\addplot [color=mycolor2]
  table[row sep=crcr]{%
1	0.019775303219206\\
2	0.0210217764534023\\
3	0.0224372323963497\\
4	0.024058742711813\\
5	0.0259351263737046\\
6	0.0281320174688059\\
7	0.0307398096072034\\
8	0.0338865833958781\\
9	0.0377600935275399\\
10	0.0426472101764649\\
11	0.0490094599986528\\
12	0.0576401827385178\\
13	0.0700288298559564\\
14	0.0893407156606893\\
15	0.123700774100431\\
16	0.202175033398071\\
17	0.564479813098353\\
18	0.690442426104836\\
19	0.212260509632627\\
20	0.126132345068284\\
21	0.100380135781766\\
22	0.0378663697499036\\
23	0.0333199748773482\\
24	0.0149453064107011\\
25	0.10083899339379\\
26	0.161002397050911\\
27	0.0405118251764787\\
28	0.0383644765554957\\
29	0.0341227495803863\\
30	0.0306469105251072\\
31	0.0278570926171954\\
32	0.0255709383506331\\
33	0.0236574529195357\\
34	0.0220274984760589\\
35	0.0206190941704396\\
36	0.0193877726649002\\
37	0.0183006807256663\\
38	0.0173329207549748\\
39	0.016465211935799\\
40	0.0156823459816501\\
41	0.0149721364414517\\
42	0.0143246843629073\\
43	0.0137318527665838\\
44	0.0131868826449622\\
45	0.0126841071808284\\
46	0.0122187355837443\\
47	0.0117866872087634\\
48	0.0113844626077037\\
49	0.0110090421200206\\
50	0.0106578052804057\\
51	0\\
52	0\\
53	0\\
54	0\\
55	0\\
56	0\\
57	0\\
58	0\\
59	0\\
60	0\\
61	0\\
62	0\\
63	0\\
64	0\\
65	0\\
66	0\\
67	0\\
68	0\\
69	0\\
70	0\\
71	0\\
72	0\\
73	0\\
74	0\\
75	0\\
76	0\\
77	0\\
78	0\\
79	0\\
80	0\\
81	0\\
82	0\\
83	0\\
84	0\\
85	0\\
86	0\\
87	0\\
88	0\\
89	0\\
90	0\\
91	0\\
92	0\\
93	0\\
94	0\\
95	0\\
96	0\\
97	0\\
98	0\\
99	0\\
100	0\\
101	0\\
102	0\\
103	0\\
104	0\\
105	0\\
106	0\\
107	0\\
108	0\\
109	0\\
110	0\\
111	0\\
112	0\\
113	0\\
114	0\\
115	0\\
116	0\\
117	0\\
118	0\\
119	0\\
120	0\\
121	0\\
122	0\\
123	0\\
124	0\\
125	0\\
126	0\\
127	0\\
128	0\\
129	0\\
130	0\\
131	0\\
132	0\\
133	0\\
134	0\\
135	0\\
136	0\\
137	0\\
138	0\\
139	0\\
140	0\\
141	0\\
142	0\\
143	0\\
144	0\\
145	0\\
146	0\\
147	0\\
148	0\\
149	0\\
150	0\\
};
\addlegendentry{$\mathbf{h_{2}}$}

\end{axis}

\begin{axis}[%
width=1.935in,
height=3.2in,
at={(3.327in,0.512in)},
scale only axis,
xmin=0,
xmax=200,
xlabel style={font=\color{white!15!black}, align=center},
xlabel={Sample Index\\[1ex](b) Estimated},
ymin=0,
ymax=1,
axis background/.style={fill=white},
legend style={legend cell align=left, align=left, draw=white!15!black}
]
\addplot [color=mycolor1]
  table[row sep=crcr]{%
0	0.00290371476830358\\
1	0.00551030102762719\\
2	0.00381259263810479\\
3	0.00478668007627536\\
4	0.00580991485688087\\
5	0.00419014801772893\\
6	0.00301994545322631\\
7	0.00445898357474282\\
8	0.00337047941697067\\
9	0.0041475903586178\\
10	0.00255803530260905\\
11	0.00156126209276826\\
12	0.00470256648829439\\
13	0.00230301158212947\\
14	0.00319288598924075\\
15	0.00590198993192077\\
16	0.00541649600880369\\
17	0.00673960011336181\\
18	0.00831615067278023\\
19	0.00319885892163777\\
20	0.00712356459126129\\
21	0.00533106164086869\\
22	0.00967571789094607\\
23	0.00831626052976058\\
24	0.00608230560596758\\
25	0.00849101101332532\\
26	0.0120859990219305\\
27	0.00221909279658955\\
28	0.00747020178838861\\
29	0.0226666264082312\\
30	0.00118465083329881\\
31	0.0134029922746186\\
32	0.000541170765924124\\
33	0.00934908445865215\\
34	0.00826660100454367\\
35	0.00964174606678926\\
36	0.0153849664633132\\
37	0.0133385133919747\\
38	0.0183004238751257\\
39	0.0222494337625504\\
40	0.0177932238651973\\
41	0.0192563548291852\\
42	0.0365115520692161\\
43	0.0364870269602486\\
44	0.0281602649405254\\
45	0.021446265407395\\
46	0.0333003233213077\\
47	0.0147201106669231\\
48	0.0164528465744393\\
49	0.0242841312421986\\
50	0.0239266951206963\\
51	0.00687587438626212\\
52	0.0184628218634196\\
53	0.0415950725471664\\
54	0.0154943626442048\\
55	0.0529662488821447\\
56	0.129649137852965\\
57	0.0464395057829995\\
58	0.0439181819418137\\
59	0.0752604977601282\\
60	0.0210352689453919\\
61	0.0349122270535514\\
62	0.0983639537550328\\
63	0.0457927185812271\\
64	0.0396179499530402\\
65	0.0479025185369323\\
66	0.0511907584536778\\
67	0.0438495748915669\\
68	0.134259385338377\\
69	0.0461315676721622\\
70	0.454664964592914\\
71	0.378356466109216\\
72	0.101628826632636\\
73	0.110963583721689\\
74	0.0279777459286505\\
75	0.085884610248643\\
76	0.0417688272874536\\
77	0.053023445495179\\
78	0.0402550019675413\\
79	0.104738580900372\\
80	0.115778940638199\\
81	0.136911805815708\\
82	0.232855584790996\\
83	0.443147034205486\\
84	0.193927356759373\\
85	0.111244053438641\\
86	0.0774049593649067\\
87	0.0983196824752291\\
88	0.112936617336613\\
89	0.102933483730852\\
90	0.0447104851743105\\
91	0.0500260305903551\\
92	0.0530838480313257\\
93	0.0435793410794142\\
94	0.0418552232811661\\
95	0.1347650818595\\
96	0.0955054056440655\\
97	0.258626639242196\\
98	0.098395693450033\\
99	0.0440326656800076\\
100	0.0704153845394014\\
101	0.0266657223097101\\
102	0.0144536214471473\\
103	0.0375799713496311\\
104	0.0279544607708552\\
105	0.03090965203931\\
106	0.01093077412892\\
107	0.0480638842529683\\
108	0.0406922403701258\\
109	0.0847909111005734\\
110	0.054252017552107\\
111	0.0027893405845958\\
112	0.0405369788938253\\
113	0.0116481148323774\\
114	0.0165518234883023\\
115	0.0165357308534583\\
116	0.00581852670677833\\
117	0.00863784208861031\\
118	0.0114606132190783\\
119	0.00577975610025117\\
120	0.0134222443541599\\
121	0.00731841623843305\\
122	0.040405807311575\\
123	0.00953121487422525\\
124	0.0146159801406976\\
125	0.00938697021575711\\
126	0.0119252401913829\\
127	0.0108813381955214\\
128	0.00115259277862957\\
129	0.00565000493125111\\
130	0.00777128350714594\\
131	0.00768474903037107\\
132	0.00538695989998986\\
133	0.00152581479956003\\
134	0.0138103113462523\\
135	0.00831470381903019\\
136	0.0090323952460812\\
137	0.0072162575785058\\
138	0.00629405558461294\\
139	0.00971012337790031\\
140	0.005342007752935\\
141	0.00687943678148236\\
142	0.00579475390795513\\
143	7.90226222491379e-05\\
144	0.00197726337576542\\
145	0.00400596510284426\\
146	0.00460830995544404\\
147	0.00387267103844666\\
148	0.00142135062738702\\
149	0.00782847701715419\\
150	0.000966948450710396\\
151	0.0055484135375463\\
152	0.00414773329273081\\
153	0.00328394218742941\\
154	0.00299502323062616\\
155	0.00343445336998314\\
156	0.00193892967121331\\
157	0.00119493615766943\\
158	0.00351818788804752\\
159	0.00389201242842399\\
160	0.0013610175846669\\
};
\addlegendentry{$\mathbf{\hat{h}_{1}}$}

\addplot [color=mycolor2]
  table[row sep=crcr]{%
0	0.00321289056432696\\
1	0.00255593101419623\\
2	0.00227527863750502\\
3	0.00320487171282975\\
4	0.00260075825671557\\
5	0.00222392481880025\\
6	0.00168029705161522\\
7	0.00328706852002855\\
8	0.00334776400295905\\
9	0.00140960457088758\\
10	0.00259392423102129\\
11	0.00410162651014332\\
12	0.00158789490916447\\
13	0.00266059266295147\\
14	0.0025653219822727\\
15	0.00305331422973151\\
16	0.00251786108479114\\
17	0.00320174427630099\\
18	0.00522458229279357\\
19	0.00219391377135775\\
20	0.00121822513176594\\
21	0.00445258894171301\\
22	0.00511345532290655\\
23	0.00267723974562621\\
24	0.00607192182684415\\
25	0.00956518490108727\\
26	0.0014163820075122\\
27	0.0084727842434471\\
28	0.00767952498692658\\
29	0.00666854744587282\\
30	0.00346808143387112\\
31	0.00414536512343081\\
32	0.00527316386492855\\
33	0.00282957080368714\\
34	0.00498301888662734\\
35	0.0125085857011846\\
36	0.003052806843541\\
37	0.0141594809451371\\
38	0.0244773753568575\\
39	0.0174816232882119\\
40	0.0200500788325784\\
41	0.00972034960759287\\
42	0.0185243179148157\\
43	0.0122134225878169\\
44	0.00999342776840116\\
45	0.00933160611698984\\
46	0.0138771814914531\\
47	0.0167147426158498\\
48	0.0101974003566155\\
49	0.00381737358487715\\
50	0.0322921636942208\\
51	0.0165270681494767\\
52	0.0652476583106558\\
53	0.0157147940174418\\
54	0.0443300619129154\\
55	0.0216776502355477\\
56	0.00823980359086424\\
57	0.00241733040186383\\
58	0.00382621098637006\\
59	0.0101731435959308\\
60	0.0131365044372807\\
61	0.0135319953188157\\
62	0.0363443952400835\\
63	0.0348998101253526\\
64	0.0680718111889254\\
65	0.030006039777531\\
66	0.052491699727067\\
67	0.157193630106735\\
68	0.0364905474024017\\
69	0.0325728986799899\\
70	0.0135438714258866\\
71	0.0563955506067793\\
72	0.0232450808473207\\
73	0.0314207804969443\\
74	0.0177949309936155\\
75	0.0281029668830269\\
76	0.0348027328165395\\
77	0.0437923652257679\\
78	0.0454009223017339\\
79	0.936375199252655\\
80	0.0454029551690113\\
81	0.0437809453943403\\
82	0.0348054785719547\\
83	0.0281149110801354\\
84	0.0177689495869159\\
85	0.0314146252610841\\
86	0.023238967574547\\
87	0.0564018060709874\\
88	0.0135349729052861\\
89	0.0325666838008592\\
90	0.0364673851910405\\
91	0.157181215018344\\
92	0.0524999035074683\\
93	0.0299791563316214\\
94	0.0680906762517158\\
95	0.0348918319329843\\
96	0.0363589804938653\\
97	0.0135439596897161\\
98	0.0131252888508095\\
99	0.0101954663861589\\
100	0.0038308232614173\\
101	0.00242900218249132\\
102	0.008275516828418\\
103	0.0216866252736001\\
104	0.0442908240288459\\
105	0.0157081338179106\\
106	0.0652340165924946\\
107	0.0165007040555847\\
108	0.0322800640451504\\
109	0.00375733089867141\\
110	0.0101741493421846\\
111	0.0166947970121851\\
112	0.0138798011622109\\
113	0.00937908965539119\\
114	0.0100114820012855\\
115	0.0121495435856645\\
116	0.0185343418325089\\
117	0.00978392856614309\\
118	0.0201165750279972\\
119	0.0175206358610657\\
120	0.0245812993535935\\
121	0.0140710896539214\\
122	0.00318543905294765\\
123	0.0126399394553021\\
124	0.005007618077077\\
125	0.00276598149954564\\
126	0.00546587582145986\\
127	0.00429036582565953\\
128	0.00333251511879811\\
129	0.00690852862315014\\
130	0.00766189786990462\\
131	0.00844619160483081\\
132	0.0011970349120311\\
133	0.00958348079780898\\
134	0.00611337260705009\\
135	0.00281153334282228\\
136	0.00549168625838135\\
137	0.00487787498257891\\
138	0.00147271530839114\\
139	0.00260198096756071\\
140	0.00547897692827252\\
141	0.00365536522076074\\
142	0.00327683630537908\\
143	0.00289560193153438\\
144	0.00259697268630642\\
145	0.0031538059607719\\
146	0.00237501400626961\\
147	0.00417367383998404\\
148	0.0028113621285031\\
149	0.00125888112419062\\
150	0.00400896945593399\\
151	0.00330894059955483\\
152	0.00194874836898354\\
153	0.00284010565800807\\
154	0.00258527277236912\\
155	0.00272678422809948\\
156	0.00265160100170152\\
157	0.00241680849564322\\
158	0.00248812511384992\\
159	0.00230869164374895\\
160	0.00200010092712371\\
};
\addlegendentry{$\mathbf{\hat{h}_{2}}$}

\end{axis}
\end{tikzpicture}%