% This file was created by matlab2tikz.
%
%The latest updates can be retrieved from
%  http://www.mathworks.com/matlabcentral/fileexchange/22022-matlab2tikz-matlab2tikz
%where you can also make suggestions and rate matlab2tikz.
%
\definecolor{mycolor1}{rgb}{0.00000,0.44700,0.74100}%
\definecolor{mycolor2}{rgb}{0.85000,0.32500,0.09800}%
%
\begin{tikzpicture}

\begin{axis}[%
width=1.935in,
height=3.2in,
at={(0.758in,0.512in)},
scale only axis,
xmin=0,
xmax=150,
xlabel style={font=\color{white!15!black}, align=center},
xlabel={Sample Index\\[1ex](a) Actual},
ymin=0,
ymax=0.7,
axis background/.style={fill=white},
legend style={legend cell align=left, align=left, draw=white!15!black}
]
\addplot [color=mycolor1]
  table[row sep=crcr]{%
1	0.0234657806037261\\
2	0.0272334504034075\\
3	0.0326864300765018\\
4	0.0414541482980318\\
5	0.0586677033458464\\
6	0.117843438362983\\
7	0.159969331461504\\
8	0.174397116945152\\
9	0.616552810702634\\
10	0.0882137642931462\\
11	0.0472681903124796\\
12	0.0327587509505929\\
13	0.0272256709659274\\
14	0.0412344622245766\\
15	0.0186762848129325\\
16	0.0451940046978057\\
17	0.0153724087875252\\
18	0.0239672675363248\\
19	0.0400285717874473\\
20	0.0828333966509162\\
21	0.557624977131952\\
22	0.149414784250917\\
23	0.109138078132702\\
24	0.0381681231028791\\
25	0.032799759178118\\
26	0.191519461959093\\
27	0.0734580287558902\\
28	0.0358315656953253\\
29	0.0179563195827385\\
30	0.0169149242156914\\
31	0.0179798517146348\\
32	0.0199431506445131\\
33	0.0279225394655299\\
34	0.0908594243819801\\
35	0.0439964246924232\\
36	0.330890477505262\\
37	0.037800506563543\\
38	0.020261933748638\\
39	0.0138181229977315\\
40	0.0211497159554441\\
41	0.0112042208144458\\
42	0.00964538908702694\\
43	0.00864780826327016\\
44	0.00787736374270682\\
45	0.00720180133294831\\
46	0.00651453200193765\\
47	0.00565492088107664\\
48	0.0112814316241706\\
49	0.0075966567083061\\
50	0.0102713040739602\\
51	0.00787142060243747\\
52	0.00711780022683946\\
53	0.00668443537322835\\
54	0.00638223966522588\\
55	0.00615487020840034\\
56	0.00598242225636516\\
57	0.00586293416152974\\
58	0.00581626175933958\\
59	0.00593494184987807\\
60	0.00707647204853056\\
61	0.00861312572402681\\
62	0.00240649054353041\\
63	0.0036902508247688\\
64	0.0040125763148678\\
65	0.00408542983582614\\
66	0.00408934467211144\\
67	0.00406760360864643\\
68	0.00403657730104579\\
69	0.00400486664899167\\
70	0.00397913876457006\\
71	0.00396763365360209\\
72	0.00398577860522856\\
73	0.00407460869510253\\
74	0.00440882178496405\\
75	0.00852319154542653\\
76	0.00211982859547221\\
77	0.00279674481878385\\
78	0.00295234209521732\\
79	0.00299967450324673\\
80	0.00300734384297471\\
81	0.00299658049652506\\
82	0.00297609501762909\\
83	0.00295010695632826\\
84	0.00292089738309008\\
85	0.00288979839106794\\
86	0.00285763293534116\\
87	0.00282493110979805\\
88	0.00279204510261472\\
89	0.00275921420187501\\
90	0.00272660345813555\\
91	0.00269432766245323\\
92	0.00266246675038502\\
93	0.00263107599882434\\
94	0.00260019295165966\\
95	0.00256984222925479\\
96	0.00254003893333548\\
97	0.0025107910982644\\
98	0.00248210148178531\\
99	0.00245396889001376\\
100	0.00242638916874131\\
101	0.00239935595223708\\
102	0.00237286123354156\\
103	0.00234689580183488\\
104	0.00232144957979209\\
105	0.00229651188498403\\
106	0.00227207163310714\\
107	0.0022481174963278\\
108	0.00222463802675857\\
109	0.00220162175268604\\
110	0.00217905725339276\\
111	0.0021569332170867\\
112	0.00213523848544673\\
113	0.00211396208753109\\
114	0.00209309326520902\\
115	0.00207262149182518\\
116	0.00205253648545491\\
117	0.00203282821783402\\
118	0.00201348691983224\\
119	0.00199450308416773\\
120	0.00197586746592614\\
121	0.00195757108133911\\
122	0.0019396052051902\\
123	0.0019219613671484\\
124	0.00190463134727109\\
125	0.00188760717087541\\
126	0.00187088110293773\\
127	0.00185444564215264\\
128	0.0018382935147574\\
129	0.00182241766820821\\
130	0.00180681126477794\\
131	0.00179146767513212\\
132	0.00177638047192757\\
133	0.00176154342347035\\
134	0.00174695048746156\\
135	0.0017325958048528\\
136	0.00171847369382931\\
137	0.00170457864393352\\
138	0.0016909053103386\\
139	0.00167744850827835\\
140	0.00166420320763913\\
141	0.00165116452771496\\
142	0.00163832773212761\\
143	0.00162568822391149\\
144	0.00161324154076111\\
145	0.0016009833504405\\
146	0.00158890944635072\\
147	0.00157701574325256\\
148	0.00156529827314105\\
149	0\\
150	0\\
};
\addlegendentry{$\mathbf{h_1}$}

\addplot [color=mycolor2]
  table[row sep=crcr]{%
1	0.019775303219206\\
2	0.0210217764534023\\
3	0.0224372323963497\\
4	0.024058742711813\\
5	0.0259351263737046\\
6	0.0281320174688059\\
7	0.0307398096072034\\
8	0.0338865833958781\\
9	0.0377600935275399\\
10	0.0426472101764649\\
11	0.0490094599986528\\
12	0.0576401827385178\\
13	0.0700288298559564\\
14	0.0893407156606893\\
15	0.123700774100431\\
16	0.202175033398071\\
17	0.564479813098353\\
18	0.690442426104836\\
19	0.212260509632627\\
20	0.126132345068284\\
21	0.100380135781766\\
22	0.0378663697499036\\
23	0.0333199748773482\\
24	0.0149453064107011\\
25	0.10083899339379\\
26	0.161002397050911\\
27	0.0405118251764787\\
28	0.0383644765554957\\
29	0.0341227495803863\\
30	0.0306469105251072\\
31	0.0278570926171954\\
32	0.0255709383506331\\
33	0.0236574529195357\\
34	0.0220274984760589\\
35	0.0206190941704396\\
36	0.0193877726649002\\
37	0.0183006807256663\\
38	0.0173329207549748\\
39	0.016465211935799\\
40	0.0156823459816501\\
41	0.0149721364414517\\
42	0.0143246843629073\\
43	0.0137318527665838\\
44	0.0131868826449622\\
45	0.0126841071808284\\
46	0.0122187355837443\\
47	0.0117866872087634\\
48	0.0113844626077037\\
49	0.0110090421200206\\
50	0.0106578052804057\\
51	0\\
52	0\\
53	0\\
54	0\\
55	0\\
56	0\\
57	0\\
58	0\\
59	0\\
60	0\\
61	0\\
62	0\\
63	0\\
64	0\\
65	0\\
66	0\\
67	0\\
68	0\\
69	0\\
70	0\\
71	0\\
72	0\\
73	0\\
74	0\\
75	0\\
76	0\\
77	0\\
78	0\\
79	0\\
80	0\\
81	0\\
82	0\\
83	0\\
84	0\\
85	0\\
86	0\\
87	0\\
88	0\\
89	0\\
90	0\\
91	0\\
92	0\\
93	0\\
94	0\\
95	0\\
96	0\\
97	0\\
98	0\\
99	0\\
100	0\\
101	0\\
102	0\\
103	0\\
104	0\\
105	0\\
106	0\\
107	0\\
108	0\\
109	0\\
110	0\\
111	0\\
112	0\\
113	0\\
114	0\\
115	0\\
116	0\\
117	0\\
118	0\\
119	0\\
120	0\\
121	0\\
122	0\\
123	0\\
124	0\\
125	0\\
126	0\\
127	0\\
128	0\\
129	0\\
130	0\\
131	0\\
132	0\\
133	0\\
134	0\\
135	0\\
136	0\\
137	0\\
138	0\\
139	0\\
140	0\\
141	0\\
142	0\\
143	0\\
144	0\\
145	0\\
146	0\\
147	0\\
148	0\\
149	0\\
150	0\\
};
\addlegendentry{$\mathbf{h_{2}}$}

\end{axis}

\begin{axis}[%
width=1.935in,
height=3.2in,
at={(3.327in,0.512in)},
scale only axis,
xmin=0,
xmax=200,
xlabel style={font=\color{white!15!black}, align=center},
xlabel={Sample Index\\[1ex](b) Estimated},
ymin=0,
ymax=1,
axis background/.style={fill=white},
legend style={legend cell align=left, align=left, draw=white!15!black}
]
\addplot [color=mycolor1]
  table[row sep=crcr]{%
0	0.00040751337444729\\
1	0.00176803600103184\\
2	0.00163341520720397\\
3	0.00136452206646039\\
4	0.000623415965319665\\
5	0.00152251299552208\\
6	0.00128057325289156\\
7	0.000948571726617953\\
8	0.001737901511262\\
9	0.00105222468997734\\
10	0.00132035700216914\\
11	0.0024391254128497\\
12	0.0015269082865791\\
13	0.000897988879172119\\
14	0.000862022637106665\\
15	0.000963314963782943\\
16	0.000656039038086503\\
17	0.000980719353484383\\
18	0.000927452964147462\\
19	0.00115131573555779\\
20	0.00141344339371262\\
21	0.0021458310487932\\
22	0.00143206115670915\\
23	0.00134979012312237\\
24	0.00122542052260973\\
25	0.00199638161908854\\
26	0.000506594862059514\\
27	0.00149321679406768\\
28	0.000720461642085701\\
29	0.00221453841529752\\
30	0.00141859296537051\\
31	0.00132979407426279\\
32	0.00175140287818941\\
33	0.00170954308640714\\
34	0.00350668484844919\\
35	0.00294829632039672\\
36	0.00373298308993152\\
37	0.00219306602887448\\
38	0.0101330332846861\\
39	0.0107082247968003\\
40	0.0102615141082082\\
41	0.00659597126087143\\
42	0.0125429595238942\\
43	0.0178588612707974\\
44	0.01556514093003\\
45	0.0121916248427407\\
46	0.0134700701327634\\
47	0.0109382985120336\\
48	0.014473675623866\\
49	0.0124542059533667\\
50	0.0175258473301804\\
51	0.0138565338701345\\
52	0.0188418553194633\\
53	0.0200904053788649\\
54	0.016940155219209\\
55	0.0242666364761381\\
56	0.0498262746346763\\
57	0.0249651471569303\\
58	0.00832351295461043\\
59	0.0407155892709257\\
60	0.00895899448230552\\
61	0.0324293963130854\\
62	0.122216005983178\\
63	0.0508601239086225\\
64	0.0404833388658279\\
65	0.0395198612249097\\
66	0.0249587438278276\\
67	0.0518058023980125\\
68	0.159230906793686\\
69	0.0378822906759959\\
70	0.47808675588402\\
71	0.393727563511787\\
72	0.112411656039194\\
73	0.0799783269342708\\
74	0.0491051940405633\\
75	0.118597962794501\\
76	0.033558769609253\\
77	0.0539217961355792\\
78	0.00701823058753658\\
79	0.0741423549804928\\
80	0.0800449562356527\\
81	0.109978082193065\\
82	0.261059622064847\\
83	0.469680417508814\\
84	0.180421151655541\\
85	0.0611601876512623\\
86	0.0745161860362018\\
87	0.112986461800877\\
88	0.0973341888055422\\
89	0.117288233636082\\
90	0.0242546087365248\\
91	0.034501155823337\\
92	0.0304154978355736\\
93	0.0231221021759892\\
94	0.0372830654132299\\
95	0.0811860705004285\\
96	0.110542143452627\\
97	0.285381481777643\\
98	0.111051737295012\\
99	0.0422828186978097\\
100	0.0405226045577322\\
101	0.0177944631519961\\
102	0.00199691630132498\\
103	0.016100109775882\\
104	0.0182542471299964\\
105	0.0201563285217695\\
106	0.00805526378919734\\
107	0.0115655944882995\\
108	0.0212416535458784\\
109	0.0375876407550955\\
110	0.0216447663901051\\
111	0.00742818256021259\\
112	0.0162143334905306\\
113	0.00715206169684022\\
114	0.00539881106020691\\
115	0.00452186696583703\\
116	0.00369967587251533\\
117	0.0022949064700775\\
118	0.000863959513974694\\
119	0.00146900221228222\\
120	0.00156429916530304\\
121	0.00131947071873465\\
122	0.0126514657517753\\
123	0.00784754965927299\\
124	0.00428822565686536\\
125	0.00302208056708896\\
126	0.00229007635483971\\
127	0.00229809617232811\\
128	0.000728771254569199\\
129	0.000906788502517213\\
130	0.00158847575167627\\
131	0.00137305599838303\\
132	0.00353832707294686\\
133	0.00171445074692582\\
134	0.000258354219237978\\
135	0.00298507729095698\\
136	0.00289702812797782\\
137	0.00444814144500032\\
138	0.00109541791121269\\
139	0.000510691439442269\\
140	0.00153498350399324\\
141	0.000778685382150442\\
142	0.00148115028310658\\
143	0.000708134382621823\\
144	0.00153767927792699\\
145	0.000666130059977113\\
146	0.0010508849866353\\
147	0.000839104960908345\\
148	0.00147076371906424\\
149	0.00050320735813072\\
150	0.00161960599033577\\
151	0.00096508884106886\\
152	0.00105104312875938\\
153	0.000452075063652293\\
154	0.00193370148518054\\
155	0.00039800381590821\\
156	0.00210807066130621\\
157	0.00195223574631547\\
158	0.0021278907203661\\
159	0.00271720961328548\\
160	0.000906489022217811\\
};
\addlegendentry{$\mathbf{\hat{h}_{1}}$}

\addplot [color=mycolor2]
  table[row sep=crcr]{%
0	0.000206609247545129\\
1	0.000510217029163936\\
2	0.000402989700857299\\
3	0.000530064016662629\\
4	0.000558537712028452\\
5	0.000290907292362565\\
6	0.000427632721559421\\
7	0.000306405156868448\\
8	0.00109803963260603\\
9	0.000567818979983637\\
10	0.000597866011268357\\
11	0.000860590906723483\\
12	5.93693801504887e-05\\
13	0.00127673714624947\\
14	0.000749313726350898\\
15	0.000475753934961669\\
16	0.000301742988598593\\
17	0.000745963286110804\\
18	0.00052473311685714\\
19	0.0003869644911499\\
20	0.000896018257195883\\
21	0.000478733692068036\\
22	0.000535892092191681\\
23	0.000918790460627677\\
24	0.00121920543048379\\
25	0.00138465122561607\\
26	0.000118286394997506\\
27	0.00165392694778863\\
28	0.00178756835052552\\
29	0.0011987847256333\\
30	0.000955830741191055\\
31	0.000787160670108833\\
32	0.00112894288324308\\
33	0.000314222938919277\\
34	0.000788539984663602\\
35	0.00248284202460914\\
36	0.000482786426708872\\
37	0.00234358377112504\\
38	0.00431440648918757\\
39	0.00336032829093472\\
40	0.00418405965658894\\
41	0.00225201667529652\\
42	0.00307546771394436\\
43	0.00271065089433499\\
44	0.00198052445264392\\
45	0.00301360605894308\\
46	0.00382743433791295\\
47	0.00529871800972282\\
48	0.00391813800619706\\
49	0.00465358122795308\\
50	0.0123161483967465\\
51	0.00912528163014355\\
52	0.0365247184589106\\
53	0.00885496112671267\\
54	0.0150698271849704\\
55	0.00893321321836019\\
56	0.00620151551403824\\
57	0.0035727467923105\\
58	0.00446707925620424\\
59	0.00735605196173294\\
60	0.00944921622548199\\
61	0.0064230778494286\\
62	0.0201221455108415\\
63	0.0125834961199149\\
64	0.0395913636369758\\
65	0.0249186189027592\\
66	0.0306550831184888\\
67	0.0716020195305317\\
68	0.0131209815399699\\
69	0.0180583692661824\\
70	0.00633119887863599\\
71	0.00659359711321985\\
72	0.0114579715335395\\
73	0.0110606905213411\\
74	0.0110856235286238\\
75	0.00956629817653889\\
76	0.0171393619210082\\
77	0.0252067826543386\\
78	0.0225943283255607\\
79	0.986189108741746\\
80	0.022591088343584\\
81	0.0252026754543937\\
82	0.0171391943086161\\
83	0.00956632779396694\\
84	0.0110853387759272\\
85	0.0110614921895467\\
86	0.0114505860584149\\
87	0.00659303816793072\\
88	0.00632779993228754\\
89	0.0180554624686712\\
90	0.0131140095886672\\
91	0.0716040279678326\\
92	0.0306560223444237\\
93	0.0249210898358469\\
94	0.0395833346015648\\
95	0.0125883248808181\\
96	0.0201307198520765\\
97	0.00640888941580113\\
98	0.00945972578058087\\
99	0.00735547680135164\\
100	0.00446050972618509\\
101	0.00357830665717115\\
102	0.00618794816971987\\
103	0.0089273919174929\\
104	0.0150652078126595\\
105	0.00884383267966962\\
106	0.0365298426894675\\
107	0.00912825038571733\\
108	0.0123137650636505\\
109	0.00464784151070407\\
110	0.00392559530310548\\
111	0.00529322989825535\\
112	0.00382158951350694\\
113	0.00301647176490792\\
114	0.00198905051995421\\
115	0.00270157248522753\\
116	0.00307594880019427\\
117	0.00226378346264394\\
118	0.0041637825039652\\
119	0.00335131856144198\\
120	0.00432335274904146\\
121	0.00233980148204579\\
122	0.000477978724808251\\
123	0.00248678021184044\\
124	0.000795113765472036\\
125	0.000317388825495836\\
126	0.0011208401524279\\
127	0.000783432356384644\\
128	0.000949587237092873\\
129	0.00121425089199828\\
130	0.0017674706343638\\
131	0.00166069767801256\\
132	0.000125481833446968\\
133	0.00137559891493904\\
134	0.00121240015454128\\
135	0.000917720968299851\\
136	0.000550066655915865\\
137	0.000474713653137822\\
138	0.00090374409802754\\
139	0.000407293526319719\\
140	0.000520121660572361\\
141	0.00074242370343975\\
142	0.000321881195530924\\
143	0.000496016935233128\\
144	0.000721406221843806\\
145	0.0012930788729804\\
146	7.2276068634238e-05\\
147	0.000803700980524371\\
148	0.000636921613290867\\
149	0.000556338023983006\\
150	0.00108252718688599\\
151	0.000355487004126497\\
152	0.000396440201124359\\
153	0.000300174482717097\\
154	0.000489920277297016\\
155	0.000520226958523328\\
156	0.000362566368675468\\
157	0.000502451153862193\\
158	0.000173171765601458\\
159	0.000754032513627872\\
160	0.00018069590699441\\
};
\addlegendentry{$\mathbf{\hat{h}_{2}}$}

\end{axis}
\end{tikzpicture}%