% This file was created by matlab2tikz.
%
%The latest updates can be retrieved from
%  http://www.mathworks.com/matlabcentral/fileexchange/22022-matlab2tikz-matlab2tikz
%where you can also make suggestions and rate matlab2tikz.
%
\definecolor{mycolor1}{rgb}{0.00000,0.44700,0.74100}%
\definecolor{mycolor2}{rgb}{0.85000,0.32500,0.09800}%
%
\begin{tikzpicture}

\begin{axis}[%
width=1.935in,
height=3.2in,
at={(0.758in,0.512in)},
scale only axis,
xmin=0,
xmax=200,
xlabel style={font=\color{white!15!black}, align=center},
xlabel={Sample Index\\[1ex](a) Actual},
ymin=0,
ymax=1,
axis background/.style={fill=white},
legend style={legend cell align=left, align=left, draw=white!15!black}
]
\addplot [color=mycolor1]
  table[row sep=crcr]{%
1	0.0167418731260698\\
2	0.018659722218203\\
3	0.0211495716349754\\
4	0.0245407494314006\\
5	0.029505643974117\\
6	0.0377161636169434\\
7	0.0550750576238134\\
8	0.131028403455825\\
9	0.141533477104454\\
10	0.158175166246243\\
11	0.163761757297189\\
12	0.600100605556833\\
13	0.118033417583129\\
14	0.0610914209628117\\
15	0.0426162246246858\\
16	0.0332715711707656\\
17	0.0321939439283243\\
18	0.0268871008873183\\
19	0.0316920608120786\\
20	0.0286771919664519\\
21	0.00773119825769845\\
22	0.0330073087209196\\
23	0.019415059292473\\
24	0.0177688778425817\\
25	0.0188194600762088\\
26	0.0237714798713867\\
27	0.0430806655948836\\
28	0.586023006720236\\
29	0.0970905103802927\\
30	0.0246981078960262\\
31	0.0780346253424249\\
32	0.0580455436901626\\
33	0.0681836526256362\\
34	0.163824852865525\\
35	0.0446106828365612\\
36	0.06119675966513\\
37	0.00907835157153909\\
38	0.0310093774848825\\
39	0.00125972832884384\\
40	0.005422098150711\\
41	0.0107374596162295\\
42	0.0165479326643041\\
43	0.024789327411243\\
44	0.0446277431282512\\
45	0.058019450740893\\
46	0.074843365423057\\
47	0.199666615467323\\
48	0.216838516027539\\
49	0.0783890355452335\\
50	0.0495529240878659\\
51	0.0370791446049236\\
52	0.0307530810094058\\
53	0.0155757068681131\\
54	0.0198807977432187\\
55	0.0179871495341263\\
56	0.0162887905400521\\
57	0.0148728268904216\\
58	0.0136909847461918\\
59	0.0126943671543235\\
60	0.011846112844806\\
61	0.0111233301448608\\
62	0.0105291449791113\\
63	0.0102108676347222\\
64	0.00751288118280402\\
65	0.00739035992869396\\
66	0.0116365722557393\\
67	0.00899390796280924\\
68	0.00831157148096884\\
69	0.00788086875151191\\
70	0.00754217236777393\\
71	0.00725475830161164\\
72	0.00700327644843893\\
73	0.006780818536885\\
74	0.00658453626015097\\
75	0.00641472878078445\\
76	0.00627599401250467\\
77	0.00618216997550965\\
78	0.00617516728867787\\
79	0.00642745729543014\\
80	0.00873051939586948\\
81	0.00471465923588381\\
82	0.00195996010568866\\
83	0.004980313957114\\
84	0.00475839614864904\\
85	0.00464733241660508\\
86	0.00455444244400457\\
87	0.00446749239384432\\
88	0.00438406292262191\\
89	0.00430366820355207\\
90	0.00422628355118023\\
91	0.00415201532524293\\
92	0.00408104289588831\\
93	0.00401365198230764\\
94	0.00395033763548775\\
95	0.00389203620501121\\
96	0.00384070443755282\\
97	0.00380107128140597\\
98	0.00378779867734327\\
99	0.00387836096292209\\
100	0.00228454900881806\\
101	0.00321909463290553\\
102	0.00328982387499096\\
103	0.00328100374444436\\
104	0.00325253146337885\\
105	0.00321692683031362\\
106	0.00317840637543852\\
107	0.00313876414674543\\
108	0.00309887602618152\\
109	0.00305920797263281\\
110	0.00302002111537278\\
111	0.00298146552488656\\
112	0.00294362726599965\\
113	0.0029065537719176\\
114	0.00287026833389302\\
115	0.00283477876811283\\
116	0.00280008280049957\\
117	0.00276617151884636\\
118	0.00273303164395387\\
119	0.00270064705586787\\
120	0.00266899983729428\\
121	0.00263807099659409\\
122	0.00260784097374635\\
123	0.00257828999668392\\
124	0.00254939833288439\\
125	0.00252114646667125\\
126	0.00249351522323938\\
127	0.00246648585412356\\
128	0.00244004009455901\\
129	0.00241416020024051\\
130	0.00238882896892876\\
131	0.0023640297508985\\
132	0.00233974645117835\\
133	0.00231596352577768\\
134	0.00229266597354371\\
135	0.00226983932488367\\
136	0.00224746962828519\\
137	0.00222554343533969\\
138	0.00220404778480324\\
139	0.00218297018609978\\
140	0.00216229860257188\\
141	0.00214202143470905\\
142	0.00212212750352594\\
143	0.00210260603421662\\
144	0.00208344664017788\\
145	0.00206463930746792\\
146	0.00204617437974413\\
147	0.00202804254371082\\
148	0.00201023481509265\\
149	0.00199274252514179\\
150	0.00197555730767936\\
151	0.0019586710866655\\
152	0.00194207606428942\\
153	0.00192576470956709\\
154	0.00190972974743187\\
155	0.00189396414830307\\
156	0.00187846111811499\\
157	0.00186321408878906\\
158	0.00184821670913216\\
159	0.00183346283614256\\
160	0.00181894652670628\\
161	0.00180466202966742\\
162	0.00179060377825436\\
163	0.00177676638284649\\
164	0.00176314462406556\\
165	0.00174973344617591\\
166	0.0017365279507797\\
167	0.00172352339079259\\
168	0.00171071516468654\\
169	0.00169809881098722\\
170	0.00168567000301325\\
171	0.00167342454384613\\
172	0.00166135836151948\\
173	0.00164946750441694\\
174	0.00163774813686889\\
175	0.00162619653493841\\
176	0.00161480908238697\\
177	0.00160358226681213\\
178	0.001592512675948\\
179	0.00158159699412143\\
180	0.00157083199885632\\
181	0.00156021455761888\\
182	0.00154974162469766\\
183	0.00153941023821136\\
184	0.00152921751723897\\
185	0.00151916065906659\\
186	0.00150923693654504\\
187	0.00149944369555362\\
188	0.00148977835256491\\
189	0.00148023839230615\\
190	0.0014708213655126\\
191	0.00146152488676917\\
192	0.00145234663243548\\
193	0.00144328433865201\\
194	0.00143433579942216\\
195	0.0014254988647679\\
196	0.00141677143895562\\
197	0.00140815147878894\\
198	0.00139963699196521\\
199	0\\
200	0\\
};
\addlegendentry{$\mathbf{h_1}$}

\addplot [color=mycolor2]
  table[row sep=crcr]{%
1	0.00495033386861547\\
2	0.00515738368500011\\
3	0.00538309861623286\\
4	0.00563019833310769\\
5	0.00590197136255583\\
6	0.00620243506959928\\
7	0.00653655369620811\\
8	0.00691054090538825\\
9	0.00733228812251618\\
10	0.00781198494389501\\
11	0.00836304134465097\\
12	0.0090034999823859\\
13	0.00975827527656913\\
14	0.0106628508662167\\
15	0.0117696896019869\\
16	0.0131600228416925\\
17	0.0149671880151623\\
18	0.0174273921400842\\
19	0.0210049332363351\\
20	0.0267613442180004\\
21	0.037792597580649\\
22	0.068721841139076\\
23	0.97572931769219\\
24	0.0649085399616321\\
25	0.0262918397391367\\
26	0.0126468169615953\\
27	0.00419508123086451\\
28	0.0214241856295046\\
29	0.0134643328328179\\
30	0.00412679327935559\\
31	0.0112712342656943\\
32	0.0282552508318709\\
33	0.111702725947746\\
34	0.12653020104749\\
35	0.0361926668223949\\
36	0.024130019396178\\
37	0.019518168382204\\
38	0.0163235660243771\\
39	0.0140849625225472\\
40	0.0124312948441269\\
41	0.0111552918846637\\
42	0.0101369616841952\\
43	0.00930266674553233\\
44	0.00860476970863487\\
45	0.00801105372801389\\
46	0.00749890841387189\\
47	0.00705196472677567\\
48	0.00665805661850076\\
49	0.0063079366485928\\
50	0.00599443852440938\\
51	0.00571191453485358\\
52	0.00545584764793091\\
53	0.0052225778141873\\
54	0.00500910486747672\\
55	0.00481294397681212\\
56	0.00463201789166602\\
57	0.00446457542356871\\
58	0.00430912894812168\\
59	0.00416440590497024\\
60	0.00402931074167137\\
61	0.00390289474814389\\
62	0.00378433192171684\\
63	0.00367289949042518\\
64	0.0035679620699816\\
65	0.00346895868109233\\
66	0.00337539203747226\\
67	0.00328681965070268\\
68	0.00320284639950925\\
69	0\\
70	0\\
71	0\\
72	0\\
73	0\\
74	0\\
75	0\\
76	0\\
77	0\\
78	0\\
79	0\\
80	0\\
81	0\\
82	0\\
83	0\\
84	0\\
85	0\\
86	0\\
87	0\\
88	0\\
89	0\\
90	0\\
91	0\\
92	0\\
93	0\\
94	0\\
95	0\\
96	0\\
97	0\\
98	0\\
99	0\\
100	0\\
101	0\\
102	0\\
103	0\\
104	0\\
105	0\\
106	0\\
107	0\\
108	0\\
109	0\\
110	0\\
111	0\\
112	0\\
113	0\\
114	0\\
115	0\\
116	0\\
117	0\\
118	0\\
119	0\\
120	0\\
121	0\\
122	0\\
123	0\\
124	0\\
125	0\\
126	0\\
127	0\\
128	0\\
129	0\\
130	0\\
131	0\\
132	0\\
133	0\\
134	0\\
135	0\\
136	0\\
137	0\\
138	0\\
139	0\\
140	0\\
141	0\\
142	0\\
143	0\\
144	0\\
145	0\\
146	0\\
147	0\\
148	0\\
149	0\\
150	0\\
151	0\\
152	0\\
153	0\\
154	0\\
155	0\\
156	0\\
157	0\\
158	0\\
159	0\\
160	0\\
161	0\\
162	0\\
163	0\\
164	0\\
165	0\\
166	0\\
167	0\\
168	0\\
169	0\\
170	0\\
171	0\\
172	0\\
173	0\\
174	0\\
175	0\\
176	0\\
177	0\\
178	0\\
179	0\\
180	0\\
181	0\\
182	0\\
183	0\\
184	0\\
185	0\\
186	0\\
187	0\\
188	0\\
189	0\\
190	0\\
191	0\\
192	0\\
193	0\\
194	0\\
195	0\\
196	0\\
197	0\\
198	0\\
199	0\\
200	0\\
};
\addlegendentry{$\mathbf{h_{2}}$}

\end{axis}

\begin{axis}[%
width=1.935in,
height=3.2in,
at={(3.327in,0.512in)},
scale only axis,
xmin=0,
xmax=200,
xlabel style={font=\color{white!15!black}, align=center},
xlabel={Sample Index\\[1ex](b) Estimated},
ymin=0,
ymax=1,
axis background/.style={fill=white},
legend style={legend cell align=left, align=left, draw=white!15!black}
]
\addplot [color=mycolor1]
  table[row sep=crcr]{%
0	0.00105883471454508\\
1	0.00322887708523228\\
2	0.00182240659975743\\
3	0.00336661879879534\\
4	0.00190963393426523\\
5	0.000815003046076886\\
6	0.000503777183887909\\
7	0.00109265879499806\\
8	0.000673443014563193\\
9	0.000897365802855623\\
10	0.000923286018594487\\
11	0.00226089646834642\\
12	0.000849824777679936\\
13	0.00127099501722252\\
14	0.00125521267692669\\
15	0.0023458962902251\\
16	0.000778673271392638\\
17	0.00104210027859883\\
18	0.000453951963274459\\
19	0.00230447914969239\\
20	0.00253580648891187\\
21	0.000961814346998835\\
22	0.00222988506561043\\
23	0.000718617013323829\\
24	0.000732089433165321\\
25	0.00132293220654008\\
26	0.000620351793602257\\
27	0.00168191327808142\\
28	0.00153176809523376\\
29	0.0011552221549787\\
30	0.00346844246105652\\
31	0.00189448059048764\\
32	0.0019076187516432\\
33	0.00108337689126511\\
34	0.00163923584743543\\
35	0.00105679279718952\\
36	0.00162596926152088\\
37	0.00117935191673363\\
38	0.00266438728595068\\
39	0.00100567235248685\\
40	0.00279636429139898\\
41	0.00199050702874084\\
42	0.0024067363997971\\
43	0.000329181389261762\\
44	0.00416952560517084\\
45	0.00227077744127224\\
46	0.00493469147400348\\
47	0.00514323128151837\\
48	0.000873228751982956\\
49	0.00784873378993585\\
50	0.0088403940889506\\
51	0.00391542400424147\\
52	0.0119128889610734\\
53	0.00228936437203402\\
54	0.00321823896037192\\
55	0.00369618419128153\\
56	0.00216605578371516\\
57	0.00458242448681311\\
58	0.00414058559332076\\
59	0.00151907633777704\\
60	0.00469541643695123\\
61	0.00100710186812664\\
62	0.00779453364005533\\
63	0.00556560361430635\\
64	0.00461781243736593\\
65	0.011815233115924\\
66	0.0124436397013632\\
67	0.00423060635957988\\
68	0.0315769008815314\\
69	0.0164907344229724\\
70	0.0212964837893826\\
71	0.0101275814499416\\
72	0.0378606307765148\\
73	0.0122373690441837\\
74	0.0401741746227592\\
75	0.0435979897686726\\
76	0.0297398085191976\\
77	0.0987707116655268\\
78	0.0201135709869884\\
79	0.0195089429520435\\
80	0.0156379822154777\\
81	0.0170364439719737\\
82	0.050813521318144\\
83	0.0662024188858234\\
84	0.151552232133647\\
85	0.109561196221282\\
86	0.134109297650007\\
87	0.21051578632919\\
88	0.561865801178807\\
89	0.134539754981797\\
90	0.0672587215748196\\
91	0.0270342023286923\\
92	0.0548310437815676\\
93	0.0732868769538914\\
94	0.0768075494219409\\
95	0.0204103422900604\\
96	0.0343357717710761\\
97	0.0121072727186605\\
98	0.0456196078670171\\
99	0.0303483153286643\\
100	0.0402893717591071\\
101	0.0390639789683142\\
102	0.0475045195777149\\
103	0.0845525522771591\\
104	0.571442565087812\\
105	0.130863973248713\\
106	0.0310875575636165\\
107	0.0667656110088898\\
108	0.0613884177256607\\
109	0.0779691800944995\\
110	0.171692091515322\\
111	0.0248897442555545\\
112	0.0501526047186827\\
113	0.0450325114863738\\
114	0.0225083594186358\\
115	0.0156697567695837\\
116	0.00410512396989099\\
117	0.00673735010042765\\
118	0.0255702410422462\\
119	0.0224955928612062\\
120	0.0656005305216515\\
121	0.0645985799878159\\
122	0.0798842879840677\\
123	0.220019670706299\\
124	0.17762735701277\\
125	0.079797948584226\\
126	0.0493716919014354\\
127	0.0274474598843676\\
128	0.0291497924078681\\
129	0.0202097816231385\\
130	0.00716292609254988\\
131	0.0129683401132421\\
132	0.0179203688951323\\
133	0.0162057690913694\\
134	0.010126389668083\\
135	0.0159170310680236\\
136	0.014357038495565\\
137	0.00493805917811972\\
138	0.014419330967342\\
139	0.0237015253506498\\
140	0.0222647539328841\\
141	0.00862384157652848\\
142	0.0145945939871834\\
143	0.00134265542849942\\
144	0.00924074293407583\\
145	0.00851609704737471\\
146	0.00192208945549472\\
147	0.00628301501916375\\
148	0.00381758007232803\\
149	0.00410027879441105\\
150	0.00689878404635215\\
151	0.00505960433698102\\
152	0.0078972457005525\\
153	0.00690465740534825\\
154	0.00665674713773083\\
155	0.0076468786465788\\
156	0.0104044431310614\\
157	0.00707696603477957\\
158	0.00259116156854907\\
159	0.00159682338363588\\
160	0.00507550753078626\\
161	0.00403926984969879\\
162	0.00236193868516463\\
163	0.0034845846740403\\
164	0.00522985501162721\\
165	0.00486014714996285\\
166	0.0039547619024569\\
167	0.00407344201286831\\
168	0.0034737547630676\\
169	0.00537284410203561\\
170	0.00448225275685545\\
171	0.00371237040090913\\
172	0.00418540260116524\\
173	0.00284303249762784\\
174	0.00375424544192493\\
175	0.00299343469758971\\
176	0.00283670163410529\\
177	0.003965342070519\\
178	0.00276767931788195\\
179	0.00242667192492579\\
180	0.00289513652615297\\
181	0.000969192847601815\\
182	0.00180481656451351\\
183	0.00293873503615854\\
184	0.000803228200963163\\
185	0.00147395448440828\\
186	0.00353440086225\\
187	0.00222747051343659\\
188	0.00194547496758541\\
189	0.00170325397854572\\
190	0.00197272326053188\\
191	0.00231458575296278\\
192	0.002426308622834\\
193	0.00305177973874364\\
194	0.00321031218337201\\
195	0.00189745755145778\\
196	0.00187300053784291\\
197	0.000586800458950043\\
198	0.00271198530184803\\
199	0.00134051275042767\\
};
\addlegendentry{$\mathbf{\hat{h}_{1}}$}

\addplot [color=mycolor2]
  table[row sep=crcr]{%
0	0.000411028371334235\\
1	0.00084116981294012\\
2	0.000771924304891402\\
3	0.000559217101996965\\
4	0.000556981229427079\\
5	0.000523095875686224\\
6	0.000194293131411909\\
7	0.00080517195869104\\
8	0.000596684830113147\\
9	0.000923519254187449\\
10	0.00120328872822043\\
11	0.000787823140967916\\
12	0.000914947348157431\\
13	0.000499605443677119\\
14	0.000561539469117173\\
15	0.000832224036825452\\
16	0.00105466077871311\\
17	0.000892415346910022\\
18	0.000978104787231567\\
19	0.000823333796142711\\
20	0.00128787585700425\\
21	0.00105686185499202\\
22	0.000986468950633728\\
23	0.00143217617327331\\
24	0.000955359707537398\\
25	0.000763142946731166\\
26	0.000966304391964156\\
27	0.00030367738591321\\
28	0.00075305478750256\\
29	0.00073768942632771\\
30	0.00113585483432441\\
31	0.000908389171101956\\
32	0.00159276038609759\\
33	0.00155302992288361\\
34	0.00194336315018117\\
35	0.00196092820676006\\
36	0.00145054788278367\\
37	0.00206033243642249\\
38	0.00107071525285076\\
39	0.00114363395478018\\
40	0.00196758942750596\\
41	0.000226112797030043\\
42	0.00109832191903699\\
43	0.0030193276862112\\
44	0.00168812835415285\\
45	0.00144863701839557\\
46	0.00176634247511908\\
47	0.00263654112704796\\
48	0.00226049879015036\\
49	0.00264497863212994\\
50	0.000653469980883593\\
51	0.00159200014580485\\
52	0.00198879094493614\\
53	0.00133648730898415\\
54	0.00233359635434861\\
55	0.00217333300100395\\
56	0.00186084864036423\\
57	0.00151422038438955\\
58	0.00161143335363737\\
59	0.00529683934188099\\
60	0.0177387590978729\\
61	0.0123273478773786\\
62	0.00404044811179586\\
63	0.030996733533556\\
64	0.0140881148161346\\
65	0.0104036016556736\\
66	0.00996010731127941\\
67	0.00560480761677161\\
68	0.00356508659455718\\
69	0.00352249701369816\\
70	0.00176397344947178\\
71	0.00255927742382011\\
72	0.0045152126250332\\
73	0.0135734077214875\\
74	0.00334867478638513\\
75	0.00471511991321292\\
76	0.0150046468171321\\
77	0.0140558376798826\\
78	0.0089493699199346\\
79	0.0296818392368453\\
80	0.0362445735965926\\
81	0.0203078236537102\\
82	0.00866455272529567\\
83	0.072107187640248\\
84	0.0105833632465427\\
85	0.00508399284847421\\
86	0.0133983239322083\\
87	0.00582210147282241\\
88	0.00644301909234664\\
89	0.00350586808883182\\
90	0.0105412088774766\\
91	0.0123110388062944\\
92	0.0079235415199925\\
93	0.00928662797077599\\
94	0.00662970805697417\\
95	0.00503580963184373\\
96	0.0330871829554331\\
97	0.0160739887779736\\
98	0.0037962805605017\\
99	0.98697986876087\\
100	0.00379316575182941\\
101	0.0160741829455531\\
102	0.0330926287151202\\
103	0.0050393262356601\\
104	0.0066336650072671\\
105	0.00928636184504938\\
106	0.00793394803435402\\
107	0.0123059272947299\\
108	0.0105382782537878\\
109	0.00350007118520987\\
110	0.00643810917027437\\
111	0.00583595869516683\\
112	0.0134033895082345\\
113	0.00508707489358755\\
114	0.0105821890484207\\
115	0.0721074910174646\\
116	0.00866117387295888\\
117	0.0203098739015853\\
118	0.0362537060548341\\
119	0.0296831899162689\\
120	0.00895385786698683\\
121	0.0140581606461831\\
122	0.0150063125538557\\
123	0.0047034628710414\\
124	0.00334561826696736\\
125	0.0135828773767907\\
126	0.0045185021041455\\
127	0.00257012968673741\\
128	0.00176564178273403\\
129	0.00353417601465727\\
130	0.00357171445193903\\
131	0.00561430481370272\\
132	0.00995789015384154\\
133	0.0103986441393228\\
134	0.0140935472790617\\
135	0.0310052828113718\\
136	0.00403729582242236\\
137	0.0123246208807446\\
138	0.0177532971045511\\
139	0.00529654568112779\\
140	0.00161429249957712\\
141	0.00150405439324302\\
142	0.00184658284414649\\
143	0.00215660072443037\\
144	0.00232126123140486\\
145	0.00132296650703863\\
146	0.00198874405340671\\
147	0.00156219303143725\\
148	0.000639674434215533\\
149	0.0026756642174461\\
150	0.00224920616642386\\
151	0.00265973973578176\\
152	0.00177368473303877\\
153	0.00143188598226165\\
154	0.00167839010630953\\
155	0.00302641550433429\\
156	0.0011109437898718\\
157	0.000219467879647429\\
158	0.00197144543537423\\
159	0.00113451907686583\\
160	0.00107098094914609\\
161	0.00206981417888981\\
162	0.00142154467717197\\
163	0.00194812797331331\\
164	0.00195468380499413\\
165	0.00156253042326324\\
166	0.0015996689759958\\
167	0.000920383681572789\\
168	0.00114208302818418\\
169	0.000739819793147298\\
170	0.000762151017919827\\
171	0.000323098449387721\\
172	0.000980862166812871\\
173	0.000752406875045185\\
174	0.000964738600316458\\
175	0.00142694976483324\\
176	0.000964314637381819\\
177	0.00105352569243909\\
178	0.0012787719880714\\
179	0.00082452969923781\\
180	0.000948374760093956\\
181	0.000887033253727543\\
182	0.00110988922225132\\
183	0.000811633463942842\\
184	0.000518236989197444\\
185	0.00050707597420201\\
186	0.000880853338012706\\
187	0.0007801046644305\\
188	0.00122793310251572\\
189	0.000888962459241858\\
190	0.000636801575616554\\
191	0.000822088788610499\\
192	0.000241689554628088\\
193	0.000527258416080277\\
194	0.00065746636244898\\
195	0.000625900800507092\\
196	0.000830877027409813\\
197	0.000889235740955294\\
198	0.000463173820146753\\
199	0.000607770054408256\\
};
\addlegendentry{$\mathbf{\hat{h}_{2}}$}

\end{axis}
\end{tikzpicture}%