% This file was created by matlab2tikz.
%
%The latest updates can be retrieved from
%  http://www.mathworks.com/matlabcentral/fileexchange/22022-matlab2tikz-matlab2tikz
%where you can also make suggestions and rate matlab2tikz.
%
\definecolor{mycolor1}{rgb}{0.00000,0.44700,0.74100}%
\definecolor{mycolor2}{rgb}{0.85000,0.32500,0.09800}%
%
\begin{tikzpicture}

\begin{axis}[%
width=1.952in,
height=3.2in,
at={(0.758in,0.512in)},
scale only axis,
xmin=0,
xmax=20,
xlabel style={font=\color{white!15!black}, align=center},
xlabel={Sample Index\\[1ex](a) Actual},
ymin=0,
ymax=0.9,
axis background/.style={fill=white},
legend style={legend cell align=left, align=left, draw=white!15!black}
]
\addplot [color=mycolor1]
  table[row sep=crcr]{%
1	0.0444337104356374\\
2	0.738127803558165\\
3	0.357839506790865\\
4	0.481268775571525\\
5	0.10955194752004\\
6	0.267783168107473\\
7	0.0769544524124665\\
8	0.0372836026936495\\
9	0.027789744685169\\
10	0.0196434178633453\\
11	0.0212138243269196\\
12	0.0147156812719569\\
13	0.0126517206023441\\
14	0.0111331007215966\\
15	0.00994473974674355\\
16	0.00898571135769806\\
17	0.00819466874468931\\
18	0.00753086667278431\\
19	0.00696589032366256\\
20	0.00647923877975415\\
};
\addlegendentry{$\mathbf{h_1}$}

\addplot [color=mycolor2]
  table[row sep=crcr]{%
1	0.0696363384444256\\
2	0.13399148454392\\
3	0.889181852408627\\
4	0.426869408918664\\
5	0.0527923084371181\\
6	0.0393468637154593\\
7	0\\
8	0\\
9	0\\
10	0\\
11	0\\
12	0\\
13	0\\
14	0\\
15	0\\
16	0\\
17	0\\
18	0\\
19	0\\
20	0\\
};
\addlegendentry{$\mathbf{h_{2}}$}

\end{axis}

\begin{axis}[%
width=1.952in,
height=3.2in,
at={(3.327in,0.512in)},
scale only axis,
xmin=0,
xmax=30,
xlabel style={font=\color{white!15!black}, align=center},
xlabel={Sample Index\\[1ex](b) Estimated},
ymin=0,
ymax=1,
axis background/.style={fill=white},
legend style={legend cell align=left, align=left, draw=white!15!black}
]
\addplot [color=mycolor1]
  table[row sep=crcr]{%
0	0.000103502182412411\\
1	2.59690156964423e-05\\
2	2.83610215183759e-05\\
3	6.83883624487189e-05\\
4	0.000102495777687403\\
5	5.23209954394497e-05\\
6	6.13185954797631e-05\\
7	2.68417107358098e-05\\
8	4.77339416558001e-05\\
9	0.00191123232386015\\
10	0.0313380032755224\\
11	0.0753359798761604\\
12	0.234123916594763\\
13	0.778816742118333\\
14	0.333078368765773\\
15	0.375636022465512\\
16	0.202085818828817\\
17	0.165342396618502\\
18	0.104814009974413\\
19	0.0275492686985889\\
20	0.00171519953938259\\
21	0.000307485050812836\\
22	0.000855500697688147\\
23	0.000166381586577907\\
24	5.22542249563925e-05\\
25	8.94122522750762e-06\\
26	0.00011688566263456\\
27	9.4849987531426e-05\\
28	0.000113777906867849\\
29	5.97022405135519e-05\\
30	0.00013995303086072\\
};
\addlegendentry{$\mathbf{\hat{h}_{1}}$}

\addplot [color=mycolor2]
  table[row sep=crcr]{%
0	3.64393037166733e-05\\
1	3.1261565399458e-05\\
2	9.41816668376959e-06\\
3	2.80311254274692e-05\\
4	6.26045137216547e-06\\
5	0.00076963358194355\\
6	0.000642927989224248\\
7	0.0024011628062758\\
8	0.00513068315938249\\
9	0.0187943544814272\\
10	0.0377650509378324\\
11	0.022632514736816\\
12	0.0962610842503842\\
13	0.0559496008138738\\
14	0.985016289957605\\
15	0.0557651131524867\\
16	0.0972300867512471\\
17	0.0234123914402202\\
18	0.0388796565913029\\
19	0.0187747705732352\\
20	0.00576920868891117\\
21	0.00320768575489297\\
22	0.000996405423226385\\
23	0.00115205861919384\\
24	4.47415933778308e-05\\
25	3.0428832631025e-05\\
26	1.45427226537132e-05\\
27	3.2045090007208e-05\\
28	3.9925975195529e-05\\
29	4.32191431382866e-05\\
30	1.68187760096843e-05\\
};
\addlegendentry{$\mathbf{\hat{h}_{2}}$}

\end{axis}
\end{tikzpicture}%