% This file was created by matlab2tikz.
%
%The latest updates can be retrieved from
%  http://www.mathworks.com/matlabcentral/fileexchange/22022-matlab2tikz-matlab2tikz
%where you can also make suggestions and rate matlab2tikz.
%
\definecolor{myblue}{rgb}{0.00000,0.44700,0.74100}%
\definecolor{myorange}{rgb}{0.85000,0.32500,0.09800}%
%
\begin{tikzpicture}

\begin{axis}[%
width=1.952in,
height=3.2in,
at={(0.758in,0.512in)},
scale only axis,
xmin=0,
xmax=20,
xlabel style={font=\color{white!15!black}, align=center},
xlabel={Sample Index\\[1ex](a) Actual},
ymin=0,
ymax=0.9,
axis background/.style={fill=white},
legend style={legend cell align=left, align=left, draw=white!15!black}
]
\addplot [color=myblue]
  table[row sep=crcr]{%
1	0.0444337104356374\\
2	0.738127803558165\\
3	0.357839506790865\\
4	0.481268775571525\\
5	0.10955194752004\\
6	0.267783168107473\\
7	0.0769544524124665\\
8	0.0372836026936495\\
9	0.027789744685169\\
10	0.0196434178633453\\
11	0.0212138243269196\\
12	0.0147156812719569\\
13	0.0126517206023441\\
14	0.0111331007215966\\
15	0.00994473974674355\\
16	0.00898571135769806\\
17	0.00819466874468931\\
18	0.00753086667278431\\
19	0.00696589032366256\\
20	0.00647923877975415\\
};
\addlegendentry{$\mathbf{h_1}$}

\addplot [color=myorange]
  table[row sep=crcr]{%
1	0.0696363384444256\\
2	0.13399148454392\\
3	0.889181852408627\\
4	0.426869408918664\\
5	0.0527923084371181\\
6	0.0393468637154593\\
7	0\\
8	0\\
9	0\\
10	0\\
11	0\\
12	0\\
13	0\\
14	0\\
15	0\\
16	0\\
17	0\\
18	0\\
19	0\\
20	0\\
};
\addlegendentry{$\mathbf{h_{2}}$}

\end{axis}

\begin{axis}[%
width=1.952in,
height=3.2in,
at={(3.327in,0.512in)},
scale only axis,
xmin=0,
xmax=20,
xlabel style={font=\color{white!15!black}, align=center},
xlabel={Sample Index\\[1ex](b) Estimated},
ymin=0,
ymax=0.9,
axis background/.style={fill=white},
legend style={legend cell align=left, align=left, draw=white!15!black}
]
\addplot [color=myblue]
  table[row sep=crcr]{%
0	0.044433743457996\\
1	0.7381259857147\\
2	0.35786324352469\\
3	0.481271643441997\\
4	0.109512281042222\\
5	0.267777382854196\\
6	0.0769249128387081\\
7	0.0372778803996105\\
8	0.027790856632995\\
9	0.019643265228612\\
10	0.0212100114508954\\
11	0.0147139038787075\\
12	0.0126494236745484\\
13	0.0111335622336631\\
14	0.00994243881498183\\
15	0.00898599372628174\\
16	0.00819319499242879\\
17	0.00752982326987467\\
18	0.00696470795267673\\
19	0.00647884906150962\\
};
\addlegendentry{$\mathbf{\hat{h}_{1}}$}
\addplot [color=myorange]
  table[row sep=crcr]{%
0	0.0696354805507192\\
1	0.133984460963733\\
2	0.88915918762879\\
3	0.426926132585727\\
4	0.0527420554310179\\
5	0.0393364457998712\\
6	5.96419378078654e-06\\
7	1.07489447889473e-06\\
8	1.08211840846788e-06\\
9	1.10263016833786e-06\\
10	1.28927416278056e-06\\
11	1.27034855515466e-06\\
12	1.53772399899458e-06\\
13	2.41185578916212e-06\\
14	1.69957503678156e-06\\
15	1.76740829286772e-06\\
16	4.37290591631067e-07\\
17	1.96015793139367e-06\\
18	9.30901300630114e-07\\
19	4.53737813058726e-07\\
};
\addlegendentry{$\mathbf{\hat{h}_{2}}$}
\end{axis}

% \begin{axis}[%
% width=5.833in,
% height=4.375in,
% at={(0in,0in)},
% scale only axis,
% xmin=0,
% xmax=1,
% ymin=0,
% ymax=1,
% axis line style={draw=none},
% ticks=none,
% axis x line*=bottom,
% axis y line*=left,
% legend style={legend cell align=left, align=left, draw=white!15!black}
% ]
% \end{axis}
\end{tikzpicture}%