% This file was created by matlab2tikz.
%
%The latest updates can be retrieved from
%  http://www.mathworks.com/matlabcentral/fileexchange/22022-matlab2tikz-matlab2tikz
%where you can also make suggestions and rate matlab2tikz.
%
\definecolor{mycolor1}{rgb}{0.00000,0.44700,0.74100}%
\definecolor{mycolor2}{rgb}{0.85000,0.32500,0.09800}%
%
\begin{tikzpicture}

\begin{axis}[%
width=1.935in,
height=3.2in,
at={(0.758in,0.512in)},
scale only axis,
xmin=0,
xmax=150,
xlabel style={font=\color{white!15!black}, align=center},
xlabel={Sample Index\\[1ex](a)},
ymin=0,
ymax=0.8,
axis background/.style={fill=white},
legend style={legend cell align=left, align=left, draw=white!15!black}
]
\addplot [color=mycolor1]
  table[row sep=crcr]{%
1	0.0151830319933043\\
2	0.0185496696438093\\
3	0.023502065016884\\
4	0.0315038869286449\\
5	0.0469062512391942\\
6	0.0954908680191146\\
7	0.0858266491267274\\
8	0.265807368316819\\
9	0.796648883752005\\
10	0.216493826260265\\
11	0.0878556377176694\\
12	0.07193222497443\\
13	0.105696480077463\\
14	0.149868327351951\\
15	0.0510921191197441\\
16	0.152868392263622\\
17	0.048017719918991\\
18	0.0109949328175406\\
19	0.0126732962157991\\
20	0.0175843103691614\\
21	0.0258891023896794\\
22	0.171301952341992\\
23	0.1212921102575\\
24	0.0235386564372659\\
25	0.00858129954461538\\
26	0.133991438537226\\
27	0.17851624212042\\
28	0.0777373619575687\\
29	0.110031729625206\\
30	0.00959913684727289\\
31	0.0101692934073309\\
32	0.0218927776733185\\
33	0.0485547145239866\\
34	0.028524787741674\\
35	0.0931132420825283\\
36	0.0761344452933766\\
37	0.0369812132104379\\
38	0.0270699566667011\\
39	0.026458256765523\\
40	0.0700820910745542\\
41	0.00787266021999488\\
42	0.00768771367639978\\
43	0.00738222171836111\\
44	0.00713402148494006\\
45	0.00716369066636382\\
46	0.00788882227497034\\
47	0.0112512475897253\\
48	0.0626689062200538\\
49	0.0427206763331481\\
50	0.00951578480873744\\
51	0.00243896181448075\\
52	0.0015691552028362\\
53	0.00146457511195334\\
54	0.00155057599858872\\
55	0.0017720937565566\\
56	0.00217432997301489\\
57	0.00286457318035984\\
58	0.00410346836174264\\
59	0.00676291579585115\\
60	0.0170053910864941\\
61	0.0301833155479945\\
62	0.0511202697583185\\
63	0.0105005975636433\\
64	0.00640544843735559\\
65	0.00470250391841775\\
66	0.00371961016971575\\
67	0.00305007107550002\\
68	0.00254202566702992\\
69	0.00212653652112194\\
70	0.0017767046983006\\
71	0.00152001410442311\\
72	0.00153304600268641\\
73	0.00230867360183963\\
74	0.00526136383537744\\
75	0.038333522890848\\
76	0.0121668181991512\\
77	0.00627619518067768\\
78	0.00457506177246321\\
79	0.00374737764088975\\
80	0.00324686636810371\\
81	0.00290502633566605\\
82	0.00265270743485525\\
83	0.00245624767322843\\
84	0.00229725334120465\\
85	0.0021647918883538\\
86	0.00205193428439391\\
87	0.00195406009034949\\
88	0.00186795865192442\\
89	0.00179132151185079\\
90	0.00172244056348044\\
91	0.00166002062260405\\
92	0.00160305868824092\\
93	0.00155076366110332\\
94	0.00150250147009903\\
95	0.00145775664490856\\
96	0.00141610482103629\\
97	0.00137719268617519\\
98	0.0013407230999277\\
99	0.00130644387932209\\
100	0.00127413922704226\\
101	0.00124362309491465\\
102	0.00121473398501049\\
103	0.00118733083279375\\
104	0.00116128971457897\\
105	0.00113650118998977\\
106	0.00111286813865705\\
107	0.00109030398529933\\
108	0.00106873123273224\\
109	0.00104808024105737\\
110	0.00102828820519932\\
111	0.00100929829342004\\
112	0.000991058917376328\\
113	0.000973523110361595\\
114	0.000956647995060137\\
115	0.000940394325788187\\
116	0.00092472609305463\\
117	0.000909610180527103\\
118	0.000895016066279295\\
119	0.000880915561628906\\
120	0.000867282582022485\\
121	0.000854092945356868\\
122	0.000841324193880593\\
123	0.000828955436438686\\
124	0.000816967208330094\\
125	0.000805341346466144\\
126	0.000794060877864884\\
127	0.000783109919805542\\
128	0.000772473590206662\\
129	0.000762137926996426\\
130	0.000752089815411914\\
131	0.000742316922307892\\
132	0.000732807636680009\\
133	0.000723551015708443\\
134	0.000714536735717782\\
135	0.000705755047526231\\
136	0.000697196735719498\\
137	0.000688853081443639\\
138	0.000680715828357098\\
139	0.000672777151427449\\
140	0.000665029628290027\\
141	0.000657466212923161\\
142	0.000650080211416905\\
143	0.000642865259640033\\
144	0.000635815302630011\\
145	0.000628924575548207\\
146	0.000622187586061679\\
147	0.000615599098024618\\
148	0.000609154116346598\\
149	0\\
150	0\\
};
\addlegendentry{$\mathbf{h_1}$}

\addplot [color=mycolor2]
  table[row sep=crcr]{%
1	0.0116283672604953\\
2	0.0123927463124993\\
3	0.0132649499786597\\
4	0.0142694730472227\\
5	0.0154388022064217\\
6	0.0168169460018562\\
7	0.0184650059045602\\
8	0.0204703044623656\\
9	0.0229620194387964\\
10	0.0261394268228958\\
11	0.030326372246617\\
12	0.0360853656003085\\
13	0.0444837647244236\\
14	0.0578138510431174\\
15	0.0820182949536605\\
16	0.138539152408166\\
17	0.40529101126893\\
18	0.531857257093217\\
19	0.183644612933698\\
20	0.136508722860241\\
21	0.200047586884045\\
22	0.106492504443086\\
23	0.0269767303978956\\
24	0.0384718138974967\\
25	0.247242183991229\\
26	0.550925101963883\\
27	0.195827754207156\\
28	0.0577902570880743\\
29	0.0334777071537313\\
30	0.0243597557761845\\
31	0.0197080234406676\\
32	0.0168717713396733\\
33	0.0149315700239635\\
34	0.0134968721772165\\
35	0.0123767429153913\\
36	0.0114674702329188\\
37	0.0107078852605367\\
38	0.0100594473104557\\
39	0.0094965290561411\\
40	0.00900131573338651\\
41	0.00856095738478305\\
42	0.00816589392182006\\
43	0.00780882485328738\\
44	0.00748405042307228\\
45	0.00718703568900882\\
46	0.00691411334689385\\
47	0.00666227571208106\\
48	0.00642902565379269\\
49	0.0062122675203184\\
50	0.00601022582354538\\
51	0\\
52	0\\
53	0\\
54	0\\
55	0\\
56	0\\
57	0\\
58	0\\
59	0\\
60	0\\
61	0\\
62	0\\
63	0\\
64	0\\
65	0\\
66	0\\
67	0\\
68	0\\
69	0\\
70	0\\
71	0\\
72	0\\
73	0\\
74	0\\
75	0\\
76	0\\
77	0\\
78	0\\
79	0\\
80	0\\
81	0\\
82	0\\
83	0\\
84	0\\
85	0\\
86	0\\
87	0\\
88	0\\
89	0\\
90	0\\
91	0\\
92	0\\
93	0\\
94	0\\
95	0\\
96	0\\
97	0\\
98	0\\
99	0\\
100	0\\
101	0\\
102	0\\
103	0\\
104	0\\
105	0\\
106	0\\
107	0\\
108	0\\
109	0\\
110	0\\
111	0\\
112	0\\
113	0\\
114	0\\
115	0\\
116	0\\
117	0\\
118	0\\
119	0\\
120	0\\
121	0\\
122	0\\
123	0\\
124	0\\
125	0\\
126	0\\
127	0\\
128	0\\
129	0\\
130	0\\
131	0\\
132	0\\
133	0\\
134	0\\
135	0\\
136	0\\
137	0\\
138	0\\
139	0\\
140	0\\
141	0\\
142	0\\
143	0\\
144	0\\
145	0\\
146	0\\
147	0\\
148	0\\
149	0\\
150	0\\
};
\addlegendentry{$\mathbf{h_{2}}$}

\end{axis}

\begin{axis}[%
width=1.935in,
height=3.2in,
at={(3.327in,0.512in)},
scale only axis,
xmin=0,
xmax=150,
xlabel style={font=\color{white!15!black}, align=center},
xlabel={Sample Index\\[1ex](b)},
ymin=0,
ymax=0.9,
axis background/.style={fill=white},
legend style={legend cell align=left, align=left, draw=white!15!black}
]
\addplot [color=mycolor1]
  table[row sep=crcr]{%
0	0.0004064108528201\\
1	0.00598944176501011\\
2	0.00411962133664864\\
3	0.00134732522550372\\
4	0.00728890845961392\\
5	0.0113154895428558\\
6	0.00181301505599111\\
7	0.0032430692355736\\
8	0.00568708655737007\\
9	0.0159356918913253\\
10	0.010073559741229\\
11	0.00595942578906448\\
12	0.00961552827091547\\
13	0.0051524521700455\\
14	0.00824683965130375\\
15	0.00534505630720298\\
16	0.00300090112338958\\
17	0.017148667519652\\
18	0.0242692893178804\\
19	0.00481202501729149\\
20	0.00173849684215863\\
21	0.00215237725526532\\
22	0.00562075413539342\\
23	0.0124176621598729\\
24	0.0125955313872062\\
25	0.0098799030168619\\
26	0.00929625269129248\\
27	0.00638926683586349\\
28	0.0125018527224713\\
29	0.0199569508793727\\
30	0.0219926310267839\\
31	0.013758130389189\\
32	0.00227742691972578\\
33	0.0224327355808576\\
34	0.020749789471126\\
35	0.0312088487525719\\
36	0.0343961551807087\\
37	0.0361210786309263\\
38	0.0165762211720552\\
39	0.0208361851949389\\
40	0.0268939034768835\\
41	0.0421252552652722\\
42	0.0141499130166925\\
43	0.0350771963148046\\
44	0.017229009566814\\
45	0.014058253939734\\
46	0.0378987256632173\\
47	0.0605624295420136\\
48	0.0593826664227591\\
49	0.110021136222617\\
50	0.0552003066097695\\
51	0.0454803946601776\\
52	0.0236936645868914\\
53	0.0222604792224616\\
54	0.00857449769034231\\
55	0.0292487661727943\\
56	0.198731559534817\\
57	0.488043724260618\\
58	0.243574608354329\\
59	0.0357829575618909\\
60	0.0375169646115618\\
61	0.037911772537669\\
62	0.0938189092704369\\
63	0.136844392726359\\
64	0.116142055801558\\
65	0.417466527145696\\
66	0.319396439955048\\
67	0.250502551857368\\
68	0.152979222327497\\
69	0.135444097297294\\
70	0.136531278981503\\
71	0.142288406573681\\
72	0.0531061547463016\\
73	0.0589252248354001\\
74	0.116302290369496\\
75	0.0900464523392021\\
76	0.0714630148864074\\
77	0.0737795943222499\\
78	0.110388285885249\\
79	0.0940981258113215\\
80	0.0461589859205849\\
81	0.103408212469895\\
82	0.0856206252482087\\
83	0.0452667604865445\\
84	0.130425512482061\\
85	0.10152482597697\\
86	0.0542847089635535\\
87	0.0244452234972956\\
88	0.0784904567527461\\
89	0.07063527468954\\
90	0.0771462058838495\\
91	0.0839593515295881\\
92	0.0852762109506401\\
93	0.0250646825214651\\
94	0.00549647149384241\\
95	0.0287304065703084\\
96	0.0227764394987964\\
97	0.033748772171064\\
98	0.0181042830390892\\
99	0.03929821978077\\
100	0.013882076038792\\
101	0.0165835959888331\\
102	0.0129170209431509\\
103	0.0250629580746871\\
104	0.0193859602119031\\
105	0.0310257408004782\\
106	0.0211906676278375\\
107	0.0221095842172672\\
108	0.00296547456212093\\
109	0.0215392385890884\\
110	0.0132305109259137\\
111	0.0167723412667273\\
112	0.0187372204129368\\
113	0.0104745303782628\\
114	0.00549432198899405\\
115	0.00623428516568077\\
116	0.0121581912873433\\
117	0.0218418047302966\\
118	0.0209373760757344\\
119	0.00311428747937648\\
120	0.00267496175193\\
121	0.00214904504940203\\
122	0.0065552834112014\\
123	0.0171182089122691\\
124	0.0130107296325259\\
125	0.007989187626584\\
126	0.000864403490176246\\
127	0.00144853359397984\\
128	0.0127013238587909\\
129	0.0131082116307003\\
130	0.0117176027309634\\
131	0.00879744859026152\\
132	0.0210640906409694\\
133	0.0132893207816415\\
134	0.0104058909155395\\
135	0.00327651921822202\\
136	0.00426122819227106\\
137	0.0032325133991985\\
138	0.00332402197167778\\
139	0.00470699264371541\\
140	0.00577616740953235\\
141	0.00484191605313844\\
142	0.00396582952410236\\
143	0.00363332642374235\\
144	0.00427304440484381\\
145	0.00505767529507607\\
146	0.00145083690432547\\
147	0.00274560785185263\\
148	0.00113959897561032\\
149	0.00522785372707264\\
};
\addlegendentry{$\mathbf{\hat{h}_{1}}$}

\addplot [color=mycolor2]
  table[row sep=crcr]{%
0	0.0013435522447612\\
1	0.00192280406605865\\
2	0.00342857117748971\\
3	0.00463001293906226\\
4	0.00279612821986606\\
5	0.00152741435351771\\
6	0.00262749285764105\\
7	0.00166329625169031\\
8	0.00538663297280943\\
9	0.00550095182458489\\
10	0.00292772303242773\\
11	0.00145740910162099\\
12	0.00435495560386295\\
13	0.00719358273456851\\
14	0.00128848951189382\\
15	0.00500426816612696\\
16	0.00484318541307354\\
17	0.01042865616487\\
18	0.00625931536100635\\
19	0.00215105028230088\\
20	0.00631618374237221\\
21	0.0156134622364945\\
22	0.0143683560990674\\
23	0.00439958843303618\\
24	0.00503700008710335\\
25	0.00193257445312768\\
26	0.0124767805597459\\
27	0.00692517680556353\\
28	0.00179457347596118\\
29	0.0113812572983314\\
30	0.0143014904858044\\
31	0.0141782604587538\\
32	0.00499746724878497\\
33	0.00449824038537788\\
34	0.00860225846237369\\
35	0.0242246368070306\\
36	0.00240948174523455\\
37	0.0134903178394402\\
38	0.0155208245121849\\
39	0.019314476754067\\
40	0.0208784545605176\\
41	0.0242869630179774\\
42	0.00698095150539794\\
43	0.0126668762190075\\
44	0.0206513983829863\\
45	0.0126333396611982\\
46	0.0206608595526762\\
47	0.0286413859247216\\
48	0.031202913315202\\
49	0.029053850672065\\
50	0.0185033086971926\\
51	0.0294577336894546\\
52	0.0240516549353177\\
53	0.00927783110116206\\
54	0.0465199352412491\\
55	0.0467303020601883\\
56	0.0882429693657624\\
57	0.06388264282924\\
58	0.00577443636792915\\
59	0.0327312249153832\\
60	0.0545702608266792\\
61	0.0751257714519394\\
62	0.0419961223770683\\
63	0.00639432315519821\\
64	0.00361502249234705\\
65	0.108847582340127\\
66	0.134432234344961\\
67	0.0500094019184392\\
68	0.0140996053232162\\
69	0.0684254271381338\\
70	0.138537538007546\\
71	0.0528265134101067\\
72	0.033202057984767\\
73	0.0899131341248439\\
74	0.887502508069714\\
75	0.0899119141604439\\
76	0.0331799219866993\\
77	0.0528114610882518\\
78	0.138494756519709\\
79	0.0683976065052755\\
80	0.0140344740541061\\
81	0.0500330290393939\\
82	0.13440245218906\\
83	0.108817049903024\\
84	0.00361600757497579\\
85	0.00637448450943552\\
86	0.042001919492701\\
87	0.0750795889285341\\
88	0.0546118239767603\\
89	0.0326898899189949\\
90	0.0057996599761185\\
91	0.063847048641525\\
92	0.0881961983891385\\
93	0.0467360120840422\\
94	0.0464537489322848\\
95	0.00914750411401168\\
96	0.0240627430120011\\
97	0.0294415706866685\\
98	0.0184712424286237\\
99	0.0289275033571207\\
100	0.0311755953559204\\
101	0.0284089096982496\\
102	0.0206610463476259\\
103	0.0125854762769959\\
104	0.0206862242601246\\
105	0.012675640033545\\
106	0.00694174443013317\\
107	0.0241703225190166\\
108	0.0207105484373027\\
109	0.0193716544285125\\
110	0.0154632671829054\\
111	0.0134831810886643\\
112	0.00261752098174042\\
113	0.0242666457534593\\
114	0.00848567002122356\\
115	0.0044938524368109\\
116	0.00482302676771124\\
117	0.0142537010798286\\
118	0.014154943620588\\
119	0.0112321056425052\\
120	0.00172249957281831\\
121	0.00688075086060386\\
122	0.0123954934491294\\
123	0.00189726623793401\\
124	0.00510450361750499\\
125	0.00469628966222528\\
126	0.0144104187573632\\
127	0.0155936706746518\\
128	0.00631733289919438\\
129	0.00228544629561993\\
130	0.00592093904538802\\
131	0.0102165154508846\\
132	0.0050798714449141\\
133	0.00697788612872986\\
134	0.00124504825515897\\
135	0.00577588320665652\\
136	0.0052133618036782\\
137	0.00165717784111252\\
138	0.00256000636292128\\
139	0.00514419312277349\\
140	0.00899034728809262\\
141	0.00422361406105166\\
142	0.001398946338904\\
143	0.000869906694644216\\
144	0.00367184808910934\\
145	0.00558919063517945\\
146	0.00240804629278267\\
147	0.00235847333912984\\
148	0.000565965300342283\\
149	0.00134130770627676\\
};
\addlegendentry{$\mathbf{\hat{h}_{2}}$}

\end{axis}
\end{tikzpicture}%