% This file was created by matlab2tikz.
%
%The latest updates can be retrieved from
%  http://www.mathworks.com/matlabcentral/fileexchange/22022-matlab2tikz-matlab2tikz
%where you can also make suggestions and rate matlab2tikz.
%
\definecolor{mycolor1}{rgb}{0.00000,0.44700,0.74100}%
\definecolor{mycolor2}{rgb}{0.85000,0.32500,0.09800}%
%
\begin{tikzpicture}

\begin{axis}[%
width=1.952in,
height=3.2in,
at={(0.758in,0.512in)},
scale only axis,
xmin=0,
xmax=20,
xlabel style={font=\color{white!15!black}, align=center},
xlabel={Sample Index\\[1ex](a)},
ymin=0,
ymax=1,
axis background/.style={fill=white},
legend style={legend cell align=left, align=left, draw=white!15!black}
]
\addplot [color=mycolor1]
  table[row sep=crcr]{%
1	0.113205605745861\\
2	0.919292270364926\\
3	0.256025577129562\\
4	0.221212160951117\\
5	0.110921817870281\\
6	0.0400328712358033\\
7	0.0687168441611535\\
8	0.0506014016738843\\
9	0.0552835931164163\\
10	0.0346525615393867\\
11	0.020191452822011\\
12	0.0185296152559968\\
13	0.0171404774442808\\
14	0.0156211388830756\\
15	0.0142945116316957\\
16	0.0131617720182863\\
17	0.0121914691582677\\
18	0.0113534257007881\\
19	0.0106231383936872\\
20	0.00998136168461187\\
};
\addlegendentry{$\mathbf{h_1}$}

\addplot [color=mycolor2]
  table[row sep=crcr]{%
1	0.0495723015654782\\
2	0.0685334241945042\\
3	0.511321702955238\\
4	0.765196656162612\\
5	0.358164812724738\\
6	0.132619444637821\\
7	0\\
8	0\\
9	0\\
10	0\\
11	0\\
12	0\\
13	0\\
14	0\\
15	0\\
16	0\\
17	0\\
18	0\\
19	0\\
20	0\\
};
\addlegendentry{$\mathbf{h_{2}}$}

\end{axis}

\begin{axis}[%
width=1.952in,
height=3.2in,
at={(3.327in,0.512in)},
scale only axis,
xmin=0,
xmax=20,
xlabel style={font=\color{white!15!black}, align=center},
xlabel={Sample Index\\[1ex](b)},
ymin=0,
ymax=1,
axis background/.style={fill=white},
legend style={legend cell align=left, align=left, draw=white!15!black}
]
\addplot [color=mycolor1]
  table[row sep=crcr]{%
0	0.0442349231860078\\
1	0.0306012883502621\\
2	0.00440425434748865\\
3	0.0178781778062018\\
4	0.0594779661575899\\
5	0.196522250767853\\
6	0.169016508951752\\
7	0.816565318011868\\
8	0.438430011633543\\
9	0.195119396832013\\
10	0.0370866258037307\\
11	0.0950038000529449\\
12	0.100798542346\\
13	0.0428243581017626\\
14	0.0322565142188685\\
15	0.0537523129839358\\
16	0.0287159520086218\\
17	0.0314651012981868\\
18	0.0235852762599189\\
19	0.0165861472704078\\
};
\addlegendentry{$\mathbf{\hat{h}_{1}}$}

\addplot [color=mycolor2]
  table[row sep=crcr]{%
0	0.0184709117827827\\
1	0.0339216167396084\\
2	0.0302091645708509\\
3	0.0370051815187968\\
4	0.0493317750925114\\
5	0.0596617489407223\\
6	0.132547881296542\\
7	0.120274925726228\\
8	0.221211378049788\\
9	0.904316832565973\\
10	0.221385228327165\\
11	0.120428032513324\\
12	0.132561286594315\\
13	0.0598919506706567\\
14	0.0485485772735632\\
15	0.0376490441959813\\
16	0.0320247757404563\\
17	0.0351995354974563\\
18	0.0190241892972855\\
19	0.0199954714742114\\
};
\addlegendentry{$\mathbf{\hat{h}_{2}}$}

\end{axis}
\end{tikzpicture}%