4
R41-0-RX2,000317F9BC,41.741465,-111.807645,0.0
R43-0-RX2,000317F9BE,41.742194,-111.807575,0.0
R42-0-RX2,000317F9C2,41.742008,-111.807575,0.0
R40-0-RX2,0003185E44,41.741265,-111.807945,0.0
 -38.81933, -39.23841, -38.67514, -38.83280
 -38.80849, -39.15308, -38.59237, -38.75623
 -38.84346, -39.21146, -38.65425, -38.79312
 -38.72894, -39.12142, -38.55501, -38.69361
 -38.88637, -39.27997, -38.71659, -38.83655
 -38.74221, -39.12903, -38.55894, -38.72108
 -38.95291, -39.31748, -38.75689, -38.91698
 -38.83540, -39.17874, -38.62548, -38.81046
 -38.69052, -39.09820, -38.53010, -38.66058
 -38.82924, -39.22562, -38.64111, -38.79649
 -38.67899, -39.10488, -38.54112, -38.67889
 -38.85015, -39.22018, -38.63536, -38.81882
 -38.88431, -39.22366, -38.66017, -38.83411
 -38.75874, -39.17542, -38.59061, -38.76131
 -38.78000, -39.15561, -38.58752, -38.71390
 -38.89086, -39.29736, -38.72742, -38.87852
 -38.83416, -39.23119, -38.66465, -38.79097
 -38.81061, -39.19140, -38.63551, -38.82730
 -38.85493, -39.26421, -38.68178, -38.82994
 -38.94478, -39.30078, -38.73128, -38.92097
 -38.77564, -39.22633, -38.64257, -38.75109
 -38.83362, -39.16961, -38.59774, -38.80164
 -38.79636, -39.22582, -38.65467, -38.78481
 -38.82855, -39.21347, -38.62997, -38.81549
 -38.83745, -39.27977, -38.68861, -38.81554
 -38.80443, -39.24764, -38.66356, -38.79263
 -38.90527, -39.31168, -38.72261, -38.90042
 -38.86776, -39.23059, -38.66218, -38.85210
 -38.86136, -39.30692, -38.71712, -38.85529
 -38.81562, -39.20648, -38.65361, -38.80357
 -38.78548, -39.21316, -38.63585, -38.76535
 -38.68973, -39.08482, -38.49432, -38.65360
 -38.76794, -39.19000, -38.61306, -38.76264
 -38.76824, -39.16625, -38.58868, -38.76497
 -38.80091, -39.21329, -38.62845, -38.79722
 -38.81339, -39.22378, -38.64056, -38.79205
 -38.77775, -39.21457, -38.62129, -38.79509
 -38.85100, -39.20402, -38.63625, -38.79076
 -38.79678, -39.22771, -38.64908, -38.78241
 -38.76882, -39.19221, -38.60904, -38.76516
 -38.83440, -39.23326, -38.64881, -38.80254
 -38.71429, -39.14750, -38.58434, -38.67840
 -38.78888, -39.15457, -38.59047, -38.72444
 -38.65883, -39.05627, -38.49329, -38.62804
 -38.85574, -39.26533, -38.69613, -38.81002
 -38.85615, -39.24622, -38.68186, -38.83591
 -38.77747, -39.22205, -38.64211, -38.77894
 -38.83673, -39.22970, -38.66706, -38.79416
 -38.87931, -39.26924, -38.69604, -38.83945
 -38.83963, -39.24900, -38.67971, -38.78586
 -38.69798, -39.14003, -38.57146, -38.65440
 -38.69136, -39.10982, -38.52227, -38.66629
 -38.89056, -39.25140, -38.69355, -38.84832
 -38.70958, -39.14763, -38.57642, -38.67855
 -38.83795, -39.21063, -38.64045, -38.78580
 -38.86600, -39.28485, -38.73006, -38.82776
 -38.76184, -39.18536, -38.62002, -38.72605
 -38.80089, -39.16880, -38.61320, -38.75648
 -38.93801, -39.35906, -38.79426, -38.88942
 -38.74169, -39.17175, -38.61002, -38.68163
 -38.74867, -39.13800, -38.55979, -38.68562
 -38.75702, -39.15481, -38.59501, -38.72452
 -38.79473, -39.20704, -38.66119, -38.73002
 -38.75965, -39.16855, -38.61364, -38.72608
 -38.87831, -39.27093, -38.71072, -38.84747
 -38.89320, -39.31107, -38.74324, -38.84766
 -38.80033, -39.18356, -38.63366, -38.72055
 -38.76325, -39.17194, -38.61504, -38.70473
 -38.77827, -39.15380, -38.59509, -38.74643
 -38.88884, -39.28008, -38.70544, -38.81440
 -38.70852, -39.12790, -38.57499, -38.67984
 -38.83696, -39.23156, -38.67671, -38.77509
 -38.88714, -39.32957, -38.77520, -38.81385
 -38.78159, -39.18005, -38.61060, -38.76265
 -38.92353, -39.31504, -38.77881, -38.84335
 -38.79967, -39.18707, -38.64276, -38.73935
 -38.78505, -39.21082, -38.65998, -38.74725
 -38.76666, -39.12741, -38.58438, -38.67789
 -38.80264, -39.17369, -38.62806, -38.75231
 -38.88725, -39.31174, -38.76075, -38.81757
 -38.81192, -39.20147, -38.65977, -38.72933
 -38.76606, -39.14828, -38.65049, -38.69849
 -38.79702, -39.19103, -38.66553, -38.72430
 -38.77460, -39.16473, -38.62918, -38.69706
 -38.70321, -39.05210, -38.54353, -38.63519
 -38.81791, -39.19943, -38.64845, -38.71795
 -38.86197, -39.28277, -38.74872, -38.82370
 -38.86240, -39.21727, -38.67342, -38.79704
 -38.84338, -39.28678, -38.74498, -38.75287
 -38.81536, -39.18502, -38.64499, -38.75714
 -38.86024, -39.25324, -38.72126, -38.77878
 -38.74287, -39.12935, -38.60107, -38.67765
 -38.73949, -39.13256, -38.60171, -38.68019
 -38.78539, -39.16089, -38.62947, -38.71812
 -38.80560, -39.18073, -38.67020, -38.74243
 -38.87797, -39.25591, -38.72189, -38.80972
 -38.77205, -39.16380, -38.63013, -38.69859
 -38.90060, -39.27663, -38.74354, -38.84260
 -38.73473, -39.17734, -38.65056, -38.64067
 -38.78151, -39.14757, -38.63054, -38.71978
 -38.90516, -39.27294, -38.74963, -38.83612
 -38.82761, -39.20861, -38.68384, -38.73716
 -38.73534, -39.12644, -38.60958, -38.65701
 -38.85831, -39.19130, -38.67545, -38.79563
 -38.72083, -39.06831, -38.57540, -38.60962
 -38.80875, -39.21618, -38.69539, -38.69621
 -38.94614, -39.25728, -38.74395, -38.86793
 -38.64946, -39.04059, -38.53663, -38.57819
 -38.82608, -39.16578, -38.64531, -38.73993
 -38.80137, -39.22981, -38.74141, -38.70285
 -38.84892, -39.16331, -38.65453, -38.76287
 -38.76682, -39.13822, -38.62510, -38.69890
 -38.88794, -39.27227, -38.79335, -38.79173
 -38.67294, -39.03260, -38.51313, -38.54978
 -38.86154, -39.20290, -38.71055, -38.81903
 -38.93935, -39.32037, -38.84624, -38.83030
 -38.73122, -39.11721, -38.61257, -38.66532
 -38.77622, -39.12370, -38.64882, -38.69206
 -38.77774, -39.14404, -38.64131, -38.67706
 -38.79159, -39.14039, -38.65623, -38.67764
 -38.80416, -39.17913, -38.66824, -38.70936
 -38.70106, -39.06046, -38.57662, -38.59379
 -38.80150, -39.12185, -38.64224, -38.71363
 -38.78893, -39.12591, -38.64782, -38.70698
 -38.81687, -39.13890, -38.65810, -38.69480
 -38.81446, -39.19080, -38.70581, -38.70946
 -38.86979, -39.21716, -38.72075, -38.78632
 -38.86808, -39.18945, -38.69439, -38.76883
 -38.80202, -39.16384, -38.67172, -38.69613
 -38.87030, -39.21531, -38.75061, -38.77098
 -38.81079, -39.17772, -38.67763, -38.71162
 -38.83295, -39.15591, -38.65727, -38.73211
 -38.88796, -39.22114, -38.70917, -38.79695
 -38.81433, -39.15006, -38.65459, -38.71853
 -38.87451, -39.24717, -38.77678, -38.76275
 -38.72338, -39.04610, -38.53348, -38.62531
 -38.71269, -39.10323, -38.59328, -38.65147
 -38.80066, -39.14072, -38.63774, -38.69098
 -38.73209, -39.08886, -38.58705, -38.63627
 -38.91563, -39.21399, -38.71535, -38.80737
 -38.83132, -39.22607, -38.73356, -38.72602
 -38.77981, -39.12347, -38.62795, -38.68933
 -38.81412, -39.11874, -38.63504, -38.70710
 -38.83298, -39.18005, -38.66843, -38.73473
 -38.84754, -39.17555, -38.67584, -38.75736
 -38.88314, -39.22949, -38.72063, -38.77700
 -38.89156, -39.27222, -38.75954, -38.77876
 -38.76781, -39.08783, -38.60704, -38.68198
 -38.89120, -39.17521, -38.68612, -38.78328
 -38.86126, -39.23738, -38.76782, -38.73819
 -38.91438, -39.22305, -38.72977, -38.81760
 -38.73008, -39.06565, -38.58719, -38.57370
 -38.78762, -39.08413, -38.59322, -38.69838
 -38.77417, -39.13771, -38.62967, -38.68230
 -38.78258, -39.07791, -38.59489, -38.65107
 -38.86069, -39.19678, -38.68945, -38.76713
 -38.85088, -39.17685, -38.68060, -38.71888
 -38.72150, -39.06374, -38.56683, -38.65451
 -38.85150, -39.16945, -38.66534, -38.73510
 -38.97282, -39.26863, -38.78589, -38.83029
 -38.81138, -39.13248, -38.63334, -38.70622
 -38.80897, -39.10971, -38.61353, -38.65128
 -38.78452, -39.09619, -38.60043, -38.69558
 -38.88597, -39.22091, -38.71667, -38.78876
 -38.90665, -39.20723, -38.74039, -38.77000
 -38.89141, -39.21702, -38.72128, -38.78064
 -38.85412, -39.16353, -38.66942, -38.74959
 -38.79039, -39.12590, -38.61889, -38.67103
 -38.77614, -39.04868, -38.54462, -38.63824
 -38.75729, -39.09192, -38.60809, -38.65103
 -38.78487, -39.10577, -38.60768, -38.64971
 -38.85136, -39.13172, -38.61970, -38.71459
 -38.90035, -39.20786, -38.70247, -38.80927
 -38.84618, -39.18393, -38.68045, -38.69979
 -38.85703, -39.17270, -38.67805, -38.74752
 -38.84217, -39.17147, -38.65704, -38.74143
 -38.84747, -39.11128, -38.62124, -38.71435
 -38.89175, -39.21836, -38.70771, -38.76894
 -38.94576, -39.19615, -38.68677, -38.82158
 -38.92299, -39.26913, -38.77052, -38.79903
 -38.89602, -39.17666, -38.66990, -38.76433
 -38.89908, -39.19864, -38.68934, -38.78523
 -38.90292, -39.22603, -38.70335, -38.77290
 -38.88897, -39.21321, -38.68029, -38.79158
 -38.82513, -39.15929, -38.64424, -38.72115
 -38.78437, -39.07990, -38.55259, -38.67722
 -38.91494, -39.23325, -38.70996, -38.81394
 -38.80321, -39.14015, -38.61440, -38.67527
 -38.82821, -39.15200, -38.62271, -38.72912
 -38.84289, -39.13660, -38.61968, -38.74316
 -38.88162, -39.21579, -38.68056, -38.75452
 -38.75255, -39.07954, -38.55228, -38.69316
 -38.79293, -39.10315, -38.56712, -38.65860
 -38.81658, -39.12604, -38.59754, -38.71772
 -38.88430, -39.19832, -38.66290, -38.79377
