\relax 
\providecommand\hyper@newdestlabel[2]{}
\citation{book:sourceLocal,thesis:Geolocation,art:TDOAGeo,conf:overviewGeo}
\citation{book:sourceLocal,thesis:Geolocation,conf:overviewGeo,art:CircArrayDOA,art:InnovIndoorGeolocation,art:ImpSourceLocal}
\citation{web:fmf}
\citation{conf:RFID_livestock}
\citation{art:IoD}
\citation{book:sourceLocal,thesis:Geolocation,conf:overviewGeo,thesis:RSSI}
\citation{book:sourceLocal,thesis:Geolocation,conf:overviewGeo,thesis:RSSI}
\citation{book:AcousticMIMOSigProc,art:AdaptiveTDEUsingFilterConstraints,art:TDEviaMinEntropy}
\@writefile{toc}{\contentsline {chapter}{\numberline {1}INTRODUCTION}{1}{chapter.1}}
\@writefile{toc}{\contentsline {section}{\numberline {1.1}Thesis Outline}{2}{section.1.1}}
\@setckpt{Chapters/Chapter_1/ch_1_introduction}{
\setcounter{page}{3}
\setcounter{equation}{0}
\setcounter{enumi}{0}
\setcounter{enumii}{0}
\setcounter{enumiii}{0}
\setcounter{enumiv}{0}
\setcounter{footnote}{0}
\setcounter{mpfootnote}{0}
\setcounter{part}{0}
\setcounter{chapter}{1}
\setcounter{section}{1}
\setcounter{subsection}{0}
\setcounter{subsubsection}{0}
\setcounter{paragraph}{0}
\setcounter{subparagraph}{0}
\setcounter{figure}{0}
\setcounter{table}{0}
\setcounter{savemainpageno}{0}
\setcounter{savefrontpageno}{22}
\setcounter{savetotalpageno}{0}
\setcounter{float@type}{16}
\setcounter{alg}{0}
\setcounter{parentequation}{0}
\setcounter{lstnumber}{1}
\setcounter{LT@tables}{0}
\setcounter{LT@chunks}{0}
\setcounter{ContinuedFloat}{0}
\setcounter{subfigure}{0}
\setcounter{subtable}{0}
\setcounter{Item}{0}
\setcounter{Hfootnote}{0}
\setcounter{bookmark@seq@number}{8}
\setcounter{lstlisting}{0}
\setcounter{section@level}{1}
}
