% This file was created by matlab2tikz.
%
%The latest updates can be retrieved from
%  http://www.mathworks.com/matlabcentral/fileexchange/22022-matlab2tikz-matlab2tikz
%where you can also make suggestions and rate matlab2tikz.
%
\definecolor{mycolor1}{rgb}{0.00000,0.44700,0.74100}%
\definecolor{mycolor2}{rgb}{0.85000,0.32500,0.09800}%
%
\begin{tikzpicture}

\begin{axis}[%
width=1.935in,
height=3.2in,
at={(0.758in,0.512in)},
scale only axis,
xmin=0,
xmax=100,
xlabel style={font=\color{white!15!black}, align=center},
xlabel={Sample Index\\[1ex](a) Actual},
ymin=0,
ymax=1,
axis background/.style={fill=white},
legend style={legend cell align=left, align=left, draw=white!15!black}
]
\addplot [color=mycolor1]
  table[row sep=crcr]{%
1	0.0216926152020066\\
2	0.0241183965289278\\
3	0.0267807478156139\\
4	0.0354280601095614\\
5	0.221828667704926\\
6	0.648965745595675\\
7	0.241270440438586\\
8	0.0776642628644082\\
9	0.0581044824071981\\
10	0.0611489366831747\\
11	0.0798140419847986\\
12	0.062735544320507\\
13	0.113011040425493\\
14	0.377485382687519\\
15	0.331649248845691\\
16	0.18615433793772\\
17	0.146493252817741\\
18	0.0847190801249442\\
19	0.0628278567269286\\
20	0.0148364296169451\\
21	0.0250471739922352\\
22	0.0344835915107885\\
23	0.116323790948646\\
24	0.279210940275387\\
25	0.101045410677318\\
26	0.0464379665429307\\
27	0.041398863205924\\
28	0.0263226969199998\\
29	0.0221848789960478\\
30	0.0197642774213948\\
31	0.0186496517239344\\
32	0.0219339353832985\\
33	0.018414044189717\\
34	0.00937919788338426\\
35	0.0100670783096178\\
36	0.0098135024549665\\
37	0.00937197330245933\\
38	0.00884810306396591\\
39	0.00821513429074651\\
40	0.00732026654240377\\
41	0.00945021173361951\\
42	0.0127255218727005\\
43	0.00946415089832864\\
44	0.00862800399957479\\
45	0.00816256372793386\\
46	0.00784857678072338\\
47	0.00764005346579914\\
48	0.00755773656417068\\
49	0.00776075567554332\\
50	0.00986938420958768\\
51	0.00319649311885596\\
52	0.00500292172051245\\
53	0.00524752973649041\\
54	0.00526667690567613\\
55	0.00521575322380608\\
56	0.00513704586881206\\
57	0.00504647235310817\\
58	0.00495116794332671\\
59	0.00485468351773321\\
60	0.00475890010347922\\
61	0.00466484578572566\\
62	0.00457308311118313\\
63	0.00448390798586452\\
64	0.0043974582605137\\
65	0.00431377595094964\\
66	0.00423284428954661\\
67	0.00415461047403326\\
68	0.00407899997367922\\
69	0.00400592569101114\\
70	0.00393529390404367\\
71	0.0038670081481966\\
72	0.00380097175500134\\
73	0.00373708950172093\\
74	0.00367526866536834\\
75	0.00361541967416126\\
76	0.00355745648532918\\
77	0.00350129677649243\\
78	0.00344686201027152\\
79	0.00339407741330312\\
80	0.00334287189828014\\
81	0.0032931779490063\\
82	0.00324493148246751\\
83	0.00319807169773062\\
84	0.003152540918526\\
85	0.00310828443427485\\
86	0.00306525034282854\\
87	0.00302338939712195\\
88	0.00298265485717807\\
89	0.00294300234835571\\
90	0.00290438972634362\\
91	0.0028667769491261\\
92	0.00283012595595264\\
93	0.0027944005532083\\
94	0.00275956630699144\\
95	0.0027255904421446\\
96	0.00269244174744817\\
97	0.00266009048666622\\
98	0.00262850831512411\\
99	0\\
100	0\\
};
\addlegendentry{$\mathbf{h_1}$}

\addplot [color=mycolor2]
  table[row sep=crcr]{%
1	0.00108294891904515\\
2	0.00115806441999571\\
3	0.00125656841390277\\
4	0.00139359850086552\\
5	0.00159676508941691\\
6	0.00191784013184518\\
7	0.00245777585368985\\
8	0.00342819163679349\\
9	0.00533730915065768\\
10	0.00974214709050295\\
11	0.0244449264542886\\
12	0.973731186814765\\
13	0.0500739614470277\\
14	0.0426946282907342\\
15	0.00536788790071817\\
16	0.0362080823589407\\
17	0.176144271962331\\
18	0.115663212635922\\
19	0.0234963057121139\\
20	0.0138738178597906\\
21	0.00966054585381422\\
22	0.00731818549393035\\
23	0.00584139575065055\\
24	0.0048330083027894\\
25	0.00410500747522503\\
26	0.00355723928842746\\
27	0.00313167065616096\\
28	0.00279247304593218\\
29	0.00251639833876938\\
30	0.00228774297450139\\
31	0.00209554142652578\\
32	0.00193191967393617\\
33	0.00179108704155738\\
34	0.00166869616651274\\
35	0\\
36	0\\
37	0\\
38	0\\
39	0\\
40	0\\
41	0\\
42	0\\
43	0\\
44	0\\
45	0\\
46	0\\
47	0\\
48	0\\
49	0\\
50	0\\
51	0\\
52	0\\
53	0\\
54	0\\
55	0\\
56	0\\
57	0\\
58	0\\
59	0\\
60	0\\
61	0\\
62	0\\
63	0\\
64	0\\
65	0\\
66	0\\
67	0\\
68	0\\
69	0\\
70	0\\
71	0\\
72	0\\
73	0\\
74	0\\
75	0\\
76	0\\
77	0\\
78	0\\
79	0\\
80	0\\
81	0\\
82	0\\
83	0\\
84	0\\
85	0\\
86	0\\
87	0\\
88	0\\
89	0\\
90	0\\
91	0\\
92	0\\
93	0\\
94	0\\
95	0\\
96	0\\
97	0\\
98	0\\
99	0\\
100	0\\
};
\addlegendentry{$\mathbf{h_{2}}$}

\end{axis}

\begin{axis}[%
width=1.935in,
height=3.2in,
at={(3.327in,0.512in)},
scale only axis,
xmin=0,
xmax=100,
xlabel style={font=\color{white!15!black}, align=center},
xlabel={Sample Index\\[1ex](b) Estimated},
ymin=0,
ymax=1,
axis background/.style={fill=white},
legend style={legend cell align=left, align=left, draw=white!15!black}
]
\addplot [color=mycolor1]
  table[row sep=crcr]{%
0	0.0214960558778298\\
1	0.0234125416888479\\
2	0.0262145389587269\\
3	0.038131978130449\\
4	0.21841050330374\\
5	0.632838895485174\\
6	0.260113339911566\\
7	0.0925710754242442\\
8	0.0968564713932109\\
9	0.0759025054855034\\
10	0.0600274466529283\\
11	0.0866709159968695\\
12	0.12641755782443\\
13	0.382042313528254\\
14	0.339851748851187\\
15	0.201636755998246\\
16	0.101125552441312\\
17	0.0335418960442799\\
18	0.0986743181114581\\
19	0.0499045346269673\\
20	0.0614788760859374\\
21	0.034734484337031\\
22	0.121553595039025\\
23	0.226692012528861\\
24	0.112684107410808\\
25	0.0443342761193268\\
26	0.0874798821163259\\
27	0.023176771419101\\
28	0.0208340225361125\\
29	0.0275045319854228\\
30	0.04643079835772\\
31	0.00419514932891228\\
32	0.0327502058328725\\
33	0.0267005234908074\\
34	0.0334487991612468\\
35	0.0458427496258407\\
36	0.0188389450218083\\
37	0.0147252968217433\\
38	0.00146364600883896\\
39	0.0145314466729858\\
40	0.0137830952338214\\
41	0.0114138158208439\\
42	0.00850378946191699\\
43	0.00803370615347949\\
44	0.00871306858951023\\
45	0.00633494660565013\\
46	0.00797468132376313\\
47	0.00611380843821308\\
48	0.00643980306802609\\
49	0.0079226187932405\\
50	0.00422459356867642\\
51	0.00469041152528189\\
52	0.00487423197399014\\
53	0.00442056332965194\\
54	0.00491936541943195\\
55	0.00492506537247407\\
56	0.0038055506972359\\
57	0.00488025866890315\\
58	0.00390299538318311\\
59	0.00388024671076413\\
60	0.00498462212935957\\
61	0.00294772709820128\\
62	0.00468879119796235\\
63	0.00335940377185835\\
64	0.00402879718859408\\
65	0.00367136674725514\\
66	0.00335231477709395\\
67	0.00379956169533088\\
68	0.00323609504082483\\
69	0.00380314256287325\\
70	0.00329991491225912\\
71	0.00301118491780407\\
72	0.00339827749407381\\
73	0.00313566247780756\\
74	0.00294632672079887\\
75	0.00327582908577668\\
76	0.00289125301815301\\
77	0.0032076054298648\\
78	0.00300781883522036\\
79	0.00275399956123792\\
80	0.00291936335744143\\
81	0.00262004755600941\\
82	0.00285484969721223\\
83	0.00301689351148262\\
84	0.00276536043961723\\
85	0.00254514826877439\\
86	0.00246541095261972\\
87	0.00257411944369244\\
88	0.0025884989059371\\
89	0.00254182261704383\\
90	0.00267247730258804\\
91	0.00233045831426416\\
92	0.00266101966159705\\
93	0.0021925185319692\\
94	0.00233455469951305\\
95	0.0023082355644167\\
96	0.0024694881644795\\
97	0.00244222675102315\\
98	0.000698563843879968\\
99	0.000875945699152953\\
};
\addlegendentry{$\mathbf{\hat{h}_{1}}$}

\addplot [color=mycolor2]
  table[row sep=crcr]{%
0	0.00104951781326927\\
1	0.00105747469710747\\
2	0.00111737192170772\\
3	0.00117692573915558\\
4	0.00125971506913383\\
5	0.00137446911938346\\
6	0.00192442388261941\\
7	0.00328508037804099\\
8	0.00397979350374022\\
9	0.0105943777516333\\
10	0.0248042310687745\\
11	0.930936454101217\\
12	0.101165840204179\\
13	0.131154134854184\\
14	0.0842958489485449\\
15	0.0585860807304505\\
16	0.175951472708507\\
17	0.157991465738426\\
18	0.0817461536262539\\
19	0.0490368759697036\\
20	0.0370252634237827\\
21	0.0780048276926924\\
22	0.101372996086708\\
23	0.0967839050617477\\
24	0.0468212158271173\\
25	0.0134544348336233\\
26	0.00388505789288294\\
27	0.00193645082481791\\
28	0.00171513693121378\\
29	0.00424385808459882\\
30	0.00224149121945952\\
31	0.00670202466077234\\
32	0.00148145016544283\\
33	0.00229067464997565\\
34	0.00145566834109107\\
35	0.000813790182586523\\
36	0.00105753017980442\\
37	0.00190972334185772\\
38	0.00236230850156603\\
39	0.00280672014296484\\
40	0.00192023248664406\\
41	0.00119496225551085\\
42	0.00137530987858585\\
43	0.000258611363148715\\
44	0.000614318277831069\\
45	0.00043171012753792\\
46	0.000577631370020065\\
47	0.00132252655530592\\
48	0.00179665264748903\\
49	0.00175307625098841\\
50	0.000791584153407843\\
51	5.78476130726515e-05\\
52	0.000146245526475435\\
53	8.40755069777618e-05\\
54	0.000149245075232619\\
55	7.33838718984679e-05\\
56	0.000229307826566934\\
57	0.000113845017628536\\
58	0.000207469955868659\\
59	0.00013418186533786\\
60	8.72225311771061e-05\\
61	0.00013835255670647\\
62	0.00021675424513373\\
63	7.31858216569634e-05\\
64	8.64114943885409e-05\\
65	9.09556166740033e-05\\
66	0.000214647903319174\\
67	0.000277071526928826\\
68	0.000151728078721551\\
69	0.000284912398860118\\
70	0.000140313399026072\\
71	0.000111795866650983\\
72	0.000102118854620004\\
73	0.000243987632307749\\
74	0.000310288941975475\\
75	0.000270198590907988\\
76	0.00023852594344423\\
77	0.000306919584669463\\
78	0.000206065367762348\\
79	0.000127647800094606\\
80	0.000395920497636971\\
81	0.000209119102120531\\
82	0.000267806686796516\\
83	0.000230046712310939\\
84	0.000104840461545469\\
85	3.17644584282777e-05\\
86	0.000228895592448951\\
87	0.000100405027741597\\
88	0.000166435969808555\\
89	0.000297766491900787\\
90	0.00047104878934552\\
91	0.000125514053191597\\
92	0.000248228806521244\\
93	0.000217164202721247\\
94	0.000111524642757462\\
95	0.000380889376280041\\
96	0.000436736380289075\\
97	0.000511216219840678\\
98	0.000247556060469345\\
99	6.45561180751942e-05\\
};
\addlegendentry{$\mathbf{\hat{h}_{2}}$}

\end{axis}
\end{tikzpicture}%