% This file was created by matlab2tikz.
%
%The latest updates can be retrieved from
%  http://www.mathworks.com/matlabcentral/fileexchange/22022-matlab2tikz-matlab2tikz
%where you can also make suggestions and rate matlab2tikz.
%
\definecolor{mycolor1}{rgb}{0.00000,0.44700,0.74100}%
\definecolor{mycolor2}{rgb}{0.85000,0.32500,0.09800}%
%
\begin{tikzpicture}

\begin{axis}[%
width=1.935in,
height=3.2in,
at={(0.758in,0.512in)},
scale only axis,
xmin=0,
xmax=100,
xlabel style={font=\color{white!15!black}, align=center},
xlabel={Sample Index\\[1ex](a) Actual},
ymin=0,
ymax=1,
axis background/.style={fill=white},
legend style={legend cell align=left, align=left, draw=white!15!black}
]
\addplot [color=mycolor1]
  table[row sep=crcr]{%
1	0.0216926152020066\\
2	0.0241183965289278\\
3	0.0267807478156139\\
4	0.0354280601095614\\
5	0.221828667704926\\
6	0.648965745595675\\
7	0.241270440438586\\
8	0.0776642628644082\\
9	0.0581044824071981\\
10	0.0611489366831747\\
11	0.0798140419847986\\
12	0.062735544320507\\
13	0.113011040425493\\
14	0.377485382687519\\
15	0.331649248845691\\
16	0.18615433793772\\
17	0.146493252817741\\
18	0.0847190801249442\\
19	0.0628278567269286\\
20	0.0148364296169451\\
21	0.0250471739922352\\
22	0.0344835915107885\\
23	0.116323790948646\\
24	0.279210940275387\\
25	0.101045410677318\\
26	0.0464379665429307\\
27	0.041398863205924\\
28	0.0263226969199998\\
29	0.0221848789960478\\
30	0.0197642774213948\\
31	0.0186496517239344\\
32	0.0219339353832985\\
33	0.018414044189717\\
34	0.00937919788338426\\
35	0.0100670783096178\\
36	0.0098135024549665\\
37	0.00937197330245933\\
38	0.00884810306396591\\
39	0.00821513429074651\\
40	0.00732026654240377\\
41	0.00945021173361951\\
42	0.0127255218727005\\
43	0.00946415089832864\\
44	0.00862800399957479\\
45	0.00816256372793386\\
46	0.00784857678072338\\
47	0.00764005346579914\\
48	0.00755773656417068\\
49	0.00776075567554332\\
50	0.00986938420958768\\
51	0.00319649311885596\\
52	0.00500292172051245\\
53	0.00524752973649041\\
54	0.00526667690567613\\
55	0.00521575322380608\\
56	0.00513704586881206\\
57	0.00504647235310817\\
58	0.00495116794332671\\
59	0.00485468351773321\\
60	0.00475890010347922\\
61	0.00466484578572566\\
62	0.00457308311118313\\
63	0.00448390798586452\\
64	0.0043974582605137\\
65	0.00431377595094964\\
66	0.00423284428954661\\
67	0.00415461047403326\\
68	0.00407899997367922\\
69	0.00400592569101114\\
70	0.00393529390404367\\
71	0.0038670081481966\\
72	0.00380097175500134\\
73	0.00373708950172093\\
74	0.00367526866536834\\
75	0.00361541967416126\\
76	0.00355745648532918\\
77	0.00350129677649243\\
78	0.00344686201027152\\
79	0.00339407741330312\\
80	0.00334287189828014\\
81	0.0032931779490063\\
82	0.00324493148246751\\
83	0.00319807169773062\\
84	0.003152540918526\\
85	0.00310828443427485\\
86	0.00306525034282854\\
87	0.00302338939712195\\
88	0.00298265485717807\\
89	0.00294300234835571\\
90	0.00290438972634362\\
91	0.0028667769491261\\
92	0.00283012595595264\\
93	0.0027944005532083\\
94	0.00275956630699144\\
95	0.0027255904421446\\
96	0.00269244174744817\\
97	0.00266009048666622\\
98	0.00262850831512411\\
99	0\\
100	0\\
};
\addlegendentry{$\mathbf{h_1}$}

\addplot [color=mycolor2]
  table[row sep=crcr]{%
1	0.00108294891904515\\
2	0.00115806441999571\\
3	0.00125656841390277\\
4	0.00139359850086552\\
5	0.00159676508941691\\
6	0.00191784013184518\\
7	0.00245777585368985\\
8	0.00342819163679349\\
9	0.00533730915065768\\
10	0.00974214709050295\\
11	0.0244449264542886\\
12	0.973731186814765\\
13	0.0500739614470277\\
14	0.0426946282907342\\
15	0.00536788790071817\\
16	0.0362080823589407\\
17	0.176144271962331\\
18	0.115663212635922\\
19	0.0234963057121139\\
20	0.0138738178597906\\
21	0.00966054585381422\\
22	0.00731818549393035\\
23	0.00584139575065055\\
24	0.0048330083027894\\
25	0.00410500747522503\\
26	0.00355723928842746\\
27	0.00313167065616096\\
28	0.00279247304593218\\
29	0.00251639833876938\\
30	0.00228774297450139\\
31	0.00209554142652578\\
32	0.00193191967393617\\
33	0.00179108704155738\\
34	0.00166869616651274\\
35	0\\
36	0\\
37	0\\
38	0\\
39	0\\
40	0\\
41	0\\
42	0\\
43	0\\
44	0\\
45	0\\
46	0\\
47	0\\
48	0\\
49	0\\
50	0\\
51	0\\
52	0\\
53	0\\
54	0\\
55	0\\
56	0\\
57	0\\
58	0\\
59	0\\
60	0\\
61	0\\
62	0\\
63	0\\
64	0\\
65	0\\
66	0\\
67	0\\
68	0\\
69	0\\
70	0\\
71	0\\
72	0\\
73	0\\
74	0\\
75	0\\
76	0\\
77	0\\
78	0\\
79	0\\
80	0\\
81	0\\
82	0\\
83	0\\
84	0\\
85	0\\
86	0\\
87	0\\
88	0\\
89	0\\
90	0\\
91	0\\
92	0\\
93	0\\
94	0\\
95	0\\
96	0\\
97	0\\
98	0\\
99	0\\
100	0\\
};
\addlegendentry{$\mathbf{h_{2}}$}

\end{axis}

\begin{axis}[%
width=1.935in,
height=3.2in,
at={(3.327in,0.512in)},
scale only axis,
xmin=0,
xmax=100,
xlabel style={font=\color{white!15!black}, align=center},
xlabel={Sample Index\\[1ex](b) Estimated},
ymin=0,
ymax=0.7,
axis background/.style={fill=white},
legend style={legend cell align=left, align=left, draw=white!15!black}
]
\addplot [color=mycolor1]
  table[row sep=crcr]{%
0	0.0149578962904801\\
1	0.00790559379399282\\
2	0.0237627375454009\\
3	0.0281153706495013\\
4	0.163408100462367\\
5	0.388337702713592\\
6	0.320541798031057\\
7	0.495655976433393\\
8	0.176430142264149\\
9	0.066120436881244\\
10	0.0767263010343125\\
11	0.0641303107972446\\
12	0.101207759872032\\
13	0.258338529435122\\
14	0.300336534764044\\
15	0.264165003060214\\
16	0.255975036324354\\
17	0.091561487124815\\
18	0.104603358531038\\
19	0.0366330140219617\\
20	0.048333231327498\\
21	0.0242249240305637\\
22	0.0802583251686011\\
23	0.168378284220318\\
24	0.11122751555294\\
25	0.202311882528632\\
26	0.0798222339284615\\
27	0.0340720219674192\\
28	0.0332141814158555\\
29	0.0228240382308925\\
30	0.0202486366963084\\
31	0.0210748006122028\\
32	0.01750669681575\\
33	0.0177857963588315\\
34	0.0146984323900882\\
35	0.00914257552115566\\
36	0.00957095292231548\\
37	0.0090669624172966\\
38	0.00860744917143917\\
39	0.00781780997489333\\
40	0.00824251295226037\\
41	0.0113315534901945\\
42	0.00798499448512954\\
43	0.0108939900191013\\
44	0.00868960337430285\\
45	0.0080393374927171\\
46	0.00771439040869589\\
47	0.00756137557086749\\
48	0.00753276275862835\\
49	0.00888876994110585\\
50	0.00352606911118065\\
51	0.00895057288272311\\
52	0.00381675094419448\\
53	0.00494858763743452\\
54	0.00508801486318754\\
55	0.00505359329713932\\
56	0.00498923592017578\\
57	0.00490335879550429\\
58	0.00482361063921632\\
59	0.00472209642478182\\
60	0.00463125373246101\\
61	0.00454483420490899\\
62	0.0044408483343104\\
63	0.0043649123556588\\
64	0.00428064772269641\\
65	0.00419606358375399\\
66	0.00412301475647979\\
67	0.00404054187296707\\
68	0.00397049346509316\\
69	0.00389707611661364\\
70	0.00382849075169982\\
71	0.00376165965921294\\
72	0.00369994566850163\\
73	0.00363247477028293\\
74	0.00358135823607779\\
75	0.00351572652043647\\
76	0.00345959590018099\\
77	0.00340785239681253\\
78	0.00334980925804892\\
79	0.00330280791734578\\
80	0.00325443032504178\\
81	0.00319961701847457\\
82	0.00316136717315606\\
83	0.00310941199739359\\
84	0.00306502437825111\\
85	0.00302421120286618\\
86	0.00297960551018133\\
87	0.00293797531001859\\
88	0.00290463091540214\\
89	0.00285809397440145\\
90	0.00282789847175301\\
91	0.0027888546619346\\
92	0.00275118190669172\\
93	0.00271781585467665\\
94	0.00268527306657003\\
95	0.00264754845869682\\
96	0.00262163782982849\\
97	0.00258551483379405\\
98	0.000805752148324215\\
99	0.00181936271444917\\
};
\addlegendentry{$\mathbf{\hat{h}_{1}}$}

\addplot [color=mycolor2]
  table[row sep=crcr]{%
0	0.000706074456682169\\
1	0.000359464898072664\\
2	0.00105705606042924\\
3	0.00115052599073712\\
4	0.00128166193973181\\
5	0.00148767798380348\\
6	0.00182476217379666\\
7	0.00242019925943748\\
8	0.00361154529292381\\
9	0.00630529636277461\\
10	0.0154032971553372\\
11	0.631677690653304\\
12	0.386411428855535\\
13	0.630513293537451\\
14	0.0177446753147641\\
15	0.050157288637534\\
16	0.103731895551935\\
17	0.117300851425712\\
18	0.142099676694905\\
19	0.0756329807255148\\
20	0.0168059500675904\\
21	0.0100415675880167\\
22	0.00695653908343479\\
23	0.00639503913058428\\
24	0.00438109831639061\\
25	0.00365355295342129\\
26	0.00334473796744758\\
27	0.0029984992456662\\
28	0.00257267652351949\\
29	0.00234022660011322\\
30	0.00216699207007524\\
31	0.00188336566307782\\
32	0.00182714723092655\\
33	0.00167276119626716\\
34	0.000545912570308845\\
35	0.00107915879848182\\
36	4.32136895605554e-05\\
37	2.99802034922832e-05\\
38	2.52983597860516e-05\\
39	7.55747004374869e-06\\
40	6.764961136633e-06\\
41	7.0618001085779e-06\\
42	1.0996600251738e-05\\
43	7.0789666278384e-06\\
44	1.25010112024716e-05\\
45	2.11588836259115e-05\\
46	1.86025793204704e-05\\
47	1.30922552178838e-05\\
48	5.30226408190864e-06\\
49	1.19017703066532e-05\\
50	9.13898035841924e-06\\
51	6.93063953502126e-06\\
52	3.95555489733184e-06\\
53	7.75692065865342e-06\\
54	3.603973797871e-06\\
55	3.7792462533099e-06\\
56	3.74875813580902e-06\\
57	5.56898836739621e-06\\
58	5.41579421763791e-06\\
59	4.25363691501976e-06\\
60	3.25971413447964e-06\\
61	2.82428064691395e-06\\
62	3.78460081384142e-06\\
63	1.72464798097719e-06\\
64	1.7239722736517e-06\\
65	1.89321202796764e-06\\
66	2.82310047742687e-06\\
67	4.07897374099536e-06\\
68	5.38730518583552e-06\\
69	3.67674184837165e-06\\
70	4.95554599989428e-06\\
71	6.62485375181073e-06\\
72	5.32222775120376e-06\\
73	7.30839275041114e-07\\
74	1.7347917561412e-06\\
75	2.34923845948222e-06\\
76	3.21860696028317e-06\\
77	3.23402892023191e-06\\
78	2.91569536037899e-06\\
79	2.24355583672615e-06\\
80	3.94815000187323e-06\\
81	2.71352374165298e-06\\
82	4.88171365909229e-06\\
83	8.60622822027138e-06\\
84	8.20073058444422e-06\\
85	4.98698063810796e-06\\
86	5.78341951269199e-06\\
87	5.02517194325633e-06\\
88	5.04104669150242e-06\\
89	2.24485245603088e-06\\
90	1.83146859630208e-06\\
91	2.70685529301436e-06\\
92	3.33916609412705e-06\\
93	4.90510406006263e-06\\
94	3.23859015499757e-06\\
95	2.57146739072321e-06\\
96	1.37097946435381e-06\\
97	3.7255193277472e-06\\
98	2.22590140801493e-06\\
99	1.93579551040977e-06\\
};
\addlegendentry{$\mathbf{\hat{h}_{2}}$}

\end{axis}
\end{tikzpicture}%