% This file was created by matlab2tikz.
%
%The latest updates can be retrieved from
%  http://www.mathworks.com/matlabcentral/fileexchange/22022-matlab2tikz-matlab2tikz
%where you can also make suggestions and rate matlab2tikz.
%
\definecolor{mycolor1}{rgb}{0.00000,0.44700,0.74100}%
\definecolor{mycolor2}{rgb}{0.85000,0.32500,0.09800}%
%
\begin{tikzpicture}

\begin{axis}[%
width=1.935in,
height=3.2in,
at={(0.758in,0.512in)},
scale only axis,
xmin=0,
xmax=100,
xlabel style={font=\color{white!15!black}, align=center},
xlabel={Sample Index\\[1ex](a) Actual},
ymin=0,
ymax=1,
axis background/.style={fill=white},
legend style={legend cell align=left, align=left, draw=white!15!black}
]
\addplot [color=mycolor1]
  table[row sep=crcr]{%
1	0.0216926152020066\\
2	0.0241183965289278\\
3	0.0267807478156139\\
4	0.0354280601095614\\
5	0.221828667704926\\
6	0.648965745595675\\
7	0.241270440438586\\
8	0.0776642628644082\\
9	0.0581044824071981\\
10	0.0611489366831747\\
11	0.0798140419847986\\
12	0.062735544320507\\
13	0.113011040425493\\
14	0.377485382687519\\
15	0.331649248845691\\
16	0.18615433793772\\
17	0.146493252817741\\
18	0.0847190801249442\\
19	0.0628278567269286\\
20	0.0148364296169451\\
21	0.0250471739922352\\
22	0.0344835915107885\\
23	0.116323790948646\\
24	0.279210940275387\\
25	0.101045410677318\\
26	0.0464379665429307\\
27	0.041398863205924\\
28	0.0263226969199998\\
29	0.0221848789960478\\
30	0.0197642774213948\\
31	0.0186496517239344\\
32	0.0219339353832985\\
33	0.018414044189717\\
34	0.00937919788338426\\
35	0.0100670783096178\\
36	0.0098135024549665\\
37	0.00937197330245933\\
38	0.00884810306396591\\
39	0.00821513429074651\\
40	0.00732026654240377\\
41	0.00945021173361951\\
42	0.0127255218727005\\
43	0.00946415089832864\\
44	0.00862800399957479\\
45	0.00816256372793386\\
46	0.00784857678072338\\
47	0.00764005346579914\\
48	0.00755773656417068\\
49	0.00776075567554332\\
50	0.00986938420958768\\
51	0.00319649311885596\\
52	0.00500292172051245\\
53	0.00524752973649041\\
54	0.00526667690567613\\
55	0.00521575322380608\\
56	0.00513704586881206\\
57	0.00504647235310817\\
58	0.00495116794332671\\
59	0.00485468351773321\\
60	0.00475890010347922\\
61	0.00466484578572566\\
62	0.00457308311118313\\
63	0.00448390798586452\\
64	0.0043974582605137\\
65	0.00431377595094964\\
66	0.00423284428954661\\
67	0.00415461047403326\\
68	0.00407899997367922\\
69	0.00400592569101114\\
70	0.00393529390404367\\
71	0.0038670081481966\\
72	0.00380097175500134\\
73	0.00373708950172093\\
74	0.00367526866536834\\
75	0.00361541967416126\\
76	0.00355745648532918\\
77	0.00350129677649243\\
78	0.00344686201027152\\
79	0.00339407741330312\\
80	0.00334287189828014\\
81	0.0032931779490063\\
82	0.00324493148246751\\
83	0.00319807169773062\\
84	0.003152540918526\\
85	0.00310828443427485\\
86	0.00306525034282854\\
87	0.00302338939712195\\
88	0.00298265485717807\\
89	0.00294300234835571\\
90	0.00290438972634362\\
91	0.0028667769491261\\
92	0.00283012595595264\\
93	0.0027944005532083\\
94	0.00275956630699144\\
95	0.0027255904421446\\
96	0.00269244174744817\\
97	0.00266009048666622\\
98	0.00262850831512411\\
99	0\\
100	0\\
};
\addlegendentry{$\mathbf{h_1}$}

\addplot [color=mycolor2]
  table[row sep=crcr]{%
1	0.00108294891904515\\
2	0.00115806441999571\\
3	0.00125656841390277\\
4	0.00139359850086552\\
5	0.00159676508941691\\
6	0.00191784013184518\\
7	0.00245777585368985\\
8	0.00342819163679349\\
9	0.00533730915065768\\
10	0.00974214709050295\\
11	0.0244449264542886\\
12	0.973731186814765\\
13	0.0500739614470277\\
14	0.0426946282907342\\
15	0.00536788790071817\\
16	0.0362080823589407\\
17	0.176144271962331\\
18	0.115663212635922\\
19	0.0234963057121139\\
20	0.0138738178597906\\
21	0.00966054585381422\\
22	0.00731818549393035\\
23	0.00584139575065055\\
24	0.0048330083027894\\
25	0.00410500747522503\\
26	0.00355723928842746\\
27	0.00313167065616096\\
28	0.00279247304593218\\
29	0.00251639833876938\\
30	0.00228774297450139\\
31	0.00209554142652578\\
32	0.00193191967393617\\
33	0.00179108704155738\\
34	0.00166869616651274\\
35	0\\
36	0\\
37	0\\
38	0\\
39	0\\
40	0\\
41	0\\
42	0\\
43	0\\
44	0\\
45	0\\
46	0\\
47	0\\
48	0\\
49	0\\
50	0\\
51	0\\
52	0\\
53	0\\
54	0\\
55	0\\
56	0\\
57	0\\
58	0\\
59	0\\
60	0\\
61	0\\
62	0\\
63	0\\
64	0\\
65	0\\
66	0\\
67	0\\
68	0\\
69	0\\
70	0\\
71	0\\
72	0\\
73	0\\
74	0\\
75	0\\
76	0\\
77	0\\
78	0\\
79	0\\
80	0\\
81	0\\
82	0\\
83	0\\
84	0\\
85	0\\
86	0\\
87	0\\
88	0\\
89	0\\
90	0\\
91	0\\
92	0\\
93	0\\
94	0\\
95	0\\
96	0\\
97	0\\
98	0\\
99	0\\
100	0\\
};
\addlegendentry{$\mathbf{h_{2}}$}

\end{axis}

\begin{axis}[%
width=1.935in,
height=3.2in,
at={(3.327in,0.512in)},
scale only axis,
xmin=0,
xmax=100,
xlabel style={font=\color{white!15!black}, align=center},
xlabel={Sample Index\\[1ex](b) Estimated},
ymin=0,
ymax=1,
axis background/.style={fill=white},
legend style={legend cell align=left, align=left, draw=white!15!black}
]
\addplot [color=mycolor1]
  table[row sep=crcr]{%
0	0.003519765636431\\
1	0.00417201642877955\\
2	0.00183370142920165\\
3	0.00626548944318603\\
4	0.00907570773297057\\
5	0.00686746831069647\\
6	0.00493313544459212\\
7	0.00391992691764078\\
8	0.00199977941391813\\
9	0.00898370245055395\\
10	0.0161965419877279\\
11	0.01576259912599\\
12	0.00966000136186906\\
13	0.00780889366207907\\
14	0.00571427226270562\\
15	0.00531242857076699\\
16	0.00380881443443599\\
17	0.0115028123417985\\
18	0.00249612491579479\\
19	0.0257511779673247\\
20	0.0522190305905991\\
21	0.00112770792747195\\
22	0.0200950042701571\\
23	0.00572572923947369\\
24	0.00803081371430453\\
25	0.0185199904842491\\
26	0.0148575448551342\\
27	0.0485691535730636\\
28	0.101351904030392\\
29	0.0602376640672404\\
30	0.0774283754750387\\
31	0.043373199437967\\
32	0.0148137421174762\\
33	0.0716878790944287\\
34	0.017910286400186\\
35	0.0499588291843483\\
36	0.00958079323122244\\
37	0.170758867067244\\
38	0.66248045876866\\
39	0.201119785627179\\
40	0.0382147582410148\\
41	0.0957367963081437\\
42	0.0909063535422124\\
43	0.130501537816416\\
44	0.0343746752831674\\
45	0.097979503494657\\
46	0.350985718540162\\
47	0.280681941632694\\
48	0.200147587124336\\
49	0.125159562488821\\
50	0.0878072315572423\\
51	0.06868317446967\\
52	0.068424136656905\\
53	0.0402243071360464\\
54	0.0816809609963057\\
55	0.15354962204976\\
56	0.264401510651703\\
57	0.0609479117334488\\
58	0.0197802380034284\\
59	0.0216202145436104\\
60	0.018623241314454\\
61	0.014665462244557\\
62	0.0374600196057258\\
63	0.0677323114333328\\
64	0.0905822798272472\\
65	0.0432024731540285\\
66	0.026400145348269\\
67	0.0151782574064445\\
68	0.0321440172366762\\
69	0.0192719116635706\\
70	0.0265644071736618\\
71	0.013644989924378\\
72	0.0237033018456707\\
73	0.0388918096502434\\
74	0.0242547824121157\\
75	0.0225937283557226\\
76	0.00378668048605551\\
77	0.00858425640095705\\
78	0.0132046360772085\\
79	0.0174880246972066\\
80	0.0157291877694969\\
81	0.0260902246028189\\
82	0.0214426657618542\\
83	0.00506741377421216\\
84	0.0155222294488573\\
85	0.01100731929616\\
86	0.0120046117183422\\
87	0.00554385456067892\\
88	0.00408921754596145\\
89	0.00573034179645285\\
};
\addlegendentry{$\mathbf{\hat{h}_{1}}$}

\addplot [color=mycolor2]
  table[row sep=crcr]{%
0	0.00500239530365646\\
1	0.00513312418932186\\
2	0.00139488202457809\\
3	0.00327088223648867\\
4	0.000345238431698902\\
5	0.000765437935616915\\
6	0.0033732204361255\\
7	0.00534666427884344\\
8	0.0073874814883498\\
9	0.00405333306895569\\
10	0.0126988374990831\\
11	0.009819884960076\\
12	0.00888271825866429\\
13	0.00660954594634211\\
14	0.00582366197600891\\
15	0.00860190487222214\\
16	0.0226368796662719\\
17	0.0144035678698938\\
18	0.028606280954373\\
19	0.0171285601609315\\
20	0.00403557580991083\\
21	0.00626400024598584\\
22	0.00558024064900492\\
23	0.00715535207263878\\
24	0.0116558465139308\\
25	0.0268954393623674\\
26	0.0916399870191611\\
27	0.0276040821244748\\
28	0.0391973077479433\\
29	0.0168836541018594\\
30	0.0138946636008687\\
31	0.0103526529754028\\
32	0.00246185885853808\\
33	0.0702844743576272\\
34	0.0787645854017637\\
35	0.0388168686348334\\
36	0.141170791711564\\
37	0.00975108286214707\\
38	0.0356283400729945\\
39	0.056589890083557\\
40	0.0327587992230915\\
41	0.0322903203438628\\
42	0.0474162563935074\\
43	0.0134491908503551\\
44	0.941977878057207\\
45	0.0134295226939643\\
46	0.0474123188469312\\
47	0.0322185055988024\\
48	0.0328202351563572\\
49	0.056691138855741\\
50	0.0354070913177217\\
51	0.0096783102485506\\
52	0.141416922701043\\
53	0.0383952978553266\\
54	0.0784745822425933\\
55	0.0698254956449804\\
56	0.00275273232106474\\
57	0.0109108318809689\\
58	0.0133482748421277\\
59	0.0161871741207966\\
60	0.0387288696435111\\
61	0.0276082331774132\\
62	0.0912993402514016\\
63	0.0276631116004147\\
64	0.0108471676939707\\
65	0.00670406784355674\\
66	0.00592322010430528\\
67	0.00681303809101622\\
68	0.00479528866113808\\
69	0.0164713803090185\\
70	0.0289390156393621\\
71	0.0135905149666938\\
72	0.0230842711496229\\
73	0.00876644059824065\\
74	0.00556397422459161\\
75	0.00636912750761944\\
76	0.00714796625661871\\
77	0.00871304689836513\\
78	0.0118832646792358\\
79	0.00316135147893672\\
80	0.00537239389601279\\
81	0.00392122236197174\\
82	0.00393949232416956\\
83	0.00238919335243607\\
84	0.00150309620052724\\
85	0.00231482513944634\\
86	0.00204372733435504\\
87	0.00475010012316083\\
88	0.00504010040878131\\
89	0.00439547198919675\\
};
\addlegendentry{$\mathbf{\hat{h}_{2}}$}

\end{axis}
\end{tikzpicture}%