% This file was created by matlab2tikz.
%
%The latest updates can be retrieved from
%  http://www.mathworks.com/matlabcentral/fileexchange/22022-matlab2tikz-matlab2tikz
%where you can also make suggestions and rate matlab2tikz.
%
\definecolor{mycolor1}{rgb}{0.00000,0.44700,0.74100}%
\definecolor{mycolor2}{rgb}{0.85000,0.32500,0.09800}%
%
\begin{tikzpicture}

\begin{axis}[%
width=1.935in,
height=3.2in,
at={(0.758in,0.512in)},
scale only axis,
xmin=0,
xmax=150,
xlabel style={font=\color{white!15!black}, align=center},
xlabel={Sample Index\\[1ex](a) Actual},
ymin=0,
ymax=0.7,
axis background/.style={fill=white},
legend style={legend cell align=left, align=left, draw=white!15!black}
]
\addplot [color=mycolor1]
  table[row sep=crcr]{%
1	0.0234657806037261\\
2	0.0272334504034075\\
3	0.0326864300765018\\
4	0.0414541482980318\\
5	0.0586677033458464\\
6	0.117843438362983\\
7	0.159969331461504\\
8	0.174397116945152\\
9	0.616552810702634\\
10	0.0882137642931462\\
11	0.0472681903124796\\
12	0.0327587509505929\\
13	0.0272256709659274\\
14	0.0412344622245766\\
15	0.0186762848129325\\
16	0.0451940046978057\\
17	0.0153724087875252\\
18	0.0239672675363248\\
19	0.0400285717874473\\
20	0.0828333966509162\\
21	0.557624977131952\\
22	0.149414784250917\\
23	0.109138078132702\\
24	0.0381681231028791\\
25	0.032799759178118\\
26	0.191519461959093\\
27	0.0734580287558902\\
28	0.0358315656953253\\
29	0.0179563195827385\\
30	0.0169149242156914\\
31	0.0179798517146348\\
32	0.0199431506445131\\
33	0.0279225394655299\\
34	0.0908594243819801\\
35	0.0439964246924232\\
36	0.330890477505262\\
37	0.037800506563543\\
38	0.020261933748638\\
39	0.0138181229977315\\
40	0.0211497159554441\\
41	0.0112042208144458\\
42	0.00964538908702694\\
43	0.00864780826327016\\
44	0.00787736374270682\\
45	0.00720180133294831\\
46	0.00651453200193765\\
47	0.00565492088107664\\
48	0.0112814316241706\\
49	0.0075966567083061\\
50	0.0102713040739602\\
51	0.00787142060243747\\
52	0.00711780022683946\\
53	0.00668443537322835\\
54	0.00638223966522588\\
55	0.00615487020840034\\
56	0.00598242225636516\\
57	0.00586293416152974\\
58	0.00581626175933958\\
59	0.00593494184987807\\
60	0.00707647204853056\\
61	0.00861312572402681\\
62	0.00240649054353041\\
63	0.0036902508247688\\
64	0.0040125763148678\\
65	0.00408542983582614\\
66	0.00408934467211144\\
67	0.00406760360864643\\
68	0.00403657730104579\\
69	0.00400486664899167\\
70	0.00397913876457006\\
71	0.00396763365360209\\
72	0.00398577860522856\\
73	0.00407460869510253\\
74	0.00440882178496405\\
75	0.00852319154542653\\
76	0.00211982859547221\\
77	0.00279674481878385\\
78	0.00295234209521732\\
79	0.00299967450324673\\
80	0.00300734384297471\\
81	0.00299658049652506\\
82	0.00297609501762909\\
83	0.00295010695632826\\
84	0.00292089738309008\\
85	0.00288979839106794\\
86	0.00285763293534116\\
87	0.00282493110979805\\
88	0.00279204510261472\\
89	0.00275921420187501\\
90	0.00272660345813555\\
91	0.00269432766245323\\
92	0.00266246675038502\\
93	0.00263107599882434\\
94	0.00260019295165966\\
95	0.00256984222925479\\
96	0.00254003893333548\\
97	0.0025107910982644\\
98	0.00248210148178531\\
99	0.00245396889001376\\
100	0.00242638916874131\\
101	0.00239935595223708\\
102	0.00237286123354156\\
103	0.00234689580183488\\
104	0.00232144957979209\\
105	0.00229651188498403\\
106	0.00227207163310714\\
107	0.0022481174963278\\
108	0.00222463802675857\\
109	0.00220162175268604\\
110	0.00217905725339276\\
111	0.0021569332170867\\
112	0.00213523848544673\\
113	0.00211396208753109\\
114	0.00209309326520902\\
115	0.00207262149182518\\
116	0.00205253648545491\\
117	0.00203282821783402\\
118	0.00201348691983224\\
119	0.00199450308416773\\
120	0.00197586746592614\\
121	0.00195757108133911\\
122	0.0019396052051902\\
123	0.0019219613671484\\
124	0.00190463134727109\\
125	0.00188760717087541\\
126	0.00187088110293773\\
127	0.00185444564215264\\
128	0.0018382935147574\\
129	0.00182241766820821\\
130	0.00180681126477794\\
131	0.00179146767513212\\
132	0.00177638047192757\\
133	0.00176154342347035\\
134	0.00174695048746156\\
135	0.0017325958048528\\
136	0.00171847369382931\\
137	0.00170457864393352\\
138	0.0016909053103386\\
139	0.00167744850827835\\
140	0.00166420320763913\\
141	0.00165116452771496\\
142	0.00163832773212761\\
143	0.00162568822391149\\
144	0.00161324154076111\\
145	0.0016009833504405\\
146	0.00158890944635072\\
147	0.00157701574325256\\
148	0.00156529827314105\\
149	0\\
150	0\\
};
\addlegendentry{$\mathbf{h_1}$}

\addplot [color=mycolor2]
  table[row sep=crcr]{%
1	0.019775303219206\\
2	0.0210217764534023\\
3	0.0224372323963497\\
4	0.024058742711813\\
5	0.0259351263737046\\
6	0.0281320174688059\\
7	0.0307398096072034\\
8	0.0338865833958781\\
9	0.0377600935275399\\
10	0.0426472101764649\\
11	0.0490094599986528\\
12	0.0576401827385178\\
13	0.0700288298559564\\
14	0.0893407156606893\\
15	0.123700774100431\\
16	0.202175033398071\\
17	0.564479813098353\\
18	0.690442426104836\\
19	0.212260509632627\\
20	0.126132345068284\\
21	0.100380135781766\\
22	0.0378663697499036\\
23	0.0333199748773482\\
24	0.0149453064107011\\
25	0.10083899339379\\
26	0.161002397050911\\
27	0.0405118251764787\\
28	0.0383644765554957\\
29	0.0341227495803863\\
30	0.0306469105251072\\
31	0.0278570926171954\\
32	0.0255709383506331\\
33	0.0236574529195357\\
34	0.0220274984760589\\
35	0.0206190941704396\\
36	0.0193877726649002\\
37	0.0183006807256663\\
38	0.0173329207549748\\
39	0.016465211935799\\
40	0.0156823459816501\\
41	0.0149721364414517\\
42	0.0143246843629073\\
43	0.0137318527665838\\
44	0.0131868826449622\\
45	0.0126841071808284\\
46	0.0122187355837443\\
47	0.0117866872087634\\
48	0.0113844626077037\\
49	0.0110090421200206\\
50	0.0106578052804057\\
51	0\\
52	0\\
53	0\\
54	0\\
55	0\\
56	0\\
57	0\\
58	0\\
59	0\\
60	0\\
61	0\\
62	0\\
63	0\\
64	0\\
65	0\\
66	0\\
67	0\\
68	0\\
69	0\\
70	0\\
71	0\\
72	0\\
73	0\\
74	0\\
75	0\\
76	0\\
77	0\\
78	0\\
79	0\\
80	0\\
81	0\\
82	0\\
83	0\\
84	0\\
85	0\\
86	0\\
87	0\\
88	0\\
89	0\\
90	0\\
91	0\\
92	0\\
93	0\\
94	0\\
95	0\\
96	0\\
97	0\\
98	0\\
99	0\\
100	0\\
101	0\\
102	0\\
103	0\\
104	0\\
105	0\\
106	0\\
107	0\\
108	0\\
109	0\\
110	0\\
111	0\\
112	0\\
113	0\\
114	0\\
115	0\\
116	0\\
117	0\\
118	0\\
119	0\\
120	0\\
121	0\\
122	0\\
123	0\\
124	0\\
125	0\\
126	0\\
127	0\\
128	0\\
129	0\\
130	0\\
131	0\\
132	0\\
133	0\\
134	0\\
135	0\\
136	0\\
137	0\\
138	0\\
139	0\\
140	0\\
141	0\\
142	0\\
143	0\\
144	0\\
145	0\\
146	0\\
147	0\\
148	0\\
149	0\\
150	0\\
};
\addlegendentry{$\mathbf{h_{2}}$}

\end{axis}

\begin{axis}[%
width=1.935in,
height=3.2in,
at={(3.327in,0.512in)},
scale only axis,
xmin=0,
xmax=159,
xlabel style={font=\color{white!15!black}, align=center},
xlabel={Sample Index\\[1ex](b) Estimated},
ymin=0,
ymax=1,
axis background/.style={fill=white},
legend style={legend cell align=left, align=left, draw=white!15!black}
]
\addplot [color=mycolor1]
  table[row sep=crcr]{%
0	0.00105491383779595\\
1	0.000993381926149649\\
2	0.0017174886833417\\
3	0.000606462705446797\\
4	0.00250714665047698\\
5	0.0016393614983617\\
6	0.00246716710249494\\
7	0.00137803726498703\\
8	0.000490082633473716\\
9	0.00114630544724264\\
10	0.00209532085594622\\
11	0.000166935287065547\\
12	0.000804217129136027\\
13	0.00204129994836227\\
14	0.00104423911551517\\
15	0.00147707639733031\\
16	0.00201520753556729\\
17	0.000989152694335753\\
18	0.00257120813033366\\
19	0.00206524554625207\\
20	0.0012728713639134\\
21	0.00165546792690845\\
22	0.00242666114230814\\
23	0.000264397481514539\\
24	0.00227705266631571\\
25	0.00219175769010219\\
26	0.000597627875842948\\
27	0.000823349095076494\\
28	0.00182969688069219\\
29	0.00365823756903735\\
30	0.000424985103649332\\
31	0.00177861591875994\\
32	0.0020885762261121\\
33	0.0046125704570382\\
34	0.00483583587622778\\
35	0.00408718548867405\\
36	0.00585441027526812\\
37	0.00382853708858143\\
38	0.00845676681899195\\
39	0.00986074031677818\\
40	0.0116808031956481\\
41	0.00846194579590652\\
42	0.0128677145070235\\
43	0.0148207032443955\\
44	0.013866766800937\\
45	0.0118673272469497\\
46	0.0129916004324834\\
47	0.0104557410852753\\
48	0.0151090044550457\\
49	0.0127427991712383\\
50	0.0179834168392355\\
51	0.0116219144137042\\
52	0.0185560248692489\\
53	0.0217279516954828\\
54	0.0181206890019202\\
55	0.0245371835578971\\
56	0.0492997587807162\\
57	0.0259467594169086\\
58	0.00520570668254287\\
59	0.039236253898333\\
60	0.00686873009309463\\
61	0.0305882089887633\\
62	0.122771568619174\\
63	0.050414379154634\\
64	0.0408184376698831\\
65	0.0383276971070595\\
66	0.0281551866466847\\
67	0.0531177706993744\\
68	0.159643547793461\\
69	0.036918244622186\\
70	0.477613164199135\\
71	0.394519790185556\\
72	0.1133603216516\\
73	0.0804295935240955\\
74	0.0477353843111035\\
75	0.118539560987962\\
76	0.0326008002249124\\
77	0.0548693851446747\\
78	0.00461978242224847\\
79	0.0746919670743127\\
80	0.0801109736399773\\
81	0.108384913403267\\
82	0.263162202551236\\
83	0.468801529943575\\
84	0.180690300896672\\
85	0.0601746632473012\\
86	0.0742689684381591\\
87	0.113409255825065\\
88	0.0976204758262173\\
89	0.116061540275567\\
90	0.0278288397777948\\
91	0.0349501652660663\\
92	0.0325216230528761\\
93	0.0203389397205722\\
94	0.037103935696134\\
95	0.0811775176863271\\
96	0.11044647616453\\
97	0.284690293800951\\
98	0.111184986254318\\
99	0.0393293469492858\\
100	0.0424306963749561\\
101	0.0180195349548246\\
102	0.00501854168459572\\
103	0.0173684436543968\\
104	0.0169521230064978\\
105	0.0222786322645011\\
106	0.00913696665132211\\
107	0.0103292587177808\\
108	0.0225090159309482\\
109	0.0354508677318773\\
110	0.0193873143795688\\
111	0.00867495209748414\\
112	0.0166065280072551\\
113	0.00717364681540222\\
114	0.00610660939518947\\
115	0.00710266156701761\\
116	0.00152711765663735\\
117	0.00324711768634553\\
118	0.000853828581734023\\
119	0.00139244834662415\\
120	0.000401762785488518\\
121	0.00290067519272625\\
122	0.0132858218775022\\
123	0.00743752237983783\\
124	0.00470546812005883\\
125	0.00437758539005199\\
126	0.000481133519210309\\
127	0.000775289120729724\\
128	0.000733102138772919\\
129	0.00131076533833195\\
130	0.00059445984639422\\
131	0.00158139348667137\\
132	0.00205787807767268\\
133	0.00131472062522499\\
134	0.00255190224964115\\
135	0.00205316345923521\\
136	0.00153751358862031\\
137	0.0044322227260737\\
138	0.000834626289860766\\
139	0.00200638342099615\\
140	0.00207645186531374\\
141	0.00113170387982019\\
142	0.000733791362818626\\
143	0.000732725523288618\\
144	0.00131803264922866\\
145	0.00166762511436362\\
146	0.00159116757726547\\
147	0.00158072506611769\\
148	0.000515945873023881\\
149	0.00315971374951576\\
150	0.000460273968784819\\
151	0.00199193983550264\\
152	0.000259261065855715\\
153	0.000902910842229083\\
154	0.000361539503939048\\
155	0.00160009117759051\\
156	0.00128131895604998\\
157	0.000681338560460602\\
158	0.00119008770655864\\
159	0.00123168364185229\\
};
\addlegendentry{$\mathbf{\hat{h}_{1}}$}

\addplot [color=mycolor2]
  table[row sep=crcr]{%
0	0.000610200274047432\\
1	0.000375143586662696\\
2	0.00039286456083208\\
3	0.00051389868681623\\
4	0.000366885921896453\\
5	8.43802024607156e-05\\
6	0.000343569372442278\\
7	0.000769401624299843\\
8	0.000659096947119898\\
9	0.000640295638310548\\
10	0.00136943121003927\\
11	0.000625780577614501\\
12	0.00029498588116776\\
13	0.000773471712766992\\
14	0.000747486408534063\\
15	0.000209433117574249\\
16	0.000605971591716083\\
17	0.000489457207126926\\
18	0.000785610690902372\\
19	0.000501910302491124\\
20	0.000378780315802868\\
21	0.000290653879285977\\
22	0.000763507618173372\\
23	0.000762044270082295\\
24	0.00126926249998707\\
25	0.00164524502485202\\
26	0.000233701161444735\\
27	0.00187390275824838\\
28	0.0012656425318326\\
29	0.00131562278917498\\
30	0.000887630712449368\\
31	0.000649662783498172\\
32	0.0013853818410749\\
33	0.00025902243279042\\
34	8.75178328491331e-05\\
35	0.00266352386016731\\
36	0.000925242940806992\\
37	0.00225697824555443\\
38	0.00387866249383118\\
39	0.00287871329581589\\
40	0.00354003330086701\\
41	0.00132560403474881\\
42	0.00375568944041284\\
43	0.00240075312761368\\
44	0.00166035999898608\\
45	0.00342639492807594\\
46	0.00353283811107592\\
47	0.00510937712278993\\
48	0.00421373150097989\\
49	0.00450806744317725\\
50	0.01247626355239\\
51	0.00886460978618303\\
52	0.0369520959330711\\
53	0.00911348957696792\\
54	0.0145378747380337\\
55	0.00891765846067381\\
56	0.0063837927392644\\
57	0.0027069508937073\\
58	0.00445840323192146\\
59	0.00678251680749554\\
60	0.00970292536123217\\
61	0.00683005010631035\\
62	0.0204521933189793\\
63	0.0127915737290576\\
64	0.0395256886843141\\
65	0.0249228009762677\\
66	0.0301898128143821\\
67	0.0721351274998039\\
68	0.013249042764079\\
69	0.0170448409631281\\
70	0.00642132675919138\\
71	0.00657177559973663\\
72	0.0119190205970907\\
73	0.0106965415114129\\
74	0.0115069690426138\\
75	0.00987929412336885\\
76	0.0171826558979888\\
77	0.0251151596911254\\
78	0.0226836173277217\\
79	0.986132544590037\\
80	0.0226844360617959\\
81	0.02511426928563\\
82	0.0171842511634094\\
83	0.00987767177537643\\
84	0.011501165420741\\
85	0.0106985877055011\\
86	0.0119249190949084\\
87	0.00656142997364885\\
88	0.00642291163883531\\
89	0.0170510321230865\\
90	0.0132461826371704\\
91	0.0721323509139016\\
92	0.0301866970727228\\
93	0.0249280781409171\\
94	0.0395255994237589\\
95	0.0127861607434267\\
96	0.0204488743264179\\
97	0.00682916962643106\\
98	0.00970372361292872\\
99	0.00678971532477466\\
100	0.00445845720760073\\
101	0.0027098714113933\\
102	0.00638536570394654\\
103	0.00891768901530894\\
104	0.0145454455266606\\
105	0.00911840591781721\\
106	0.0369466585563168\\
107	0.0088697276165087\\
108	0.0124814955636093\\
109	0.00451598733107993\\
110	0.00421213333241328\\
111	0.00511165180201929\\
112	0.00355254989198945\\
113	0.00341260665155047\\
114	0.0016518722519616\\
115	0.00241801143675119\\
116	0.00374906008956074\\
117	0.00132032630979153\\
118	0.00354346982263423\\
119	0.0028770729237877\\
120	0.00388496313640715\\
121	0.0022641348534058\\
122	0.000917603113595485\\
123	0.00267077053985512\\
124	7.32788417315456e-05\\
125	0.000235636591546043\\
126	0.00136718328252914\\
127	0.000628079870405557\\
128	0.000876606218707504\\
129	0.001305286653454\\
130	0.00126830008595298\\
131	0.00188511177306134\\
132	0.00021276454698795\\
133	0.00161472248019782\\
134	0.00126167049804701\\
135	0.000772947322021335\\
136	0.000741697299412665\\
137	0.000283183718965684\\
138	0.000386835035520455\\
139	0.000498085736360642\\
140	0.000782959213060491\\
141	0.000496848082045761\\
142	0.00059691653573244\\
143	0.00023130308146715\\
144	0.0007610802492891\\
145	0.000742609385245743\\
146	0.00028640169437547\\
147	0.000700202763423427\\
148	0.00137216522005083\\
149	0.000615947509306845\\
150	0.000671815849312983\\
151	0.000722863264575126\\
152	0.00036219176615055\\
153	8.89531778726287e-05\\
154	0.000330735607065542\\
155	0.000538334011204127\\
156	0.00039082040224677\\
157	0.00038746562616642\\
158	0.000593927112659306\\
159	0.000447396904647144\\
};
\addlegendentry{$\mathbf{\hat{h}_{2}}$}

\end{axis}
\end{tikzpicture}%