% This file was created by matlab2tikz.
%
%The latest updates can be retrieved from
%  http://www.mathworks.com/matlabcentral/fileexchange/22022-matlab2tikz-matlab2tikz
%where you can also make suggestions and rate matlab2tikz.
%
\definecolor{mycolor1}{rgb}{0.00000,0.44700,0.74100}%
\definecolor{mycolor2}{rgb}{0.85000,0.32500,0.09800}%
%
\begin{tikzpicture}

\begin{axis}[%
width=1.935in,
height=3.2in,
at={(0.758in,0.512in)},
scale only axis,
xmin=0,
xmax=150,
xlabel style={font=\color{white!15!black}, align=center},
xlabel={Sample Index\\[1ex](a) Actual},
ymin=0,
ymax=0.7,
axis background/.style={fill=white},
legend style={legend cell align=left, align=left, draw=white!15!black}
]
\addplot [color=mycolor1]
  table[row sep=crcr]{%
1	0.0234657806037261\\
2	0.0272334504034075\\
3	0.0326864300765018\\
4	0.0414541482980318\\
5	0.0586677033458464\\
6	0.117843438362983\\
7	0.159969331461504\\
8	0.174397116945152\\
9	0.616552810702634\\
10	0.0882137642931462\\
11	0.0472681903124796\\
12	0.0327587509505929\\
13	0.0272256709659274\\
14	0.0412344622245766\\
15	0.0186762848129325\\
16	0.0451940046978057\\
17	0.0153724087875252\\
18	0.0239672675363248\\
19	0.0400285717874473\\
20	0.0828333966509162\\
21	0.557624977131952\\
22	0.149414784250917\\
23	0.109138078132702\\
24	0.0381681231028791\\
25	0.032799759178118\\
26	0.191519461959093\\
27	0.0734580287558902\\
28	0.0358315656953253\\
29	0.0179563195827385\\
30	0.0169149242156914\\
31	0.0179798517146348\\
32	0.0199431506445131\\
33	0.0279225394655299\\
34	0.0908594243819801\\
35	0.0439964246924232\\
36	0.330890477505262\\
37	0.037800506563543\\
38	0.020261933748638\\
39	0.0138181229977315\\
40	0.0211497159554441\\
41	0.0112042208144458\\
42	0.00964538908702694\\
43	0.00864780826327016\\
44	0.00787736374270682\\
45	0.00720180133294831\\
46	0.00651453200193765\\
47	0.00565492088107664\\
48	0.0112814316241706\\
49	0.0075966567083061\\
50	0.0102713040739602\\
51	0.00787142060243747\\
52	0.00711780022683946\\
53	0.00668443537322835\\
54	0.00638223966522588\\
55	0.00615487020840034\\
56	0.00598242225636516\\
57	0.00586293416152974\\
58	0.00581626175933958\\
59	0.00593494184987807\\
60	0.00707647204853056\\
61	0.00861312572402681\\
62	0.00240649054353041\\
63	0.0036902508247688\\
64	0.0040125763148678\\
65	0.00408542983582614\\
66	0.00408934467211144\\
67	0.00406760360864643\\
68	0.00403657730104579\\
69	0.00400486664899167\\
70	0.00397913876457006\\
71	0.00396763365360209\\
72	0.00398577860522856\\
73	0.00407460869510253\\
74	0.00440882178496405\\
75	0.00852319154542653\\
76	0.00211982859547221\\
77	0.00279674481878385\\
78	0.00295234209521732\\
79	0.00299967450324673\\
80	0.00300734384297471\\
81	0.00299658049652506\\
82	0.00297609501762909\\
83	0.00295010695632826\\
84	0.00292089738309008\\
85	0.00288979839106794\\
86	0.00285763293534116\\
87	0.00282493110979805\\
88	0.00279204510261472\\
89	0.00275921420187501\\
90	0.00272660345813555\\
91	0.00269432766245323\\
92	0.00266246675038502\\
93	0.00263107599882434\\
94	0.00260019295165966\\
95	0.00256984222925479\\
96	0.00254003893333548\\
97	0.0025107910982644\\
98	0.00248210148178531\\
99	0.00245396889001376\\
100	0.00242638916874131\\
101	0.00239935595223708\\
102	0.00237286123354156\\
103	0.00234689580183488\\
104	0.00232144957979209\\
105	0.00229651188498403\\
106	0.00227207163310714\\
107	0.0022481174963278\\
108	0.00222463802675857\\
109	0.00220162175268604\\
110	0.00217905725339276\\
111	0.0021569332170867\\
112	0.00213523848544673\\
113	0.00211396208753109\\
114	0.00209309326520902\\
115	0.00207262149182518\\
116	0.00205253648545491\\
117	0.00203282821783402\\
118	0.00201348691983224\\
119	0.00199450308416773\\
120	0.00197586746592614\\
121	0.00195757108133911\\
122	0.0019396052051902\\
123	0.0019219613671484\\
124	0.00190463134727109\\
125	0.00188760717087541\\
126	0.00187088110293773\\
127	0.00185444564215264\\
128	0.0018382935147574\\
129	0.00182241766820821\\
130	0.00180681126477794\\
131	0.00179146767513212\\
132	0.00177638047192757\\
133	0.00176154342347035\\
134	0.00174695048746156\\
135	0.0017325958048528\\
136	0.00171847369382931\\
137	0.00170457864393352\\
138	0.0016909053103386\\
139	0.00167744850827835\\
140	0.00166420320763913\\
141	0.00165116452771496\\
142	0.00163832773212761\\
143	0.00162568822391149\\
144	0.00161324154076111\\
145	0.0016009833504405\\
146	0.00158890944635072\\
147	0.00157701574325256\\
148	0.00156529827314105\\
149	0\\
150	0\\
};
\addlegendentry{$\mathbf{h_1}$}

\addplot [color=mycolor2]
  table[row sep=crcr]{%
1	0.019775303219206\\
2	0.0210217764534023\\
3	0.0224372323963497\\
4	0.024058742711813\\
5	0.0259351263737046\\
6	0.0281320174688059\\
7	0.0307398096072034\\
8	0.0338865833958781\\
9	0.0377600935275399\\
10	0.0426472101764649\\
11	0.0490094599986528\\
12	0.0576401827385178\\
13	0.0700288298559564\\
14	0.0893407156606893\\
15	0.123700774100431\\
16	0.202175033398071\\
17	0.564479813098353\\
18	0.690442426104836\\
19	0.212260509632627\\
20	0.126132345068284\\
21	0.100380135781766\\
22	0.0378663697499036\\
23	0.0333199748773482\\
24	0.0149453064107011\\
25	0.10083899339379\\
26	0.161002397050911\\
27	0.0405118251764787\\
28	0.0383644765554957\\
29	0.0341227495803863\\
30	0.0306469105251072\\
31	0.0278570926171954\\
32	0.0255709383506331\\
33	0.0236574529195357\\
34	0.0220274984760589\\
35	0.0206190941704396\\
36	0.0193877726649002\\
37	0.0183006807256663\\
38	0.0173329207549748\\
39	0.016465211935799\\
40	0.0156823459816501\\
41	0.0149721364414517\\
42	0.0143246843629073\\
43	0.0137318527665838\\
44	0.0131868826449622\\
45	0.0126841071808284\\
46	0.0122187355837443\\
47	0.0117866872087634\\
48	0.0113844626077037\\
49	0.0110090421200206\\
50	0.0106578052804057\\
51	0\\
52	0\\
53	0\\
54	0\\
55	0\\
56	0\\
57	0\\
58	0\\
59	0\\
60	0\\
61	0\\
62	0\\
63	0\\
64	0\\
65	0\\
66	0\\
67	0\\
68	0\\
69	0\\
70	0\\
71	0\\
72	0\\
73	0\\
74	0\\
75	0\\
76	0\\
77	0\\
78	0\\
79	0\\
80	0\\
81	0\\
82	0\\
83	0\\
84	0\\
85	0\\
86	0\\
87	0\\
88	0\\
89	0\\
90	0\\
91	0\\
92	0\\
93	0\\
94	0\\
95	0\\
96	0\\
97	0\\
98	0\\
99	0\\
100	0\\
101	0\\
102	0\\
103	0\\
104	0\\
105	0\\
106	0\\
107	0\\
108	0\\
109	0\\
110	0\\
111	0\\
112	0\\
113	0\\
114	0\\
115	0\\
116	0\\
117	0\\
118	0\\
119	0\\
120	0\\
121	0\\
122	0\\
123	0\\
124	0\\
125	0\\
126	0\\
127	0\\
128	0\\
129	0\\
130	0\\
131	0\\
132	0\\
133	0\\
134	0\\
135	0\\
136	0\\
137	0\\
138	0\\
139	0\\
140	0\\
141	0\\
142	0\\
143	0\\
144	0\\
145	0\\
146	0\\
147	0\\
148	0\\
149	0\\
150	0\\
};
\addlegendentry{$\mathbf{h_{2}}$}

\end{axis}

\begin{axis}[%
width=1.935in,
height=3.2in,
at={(3.327in,0.512in)},
scale only axis,
xmin=0,
xmax=150,
xlabel style={font=\color{white!15!black}, align=center},
xlabel={Sample Index\\[1ex](b) Estimated},
ymin=0,
ymax=1,
axis background/.style={fill=white},
legend style={legend cell align=left, align=left, draw=white!15!black}
]
\addplot [color=mycolor1]
  table[row sep=crcr]{%
0	0.00480787182354156\\
1	0.00357713218651431\\
2	0.00574649145886861\\
3	0.0054936072728701\\
4	0.00592039135343552\\
5	0.00312604957772008\\
6	0.00305307537768141\\
7	0.00558653472719382\\
8	0.00229080168533328\\
9	0.00422357102998855\\
10	0.00563188242992738\\
11	0.0048030063695964\\
12	0.00747674577922886\\
13	0.00891318173762653\\
14	0.00248809617047652\\
15	0.00736359066325132\\
16	0.0059467822486719\\
17	0.0101393329253867\\
18	0.00810690950316031\\
19	0.00592178263098098\\
20	0.00894442461607233\\
21	0.0120634749447571\\
22	0.00207137264317713\\
23	0.00721488756828055\\
24	0.0232232280753413\\
25	0.00125219961254328\\
26	0.0136702722639098\\
27	0.000635045570721207\\
28	0.00935988853874847\\
29	0.00870299133825155\\
30	0.0101653111374891\\
31	0.0157786652479797\\
32	0.0136416139368776\\
33	0.0186127543477784\\
34	0.0223430349912952\\
35	0.0177398794560714\\
36	0.0195392262605781\\
37	0.0368941938885933\\
38	0.0367690164404686\\
39	0.0281644307465253\\
40	0.0214629840158926\\
41	0.0335965450258163\\
42	0.014739424361044\\
43	0.0167105259265953\\
44	0.0244746663500627\\
45	0.0239003700539778\\
46	0.00746943232257193\\
47	0.0188236199578336\\
48	0.0416570823409773\\
49	0.015322679932322\\
50	0.0526513501916095\\
51	0.129649732304266\\
52	0.0463299730719288\\
53	0.0444181111262736\\
54	0.0757359163503689\\
55	0.0209893207487112\\
56	0.0350972871215085\\
57	0.0984317395084993\\
58	0.0459749121839957\\
59	0.0394496287629972\\
60	0.0481056166497838\\
61	0.0513920638521418\\
62	0.0436918437896844\\
63	0.133976930438855\\
64	0.0464107585542228\\
65	0.454163163774575\\
66	0.378677723182112\\
67	0.101706696898451\\
68	0.111135657934311\\
69	0.0282230230227722\\
70	0.0856531209509804\\
71	0.0421304881611811\\
72	0.0528628998763733\\
73	0.0406764393042588\\
74	0.105093268058126\\
75	0.115711334867285\\
76	0.136949000819444\\
77	0.232669901710854\\
78	0.442573403340415\\
79	0.194081781342829\\
80	0.111611864646515\\
81	0.0773135361529366\\
82	0.0986224490657202\\
83	0.112966986335035\\
84	0.102578783785177\\
85	0.0448312795432684\\
86	0.0498775899135664\\
87	0.0528354429724626\\
88	0.0436937054205957\\
89	0.0418084427205695\\
90	0.134435704689697\\
91	0.0950300333806336\\
92	0.258821404121188\\
93	0.0987450328195302\\
94	0.0441963128651684\\
95	0.0706212741893014\\
96	0.0270391809534433\\
97	0.0145980142683133\\
98	0.0378971075301474\\
99	0.0278121526721169\\
100	0.0309390720763754\\
101	0.0111335165922606\\
102	0.0481208272267962\\
103	0.0406423112943176\\
104	0.0852467139650408\\
105	0.0545733140743134\\
106	0.00284471082051121\\
107	0.0404149071054606\\
108	0.0115488860146774\\
109	0.0167683666184638\\
110	0.0161972904083113\\
111	0.00568391303166836\\
112	0.00915135705161554\\
113	0.0117390232493526\\
114	0.00504739157550809\\
115	0.0137813271433795\\
116	0.00742878196839273\\
117	0.0406392047547466\\
118	0.00945984510343187\\
119	0.0143758173217235\\
120	0.00980352891961789\\
121	0.0123017053049075\\
122	0.0111044748145424\\
123	0.000817681364682683\\
124	0.00547125439213509\\
125	0.0077019589454589\\
126	0.00822725777194312\\
127	0.00553940694362603\\
128	0.00202901449590562\\
129	0.0144939688356456\\
130	0.00895399623806481\\
131	0.010049069047737\\
132	0.00724292535276037\\
133	0.00616720369598021\\
134	0.0100899207231344\\
135	0.00622708579696881\\
136	0.00725067748166452\\
137	0.00691687781716662\\
138	0.000319157152153167\\
139	0.00204512199027935\\
140	0.00418269401505913\\
141	0.00528855405937997\\
142	0.00441204473368322\\
143	0.00191143089129987\\
144	0.00742076602322356\\
145	0.000641748677527037\\
146	0.0063462119962197\\
147	0.00296244572762933\\
148	0.00246274427595262\\
149	0.00344374921655325\\
};
\addlegendentry{$\mathbf{\hat{h}_{1}}$}

\addplot [color=mycolor2]
  table[row sep=crcr]{%
0	0.00136341017565278\\
1	0.00178715449923967\\
2	0.00250442886474518\\
3	0.00409249623158264\\
4	0.00189419929057335\\
5	0.00228869529786102\\
6	0.00275487246344985\\
7	0.00097994545698204\\
8	0.00129090633341965\\
9	0.00253701945210226\\
10	0.00316667330610049\\
11	0.002632432305207\\
12	0.00308166939458875\\
13	0.00491258875240413\\
14	0.00216116095652666\\
15	0.000861088134859246\\
16	0.00392752911381605\\
17	0.00480558765941911\\
18	0.00243108716831539\\
19	0.00563671677955177\\
20	0.00950575962057268\\
21	0.00188353697684187\\
22	0.00836909109713833\\
23	0.00777340264996917\\
24	0.0063616469395087\\
25	0.00364119151074467\\
26	0.00397208341226951\\
27	0.00537835607333263\\
28	0.00305219035783177\\
29	0.00473303903521328\\
30	0.0121168767029326\\
31	0.00282048832439009\\
32	0.0144207807904687\\
33	0.0242857761015956\\
34	0.0174644342716677\\
35	0.0198119122019423\\
36	0.00979091970221632\\
37	0.0183380815053745\\
38	0.0123406514154354\\
39	0.0102627541046618\\
40	0.00933385965676073\\
41	0.0136461564922821\\
42	0.0165889033032884\\
43	0.0102533164220988\\
44	0.00420306716003073\\
45	0.0325189413531912\\
46	0.0165192932036979\\
47	0.0653560187063508\\
48	0.0159319772768848\\
49	0.0443838750868271\\
50	0.02147092257329\\
51	0.0080519760964719\\
52	0.00236583432348846\\
53	0.00350116030442784\\
54	0.00968954402386767\\
55	0.0133075278536638\\
56	0.0135529585755526\\
57	0.0359614522446438\\
58	0.0350624682907047\\
59	0.0680800232080838\\
60	0.0299794674865804\\
61	0.0522958883066694\\
62	0.157287733720362\\
63	0.0363554507999594\\
64	0.0326100718182001\\
65	0.0136580190514692\\
66	0.0564038389851744\\
67	0.023051648530959\\
68	0.0315220856022878\\
69	0.0177390778539949\\
70	0.0285014402386711\\
71	0.0351343190970241\\
72	0.043606586597835\\
73	0.0450884501261759\\
74	0.936468029054134\\
75	0.0451185011476602\\
76	0.0435714077218842\\
77	0.0351413869847704\\
78	0.0285048769346045\\
79	0.0177272411248009\\
80	0.0315286994814972\\
81	0.0230484760239041\\
82	0.0564568848509975\\
83	0.0136459323124421\\
84	0.0325957871121198\\
85	0.0363866832359249\\
86	0.15725864673084\\
87	0.0523204283095959\\
88	0.0300081629069421\\
89	0.0681061660119479\\
90	0.0350912732702847\\
91	0.035962014941129\\
92	0.0135951353701311\\
93	0.0132702571813353\\
94	0.00972089236035234\\
95	0.00356776580772213\\
96	0.00240803119984114\\
97	0.00804450866083868\\
98	0.0214723950894144\\
99	0.0442881642097753\\
100	0.0159189576861701\\
101	0.0653922562376571\\
102	0.0164831934414351\\
103	0.0324742531764329\\
104	0.00415386667265479\\
105	0.0102285690973129\\
106	0.0165729024775055\\
107	0.0136707958338597\\
108	0.0094024905912395\\
109	0.0101097463368517\\
110	0.0122823840967168\\
111	0.0183552691354293\\
112	0.00990770558309309\\
113	0.0198926384275021\\
114	0.0176120270297855\\
115	0.0245983738398665\\
116	0.0141981693243399\\
117	0.00301368547973911\\
118	0.0124646372129123\\
119	0.00485251655547352\\
120	0.00293121727301078\\
121	0.00560095956465512\\
122	0.00417356298193676\\
123	0.00340177556229524\\
124	0.00644952677329852\\
125	0.00750636111458463\\
126	0.00852756363008156\\
127	0.00126529049601533\\
128	0.00963650207572356\\
129	0.00617045972183943\\
130	0.00288156092179853\\
131	0.00522078724957802\\
132	0.00456330348410117\\
133	0.00149125089072547\\
134	0.00282698881077635\\
135	0.00533272359093023\\
136	0.002881662260159\\
137	0.00244471689491096\\
138	0.00293917531688158\\
139	0.00265200578982026\\
140	0.00254111127561786\\
141	0.0016031347501314\\
142	0.00382786752264024\\
143	0.00286511247102767\\
144	0.00107838746726168\\
145	0.00380651627757606\\
146	0.00163815247612056\\
147	0.00165291928297572\\
148	0.00186721378638377\\
149	0.0020257125699057\\
};
\addlegendentry{$\mathbf{\hat{h}_{2}}$}

\end{axis}
\end{tikzpicture}%