% This file was created by matlab2tikz.
%
%The latest updates can be retrieved from
%  http://www.mathworks.com/matlabcentral/fileexchange/22022-matlab2tikz-matlab2tikz
%where you can also make suggestions and rate matlab2tikz.
%
\definecolor{mycolor1}{rgb}{0.00000,0.44700,0.74100}%
\definecolor{mycolor2}{rgb}{0.85000,0.32500,0.09800}%
%
\begin{tikzpicture}

\begin{axis}[%
width=1.935in,
height=3.2in,
at={(0.758in,0.512in)},
scale only axis,
xmin=0,
xmax=150,
xlabel style={font=\color{white!15!black}, align=center},
xlabel={Sample Index\\[1ex](a) Actual},
ymin=0,
ymax=0.8,
axis background/.style={fill=white},
legend style={legend cell align=left, align=left, draw=white!15!black}
]
\addplot [color=mycolor1]
  table[row sep=crcr]{%
1	0.0151830319933043\\
2	0.0185496696438093\\
3	0.023502065016884\\
4	0.0315038869286449\\
5	0.0469062512391942\\
6	0.0954908680191146\\
7	0.0858266491267274\\
8	0.265807368316819\\
9	0.796648883752005\\
10	0.216493826260265\\
11	0.0878556377176694\\
12	0.07193222497443\\
13	0.105696480077463\\
14	0.149868327351951\\
15	0.0510921191197441\\
16	0.152868392263622\\
17	0.048017719918991\\
18	0.0109949328175406\\
19	0.0126732962157991\\
20	0.0175843103691614\\
21	0.0258891023896794\\
22	0.171301952341992\\
23	0.1212921102575\\
24	0.0235386564372659\\
25	0.00858129954461538\\
26	0.133991438537226\\
27	0.17851624212042\\
28	0.0777373619575687\\
29	0.110031729625206\\
30	0.00959913684727289\\
31	0.0101692934073309\\
32	0.0218927776733185\\
33	0.0485547145239866\\
34	0.028524787741674\\
35	0.0931132420825283\\
36	0.0761344452933766\\
37	0.0369812132104379\\
38	0.0270699566667011\\
39	0.026458256765523\\
40	0.0700820910745542\\
41	0.00787266021999488\\
42	0.00768771367639978\\
43	0.00738222171836111\\
44	0.00713402148494006\\
45	0.00716369066636382\\
46	0.00788882227497034\\
47	0.0112512475897253\\
48	0.0626689062200538\\
49	0.0427206763331481\\
50	0.00951578480873744\\
51	0.00243896181448075\\
52	0.0015691552028362\\
53	0.00146457511195334\\
54	0.00155057599858872\\
55	0.0017720937565566\\
56	0.00217432997301489\\
57	0.00286457318035984\\
58	0.00410346836174264\\
59	0.00676291579585115\\
60	0.0170053910864941\\
61	0.0301833155479945\\
62	0.0511202697583185\\
63	0.0105005975636433\\
64	0.00640544843735559\\
65	0.00470250391841775\\
66	0.00371961016971575\\
67	0.00305007107550002\\
68	0.00254202566702992\\
69	0.00212653652112194\\
70	0.0017767046983006\\
71	0.00152001410442311\\
72	0.00153304600268641\\
73	0.00230867360183963\\
74	0.00526136383537744\\
75	0.038333522890848\\
76	0.0121668181991512\\
77	0.00627619518067768\\
78	0.00457506177246321\\
79	0.00374737764088975\\
80	0.00324686636810371\\
81	0.00290502633566605\\
82	0.00265270743485525\\
83	0.00245624767322843\\
84	0.00229725334120465\\
85	0.0021647918883538\\
86	0.00205193428439391\\
87	0.00195406009034949\\
88	0.00186795865192442\\
89	0.00179132151185079\\
90	0.00172244056348044\\
91	0.00166002062260405\\
92	0.00160305868824092\\
93	0.00155076366110332\\
94	0.00150250147009903\\
95	0.00145775664490856\\
96	0.00141610482103629\\
97	0.00137719268617519\\
98	0.0013407230999277\\
99	0.00130644387932209\\
100	0.00127413922704226\\
101	0.00124362309491465\\
102	0.00121473398501049\\
103	0.00118733083279375\\
104	0.00116128971457897\\
105	0.00113650118998977\\
106	0.00111286813865705\\
107	0.00109030398529933\\
108	0.00106873123273224\\
109	0.00104808024105737\\
110	0.00102828820519932\\
111	0.00100929829342004\\
112	0.000991058917376328\\
113	0.000973523110361595\\
114	0.000956647995060137\\
115	0.000940394325788187\\
116	0.00092472609305463\\
117	0.000909610180527103\\
118	0.000895016066279295\\
119	0.000880915561628906\\
120	0.000867282582022485\\
121	0.000854092945356868\\
122	0.000841324193880593\\
123	0.000828955436438686\\
124	0.000816967208330094\\
125	0.000805341346466144\\
126	0.000794060877864884\\
127	0.000783109919805542\\
128	0.000772473590206662\\
129	0.000762137926996426\\
130	0.000752089815411914\\
131	0.000742316922307892\\
132	0.000732807636680009\\
133	0.000723551015708443\\
134	0.000714536735717782\\
135	0.000705755047526231\\
136	0.000697196735719498\\
137	0.000688853081443639\\
138	0.000680715828357098\\
139	0.000672777151427449\\
140	0.000665029628290027\\
141	0.000657466212923161\\
142	0.000650080211416905\\
143	0.000642865259640033\\
144	0.000635815302630011\\
145	0.000628924575548207\\
146	0.000622187586061679\\
147	0.000615599098024618\\
148	0.000609154116346598\\
149	0\\
150	0\\
};
\addlegendentry{$\mathbf{h_1}$}

\addplot [color=mycolor2]
  table[row sep=crcr]{%
1	0.0116283672604953\\
2	0.0123927463124993\\
3	0.0132649499786597\\
4	0.0142694730472227\\
5	0.0154388022064217\\
6	0.0168169460018562\\
7	0.0184650059045602\\
8	0.0204703044623656\\
9	0.0229620194387964\\
10	0.0261394268228958\\
11	0.030326372246617\\
12	0.0360853656003085\\
13	0.0444837647244236\\
14	0.0578138510431174\\
15	0.0820182949536605\\
16	0.138539152408166\\
17	0.40529101126893\\
18	0.531857257093217\\
19	0.183644612933698\\
20	0.136508722860241\\
21	0.200047586884045\\
22	0.106492504443086\\
23	0.0269767303978956\\
24	0.0384718138974967\\
25	0.247242183991229\\
26	0.550925101963883\\
27	0.195827754207156\\
28	0.0577902570880743\\
29	0.0334777071537313\\
30	0.0243597557761845\\
31	0.0197080234406676\\
32	0.0168717713396733\\
33	0.0149315700239635\\
34	0.0134968721772165\\
35	0.0123767429153913\\
36	0.0114674702329188\\
37	0.0107078852605367\\
38	0.0100594473104557\\
39	0.0094965290561411\\
40	0.00900131573338651\\
41	0.00856095738478305\\
42	0.00816589392182006\\
43	0.00780882485328738\\
44	0.00748405042307228\\
45	0.00718703568900882\\
46	0.00691411334689385\\
47	0.00666227571208106\\
48	0.00642902565379269\\
49	0.0062122675203184\\
50	0.00601022582354538\\
51	0\\
52	0\\
53	0\\
54	0\\
55	0\\
56	0\\
57	0\\
58	0\\
59	0\\
60	0\\
61	0\\
62	0\\
63	0\\
64	0\\
65	0\\
66	0\\
67	0\\
68	0\\
69	0\\
70	0\\
71	0\\
72	0\\
73	0\\
74	0\\
75	0\\
76	0\\
77	0\\
78	0\\
79	0\\
80	0\\
81	0\\
82	0\\
83	0\\
84	0\\
85	0\\
86	0\\
87	0\\
88	0\\
89	0\\
90	0\\
91	0\\
92	0\\
93	0\\
94	0\\
95	0\\
96	0\\
97	0\\
98	0\\
99	0\\
100	0\\
101	0\\
102	0\\
103	0\\
104	0\\
105	0\\
106	0\\
107	0\\
108	0\\
109	0\\
110	0\\
111	0\\
112	0\\
113	0\\
114	0\\
115	0\\
116	0\\
117	0\\
118	0\\
119	0\\
120	0\\
121	0\\
122	0\\
123	0\\
124	0\\
125	0\\
126	0\\
127	0\\
128	0\\
129	0\\
130	0\\
131	0\\
132	0\\
133	0\\
134	0\\
135	0\\
136	0\\
137	0\\
138	0\\
139	0\\
140	0\\
141	0\\
142	0\\
143	0\\
144	0\\
145	0\\
146	0\\
147	0\\
148	0\\
149	0\\
150	0\\
};
\addlegendentry{$\mathbf{h_{2}}$}

\end{axis}

\begin{axis}[%
width=1.935in,
height=3.2in,
at={(3.327in,0.512in)},
scale only axis,
xmin=0,
xmax=150,
xlabel style={font=\color{white!15!black}, align=center},
xlabel={Sample Index\\[1ex](b) Estimated},
ymin=0,
ymax=1,
axis background/.style={fill=white},
legend style={legend cell align=left, align=left, draw=white!15!black}
]
\addplot [color=mycolor1]
  table[row sep=crcr]{%
0	0.00230784878158836\\
1	0.00279464870475755\\
2	0.00121552500884899\\
3	0.00195070748835131\\
4	0.00393277942973737\\
5	0.00429049826138831\\
6	0.000684444692414797\\
7	0.00184643648017933\\
8	0.00130910960492908\\
9	0.00183872175825863\\
10	0.000743265021502103\\
11	0.00241141029014194\\
12	0.0053267900275714\\
13	0.00187432143999189\\
14	0.00257966886978249\\
15	0.00132033532943624\\
16	0.00168570123594139\\
17	0.00696661229823356\\
18	0.00437816692764955\\
19	0.00182467360612808\\
20	0.00213809895985534\\
21	0.0011083274330382\\
22	0.0023753006399471\\
23	0.00145472310141392\\
24	0.00093578250446709\\
25	0.000997597855877688\\
26	0.00220023000152917\\
27	0.00292567014367616\\
28	0.00170210364087492\\
29	0.00258915873283951\\
30	0.0070935365160384\\
31	0.00195699513079512\\
32	0.00349043267634478\\
33	0.00884141809901147\\
34	0.00605544928438425\\
35	0.00946512139814177\\
36	0.0104986223888564\\
37	0.0104941985950452\\
38	0.00491433970497674\\
39	0.00502261845182262\\
40	0.00974200328112744\\
41	0.0081152734497928\\
42	0.00364402695206181\\
43	0.00854756485523889\\
44	0.00802645500166038\\
45	0.00452277026654282\\
46	0.00492504421124061\\
47	0.0239493334228707\\
48	0.0176867200982537\\
49	0.02704583521208\\
50	0.0236834912352301\\
51	0.0103822949565039\\
52	0.0126146543793407\\
53	0.0201841004967547\\
54	0.050336449998034\\
55	0.0301210302313403\\
56	0.251817728143027\\
57	0.539862182237315\\
58	0.275421439860138\\
59	0.0370841951428542\\
60	0.0287936115583046\\
61	0.0211958985966632\\
62	0.0698877589353553\\
63	0.092527993399444\\
64	0.0269563567523216\\
65	0.466307301565063\\
66	0.372370861503418\\
67	0.164172455595964\\
68	0.0885736843436632\\
69	0.0950948725568551\\
70	0.0742449995308494\\
71	0.107661745701904\\
72	0.0383127402125068\\
73	0.106355090541076\\
74	0.0498383379954273\\
75	0.0984535394843589\\
76	0.0549324913995552\\
77	0.0884170156226763\\
78	0.0843252657182001\\
79	0.077806268832975\\
80	0.0122859039315505\\
81	0.0742544984319901\\
82	0.0925214655856203\\
83	0.0585712346765845\\
84	0.115103914924715\\
85	0.11399339592732\\
86	0.0392025127121964\\
87	0.0254671609806362\\
88	0.0821838938814964\\
89	0.0323888756813606\\
90	0.0610765471652302\\
91	0.0728948144374811\\
92	0.0691640717027394\\
93	0.0159681196442042\\
94	0.0149964970759558\\
95	0.0288585709131004\\
96	0.0192565197357358\\
97	0.0245436234137558\\
98	0.013710448071255\\
99	0.0120170289127774\\
100	0.00363377576647808\\
101	0.022748004335189\\
102	0.00383153951422201\\
103	0.0137813769048295\\
104	0.0208798864015132\\
105	0.0421641337479004\\
106	0.0209680251321196\\
107	0.0120820013048634\\
108	0.0132942782072645\\
109	0.0223425435850607\\
110	0.0238463138938672\\
111	0.00950855970198008\\
112	0.00978036301337565\\
113	0.0103460432758352\\
114	0.00726410066222333\\
115	0.00486905823574194\\
116	0.00542802937670508\\
117	0.023115801584014\\
118	0.0311864042466045\\
119	0.00746190422327823\\
120	0.00602908244664111\\
121	0.00615647549415605\\
122	0.0053405180378182\\
123	0.021442852775365\\
124	0.0141894026039066\\
125	0.00279555816878976\\
126	0.00274016737994741\\
127	0.00163550484697966\\
128	0.0120360580362103\\
129	0.00800556498120033\\
130	0.00885595795973606\\
131	0.0131079254172391\\
132	0.0244780798902648\\
133	0.00756336274872681\\
134	0.00500652273414221\\
135	0.00241765954417801\\
136	0.000915230673333342\\
137	0.00147716167933649\\
138	0.00163707236894144\\
139	0.00305669879772531\\
140	0.000695562022811035\\
141	0.000735256537158574\\
142	0.000861202652834642\\
143	0.000628186301228923\\
144	0.00125905279337416\\
145	0.000747279042671186\\
146	0.00171486636795646\\
147	0.00150524578871626\\
148	0.00197447063656651\\
149	0.00293073637061661\\
};
\addlegendentry{$\mathbf{\hat{h}_{1}}$}

\addplot [color=mycolor2]
  table[row sep=crcr]{%
0	0.000293697127854813\\
1	0.000481945157273727\\
2	0.000594109878398118\\
3	0.000416612581509201\\
4	0.000578284774513238\\
5	0.000818766619741809\\
6	0.000143282669530428\\
7	0.00355614223405751\\
8	0.00658699571073225\\
9	0.00179801396042965\\
10	0.000921164476621893\\
11	0.00104937257817314\\
12	0.000755655301158424\\
13	0.000688522724627722\\
14	0.000732608276404748\\
15	0.0019328505407616\\
16	0.000398372050747868\\
17	0.000979861977719855\\
18	0.000827512389162682\\
19	0.00102884870169177\\
20	0.00169761181763022\\
21	0.0071832578130602\\
22	0.00663831401628894\\
23	0.00402450511375757\\
24	0.00188515379044849\\
25	0.0027543731427739\\
26	0.00210577203287076\\
27	0.00303266203315842\\
28	0.000860240342950397\\
29	0.00143902679465395\\
30	0.00153928707681709\\
31	0.00179998277639866\\
32	0.000886378282612608\\
33	0.00324805125709777\\
34	0.0115419089827885\\
35	0.0126049930918807\\
36	0.00265228227979916\\
37	0.00172916880569405\\
38	0.00333603095332549\\
39	0.00257989800854819\\
40	0.00126728850331848\\
41	0.00283734411950697\\
42	0.00679682918500475\\
43	0.0110074307058886\\
44	0.00682831961198038\\
45	0.00384759040951119\\
46	0.00506193505167779\\
47	0.0121210744337407\\
48	0.0138722599803007\\
49	0.00504561171815559\\
50	0.00744925084353586\\
51	0.00344965209097219\\
52	0.00617951186645955\\
53	0.00484926796609029\\
54	0.0214115599664341\\
55	0.0203805399761071\\
56	0.0329086194948226\\
57	0.0218806391962792\\
58	0.00705464092263133\\
59	0.0144785942278805\\
60	0.025770472958928\\
61	0.020694820453047\\
62	0.00976938153874746\\
63	0.00102725017645766\\
64	0.00226644354279256\\
65	0.00529589686583289\\
66	0.0286890342289521\\
67	0.0250955469312817\\
68	0.00727888944600663\\
69	0.0304501421133135\\
70	0.0387467620901851\\
71	0.0170165468597213\\
72	0.0186298852436267\\
73	0.0546093948856811\\
74	0.98714043014392\\
75	0.0546099093954002\\
76	0.0186276703223693\\
77	0.0170099400114595\\
78	0.0387504082730204\\
79	0.0304485631182166\\
80	0.00727601302031159\\
81	0.0250947986469956\\
82	0.0286808746900697\\
83	0.0052983057005127\\
84	0.00228346255403503\\
85	0.00102092430750215\\
86	0.00975966827998893\\
87	0.0206874986008507\\
88	0.0257734779171356\\
89	0.0144756955701628\\
90	0.0070455691151319\\
91	0.0218747385283459\\
92	0.0329077009703821\\
93	0.0203680407447034\\
94	0.0214024327419713\\
95	0.00483955265299569\\
96	0.00618423382121176\\
97	0.00344025466817551\\
98	0.00744131342420387\\
99	0.00504093344566696\\
100	0.0138524500246043\\
101	0.0121209446211634\\
102	0.00506263664412893\\
103	0.00385335942267115\\
104	0.00682444845746206\\
105	0.0109937614190816\\
106	0.00678514952389767\\
107	0.00285039789014498\\
108	0.00127648324608999\\
109	0.00258086461884983\\
110	0.00333993865246689\\
111	0.0017295447509504\\
112	0.00264277768609745\\
113	0.0126106050394151\\
114	0.0115558686546282\\
115	0.00324296594854791\\
116	0.000893680757833324\\
117	0.00178658674936738\\
118	0.00152765135488686\\
119	0.00143785374388273\\
120	0.00086172821697936\\
121	0.00301174760696144\\
122	0.00210106482678045\\
123	0.00275563912311611\\
124	0.00192611210785298\\
125	0.00399608486892813\\
126	0.0066145056717007\\
127	0.00718301718894919\\
128	0.00170662873475677\\
129	0.00103410647763304\\
130	0.000832865983260991\\
131	0.000968488234290798\\
132	0.000355692509486443\\
133	0.0019829755446892\\
134	0.000691116513690315\\
135	0.000694286964008481\\
136	0.000759560177550551\\
137	0.00107137318360131\\
138	0.000909811561889189\\
139	0.00178540517109136\\
140	0.00658887583661952\\
141	0.00355716434042505\\
142	0.000128633874336154\\
143	0.00079630460669525\\
144	0.000565170328630726\\
145	0.000390584682691965\\
146	0.000613369686718386\\
147	0.000455494399460617\\
148	0.00022484058561756\\
149	0.000334407913761608\\
};
\addlegendentry{$\mathbf{\hat{h}_{2}}$}

\end{axis}
\end{tikzpicture}%