% This file was created by matlab2tikz.
%
%The latest updates can be retrieved from
%  http://www.mathworks.com/matlabcentral/fileexchange/22022-matlab2tikz-matlab2tikz
%where you can also make suggestions and rate matlab2tikz.
%
\definecolor{mycolor1}{rgb}{0.00000,0.44700,0.74100}%
\definecolor{mycolor2}{rgb}{0.85000,0.32500,0.09800}%
%
\begin{tikzpicture}

\begin{axis}[%
width=1.935in,
height=3.2in,
at={(0.758in,0.512in)},
scale only axis,
xmin=0,
xmax=150,
xlabel style={font=\color{white!15!black}, align=center},
xlabel={Sample Index\\[1ex](a) Actual},
ymin=0,
ymax=0.7,
axis background/.style={fill=white},
legend style={legend cell align=left, align=left, draw=white!15!black}
]
\addplot [color=mycolor1]
  table[row sep=crcr]{%
1	0.0234657806037261\\
2	0.0272334504034075\\
3	0.0326864300765018\\
4	0.0414541482980318\\
5	0.0586677033458464\\
6	0.117843438362983\\
7	0.159969331461504\\
8	0.174397116945152\\
9	0.616552810702634\\
10	0.0882137642931462\\
11	0.0472681903124796\\
12	0.0327587509505929\\
13	0.0272256709659274\\
14	0.0412344622245766\\
15	0.0186762848129325\\
16	0.0451940046978057\\
17	0.0153724087875252\\
18	0.0239672675363248\\
19	0.0400285717874473\\
20	0.0828333966509162\\
21	0.557624977131952\\
22	0.149414784250917\\
23	0.109138078132702\\
24	0.0381681231028791\\
25	0.032799759178118\\
26	0.191519461959093\\
27	0.0734580287558902\\
28	0.0358315656953253\\
29	0.0179563195827385\\
30	0.0169149242156914\\
31	0.0179798517146348\\
32	0.0199431506445131\\
33	0.0279225394655299\\
34	0.0908594243819801\\
35	0.0439964246924232\\
36	0.330890477505262\\
37	0.037800506563543\\
38	0.020261933748638\\
39	0.0138181229977315\\
40	0.0211497159554441\\
41	0.0112042208144458\\
42	0.00964538908702694\\
43	0.00864780826327016\\
44	0.00787736374270682\\
45	0.00720180133294831\\
46	0.00651453200193765\\
47	0.00565492088107664\\
48	0.0112814316241706\\
49	0.0075966567083061\\
50	0.0102713040739602\\
51	0.00787142060243747\\
52	0.00711780022683946\\
53	0.00668443537322835\\
54	0.00638223966522588\\
55	0.00615487020840034\\
56	0.00598242225636516\\
57	0.00586293416152974\\
58	0.00581626175933958\\
59	0.00593494184987807\\
60	0.00707647204853056\\
61	0.00861312572402681\\
62	0.00240649054353041\\
63	0.0036902508247688\\
64	0.0040125763148678\\
65	0.00408542983582614\\
66	0.00408934467211144\\
67	0.00406760360864643\\
68	0.00403657730104579\\
69	0.00400486664899167\\
70	0.00397913876457006\\
71	0.00396763365360209\\
72	0.00398577860522856\\
73	0.00407460869510253\\
74	0.00440882178496405\\
75	0.00852319154542653\\
76	0.00211982859547221\\
77	0.00279674481878385\\
78	0.00295234209521732\\
79	0.00299967450324673\\
80	0.00300734384297471\\
81	0.00299658049652506\\
82	0.00297609501762909\\
83	0.00295010695632826\\
84	0.00292089738309008\\
85	0.00288979839106794\\
86	0.00285763293534116\\
87	0.00282493110979805\\
88	0.00279204510261472\\
89	0.00275921420187501\\
90	0.00272660345813555\\
91	0.00269432766245323\\
92	0.00266246675038502\\
93	0.00263107599882434\\
94	0.00260019295165966\\
95	0.00256984222925479\\
96	0.00254003893333548\\
97	0.0025107910982644\\
98	0.00248210148178531\\
99	0.00245396889001376\\
100	0.00242638916874131\\
101	0.00239935595223708\\
102	0.00237286123354156\\
103	0.00234689580183488\\
104	0.00232144957979209\\
105	0.00229651188498403\\
106	0.00227207163310714\\
107	0.0022481174963278\\
108	0.00222463802675857\\
109	0.00220162175268604\\
110	0.00217905725339276\\
111	0.0021569332170867\\
112	0.00213523848544673\\
113	0.00211396208753109\\
114	0.00209309326520902\\
115	0.00207262149182518\\
116	0.00205253648545491\\
117	0.00203282821783402\\
118	0.00201348691983224\\
119	0.00199450308416773\\
120	0.00197586746592614\\
121	0.00195757108133911\\
122	0.0019396052051902\\
123	0.0019219613671484\\
124	0.00190463134727109\\
125	0.00188760717087541\\
126	0.00187088110293773\\
127	0.00185444564215264\\
128	0.0018382935147574\\
129	0.00182241766820821\\
130	0.00180681126477794\\
131	0.00179146767513212\\
132	0.00177638047192757\\
133	0.00176154342347035\\
134	0.00174695048746156\\
135	0.0017325958048528\\
136	0.00171847369382931\\
137	0.00170457864393352\\
138	0.0016909053103386\\
139	0.00167744850827835\\
140	0.00166420320763913\\
141	0.00165116452771496\\
142	0.00163832773212761\\
143	0.00162568822391149\\
144	0.00161324154076111\\
145	0.0016009833504405\\
146	0.00158890944635072\\
147	0.00157701574325256\\
148	0.00156529827314105\\
149	0\\
150	0\\
};
\addlegendentry{$\mathbf{h_1}$}

\addplot [color=mycolor2]
  table[row sep=crcr]{%
1	0.019775303219206\\
2	0.0210217764534023\\
3	0.0224372323963497\\
4	0.024058742711813\\
5	0.0259351263737046\\
6	0.0281320174688059\\
7	0.0307398096072034\\
8	0.0338865833958781\\
9	0.0377600935275399\\
10	0.0426472101764649\\
11	0.0490094599986528\\
12	0.0576401827385178\\
13	0.0700288298559564\\
14	0.0893407156606893\\
15	0.123700774100431\\
16	0.202175033398071\\
17	0.564479813098353\\
18	0.690442426104836\\
19	0.212260509632627\\
20	0.126132345068284\\
21	0.100380135781766\\
22	0.0378663697499036\\
23	0.0333199748773482\\
24	0.0149453064107011\\
25	0.10083899339379\\
26	0.161002397050911\\
27	0.0405118251764787\\
28	0.0383644765554957\\
29	0.0341227495803863\\
30	0.0306469105251072\\
31	0.0278570926171954\\
32	0.0255709383506331\\
33	0.0236574529195357\\
34	0.0220274984760589\\
35	0.0206190941704396\\
36	0.0193877726649002\\
37	0.0183006807256663\\
38	0.0173329207549748\\
39	0.016465211935799\\
40	0.0156823459816501\\
41	0.0149721364414517\\
42	0.0143246843629073\\
43	0.0137318527665838\\
44	0.0131868826449622\\
45	0.0126841071808284\\
46	0.0122187355837443\\
47	0.0117866872087634\\
48	0.0113844626077037\\
49	0.0110090421200206\\
50	0.0106578052804057\\
51	0\\
52	0\\
53	0\\
54	0\\
55	0\\
56	0\\
57	0\\
58	0\\
59	0\\
60	0\\
61	0\\
62	0\\
63	0\\
64	0\\
65	0\\
66	0\\
67	0\\
68	0\\
69	0\\
70	0\\
71	0\\
72	0\\
73	0\\
74	0\\
75	0\\
76	0\\
77	0\\
78	0\\
79	0\\
80	0\\
81	0\\
82	0\\
83	0\\
84	0\\
85	0\\
86	0\\
87	0\\
88	0\\
89	0\\
90	0\\
91	0\\
92	0\\
93	0\\
94	0\\
95	0\\
96	0\\
97	0\\
98	0\\
99	0\\
100	0\\
101	0\\
102	0\\
103	0\\
104	0\\
105	0\\
106	0\\
107	0\\
108	0\\
109	0\\
110	0\\
111	0\\
112	0\\
113	0\\
114	0\\
115	0\\
116	0\\
117	0\\
118	0\\
119	0\\
120	0\\
121	0\\
122	0\\
123	0\\
124	0\\
125	0\\
126	0\\
127	0\\
128	0\\
129	0\\
130	0\\
131	0\\
132	0\\
133	0\\
134	0\\
135	0\\
136	0\\
137	0\\
138	0\\
139	0\\
140	0\\
141	0\\
142	0\\
143	0\\
144	0\\
145	0\\
146	0\\
147	0\\
148	0\\
149	0\\
150	0\\
};
\addlegendentry{$\mathbf{h_{2}}$}

\end{axis}

\begin{axis}[%
width=1.935in,
height=3.2in,
at={(3.327in,0.512in)},
scale only axis,
xmin=0,
xmax=150,
xlabel style={font=\color{white!15!black}, align=center},
xlabel={Sample Index\\[1ex](b) Estimated},
ymin=0,
ymax=1,
axis background/.style={fill=white},
legend style={legend cell align=left, align=left, draw=white!15!black}
]
\addplot [color=mycolor1]
  table[row sep=crcr]{%
0	0.00192699496057952\\
1	0.00154578705970409\\
2	0.00128588234118108\\
3	0.00273427852609447\\
4	0.000620278695407537\\
5	0.00136397074606622\\
6	0.000249017943184928\\
7	0.00206503140849146\\
8	0.00130515458762358\\
9	0.000873322288923006\\
10	0.000810265926704596\\
11	0.00126018181897694\\
12	0.00167088841635183\\
13	0.00136718247934914\\
14	0.000857342181940309\\
15	0.000531193951171872\\
16	0.00109283709945385\\
17	0.00191285333299173\\
18	0.00243476774742523\\
19	0.000778747389563389\\
20	0.00268335314947766\\
21	0.00224915397829048\\
22	0.000911311065330362\\
23	0.00249121433966034\\
24	0.00223714544308528\\
25	0.000669262943499902\\
26	0.00135458529289577\\
27	0.00163326143952763\\
28	0.00478557265330856\\
29	0.00405916110028657\\
30	0.00390337781249664\\
31	0.00563107429208615\\
32	0.00242919043178864\\
33	0.0086962734514737\\
34	0.00891146884455235\\
35	0.0093179644471898\\
36	0.00845772601900238\\
37	0.0133608854839049\\
38	0.0160483393086874\\
39	0.0156124419500147\\
40	0.0108182510771397\\
41	0.0137223393511598\\
42	0.00951230701581352\\
43	0.0151405767644848\\
44	0.0124183279007598\\
45	0.0176249780044421\\
46	0.0142644963814154\\
47	0.0168888786231815\\
48	0.0210982504754311\\
49	0.0181646327167548\\
50	0.0263461571844986\\
51	0.0488387598307969\\
52	0.0265954250631373\\
53	0.00793719541907495\\
54	0.0402718643766019\\
55	0.00804468466715142\\
56	0.0322890750474618\\
57	0.123580720349709\\
58	0.0514249477934193\\
59	0.0406389109447511\\
60	0.0388729078808309\\
61	0.0238357806887286\\
62	0.052341120043855\\
63	0.159215395566653\\
64	0.0360350882846506\\
65	0.477444259225627\\
66	0.39400741668645\\
67	0.112979513246602\\
68	0.0800413149505168\\
69	0.0474597556568564\\
70	0.116807481195881\\
71	0.0349450787244575\\
72	0.0547609363233874\\
73	0.00603007812110254\\
74	0.0760957576481579\\
75	0.0809072868626516\\
76	0.108449286755351\\
77	0.260279661838423\\
78	0.469900821412152\\
79	0.182120712284459\\
80	0.0608122460016703\\
81	0.0782381647512142\\
82	0.115424369066388\\
83	0.0962316676873101\\
84	0.115609563622368\\
85	0.0248544626363906\\
86	0.0342371797752557\\
87	0.0308975430059005\\
88	0.0227447542419113\\
89	0.0404850879102109\\
90	0.0826078349336284\\
91	0.110676169256716\\
92	0.283838559258632\\
93	0.110098635388155\\
94	0.040454115334187\\
95	0.0437996146808214\\
96	0.018116065952608\\
97	0.00390914074166908\\
98	0.0160907707305637\\
99	0.0175406370356281\\
100	0.021364007003293\\
101	0.00892103888759412\\
102	0.00948713226469126\\
103	0.0200206200464161\\
104	0.0365773459381468\\
105	0.0216558169227203\\
106	0.00783576922275829\\
107	0.0167227288634316\\
108	0.00631783019845474\\
109	0.00427813497007663\\
110	0.0049290901929672\\
111	0.0031730453148257\\
112	0.0039842817091192\\
113	0.00384571603326816\\
114	0.00187435752040415\\
115	0.00186808865730735\\
116	0.00133863637584015\\
117	0.0129317523766528\\
118	0.00716238901341059\\
119	0.00406674345519689\\
120	0.00498366523293679\\
121	0.00252832978699942\\
122	0.00201076524155127\\
123	0.00140189963343935\\
124	0.000998794030722999\\
125	0.0016230634164423\\
126	0.000920478316213854\\
127	0.0011326795023148\\
128	0.00111345789360326\\
129	0.00191347677750373\\
130	0.00200989604026775\\
131	0.000517305498942598\\
132	0.00347610035091374\\
133	0.000743474891141229\\
134	0.000555867340330944\\
135	0.000897276688484018\\
136	0.00199697447962227\\
137	0.00172349867713888\\
138	0.00134495170685881\\
139	0.00109538880872509\\
140	0.00236730263738651\\
141	0.0031579750262247\\
142	0.000662301635959954\\
143	0.00184043385242195\\
144	0.00116963047609943\\
145	0.00046262923048327\\
146	0.00143600244256183\\
147	0.000919962767810492\\
148	0.000901887457607101\\
149	0.00122854538327326\\
};
\addlegendentry{$\mathbf{\hat{h}_{1}}$}

\addplot [color=mycolor2]
  table[row sep=crcr]{%
0	0.000435431226175148\\
1	0.00110760272632468\\
2	8.44927761777868e-05\\
3	0.000204554839726845\\
4	0.000584197510016221\\
5	0.000642896397129018\\
6	0.00037334390473175\\
7	0.000265199621927064\\
8	0.000610446519202971\\
9	0.000977552799514006\\
10	0.000196172850499074\\
11	0.000658065122945805\\
12	0.00105910263823729\\
13	0.000810856965145465\\
14	0.000588351731494486\\
15	0.0004175193336838\\
16	0.00122684781635981\\
17	0.000599803745624274\\
18	0.00111731540818864\\
19	0.00160196404468656\\
20	0.00108783507709162\\
21	0.000421330166093742\\
22	0.00217491151867005\\
23	0.00118591716083189\\
24	0.00154184531735175\\
25	0.000532383008710597\\
26	0.000973706084612424\\
27	0.00107732626291392\\
28	0.000298424846838873\\
29	0.000225816316860098\\
30	0.00210884157040766\\
31	0.000716272842798564\\
32	0.00318033683413564\\
33	0.00417949419822805\\
34	0.00316889246336911\\
35	0.00438607464548695\\
36	0.00170223781484132\\
37	0.00327603542376991\\
38	0.00195954304262443\\
39	0.00237681206170723\\
40	0.00382376443722597\\
41	0.0040182074564077\\
42	0.00553676507513097\\
43	0.00452876229733428\\
44	0.00418586236341728\\
45	0.0122687121305211\\
46	0.00899052095013187\\
47	0.0371227618732073\\
48	0.00925477783512073\\
49	0.0152654462679198\\
50	0.00913984819468859\\
51	0.00673452614531389\\
52	0.0037401552354324\\
53	0.00546988928571352\\
54	0.00729577157724354\\
55	0.00979677950907906\\
56	0.00688248889434455\\
57	0.0206810251869433\\
58	0.0136479252950281\\
59	0.0399454908111147\\
60	0.0253171159443331\\
61	0.0306329381834674\\
62	0.073106765201106\\
63	0.0141184752589424\\
64	0.018570027815403\\
65	0.00728066797132078\\
66	0.00646668550994259\\
67	0.0120538636160181\\
68	0.0112460337667689\\
69	0.0118196249487753\\
70	0.00970998188726134\\
71	0.0179413681280959\\
72	0.0254407051829651\\
73	0.02272147202661\\
74	0.985628932172879\\
75	0.0227242442984981\\
76	0.0254377154765391\\
77	0.0179498514035704\\
78	0.00971173077879302\\
79	0.0118235362579032\\
80	0.0112474945849979\\
81	0.012058900670192\\
82	0.0064617214684703\\
83	0.00728868287555063\\
84	0.0185640724086554\\
85	0.0141144275912337\\
86	0.0730986556782338\\
87	0.0306177198788193\\
88	0.0253155017064332\\
89	0.0399428087365646\\
90	0.013639035975472\\
91	0.0206738552612504\\
92	0.00688665269672129\\
93	0.00979253626130031\\
94	0.00729471382707466\\
95	0.00546724753801236\\
96	0.00373069956177398\\
97	0.00673029369653603\\
98	0.00914794629830104\\
99	0.0152559406457458\\
100	0.00925656067743274\\
101	0.0370981882159052\\
102	0.00898970698794582\\
103	0.0122614011087465\\
104	0.00417291076636962\\
105	0.00452589682511759\\
106	0.00554743249809797\\
107	0.00401125453382697\\
108	0.00381682568031767\\
109	0.0023694227915224\\
110	0.0019647758868168\\
111	0.00328685577624055\\
112	0.0017037863861713\\
113	0.00436269242821232\\
114	0.00317233267418361\\
115	0.00418126224736208\\
116	0.00318699728746512\\
117	0.000725036083113971\\
118	0.00210799716983899\\
119	0.000204055505741706\\
120	0.00029456035420472\\
121	0.00107519071320937\\
122	0.000979208652441632\\
123	0.000529495426582728\\
124	0.00154014776263805\\
125	0.00114935497828062\\
126	0.00218467463124604\\
127	0.000435153812333192\\
128	0.00107717270029948\\
129	0.00159891264368914\\
130	0.00112013324626514\\
131	0.00057689478779609\\
132	0.00122118975924595\\
133	0.000421215918686162\\
134	0.000588392882467047\\
135	0.000811238912326395\\
136	0.00107817020020615\\
137	0.000669347032082953\\
138	0.000191086627321725\\
139	0.00101221616097499\\
140	0.000595570061803864\\
141	0.000264147219369917\\
142	0.000373330707401221\\
143	0.000625687750460196\\
144	0.000604763080719955\\
145	0.00017075367076513\\
146	7.69780966142777e-05\\
147	0.00110786290912815\\
148	0.000436110442933795\\
149	0.000616173290300716\\
};
\addlegendentry{$\mathbf{\hat{h}_{2}}$}

\end{axis}
\end{tikzpicture}%