% This file was created by matlab2tikz.
%
%The latest updates can be retrieved from
%  http://www.mathworks.com/matlabcentral/fileexchange/22022-matlab2tikz-matlab2tikz
%where you can also make suggestions and rate matlab2tikz.
%
\definecolor{mycolor1}{rgb}{0.00000,0.44700,0.74100}%
\definecolor{mycolor2}{rgb}{0.85000,0.32500,0.09800}%
%
\begin{tikzpicture}

\begin{axis}[%
width=1.935in,
height=3.2in,
at={(0.758in,0.512in)},
scale only axis,
xmin=0,
xmax=200,
xlabel style={font=\color{white!15!black}, align=center},
xlabel={Sample Index\\[1ex](a) Actual},
ymin=0,
ymax=1,
axis background/.style={fill=white},
legend style={legend cell align=left, align=left, draw=white!15!black}
]
\addplot [color=mycolor1]
  table[row sep=crcr]{%
1	0.0167418731260698\\
2	0.018659722218203\\
3	0.0211495716349754\\
4	0.0245407494314006\\
5	0.029505643974117\\
6	0.0377161636169434\\
7	0.0550750576238134\\
8	0.131028403455825\\
9	0.141533477104454\\
10	0.158175166246243\\
11	0.163761757297189\\
12	0.600100605556833\\
13	0.118033417583129\\
14	0.0610914209628117\\
15	0.0426162246246858\\
16	0.0332715711707656\\
17	0.0321939439283243\\
18	0.0268871008873183\\
19	0.0316920608120786\\
20	0.0286771919664519\\
21	0.00773119825769845\\
22	0.0330073087209196\\
23	0.019415059292473\\
24	0.0177688778425817\\
25	0.0188194600762088\\
26	0.0237714798713867\\
27	0.0430806655948836\\
28	0.586023006720236\\
29	0.0970905103802927\\
30	0.0246981078960262\\
31	0.0780346253424249\\
32	0.0580455436901626\\
33	0.0681836526256362\\
34	0.163824852865525\\
35	0.0446106828365612\\
36	0.06119675966513\\
37	0.00907835157153909\\
38	0.0310093774848825\\
39	0.00125972832884384\\
40	0.005422098150711\\
41	0.0107374596162295\\
42	0.0165479326643041\\
43	0.024789327411243\\
44	0.0446277431282512\\
45	0.058019450740893\\
46	0.074843365423057\\
47	0.199666615467323\\
48	0.216838516027539\\
49	0.0783890355452335\\
50	0.0495529240878659\\
51	0.0370791446049236\\
52	0.0307530810094058\\
53	0.0155757068681131\\
54	0.0198807977432187\\
55	0.0179871495341263\\
56	0.0162887905400521\\
57	0.0148728268904216\\
58	0.0136909847461918\\
59	0.0126943671543235\\
60	0.011846112844806\\
61	0.0111233301448608\\
62	0.0105291449791113\\
63	0.0102108676347222\\
64	0.00751288118280402\\
65	0.00739035992869396\\
66	0.0116365722557393\\
67	0.00899390796280924\\
68	0.00831157148096884\\
69	0.00788086875151191\\
70	0.00754217236777393\\
71	0.00725475830161164\\
72	0.00700327644843893\\
73	0.006780818536885\\
74	0.00658453626015097\\
75	0.00641472878078445\\
76	0.00627599401250467\\
77	0.00618216997550965\\
78	0.00617516728867787\\
79	0.00642745729543014\\
80	0.00873051939586948\\
81	0.00471465923588381\\
82	0.00195996010568866\\
83	0.004980313957114\\
84	0.00475839614864904\\
85	0.00464733241660508\\
86	0.00455444244400457\\
87	0.00446749239384432\\
88	0.00438406292262191\\
89	0.00430366820355207\\
90	0.00422628355118023\\
91	0.00415201532524293\\
92	0.00408104289588831\\
93	0.00401365198230764\\
94	0.00395033763548775\\
95	0.00389203620501121\\
96	0.00384070443755282\\
97	0.00380107128140597\\
98	0.00378779867734327\\
99	0.00387836096292209\\
100	0.00228454900881806\\
101	0.00321909463290553\\
102	0.00328982387499096\\
103	0.00328100374444436\\
104	0.00325253146337885\\
105	0.00321692683031362\\
106	0.00317840637543852\\
107	0.00313876414674543\\
108	0.00309887602618152\\
109	0.00305920797263281\\
110	0.00302002111537278\\
111	0.00298146552488656\\
112	0.00294362726599965\\
113	0.0029065537719176\\
114	0.00287026833389302\\
115	0.00283477876811283\\
116	0.00280008280049957\\
117	0.00276617151884636\\
118	0.00273303164395387\\
119	0.00270064705586787\\
120	0.00266899983729428\\
121	0.00263807099659409\\
122	0.00260784097374635\\
123	0.00257828999668392\\
124	0.00254939833288439\\
125	0.00252114646667125\\
126	0.00249351522323938\\
127	0.00246648585412356\\
128	0.00244004009455901\\
129	0.00241416020024051\\
130	0.00238882896892876\\
131	0.0023640297508985\\
132	0.00233974645117835\\
133	0.00231596352577768\\
134	0.00229266597354371\\
135	0.00226983932488367\\
136	0.00224746962828519\\
137	0.00222554343533969\\
138	0.00220404778480324\\
139	0.00218297018609978\\
140	0.00216229860257188\\
141	0.00214202143470905\\
142	0.00212212750352594\\
143	0.00210260603421662\\
144	0.00208344664017788\\
145	0.00206463930746792\\
146	0.00204617437974413\\
147	0.00202804254371082\\
148	0.00201023481509265\\
149	0.00199274252514179\\
150	0.00197555730767936\\
151	0.0019586710866655\\
152	0.00194207606428942\\
153	0.00192576470956709\\
154	0.00190972974743187\\
155	0.00189396414830307\\
156	0.00187846111811499\\
157	0.00186321408878906\\
158	0.00184821670913216\\
159	0.00183346283614256\\
160	0.00181894652670628\\
161	0.00180466202966742\\
162	0.00179060377825436\\
163	0.00177676638284649\\
164	0.00176314462406556\\
165	0.00174973344617591\\
166	0.0017365279507797\\
167	0.00172352339079259\\
168	0.00171071516468654\\
169	0.00169809881098722\\
170	0.00168567000301325\\
171	0.00167342454384613\\
172	0.00166135836151948\\
173	0.00164946750441694\\
174	0.00163774813686889\\
175	0.00162619653493841\\
176	0.00161480908238697\\
177	0.00160358226681213\\
178	0.001592512675948\\
179	0.00158159699412143\\
180	0.00157083199885632\\
181	0.00156021455761888\\
182	0.00154974162469766\\
183	0.00153941023821136\\
184	0.00152921751723897\\
185	0.00151916065906659\\
186	0.00150923693654504\\
187	0.00149944369555362\\
188	0.00148977835256491\\
189	0.00148023839230615\\
190	0.0014708213655126\\
191	0.00146152488676917\\
192	0.00145234663243548\\
193	0.00144328433865201\\
194	0.00143433579942216\\
195	0.0014254988647679\\
196	0.00141677143895562\\
197	0.00140815147878894\\
198	0.00139963699196521\\
199	0\\
200	0\\
};
\addlegendentry{$\mathbf{h_1}$}

\addplot [color=mycolor2]
  table[row sep=crcr]{%
1	0.00495033386861547\\
2	0.00515738368500011\\
3	0.00538309861623286\\
4	0.00563019833310769\\
5	0.00590197136255583\\
6	0.00620243506959928\\
7	0.00653655369620811\\
8	0.00691054090538825\\
9	0.00733228812251618\\
10	0.00781198494389501\\
11	0.00836304134465097\\
12	0.0090034999823859\\
13	0.00975827527656913\\
14	0.0106628508662167\\
15	0.0117696896019869\\
16	0.0131600228416925\\
17	0.0149671880151623\\
18	0.0174273921400842\\
19	0.0210049332363351\\
20	0.0267613442180004\\
21	0.037792597580649\\
22	0.068721841139076\\
23	0.97572931769219\\
24	0.0649085399616321\\
25	0.0262918397391367\\
26	0.0126468169615953\\
27	0.00419508123086451\\
28	0.0214241856295046\\
29	0.0134643328328179\\
30	0.00412679327935559\\
31	0.0112712342656943\\
32	0.0282552508318709\\
33	0.111702725947746\\
34	0.12653020104749\\
35	0.0361926668223949\\
36	0.024130019396178\\
37	0.019518168382204\\
38	0.0163235660243771\\
39	0.0140849625225472\\
40	0.0124312948441269\\
41	0.0111552918846637\\
42	0.0101369616841952\\
43	0.00930266674553233\\
44	0.00860476970863487\\
45	0.00801105372801389\\
46	0.00749890841387189\\
47	0.00705196472677567\\
48	0.00665805661850076\\
49	0.0063079366485928\\
50	0.00599443852440938\\
51	0.00571191453485358\\
52	0.00545584764793091\\
53	0.0052225778141873\\
54	0.00500910486747672\\
55	0.00481294397681212\\
56	0.00463201789166602\\
57	0.00446457542356871\\
58	0.00430912894812168\\
59	0.00416440590497024\\
60	0.00402931074167137\\
61	0.00390289474814389\\
62	0.00378433192171684\\
63	0.00367289949042518\\
64	0.0035679620699816\\
65	0.00346895868109233\\
66	0.00337539203747226\\
67	0.00328681965070268\\
68	0.00320284639950925\\
69	0\\
70	0\\
71	0\\
72	0\\
73	0\\
74	0\\
75	0\\
76	0\\
77	0\\
78	0\\
79	0\\
80	0\\
81	0\\
82	0\\
83	0\\
84	0\\
85	0\\
86	0\\
87	0\\
88	0\\
89	0\\
90	0\\
91	0\\
92	0\\
93	0\\
94	0\\
95	0\\
96	0\\
97	0\\
98	0\\
99	0\\
100	0\\
101	0\\
102	0\\
103	0\\
104	0\\
105	0\\
106	0\\
107	0\\
108	0\\
109	0\\
110	0\\
111	0\\
112	0\\
113	0\\
114	0\\
115	0\\
116	0\\
117	0\\
118	0\\
119	0\\
120	0\\
121	0\\
122	0\\
123	0\\
124	0\\
125	0\\
126	0\\
127	0\\
128	0\\
129	0\\
130	0\\
131	0\\
132	0\\
133	0\\
134	0\\
135	0\\
136	0\\
137	0\\
138	0\\
139	0\\
140	0\\
141	0\\
142	0\\
143	0\\
144	0\\
145	0\\
146	0\\
147	0\\
148	0\\
149	0\\
150	0\\
151	0\\
152	0\\
153	0\\
154	0\\
155	0\\
156	0\\
157	0\\
158	0\\
159	0\\
160	0\\
161	0\\
162	0\\
163	0\\
164	0\\
165	0\\
166	0\\
167	0\\
168	0\\
169	0\\
170	0\\
171	0\\
172	0\\
173	0\\
174	0\\
175	0\\
176	0\\
177	0\\
178	0\\
179	0\\
180	0\\
181	0\\
182	0\\
183	0\\
184	0\\
185	0\\
186	0\\
187	0\\
188	0\\
189	0\\
190	0\\
191	0\\
192	0\\
193	0\\
194	0\\
195	0\\
196	0\\
197	0\\
198	0\\
199	0\\
200	0\\
};
\addlegendentry{$\mathbf{h_{2}}$}

\end{axis}

\begin{axis}[%
width=1.935in,
height=3.2in,
at={(3.327in,0.512in)},
scale only axis,
xmin=0,
xmax=200,
xlabel style={font=\color{white!15!black}, align=center},
xlabel={Sample Index\\[1ex](b) Estimated},
ymin=0,
ymax=1,
axis background/.style={fill=white},
legend style={legend cell align=left, align=left, draw=white!15!black}
]
\addplot [color=mycolor1]
  table[row sep=crcr]{%
0	0.00724749952466607\\
1	0.0266572520156233\\
2	0.0130553901109304\\
3	0.01379064114385\\
4	0.0288219627825932\\
5	0.0287160363298471\\
6	0.0183833987894159\\
7	0.0305509963721054\\
8	0.0178831699054808\\
9	0.0313281266057768\\
10	0.0230300603318237\\
11	0.0390180042178512\\
12	0.02123771257763\\
13	0.0343746388303726\\
14	0.0275812113791956\\
15	0.0318474595523135\\
16	0.00891204105817725\\
17	0.0179351531535814\\
18	0.0222568515069203\\
19	0.0213833978819057\\
20	0.0253065848735126\\
21	0.0158767217765574\\
22	0.0393807242232842\\
23	0.0221536012374416\\
24	0.0404728086097317\\
25	0.0686524132991232\\
26	0.0126339804746282\\
27	0.0202484155878822\\
28	0.00792784044732395\\
29	0.0148154757782687\\
30	0.0278094485299542\\
31	0.0180013714994698\\
32	0.00980890560117521\\
33	0.0280478489401963\\
34	0.0140135495937168\\
35	0.0226082682609722\\
36	0.0465280552184007\\
37	0.0206524832585387\\
38	0.023295505711861\\
39	0.0372323851396383\\
40	0.0189853096446326\\
41	0.0352151703991679\\
42	0.0164790074063144\\
43	0.0257428322016903\\
44	0.0369659511610832\\
45	0.011735089905193\\
46	0.00925376702472687\\
47	0.0364773071985906\\
48	0.022954059210511\\
49	0.0279070521570043\\
50	0.0195067784925855\\
51	0.0424723490543335\\
52	0.0292134292490728\\
53	0.036325289935753\\
54	0.0259528217566364\\
55	0.0150807514108914\\
56	0.0160759941861178\\
57	0.0271446789340088\\
58	0.00727796746525638\\
59	0.0397532776451043\\
60	0.0327068140384404\\
61	0.0578952099178418\\
62	0.0328519533723311\\
63	0.0136514276195522\\
64	0.0165236643505243\\
65	0.0297691058038115\\
66	0.0072083774467631\\
67	0.0356177115884993\\
68	0.00982697477134598\\
69	0.0134786980804982\\
70	0.0119447225588458\\
71	0.0192341340696041\\
72	0.0296578205056712\\
73	0.01713565186084\\
74	0.0478497047626254\\
75	0.0289053084072148\\
76	0.0537323591500519\\
77	0.0492785935411976\\
78	0.0235134532880713\\
79	0.0149219501523907\\
80	0.0172800629834238\\
81	0.016733196595909\\
82	0.0142245382060688\\
83	0.0178028274815323\\
84	0.0102488029317627\\
85	0.0377633882080031\\
86	0.0113083932066625\\
87	0.0308667245766337\\
88	0.0123329102767203\\
89	0.0248467289272483\\
90	0.025906820269007\\
91	0.03157886572633\\
92	0.00601562168207513\\
93	0.0481682609655416\\
94	0.0131424807041931\\
95	0.0198197750530955\\
96	0.0237864412457599\\
97	0.0179301439178249\\
98	0.0174633791266221\\
99	0.0226413620169691\\
100	0.0233653111586895\\
101	0.0261119569020176\\
102	0.013726529996377\\
103	0.0398914688109376\\
104	0.0307490797088319\\
105	0.0222769819346087\\
106	0.00635309213542717\\
107	0.0435837337546896\\
108	0.0315085054900548\\
109	0.0321751537475845\\
110	0.02672597346757\\
111	0.0122023486924556\\
112	0.0451146968887868\\
113	0.0185557704487003\\
114	0.0199482335775147\\
115	0.018384333025154\\
116	0.0249115408856685\\
117	0.0150807206998596\\
118	0.00500515873855728\\
119	0.031814962870817\\
120	0.0234487759445566\\
121	0.0186355178798178\\
122	0.0132284039097087\\
123	0.0152283261011544\\
124	0.0529572226170806\\
125	0.0230394282946728\\
126	0.0306259072422764\\
127	0.0244525744584379\\
128	0.0344162845282414\\
129	0.0326808141641041\\
130	0.0246398997100788\\
131	0.0141328525376577\\
132	0.0203151692587338\\
133	0.0283700423271434\\
134	0.0302281033462317\\
135	0.0114602984631387\\
136	0.00910797182215168\\
137	0.0130453617226831\\
138	0.0223330214838006\\
139	0.0450301142006055\\
140	0.0100946379210165\\
141	0.0360668648753492\\
142	0.0235304571743204\\
143	0.0538371869167679\\
144	0.0353283988203169\\
145	0.0376620304932416\\
146	0.0406474525681282\\
147	0.0205770956739137\\
148	0.0191914744009478\\
149	0.0327759670955386\\
150	0.0115018316912125\\
151	0.00554764848321578\\
152	0.0150456860945592\\
153	0.0136816232347331\\
154	0.0435389048234582\\
155	0.031324113046856\\
156	0.0566016029621653\\
157	0.0294731601968744\\
158	0.00919169715561069\\
159	0.0150263083567682\\
160	0.0261582887900322\\
161	0.0115467585463046\\
162	0.0248721765506228\\
163	0.0264811059584047\\
164	0.0122318012749566\\
165	0.0164037021351104\\
166	0.0193773234940708\\
167	0.0312520825112079\\
168	0.0583871196813219\\
169	0.0296594067918822\\
170	0.0296875141627996\\
171	0.0187147673089562\\
172	0.0344126935960438\\
173	0.00959740024557713\\
174	0.0291790818085626\\
175	0.0466034277102757\\
176	0.0167729202010486\\
177	0.00243452612176278\\
178	0.0139705292073004\\
179	0.0264886045654368\\
180	0.0112521262179309\\
181	0.0112373286167546\\
182	0.0142960094399876\\
183	0.0497647417427201\\
184	0.0329123128411424\\
185	0.0234487806635533\\
186	0.0185783559129186\\
187	0.0165829422975715\\
188	0.027996001365544\\
189	0.0250392918936339\\
190	0.0208732305126324\\
191	0.0156024711117097\\
192	0.01619345667206\\
193	0.0296472578320798\\
194	0.0168693378080582\\
195	0.0105001566857251\\
196	0.0301553070991155\\
197	0.0187364229079272\\
198	0.0138514655982429\\
199	0.923638505749157\\
};
\addlegendentry{$\mathbf{\hat{h}_{1}}$}

\addplot [color=mycolor2]
  table[row sep=crcr]{%
0	0.0561717877396253\\
1	0.0539858268163359\\
2	0.0174161608585438\\
3	0.03798765383789\\
4	0.0545145000800948\\
5	0.049948405388884\\
6	0.00980170944130835\\
7	0.0372350432891991\\
8	0.032001605489292\\
9	0.0746491054165525\\
10	0.0216783428078815\\
11	0.0464327263944094\\
12	0.0164177106057723\\
13	0.0363982122089256\\
14	0.0565578650966884\\
15	0.0300749524975272\\
16	0.0347875164459959\\
17	0.0653415965167832\\
18	0.0442789878204605\\
19	0.0389150322890704\\
20	0.0708616161523161\\
21	0.0457862150444643\\
22	0.017716272355203\\
23	0.13993471957409\\
24	0.0641394119878485\\
25	0.106471483271384\\
26	0.0877610740748917\\
27	0.113994073882892\\
28	0.112030464085029\\
29	0.0911392478557065\\
30	0.159190229116557\\
31	0.0907085099612495\\
32	0.0373509779890203\\
33	0.160999750707581\\
34	0.029526634276278\\
35	0.109056840257094\\
36	0.0693910664335691\\
37	0.0661782308201889\\
38	0.0519043850537268\\
39	0.0486381579717643\\
40	0.146193630831557\\
41	0.0978485362143952\\
42	0.121091560711867\\
43	0.0312254480223638\\
44	0.0443834033171838\\
45	0.0719517622303916\\
46	0.0323259524245576\\
47	0.0519868240175217\\
48	0.077816107196325\\
49	0.0800681382925738\\
50	0.0793813805725967\\
51	0.00611594130311373\\
52	0.0677974316988776\\
53	0.0801780509519336\\
54	0.105339399975096\\
55	0.0278639352504172\\
56	0.201568833286112\\
57	0.13927777402014\\
58	0.108177385929796\\
59	0.0251530034610848\\
60	0.0883176425625405\\
61	0.0818822950033573\\
62	0.172106410120055\\
63	0.0509686120652033\\
64	0.0943753913736987\\
65	0.0642261129954162\\
66	0.108568079448027\\
67	0.111466107451572\\
68	0.129534286362356\\
69	0.0978685370751904\\
70	0.136931791432414\\
71	0.0926260737689768\\
72	0.0912687906516304\\
73	0.0343308804065819\\
74	0.0489808254110085\\
75	0.0434006555458149\\
76	0.0459039775594694\\
77	0.145327525487996\\
78	0.0908865687956709\\
79	0.202863404488177\\
80	0.10181656740786\\
81	0.0623761044268572\\
82	0.0561016554656492\\
83	0.0448267072767632\\
84	0.0450090352871782\\
85	0.112400071713126\\
86	0.0671485717860264\\
87	0.111133891421115\\
88	0.148067984675082\\
89	0.112493816329671\\
90	0.0668120855367189\\
91	0.0702207916744831\\
92	0.0972612302177671\\
93	0.0877244943062363\\
94	0.106852055041146\\
95	0.164845840128677\\
96	0.0381277719806559\\
97	0.0588004944849776\\
98	0.0337507905246401\\
99	0.134369769427246\\
100	0.0985237106667127\\
101	0.0383520909549765\\
102	0.0201281241280967\\
103	0.0332508552976941\\
104	0.0523288029197172\\
105	0.0491974894288601\\
106	0.0464766460276392\\
107	0.0242656347880244\\
108	0.0259778875386635\\
109	0.0709983705115867\\
110	0.0165483136812754\\
111	0.0429177461522795\\
112	0.0409599637331988\\
113	0.0352634396345486\\
114	0.0121476399987824\\
115	0.0510405804621165\\
116	0.0394912478762566\\
117	0.0316636637047103\\
118	0.061894328726439\\
119	0.020707405532384\\
120	0.0356347795883153\\
121	0.0471207897739334\\
122	0.0156286726194164\\
123	0.0278531424425462\\
124	0.0862601387155466\\
125	0.0168800228677105\\
126	0.0135436773283625\\
127	0.00871599146562421\\
128	0.0256946045919563\\
129	0.0385139379687187\\
130	0.0367248483799233\\
131	0.0193859972924816\\
132	0.0080969748660407\\
133	0.0314284241426379\\
134	0.0445225377724524\\
135	0.0237865259236646\\
136	0.0677596498058589\\
137	0.0523686708951166\\
138	0.0282606318981662\\
139	0.0276131017121411\\
140	0.0534485176839034\\
141	0.0518489694593973\\
142	0.0222570945897061\\
143	0.0360298981809382\\
144	0.0218778191719941\\
145	0.017390049720702\\
146	0.0545185602872493\\
147	0.0245704123717248\\
148	0.0118428290562461\\
149	0.0641779157788607\\
150	0.0843739455324789\\
151	0.0573330509017498\\
152	0.0238610104410156\\
153	0.0503991216336992\\
154	0.0437698277706747\\
155	0.0538634843591542\\
156	0.0212978715087108\\
157	0.0238917078293795\\
158	0.0264044318766683\\
159	0.030937417187718\\
160	0.0176182934801787\\
161	0.0491486457784663\\
162	0.0541534386724287\\
163	0.0765155081255916\\
164	0.0161353909124351\\
165	0.018955224043665\\
166	0.0368420350902377\\
167	0.0367148183877493\\
168	0.019451060087744\\
169	0.0200990902085699\\
170	0.0463578180767014\\
171	0.0188532043951627\\
172	0.0461727090492096\\
173	0.0609460348078767\\
174	0.0387113498601139\\
175	0.0665421398791677\\
176	0.0415482149663898\\
177	0.0703315678756191\\
178	0.00279148892158108\\
179	0.0159019726316155\\
180	0.0213925412202971\\
181	0.0671772246687517\\
182	0.0121358636432087\\
183	0.0654637574276094\\
184	0.0200372886504463\\
185	0.0124600672235873\\
186	0.01165855348988\\
187	0.038080743208336\\
188	0.0471475162428375\\
189	0.00484913761092586\\
190	0.096554509816948\\
191	0.021183183551156\\
192	0.00806349754957048\\
193	0.0650945024907508\\
194	0.173378502057219\\
195	0.00692694977633103\\
196	0.0795573448840917\\
197	0.0717044606103358\\
198	0.0131975781092406\\
199	0.0764572851541249\\
};
\addlegendentry{$\mathbf{\hat{h}_{2}}$}

\end{axis}
\end{tikzpicture}%