% This file was created by matlab2tikz.
%
%The latest updates can be retrieved from
%  http://www.mathworks.com/matlabcentral/fileexchange/22022-matlab2tikz-matlab2tikz
%where you can also make suggestions and rate matlab2tikz.
%
\definecolor{mycolor1}{rgb}{0.00000,0.44700,0.74100}%
\definecolor{mycolor2}{rgb}{0.85000,0.32500,0.09800}%
%
\begin{tikzpicture}

\begin{axis}[%
width=1.935in,
height=3.2in,
at={(0.758in,0.512in)},
scale only axis,
xmin=0,
xmax=200,
xlabel style={font=\color{white!15!black}, align=center},
xlabel={Sample Index\\[1ex](a) Actual},
ymin=0,
ymax=1,
axis background/.style={fill=white},
legend style={legend cell align=left, align=left, draw=white!15!black}
]
\addplot [color=mycolor1]
  table[row sep=crcr]{%
1	0.0167418731260698\\
2	0.018659722218203\\
3	0.0211495716349754\\
4	0.0245407494314006\\
5	0.029505643974117\\
6	0.0377161636169434\\
7	0.0550750576238134\\
8	0.131028403455825\\
9	0.141533477104454\\
10	0.158175166246243\\
11	0.163761757297189\\
12	0.600100605556833\\
13	0.118033417583129\\
14	0.0610914209628117\\
15	0.0426162246246858\\
16	0.0332715711707656\\
17	0.0321939439283243\\
18	0.0268871008873183\\
19	0.0316920608120786\\
20	0.0286771919664519\\
21	0.00773119825769845\\
22	0.0330073087209196\\
23	0.019415059292473\\
24	0.0177688778425817\\
25	0.0188194600762088\\
26	0.0237714798713867\\
27	0.0430806655948836\\
28	0.586023006720236\\
29	0.0970905103802927\\
30	0.0246981078960262\\
31	0.0780346253424249\\
32	0.0580455436901626\\
33	0.0681836526256362\\
34	0.163824852865525\\
35	0.0446106828365612\\
36	0.06119675966513\\
37	0.00907835157153909\\
38	0.0310093774848825\\
39	0.00125972832884384\\
40	0.005422098150711\\
41	0.0107374596162295\\
42	0.0165479326643041\\
43	0.024789327411243\\
44	0.0446277431282512\\
45	0.058019450740893\\
46	0.074843365423057\\
47	0.199666615467323\\
48	0.216838516027539\\
49	0.0783890355452335\\
50	0.0495529240878659\\
51	0.0370791446049236\\
52	0.0307530810094058\\
53	0.0155757068681131\\
54	0.0198807977432187\\
55	0.0179871495341263\\
56	0.0162887905400521\\
57	0.0148728268904216\\
58	0.0136909847461918\\
59	0.0126943671543235\\
60	0.011846112844806\\
61	0.0111233301448608\\
62	0.0105291449791113\\
63	0.0102108676347222\\
64	0.00751288118280402\\
65	0.00739035992869396\\
66	0.0116365722557393\\
67	0.00899390796280924\\
68	0.00831157148096884\\
69	0.00788086875151191\\
70	0.00754217236777393\\
71	0.00725475830161164\\
72	0.00700327644843893\\
73	0.006780818536885\\
74	0.00658453626015097\\
75	0.00641472878078445\\
76	0.00627599401250467\\
77	0.00618216997550965\\
78	0.00617516728867787\\
79	0.00642745729543014\\
80	0.00873051939586948\\
81	0.00471465923588381\\
82	0.00195996010568866\\
83	0.004980313957114\\
84	0.00475839614864904\\
85	0.00464733241660508\\
86	0.00455444244400457\\
87	0.00446749239384432\\
88	0.00438406292262191\\
89	0.00430366820355207\\
90	0.00422628355118023\\
91	0.00415201532524293\\
92	0.00408104289588831\\
93	0.00401365198230764\\
94	0.00395033763548775\\
95	0.00389203620501121\\
96	0.00384070443755282\\
97	0.00380107128140597\\
98	0.00378779867734327\\
99	0.00387836096292209\\
100	0.00228454900881806\\
101	0.00321909463290553\\
102	0.00328982387499096\\
103	0.00328100374444436\\
104	0.00325253146337885\\
105	0.00321692683031362\\
106	0.00317840637543852\\
107	0.00313876414674543\\
108	0.00309887602618152\\
109	0.00305920797263281\\
110	0.00302002111537278\\
111	0.00298146552488656\\
112	0.00294362726599965\\
113	0.0029065537719176\\
114	0.00287026833389302\\
115	0.00283477876811283\\
116	0.00280008280049957\\
117	0.00276617151884636\\
118	0.00273303164395387\\
119	0.00270064705586787\\
120	0.00266899983729428\\
121	0.00263807099659409\\
122	0.00260784097374635\\
123	0.00257828999668392\\
124	0.00254939833288439\\
125	0.00252114646667125\\
126	0.00249351522323938\\
127	0.00246648585412356\\
128	0.00244004009455901\\
129	0.00241416020024051\\
130	0.00238882896892876\\
131	0.0023640297508985\\
132	0.00233974645117835\\
133	0.00231596352577768\\
134	0.00229266597354371\\
135	0.00226983932488367\\
136	0.00224746962828519\\
137	0.00222554343533969\\
138	0.00220404778480324\\
139	0.00218297018609978\\
140	0.00216229860257188\\
141	0.00214202143470905\\
142	0.00212212750352594\\
143	0.00210260603421662\\
144	0.00208344664017788\\
145	0.00206463930746792\\
146	0.00204617437974413\\
147	0.00202804254371082\\
148	0.00201023481509265\\
149	0.00199274252514179\\
150	0.00197555730767936\\
151	0.0019586710866655\\
152	0.00194207606428942\\
153	0.00192576470956709\\
154	0.00190972974743187\\
155	0.00189396414830307\\
156	0.00187846111811499\\
157	0.00186321408878906\\
158	0.00184821670913216\\
159	0.00183346283614256\\
160	0.00181894652670628\\
161	0.00180466202966742\\
162	0.00179060377825436\\
163	0.00177676638284649\\
164	0.00176314462406556\\
165	0.00174973344617591\\
166	0.0017365279507797\\
167	0.00172352339079259\\
168	0.00171071516468654\\
169	0.00169809881098722\\
170	0.00168567000301325\\
171	0.00167342454384613\\
172	0.00166135836151948\\
173	0.00164946750441694\\
174	0.00163774813686889\\
175	0.00162619653493841\\
176	0.00161480908238697\\
177	0.00160358226681213\\
178	0.001592512675948\\
179	0.00158159699412143\\
180	0.00157083199885632\\
181	0.00156021455761888\\
182	0.00154974162469766\\
183	0.00153941023821136\\
184	0.00152921751723897\\
185	0.00151916065906659\\
186	0.00150923693654504\\
187	0.00149944369555362\\
188	0.00148977835256491\\
189	0.00148023839230615\\
190	0.0014708213655126\\
191	0.00146152488676917\\
192	0.00145234663243548\\
193	0.00144328433865201\\
194	0.00143433579942216\\
195	0.0014254988647679\\
196	0.00141677143895562\\
197	0.00140815147878894\\
198	0.00139963699196521\\
199	0\\
200	0\\
};
\addlegendentry{$\mathbf{h_1}$}

\addplot [color=mycolor2]
  table[row sep=crcr]{%
1	0.00495033386861547\\
2	0.00515738368500011\\
3	0.00538309861623286\\
4	0.00563019833310769\\
5	0.00590197136255583\\
6	0.00620243506959928\\
7	0.00653655369620811\\
8	0.00691054090538825\\
9	0.00733228812251618\\
10	0.00781198494389501\\
11	0.00836304134465097\\
12	0.0090034999823859\\
13	0.00975827527656913\\
14	0.0106628508662167\\
15	0.0117696896019869\\
16	0.0131600228416925\\
17	0.0149671880151623\\
18	0.0174273921400842\\
19	0.0210049332363351\\
20	0.0267613442180004\\
21	0.037792597580649\\
22	0.068721841139076\\
23	0.97572931769219\\
24	0.0649085399616321\\
25	0.0262918397391367\\
26	0.0126468169615953\\
27	0.00419508123086451\\
28	0.0214241856295046\\
29	0.0134643328328179\\
30	0.00412679327935559\\
31	0.0112712342656943\\
32	0.0282552508318709\\
33	0.111702725947746\\
34	0.12653020104749\\
35	0.0361926668223949\\
36	0.024130019396178\\
37	0.019518168382204\\
38	0.0163235660243771\\
39	0.0140849625225472\\
40	0.0124312948441269\\
41	0.0111552918846637\\
42	0.0101369616841952\\
43	0.00930266674553233\\
44	0.00860476970863487\\
45	0.00801105372801389\\
46	0.00749890841387189\\
47	0.00705196472677567\\
48	0.00665805661850076\\
49	0.0063079366485928\\
50	0.00599443852440938\\
51	0.00571191453485358\\
52	0.00545584764793091\\
53	0.0052225778141873\\
54	0.00500910486747672\\
55	0.00481294397681212\\
56	0.00463201789166602\\
57	0.00446457542356871\\
58	0.00430912894812168\\
59	0.00416440590497024\\
60	0.00402931074167137\\
61	0.00390289474814389\\
62	0.00378433192171684\\
63	0.00367289949042518\\
64	0.0035679620699816\\
65	0.00346895868109233\\
66	0.00337539203747226\\
67	0.00328681965070268\\
68	0.00320284639950925\\
69	0\\
70	0\\
71	0\\
72	0\\
73	0\\
74	0\\
75	0\\
76	0\\
77	0\\
78	0\\
79	0\\
80	0\\
81	0\\
82	0\\
83	0\\
84	0\\
85	0\\
86	0\\
87	0\\
88	0\\
89	0\\
90	0\\
91	0\\
92	0\\
93	0\\
94	0\\
95	0\\
96	0\\
97	0\\
98	0\\
99	0\\
100	0\\
101	0\\
102	0\\
103	0\\
104	0\\
105	0\\
106	0\\
107	0\\
108	0\\
109	0\\
110	0\\
111	0\\
112	0\\
113	0\\
114	0\\
115	0\\
116	0\\
117	0\\
118	0\\
119	0\\
120	0\\
121	0\\
122	0\\
123	0\\
124	0\\
125	0\\
126	0\\
127	0\\
128	0\\
129	0\\
130	0\\
131	0\\
132	0\\
133	0\\
134	0\\
135	0\\
136	0\\
137	0\\
138	0\\
139	0\\
140	0\\
141	0\\
142	0\\
143	0\\
144	0\\
145	0\\
146	0\\
147	0\\
148	0\\
149	0\\
150	0\\
151	0\\
152	0\\
153	0\\
154	0\\
155	0\\
156	0\\
157	0\\
158	0\\
159	0\\
160	0\\
161	0\\
162	0\\
163	0\\
164	0\\
165	0\\
166	0\\
167	0\\
168	0\\
169	0\\
170	0\\
171	0\\
172	0\\
173	0\\
174	0\\
175	0\\
176	0\\
177	0\\
178	0\\
179	0\\
180	0\\
181	0\\
182	0\\
183	0\\
184	0\\
185	0\\
186	0\\
187	0\\
188	0\\
189	0\\
190	0\\
191	0\\
192	0\\
193	0\\
194	0\\
195	0\\
196	0\\
197	0\\
198	0\\
199	0\\
200	0\\
};
\addlegendentry{$\mathbf{h_{2}}$}

\end{axis}

\begin{axis}[%
width=1.935in,
height=3.2in,
at={(3.327in,0.512in)},
scale only axis,
xmin=0,
xmax=200,
xlabel style={font=\color{white!15!black}, align=center},
xlabel={Sample Index\\[1ex](b) Estimated},
ymin=0,
ymax=0.25,
axis background/.style={fill=white},
legend style={legend cell align=left, align=left, draw=white!15!black}
]
\addplot [color=mycolor1]
  table[row sep=crcr]{%
0	0.0939273944304736\\
1	0.0651461776446384\\
2	0.0792536048367068\\
3	0.0842750398339189\\
4	0.0328445408642715\\
5	0.0196014883700126\\
6	0.0676123369013138\\
7	0.0530498434942587\\
8	0.0649570792098706\\
9	0.0105677340649641\\
10	0.0408292030784333\\
11	0.0328729689826651\\
12	0.0614070668179064\\
13	0.0926071914279898\\
14	0.0148559201106135\\
15	0.0358347994608383\\
16	0.0319737387776755\\
17	0.0209064923064367\\
18	0.113689164382436\\
19	0.0591038872273216\\
20	0.0720565732249687\\
21	0.0959252807580349\\
22	0.0222811532513271\\
23	0.0989303830942938\\
24	0.0789509413233625\\
25	0.0154037443048175\\
26	0.0910512899375103\\
27	0.068732929826935\\
28	0.174777906474595\\
29	0.0259554449375598\\
30	0.0655697791417982\\
31	0.0747293416732346\\
32	0.0532678308340131\\
33	0.0939730186801342\\
34	0.0356749127348193\\
35	0.152743199112985\\
36	0.0553452260753258\\
37	0.0198234610574689\\
38	0.126437609618028\\
39	0.09992108577352\\
40	0.0701205406093115\\
41	0.0219831745036895\\
42	0.107379973519847\\
43	0.0400164368892869\\
44	0.0401430466886353\\
45	0.033207499093281\\
46	0.0256410421243977\\
47	0.124474168187291\\
48	0.0143734324064716\\
49	0.00855943958072968\\
50	0.0431146973378044\\
51	0.141321740086139\\
52	0.0582842672002033\\
53	0.0451572138943824\\
54	0.0314296434592647\\
55	0.0138615035717957\\
56	0.0334194693010027\\
57	0.0289306397490463\\
58	0.0818221214075614\\
59	0.0407879863825487\\
60	0.0503409416295571\\
61	0.0726459120734504\\
62	0.0278454723863844\\
63	0.0798306749084068\\
64	0.0254133272584909\\
65	0.092597758784358\\
66	0.055713787816808\\
67	0.0438258179121952\\
68	0.0554051198577254\\
69	0.123015099864582\\
70	0.0826144161315316\\
71	0.0269422798571621\\
72	0.0465477796634678\\
73	0.0584312999427283\\
74	0.0787728401046882\\
75	0.0218732984578687\\
76	0.0326706651865322\\
77	0.0478729502586301\\
78	0.0432646285939685\\
79	0.139404587263889\\
80	0.0825054783498736\\
81	0.0834538929987118\\
82	0.0723986194410239\\
83	0.0228746220415136\\
84	0.0402818556824663\\
85	0.103179272616717\\
86	0.0473943853229635\\
87	0.0687804819268064\\
88	0.0594997937403302\\
89	0.0418399130081468\\
90	0.160796694239731\\
91	0.0840954939765518\\
92	0.0466180841645607\\
93	0.0859694070162107\\
94	0.031029582537654\\
95	0.105644801678679\\
96	0.0162283294513809\\
97	0.0649935344413814\\
98	0.116396837827809\\
99	0.0889455910910257\\
100	0.0479595038385683\\
101	0.0488179354080156\\
102	0.185315201448979\\
103	0.0622082971396635\\
104	0.0317616217373969\\
105	0.0311135610360328\\
106	0.0597610980683419\\
107	0.0370714092547563\\
108	0.0392407359542596\\
109	0.0706236198238455\\
110	0.0379053842060691\\
111	0.0497606253241286\\
112	0.0361984296637334\\
113	0.0340079565142026\\
114	0.0920879867511527\\
115	0.0718030060477848\\
116	0.0320630261215634\\
117	0.0732170074758223\\
118	0.0648493864494057\\
119	0.0756705877230767\\
120	0.0630811433687013\\
121	0.0945353063009589\\
122	0.0618703157577936\\
123	0.0505965293839804\\
124	0.036062936207877\\
125	0.0384593530046092\\
126	0.0137503043963048\\
127	0.0693832710107406\\
128	0.0176153637819512\\
129	0.0235065256071118\\
130	0.038361605838985\\
131	0.069506145275185\\
132	0.0252111469103443\\
133	0.0277325701879143\\
134	0.0390126951562099\\
135	0.1491642257059\\
136	0.044074917417616\\
137	0.0079042007884741\\
138	0.0432483936040476\\
139	0.0909430809559149\\
140	0.0751768024040566\\
141	0.0186965534424926\\
142	0.00866540853377135\\
143	0.0268754073152638\\
144	0.0571141305606306\\
145	0.0306444257319449\\
146	0.0330485730635352\\
147	0.0651570250136367\\
148	0.0126410291085807\\
149	0.0399604157627815\\
150	0.126982404278457\\
151	0.0311690809254035\\
152	0.0206505473946728\\
153	0.162434095732463\\
154	0.0254001584472631\\
155	0.0521699869967354\\
156	0.0256641797911572\\
157	0.0484435394741628\\
158	0.0130850668564168\\
159	0.0236423875738494\\
160	0.0948677745041921\\
161	0.0388033674485572\\
162	0.141844660059451\\
163	0.0331987931871604\\
164	0.046424813428298\\
165	0.0517298107064166\\
166	0.122545664363645\\
167	0.0364379225569766\\
168	0.0138825012020829\\
169	0.0460817381823946\\
170	0.0925039154143145\\
171	0.0140755110501169\\
172	0.0396327872198619\\
173	0.124575939284126\\
174	0.0845909944737885\\
175	0.0388962039746089\\
176	0.0920616536972176\\
177	0.0770498046942556\\
178	0.0205979083566827\\
179	0.028747439994417\\
180	0.0458721121921798\\
181	0.11381298628102\\
182	0.0367302486860018\\
183	0.0133942940203343\\
184	0.0824593652303184\\
185	0.0778952815614645\\
186	0.120784911891272\\
187	0.0440487660839728\\
188	0.00262622277240427\\
189	0.191560171796665\\
190	0.049393392581011\\
191	0.122181474609148\\
192	0.0150322037200094\\
193	0.0690969933585763\\
194	0.0699423553737521\\
195	0.118572292137682\\
196	0.052580391725148\\
197	0.089945282101362\\
198	0.0758606011501878\\
199	0.0509650378479183\\
};
\addlegendentry{$\mathbf{\hat{h}_{1}}$}

\addplot [color=mycolor2]
  table[row sep=crcr]{%
0	0.0580939140373169\\
1	0.0718079884067111\\
2	0.0276015314661907\\
3	0.109076920907261\\
4	0.0430403343247938\\
5	0.0209397460528605\\
6	0.0819065769154056\\
7	0.160442177463519\\
8	0.087928194339852\\
9	0.00496803446042796\\
10	0.0100452623381614\\
11	0.0956400659290489\\
12	0.0589877289131123\\
13	0.166667183339518\\
14	0.0179524867938693\\
15	0.0379206893866756\\
16	0.0498668030720088\\
17	0.0231227707895235\\
18	0.0425880743312183\\
19	0.0514115456537185\\
20	0.0197150520994512\\
21	0.141942169177836\\
22	0.0180674148497189\\
23	0.0523384552136137\\
24	0.0295940904439788\\
25	0.0537060820892612\\
26	0.0554333949756258\\
27	0.0568659926261844\\
28	0.0951909135146444\\
29	0.0199973942205328\\
30	0.159030113345942\\
31	0.057513230039789\\
32	0.0666155867104586\\
33	0.0112374679192499\\
34	0.115863642636088\\
35	0.0697893284219945\\
36	0.0225638453471647\\
37	0.0247402346678734\\
38	0.00168999720920657\\
39	0.0495318804060559\\
40	0.0470133612501244\\
41	0.019288086960702\\
42	0.104904843753877\\
43	0.0840039482162771\\
44	0.0152117873245496\\
45	0.0831523592095242\\
46	0.0788518645500905\\
47	0.0128259852973837\\
48	0.0117072737872485\\
49	0.0406322335026103\\
50	0.153202065607526\\
51	0.0841364857236568\\
52	0.0427799234285388\\
53	0.0547112158914204\\
54	0.00858353386166304\\
55	0.00855205629350149\\
56	0.12137143407091\\
57	0.0195175342886044\\
58	0.0373577929110822\\
59	0.0550068332076995\\
60	0.0426582842339376\\
61	0.0271392473895029\\
62	0.0325758645115881\\
63	0.0369837956161022\\
64	0.00868038420507549\\
65	0.0303513966875414\\
66	0.0440127258539927\\
67	0.0256996853601673\\
68	0.179111066955223\\
69	0.0204337191769535\\
70	0.105076680442858\\
71	0.0272540836035292\\
72	0.178382913446971\\
73	0.0415808506961226\\
74	0.019311142520233\\
75	0.082847842515043\\
76	0.0152589450256982\\
77	0.077584071944948\\
78	0.0687782127826311\\
79	0.0448539746677655\\
80	0.112343044567739\\
81	0.018533739059563\\
82	0.0453921893763812\\
83	0.163672166469095\\
84	0.0375094782148213\\
85	0.00424760711549211\\
86	0.167673927815377\\
87	0.0576525495902145\\
88	0.136682977897084\\
89	0.203664202153549\\
90	0.0455751060106303\\
91	0.0393919412560205\\
92	0.0984316623272907\\
93	0.0919391497971073\\
94	0.0677725805470243\\
95	0.109443384976233\\
96	0.0563585390326707\\
97	0.067574970358791\\
98	0.0189280901283659\\
99	0.0480708539064926\\
100	0.0113611909417133\\
101	0.145081090044687\\
102	0.189687755300289\\
103	0.0937945952767416\\
104	0.0395744990108636\\
105	0.0658014549642746\\
106	0.0246440445441913\\
107	0.0688277212456074\\
108	0.0644908843985624\\
109	0.0495000284412134\\
110	0.0418643561509142\\
111	0.0742949616357009\\
112	0.078307657258451\\
113	0.0465059148637187\\
114	0.0320720826444332\\
115	0.0446150250635609\\
116	0.00965736679264493\\
117	0.0491746804941135\\
118	0.0636038302500761\\
119	0.0834547776580264\\
120	0.0100944264567739\\
121	0.0621092371781158\\
122	0.0670679578714028\\
123	0.0254958669552479\\
124	0.0828534651361293\\
125	0.0577071139118236\\
126	0.014071363297219\\
127	0.0523896879698349\\
128	0.050066477581238\\
129	0.0602651012405553\\
130	0.0697710257079271\\
131	0.0860917502526132\\
132	0.0241824383012076\\
133	0.061980388607702\\
134	0.0578043793037348\\
135	0.0784546900299689\\
136	0.0565718644504222\\
137	0.0164089002133753\\
138	0.021152971543802\\
139	0.0538191670007376\\
140	0.0512852379777986\\
141	0.0870793242880595\\
142	0.0518767419808697\\
143	0.0609768069541942\\
144	0.0671876220652952\\
145	0.0312687115431114\\
146	0.062168108543246\\
147	0.0163400006652013\\
148	0.0238467788793137\\
149	0.031503382297708\\
150	0.0308609075547628\\
151	0.0369928398453588\\
152	0.101396960045545\\
153	0.0230721153393062\\
154	0.0236739034623275\\
155	0.0408961431967451\\
156	0.019592622667024\\
157	0.0885784971615068\\
158	0.036485209851383\\
159	0.0040617460362339\\
160	0.0538458943270178\\
161	0.0172894392281113\\
162	0.0405486573523478\\
163	0.107541199288861\\
164	0.0490962885099446\\
165	0.0398161881851344\\
166	0.0200037422014625\\
167	0.0721438470099005\\
168	0.0270338208785007\\
169	0.0563184449595188\\
170	0.0935536100831575\\
171	0.00996793636282705\\
172	0.0101215791846447\\
173	0.106663485177\\
174	0.0485095484725362\\
175	0.0519297960231335\\
176	0.121246614997833\\
177	0.0819685464921152\\
178	0.0165663979869847\\
179	0.0978078356273674\\
180	0.0926282017349043\\
181	0.00795396746409936\\
182	0.0526923014209695\\
183	0.0135012467506458\\
184	0.0372131803265579\\
185	0.0668854647612397\\
186	0.0293745889296051\\
187	0.0559638566047239\\
188	0.0636995351980334\\
189	0.0564042235960515\\
190	0.185573648619901\\
191	0.103117135242882\\
192	0.0826338165069432\\
193	0.0300032348419318\\
194	0.0215662758236422\\
195	0.0358924422693236\\
196	0.0259062873522659\\
197	0.0756382074039949\\
198	0.0096785006640717\\
199	0.0283642202377287\\
};
\addlegendentry{$\mathbf{\hat{h}_{2}}$}

\end{axis}
\end{tikzpicture}%