% This file was created by matlab2tikz.
%
%The latest updates can be retrieved from
%  http://www.mathworks.com/matlabcentral/fileexchange/22022-matlab2tikz-matlab2tikz
%where you can also make suggestions and rate matlab2tikz.
%
\definecolor{mycolor1}{rgb}{0.00000,0.44700,0.74100}%
\definecolor{mycolor2}{rgb}{0.85000,0.32500,0.09800}%
%
\begin{tikzpicture}

\begin{axis}[%
width=1.935in,
height=3.2in,
at={(0.758in,0.512in)},
scale only axis,
xmin=0,
xmax=200,
xlabel style={font=\color{white!15!black}, align=center},
xlabel={Sample Index\\[1ex](a) Actual},
ymin=0,
ymax=1,
axis background/.style={fill=white},
legend style={legend cell align=left, align=left, draw=white!15!black}
]
\addplot [color=mycolor1]
  table[row sep=crcr]{%
1	0.0167418731260698\\
2	0.018659722218203\\
3	0.0211495716349754\\
4	0.0245407494314006\\
5	0.029505643974117\\
6	0.0377161636169434\\
7	0.0550750576238134\\
8	0.131028403455825\\
9	0.141533477104454\\
10	0.158175166246243\\
11	0.163761757297189\\
12	0.600100605556833\\
13	0.118033417583129\\
14	0.0610914209628117\\
15	0.0426162246246858\\
16	0.0332715711707656\\
17	0.0321939439283243\\
18	0.0268871008873183\\
19	0.0316920608120786\\
20	0.0286771919664519\\
21	0.00773119825769845\\
22	0.0330073087209196\\
23	0.019415059292473\\
24	0.0177688778425817\\
25	0.0188194600762088\\
26	0.0237714798713867\\
27	0.0430806655948836\\
28	0.586023006720236\\
29	0.0970905103802927\\
30	0.0246981078960262\\
31	0.0780346253424249\\
32	0.0580455436901626\\
33	0.0681836526256362\\
34	0.163824852865525\\
35	0.0446106828365612\\
36	0.06119675966513\\
37	0.00907835157153909\\
38	0.0310093774848825\\
39	0.00125972832884384\\
40	0.005422098150711\\
41	0.0107374596162295\\
42	0.0165479326643041\\
43	0.024789327411243\\
44	0.0446277431282512\\
45	0.058019450740893\\
46	0.074843365423057\\
47	0.199666615467323\\
48	0.216838516027539\\
49	0.0783890355452335\\
50	0.0495529240878659\\
51	0.0370791446049236\\
52	0.0307530810094058\\
53	0.0155757068681131\\
54	0.0198807977432187\\
55	0.0179871495341263\\
56	0.0162887905400521\\
57	0.0148728268904216\\
58	0.0136909847461918\\
59	0.0126943671543235\\
60	0.011846112844806\\
61	0.0111233301448608\\
62	0.0105291449791113\\
63	0.0102108676347222\\
64	0.00751288118280402\\
65	0.00739035992869396\\
66	0.0116365722557393\\
67	0.00899390796280924\\
68	0.00831157148096884\\
69	0.00788086875151191\\
70	0.00754217236777393\\
71	0.00725475830161164\\
72	0.00700327644843893\\
73	0.006780818536885\\
74	0.00658453626015097\\
75	0.00641472878078445\\
76	0.00627599401250467\\
77	0.00618216997550965\\
78	0.00617516728867787\\
79	0.00642745729543014\\
80	0.00873051939586948\\
81	0.00471465923588381\\
82	0.00195996010568866\\
83	0.004980313957114\\
84	0.00475839614864904\\
85	0.00464733241660508\\
86	0.00455444244400457\\
87	0.00446749239384432\\
88	0.00438406292262191\\
89	0.00430366820355207\\
90	0.00422628355118023\\
91	0.00415201532524293\\
92	0.00408104289588831\\
93	0.00401365198230764\\
94	0.00395033763548775\\
95	0.00389203620501121\\
96	0.00384070443755282\\
97	0.00380107128140597\\
98	0.00378779867734327\\
99	0.00387836096292209\\
100	0.00228454900881806\\
101	0.00321909463290553\\
102	0.00328982387499096\\
103	0.00328100374444436\\
104	0.00325253146337885\\
105	0.00321692683031362\\
106	0.00317840637543852\\
107	0.00313876414674543\\
108	0.00309887602618152\\
109	0.00305920797263281\\
110	0.00302002111537278\\
111	0.00298146552488656\\
112	0.00294362726599965\\
113	0.0029065537719176\\
114	0.00287026833389302\\
115	0.00283477876811283\\
116	0.00280008280049957\\
117	0.00276617151884636\\
118	0.00273303164395387\\
119	0.00270064705586787\\
120	0.00266899983729428\\
121	0.00263807099659409\\
122	0.00260784097374635\\
123	0.00257828999668392\\
124	0.00254939833288439\\
125	0.00252114646667125\\
126	0.00249351522323938\\
127	0.00246648585412356\\
128	0.00244004009455901\\
129	0.00241416020024051\\
130	0.00238882896892876\\
131	0.0023640297508985\\
132	0.00233974645117835\\
133	0.00231596352577768\\
134	0.00229266597354371\\
135	0.00226983932488367\\
136	0.00224746962828519\\
137	0.00222554343533969\\
138	0.00220404778480324\\
139	0.00218297018609978\\
140	0.00216229860257188\\
141	0.00214202143470905\\
142	0.00212212750352594\\
143	0.00210260603421662\\
144	0.00208344664017788\\
145	0.00206463930746792\\
146	0.00204617437974413\\
147	0.00202804254371082\\
148	0.00201023481509265\\
149	0.00199274252514179\\
150	0.00197555730767936\\
151	0.0019586710866655\\
152	0.00194207606428942\\
153	0.00192576470956709\\
154	0.00190972974743187\\
155	0.00189396414830307\\
156	0.00187846111811499\\
157	0.00186321408878906\\
158	0.00184821670913216\\
159	0.00183346283614256\\
160	0.00181894652670628\\
161	0.00180466202966742\\
162	0.00179060377825436\\
163	0.00177676638284649\\
164	0.00176314462406556\\
165	0.00174973344617591\\
166	0.0017365279507797\\
167	0.00172352339079259\\
168	0.00171071516468654\\
169	0.00169809881098722\\
170	0.00168567000301325\\
171	0.00167342454384613\\
172	0.00166135836151948\\
173	0.00164946750441694\\
174	0.00163774813686889\\
175	0.00162619653493841\\
176	0.00161480908238697\\
177	0.00160358226681213\\
178	0.001592512675948\\
179	0.00158159699412143\\
180	0.00157083199885632\\
181	0.00156021455761888\\
182	0.00154974162469766\\
183	0.00153941023821136\\
184	0.00152921751723897\\
185	0.00151916065906659\\
186	0.00150923693654504\\
187	0.00149944369555362\\
188	0.00148977835256491\\
189	0.00148023839230615\\
190	0.0014708213655126\\
191	0.00146152488676917\\
192	0.00145234663243548\\
193	0.00144328433865201\\
194	0.00143433579942216\\
195	0.0014254988647679\\
196	0.00141677143895562\\
197	0.00140815147878894\\
198	0.00139963699196521\\
199	0\\
200	0\\
};
\addlegendentry{$\mathbf{h_1}$}

\addplot [color=mycolor2]
  table[row sep=crcr]{%
1	0.00495033386861547\\
2	0.00515738368500011\\
3	0.00538309861623286\\
4	0.00563019833310769\\
5	0.00590197136255583\\
6	0.00620243506959928\\
7	0.00653655369620811\\
8	0.00691054090538825\\
9	0.00733228812251618\\
10	0.00781198494389501\\
11	0.00836304134465097\\
12	0.0090034999823859\\
13	0.00975827527656913\\
14	0.0106628508662167\\
15	0.0117696896019869\\
16	0.0131600228416925\\
17	0.0149671880151623\\
18	0.0174273921400842\\
19	0.0210049332363351\\
20	0.0267613442180004\\
21	0.037792597580649\\
22	0.068721841139076\\
23	0.97572931769219\\
24	0.0649085399616321\\
25	0.0262918397391367\\
26	0.0126468169615953\\
27	0.00419508123086451\\
28	0.0214241856295046\\
29	0.0134643328328179\\
30	0.00412679327935559\\
31	0.0112712342656943\\
32	0.0282552508318709\\
33	0.111702725947746\\
34	0.12653020104749\\
35	0.0361926668223949\\
36	0.024130019396178\\
37	0.019518168382204\\
38	0.0163235660243771\\
39	0.0140849625225472\\
40	0.0124312948441269\\
41	0.0111552918846637\\
42	0.0101369616841952\\
43	0.00930266674553233\\
44	0.00860476970863487\\
45	0.00801105372801389\\
46	0.00749890841387189\\
47	0.00705196472677567\\
48	0.00665805661850076\\
49	0.0063079366485928\\
50	0.00599443852440938\\
51	0.00571191453485358\\
52	0.00545584764793091\\
53	0.0052225778141873\\
54	0.00500910486747672\\
55	0.00481294397681212\\
56	0.00463201789166602\\
57	0.00446457542356871\\
58	0.00430912894812168\\
59	0.00416440590497024\\
60	0.00402931074167137\\
61	0.00390289474814389\\
62	0.00378433192171684\\
63	0.00367289949042518\\
64	0.0035679620699816\\
65	0.00346895868109233\\
66	0.00337539203747226\\
67	0.00328681965070268\\
68	0.00320284639950925\\
69	0\\
70	0\\
71	0\\
72	0\\
73	0\\
74	0\\
75	0\\
76	0\\
77	0\\
78	0\\
79	0\\
80	0\\
81	0\\
82	0\\
83	0\\
84	0\\
85	0\\
86	0\\
87	0\\
88	0\\
89	0\\
90	0\\
91	0\\
92	0\\
93	0\\
94	0\\
95	0\\
96	0\\
97	0\\
98	0\\
99	0\\
100	0\\
101	0\\
102	0\\
103	0\\
104	0\\
105	0\\
106	0\\
107	0\\
108	0\\
109	0\\
110	0\\
111	0\\
112	0\\
113	0\\
114	0\\
115	0\\
116	0\\
117	0\\
118	0\\
119	0\\
120	0\\
121	0\\
122	0\\
123	0\\
124	0\\
125	0\\
126	0\\
127	0\\
128	0\\
129	0\\
130	0\\
131	0\\
132	0\\
133	0\\
134	0\\
135	0\\
136	0\\
137	0\\
138	0\\
139	0\\
140	0\\
141	0\\
142	0\\
143	0\\
144	0\\
145	0\\
146	0\\
147	0\\
148	0\\
149	0\\
150	0\\
151	0\\
152	0\\
153	0\\
154	0\\
155	0\\
156	0\\
157	0\\
158	0\\
159	0\\
160	0\\
161	0\\
162	0\\
163	0\\
164	0\\
165	0\\
166	0\\
167	0\\
168	0\\
169	0\\
170	0\\
171	0\\
172	0\\
173	0\\
174	0\\
175	0\\
176	0\\
177	0\\
178	0\\
179	0\\
180	0\\
181	0\\
182	0\\
183	0\\
184	0\\
185	0\\
186	0\\
187	0\\
188	0\\
189	0\\
190	0\\
191	0\\
192	0\\
193	0\\
194	0\\
195	0\\
196	0\\
197	0\\
198	0\\
199	0\\
200	0\\
};
\addlegendentry{$\mathbf{h_{2}}$}

\end{axis}

\begin{axis}[%
width=1.935in,
height=3.2in,
at={(3.327in,0.512in)},
scale only axis,
xmin=0,
xmax=100,
xlabel style={font=\color{white!15!black}, align=center},
xlabel={Sample Index\\[1ex](b) Estimated},
ymin=0,
ymax=1,
axis background/.style={fill=white},
legend style={legend cell align=left, align=left, draw=white!15!black}
]
\addplot [color=mycolor1]
  table[row sep=crcr]{%
0	0.0371456815420015\\
1	0.0176646526593176\\
2	0.0399885649390487\\
3	0.00380126818654112\\
4	0.0235272751611195\\
5	0.0137010633188236\\
6	0.0116806203924625\\
7	0.0130429459377507\\
8	0.0103276199415368\\
9	0.00603863383362495\\
10	0.00183184636325761\\
11	0.00263416577886801\\
12	0.0340373868209139\\
13	0.0229253631010356\\
14	0.0046021708183651\\
15	0.0368161768963736\\
16	0.023305459237004\\
17	0.0216479880460706\\
18	0.0930131627657796\\
19	0.0476138331589652\\
20	0.0584374968270074\\
21	0.0110117655895141\\
22	0.0938220839377917\\
23	0.027417755999759\\
24	0.0331649805634585\\
25	0.0292191498279983\\
26	0.0147299213479249\\
27	0.0750152362298454\\
28	0.0153300558775438\\
29	0.00863250925480725\\
30	0.0133243702832274\\
31	0.0306393704888435\\
32	0.0480149912937365\\
33	0.0856949116164019\\
34	0.154636227923685\\
35	0.0863038928898068\\
36	0.133471844429157\\
37	0.213772942804976\\
38	0.54349969332349\\
39	0.122735430275732\\
40	0.0616431246464318\\
41	0.0253439218519347\\
42	0.0382172392987267\\
43	0.0354156944147186\\
44	0.0683073156255872\\
45	0.0189544666238102\\
46	0.027469837567291\\
47	0.0232934503021054\\
48	0.0621023305845081\\
49	0.0477664276432506\\
50	0.0292610614339821\\
51	0.0539047194862991\\
52	0.0800069987942253\\
53	0.0705205618614538\\
54	0.55369301789811\\
55	0.138267474226129\\
56	0.0193038148700474\\
57	0.0801060426504742\\
58	0.0672838129629995\\
59	0.0764628579492681\\
60	0.154003202787925\\
61	0.0335761936730548\\
62	0.0396056907385828\\
63	0.0246928658501641\\
64	0.00779884005280048\\
65	0.0312998583240444\\
66	0.012566859952627\\
67	0.0118030397885665\\
68	0.0129640992350307\\
69	0.0296073798333851\\
70	0.124585589033904\\
71	0.0880063366941704\\
72	0.0808810879175291\\
73	0.214182188888815\\
74	0.166467966840064\\
75	0.082948792247748\\
76	0.0581180797508613\\
77	0.00401597577848797\\
78	0.039712310991461\\
79	0.0274387451192595\\
80	0.00575678019439739\\
81	0.0160273990128994\\
82	0.0287660195778555\\
83	0.0218463220940506\\
84	0.00650529397003041\\
85	0.0257663903591538\\
86	0.0272074998183131\\
87	0.0265207569037529\\
88	0.0320771043644335\\
89	0.0790728867571532\\
90	0.0627914600857686\\
91	0.0313663972848768\\
92	0.0348112014482612\\
93	0.0353208136808578\\
94	0.0245358515412766\\
95	0.0152346250776018\\
96	0.0236400653574462\\
97	0.00964320278936353\\
98	0.0114789807459354\\
99	0.0128284770894792\\
};
\addlegendentry{$\mathbf{\hat{h}_{1}}$}

\addplot [color=mycolor2]
  table[row sep=crcr]{%
0	0.0080576639280794\\
1	0.00604626177088567\\
2	0.00910471821814791\\
3	0.00522718664859484\\
4	0.00402587630262159\\
5	0.0088548741498523\\
6	0.00127913468434553\\
7	0.00694020463750079\\
8	0.00771786059843985\\
9	0.0134764945820641\\
10	0.018309816071041\\
11	0.0284656839199774\\
12	0.00687684081059297\\
13	0.0489988851357208\\
14	0.0245325750805504\\
15	0.0242272550020542\\
16	0.0316637054396199\\
17	0.0214365224672721\\
18	0.00867394014928686\\
19	0.0141366225582237\\
20	0.00797142211212383\\
21	0.00268991054648766\\
22	0.00710674117393087\\
23	0.0187320561517215\\
24	0.00772097018974593\\
25	0.00384387115070779\\
26	0.0261327267156095\\
27	0.0309015135176142\\
28	0.0212124939904634\\
29	0.0538492772759422\\
30	0.0632813467242693\\
31	0.045735066406638\\
32	0.0138671404078573\\
33	0.160294530136162\\
34	0.0267704829120632\\
35	0.0134242283199337\\
36	0.0330861556794333\\
37	0.0154816067429128\\
38	0.0391958472361381\\
39	0.0371137938005506\\
40	0.0275065188129902\\
41	0.0320366329961996\\
42	0.0115812560547701\\
43	0.0178001837010177\\
44	0.0249190136143029\\
45	0.0226459217745374\\
46	0.0598056883212096\\
47	0.0329516872692464\\
48	0.0126099878329521\\
49	0.940353998349225\\
50	0.0131703088542204\\
51	0.0330417062130437\\
52	0.0591159680143989\\
53	0.0225273452793541\\
54	0.0245144606556853\\
55	0.0178053925274988\\
56	0.0114456793513504\\
57	0.032395686262917\\
58	0.0273449958830962\\
59	0.0377527491471054\\
60	0.0398882536815217\\
61	0.0157415922041624\\
62	0.033629355446838\\
63	0.0131773317804095\\
64	0.0269117119543331\\
65	0.16046329010595\\
66	0.0127475350964448\\
67	0.0470090253470145\\
68	0.062773747849872\\
69	0.0540770886958912\\
70	0.020731266202657\\
71	0.0312987445960094\\
72	0.0275431440193567\\
73	0.00338120920769348\\
74	0.00565904311963816\\
75	0.0175078665974424\\
76	0.00542478393370079\\
77	0.00258221815358285\\
78	0.00707400580876767\\
79	0.0133128845663731\\
80	0.00684504072178253\\
81	0.0191022416044926\\
82	0.0237281193406187\\
83	0.0231461813209172\\
84	0.0261997490752233\\
85	0.0438611014783377\\
86	0.00539334716102688\\
87	0.025680279179834\\
88	0.0280887992347982\\
89	0.0158367049603355\\
90	0.0069830348084624\\
91	0.00978172601175543\\
92	0.00503613566640308\\
93	0.0101340320695897\\
94	0.0089041790505145\\
95	0.00910384934307664\\
96	0.0119498230294038\\
97	0.0102190664381319\\
98	0.00337489466293058\\
99	0.00707768992254439\\
};
\addlegendentry{$\mathbf{\hat{h}_{2}}$}

\end{axis}
\end{tikzpicture}%