% This file was created by matlab2tikz.
%
%The latest updates can be retrieved from
%  http://www.mathworks.com/matlabcentral/fileexchange/22022-matlab2tikz-matlab2tikz
%where you can also make suggestions and rate matlab2tikz.
%
\definecolor{mycolor1}{rgb}{0.00000,0.44700,0.74100}%
\definecolor{mycolor2}{rgb}{0.85000,0.32500,0.09800}%
%
\begin{tikzpicture}

\begin{axis}[%
width=1.952in,
height=3.2in,
at={(0.758in,0.512in)},
scale only axis,
xmin=0,
xmax=20,
xlabel style={font=\color{white!15!black}, align=center},
xlabel={Sample Index\\[1ex](a) Actual},
ymin=0,
ymax=0.9,
axis background/.style={fill=white},
legend style={legend cell align=left, align=left, draw=white!15!black}
]
\addplot [color=mycolor1]
  table[row sep=crcr]{%
1	0.0444337104356374\\
2	0.738127803558165\\
3	0.357839506790865\\
4	0.481268775571525\\
5	0.10955194752004\\
6	0.267783168107473\\
7	0.0769544524124665\\
8	0.0372836026936495\\
9	0.027789744685169\\
10	0.0196434178633453\\
11	0.0212138243269196\\
12	0.0147156812719569\\
13	0.0126517206023441\\
14	0.0111331007215966\\
15	0.00994473974674355\\
16	0.00898571135769806\\
17	0.00819466874468931\\
18	0.00753086667278431\\
19	0.00696589032366256\\
20	0.00647923877975415\\
};
\addlegendentry{$\mathbf{h_1}$}

\addplot [color=mycolor2]
  table[row sep=crcr]{%
1	0.0696363384444256\\
2	0.13399148454392\\
3	0.889181852408627\\
4	0.426869408918664\\
5	0.0527923084371181\\
6	0.0393468637154593\\
7	0\\
8	0\\
9	0\\
10	0\\
11	0\\
12	0\\
13	0\\
14	0\\
15	0\\
16	0\\
17	0\\
18	0\\
19	0\\
20	0\\
};
\addlegendentry{$\mathbf{h_{2}}$}

\end{axis}

\begin{axis}[%
width=1.952in,
height=3.2in,
at={(3.327in,0.512in)},
scale only axis,
xmin=0,
xmax=20,
xlabel style={font=\color{white!15!black}, align=center},
xlabel={Sample Index\\[1ex](b) Estimated},
ymin=-0.2,
ymax=1,
axis background/.style={fill=white},
legend style={legend cell align=left, align=left, draw=white!15!black}
]
\addplot [color=mycolor1]
  table[row sep=crcr]{%
0	0.0290375859839466\\
0.25	0.0289858709494801\\
0.5	0.029032271318285\\
0.75	0.0292375170831414\\
1	0.0295950282499342\\
1.25	0.0300376654677762\\
1.5	0.0303754600943505\\
1.75	0.0304006051490136\\
2	0.0299158410444077\\
2.25	0.0288250382160215\\
2.5	0.0270623480641907\\
2.75	0.0247554878158676\\
3	0.0222120712081157\\
3.25	0.0192407050290874\\
3.5	0.0174375374170367\\
3.75	0.0176349634962245\\
4	0.0203392670432374\\
4.25	0.0262890673995022\\
4.5	0.0339501649725633\\
4.75	0.0422625951418295\\
5	0.0502704256508578\\
5.25	0.0550697904308166\\
5.5	0.0604498404088422\\
5.75	0.0681325464776531\\
6	0.0796619428420076\\
6.25	0.104628523480719\\
6.5	0.130318524996691\\
6.75	0.153774893725822\\
7	0.175112910883616\\
7.25	0.177403133409921\\
7.5	0.200390577908944\\
7.75	0.260230590849508\\
8	0.363914849301041\\
8.25	0.539995153357016\\
8.5	0.712839564936041\\
8.75	0.83735793986063\\
9	0.87609722992358\\
9.25	0.766967399146993\\
9.5	0.582406149560859\\
9.75	0.368378638424895\\
10	0.175050801284174\\
10.25	0.0827837771055224\\
10.5	0.0530900089416365\\
10.75	0.0701618374047643\\
11	0.108327736527538\\
11.25	0.114582060966032\\
11.5	0.109138755662767\\
11.75	0.0929215614855343\\
12	0.0720244770520487\\
12.25	0.0666790347033643\\
12.5	0.0651103847461458\\
12.75	0.0663831950748197\\
13	0.068534676029683\\
13.25	0.0657135852918263\\
13.5	0.0615569539046805\\
13.75	0.0564048709960441\\
14	0.0507498416421775\\
14.25	0.045698010295464\\
14.5	0.040598930065381\\
14.75	0.0353368115041323\\
15	0.029808378221073\\
15.25	0.0233731552450689\\
15.5	0.0172868030746033\\
15.75	0.0122218060357057\\
16	0.00878194873037747\\
16.25	0.00773559662896197\\
16.5	0.00855646922833055\\
16.75	0.0108189290798913\\
17	0.0139106390259956\\
17.25	0.0169023446859071\\
17.5	0.0195950658403745\\
17.75	0.0216535778020881\\
18	0.022895557102177\\
18.25	0.0233745947002242\\
18.5	0.0230753955355956\\
18.75	0.0221829880577306\\
19	0.0209704013775133\\
19.25	0.0197493220628068\\
19.5	0.0188535402901728\\
19.75	0.0185577154203132\\
};
\addlegendentry{$\mathbf{\hat{h}_{1}}$}

\addplot [color=mycolor2]
  table[row sep=crcr]{%
0	0.00671566340564442\\
0.25	0.00655580395798689\\
0.5	0.00637916101134962\\
0.75	0.00617481018937573\\
1	0.00594294648990313\\
1.25	0.00567402301305679\\
1.5	0.00543316782506735\\
1.75	0.00526883370504188\\
2	0.00522684909085912\\
2.25	0.00536987332859705\\
2.5	0.00567252425326636\\
2.75	0.00612507418109786\\
3	0.00671238775791646\\
3.25	0.00731001776135968\\
3.5	0.00808190361493257\\
3.75	0.00906822617186866\\
4	0.0102748297655304\\
4.25	0.0117496322065653\\
4.5	0.0132741848909969\\
4.75	0.0147135559981023\\
5	0.0159719712110874\\
5.25	0.012860717149317\\
5.5	0.0117921351030044\\
5.75	0.0143273763149635\\
6	0.0205547966772864\\
6.25	0.0461390117500336\\
6.5	0.0619235745587949\\
6.75	0.0592707418189065\\
7	0.0373828047172778\\
7.25	-0.0341242169818789\\
7.5	-0.0751314116544999\\
7.75	-0.0475474085227387\\
8	0.0712927868657853\\
8.25	0.34156578390394\\
8.5	0.635298211741293\\
8.75	0.875088532898141\\
9	0.992540113530195\\
9.25	0.875091142134657\\
9.5	0.635302579865703\\
9.75	0.34157043100387\\
10	0.0712960164743262\\
10.25	-0.0475477830169853\\
10.5	-0.0751356096307111\\
10.75	-0.0341310942895535\\
11	0.0373755521350242\\
11.25	0.0592669345202402\\
11.5	0.061925497587655\\
11.75	0.0461477029644804\\
12	0.0205697151464234\\
12.25	0.0143460391782716\\
12.5	0.0118114969594362\\
12.75	0.0128773422357162\\
13	0.0159826990584237\\
13.25	0.0147157892072273\\
13.5	0.0132672685696193\\
13.75	0.0117346981730032\\
14	0.0102546290743872\\
14.25	0.00904697294546918\\
14.5	0.0080637181467614\\
14.75	0.00729855526970483\\
15	0.00671025984778135\\
15.25	0.0061444991729489\\
15.5	0.0057076879987687\\
15.75	0.00541027359140435\\
16	0.00526198027385209\\
16.25	0.00526814591267121\\
16.5	0.00541425858011472\\
16.75	0.00567291096176554\\
17	0.00600091742901098\\
17.25	0.00634671213565823\\
17.5	0.00664267160839631\\
17.75	0.00682814879566501\\
18	0.00685608682789544\\
18.25	0.00668522790361889\\
18.5	0.00634597921127353\\
18.75	0.00587773128744691\\
19	0.00533974601681907\\
19.25	0.00479959824532302\\
19.5	0.00433049111633725\\
19.75	0.00399210162915104\\
};
\addlegendentry{$\mathbf{\hat{h}_{2}}$}

\end{axis}
\end{tikzpicture}%