% This file was created by matlab2tikz.
%
%The latest updates can be retrieved from
%  http://www.mathworks.com/matlabcentral/fileexchange/22022-matlab2tikz-matlab2tikz
%where you can also make suggestions and rate matlab2tikz.
%
\definecolor{mycolor1}{rgb}{0.00000,0.44700,0.74100}%
\definecolor{mycolor2}{rgb}{0.85000,0.32500,0.09800}%
%
\begin{tikzpicture}

\begin{axis}[%
width=1.952in,
height=3.2in,
at={(0.758in,0.512in)},
scale only axis,
xmin=0,
xmax=20,
xlabel style={font=\color{white!15!black}, align=center},
xlabel={Sample Index\\[1ex](a) Actual},
ymin=0,
ymax=0.9,
axis background/.style={fill=white},
legend style={legend cell align=left, align=left, draw=white!15!black}
]
\addplot [color=mycolor1]
  table[row sep=crcr]{%
1	0.0444337104356374\\
2	0.738127803558165\\
3	0.357839506790865\\
4	0.481268775571525\\
5	0.10955194752004\\
6	0.267783168107473\\
7	0.0769544524124665\\
8	0.0372836026936495\\
9	0.027789744685169\\
10	0.0196434178633453\\
11	0.0212138243269196\\
12	0.0147156812719569\\
13	0.0126517206023441\\
14	0.0111331007215966\\
15	0.00994473974674355\\
16	0.00898571135769806\\
17	0.00819466874468931\\
18	0.00753086667278431\\
19	0.00696589032366256\\
20	0.00647923877975415\\
};
\addlegendentry{$\mathbf{h_1}$}

\addplot [color=mycolor2]
  table[row sep=crcr]{%
1	0.0696363384444256\\
2	0.13399148454392\\
3	0.889181852408627\\
4	0.426869408918664\\
5	0.0527923084371181\\
6	0.0393468637154593\\
7	0\\
8	0\\
9	0\\
10	0\\
11	0\\
12	0\\
13	0\\
14	0\\
15	0\\
16	0\\
17	0\\
18	0\\
19	0\\
20	0\\
};
\addlegendentry{$\mathbf{h_{2}}$}

\end{axis}

\begin{axis}[%
width=1.952in,
height=3.2in,
at={(3.327in,0.512in)},
scale only axis,
xmin=0,
xmax=20,
xlabel style={font=\color{white!15!black}, align=center},
xlabel={Sample Index\\[1ex](b) Estimated},
ymin=-0.2,
ymax=1,
axis background/.style={fill=white},
legend style={legend cell align=left, align=left, draw=white!15!black}
]
\addplot [color=mycolor1]
  table[row sep=crcr]{%
0	0.00341566738733787\\
0.25	0.00507592739429194\\
0.5	0.00680619709619065\\
0.75	0.0086286430182851\\
1	0.010476127023958\\
1.25	0.0123641981843244\\
1.5	0.0137450174627101\\
1.75	0.0142554636234151\\
2	0.0136321124621381\\
2.25	0.0115853406419806\\
2.5	0.00862740999252178\\
2.75	0.00526536525423927\\
3	0.00214172424852841\\
3.25	-0.000529627306416211\\
3.5	-0.00146337677300844\\
3.75	-9.62933833001479e-05\\
4	0.0037082051510271\\
4.25	0.0103903273907745\\
4.5	0.017992172774923\\
4.75	0.0252884101972099\\
5	0.0314054938628694\\
5.25	0.033296128428047\\
5.5	0.0360686429082362\\
5.75	0.0422984782391801\\
6	0.0541802723337917\\
6.25	0.0824603570571141\\
6.5	0.112844539659579\\
6.75	0.141410239800532\\
7	0.167309913498118\\
7.25	0.171856015176364\\
7.5	0.196192846967318\\
7.75	0.257104302472893\\
8	0.362259165435597\\
8.25	0.541762415179245\\
8.5	0.718393042766853\\
8.75	0.846309881163916\\
9	0.887288005512076\\
9.25	0.777676729440651\\
9.5	0.591278765579074\\
9.75	0.374671159870254\\
10	0.178677791075618\\
10.25	0.0851455872247295\\
10.5	0.0542536888165181\\
10.75	0.0696901573212952\\
11	0.105326192003242\\
11.25	0.106996461524001\\
11.5	0.0965349652729272\\
11.75	0.075736735931864\\
12	0.0515276031487186\\
12.25	0.045466103182217\\
12.5	0.0446929716595345\\
12.75	0.0476172489711815\\
13	0.051454645841827\\
13.25	0.0492778665715117\\
13.5	0.0446807284724937\\
13.75	0.0379704499149956\\
14	0.0299376349067137\\
14.25	0.0219908420416747\\
14.5	0.014593761362291\\
14.75	0.00842364983101322\\
15	0.00389425489392855\\
15.25	0.00113161536943912\\
15.5	-7.01406688653997e-05\\
15.75	-0.000121667926956381\\
16	0.000464545295390607\\
16.25	0.000874166141878281\\
16.5	0.0012526853555108\\
16.75	0.00154614966507391\\
17	0.00179166441631281\\
17.25	0.00226638674314635\\
17.5	0.00270597932272285\\
17.75	0.0030336401136957\\
18	0.00316816273278116\\
18.25	0.00295455427838716\\
18.5	0.00250839766000462\\
18.75	0.00188592324670887\\
19	0.00116850688126596\\
19.25	0.000450617291602774\\
19.5	-0.000172045143208924\\
19.75	-0.000618013740075507\\
};
\addlegendentry{$\mathbf{\hat{h}_{1}}$}

\addplot [color=mycolor2]
  table[row sep=crcr]{%
0	0.000585153708145301\\
0.25	0.000624158167610733\\
0.5	0.000662544009558059\\
0.75	0.000698688573406531\\
1	0.00072900151251346\\
1.25	0.000761835787021784\\
1.5	0.000769338458143955\\
1.75	0.00074157249337254\\
2	0.000677609138149604\\
2.25	0.000565287324582712\\
2.5	0.000465501503089467\\
2.75	0.000421228931078766\\
3	0.000471773365052255\\
3.25	0.000638514634039319\\
3.5	0.000936559322940253\\
3.75	0.00135363194896458\\
4	0.00185538848499923\\
4.25	0.00241185156087412\\
4.5	0.00293460107592682\\
4.75	0.00336761061745227\\
5	0.00368392314160561\\
5.25	-0.000574455238934389\\
5.5	-0.00257518651913638\\
5.75	-0.000765308065387816\\
6	0.00475202329442573\\
6.25	0.0306849478101854\\
6.5	0.0452572163003362\\
6.75	0.0389298094958153\\
7	0.0107301681310869\\
7.25	-0.0721175276694879\\
7.5	-0.122903817877586\\
7.75	-0.100135127826481\\
8	0.0211641585634454\\
8.25	0.306487806600824\\
8.5	0.618376526091237\\
8.75	0.873827828327994\\
9	0.999395244584238\\
9.25	0.873832017674899\\
9.5	0.618384540274349\\
9.75	0.30649896019117\\
10	0.0211775281934304\\
10.25	-0.100120696218496\\
10.5	-0.122889336023634\\
10.75	-0.0721038803626928\\
11	0.0107422652404476\\
11.25	0.0389398829108128\\
11.5	0.0452648144458882\\
11.75	0.0306896845389829\\
12	0.004753562839919\\
12.25	-0.000767111636773533\\
12.5	-0.00258056906432922\\
12.75	-0.000583526305653604\\
13	0.00367130716838582\\
13.25	0.00335151543345471\\
13.5	0.00291626397447071\\
13.75	0.00239313891635962\\
14	0.00183852615500583\\
14.25	0.00134155556404393\\
14.5	0.000930536648292114\\
14.75	0.000638653020607265\\
15	0.000477045212760884\\
15.25	0.0004301836261342\\
15.5	0.000475710310144404\\
15.75	0.00057438520667565\\
16	0.00068396623729177\\
16.25	0.000743622695538381\\
16.5	0.000768743194400785\\
16.75	0.000761754465640367\\
17	0.000732839067049121\\
17.25	0.000710768931168373\\
17.5	0.000680069350227262\\
17.75	0.000638502651855015\\
18	0.000581824497550082\\
18.25	0.000497091259837635\\
18.5	0.00039558917261117\\
18.75	0.000281678634165989\\
19	0.000161179799084038\\
19.25	4.06156890893174e-05\\
19.5	-7.33207843936885e-05\\
19.75	-0.000174796936582329\\
};
\addlegendentry{$\mathbf{\hat{h}_{2}}$}

\end{axis}
\end{tikzpicture}%