% This file was created by matlab2tikz.
%
%The latest updates can be retrieved from
%  http://www.mathworks.com/matlabcentral/fileexchange/22022-matlab2tikz-matlab2tikz
%where you can also make suggestions and rate matlab2tikz.
%
\definecolor{mycolor1}{rgb}{0.00000,0.44700,0.74100}%
\definecolor{mycolor2}{rgb}{0.85000,0.32500,0.09800}%
%
\begin{tikzpicture}

\begin{axis}[%
width=1.952in,
height=3.2in,
at={(0.758in,0.512in)},
scale only axis,
xmin=0,
xmax=20,
xlabel style={font=\color{white!15!black}, align=center},
xlabel={Sample Index\\[1ex](a) Actual},
ymin=0,
ymax=0.9,
axis background/.style={fill=white},
legend style={legend cell align=left, align=left, draw=white!15!black}
]
\addplot [color=mycolor1]
  table[row sep=crcr]{%
1	0.0444337104356374\\
2	0.738127803558165\\
3	0.357839506790865\\
4	0.481268775571525\\
5	0.10955194752004\\
6	0.267783168107473\\
7	0.0769544524124665\\
8	0.0372836026936495\\
9	0.027789744685169\\
10	0.0196434178633453\\
11	0.0212138243269196\\
12	0.0147156812719569\\
13	0.0126517206023441\\
14	0.0111331007215966\\
15	0.00994473974674355\\
16	0.00898571135769806\\
17	0.00819466874468931\\
18	0.00753086667278431\\
19	0.00696589032366256\\
20	0.00647923877975415\\
};
\addlegendentry{$\mathbf{h_1}$}

\addplot [color=mycolor2]
  table[row sep=crcr]{%
1	0.0696363384444256\\
2	0.13399148454392\\
3	0.889181852408627\\
4	0.426869408918664\\
5	0.0527923084371181\\
6	0.0393468637154593\\
7	0\\
8	0\\
9	0\\
10	0\\
11	0\\
12	0\\
13	0\\
14	0\\
15	0\\
16	0\\
17	0\\
18	0\\
19	0\\
20	0\\
};
\addlegendentry{$\mathbf{h_{2}}$}

\end{axis}

\begin{axis}[%
width=1.952in,
height=3.2in,
at={(3.327in,0.512in)},
scale only axis,
xmin=0,
xmax=20,
xlabel style={font=\color{white!15!black}, align=center},
xlabel={Sample Index\\[1ex](b) Estimated},
ymin=0,
ymax=0.9,
axis background/.style={fill=white},
legend style={legend cell align=left, align=left, draw=white!15!black}
]
\addplot [color=mycolor1]
  table[row sep=crcr]{%
0	0.0444331991375893\\
1	0.738128815626727\\
2	0.357870575574522\\
3	0.481194581192353\\
4	0.109669049445697\\
5	0.267816769247872\\
6	0.0769995737798895\\
7	0.0372511650109153\\
8	0.0277856498712545\\
9	0.0196358970848186\\
10	0.0212193581806595\\
11	0.0147114412101249\\
12	0.0126537002104501\\
13	0.0111311071851717\\
14	0.00994346641137667\\
15	0.00898586068574428\\
16	0.00819352712701714\\
17	0.00752832265483016\\
18	0.00696788633339188\\
19	0.00647821378667332\\
};
\addlegendentry{$\mathbf{\hat{h}_{1}}$}

\addplot [color=mycolor2]
  table[row sep=crcr]{%
0	0.0696364101206575\\
1	0.133998265925533\\
2	0.889190098043098\\
3	0.426827264987945\\
4	0.0530071527583701\\
5	0.0393056218704764\\
6	1.18518828979665e-05\\
7	7.02965357084761e-06\\
8	8.75993652227566e-06\\
9	6.69755471145515e-06\\
10	3.13106445392155e-06\\
11	2.77178200857208e-06\\
12	3.2022158024505e-06\\
13	1.96656247435631e-06\\
14	1.33058387139625e-06\\
15	1.52708009803072e-06\\
16	2.23498169289075e-06\\
17	7.52588485476201e-07\\
18	2.94025735702769e-06\\
19	2.32747922841956e-06\\
};
\addlegendentry{$\mathbf{\hat{h}_{2}}$}

\end{axis}
\end{tikzpicture}%