% This file was created by matlab2tikz.
%
%The latest updates can be retrieved from
%  http://www.mathworks.com/matlabcentral/fileexchange/22022-matlab2tikz-matlab2tikz
%where you can also make suggestions and rate matlab2tikz.
%
\definecolor{mycolor1}{rgb}{0.00000,0.44700,0.74100}%
\definecolor{mycolor2}{rgb}{0.85000,0.32500,0.09800}%
%
\begin{tikzpicture}

\begin{axis}[%
width=1.935in,
height=3.2in,
at={(0.758in,0.512in)},
scale only axis,
xmin=0,
xmax=100,
xlabel style={font=\color{white!15!black}, align=center},
xlabel={Sample Index\\[1ex](a) Actual},
ymin=0,
ymax=1,
axis background/.style={fill=white},
legend style={legend cell align=left, align=left, draw=white!15!black}
]
\addplot [color=mycolor1]
  table[row sep=crcr]{%
1	0.0216926152020066\\
2	0.0241183965289278\\
3	0.0267807478156139\\
4	0.0354280601095614\\
5	0.221828667704926\\
6	0.648965745595675\\
7	0.241270440438586\\
8	0.0776642628644082\\
9	0.0581044824071981\\
10	0.0611489366831747\\
11	0.0798140419847986\\
12	0.062735544320507\\
13	0.113011040425493\\
14	0.377485382687519\\
15	0.331649248845691\\
16	0.18615433793772\\
17	0.146493252817741\\
18	0.0847190801249442\\
19	0.0628278567269286\\
20	0.0148364296169451\\
21	0.0250471739922352\\
22	0.0344835915107885\\
23	0.116323790948646\\
24	0.279210940275387\\
25	0.101045410677318\\
26	0.0464379665429307\\
27	0.041398863205924\\
28	0.0263226969199998\\
29	0.0221848789960478\\
30	0.0197642774213948\\
31	0.0186496517239344\\
32	0.0219339353832985\\
33	0.018414044189717\\
34	0.00937919788338426\\
35	0.0100670783096178\\
36	0.0098135024549665\\
37	0.00937197330245933\\
38	0.00884810306396591\\
39	0.00821513429074651\\
40	0.00732026654240377\\
41	0.00945021173361951\\
42	0.0127255218727005\\
43	0.00946415089832864\\
44	0.00862800399957479\\
45	0.00816256372793386\\
46	0.00784857678072338\\
47	0.00764005346579914\\
48	0.00755773656417068\\
49	0.00776075567554332\\
50	0.00986938420958768\\
51	0.00319649311885596\\
52	0.00500292172051245\\
53	0.00524752973649041\\
54	0.00526667690567613\\
55	0.00521575322380608\\
56	0.00513704586881206\\
57	0.00504647235310817\\
58	0.00495116794332671\\
59	0.00485468351773321\\
60	0.00475890010347922\\
61	0.00466484578572566\\
62	0.00457308311118313\\
63	0.00448390798586452\\
64	0.0043974582605137\\
65	0.00431377595094964\\
66	0.00423284428954661\\
67	0.00415461047403326\\
68	0.00407899997367922\\
69	0.00400592569101114\\
70	0.00393529390404367\\
71	0.0038670081481966\\
72	0.00380097175500134\\
73	0.00373708950172093\\
74	0.00367526866536834\\
75	0.00361541967416126\\
76	0.00355745648532918\\
77	0.00350129677649243\\
78	0.00344686201027152\\
79	0.00339407741330312\\
80	0.00334287189828014\\
81	0.0032931779490063\\
82	0.00324493148246751\\
83	0.00319807169773062\\
84	0.003152540918526\\
85	0.00310828443427485\\
86	0.00306525034282854\\
87	0.00302338939712195\\
88	0.00298265485717807\\
89	0.00294300234835571\\
90	0.00290438972634362\\
91	0.0028667769491261\\
92	0.00283012595595264\\
93	0.0027944005532083\\
94	0.00275956630699144\\
95	0.0027255904421446\\
96	0.00269244174744817\\
97	0.00266009048666622\\
98	0.00262850831512411\\
99	0\\
100	0\\
};
\addlegendentry{$\mathbf{h_1}$}

\addplot [color=mycolor2]
  table[row sep=crcr]{%
1	0.00108294891904515\\
2	0.00115806441999571\\
3	0.00125656841390277\\
4	0.00139359850086552\\
5	0.00159676508941691\\
6	0.00191784013184518\\
7	0.00245777585368985\\
8	0.00342819163679349\\
9	0.00533730915065768\\
10	0.00974214709050295\\
11	0.0244449264542886\\
12	0.973731186814765\\
13	0.0500739614470277\\
14	0.0426946282907342\\
15	0.00536788790071817\\
16	0.0362080823589407\\
17	0.176144271962331\\
18	0.115663212635922\\
19	0.0234963057121139\\
20	0.0138738178597906\\
21	0.00966054585381422\\
22	0.00731818549393035\\
23	0.00584139575065055\\
24	0.0048330083027894\\
25	0.00410500747522503\\
26	0.00355723928842746\\
27	0.00313167065616096\\
28	0.00279247304593218\\
29	0.00251639833876938\\
30	0.00228774297450139\\
31	0.00209554142652578\\
32	0.00193191967393617\\
33	0.00179108704155738\\
34	0.00166869616651274\\
35	0\\
36	0\\
37	0\\
38	0\\
39	0\\
40	0\\
41	0\\
42	0\\
43	0\\
44	0\\
45	0\\
46	0\\
47	0\\
48	0\\
49	0\\
50	0\\
51	0\\
52	0\\
53	0\\
54	0\\
55	0\\
56	0\\
57	0\\
58	0\\
59	0\\
60	0\\
61	0\\
62	0\\
63	0\\
64	0\\
65	0\\
66	0\\
67	0\\
68	0\\
69	0\\
70	0\\
71	0\\
72	0\\
73	0\\
74	0\\
75	0\\
76	0\\
77	0\\
78	0\\
79	0\\
80	0\\
81	0\\
82	0\\
83	0\\
84	0\\
85	0\\
86	0\\
87	0\\
88	0\\
89	0\\
90	0\\
91	0\\
92	0\\
93	0\\
94	0\\
95	0\\
96	0\\
97	0\\
98	0\\
99	0\\
100	0\\
};
\addlegendentry{$\mathbf{h_{2}}$}

\end{axis}

\begin{axis}[%
width=1.935in,
height=3.2in,
at={(3.327in,0.512in)},
scale only axis,
xmin=0,
xmax=60,
xlabel style={font=\color{white!15!black}, align=center},
xlabel={Sample Index\\[1ex](b) Estimated},
ymin=0,
ymax=1,
axis background/.style={fill=white},
legend style={legend cell align=left, align=left, draw=white!15!black}
]
\addplot [color=mycolor1]
  table[row sep=crcr]{%
0	0.00655386452572397\\
1	5.47266833867602e-05\\
2	0.000143779270821412\\
3	0.000157891977105632\\
4	0.000124603754483849\\
5	3.90678718906397e-05\\
6	0.000106267713203961\\
7	0.00462510031740228\\
8	0.0193160369722292\\
9	0.00926749491275993\\
10	0.0129497235830518\\
11	0.0174915996431917\\
12	0.0283677544862885\\
13	0.0917063039415884\\
14	0.0135755658508116\\
15	0.0164570945648063\\
16	0.00728702896062179\\
17	0.187024048981831\\
18	0.691971757769864\\
19	0.202482414080379\\
20	0.0274867225611919\\
21	0.133260625454118\\
22	0.0630540601086914\\
23	0.0920200223722335\\
24	0.0192435333159384\\
25	0.0939632696990841\\
26	0.396918143651539\\
27	0.296403999117903\\
28	0.165863057363209\\
29	0.120327197490181\\
30	0.05835268590695\\
31	0.0974689341425666\\
32	0.020216071095122\\
33	0.0204816143292065\\
34	0.0361933779695445\\
35	0.108378055421679\\
36	0.273601613236449\\
37	0.0635455796522535\\
38	0.00641319009522824\\
39	0.00155458303972862\\
40	0.00656671279569613\\
41	0.00329034182202381\\
42	0.011145574550713\\
43	0.0102314972069935\\
44	0.029506115658465\\
45	0.00701457943399751\\
46	0.000608757352124397\\
47	0.00022456054373277\\
48	0.000910116947431653\\
49	6.32830924639685e-05\\
};
\addlegendentry{$\mathbf{\hat{h}_{1}}$}

\addplot [color=mycolor2]
  table[row sep=crcr]{%
0	2.8483441094719e-05\\
1	5.83657447814991e-05\\
2	8.13221666476787e-05\\
3	0.000101053189060148\\
4	0.00164073299539032\\
5	0.00349888663749696\\
6	0.0490502036463385\\
7	0.00385182991116755\\
8	0.00850704064995939\\
9	0.00316273452212332\\
10	0.00153497355623202\\
11	0.00417042160484771\\
12	4.25779893389156e-05\\
13	0.0318942738862768\\
14	0.0530625052061654\\
15	0.012774124103729\\
16	0.0776605329167528\\
17	0.00263791189969393\\
18	0.00175202993392272\\
19	0.0134303187361474\\
20	0.00911820619637931\\
21	0.0172588485663658\\
22	0.0280772414260859\\
23	0.00354705945197394\\
24	0.985790496182501\\
25	0.00283748196300586\\
26	0.028278037368604\\
27	0.0189152359218808\\
28	0.00935884436405278\\
29	0.0132722784381388\\
30	0.00145051539390145\\
31	0.00199532979675183\\
32	0.0778255057947404\\
33	0.0128853843017664\\
34	0.0536789345735882\\
35	0.0330274315750237\\
36	4.30823674159543e-05\\
37	0.00435130327500941\\
38	0.00229731651794847\\
39	0.00410190368946747\\
40	0.00858617765751874\\
41	0.004018293308784\\
42	0.0500616471493669\\
43	0.00312703922169216\\
44	0.00156430129647622\\
45	7.49347543733757e-05\\
46	7.74822713245085e-05\\
47	5.43762697459454e-05\\
48	3.0081612585785e-05\\
49	0.000120170421131051\\
};
\addlegendentry{$\mathbf{\hat{h}_{2}}$}

\end{axis}
\end{tikzpicture}%