% This file was created by matlab2tikz.
%
%The latest updates can be retrieved from
%  http://www.mathworks.com/matlabcentral/fileexchange/22022-matlab2tikz-matlab2tikz
%where you can also make suggestions and rate matlab2tikz.
%
\definecolor{mycolor1}{rgb}{0.00000,0.44700,0.74100}%
\definecolor{mycolor2}{rgb}{0.85000,0.32500,0.09800}%
%
\begin{tikzpicture}

\begin{axis}[%
width=1.935in,
height=3.2in,
at={(0.758in,0.512in)},
scale only axis,
xmin=0,
xmax=100,
xlabel style={font=\color{white!15!black}, align=center},
xlabel={Sample Index\\[1ex](a) Actual},
ymin=0,
ymax=1,
axis background/.style={fill=white},
legend style={legend cell align=left, align=left, draw=white!15!black}
]
\addplot [color=mycolor1]
  table[row sep=crcr]{%
1	0.0216926152020066\\
2	0.0241183965289278\\
3	0.0267807478156139\\
4	0.0354280601095614\\
5	0.221828667704926\\
6	0.648965745595675\\
7	0.241270440438586\\
8	0.0776642628644082\\
9	0.0581044824071981\\
10	0.0611489366831747\\
11	0.0798140419847986\\
12	0.062735544320507\\
13	0.113011040425493\\
14	0.377485382687519\\
15	0.331649248845691\\
16	0.18615433793772\\
17	0.146493252817741\\
18	0.0847190801249442\\
19	0.0628278567269286\\
20	0.0148364296169451\\
21	0.0250471739922352\\
22	0.0344835915107885\\
23	0.116323790948646\\
24	0.279210940275387\\
25	0.101045410677318\\
26	0.0464379665429307\\
27	0.041398863205924\\
28	0.0263226969199998\\
29	0.0221848789960478\\
30	0.0197642774213948\\
31	0.0186496517239344\\
32	0.0219339353832985\\
33	0.018414044189717\\
34	0.00937919788338426\\
35	0.0100670783096178\\
36	0.0098135024549665\\
37	0.00937197330245933\\
38	0.00884810306396591\\
39	0.00821513429074651\\
40	0.00732026654240377\\
41	0.00945021173361951\\
42	0.0127255218727005\\
43	0.00946415089832864\\
44	0.00862800399957479\\
45	0.00816256372793386\\
46	0.00784857678072338\\
47	0.00764005346579914\\
48	0.00755773656417068\\
49	0.00776075567554332\\
50	0.00986938420958768\\
51	0.00319649311885596\\
52	0.00500292172051245\\
53	0.00524752973649041\\
54	0.00526667690567613\\
55	0.00521575322380608\\
56	0.00513704586881206\\
57	0.00504647235310817\\
58	0.00495116794332671\\
59	0.00485468351773321\\
60	0.00475890010347922\\
61	0.00466484578572566\\
62	0.00457308311118313\\
63	0.00448390798586452\\
64	0.0043974582605137\\
65	0.00431377595094964\\
66	0.00423284428954661\\
67	0.00415461047403326\\
68	0.00407899997367922\\
69	0.00400592569101114\\
70	0.00393529390404367\\
71	0.0038670081481966\\
72	0.00380097175500134\\
73	0.00373708950172093\\
74	0.00367526866536834\\
75	0.00361541967416126\\
76	0.00355745648532918\\
77	0.00350129677649243\\
78	0.00344686201027152\\
79	0.00339407741330312\\
80	0.00334287189828014\\
81	0.0032931779490063\\
82	0.00324493148246751\\
83	0.00319807169773062\\
84	0.003152540918526\\
85	0.00310828443427485\\
86	0.00306525034282854\\
87	0.00302338939712195\\
88	0.00298265485717807\\
89	0.00294300234835571\\
90	0.00290438972634362\\
91	0.0028667769491261\\
92	0.00283012595595264\\
93	0.0027944005532083\\
94	0.00275956630699144\\
95	0.0027255904421446\\
96	0.00269244174744817\\
97	0.00266009048666622\\
98	0.00262850831512411\\
99	0\\
100	0\\
};
\addlegendentry{$\mathbf{h_1}$}

\addplot [color=mycolor2]
  table[row sep=crcr]{%
1	0.00108294891904515\\
2	0.00115806441999571\\
3	0.00125656841390277\\
4	0.00139359850086552\\
5	0.00159676508941691\\
6	0.00191784013184518\\
7	0.00245777585368985\\
8	0.00342819163679349\\
9	0.00533730915065768\\
10	0.00974214709050295\\
11	0.0244449264542886\\
12	0.973731186814765\\
13	0.0500739614470277\\
14	0.0426946282907342\\
15	0.00536788790071817\\
16	0.0362080823589407\\
17	0.176144271962331\\
18	0.115663212635922\\
19	0.0234963057121139\\
20	0.0138738178597906\\
21	0.00966054585381422\\
22	0.00731818549393035\\
23	0.00584139575065055\\
24	0.0048330083027894\\
25	0.00410500747522503\\
26	0.00355723928842746\\
27	0.00313167065616096\\
28	0.00279247304593218\\
29	0.00251639833876938\\
30	0.00228774297450139\\
31	0.00209554142652578\\
32	0.00193191967393617\\
33	0.00179108704155738\\
34	0.00166869616651274\\
35	0\\
36	0\\
37	0\\
38	0\\
39	0\\
40	0\\
41	0\\
42	0\\
43	0\\
44	0\\
45	0\\
46	0\\
47	0\\
48	0\\
49	0\\
50	0\\
51	0\\
52	0\\
53	0\\
54	0\\
55	0\\
56	0\\
57	0\\
58	0\\
59	0\\
60	0\\
61	0\\
62	0\\
63	0\\
64	0\\
65	0\\
66	0\\
67	0\\
68	0\\
69	0\\
70	0\\
71	0\\
72	0\\
73	0\\
74	0\\
75	0\\
76	0\\
77	0\\
78	0\\
79	0\\
80	0\\
81	0\\
82	0\\
83	0\\
84	0\\
85	0\\
86	0\\
87	0\\
88	0\\
89	0\\
90	0\\
91	0\\
92	0\\
93	0\\
94	0\\
95	0\\
96	0\\
97	0\\
98	0\\
99	0\\
100	0\\
};
\addlegendentry{$\mathbf{h_{2}}$}

\end{axis}

\begin{axis}[%
width=1.935in,
height=3.2in,
at={(3.327in,0.512in)},
scale only axis,
xmin=0,
xmax=100,
xlabel style={font=\color{white!15!black}, align=center},
xlabel={Sample Index\\[1ex](b) Estimated},
ymin=0,
ymax=0.4,
axis background/.style={fill=white},
legend style={legend cell align=left, align=left, draw=white!15!black}
]
\addplot [color=mycolor1]
  table[row sep=crcr]{%
0	0.00898059830290739\\
1	0.0968508622407994\\
2	0.13371452038443\\
3	0.0250597216015822\\
4	0.141127529631896\\
5	0.0301381183966278\\
6	0.102606224138728\\
7	0.06396954495004\\
8	0.0576167880958124\\
9	0.0484834487733702\\
10	0.0899350356214378\\
11	0.129494833972811\\
12	0.0917042835610387\\
13	0.0505665451994663\\
14	0.0401107565674598\\
15	0.0577213641527559\\
16	0.0271313047020051\\
17	0.0868688713473664\\
18	0.133846322906324\\
19	0.0366230068035733\\
20	0.187391191761474\\
21	0.0757970785194275\\
22	0.117687698422703\\
23	0.0558167554253748\\
24	0.0346642961153697\\
25	0.0435320215102985\\
26	0.11766591044328\\
27	0.0393180813574567\\
28	0.0103429987418457\\
29	0.0373749623342131\\
30	0.038135783473299\\
31	0.0149794441177291\\
32	0.0844169878268062\\
33	0.0135854421270825\\
34	0.0791294242853105\\
35	0.154967368639309\\
36	0.0143032847846433\\
37	0.0896944976249559\\
38	0.0245640359058847\\
39	0.104387984208782\\
40	0.0820107996811305\\
41	0.0575109276079481\\
42	0.0651618520888668\\
43	0.124399502744751\\
44	0.108141392034465\\
45	0.0950987371287438\\
46	0.12694331013603\\
47	0.0665434581945512\\
48	0.0477603831331411\\
49	0.176675050483558\\
50	0.0290361857048859\\
51	0.194038725571694\\
52	0.0934115631617738\\
53	0.0870984128904851\\
54	0.0722520790811016\\
55	0.0310672945471219\\
56	0.148851853514752\\
57	0.0184454210255094\\
58	0.0577415343866631\\
59	0.134576609529884\\
60	0.0300215062153718\\
61	0.0391168230450267\\
62	0.0482756940066722\\
63	0.391543761007636\\
64	0.188091354666298\\
65	0.141454070323984\\
66	0.185356426282886\\
67	0.130150884496324\\
68	0.0160176710505206\\
69	0.131451994247135\\
70	0.0442561386428743\\
71	0.0537031777475046\\
72	0.106392940640005\\
73	0.0225203285221478\\
74	0.0247483300235217\\
75	0.0278740688816541\\
76	0.0481814615122513\\
77	0.0271910613516039\\
78	0.0800739985241307\\
79	0.0323674800081176\\
80	0.166684519397026\\
81	0.0550292375434413\\
82	0.0648215587523558\\
83	0.0849470607165493\\
84	0.0305714273832217\\
85	0.107585689766172\\
86	0.0616184559377623\\
87	0.0645134361144842\\
88	0.0290396266095987\\
89	0.199155374762664\\
90	0.0814905413364711\\
91	0.14206373308286\\
92	0.15803081896563\\
93	0.0244076925043766\\
94	0.0878784622563126\\
95	0.107735738776537\\
96	0.0276838863979147\\
97	0.166730892659064\\
98	0.0151756268161328\\
99	0.0415372487779465\\
};
\addlegendentry{$\mathbf{\hat{h}_{1}}$}

\addplot [color=mycolor2]
  table[row sep=crcr]{%
0	0.072305706917833\\
1	0.0195793624257815\\
2	0.0584883451547041\\
3	0.169595622964441\\
4	0.0550930515574221\\
5	0.0553484841985498\\
6	0.0461373955501281\\
7	0.239059327003822\\
8	0.0941087828618592\\
9	0.107935468903832\\
10	0.0686893180041704\\
11	0.077400881822101\\
12	0.0373198573484371\\
13	0.0311233229124776\\
14	0.14258664148981\\
15	0.0114525121051016\\
16	0.014878451746563\\
17	0.0797208713885246\\
18	0.278939399373038\\
19	0.0531416869485033\\
20	0.0990949410006426\\
21	0.110509854936981\\
22	0.0855403483249916\\
23	0.078983866344872\\
24	0.0150602645821687\\
25	0.0468193307684632\\
26	0.155527512345606\\
27	0.119388706761576\\
28	0.0565418757705366\\
29	0.0843701255196693\\
30	0.0412792976370961\\
31	0.157753638542717\\
32	0.0501297065604282\\
33	0.114108260259802\\
34	0.0610829412610947\\
35	0.0755289461148293\\
36	0.117821584193342\\
37	0.0297317979914878\\
38	0.118108191096423\\
39	0.04130526240529\\
40	0.136903521344693\\
41	0.0324635318145958\\
42	0.00865893897567356\\
43	0.124338527781689\\
44	0.0607229543875313\\
45	0.128200350333574\\
46	0.0853475777018627\\
47	0.0311181354380348\\
48	0.0305538852135119\\
49	0.0905245830509915\\
50	0.147504279929681\\
51	0.0580750642479356\\
52	0.0471351099670304\\
53	0.152296671616761\\
54	0.115948243739247\\
55	0.101836165469206\\
56	0.128896566048351\\
57	0.0914627388850908\\
58	0.0486089527908679\\
59	0.0413109550995521\\
60	0.155753551258096\\
61	0.0693751180540598\\
62	0.0538483165658843\\
63	0.0324913182634615\\
64	0.0464301169672227\\
65	0.0852754764995289\\
66	0.130986979016392\\
67	0.0191948426008179\\
68	0.0815043595300472\\
69	0.086079006208669\\
70	0.0784364683859331\\
71	0.109843239519432\\
72	0.0264513150776745\\
73	0.140951492505378\\
74	0.0725218669871546\\
75	0.161274140737065\\
76	0.0389075135165972\\
77	0.0355280417996522\\
78	0.0263369962781016\\
79	0.0869062805932302\\
80	0.140005110441158\\
81	0.0982065022649846\\
82	0.0651837317662511\\
83	0.0430521682180695\\
84	0.0134235130604227\\
85	0.121113592302846\\
86	0.099290499378772\\
87	0.134875546836224\\
88	0.0368207837811485\\
89	0.251584054935689\\
90	0.0969943406972411\\
91	0.0531888939821295\\
92	0.127532369378938\\
93	0.153452197510865\\
94	0.105195446880703\\
95	0.0590080040151396\\
96	0.12819396866777\\
97	0.0336397437525944\\
98	0.0433974566358532\\
99	0.162904160399199\\
};
\addlegendentry{$\mathbf{\hat{h}_{2}}$}

\end{axis}
\end{tikzpicture}%