% This file was created by matlab2tikz.
%
%The latest updates can be retrieved from
%  http://www.mathworks.com/matlabcentral/fileexchange/22022-matlab2tikz-matlab2tikz
%where you can also make suggestions and rate matlab2tikz.
%
\definecolor{mycolor1}{rgb}{0.00000,0.44700,0.74100}%
\definecolor{mycolor2}{rgb}{0.85000,0.32500,0.09800}%
%
\begin{tikzpicture}

\begin{axis}[%
width=1.935in,
height=3.2in,
at={(0.758in,0.512in)},
scale only axis,
xmin=0,
xmax=100,
xlabel style={font=\color{white!15!black}, align=center},
xlabel={Sample Index\\[1ex](a) Actual},
ymin=0,
ymax=1,
axis background/.style={fill=white},
legend style={legend cell align=left, align=left, draw=white!15!black}
]
\addplot [color=mycolor1]
  table[row sep=crcr]{%
1	0.0216926152020066\\
2	0.0241183965289278\\
3	0.0267807478156139\\
4	0.0354280601095614\\
5	0.221828667704926\\
6	0.648965745595675\\
7	0.241270440438586\\
8	0.0776642628644082\\
9	0.0581044824071981\\
10	0.0611489366831747\\
11	0.0798140419847986\\
12	0.062735544320507\\
13	0.113011040425493\\
14	0.377485382687519\\
15	0.331649248845691\\
16	0.18615433793772\\
17	0.146493252817741\\
18	0.0847190801249442\\
19	0.0628278567269286\\
20	0.0148364296169451\\
21	0.0250471739922352\\
22	0.0344835915107885\\
23	0.116323790948646\\
24	0.279210940275387\\
25	0.101045410677318\\
26	0.0464379665429307\\
27	0.041398863205924\\
28	0.0263226969199998\\
29	0.0221848789960478\\
30	0.0197642774213948\\
31	0.0186496517239344\\
32	0.0219339353832985\\
33	0.018414044189717\\
34	0.00937919788338426\\
35	0.0100670783096178\\
36	0.0098135024549665\\
37	0.00937197330245933\\
38	0.00884810306396591\\
39	0.00821513429074651\\
40	0.00732026654240377\\
41	0.00945021173361951\\
42	0.0127255218727005\\
43	0.00946415089832864\\
44	0.00862800399957479\\
45	0.00816256372793386\\
46	0.00784857678072338\\
47	0.00764005346579914\\
48	0.00755773656417068\\
49	0.00776075567554332\\
50	0.00986938420958768\\
51	0.00319649311885596\\
52	0.00500292172051245\\
53	0.00524752973649041\\
54	0.00526667690567613\\
55	0.00521575322380608\\
56	0.00513704586881206\\
57	0.00504647235310817\\
58	0.00495116794332671\\
59	0.00485468351773321\\
60	0.00475890010347922\\
61	0.00466484578572566\\
62	0.00457308311118313\\
63	0.00448390798586452\\
64	0.0043974582605137\\
65	0.00431377595094964\\
66	0.00423284428954661\\
67	0.00415461047403326\\
68	0.00407899997367922\\
69	0.00400592569101114\\
70	0.00393529390404367\\
71	0.0038670081481966\\
72	0.00380097175500134\\
73	0.00373708950172093\\
74	0.00367526866536834\\
75	0.00361541967416126\\
76	0.00355745648532918\\
77	0.00350129677649243\\
78	0.00344686201027152\\
79	0.00339407741330312\\
80	0.00334287189828014\\
81	0.0032931779490063\\
82	0.00324493148246751\\
83	0.00319807169773062\\
84	0.003152540918526\\
85	0.00310828443427485\\
86	0.00306525034282854\\
87	0.00302338939712195\\
88	0.00298265485717807\\
89	0.00294300234835571\\
90	0.00290438972634362\\
91	0.0028667769491261\\
92	0.00283012595595264\\
93	0.0027944005532083\\
94	0.00275956630699144\\
95	0.0027255904421446\\
96	0.00269244174744817\\
97	0.00266009048666622\\
98	0.00262850831512411\\
99	0\\
100	0\\
};
\addlegendentry{$\mathbf{h_1}$}

\addplot [color=mycolor2]
  table[row sep=crcr]{%
1	0.00108294891904515\\
2	0.00115806441999571\\
3	0.00125656841390277\\
4	0.00139359850086552\\
5	0.00159676508941691\\
6	0.00191784013184518\\
7	0.00245777585368985\\
8	0.00342819163679349\\
9	0.00533730915065768\\
10	0.00974214709050295\\
11	0.0244449264542886\\
12	0.973731186814765\\
13	0.0500739614470277\\
14	0.0426946282907342\\
15	0.00536788790071817\\
16	0.0362080823589407\\
17	0.176144271962331\\
18	0.115663212635922\\
19	0.0234963057121139\\
20	0.0138738178597906\\
21	0.00966054585381422\\
22	0.00731818549393035\\
23	0.00584139575065055\\
24	0.0048330083027894\\
25	0.00410500747522503\\
26	0.00355723928842746\\
27	0.00313167065616096\\
28	0.00279247304593218\\
29	0.00251639833876938\\
30	0.00228774297450139\\
31	0.00209554142652578\\
32	0.00193191967393617\\
33	0.00179108704155738\\
34	0.00166869616651274\\
35	0\\
36	0\\
37	0\\
38	0\\
39	0\\
40	0\\
41	0\\
42	0\\
43	0\\
44	0\\
45	0\\
46	0\\
47	0\\
48	0\\
49	0\\
50	0\\
51	0\\
52	0\\
53	0\\
54	0\\
55	0\\
56	0\\
57	0\\
58	0\\
59	0\\
60	0\\
61	0\\
62	0\\
63	0\\
64	0\\
65	0\\
66	0\\
67	0\\
68	0\\
69	0\\
70	0\\
71	0\\
72	0\\
73	0\\
74	0\\
75	0\\
76	0\\
77	0\\
78	0\\
79	0\\
80	0\\
81	0\\
82	0\\
83	0\\
84	0\\
85	0\\
86	0\\
87	0\\
88	0\\
89	0\\
90	0\\
91	0\\
92	0\\
93	0\\
94	0\\
95	0\\
96	0\\
97	0\\
98	0\\
99	0\\
100	0\\
};
\addlegendentry{$\mathbf{h_{2}}$}

\end{axis}

\begin{axis}[%
width=1.935in,
height=3.2in,
at={(3.327in,0.512in)},
scale only axis,
xmin=0,
xmax=100,
xlabel style={font=\color{white!15!black}, align=center},
xlabel={Sample Index\\[1ex](b) Estimated},
ymin=0,
ymax=1,
axis background/.style={fill=white},
legend style={legend cell align=left, align=left, draw=white!15!black}
]
\addplot [color=mycolor1]
  table[row sep=crcr]{%
0	0.0200467437766728\\
1	0.00616992298278138\\
2	0.0151265595714792\\
3	0.0203254746493075\\
4	0.0196430204587983\\
5	0.00740456303253573\\
6	0.0153938592015054\\
7	0.0140432165193208\\
8	0.0138537020297335\\
9	0.0231246209615478\\
10	0.0316017623041689\\
11	0.0220758915157806\\
12	0.0127774066668654\\
13	0.00861254350361558\\
14	0.0168786914495179\\
15	0.0237128728923239\\
16	0.0144721366459605\\
17	0.026507504252229\\
18	0.0103931775573025\\
19	0.0141574914874479\\
20	0.00746900028012223\\
21	0.0183071021784617\\
22	0.0386481289779811\\
23	0.00981199872649973\\
24	0.0113520262176913\\
25	0.0351232026257148\\
26	0.0213438312798873\\
27	0.0215652197909173\\
28	0.019400530603641\\
29	0.0212270048024998\\
30	0.0152356090060121\\
31	0.0253843041572404\\
32	0.0291693148307352\\
33	0.0121977595961665\\
34	0.0101123194918262\\
35	0.0113121765962008\\
36	0.0188092642743066\\
37	0.0696038743004152\\
38	0.131555788606258\\
39	0.0400006796429073\\
40	0.0545387791905795\\
41	0.0282868146358474\\
42	0.204888486364516\\
43	0.635922145249369\\
44	0.210469772836182\\
45	0.054656567844081\\
46	0.149377794056994\\
47	0.0542449000169178\\
48	0.0669315925857916\\
49	0.0338790346175382\\
50	0.101245679389713\\
51	0.409965862714683\\
52	0.27314410237738\\
53	0.172921654045792\\
54	0.128700385036611\\
55	0.0704587447554653\\
56	0.134482225980081\\
57	0.0268294889418027\\
58	0.0228714479408438\\
59	0.0174776859672816\\
60	0.0868900434574386\\
61	0.27983499140928\\
62	0.0752955530429321\\
63	0.0175063667222073\\
64	0.0223669782294222\\
65	0.0304571474996981\\
66	0.0327704851803529\\
67	0.0365117061387601\\
68	0.0428707822520555\\
69	0.00341098834703489\\
70	0.0158879972193264\\
71	0.0130626271195835\\
72	0.01400599695026\\
73	0.0291778994306658\\
74	0.0223931784764827\\
75	0.0143983009239771\\
76	0.0258067221155213\\
77	0.0186712476069662\\
78	0.0187967113279997\\
79	0.0174582884226156\\
80	0.0348082951191092\\
81	0.0249567388548898\\
82	0.0133491039839833\\
83	0.0181689016615377\\
84	0.0174848021877713\\
85	0.038108000350647\\
86	0.0210544510763284\\
87	0.00709010948719694\\
88	0.00246853951849714\\
89	0.0146176279163361\\
90	0.0325482666525701\\
91	0.0225440396608741\\
92	0.0265219457554638\\
93	0.026119248194468\\
94	0.00396275477895808\\
95	0.0109013047116043\\
96	0.00727193251086565\\
97	0.0217327233593232\\
98	0.00970258374692338\\
99	0.00418756613272819\\
};
\addlegendentry{$\mathbf{\hat{h}_{1}}$}

\addplot [color=mycolor2]
  table[row sep=crcr]{%
0	0.000220968376184769\\
1	0.000256310767219021\\
2	0.000180736022855201\\
3	0.000147672901321173\\
4	4.57945455826146e-05\\
5	0.000200365642438768\\
6	0.000423998405896344\\
7	0.000341193772446217\\
8	0.000122917326329908\\
9	0.000409111510935172\\
10	0.000494316057712097\\
11	0.000313237133738588\\
12	0.000194050164652883\\
13	0.000254006413499347\\
14	0.000122312895480166\\
15	0.000365142157929593\\
16	0.00020019731070696\\
17	0.000443308602856708\\
18	0.000151635463425557\\
19	0.000393799596224696\\
20	0.000412259695663612\\
21	0.000361525189294969\\
22	0.000358445599778254\\
23	0.000339289741142116\\
24	0.000379788179024747\\
25	0.000558505463456788\\
26	0.000194147755835001\\
27	0.000367406942813017\\
28	0.000225832811162229\\
29	0.000133826545446771\\
30	0.000612759664554851\\
31	0.00249751190561422\\
32	0.000118326694713298\\
33	0.000229253852672687\\
34	0.000392460681056217\\
35	0.000444320014663343\\
36	0.000625119546446786\\
37	0.000178216330648922\\
38	0.00144694708498524\\
39	0.00262517446809743\\
40	0.000738017877360474\\
41	0.00397296642231631\\
42	0.000359361287431336\\
43	0.000353413506017904\\
44	0.000715943574089117\\
45	0.000528849522030677\\
46	0.00119252667671491\\
47	0.00165404006194183\\
48	0.000481072494598274\\
49	0.999958737662754\\
50	0.00047605064832076\\
51	0.00165807003721762\\
52	0.00118048910812135\\
53	0.000537353007760639\\
54	0.000714061364796664\\
55	0.000354311136547433\\
56	0.00035651983545054\\
57	0.00397556079872245\\
58	0.000735663117238368\\
59	0.00262310092482177\\
60	0.00143299459728687\\
61	0.00016284568207484\\
62	0.000603140931943939\\
63	0.000440599177301582\\
64	0.000393496689287533\\
65	0.000248132292525536\\
66	0.000125092948925035\\
67	0.00249410482526485\\
68	0.000642287710641738\\
69	0.000144332973871019\\
70	0.00027348984207934\\
71	0.000327887134080162\\
72	0.000194134330981005\\
73	0.00057432793593973\\
74	0.000381420277295886\\
75	0.000369309177388787\\
76	0.000336843954837132\\
77	0.000358676963483681\\
78	0.000436796457538468\\
79	0.000371510359819024\\
80	0.000165904374485653\\
81	0.000418603833899081\\
82	0.000181996640750499\\
83	0.00036248599609754\\
84	0.000101733506493286\\
85	0.000272135822336701\\
86	0.000192234830811631\\
87	0.000312499074320212\\
88	0.0005229428990886\\
89	0.000401558021486651\\
90	0.000155348207769942\\
91	0.000313590501635194\\
92	0.000436562812397232\\
93	0.000173676741310222\\
94	7.67113094120532e-05\\
95	0.000169120880873694\\
96	0.00026455622555023\\
97	0.00022864543575163\\
98	0.000247837017287473\\
99	0.000472557894373769\\
};
\addlegendentry{$\mathbf{\hat{h}_{2}}$}

\end{axis}
\end{tikzpicture}%