% This file was created by matlab2tikz.
%
%The latest updates can be retrieved from
%  http://www.mathworks.com/matlabcentral/fileexchange/22022-matlab2tikz-matlab2tikz
%where you can also make suggestions and rate matlab2tikz.
%
\definecolor{mycolor1}{rgb}{0.00000,0.44700,0.74100}%
\definecolor{mycolor2}{rgb}{0.85000,0.32500,0.09800}%
%
\begin{tikzpicture}

\begin{axis}[%
width=1.935in,
height=3.2in,
at={(0.758in,0.512in)},
scale only axis,
xmin=0,
xmax=100,
xlabel style={font=\color{white!15!black}, align=center},
xlabel={Sample Index\\[1ex](a) Actual},
ymin=0,
ymax=1,
axis background/.style={fill=white},
legend style={legend cell align=left, align=left, draw=white!15!black}
]
\addplot [color=mycolor1]
  table[row sep=crcr]{%
1	0.0216926152020066\\
2	0.0241183965289278\\
3	0.0267807478156139\\
4	0.0354280601095614\\
5	0.221828667704926\\
6	0.648965745595675\\
7	0.241270440438586\\
8	0.0776642628644082\\
9	0.0581044824071981\\
10	0.0611489366831747\\
11	0.0798140419847986\\
12	0.062735544320507\\
13	0.113011040425493\\
14	0.377485382687519\\
15	0.331649248845691\\
16	0.18615433793772\\
17	0.146493252817741\\
18	0.0847190801249442\\
19	0.0628278567269286\\
20	0.0148364296169451\\
21	0.0250471739922352\\
22	0.0344835915107885\\
23	0.116323790948646\\
24	0.279210940275387\\
25	0.101045410677318\\
26	0.0464379665429307\\
27	0.041398863205924\\
28	0.0263226969199998\\
29	0.0221848789960478\\
30	0.0197642774213948\\
31	0.0186496517239344\\
32	0.0219339353832985\\
33	0.018414044189717\\
34	0.00937919788338426\\
35	0.0100670783096178\\
36	0.0098135024549665\\
37	0.00937197330245933\\
38	0.00884810306396591\\
39	0.00821513429074651\\
40	0.00732026654240377\\
41	0.00945021173361951\\
42	0.0127255218727005\\
43	0.00946415089832864\\
44	0.00862800399957479\\
45	0.00816256372793386\\
46	0.00784857678072338\\
47	0.00764005346579914\\
48	0.00755773656417068\\
49	0.00776075567554332\\
50	0.00986938420958768\\
51	0.00319649311885596\\
52	0.00500292172051245\\
53	0.00524752973649041\\
54	0.00526667690567613\\
55	0.00521575322380608\\
56	0.00513704586881206\\
57	0.00504647235310817\\
58	0.00495116794332671\\
59	0.00485468351773321\\
60	0.00475890010347922\\
61	0.00466484578572566\\
62	0.00457308311118313\\
63	0.00448390798586452\\
64	0.0043974582605137\\
65	0.00431377595094964\\
66	0.00423284428954661\\
67	0.00415461047403326\\
68	0.00407899997367922\\
69	0.00400592569101114\\
70	0.00393529390404367\\
71	0.0038670081481966\\
72	0.00380097175500134\\
73	0.00373708950172093\\
74	0.00367526866536834\\
75	0.00361541967416126\\
76	0.00355745648532918\\
77	0.00350129677649243\\
78	0.00344686201027152\\
79	0.00339407741330312\\
80	0.00334287189828014\\
81	0.0032931779490063\\
82	0.00324493148246751\\
83	0.00319807169773062\\
84	0.003152540918526\\
85	0.00310828443427485\\
86	0.00306525034282854\\
87	0.00302338939712195\\
88	0.00298265485717807\\
89	0.00294300234835571\\
90	0.00290438972634362\\
91	0.0028667769491261\\
92	0.00283012595595264\\
93	0.0027944005532083\\
94	0.00275956630699144\\
95	0.0027255904421446\\
96	0.00269244174744817\\
97	0.00266009048666622\\
98	0.00262850831512411\\
99	0\\
100	0\\
};
\addlegendentry{$\mathbf{h_1}$}

\addplot [color=mycolor2]
  table[row sep=crcr]{%
1	0.00108294891904515\\
2	0.00115806441999571\\
3	0.00125656841390277\\
4	0.00139359850086552\\
5	0.00159676508941691\\
6	0.00191784013184518\\
7	0.00245777585368985\\
8	0.00342819163679349\\
9	0.00533730915065768\\
10	0.00974214709050295\\
11	0.0244449264542886\\
12	0.973731186814765\\
13	0.0500739614470277\\
14	0.0426946282907342\\
15	0.00536788790071817\\
16	0.0362080823589407\\
17	0.176144271962331\\
18	0.115663212635922\\
19	0.0234963057121139\\
20	0.0138738178597906\\
21	0.00966054585381422\\
22	0.00731818549393035\\
23	0.00584139575065055\\
24	0.0048330083027894\\
25	0.00410500747522503\\
26	0.00355723928842746\\
27	0.00313167065616096\\
28	0.00279247304593218\\
29	0.00251639833876938\\
30	0.00228774297450139\\
31	0.00209554142652578\\
32	0.00193191967393617\\
33	0.00179108704155738\\
34	0.00166869616651274\\
35	0\\
36	0\\
37	0\\
38	0\\
39	0\\
40	0\\
41	0\\
42	0\\
43	0\\
44	0\\
45	0\\
46	0\\
47	0\\
48	0\\
49	0\\
50	0\\
51	0\\
52	0\\
53	0\\
54	0\\
55	0\\
56	0\\
57	0\\
58	0\\
59	0\\
60	0\\
61	0\\
62	0\\
63	0\\
64	0\\
65	0\\
66	0\\
67	0\\
68	0\\
69	0\\
70	0\\
71	0\\
72	0\\
73	0\\
74	0\\
75	0\\
76	0\\
77	0\\
78	0\\
79	0\\
80	0\\
81	0\\
82	0\\
83	0\\
84	0\\
85	0\\
86	0\\
87	0\\
88	0\\
89	0\\
90	0\\
91	0\\
92	0\\
93	0\\
94	0\\
95	0\\
96	0\\
97	0\\
98	0\\
99	0\\
100	0\\
};
\addlegendentry{$\mathbf{h_{2}}$}

\end{axis}

\begin{axis}[%
width=1.935in,
height=3.2in,
at={(3.327in,0.512in)},
scale only axis,
xmin=0,
xmax=109,
xlabel style={font=\color{white!15!black}, align=center},
xlabel={Sample Index\\[1ex](b) Estimated},
ymin=0,
ymax=1,
axis background/.style={fill=white},
legend style={legend cell align=left, align=left, draw=white!15!black}
]
\addplot [color=mycolor1]
  table[row sep=crcr]{%
0	0.000579505115527031\\
1	0.00232968555710092\\
2	0.0020031456957216\\
3	0.00224554634532096\\
4	0.00240697712044017\\
5	0.00251233397180964\\
6	0.000972314219017979\\
7	0.00173044509844763\\
8	0.000467210919152701\\
9	0.00112521813781779\\
10	0.000774892544760357\\
11	0.00341156836850457\\
12	0.000759231369960363\\
13	0.000542823191375491\\
14	0.000458716386008664\\
15	0.00087702864384866\\
16	0.00148742705710227\\
17	0.00160220224629497\\
18	0.000791369944416162\\
19	0.00182509806325137\\
20	0.00158710764104642\\
21	0.00196025787658722\\
22	0.000857421633141749\\
23	0.00172233876133057\\
24	0.00297902715644385\\
25	0.000709460579349379\\
26	0.00317665613847856\\
27	0.00499165335907273\\
28	0.00305572927376024\\
29	0.0101141960081015\\
30	0.0201178696833939\\
31	0.00273989831187021\\
32	0.0101721495689825\\
33	0.00599979621809973\\
34	0.0065521740144992\\
35	0.00788195052651252\\
36	0.00867521976176277\\
37	0.0157651001251381\\
38	0.0344206919282948\\
39	0.020729686680289\\
40	0.0203095370287669\\
41	0.0321720200848659\\
42	0.0454167219734824\\
43	0.107385824981186\\
44	0.0299588581109007\\
45	0.0325357336387892\\
46	0.0231792280417223\\
47	0.190863460892957\\
48	0.661016519489674\\
49	0.209573494585319\\
50	0.0428243940410847\\
51	0.145374709514412\\
52	0.0734674949238808\\
53	0.102623745504578\\
54	0.0360795002186166\\
55	0.105749749325997\\
56	0.392724020051206\\
57	0.293684375870151\\
58	0.171756909141632\\
59	0.130518702014148\\
60	0.0730951105051487\\
61	0.106759516655128\\
62	0.0340909657934307\\
63	0.0368298426408673\\
64	0.0496228896132937\\
65	0.116374764069385\\
66	0.272567579828692\\
67	0.077546423594171\\
68	0.0225357802314755\\
69	0.0196319581993689\\
70	0.0251788124300117\\
71	0.0201474599188837\\
72	0.0255103633941942\\
73	0.0330987543029704\\
74	0.0432350235386598\\
75	0.0212677048001726\\
76	0.00889190841713544\\
77	0.0040019049699532\\
78	0.0155347916531076\\
79	0.014705678696413\\
80	0.00908796142464077\\
81	0.00840246019309638\\
82	0.00885568718249555\\
83	0.0136816313058596\\
84	0.010678201010819\\
85	0.0132320315877014\\
86	0.00841325881719705\\
87	0.0075113823617653\\
88	0.00764977637928092\\
89	0.00986217697886688\\
90	0.0100939736384608\\
91	0.0103626417950437\\
92	0.0101322823085019\\
93	0.0025563606247277\\
94	0.00634000879302016\\
95	0.0056980681437551\\
96	0.00666027308973765\\
97	0.00654049614711743\\
98	0.00729120474869547\\
99	0.00726734226398144\\
100	0.00508081034788553\\
101	0.00379541424028193\\
102	0.00723530724799559\\
103	0.00506054092577838\\
104	0.00530818494635315\\
105	0.00373516332732792\\
106	0.00529780594586471\\
107	0.00452027492025076\\
108	0.00424957614843881\\
109	0.00537688421170191\\
};
\addlegendentry{$\mathbf{\hat{h}_{1}}$}

\addplot [color=mycolor2]
  table[row sep=crcr]{%
0	0.000683041971032798\\
1	0.000965119431972724\\
2	0.0009311161455372\\
3	0.0014017289642279\\
4	0.00146957098786398\\
5	0.000457407990166828\\
6	0.000862993316448223\\
7	0.00137252915123556\\
8	0.000871250663403297\\
9	0.00080469119164701\\
10	0.00195559195148135\\
11	0.00206198307240794\\
12	0.00152037328767921\\
13	0.000988523712634932\\
14	0.00102859313509988\\
15	0.000790018115756382\\
16	0.00177411828398056\\
17	0.0013796514280883\\
18	0.00150326351634584\\
19	0.000430728672366656\\
20	0.00301480587727927\\
21	0.00216044182404097\\
22	0.00217476658190228\\
23	0.00246156473438248\\
24	0.00155580972860428\\
25	0.000732480701587753\\
26	0.00351760372030596\\
27	0.0039868486730606\\
28	0.00595236354283777\\
29	0.0043662908949387\\
30	0.00220590562271908\\
31	0.00276885761663996\\
32	0.00133077477733422\\
33	0.00169077816225751\\
34	0.00668535879221682\\
35	0.00645216125684286\\
36	0.0482643656289176\\
37	0.00752587934238849\\
38	0.0107065279754757\\
39	0.00758194555926196\\
40	0.00635497574689341\\
41	0.00865103877900062\\
42	0.00104956631148126\\
43	0.0335309802287481\\
44	0.0503097298820858\\
45	0.016445352434916\\
46	0.0733792495084381\\
47	0.00691076449630309\\
48	0.00475441821780827\\
49	0.0156896473756561\\
50	0.0119726455916682\\
51	0.021015222299997\\
52	0.0292036452903932\\
53	0.00698915380061595\\
54	0.985869315890906\\
55	0.00698787673519028\\
56	0.0292027786797087\\
57	0.0210112867117172\\
58	0.0119732801019129\\
59	0.0156801774084174\\
60	0.00475309222586407\\
61	0.00691151934149634\\
62	0.0733816767388332\\
63	0.0164496590230878\\
64	0.0503002928961054\\
65	0.0335189337412283\\
66	0.00105502503031258\\
67	0.00866701290633618\\
68	0.00635341460307865\\
69	0.00755681869079295\\
70	0.010703902018635\\
71	0.0075311977065934\\
72	0.0482577406849773\\
73	0.00645951170831946\\
74	0.00666972081096501\\
75	0.00167385695700666\\
76	0.00132560757273179\\
77	0.00274972188279736\\
78	0.00218962567508681\\
79	0.00435359174378104\\
80	0.00596144334777593\\
81	0.00398621713669445\\
82	0.003535480043756\\
83	0.000746592169241598\\
84	0.0015454520878998\\
85	0.00242339801047557\\
86	0.00214168000622042\\
87	0.00211693874682913\\
88	0.00299116367422355\\
89	0.000451379659561108\\
90	0.00146644678802006\\
91	0.00137115913186775\\
92	0.00174293923238617\\
93	0.00073933492543142\\
94	0.000987298240925082\\
95	0.000941501850544516\\
96	0.00147815947513641\\
97	0.00200830898580882\\
98	0.00193976516871879\\
99	0.000807648920990007\\
100	0.000855775373117362\\
101	0.00135633165698658\\
102	0.000825986406879979\\
103	0.000436318949380833\\
104	0.00142080269612667\\
105	0.001371183624948\\
106	0.000859444397609718\\
107	0.000887668402766376\\
108	0.00057836644591283\\
109	0.000836923378315402\\
};
\addlegendentry{$\mathbf{\hat{h}_{2}}$}

\end{axis}
\end{tikzpicture}%