% This file was created by matlab2tikz.
%
%The latest updates can be retrieved from
%  http://www.mathworks.com/matlabcentral/fileexchange/22022-matlab2tikz-matlab2tikz
%where you can also make suggestions and rate matlab2tikz.
%
\definecolor{mycolor1}{rgb}{0.00000,0.44700,0.74100}%
\definecolor{mycolor2}{rgb}{0.85000,0.32500,0.09800}%
%
\begin{tikzpicture}

\begin{axis}[%
width=1.935in,
height=3.2in,
at={(0.758in,0.512in)},
scale only axis,
xmin=0,
xmax=100,
xlabel style={font=\color{white!15!black}, align=center},
xlabel={Sample Index\\[1ex](a) Actual},
ymin=0,
ymax=1,
axis background/.style={fill=white},
legend style={legend cell align=left, align=left, draw=white!15!black}
]
\addplot [color=mycolor1]
  table[row sep=crcr]{%
1	0.0216926152020066\\
2	0.0241183965289278\\
3	0.0267807478156139\\
4	0.0354280601095614\\
5	0.221828667704926\\
6	0.648965745595675\\
7	0.241270440438586\\
8	0.0776642628644082\\
9	0.0581044824071981\\
10	0.0611489366831747\\
11	0.0798140419847986\\
12	0.062735544320507\\
13	0.113011040425493\\
14	0.377485382687519\\
15	0.331649248845691\\
16	0.18615433793772\\
17	0.146493252817741\\
18	0.0847190801249442\\
19	0.0628278567269286\\
20	0.0148364296169451\\
21	0.0250471739922352\\
22	0.0344835915107885\\
23	0.116323790948646\\
24	0.279210940275387\\
25	0.101045410677318\\
26	0.0464379665429307\\
27	0.041398863205924\\
28	0.0263226969199998\\
29	0.0221848789960478\\
30	0.0197642774213948\\
31	0.0186496517239344\\
32	0.0219339353832985\\
33	0.018414044189717\\
34	0.00937919788338426\\
35	0.0100670783096178\\
36	0.0098135024549665\\
37	0.00937197330245933\\
38	0.00884810306396591\\
39	0.00821513429074651\\
40	0.00732026654240377\\
41	0.00945021173361951\\
42	0.0127255218727005\\
43	0.00946415089832864\\
44	0.00862800399957479\\
45	0.00816256372793386\\
46	0.00784857678072338\\
47	0.00764005346579914\\
48	0.00755773656417068\\
49	0.00776075567554332\\
50	0.00986938420958768\\
51	0.00319649311885596\\
52	0.00500292172051245\\
53	0.00524752973649041\\
54	0.00526667690567613\\
55	0.00521575322380608\\
56	0.00513704586881206\\
57	0.00504647235310817\\
58	0.00495116794332671\\
59	0.00485468351773321\\
60	0.00475890010347922\\
61	0.00466484578572566\\
62	0.00457308311118313\\
63	0.00448390798586452\\
64	0.0043974582605137\\
65	0.00431377595094964\\
66	0.00423284428954661\\
67	0.00415461047403326\\
68	0.00407899997367922\\
69	0.00400592569101114\\
70	0.00393529390404367\\
71	0.0038670081481966\\
72	0.00380097175500134\\
73	0.00373708950172093\\
74	0.00367526866536834\\
75	0.00361541967416126\\
76	0.00355745648532918\\
77	0.00350129677649243\\
78	0.00344686201027152\\
79	0.00339407741330312\\
80	0.00334287189828014\\
81	0.0032931779490063\\
82	0.00324493148246751\\
83	0.00319807169773062\\
84	0.003152540918526\\
85	0.00310828443427485\\
86	0.00306525034282854\\
87	0.00302338939712195\\
88	0.00298265485717807\\
89	0.00294300234835571\\
90	0.00290438972634362\\
91	0.0028667769491261\\
92	0.00283012595595264\\
93	0.0027944005532083\\
94	0.00275956630699144\\
95	0.0027255904421446\\
96	0.00269244174744817\\
97	0.00266009048666622\\
98	0.00262850831512411\\
99	0\\
100	0\\
};
\addlegendentry{$\mathbf{h_1}$}

\addplot [color=mycolor2]
  table[row sep=crcr]{%
1	0.00108294891904515\\
2	0.00115806441999571\\
3	0.00125656841390277\\
4	0.00139359850086552\\
5	0.00159676508941691\\
6	0.00191784013184518\\
7	0.00245777585368985\\
8	0.00342819163679349\\
9	0.00533730915065768\\
10	0.00974214709050295\\
11	0.0244449264542886\\
12	0.973731186814765\\
13	0.0500739614470277\\
14	0.0426946282907342\\
15	0.00536788790071817\\
16	0.0362080823589407\\
17	0.176144271962331\\
18	0.115663212635922\\
19	0.0234963057121139\\
20	0.0138738178597906\\
21	0.00966054585381422\\
22	0.00731818549393035\\
23	0.00584139575065055\\
24	0.0048330083027894\\
25	0.00410500747522503\\
26	0.00355723928842746\\
27	0.00313167065616096\\
28	0.00279247304593218\\
29	0.00251639833876938\\
30	0.00228774297450139\\
31	0.00209554142652578\\
32	0.00193191967393617\\
33	0.00179108704155738\\
34	0.00166869616651274\\
35	0\\
36	0\\
37	0\\
38	0\\
39	0\\
40	0\\
41	0\\
42	0\\
43	0\\
44	0\\
45	0\\
46	0\\
47	0\\
48	0\\
49	0\\
50	0\\
51	0\\
52	0\\
53	0\\
54	0\\
55	0\\
56	0\\
57	0\\
58	0\\
59	0\\
60	0\\
61	0\\
62	0\\
63	0\\
64	0\\
65	0\\
66	0\\
67	0\\
68	0\\
69	0\\
70	0\\
71	0\\
72	0\\
73	0\\
74	0\\
75	0\\
76	0\\
77	0\\
78	0\\
79	0\\
80	0\\
81	0\\
82	0\\
83	0\\
84	0\\
85	0\\
86	0\\
87	0\\
88	0\\
89	0\\
90	0\\
91	0\\
92	0\\
93	0\\
94	0\\
95	0\\
96	0\\
97	0\\
98	0\\
99	0\\
100	0\\
};
\addlegendentry{$\mathbf{h_{2}}$}

\end{axis}

\begin{axis}[%
width=1.935in,
height=3.2in,
at={(3.327in,0.512in)},
scale only axis,
xmin=0,
xmax=60,
xlabel style={font=\color{white!15!black}, align=center},
xlabel={Sample Index\\[1ex](b) Estimated},
ymin=0,
ymax=1,
axis background/.style={fill=white},
legend style={legend cell align=left, align=left, draw=white!15!black}
]
\addplot [color=mycolor1]
  table[row sep=crcr]{%
0	0.0564723371696885\\
1	0.00637858653526237\\
2	0.0281699995410357\\
3	0.00357662929125574\\
4	0.00671017396348309\\
5	0.0135786200526408\\
6	0.0146354089699938\\
7	0.0474891443782351\\
8	0.0914579459027766\\
9	0.0567413942899343\\
10	0.0765811351741853\\
11	0.0411659004309096\\
12	0.0181532470983794\\
13	0.0750912603728667\\
14	0.0201761191066568\\
15	0.0443381914283624\\
16	0.00925462190664647\\
17	0.175952233903302\\
18	0.665988985863495\\
19	0.203945740867451\\
20	0.033626617175843\\
21	0.105550844190758\\
22	0.0868459324907745\\
23	0.128013867146555\\
24	0.0335098607539734\\
25	0.0983746470473007\\
26	0.358785879381858\\
27	0.283771107732022\\
28	0.192497025670901\\
29	0.124152548516046\\
30	0.0842657275060221\\
31	0.0739611026174245\\
32	0.0632543621835779\\
33	0.0419398387931737\\
34	0.0759637528733576\\
35	0.147185105941725\\
36	0.266849033096644\\
37	0.0644112957078569\\
38	0.0140478784383053\\
39	0.0173280974936708\\
40	0.0184431808528845\\
41	0.0163223981215642\\
42	0.0377069905692343\\
43	0.060130684072362\\
44	0.0924003315213987\\
45	0.0453388022226516\\
46	0.0350184311805575\\
47	0.010554443798739\\
48	0.0318566466989102\\
49	0.0258114784695618\\
};
\addlegendentry{$\mathbf{\hat{h}_{1}}$}

\addplot [color=mycolor2]
  table[row sep=crcr]{%
0	0.00422561011794116\\
1	0.00531104666892036\\
2	0.00630631192867054\\
3	0.00466784577003403\\
4	0.00784027789516211\\
5	0.0154059145212646\\
6	0.0795176421693046\\
7	0.0233884334398637\\
8	0.0336997369759683\\
9	0.0177687641173389\\
10	0.0117016645316991\\
11	0.00979128405406895\\
12	0.00246615462541915\\
13	0.0633187761181531\\
14	0.0783321343251085\\
15	0.0351014891511535\\
16	0.133693468921002\\
17	0.00889659425621057\\
18	0.0271364592788806\\
19	0.0478702945091374\\
20	0.0300163762895598\\
21	0.0318243237976027\\
22	0.0476942635177513\\
23	0.0137533988431437\\
24	0.95332252497585\\
25	0.0133743883255385\\
26	0.0470117850998533\\
27	0.0313975071685444\\
28	0.0300867742224543\\
29	0.0486300961107082\\
30	0.0270260124515155\\
31	0.00999313384580324\\
32	0.133670884088386\\
33	0.0350122835195125\\
34	0.0774983796787611\\
35	0.0630473366429864\\
36	0.00329820172044531\\
37	0.0112385143658741\\
38	0.0109065138367111\\
39	0.015696740465809\\
40	0.0304082613314965\\
41	0.0224581724572257\\
42	0.0786544407877312\\
43	0.0209249698064652\\
44	0.00897081050545323\\
45	0.00768711140571612\\
46	0.00643223052657558\\
47	0.00886641449657282\\
48	0.00430447400460701\\
49	0.00945821085777209\\
};
\addlegendentry{$\mathbf{\hat{h}_{2}}$}

\end{axis}
\end{tikzpicture}%