% This file was created by matlab2tikz.
%
%The latest updates can be retrieved from
%  http://www.mathworks.com/matlabcentral/fileexchange/22022-matlab2tikz-matlab2tikz
%where you can also make suggestions and rate matlab2tikz.
%
\definecolor{mycolor1}{rgb}{0.00000,0.44700,0.74100}%
\definecolor{mycolor2}{rgb}{0.85000,0.32500,0.09800}%
%
\begin{tikzpicture}

\begin{axis}[%
width=1.935in,
height=3.2in,
at={(0.758in,0.512in)},
scale only axis,
xmin=0,
xmax=100,
xlabel style={font=\color{white!15!black}, align=center},
xlabel={Sample Index\\[1ex](a) Actual},
ymin=0,
ymax=1,
axis background/.style={fill=white},
legend style={legend cell align=left, align=left, draw=white!15!black}
]
\addplot [color=mycolor1]
  table[row sep=crcr]{%
1	0.0216926152020066\\
2	0.0241183965289278\\
3	0.0267807478156139\\
4	0.0354280601095614\\
5	0.221828667704926\\
6	0.648965745595675\\
7	0.241270440438586\\
8	0.0776642628644082\\
9	0.0581044824071981\\
10	0.0611489366831747\\
11	0.0798140419847986\\
12	0.062735544320507\\
13	0.113011040425493\\
14	0.377485382687519\\
15	0.331649248845691\\
16	0.18615433793772\\
17	0.146493252817741\\
18	0.0847190801249442\\
19	0.0628278567269286\\
20	0.0148364296169451\\
21	0.0250471739922352\\
22	0.0344835915107885\\
23	0.116323790948646\\
24	0.279210940275387\\
25	0.101045410677318\\
26	0.0464379665429307\\
27	0.041398863205924\\
28	0.0263226969199998\\
29	0.0221848789960478\\
30	0.0197642774213948\\
31	0.0186496517239344\\
32	0.0219339353832985\\
33	0.018414044189717\\
34	0.00937919788338426\\
35	0.0100670783096178\\
36	0.0098135024549665\\
37	0.00937197330245933\\
38	0.00884810306396591\\
39	0.00821513429074651\\
40	0.00732026654240377\\
41	0.00945021173361951\\
42	0.0127255218727005\\
43	0.00946415089832864\\
44	0.00862800399957479\\
45	0.00816256372793386\\
46	0.00784857678072338\\
47	0.00764005346579914\\
48	0.00755773656417068\\
49	0.00776075567554332\\
50	0.00986938420958768\\
51	0.00319649311885596\\
52	0.00500292172051245\\
53	0.00524752973649041\\
54	0.00526667690567613\\
55	0.00521575322380608\\
56	0.00513704586881206\\
57	0.00504647235310817\\
58	0.00495116794332671\\
59	0.00485468351773321\\
60	0.00475890010347922\\
61	0.00466484578572566\\
62	0.00457308311118313\\
63	0.00448390798586452\\
64	0.0043974582605137\\
65	0.00431377595094964\\
66	0.00423284428954661\\
67	0.00415461047403326\\
68	0.00407899997367922\\
69	0.00400592569101114\\
70	0.00393529390404367\\
71	0.0038670081481966\\
72	0.00380097175500134\\
73	0.00373708950172093\\
74	0.00367526866536834\\
75	0.00361541967416126\\
76	0.00355745648532918\\
77	0.00350129677649243\\
78	0.00344686201027152\\
79	0.00339407741330312\\
80	0.00334287189828014\\
81	0.0032931779490063\\
82	0.00324493148246751\\
83	0.00319807169773062\\
84	0.003152540918526\\
85	0.00310828443427485\\
86	0.00306525034282854\\
87	0.00302338939712195\\
88	0.00298265485717807\\
89	0.00294300234835571\\
90	0.00290438972634362\\
91	0.0028667769491261\\
92	0.00283012595595264\\
93	0.0027944005532083\\
94	0.00275956630699144\\
95	0.0027255904421446\\
96	0.00269244174744817\\
97	0.00266009048666622\\
98	0.00262850831512411\\
99	0\\
100	0\\
};
\addlegendentry{$\mathbf{h_1}$}

\addplot [color=mycolor2]
  table[row sep=crcr]{%
1	0.00108294891904515\\
2	0.00115806441999571\\
3	0.00125656841390277\\
4	0.00139359850086552\\
5	0.00159676508941691\\
6	0.00191784013184518\\
7	0.00245777585368985\\
8	0.00342819163679349\\
9	0.00533730915065768\\
10	0.00974214709050295\\
11	0.0244449264542886\\
12	0.973731186814765\\
13	0.0500739614470277\\
14	0.0426946282907342\\
15	0.00536788790071817\\
16	0.0362080823589407\\
17	0.176144271962331\\
18	0.115663212635922\\
19	0.0234963057121139\\
20	0.0138738178597906\\
21	0.00966054585381422\\
22	0.00731818549393035\\
23	0.00584139575065055\\
24	0.0048330083027894\\
25	0.00410500747522503\\
26	0.00355723928842746\\
27	0.00313167065616096\\
28	0.00279247304593218\\
29	0.00251639833876938\\
30	0.00228774297450139\\
31	0.00209554142652578\\
32	0.00193191967393617\\
33	0.00179108704155738\\
34	0.00166869616651274\\
35	0\\
36	0\\
37	0\\
38	0\\
39	0\\
40	0\\
41	0\\
42	0\\
43	0\\
44	0\\
45	0\\
46	0\\
47	0\\
48	0\\
49	0\\
50	0\\
51	0\\
52	0\\
53	0\\
54	0\\
55	0\\
56	0\\
57	0\\
58	0\\
59	0\\
60	0\\
61	0\\
62	0\\
63	0\\
64	0\\
65	0\\
66	0\\
67	0\\
68	0\\
69	0\\
70	0\\
71	0\\
72	0\\
73	0\\
74	0\\
75	0\\
76	0\\
77	0\\
78	0\\
79	0\\
80	0\\
81	0\\
82	0\\
83	0\\
84	0\\
85	0\\
86	0\\
87	0\\
88	0\\
89	0\\
90	0\\
91	0\\
92	0\\
93	0\\
94	0\\
95	0\\
96	0\\
97	0\\
98	0\\
99	0\\
100	0\\
};
\addlegendentry{$\mathbf{h_{2}}$}

\end{axis}

\begin{axis}[%
width=1.935in,
height=3.2in,
at={(3.327in,0.512in)},
scale only axis,
xmin=0,
xmax=100,
xlabel style={font=\color{white!15!black}, align=center},
xlabel={Sample Index\\[1ex](b) Estimated},
ymin=0,
ymax=0.18,
axis background/.style={fill=white},
legend style={legend cell align=left, align=left, draw=white!15!black}
]
\addplot [color=mycolor1]
  table[row sep=crcr]{%
0	0.0214990810365211\\
1	0.0803105889138148\\
2	0.0686363419151073\\
3	0.0775866808545695\\
4	0.0867940119065106\\
5	0.0848792614373944\\
6	0.0934928795424631\\
7	0.107192100044042\\
8	0.111251988534342\\
9	0.103031821075541\\
10	0.11100534370392\\
11	0.105314479380984\\
12	0.104490610940479\\
13	0.105092698277998\\
14	0.103632077105576\\
15	0.107377071113904\\
16	0.111159160794969\\
17	0.104728189311941\\
18	0.116242956959353\\
19	0.126873359441451\\
20	0.123171262380758\\
21	0.132816948924989\\
22	0.138214819278044\\
23	0.129201761994205\\
24	0.12742954890281\\
25	0.132373493437551\\
26	0.13274926523725\\
27	0.126388315864424\\
28	0.130333216535591\\
29	0.136172825372404\\
30	0.123522056737876\\
31	0.121947632579973\\
32	0.119047513655724\\
33	0.107590572831667\\
34	0.11299011285096\\
35	0.102542206950003\\
36	0.093256241054366\\
37	0.0957521817061777\\
38	0.100596946153828\\
39	0.0877920122697391\\
40	0.0917941185669363\\
41	0.0935563113798832\\
42	0.067731341538694\\
43	0.0700039884890028\\
44	0.0787595272248211\\
45	0.0702429436264993\\
46	0.0765519136073694\\
47	0.0866732422582453\\
48	0.0782843147298626\\
49	0.0791653539588827\\
50	0.0880640730216779\\
51	0.0804238963369576\\
52	0.0692374148555783\\
53	0.0776724949335657\\
54	0.0833912340861686\\
55	0.0764508613844556\\
56	0.0765994039420928\\
57	0.0854190429773515\\
58	0.0810454991403363\\
59	0.0843750511009347\\
60	0.096862474475945\\
61	0.0944880746484081\\
62	0.0959390760057638\\
63	0.112974121022222\\
64	0.120640980887925\\
65	0.121957828095367\\
66	0.141647103476816\\
67	0.140934144741191\\
68	0.130558949867595\\
69	0.129354431609742\\
70	0.124730613253268\\
71	0.138740303780065\\
72	0.147126294670671\\
73	0.129771939490897\\
74	0.128473663174648\\
75	0.133771851986256\\
76	0.12493122937604\\
77	0.107957856006028\\
78	0.114421726323906\\
79	0.095874184471137\\
80	0.0956404810996011\\
81	0.100659760088375\\
82	0.105394887238898\\
83	0.111054187660456\\
84	0.103956399197462\\
85	0.0972331197949645\\
86	0.0791388451292224\\
87	0.0671922979439996\\
88	0.0644427871000484\\
89	0.0634489045078123\\
90	0.0403461581987375\\
91	0.0354515682863822\\
92	0.0347232667189606\\
93	0.0289491579253986\\
94	0.0195084212525998\\
95	0.020644907894552\\
96	0.0149088382475201\\
97	0.014029321794881\\
98	0.015124058399082\\
99	0.0150287591407818\\
};
\addlegendentry{$\mathbf{\hat{h}_{1}}$}

\addplot [color=mycolor2]
  table[row sep=crcr]{%
0	0.00130607844908927\\
1	0.0019255965264182\\
2	0.0016797150434324\\
3	0.00220697856010508\\
4	0.00611619867898215\\
5	0.026052720846714\\
6	0.0726931666419213\\
7	0.140802450833471\\
8	0.121564484764168\\
9	0.15030067174212\\
10	0.151844063163539\\
11	0.15135506597643\\
12	0.145874504722038\\
13	0.162192128810127\\
14	0.159662102911952\\
15	0.161276049247505\\
16	0.153282216451326\\
17	0.145807522555034\\
18	0.140612955368621\\
19	0.138862194238574\\
20	0.140077322871537\\
21	0.132792516539182\\
22	0.120305756129181\\
23	0.111130096954372\\
24	0.112327940084216\\
25	0.105258786769928\\
26	0.130483507869061\\
27	0.133506750837907\\
28	0.13434797745228\\
29	0.129933111829873\\
30	0.112010437214701\\
31	0.11296675165934\\
32	0.106993834362936\\
33	0.0997383285444601\\
34	0.0996389618796105\\
35	0.113638708086581\\
36	0.0933903618150901\\
37	0.0892598717667439\\
38	0.0986072433429632\\
39	0.0836547115958401\\
40	0.0627848822564977\\
41	0.0762733737045477\\
42	0.0748415868278018\\
43	0.073335091539703\\
44	0.0835918374807367\\
45	0.0895748329811656\\
46	0.0810425353575984\\
47	0.0813801350289172\\
48	0.0869799055035285\\
49	0.0847513174804318\\
50	0.0868956426001562\\
51	0.091000117928508\\
52	0.0939073017580347\\
53	0.0922285735977905\\
54	0.0927293546008185\\
55	0.0964384213548983\\
56	0.0935499393935922\\
57	0.0950930944921465\\
58	0.0976905815906057\\
59	0.0967986780025418\\
60	0.10238582502759\\
61	0.107259338387618\\
62	0.104943243834683\\
63	0.118462845996181\\
64	0.126488884221936\\
65	0.129954164274147\\
66	0.135239630900631\\
67	0.13169203664365\\
68	0.130065302817655\\
69	0.139979615337288\\
70	0.145280503158413\\
71	0.144315689554141\\
72	0.159051705771924\\
73	0.146323812953962\\
74	0.104848683859973\\
75	0.0885544492733829\\
76	0.0752936473948016\\
77	0.0691650079821546\\
78	0.0854005014188055\\
79	0.0739821139904602\\
80	0.060002389491639\\
81	0.054857413372243\\
82	0.0460052754396365\\
83	0.0378091318688766\\
84	0.0193406058707817\\
85	0.0206628019110854\\
86	0.0273686998257927\\
87	0.0195751393357898\\
88	0.0204453877327961\\
89	0.0137749857859486\\
90	0.011776330345435\\
91	0.0110704963545142\\
92	0.0121689040846339\\
93	0.00501134681268497\\
94	0.00490298299557647\\
95	0.00489929605620856\\
96	0.00299654892284992\\
97	0.00222629309459724\\
98	0.00179755543641113\\
99	0.00260056102874146\\
};
\addlegendentry{$\mathbf{\hat{h}_{2}}$}

\end{axis}
\end{tikzpicture}%