% This file was created by matlab2tikz.
%
%The latest updates can be retrieved from
%  http://www.mathworks.com/matlabcentral/fileexchange/22022-matlab2tikz-matlab2tikz
%where you can also make suggestions and rate matlab2tikz.
%
\definecolor{mycolor1}{rgb}{0.00000,0.44700,0.74100}%
\definecolor{mycolor2}{rgb}{0.85000,0.32500,0.09800}%
%
\begin{tikzpicture}

\begin{axis}[%
width=1.935in,
height=3.2in,
at={(0.758in,0.512in)},
scale only axis,
xmin=0,
xmax=100,
xlabel style={font=\color{white!15!black}, align=center},
xlabel={Sample Index\\[1ex](a) Actual},
ymin=0,
ymax=1,
axis background/.style={fill=white},
legend style={legend cell align=left, align=left, draw=white!15!black}
]
\addplot [color=mycolor1]
  table[row sep=crcr]{%
1	0.0216926152020066\\
2	0.0241183965289278\\
3	0.0267807478156139\\
4	0.0354280601095614\\
5	0.221828667704926\\
6	0.648965745595675\\
7	0.241270440438586\\
8	0.0776642628644082\\
9	0.0581044824071981\\
10	0.0611489366831747\\
11	0.0798140419847986\\
12	0.062735544320507\\
13	0.113011040425493\\
14	0.377485382687519\\
15	0.331649248845691\\
16	0.18615433793772\\
17	0.146493252817741\\
18	0.0847190801249442\\
19	0.0628278567269286\\
20	0.0148364296169451\\
21	0.0250471739922352\\
22	0.0344835915107885\\
23	0.116323790948646\\
24	0.279210940275387\\
25	0.101045410677318\\
26	0.0464379665429307\\
27	0.041398863205924\\
28	0.0263226969199998\\
29	0.0221848789960478\\
30	0.0197642774213948\\
31	0.0186496517239344\\
32	0.0219339353832985\\
33	0.018414044189717\\
34	0.00937919788338426\\
35	0.0100670783096178\\
36	0.0098135024549665\\
37	0.00937197330245933\\
38	0.00884810306396591\\
39	0.00821513429074651\\
40	0.00732026654240377\\
41	0.00945021173361951\\
42	0.0127255218727005\\
43	0.00946415089832864\\
44	0.00862800399957479\\
45	0.00816256372793386\\
46	0.00784857678072338\\
47	0.00764005346579914\\
48	0.00755773656417068\\
49	0.00776075567554332\\
50	0.00986938420958768\\
51	0.00319649311885596\\
52	0.00500292172051245\\
53	0.00524752973649041\\
54	0.00526667690567613\\
55	0.00521575322380608\\
56	0.00513704586881206\\
57	0.00504647235310817\\
58	0.00495116794332671\\
59	0.00485468351773321\\
60	0.00475890010347922\\
61	0.00466484578572566\\
62	0.00457308311118313\\
63	0.00448390798586452\\
64	0.0043974582605137\\
65	0.00431377595094964\\
66	0.00423284428954661\\
67	0.00415461047403326\\
68	0.00407899997367922\\
69	0.00400592569101114\\
70	0.00393529390404367\\
71	0.0038670081481966\\
72	0.00380097175500134\\
73	0.00373708950172093\\
74	0.00367526866536834\\
75	0.00361541967416126\\
76	0.00355745648532918\\
77	0.00350129677649243\\
78	0.00344686201027152\\
79	0.00339407741330312\\
80	0.00334287189828014\\
81	0.0032931779490063\\
82	0.00324493148246751\\
83	0.00319807169773062\\
84	0.003152540918526\\
85	0.00310828443427485\\
86	0.00306525034282854\\
87	0.00302338939712195\\
88	0.00298265485717807\\
89	0.00294300234835571\\
90	0.00290438972634362\\
91	0.0028667769491261\\
92	0.00283012595595264\\
93	0.0027944005532083\\
94	0.00275956630699144\\
95	0.0027255904421446\\
96	0.00269244174744817\\
97	0.00266009048666622\\
98	0.00262850831512411\\
99	0\\
100	0\\
};
\addlegendentry{$\mathbf{h_1}$}

\addplot [color=mycolor2]
  table[row sep=crcr]{%
1	0.00108294891904515\\
2	0.00115806441999571\\
3	0.00125656841390277\\
4	0.00139359850086552\\
5	0.00159676508941691\\
6	0.00191784013184518\\
7	0.00245777585368985\\
8	0.00342819163679349\\
9	0.00533730915065768\\
10	0.00974214709050295\\
11	0.0244449264542886\\
12	0.973731186814765\\
13	0.0500739614470277\\
14	0.0426946282907342\\
15	0.00536788790071817\\
16	0.0362080823589407\\
17	0.176144271962331\\
18	0.115663212635922\\
19	0.0234963057121139\\
20	0.0138738178597906\\
21	0.00966054585381422\\
22	0.00731818549393035\\
23	0.00584139575065055\\
24	0.0048330083027894\\
25	0.00410500747522503\\
26	0.00355723928842746\\
27	0.00313167065616096\\
28	0.00279247304593218\\
29	0.00251639833876938\\
30	0.00228774297450139\\
31	0.00209554142652578\\
32	0.00193191967393617\\
33	0.00179108704155738\\
34	0.00166869616651274\\
35	0\\
36	0\\
37	0\\
38	0\\
39	0\\
40	0\\
41	0\\
42	0\\
43	0\\
44	0\\
45	0\\
46	0\\
47	0\\
48	0\\
49	0\\
50	0\\
51	0\\
52	0\\
53	0\\
54	0\\
55	0\\
56	0\\
57	0\\
58	0\\
59	0\\
60	0\\
61	0\\
62	0\\
63	0\\
64	0\\
65	0\\
66	0\\
67	0\\
68	0\\
69	0\\
70	0\\
71	0\\
72	0\\
73	0\\
74	0\\
75	0\\
76	0\\
77	0\\
78	0\\
79	0\\
80	0\\
81	0\\
82	0\\
83	0\\
84	0\\
85	0\\
86	0\\
87	0\\
88	0\\
89	0\\
90	0\\
91	0\\
92	0\\
93	0\\
94	0\\
95	0\\
96	0\\
97	0\\
98	0\\
99	0\\
100	0\\
};
\addlegendentry{$\mathbf{h_{2}}$}

\end{axis}

\begin{axis}[%
width=1.935in,
height=3.2in,
at={(3.327in,0.512in)},
scale only axis,
xmin=0,
xmax=109,
xlabel style={font=\color{white!15!black}, align=center},
xlabel={Sample Index\\[1ex](b) Estimated},
ymin=0,
ymax=1,
axis background/.style={fill=white},
legend style={legend cell align=left, align=left, draw=white!15!black}
]
\addplot [color=mycolor1]
  table[row sep=crcr]{%
0	0.00115686102180752\\
1	0.000587326053475866\\
2	0.00203535931128798\\
3	0.00268154639114344\\
4	0.00206088570449215\\
5	0.001868517904679\\
6	0.000698632073859485\\
7	0.00147040732482037\\
8	0.00129759715442251\\
9	0.00204368932289834\\
10	0.00180543002166965\\
11	0.00131289003268423\\
12	0.000447552367097832\\
13	0.00359573178816584\\
14	0.00529368080609047\\
15	0.00272773794940194\\
16	0.00205598304199526\\
17	0.00119426967372453\\
18	0.00246890612051818\\
19	0.00436651807155881\\
20	0.00821422748083288\\
21	0.00813977193905129\\
22	0.00363137638421963\\
23	0.00547654046483467\\
24	0.00283234464844622\\
25	0.00130739448172793\\
26	0.00187623885749278\\
27	0.00907850956670547\\
28	0.00423186710954417\\
29	0.0186113335571631\\
30	0.0421141296817719\\
31	0.00412190055859928\\
32	0.0159493153203457\\
33	0.00316240825560692\\
34	0.00856106934742638\\
35	0.00811988562060799\\
36	0.013954792495261\\
37	0.0364820512037971\\
38	0.078935983134541\\
39	0.0487994319614351\\
40	0.0582160495416958\\
41	0.0385433454466353\\
42	0.0250818088623875\\
43	0.0812949860029646\\
44	0.0224229961662012\\
45	0.0417707398845756\\
46	0.011382354013132\\
47	0.177168503027602\\
48	0.667608340188798\\
49	0.207514687698919\\
50	0.0325639801187522\\
51	0.114646341340461\\
52	0.083548412129704\\
53	0.125713251282743\\
54	0.0334783944446383\\
55	0.10019397512884\\
56	0.36978578019606\\
57	0.288115911976398\\
58	0.186320684777661\\
59	0.124769141834492\\
60	0.0814814587798998\\
61	0.0804599811105218\\
62	0.0561453760762959\\
63	0.0413910982606662\\
64	0.0701013227610164\\
65	0.140290512477923\\
66	0.265689981613496\\
67	0.0663145261837265\\
68	0.00905839208355409\\
69	0.0154856737035828\\
70	0.0182590561627559\\
71	0.0160213018832719\\
72	0.0339807133485715\\
73	0.052235052400498\\
74	0.0736388734721615\\
75	0.0344554950859571\\
76	0.0214404074633644\\
77	0.0082928910527376\\
78	0.0249486675733978\\
79	0.0197428160747233\\
80	0.0166760330214923\\
81	0.00994738892502362\\
82	0.0169286449685476\\
83	0.0244384419212424\\
84	0.0166268391068817\\
85	0.0173138072543238\\
86	0.00720673026889922\\
87	0.00814144603760326\\
88	0.0099409813362226\\
89	0.0113627968263395\\
90	0.0113300789008424\\
91	0.0157992773030046\\
92	0.0148711392895338\\
93	0.00417520656176464\\
94	0.0089506761644982\\
95	0.00797672662073801\\
96	0.00808219808997718\\
97	0.0061027676765626\\
98	0.00476113780832392\\
99	0.00483534565745478\\
100	0.0052806784219911\\
101	0.0100552938106398\\
102	0.0085089280130146\\
103	0.00787121553138496\\
104	0.00550929980947393\\
105	0.00707908824510291\\
106	0.00742845158685544\\
107	0.00550374229130281\\
108	0.00650198800496839\\
109	0.00449419019831122\\
};
\addlegendentry{$\mathbf{\hat{h}_{1}}$}

\addplot [color=mycolor2]
  table[row sep=crcr]{%
0	0.00170293973369844\\
1	0.00157067530716975\\
2	0.00181407713518318\\
3	0.000339421440076682\\
4	0.00206988605420325\\
5	0.0028486151478539\\
6	0.00287022046996396\\
7	0.00266157292545935\\
8	0.000713623566477855\\
9	0.00302067728642612\\
10	0.00407302803678107\\
11	0.00445653497501783\\
12	0.00266617522385116\\
13	0.00224896639473893\\
14	0.00159250127766097\\
15	0.00125226965878493\\
16	0.00317090850093698\\
17	0.00399665606089157\\
18	0.00411278609282002\\
19	0.00160032594859565\\
20	0.00842453941657007\\
21	0.00609213470627309\\
22	0.00649904108788856\\
23	0.00623444768529086\\
24	0.00496067910901062\\
25	0.00520415393314053\\
26	0.0151209807449716\\
27	0.0106953926184606\\
28	0.0208179080855223\\
29	0.0124990930721678\\
30	0.00311997358773885\\
31	0.0044297563684207\\
32	0.00236390399087926\\
33	0.00589535076458992\\
34	0.00921320022457241\\
35	0.0187898130222529\\
36	0.0817918861055091\\
37	0.0202448831152919\\
38	0.0295204404702322\\
39	0.0158246003301567\\
40	0.0130794251800063\\
41	0.0102141953269496\\
42	0.00271042315059998\\
43	0.0604096369433487\\
44	0.0765707703729939\\
45	0.032579297542429\\
46	0.126938933162305\\
47	0.00761733763596374\\
48	0.0206778217757999\\
49	0.0390404548907205\\
50	0.0255543471755864\\
51	0.0299990987014891\\
52	0.046128634453366\\
53	0.0109751941971546\\
54	0.956239255730642\\
55	0.01098628682934\\
56	0.0461263766745863\\
57	0.0299835073747787\\
58	0.0255622634829397\\
59	0.0390409991547006\\
60	0.020637503250074\\
61	0.00761217826263709\\
62	0.126980708116847\\
63	0.0325217472594966\\
64	0.0765347219466538\\
65	0.0603184864881613\\
66	0.00274542032959277\\
67	0.010291033661761\\
68	0.0129818793744046\\
69	0.0157002479399345\\
70	0.0294244027908926\\
71	0.0202977293259113\\
72	0.0817749749908775\\
73	0.018967556596531\\
74	0.00902481029164496\\
75	0.00578597780202277\\
76	0.0023406255744064\\
77	0.00434034836111082\\
78	0.00317134495004621\\
79	0.0123548156375552\\
80	0.0209330552990628\\
81	0.0104537289573345\\
82	0.0152568222341211\\
83	0.00530998870062536\\
84	0.0047190990736693\\
85	0.00596971033630011\\
86	0.00619928451014138\\
87	0.00589646553754495\\
88	0.00817306375907756\\
89	0.00181626899372011\\
90	0.0041785165937092\\
91	0.00393963405671658\\
92	0.0026950805137281\\
93	0.000775640409870867\\
94	0.00123437911356538\\
95	0.00189331163169439\\
96	0.00221187714481277\\
97	0.00391133475625144\\
98	0.00391081069531717\\
99	0.00309654923729322\\
100	0.000320699342671572\\
101	0.00256011526397671\\
102	0.00277358699226557\\
103	0.00247392728670257\\
104	0.00167234212351658\\
105	0.000508403991518954\\
106	0.00175493049476883\\
107	0.00136793665355861\\
108	0.00208245812813077\\
109	0.00177363089291225\\
};
\addlegendentry{$\mathbf{\hat{h}_{2}}$}

\end{axis}
\end{tikzpicture}%