%!PS-Adobe-3.0 EPSF-3.0
%%Title: orderCirWF_P.pstex
%%Creator: fig2dev Version 3.2.6a
%%CreationDate: 2020-04-02 16:25:39
%%BoundingBox: 0 0 316 117
%Magnification: 1.0000
%%EndComments
%%BeginProlog
/$F2psDict 200 dict def
$F2psDict begin
$F2psDict /mtrx matrix put
/col-1 {0 setgray} bind def
/col0 {0.000 0.000 0.000 srgb} bind def
/col7 {1.000 1.000 1.000 srgb} bind def
/col32 {0.000 0.000 0.502 srgb} bind def
/col33 {0.804 0.804 0.804 srgb} bind def
/col34 {0.000 0.447 0.729 srgb} bind def
/col35 {0.839 0.325 0.098 srgb} bind def
/col36 {0.918 0.682 0.125 srgb} bind def
/col37 {0.494 0.184 0.502 srgb} bind def
/col38 {0.467 0.663 0.188 srgb} bind def
/col39 {0.302 0.733 0.922 srgb} bind def
/col40 {0.624 0.078 0.184 srgb} bind def
/col41 {0.255 0.271 0.255 srgb} bind def
/col42 {0.737 0.737 0.737 srgb} bind def
/col43 {0.737 0.737 0.737 srgb} bind def
/col44 {0.737 0.737 0.737 srgb} bind def
/col45 {0.737 0.737 0.737 srgb} bind def
/col46 {0.890 0.890 0.890 srgb} bind def
/col47 {0.443 0.459 0.443 srgb} bind def
/col48 {0.835 0.835 0.835 srgb} bind def
/col49 {0.337 0.616 0.675 srgb} bind def
/col50 {0.890 0.890 0.890 srgb} bind def
/col51 {0.890 0.890 0.890 srgb} bind def
/col52 {0.835 0.835 0.835 srgb} bind def
/col53 {0.337 0.616 0.675 srgb} bind def
/col54 {0.890 0.890 0.890 srgb} bind def
/col55 {0.890 0.890 0.890 srgb} bind def
/col56 {0.890 0.890 0.890 srgb} bind def

end

/cp {closepath} bind def
/ef {eofill} bind def
/gr {grestore} bind def
/gs {gsave} bind def
/sa {save} bind def
/rs {restore} bind def
/l {lineto} bind def
/m {moveto} bind def
/rm {rmoveto} bind def
/n {newpath} bind def
/s {stroke} bind def
/sh {show} bind def
/slc {setlinecap} bind def
/slj {setlinejoin} bind def
/slw {setlinewidth} bind def
/srgb {setrgbcolor} bind def
/rot {rotate} bind def
/sc {scale} bind def
/sd {setdash} bind def
/ff {findfont} bind def
/sf {setfont} bind def
/scf {scalefont} bind def
/sw {stringwidth} bind def
/tr {translate} bind def
/tnt {dup dup currentrgbcolor
  4 -2 roll dup 1 exch sub 3 -1 roll mul add
  4 -2 roll dup 1 exch sub 3 -1 roll mul add
  4 -2 roll dup 1 exch sub 3 -1 roll mul add srgb}
  bind def
/shd {dup dup currentrgbcolor 4 -2 roll mul 4 -2 roll mul
  4 -2 roll mul srgb} bind def
 /DrawEllipse {
	/endangle exch def
	/startangle exch def
	/yrad exch def
	/xrad exch def
	/y exch def
	/x exch def
	/savematrix mtrx currentmatrix def
	x y tr xrad yrad sc 0 0 1 startangle endangle arc
	closepath
	savematrix setmatrix
	} def

/$F2psBegin {$F2psDict begin /$F2psEnteredState save def} def
/$F2psEnd {$F2psEnteredState restore end} def

/pageheader {
save
newpath 0 117 moveto 0 0 lineto 316 0 lineto 316 117 lineto closepath clip newpath
-116.2 147.7 translate
1 -1 scale
$F2psBegin
10 setmiterlimit
0 slj 0 slc
 0.06299 0.06299 sc
} bind def
/pagefooter {
$F2psEnd
restore
} bind def
%%EndProlog
pageheader
%
% Fig objects follow
%
% 
% here starts figure with depth 1001
% Grid
0.5 setgray
gs 450 472 div dup scale
% Vertical
% Horizontal
gr
% here ends figure;
% 
% here starts figure with depth 52
% Polyline
0 slj
0 slc
7.500 slw
n 1980 630 m
 1980 2070 l gs col0 s gr 
% Ellipse
n 1980 1350 127 127 0 360 DrawEllipse gs col32 1.00 shd ef gr gs col7 s gr

% Ellipse
n 1980 630 127 127 0 360 DrawEllipse gs col32 1.00 shd ef gr gs col7 s gr

% Ellipse
n 1988 2078 127 127 0 360 DrawEllipse gs col33 1.00 shd ef gr gs col33 s gr

% Ellipse
n 1980 1710 127 127 0 360 DrawEllipse gs col33 1.00 shd ef gr gs col33 s gr

% Ellipse
n 1980 990 127 127 0 360 DrawEllipse gs col33 1.00 shd ef gr gs col33 s gr

% Ellipse
n 5865 1252 42 42 0 360 DrawEllipse gs col34 1.00 shd ef gr gs col34 s gr

% Ellipse
n 5652 1773 42 42 0 360 DrawEllipse gs col35 1.00 shd ef gr gs col35 s gr

% Ellipse
n 6448 1625 392 392 0 360 DrawEllipse gs col36 s gr

% Ellipse
n 6435 1620 42 42 0 360 DrawEllipse gs col36 1.00 shd ef gr gs col36 s gr

% Ellipse
n 5865 1222 330 330 0 360 DrawEllipse gs col34 s gr

% Ellipse
n 5652 1773 564 564 0 360 DrawEllipse gs col35 s gr

% Ellipse
n 6098 1445 23 23 0 360 DrawEllipse gs col37 1.00 shd ef gr gs col37 s gr

% here ends figure;
pagefooter
showpage
%%Trailer
%EOF
