%!PS-Adobe-3.0 EPSF-3.0
%%Title: orderTimeHyp.pstex
%%Creator: fig2dev Version 3.2.6a
%%CreationDate: 2020-04-03 11:33:20
%%BoundingBox: 0 0 226 114
%Magnification: 1.0000
%%EndComments
%%BeginProlog
/$F2psDict 200 dict def
$F2psDict begin
$F2psDict /mtrx matrix put
/col-1 {0 setgray} bind def
/col0 {0.000 0.000 0.000 srgb} bind def
/col7 {1.000 1.000 1.000 srgb} bind def
/col32 {0.000 0.000 0.502 srgb} bind def
/col33 {0.780 0.780 0.780 srgb} bind def
/col34 {0.000 0.447 0.706 srgb} bind def
/col35 {0.816 0.325 0.098 srgb} bind def
/col36 {0.894 0.659 0.125 srgb} bind def
/col37 {0.494 0.184 0.502 srgb} bind def
/col38 {0.467 0.639 0.188 srgb} bind def
/col39 {0.302 0.710 0.898 srgb} bind def
/col40 {0.616 0.078 0.184 srgb} bind def
/col41 {0.255 0.271 0.255 srgb} bind def
/col42 {0.714 0.714 0.714 srgb} bind def
/col43 {0.714 0.714 0.714 srgb} bind def
/col44 {0.714 0.714 0.714 srgb} bind def
/col45 {0.714 0.714 0.714 srgb} bind def
/col46 {0.867 0.867 0.867 srgb} bind def
/col47 {0.443 0.459 0.443 srgb} bind def
/col48 {0.812 0.812 0.812 srgb} bind def
/col49 {0.337 0.616 0.651 srgb} bind def
/col50 {0.867 0.867 0.867 srgb} bind def
/col51 {0.867 0.867 0.867 srgb} bind def
/col52 {0.812 0.812 0.812 srgb} bind def
/col53 {0.337 0.616 0.651 srgb} bind def
/col54 {0.867 0.867 0.867 srgb} bind def
/col55 {0.867 0.867 0.867 srgb} bind def
/col56 {0.867 0.867 0.867 srgb} bind def
/col57 {0.749 0.690 0.584 srgb} bind def
/col58 {0.910 0.945 0.973 srgb} bind def
/col59 {0.835 0.769 0.624 srgb} bind def
/col60 {0.251 0.251 0.251 srgb} bind def
/col61 {0.502 0.502 0.502 srgb} bind def
/col62 {0.725 0.725 0.725 srgb} bind def
/col63 {0.851 0.851 0.851 srgb} bind def
/col64 {0.529 0.533 0.529 srgb} bind def
/col65 {0.639 0.639 0.639 srgb} bind def
/col66 {0.333 0.333 0.333 srgb} bind def
/col67 {0.725 0.725 0.725 srgb} bind def
/col68 {0.725 0.725 0.725 srgb} bind def
/col69 {0.851 0.851 0.851 srgb} bind def
/col70 {0.529 0.533 0.529 srgb} bind def
/col71 {0.529 0.533 0.529 srgb} bind def
/col72 {0.725 0.725 0.725 srgb} bind def
/col73 {0.851 0.851 0.851 srgb} bind def
/col74 {0.725 0.725 0.725 srgb} bind def
/col75 {0.851 0.851 0.851 srgb} bind def
/col76 {0.725 0.725 0.725 srgb} bind def
/col77 {0.851 0.851 0.851 srgb} bind def
/col78 {0.749 0.690 0.584 srgb} bind def
/col79 {0.910 0.945 0.973 srgb} bind def
/col80 {0.835 0.769 0.624 srgb} bind def
/col81 {0.749 0.690 0.584 srgb} bind def
/col82 {0.910 0.945 0.973 srgb} bind def
/col83 {0.835 0.769 0.624 srgb} bind def
/col84 {0.753 0.737 0.753 srgb} bind def
/col85 {0.851 0.851 0.851 srgb} bind def
/col86 {0.337 0.318 0.318 srgb} bind def
/col87 {0.639 0.639 0.639 srgb} bind def
/col88 {0.529 0.529 0.529 srgb} bind def
/col89 {0.816 0.816 0.816 srgb} bind def
/col90 {0.529 0.533 0.529 srgb} bind def
/col91 {0.725 0.725 0.725 srgb} bind def
/col92 {0.851 0.851 0.851 srgb} bind def
/col93 {0.502 0.502 0.490 srgb} bind def
/col94 {0.796 0.796 0.796 srgb} bind def
/col95 {0.227 0.227 0.227 srgb} bind def
/col96 {0.271 0.451 0.639 srgb} bind def
/col97 {0.655 0.655 0.655 srgb} bind def
/col98 {0.725 0.725 0.725 srgb} bind def
/col99 {0.851 0.851 0.851 srgb} bind def
/col100 {0.725 0.725 0.725 srgb} bind def
/col101 {0.851 0.851 0.851 srgb} bind def
/col102 {0.725 0.725 0.725 srgb} bind def
/col103 {0.655 0.655 0.655 srgb} bind def
/col104 {0.529 0.529 0.529 srgb} bind def
/col105 {0.529 0.529 0.529 srgb} bind def
/col106 {0.529 0.529 0.529 srgb} bind def
/col107 {0.725 0.725 0.725 srgb} bind def
/col108 {0.851 0.851 0.851 srgb} bind def
/col109 {0.725 0.725 0.725 srgb} bind def
/col110 {0.482 0.475 0.620 srgb} bind def
/col111 {0.267 0.267 0.267 srgb} bind def
/col112 {0.451 0.459 0.522 srgb} bind def
/col113 {0.451 0.459 0.522 srgb} bind def
/col114 {0.941 0.941 0.941 srgb} bind def
/col115 {0.388 0.365 0.780 srgb} bind def
/col116 {0.529 0.533 0.529 srgb} bind def
/col117 {0.725 0.725 0.725 srgb} bind def
/col118 {0.851 0.851 0.851 srgb} bind def
/col119 {0.725 0.725 0.725 srgb} bind def
/col120 {0.851 0.851 0.851 srgb} bind def
/col121 {0.718 0.718 0.718 srgb} bind def
/col122 {0.318 0.318 0.318 srgb} bind def
/col123 {0.878 0.863 0.878 srgb} bind def
/col124 {0.000 0.000 0.286 srgb} bind def
/col125 {0.718 0.718 0.718 srgb} bind def
/col126 {0.475 0.475 0.475 srgb} bind def
/col127 {0.188 0.204 0.188 srgb} bind def
/col128 {0.718 0.718 0.718 srgb} bind def
/col129 {0.255 0.255 0.255 srgb} bind def
/col130 {0.878 0.863 0.878 srgb} bind def
/col131 {0.753 0.686 0.584 srgb} bind def
/col132 {0.718 0.718 0.718 srgb} bind def
/col133 {0.529 0.529 0.529 srgb} bind def
/col134 {0.529 0.529 0.529 srgb} bind def
/col135 {0.718 0.718 0.718 srgb} bind def
/col136 {0.718 0.718 0.718 srgb} bind def
/col137 {0.725 0.725 0.725 srgb} bind def
/col138 {0.851 0.851 0.851 srgb} bind def
/col139 {0.878 0.878 0.878 srgb} bind def
/col140 {0.824 0.824 0.824 srgb} bind def
/col141 {0.337 0.616 0.663 srgb} bind def
/col142 {0.878 0.878 0.878 srgb} bind def
/col143 {0.878 0.878 0.878 srgb} bind def
/col144 {0.824 0.824 0.824 srgb} bind def
/col145 {0.337 0.616 0.663 srgb} bind def
/col146 {0.878 0.878 0.878 srgb} bind def
/col147 {0.878 0.878 0.878 srgb} bind def
/col148 {0.878 0.878 0.878 srgb} bind def
/col149 {0.388 0.388 0.388 srgb} bind def
/col150 {0.424 0.424 0.424 srgb} bind def
/col151 {0.733 0.733 0.733 srgb} bind def
/col152 {0.431 0.431 0.431 srgb} bind def
/col153 {0.733 0.733 0.733 srgb} bind def
/col154 {0.529 0.533 0.529 srgb} bind def
/col155 {0.529 0.533 0.529 srgb} bind def
/col156 {0.443 0.443 0.443 srgb} bind def
/col157 {0.655 0.655 0.655 srgb} bind def
/col158 {0.200 0.200 0.200 srgb} bind def
/col159 {0.553 0.549 0.584 srgb} bind def
/col160 {0.455 0.439 0.459 srgb} bind def
/col161 {0.675 0.675 0.675 srgb} bind def
/col162 {0.733 0.733 0.733 srgb} bind def
/col163 {0.737 0.737 0.737 srgb} bind def
/col164 {0.427 0.427 0.427 srgb} bind def
/col165 {0.271 0.271 0.271 srgb} bind def
/col166 {0.529 0.529 0.529 srgb} bind def
/col167 {0.529 0.533 0.529 srgb} bind def
/col168 {0.839 0.616 0.549 srgb} bind def
/col169 {0.918 0.898 0.851 srgb} bind def
/col170 {0.737 0.737 0.737 srgb} bind def
/col171 {0.859 0.757 0.631 srgb} bind def
/col172 {0.855 0.855 0.855 srgb} bind def
/col173 {0.796 0.796 0.796 srgb} bind def
/col174 {0.902 0.902 0.902 srgb} bind def
/col175 {0.827 0.478 0.102 srgb} bind def
/col176 {0.918 0.867 0.102 srgb} bind def
/col177 {0.506 0.490 0.733 srgb} bind def
/col178 {0.663 0.616 0.549 srgb} bind def
/col179 {0.502 0.486 0.839 srgb} bind def
/col180 {0.522 0.522 0.620 srgb} bind def
/col181 {0.290 0.290 0.290 srgb} bind def
/col182 {0.522 0.420 0.420 srgb} bind def
/col183 {0.353 0.353 0.353 srgb} bind def
/col184 {0.529 0.529 0.529 srgb} bind def
/col185 {0.690 0.584 0.451 srgb} bind def
/col186 {0.255 0.549 0.973 srgb} bind def
/col187 {0.722 0.439 0.231 srgb} bind def
/col188 {0.831 0.467 0.000 srgb} bind def
/col189 {0.827 0.694 0.000 srgb} bind def
/col190 {0.000 0.392 0.000 srgb} bind def
/col191 {0.353 0.420 0.231 srgb} bind def
/col192 {0.800 0.800 0.800 srgb} bind def
/col193 {0.639 0.639 0.639 srgb} bind def
/col194 {0.529 0.529 0.616 srgb} bind def
/col195 {0.925 0.698 0.365 srgb} bind def
/col196 {0.510 0.584 0.420 srgb} bind def
/col197 {0.392 0.392 0.392 srgb} bind def
/col198 {0.522 0.522 0.620 srgb} bind def
/col199 {0.690 0.875 0.973 srgb} bind def
/col200 {0.502 0.725 0.898 srgb} bind def
/col201 {0.800 0.584 0.322 srgb} bind def
/col202 {0.529 0.529 0.529 srgb} bind def
/col203 {0.584 0.796 0.969 srgb} bind def
/col204 {0.529 0.529 0.529 srgb} bind def
/col205 {0.380 0.380 0.380 srgb} bind def
/col206 {0.655 0.671 0.655 srgb} bind def
/col207 {0.973 0.584 0.000 srgb} bind def
/col208 {0.522 0.522 0.620 srgb} bind def
/col209 {0.522 0.420 0.420 srgb} bind def
/col210 {0.522 0.584 0.420 srgb} bind def
/col211 {0.941 0.420 0.000 srgb} bind def
/col212 {0.353 0.420 0.224 srgb} bind def
/col213 {0.522 0.584 0.420 srgb} bind def
/col214 {0.522 0.522 0.620 srgb} bind def
/col215 {0.522 0.420 0.420 srgb} bind def
/col216 {0.522 0.584 0.420 srgb} bind def
/col217 {0.941 0.420 0.000 srgb} bind def
/col218 {0.522 0.584 0.482 srgb} bind def
/col219 {0.094 0.290 0.094 srgb} bind def
/col220 {0.522 0.522 0.620 srgb} bind def
/col221 {0.941 0.714 0.353 srgb} bind def
/col222 {0.522 0.584 0.420 srgb} bind def
/col223 {0.388 0.420 0.584 srgb} bind def
/col224 {0.522 0.420 0.420 srgb} bind def
/col225 {0.941 0.941 0.941 srgb} bind def
/col226 {0.843 0.000 0.000 srgb} bind def
/col227 {0.522 0.584 0.420 srgb} bind def
/col228 {0.522 0.522 0.620 srgb} bind def
/col229 {0.941 0.714 0.353 srgb} bind def
/col230 {0.522 0.584 0.420 srgb} bind def
/col231 {0.522 0.522 0.620 srgb} bind def
/col232 {0.941 0.714 0.353 srgb} bind def
/col233 {0.522 0.584 0.420 srgb} bind def
/col234 {0.388 0.420 0.584 srgb} bind def
/col235 {0.322 0.420 0.161 srgb} bind def
/col236 {0.553 0.553 0.553 srgb} bind def
/col237 {0.000 0.388 0.000 srgb} bind def
/col238 {0.522 0.522 0.620 srgb} bind def
/col239 {0.522 0.522 0.620 srgb} bind def
/col240 {0.522 0.522 0.620 srgb} bind def
/col241 {0.000 0.388 0.290 srgb} bind def
/col242 {0.482 0.502 0.290 srgb} bind def
/col243 {0.878 0.714 0.482 srgb} bind def
/col244 {0.522 0.584 0.482 srgb} bind def
/col245 {0.620 0.682 0.749 srgb} bind def
/col246 {0.420 0.420 0.553 srgb} bind def
/col247 {0.502 0.420 0.420 srgb} bind def
/col248 {0.322 0.584 0.290 srgb} bind def
/col249 {0.812 0.878 0.878 srgb} bind def
/col250 {0.322 0.388 0.388 srgb} bind def
/col251 {0.094 0.420 0.290 srgb} bind def
/col252 {0.584 0.620 0.682 srgb} bind def
/col253 {0.973 0.553 0.000 srgb} bind def
/col254 {0.973 0.553 0.000 srgb} bind def
/col255 {0.522 0.420 0.420 srgb} bind def
/col256 {0.000 0.388 0.290 srgb} bind def
/col257 {0.482 0.502 0.290 srgb} bind def
/col258 {0.388 0.451 0.482 srgb} bind def
/col259 {0.878 0.714 0.482 srgb} bind def
/col260 {0.094 0.290 0.094 srgb} bind def
/col261 {0.522 0.522 0.620 srgb} bind def
/col262 {0.941 0.714 0.353 srgb} bind def
/col263 {0.522 0.584 0.420 srgb} bind def
/col264 {0.522 0.522 0.620 srgb} bind def
/col265 {0.522 0.420 0.420 srgb} bind def
/col266 {0.522 0.584 0.420 srgb} bind def
/col267 {0.800 0.800 0.800 srgb} bind def
/col268 {0.639 0.639 0.639 srgb} bind def
/col269 {0.529 0.529 0.616 srgb} bind def
/col270 {0.925 0.698 0.365 srgb} bind def
/col271 {0.510 0.584 0.420 srgb} bind def
/col272 {0.522 0.522 0.620 srgb} bind def
/col273 {0.522 0.522 0.620 srgb} bind def
/col274 {0.522 0.420 0.420 srgb} bind def
/col275 {0.522 0.584 0.420 srgb} bind def
/col276 {0.522 0.522 0.620 srgb} bind def
/col277 {0.522 0.420 0.420 srgb} bind def
/col278 {0.522 0.584 0.482 srgb} bind def
/col279 {0.000 0.000 0.000 srgb} bind def
/col280 {0.941 0.220 0.161 srgb} bind def
/col281 {0.000 0.000 0.000 srgb} bind def
/col282 {0.973 0.973 0.322 srgb} bind def
/col283 {0.322 0.475 0.290 srgb} bind def
/col284 {0.388 0.584 0.353 srgb} bind def
/col285 {0.749 0.380 0.259 srgb} bind def
/col286 {0.878 0.412 0.259 srgb} bind def
/col287 {0.973 0.475 0.322 srgb} bind def
/col288 {0.843 0.843 0.843 srgb} bind def
/col289 {0.522 0.522 0.620 srgb} bind def
/col290 {0.941 0.714 0.353 srgb} bind def
/col291 {0.522 0.584 0.420 srgb} bind def
/col292 {0.388 0.420 0.584 srgb} bind def
/col293 {0.941 0.941 0.941 srgb} bind def
/col294 {0.522 0.420 0.420 srgb} bind def
/col295 {0.800 0.800 0.800 srgb} bind def
/col296 {0.639 0.639 0.639 srgb} bind def
/col297 {0.529 0.529 0.616 srgb} bind def
/col298 {0.925 0.698 0.365 srgb} bind def
/col299 {0.510 0.584 0.420 srgb} bind def
/col300 {0.800 0.800 0.800 srgb} bind def
/col301 {0.639 0.639 0.639 srgb} bind def
/col302 {0.529 0.529 0.616 srgb} bind def
/col303 {0.925 0.698 0.365 srgb} bind def
/col304 {0.510 0.584 0.420 srgb} bind def
/col305 {0.800 0.800 0.800 srgb} bind def
/col306 {0.639 0.639 0.639 srgb} bind def
/col307 {0.529 0.529 0.616 srgb} bind def
/col308 {0.925 0.698 0.365 srgb} bind def
/col309 {0.510 0.584 0.420 srgb} bind def
/col310 {0.800 0.800 0.800 srgb} bind def
/col311 {0.639 0.639 0.639 srgb} bind def
/col312 {0.529 0.529 0.616 srgb} bind def
/col313 {0.925 0.698 0.365 srgb} bind def
/col314 {0.510 0.584 0.420 srgb} bind def
/col315 {0.800 0.800 0.800 srgb} bind def
/col316 {0.639 0.639 0.639 srgb} bind def
/col317 {0.529 0.529 0.616 srgb} bind def
/col318 {0.925 0.698 0.365 srgb} bind def
/col319 {0.510 0.584 0.420 srgb} bind def
/col320 {0.522 0.522 0.620 srgb} bind def
/col321 {0.800 0.800 0.800 srgb} bind def
/col322 {0.639 0.639 0.639 srgb} bind def
/col323 {0.529 0.529 0.616 srgb} bind def
/col324 {0.925 0.698 0.365 srgb} bind def
/col325 {0.510 0.584 0.420 srgb} bind def
/col326 {0.800 0.800 0.800 srgb} bind def
/col327 {0.639 0.639 0.639 srgb} bind def
/col328 {0.529 0.529 0.616 srgb} bind def
/col329 {0.925 0.698 0.365 srgb} bind def
/col330 {0.510 0.584 0.420 srgb} bind def
/col331 {0.800 0.800 0.800 srgb} bind def
/col332 {0.639 0.639 0.639 srgb} bind def
/col333 {0.529 0.529 0.616 srgb} bind def
/col334 {0.925 0.698 0.365 srgb} bind def
/col335 {0.510 0.584 0.420 srgb} bind def
/col336 {0.800 0.800 0.800 srgb} bind def
/col337 {0.639 0.639 0.639 srgb} bind def
/col338 {0.529 0.529 0.616 srgb} bind def
/col339 {0.925 0.698 0.365 srgb} bind def
/col340 {0.510 0.584 0.420 srgb} bind def
/col341 {0.522 0.522 0.620 srgb} bind def
/col342 {0.925 0.906 0.800 srgb} bind def
/col343 {0.933 0.655 0.365 srgb} bind def
/col344 {0.584 0.780 0.584 srgb} bind def
/col345 {0.639 0.639 0.639 srgb} bind def
/col346 {0.682 0.082 0.490 srgb} bind def
/col347 {0.906 0.906 0.906 srgb} bind def
/col348 {0.502 0.502 0.502 srgb} bind def
/col349 {0.522 0.522 0.620 srgb} bind def
/col350 {0.941 0.714 0.353 srgb} bind def
/col351 {0.522 0.584 0.420 srgb} bind def
/col352 {0.388 0.420 0.584 srgb} bind def
/col353 {0.482 0.482 0.482 srgb} bind def
/col354 {0.000 0.353 0.000 srgb} bind def
/col355 {0.878 0.451 0.451 srgb} bind def
/col356 {0.941 0.941 0.941 srgb} bind def
/col357 {0.843 0.000 0.000 srgb} bind def
/col358 {0.973 0.769 0.192 srgb} bind def
/col359 {0.161 0.475 0.290 srgb} bind def
/col360 {0.843 0.157 0.129 srgb} bind def
/col361 {0.129 0.349 0.749 srgb} bind def
/col362 {0.945 0.945 0.945 srgb} bind def
/col363 {0.906 0.906 0.906 srgb} bind def
/col364 {0.482 0.502 0.290 srgb} bind def
/col365 {0.878 0.714 0.482 srgb} bind def
/col366 {0.522 0.584 0.482 srgb} bind def
/col367 {0.620 0.682 0.749 srgb} bind def
/col368 {0.420 0.420 0.553 srgb} bind def
/col369 {0.502 0.420 0.420 srgb} bind def
/col370 {0.322 0.584 0.290 srgb} bind def
/col371 {0.812 0.878 0.878 srgb} bind def
/col372 {0.584 0.620 0.682 srgb} bind def
/col373 {0.129 0.502 0.353 srgb} bind def
/col374 {0.522 0.522 0.620 srgb} bind def
/col375 {0.941 0.714 0.353 srgb} bind def
/col376 {0.522 0.584 0.420 srgb} bind def
/col377 {0.388 0.420 0.584 srgb} bind def
/col378 {0.522 0.522 0.620 srgb} bind def
/col379 {0.941 0.714 0.353 srgb} bind def
/col380 {0.522 0.584 0.420 srgb} bind def
/col381 {0.522 0.420 0.420 srgb} bind def

end

/cp {closepath} bind def
/ef {eofill} bind def
/gr {grestore} bind def
/gs {gsave} bind def
/sa {save} bind def
/rs {restore} bind def
/l {lineto} bind def
/m {moveto} bind def
/rm {rmoveto} bind def
/n {newpath} bind def
/s {stroke} bind def
/sh {show} bind def
/slc {setlinecap} bind def
/slj {setlinejoin} bind def
/slw {setlinewidth} bind def
/srgb {setrgbcolor} bind def
/rot {rotate} bind def
/sc {scale} bind def
/sd {setdash} bind def
/ff {findfont} bind def
/sf {setfont} bind def
/scf {scalefont} bind def
/sw {stringwidth} bind def
/tr {translate} bind def
/tnt {dup dup currentrgbcolor
  4 -2 roll dup 1 exch sub 3 -1 roll mul add
  4 -2 roll dup 1 exch sub 3 -1 roll mul add
  4 -2 roll dup 1 exch sub 3 -1 roll mul add srgb}
  bind def
/shd {dup dup currentrgbcolor 4 -2 roll mul 4 -2 roll mul
  4 -2 roll mul srgb} bind def
 /DrawEllipse {
	/endangle exch def
	/startangle exch def
	/yrad exch def
	/xrad exch def
	/y exch def
	/x exch def
	/savematrix mtrx currentmatrix def
	x y tr xrad yrad sc 0 0 1 startangle endangle arc
	closepath
	savematrix setmatrix
	} def

/$F2psBegin {$F2psDict begin /$F2psEnteredState save def} def
/$F2psEnd {$F2psEnteredState restore end} def

/pageheader {
save
newpath 0 114 moveto 0 0 lineto 226 0 lineto 226 114 lineto closepath clip newpath
-116.2 140.7 translate
1 -1 scale
$F2psBegin
10 setmiterlimit
0 slj 0 slc
 0.06299 0.06299 sc
} bind def
/pagefooter {
$F2psEnd
restore
} bind def
%%EndProlog
pageheader
%
% Fig objects follow
%
% 
% here starts figure with depth 52
% Polyline
0 slj
0 slc
7.500 slw
n 1980 630 m
 1980 2070 l gs col0 s gr 
% Ellipse
n 1980 1710 127 127 0 360 DrawEllipse gs col33 1.00 shd ef gr gs col33 s gr

% Ellipse
n 1980 990 127 127 0 360 DrawEllipse gs col33 1.00 shd ef gr gs col33 s gr

% Ellipse
n 1980 630 127 127 0 360 DrawEllipse gs col33 1.00 shd ef gr gs col33 s gr

% Ellipse
n 1980 1350 127 127 0 360 DrawEllipse gs col33 1.00 shd ef gr gs col33 s gr

% Ellipse
n 1988 2078 127 127 0 360 DrawEllipse gs col32 1.00 shd ef gr gs col7 s gr

% Arc
n 3517.5 862.5 238.4 -102.7244 114.1455 arcn
gs col-1 s gr

% Arc
n 3123.0 1197.0 319.2 -139.5739 -21.5014 arc
gs col-1 s gr

% Ellipse
n 3465 630 45 45 0 360 DrawEllipse gs col39 1.00 shd ef gr gs col39 s gr

% Polyline
n 3420 1080 m
 4320 1530 l gs col-1 s gr 
% Polyline
n 3420 1080 m
 3510 1845 l gs col-1 s gr 
% Polyline
n 2880 990 m
 2475 1620 l gs col-1 s gr 
% Polyline
n 3465 630 m
 4320 450 l gs col-1 s gr 
% Ellipse
n 2880 990 45 45 0 360 DrawEllipse gs col35 1.00 shd ef gr gs col35 s gr

% Ellipse
n 3420 1080 45 45 0 360 DrawEllipse gs col36 1.00 shd ef gr gs col36 s gr

% here ends figure;
pagefooter
showpage
%%Trailer
%EOF
