%!PS-Adobe-3.0 EPSF-3.0
%%Title: orderDirWF.pstex
%%Creator: fig2dev Version 3.2.6a
%%CreationDate: 2020-04-03 09:53:50
%%BoundingBox: 0 0 273 112
%Magnification: 1.0000
%%EndComments
%%BeginProlog
/$F2psDict 200 dict def
$F2psDict begin
$F2psDict /mtrx matrix put
/col-1 {0 setgray} bind def
/col0 {0.000 0.000 0.000 srgb} bind def
/col7 {1.000 1.000 1.000 srgb} bind def
/col32 {0.000 0.000 0.502 srgb} bind def
/col33 {0.796 0.796 0.796 srgb} bind def
/col34 {0.000 0.447 0.725 srgb} bind def
/col35 {0.835 0.325 0.098 srgb} bind def
/col36 {0.467 0.659 0.188 srgb} bind def
/col37 {0.302 0.729 0.918 srgb} bind def
/col38 {0.914 0.678 0.125 srgb} bind def
/col39 {0.494 0.184 0.537 srgb} bind def
/col40 {0.620 0.078 0.184 srgb} bind def

end

/cp {closepath} bind def
/ef {eofill} bind def
/gr {grestore} bind def
/gs {gsave} bind def
/sa {save} bind def
/rs {restore} bind def
/l {lineto} bind def
/m {moveto} bind def
/rm {rmoveto} bind def
/n {newpath} bind def
/s {stroke} bind def
/sh {show} bind def
/slc {setlinecap} bind def
/slj {setlinejoin} bind def
/slw {setlinewidth} bind def
/srgb {setrgbcolor} bind def
/rot {rotate} bind def
/sc {scale} bind def
/sd {setdash} bind def
/ff {findfont} bind def
/sf {setfont} bind def
/scf {scalefont} bind def
/sw {stringwidth} bind def
/tr {translate} bind def
/tnt {dup dup currentrgbcolor
  4 -2 roll dup 1 exch sub 3 -1 roll mul add
  4 -2 roll dup 1 exch sub 3 -1 roll mul add
  4 -2 roll dup 1 exch sub 3 -1 roll mul add srgb}
  bind def
/shd {dup dup currentrgbcolor 4 -2 roll mul 4 -2 roll mul
  4 -2 roll mul srgb} bind def
 /DrawEllipse {
	/endangle exch def
	/startangle exch def
	/yrad exch def
	/xrad exch def
	/y exch def
	/x exch def
	/savematrix mtrx currentmatrix def
	x y tr xrad yrad sc 0 0 1 startangle endangle arc
	closepath
	savematrix setmatrix
	} def

/$F2psBegin {$F2psDict begin /$F2psEnteredState save def} def
/$F2psEnd {$F2psEnteredState restore end} def

/pageheader {
save
newpath 0 112 moveto 0 0 lineto 273 0 lineto 273 112 lineto closepath clip newpath
-116.2 142.2 translate
1 -1 scale
$F2psBegin
10 setmiterlimit
0 slj 0 slc
 0.06299 0.06299 sc
} bind def
/pagefooter {
$F2psEnd
restore
} bind def
%%EndProlog
pageheader
%
% Fig objects follow
%
% 
% here starts figure with depth 52
% Polyline
0 slj
0 slc
7.500 slw
n 1980 630 m
 1980 2070 l gs col-1 s gr 
% Ellipse
n 1988 2078 127 127 0 360 DrawEllipse gs col33 1.00 shd ef gr gs col33 s gr

% Ellipse
n 1980 1710 127 127 0 360 DrawEllipse gs col33 1.00 shd ef gr gs col33 s gr

% Ellipse
n 1980 630 127 127 0 360 DrawEllipse gs col33 1.00 shd ef gr gs col33 s gr

% Ellipse
n 1980 990 127 127 0 360 DrawEllipse gs col32 1.00 shd ef gr gs col7 s gr

% Ellipse
n 1980 1350 127 127 0 360 DrawEllipse gs col33 1.00 shd ef gr gs col33 s gr

% Polyline
n 4940 2245 m 4765 670 l 5290 670 l
 4940 2245 l  cp gs col38 1.00 shd ef gr gs col38 s gr 
% Polyline
n 4590 1895 m 5815 495 l 6165 845 l
 4590 1895 l  cp gs col35 1.00 shd ef gr gs col35 s gr 
% here ends figure;
pagefooter
showpage
%%Trailer
%EOF
