%!PS-Adobe-3.0 EPSF-3.0
%%Title: orderFreqMoveExp.pstex
%%Creator: fig2dev Version 3.2.6a
%%CreationDate: 2020-04-03 10:49:12
%%BoundingBox: 0 0 256 113
%Magnification: 1.0000
%%EndComments
%%BeginProlog
/$F2psDict 200 dict def
$F2psDict begin
$F2psDict /mtrx matrix put
/col-1 {0 setgray} bind def
/col0 {0.000 0.000 0.000 srgb} bind def
/col7 {1.000 1.000 1.000 srgb} bind def
/col32 {0.000 0.000 0.502 srgb} bind def
/col33 {0.800 0.800 0.800 srgb} bind def
/col34 {0.000 0.447 0.733 srgb} bind def
/col35 {0.843 0.325 0.098 srgb} bind def
/col36 {0.494 0.184 0.545 srgb} bind def
/col37 {0.922 0.686 0.125 srgb} bind def
/col38 {0.467 0.667 0.188 srgb} bind def
/col39 {0.302 0.737 0.925 srgb} bind def
/col40 {0.627 0.078 0.184 srgb} bind def

end

/cp {closepath} bind def
/ef {eofill} bind def
/gr {grestore} bind def
/gs {gsave} bind def
/sa {save} bind def
/rs {restore} bind def
/l {lineto} bind def
/m {moveto} bind def
/rm {rmoveto} bind def
/n {newpath} bind def
/s {stroke} bind def
/sh {show} bind def
/slc {setlinecap} bind def
/slj {setlinejoin} bind def
/slw {setlinewidth} bind def
/srgb {setrgbcolor} bind def
/rot {rotate} bind def
/sc {scale} bind def
/sd {setdash} bind def
/ff {findfont} bind def
/sf {setfont} bind def
/scf {scalefont} bind def
/sw {stringwidth} bind def
/tr {translate} bind def
/tnt {dup dup currentrgbcolor
  4 -2 roll dup 1 exch sub 3 -1 roll mul add
  4 -2 roll dup 1 exch sub 3 -1 roll mul add
  4 -2 roll dup 1 exch sub 3 -1 roll mul add srgb}
  bind def
/shd {dup dup currentrgbcolor 4 -2 roll mul 4 -2 roll mul
  4 -2 roll mul srgb} bind def
 /DrawEllipse {
	/endangle exch def
	/startangle exch def
	/yrad exch def
	/xrad exch def
	/y exch def
	/x exch def
	/savematrix mtrx currentmatrix def
	x y tr xrad yrad sc 0 0 1 startangle endangle arc
	closepath
	savematrix setmatrix
	} def

/$F2psBegin {$F2psDict begin /$F2psEnteredState save def} def
/$F2psEnd {$F2psEnteredState restore end} def

/pageheader {
save
newpath 0 113 moveto 0 0 lineto 256 0 lineto 256 113 lineto closepath clip newpath
-116.2 139.4 translate
1 -1 scale
$F2psBegin
10 setmiterlimit
0 slj 0 slc
 0.06299 0.06299 sc
} bind def
/pagefooter {
$F2psEnd
restore
} bind def
%%EndProlog
pageheader
%
% Fig objects follow
%
% 
% here starts figure with depth 52
% Polyline
0 slj
0 slc
7.500 slw
n 1980 630 m
 1980 2070 l gs col-1 s gr 
% Ellipse
n 1988 2078 127 127 0 360 DrawEllipse gs col33 1.00 shd ef gr gs col33 s gr

% Ellipse
n 1980 630 127 127 0 360 DrawEllipse gs col33 1.00 shd ef gr gs col33 s gr

% Ellipse
n 1980 1350 127 127 0 360 DrawEllipse gs col33 1.00 shd ef gr gs col33 s gr

% Ellipse
n 1980 990 127 127 0 360 DrawEllipse gs col33 1.00 shd ef gr gs col33 s gr

% Ellipse
n 1980 1710 127 127 0 360 DrawEllipse gs col32 1.00 shd ef gr gs col7 s gr

% Polyline
 [60] 0 sd
gs  clippath
4597 623 m 4597 637 l 4454 660 l 4454 600 l cp
eoclip
n 2790 630 m
 4590 630 l gs col38 s gr gr
 [] 0 sd
% arrowhead
n 4454 660 m 4574 630 l 4454 600 l 4454 660 l  cp gs col38 1.00 shd ef gr  col38 s
% Polyline
2 slj
n 2565 1125 m 2566 1122 l 2568 1114 l 2571 1102 l 2575 1086 l 2581 1067 l
 2588 1046 l 2595 1025 l 2602 1005 l 2611 987 l 2620 971 l
 2631 957 l 2642 948 l 2655 945 l 2668 948 l 2678 957 l
 2687 970 l 2692 985 l 2696 1001 l 2698 1018 l 2700 1035 l
 2702 1052 l 2704 1069 l 2708 1085 l 2713 1100 l 2722 1113 l
 2732 1122 l 2745 1125 l 2758 1122 l 2768 1113 l 2777 1100 l
 2782 1085 l 2786 1069 l 2788 1052 l 2790 1035 l 2792 1018 l
 2794 1001 l 2798 985 l 2803 970 l 2812 957 l 2822 948 l
 2835 945 l 2848 948 l 2858 957 l 2867 970 l 2872 985 l
 2876 1001 l 2878 1018 l 2880 1035 l 2882 1052 l 2884 1069 l
 2888 1085 l 2893 1100 l 2902 1113 l 2912 1122 l 2925 1125 l
 2938 1122 l 2948 1113 l 2957 1100 l 2962 1085 l 2966 1069 l
 2968 1052 l 2970 1035 l 2972 1018 l 2974 1001 l 2978 985 l
 2983 970 l 2992 957 l 3002 948 l 3015 945 l 3028 948 l
 3038 957 l 3047 970 l 3052 985 l 3056 1001 l 3058 1018 l
 3060 1035 l 3062 1052 l 3064 1069 l 3068 1085 l 3073 1100 l
 3082 1113 l 3092 1122 l 3105 1125 l 3118 1122 l 3128 1113 l
 3137 1100 l 3142 1085 l 3146 1069 l 3148 1052 l 3150 1035 l
 3152 1018 l 3154 1001 l 3158 985 l 3163 970 l 3172 957 l
 3182 948 l 3195 945 l 3208 948 l 3218 957 l 3227 970 l
 3232 985 l 3236 1001 l 3238 1018 l 3240 1035 l 3242 1052 l
 3244 1069 l 3248 1085 l 3253 1100 l 3262 1113 l 3272 1122 l
 3285 1125 l 3298 1122 l 3308 1113 l 3317 1100 l 3322 1085 l
 3326 1069 l 3328 1052 l 3330 1035 l 3332 1018 l 3334 1001 l
 3338 985 l 3343 970 l 3352 957 l 3362 948 l 3375 945 l
 3388 948 l 3398 957 l 3407 970 l 3412 985 l 3416 1001 l
 3418 1018 l 3420 1035 l 3422 1052 l 3424 1069 l 3428 1085 l
 3433 1100 l 3442 1113 l 3452 1122 l 3465 1125 l 3478 1122 l
 3488 1113 l 3497 1100 l 3502 1085 l 3506 1069 l 3508 1052 l
 3510 1035 l 3512 1018 l 3514 1001 l 3518 985 l 3523 970 l
 3532 957 l 3542 948 l 3555 945 l 3568 948 l 3578 957 l
 3587 970 l 3592 985 l 3596 1001 l 3598 1018 l 3600 1035 l
 3602 1052 l 3604 1069 l 3608 1085 l 3613 1100 l 3622 1113 l
 3632 1122 l 3645 1125 l 3658 1122 l 3668 1113 l 3677 1100 l
 3682 1085 l 3686 1069 l 3688 1052 l 3690 1035 l 3692 1018 l
 3694 1001 l 3698 985 l 3703 970 l 3712 957 l 3722 948 l
 3735 945 l 3748 948 l 3759 957 l 3770 971 l 3779 987 l
 3788 1005 l 3795 1025 l 3803 1046 l 3809 1067 l 3815 1086 l
 3819 1102 l 3822 1114 l 3824 1122 l
 3825 1125 l gs col37 s gr 
% Polyline
n 3735 1530 m 3737 1527 l 3741 1519 l 3747 1507 l 3756 1491 l 3767 1472 l
 3780 1451 l 3794 1430 l 3810 1410 l 3827 1392 l 3845 1376 l
 3866 1362 l 3890 1353 l 3915 1350 l 3940 1353 l 3962 1362 l
 3978 1375 l 3990 1390 l 3997 1406 l 4002 1423 l 4005 1440 l
 4008 1457 l 4013 1474 l 4020 1490 l 4032 1505 l 4048 1518 l
 4070 1527 l 4095 1530 l 4120 1527 l 4142 1518 l 4158 1505 l
 4170 1490 l 4177 1474 l 4182 1457 l 4185 1440 l 4188 1423 l
 4193 1406 l 4200 1390 l 4212 1375 l 4228 1362 l 4250 1353 l
 4275 1350 l 4300 1353 l 4322 1362 l 4338 1375 l 4350 1390 l
 4357 1406 l 4362 1423 l 4365 1440 l 4368 1457 l 4373 1474 l
 4380 1490 l 4392 1505 l 4408 1518 l 4430 1527 l 4455 1530 l
 4480 1527 l 4502 1518 l 4518 1505 l 4530 1490 l 4537 1474 l
 4542 1457 l 4545 1440 l 4548 1423 l 4553 1406 l 4560 1390 l
 4572 1375 l 4588 1362 l 4610 1353 l 4635 1350 l 4660 1353 l
 4682 1362 l 4698 1375 l 4710 1390 l 4717 1406 l 4722 1423 l
 4725 1440 l 4728 1457 l 4733 1474 l 4740 1490 l 4752 1505 l
 4768 1518 l 4790 1527 l 4815 1530 l 4840 1527 l 4864 1518 l
 4885 1504 l 4903 1488 l 4920 1470 l 4936 1450 l 4950 1429 l
 4963 1408 l 4974 1389 l 4983 1373 l 4989 1361 l 4993 1353 l

 4995 1350 l gs col35 s gr 
% Ellipse
 [60] 0 sd
n 3735 1260 45 45 0 360 DrawEllipse gs col36 1.00 shd ef gr gs col36 s gr
 [] 0 sd
% Ellipse
 [60] 0 sd
n 2745 630 90 90 0 360 DrawEllipse gs col37 s gr
 [] 0 sd
% Ellipse
 [60] 0 sd
n 2700 630 135 135 0 360 DrawEllipse gs col37 s gr
 [] 0 sd
% Ellipse
 [60] 0 sd
n 2632 630 202 202 0 360 DrawEllipse gs col37 s gr
 [] 0 sd
% Ellipse
 [60] 0 sd
n 4635 630 90 90 0 360 DrawEllipse gs col35 s gr
 [] 0 sd
% Ellipse
 [60] 0 sd
n 4567 630 157 157 0 360 DrawEllipse gs col35 s gr
 [] 0 sd
% Ellipse
 [60] 0 sd
n 4522 630 202 202 0 360 DrawEllipse gs col35 s gr
 [] 0 sd
% Ellipse
 [60] 0 sd
n 2790 630 45 45 0 360 DrawEllipse gs col34 1.00 shd ef gr gs col34 s gr
 [] 0 sd
% Ellipse
 [60] 0 sd
n 4680 630 45 45 0 360 DrawEllipse gs col34 1.00 shd ef gr gs col34 s gr
 [] 0 sd
% here ends figure;
pagefooter
showpage
%%Trailer
%EOF
