#FIG 3.2  Produced by xfig version 3.2.6a
Landscape
Center
Metric
A4
100.00
Single
-2
1200 2
0 32 #000080
0 33 #d1d1d1
6 1853 1223 2107 1477
1 3 0 1 7 32 51 -1 20 0.000 1 0.0000 1980 1350 127 127 1980 1350 2107 1350
4 0 7 50 -1 0 12 0.0000 2 150 105 1935 1418 3\001
-6
6 1853 503 2107 757
1 3 0 1 7 32 51 -1 20 0.000 1 0.0000 1980 630 127 127 1980 630 2107 630
4 0 7 50 -1 0 12 0.0000 2 150 105 1935 698 1\001
-6
6 1861 1951 2115 2205
1 3 0 1 33 33 51 -1 20 0.000 1 0.0000 1988 2078 127 127 1988 2078 2115 2078
4 0 33 50 -1 0 12 0.0000 2 150 105 1943 2146 5\001
-6
6 1853 1583 2107 1837
1 3 0 1 33 33 51 -1 20 0.000 1 0.0000 1980 1710 127 127 1980 1710 2107 1710
4 0 33 50 -1 0 12 0.0000 2 150 105 1935 1778 4\001
-6
6 1853 863 2107 1117
1 3 0 1 33 33 51 -1 20 0.000 1 0.0000 1980 990 127 127 1980 990 2107 990
4 0 33 50 -1 0 12 0.0000 2 150 105 1935 1058 2\001
-6
2 1 0 1 0 7 52 -1 -1 0.000 0 0 -1 0 0 2
	 1980 630 1980 2070
4 0 0 50 -1 0 12 0.0000 2 195 1965 2205 720 Time of Arrival (TOA)\001
4 0 0 50 -1 0 12 0.0000 2 195 2730 2250 1440 Received Signal Strength (RSS)\001
