#FIG 3.2  Produced by xfig version 3.2.6a
Landscape
Center
Metric
A4
100.00
Single
-2
1200 2
0 32 #000080
0 33 #d1d1d1
6 1853 503 2107 757
1 3 0 1 7 32 51 -1 20 0.000 1 0.0000 1980 630 127 127 1980 630 2107 630
4 0 7 50 -1 0 12 0.0000 2 150 105 1935 698 1\001
-6
6 1861 1591 2115 1845
1 3 0 1 7 32 51 -1 20 0.000 1 0.0000 1988 1718 127 127 1988 1718 2115 1718
4 0 7 50 -1 0 12 0.0000 2 150 105 1943 1786 4\001
-6
6 1853 1223 2107 1477
1 3 0 1 33 33 51 -1 20 0.000 1 0.0000 1980 1350 127 127 1980 1350 2107 1350
4 0 33 50 -1 0 12 0.0000 2 150 105 1935 1418 3\001
-6
6 1853 863 2107 1117
1 3 0 1 33 33 51 -1 20 0.000 1 0.0000 1980 990 127 127 1980 990 2107 990
4 0 33 50 -1 0 12 0.0000 2 150 105 1935 1058 2\001
-6
2 1 0 1 0 7 52 -1 -1 0.000 0 0 -1 0 0 2
	 1980 630 1980 1710
4 0 0 50 -1 0 12 0.0000 2 195 3300 2205 720 Generalized Cross-Correlation (GCC)\001
4 0 0 50 -1 0 12 0.0000 2 195 1755 2250 1800 Cross-Relation (CR)\001
