%!PS-Adobe-3.0 EPSF-3.0
%%Title: orderCirExp.pstex
%%Creator: fig2dev Version 3.2.6a
%%CreationDate: 2020-04-02 17:03:51
%%BoundingBox: 0 0 312 112
%Magnification: 1.0000
%%EndComments
%%BeginProlog
/$F2psDict 200 dict def
$F2psDict begin
$F2psDict /mtrx matrix put
/col-1 {0 setgray} bind def
/col0 {0.000 0.000 0.000 srgb} bind def
/col7 {1.000 1.000 1.000 srgb} bind def
/col32 {0.000 0.000 0.502 srgb} bind def
/col33 {0.800 0.800 0.800 srgb} bind def
/col34 {0.000 0.447 0.725 srgb} bind def
/col35 {0.835 0.325 0.098 srgb} bind def
/col36 {0.914 0.678 0.125 srgb} bind def
/col37 {0.494 0.184 0.502 srgb} bind def
/col38 {0.467 0.659 0.188 srgb} bind def
/col39 {0.302 0.729 0.918 srgb} bind def
/col40 {0.620 0.078 0.184 srgb} bind def
/col41 {0.255 0.271 0.255 srgb} bind def
/col42 {0.733 0.733 0.733 srgb} bind def
/col43 {0.733 0.733 0.733 srgb} bind def
/col44 {0.733 0.733 0.733 srgb} bind def
/col45 {0.733 0.733 0.733 srgb} bind def
/col46 {0.886 0.886 0.886 srgb} bind def
/col47 {0.443 0.459 0.443 srgb} bind def
/col48 {0.831 0.831 0.831 srgb} bind def
/col49 {0.337 0.616 0.671 srgb} bind def
/col50 {0.886 0.886 0.886 srgb} bind def
/col51 {0.886 0.886 0.886 srgb} bind def
/col52 {0.831 0.831 0.831 srgb} bind def
/col53 {0.337 0.616 0.671 srgb} bind def
/col54 {0.886 0.886 0.886 srgb} bind def
/col55 {0.886 0.886 0.886 srgb} bind def
/col56 {0.886 0.886 0.886 srgb} bind def
/col57 {0.769 0.710 0.584 srgb} bind def
/col58 {0.929 0.965 0.992 srgb} bind def
/col59 {0.855 0.788 0.643 srgb} bind def
/col60 {0.251 0.251 0.251 srgb} bind def
/col61 {0.502 0.502 0.502 srgb} bind def
/col62 {0.745 0.745 0.745 srgb} bind def
/col63 {0.871 0.871 0.871 srgb} bind def
/col64 {0.549 0.553 0.549 srgb} bind def
/col65 {0.659 0.659 0.659 srgb} bind def
/col66 {0.333 0.333 0.333 srgb} bind def
/col67 {0.745 0.745 0.745 srgb} bind def
/col68 {0.745 0.745 0.745 srgb} bind def
/col69 {0.871 0.871 0.871 srgb} bind def
/col70 {0.549 0.553 0.549 srgb} bind def
/col71 {0.549 0.553 0.549 srgb} bind def
/col72 {0.745 0.745 0.745 srgb} bind def
/col73 {0.871 0.871 0.871 srgb} bind def
/col74 {0.745 0.745 0.745 srgb} bind def
/col75 {0.871 0.871 0.871 srgb} bind def
/col76 {0.745 0.745 0.745 srgb} bind def
/col77 {0.871 0.871 0.871 srgb} bind def
/col78 {0.769 0.710 0.584 srgb} bind def
/col79 {0.929 0.965 0.992 srgb} bind def
/col80 {0.855 0.788 0.643 srgb} bind def
/col81 {0.769 0.710 0.584 srgb} bind def
/col82 {0.929 0.965 0.992 srgb} bind def
/col83 {0.855 0.788 0.643 srgb} bind def
/col84 {0.773 0.757 0.773 srgb} bind def
/col85 {0.871 0.871 0.871 srgb} bind def
/col86 {0.337 0.318 0.318 srgb} bind def
/col87 {0.659 0.659 0.659 srgb} bind def
/col88 {0.549 0.549 0.549 srgb} bind def
/col89 {0.835 0.835 0.835 srgb} bind def
/col90 {0.549 0.553 0.549 srgb} bind def
/col91 {0.745 0.745 0.745 srgb} bind def
/col92 {0.871 0.871 0.871 srgb} bind def
/col93 {0.514 0.502 0.490 srgb} bind def
/col94 {0.816 0.816 0.816 srgb} bind def
/col95 {0.227 0.227 0.227 srgb} bind def
/col96 {0.271 0.451 0.659 srgb} bind def
/col97 {0.675 0.675 0.675 srgb} bind def
/col98 {0.745 0.745 0.745 srgb} bind def
/col99 {0.871 0.871 0.871 srgb} bind def
/col100 {0.745 0.745 0.745 srgb} bind def
/col101 {0.871 0.871 0.871 srgb} bind def
/col102 {0.745 0.745 0.745 srgb} bind def
/col103 {0.675 0.675 0.675 srgb} bind def
/col104 {0.549 0.549 0.549 srgb} bind def
/col105 {0.549 0.549 0.549 srgb} bind def
/col106 {0.549 0.549 0.549 srgb} bind def
/col107 {0.745 0.745 0.745 srgb} bind def
/col108 {0.871 0.871 0.871 srgb} bind def
/col109 {0.745 0.745 0.745 srgb} bind def
/col110 {0.482 0.475 0.639 srgb} bind def
/col111 {0.267 0.267 0.267 srgb} bind def
/col112 {0.451 0.459 0.541 srgb} bind def
/col113 {0.451 0.459 0.541 srgb} bind def
/col114 {0.961 0.961 0.961 srgb} bind def
/col115 {0.388 0.365 0.800 srgb} bind def
/col116 {0.549 0.553 0.549 srgb} bind def
/col117 {0.745 0.745 0.745 srgb} bind def
/col118 {0.871 0.871 0.871 srgb} bind def
/col119 {0.745 0.745 0.745 srgb} bind def
/col120 {0.871 0.871 0.871 srgb} bind def
/col121 {0.737 0.737 0.737 srgb} bind def
/col122 {0.318 0.318 0.318 srgb} bind def
/col123 {0.898 0.882 0.898 srgb} bind def
/col124 {0.000 0.000 0.286 srgb} bind def
/col125 {0.737 0.737 0.737 srgb} bind def
/col126 {0.475 0.475 0.475 srgb} bind def
/col127 {0.188 0.204 0.188 srgb} bind def
/col128 {0.737 0.737 0.737 srgb} bind def
/col129 {0.255 0.255 0.255 srgb} bind def
/col130 {0.898 0.882 0.898 srgb} bind def
/col131 {0.773 0.706 0.584 srgb} bind def
/col132 {0.737 0.737 0.737 srgb} bind def
/col133 {0.549 0.549 0.549 srgb} bind def
/col134 {0.549 0.549 0.549 srgb} bind def
/col135 {0.737 0.737 0.737 srgb} bind def
/col136 {0.737 0.737 0.737 srgb} bind def
/col137 {0.745 0.745 0.745 srgb} bind def
/col138 {0.871 0.871 0.871 srgb} bind def
/col139 {0.898 0.898 0.898 srgb} bind def
/col140 {0.843 0.843 0.843 srgb} bind def
/col141 {0.337 0.616 0.682 srgb} bind def
/col142 {0.898 0.898 0.898 srgb} bind def
/col143 {0.898 0.898 0.898 srgb} bind def
/col144 {0.843 0.843 0.843 srgb} bind def
/col145 {0.337 0.616 0.682 srgb} bind def
/col146 {0.898 0.898 0.898 srgb} bind def
/col147 {0.898 0.898 0.898 srgb} bind def
/col148 {0.898 0.898 0.898 srgb} bind def
/col149 {0.388 0.388 0.388 srgb} bind def
/col150 {0.424 0.424 0.424 srgb} bind def
/col151 {0.753 0.753 0.753 srgb} bind def
/col152 {0.431 0.431 0.431 srgb} bind def
/col153 {0.753 0.753 0.753 srgb} bind def
/col154 {0.549 0.553 0.549 srgb} bind def
/col155 {0.549 0.553 0.549 srgb} bind def
/col156 {0.443 0.443 0.443 srgb} bind def
/col157 {0.675 0.675 0.675 srgb} bind def
/col158 {0.200 0.200 0.200 srgb} bind def
/col159 {0.573 0.569 0.584 srgb} bind def
/col160 {0.455 0.439 0.459 srgb} bind def
/col161 {0.694 0.694 0.694 srgb} bind def
/col162 {0.753 0.753 0.753 srgb} bind def
/col163 {0.757 0.757 0.757 srgb} bind def
/col164 {0.427 0.427 0.427 srgb} bind def
/col165 {0.271 0.271 0.271 srgb} bind def
/col166 {0.549 0.549 0.549 srgb} bind def
/col167 {0.549 0.553 0.549 srgb} bind def
/col168 {0.859 0.616 0.569 srgb} bind def
/col169 {0.937 0.918 0.871 srgb} bind def
/col170 {0.757 0.757 0.757 srgb} bind def
/col171 {0.878 0.776 0.651 srgb} bind def
/col172 {0.875 0.875 0.875 srgb} bind def
/col173 {0.816 0.816 0.816 srgb} bind def
/col174 {0.922 0.922 0.922 srgb} bind def
/col175 {0.847 0.478 0.102 srgb} bind def
/col176 {0.937 0.886 0.102 srgb} bind def
/col177 {0.525 0.490 0.753 srgb} bind def
/col178 {0.682 0.624 0.569 srgb} bind def
/col179 {0.506 0.486 0.859 srgb} bind def
/col180 {0.541 0.541 0.639 srgb} bind def
/col181 {0.290 0.290 0.290 srgb} bind def
/col182 {0.541 0.420 0.420 srgb} bind def
/col183 {0.353 0.353 0.353 srgb} bind def
/col184 {0.549 0.549 0.549 srgb} bind def
/col185 {0.710 0.600 0.451 srgb} bind def
/col186 {0.255 0.569 0.992 srgb} bind def
/col187 {0.741 0.439 0.231 srgb} bind def
/col188 {0.851 0.467 0.000 srgb} bind def
/col189 {0.847 0.714 0.000 srgb} bind def
/col190 {0.000 0.392 0.000 srgb} bind def
/col191 {0.353 0.420 0.231 srgb} bind def
/col192 {0.820 0.820 0.820 srgb} bind def
/col193 {0.659 0.659 0.659 srgb} bind def
/col194 {0.549 0.549 0.635 srgb} bind def
/col195 {0.945 0.718 0.365 srgb} bind def
/col196 {0.529 0.592 0.420 srgb} bind def
/col197 {0.392 0.392 0.392 srgb} bind def
/col198 {0.541 0.541 0.639 srgb} bind def
/col199 {0.710 0.894 0.992 srgb} bind def
/col200 {0.518 0.745 0.918 srgb} bind def
/col201 {0.820 0.584 0.322 srgb} bind def
/col202 {0.549 0.549 0.549 srgb} bind def
/col203 {0.588 0.816 0.988 srgb} bind def
/col204 {0.549 0.549 0.549 srgb} bind def
/col205 {0.380 0.380 0.380 srgb} bind def
/col206 {0.675 0.690 0.675 srgb} bind def
/col207 {0.992 0.596 0.000 srgb} bind def
/col208 {0.541 0.541 0.639 srgb} bind def
/col209 {0.541 0.420 0.420 srgb} bind def
/col210 {0.541 0.604 0.420 srgb} bind def
/col211 {0.961 0.420 0.000 srgb} bind def
/col212 {0.353 0.420 0.224 srgb} bind def
/col213 {0.541 0.604 0.420 srgb} bind def
/col214 {0.541 0.541 0.639 srgb} bind def
/col215 {0.541 0.420 0.420 srgb} bind def
/col216 {0.541 0.604 0.420 srgb} bind def
/col217 {0.961 0.420 0.000 srgb} bind def
/col218 {0.541 0.604 0.482 srgb} bind def
/col219 {0.094 0.290 0.094 srgb} bind def
/col220 {0.541 0.541 0.639 srgb} bind def
/col221 {0.961 0.733 0.353 srgb} bind def
/col222 {0.541 0.604 0.420 srgb} bind def
/col223 {0.388 0.420 0.604 srgb} bind def
/col224 {0.541 0.420 0.420 srgb} bind def
/col225 {0.961 0.961 0.961 srgb} bind def
/col226 {0.863 0.000 0.000 srgb} bind def
/col227 {0.541 0.604 0.420 srgb} bind def
/col228 {0.541 0.541 0.639 srgb} bind def
/col229 {0.961 0.733 0.353 srgb} bind def
/col230 {0.541 0.604 0.420 srgb} bind def
/col231 {0.541 0.541 0.639 srgb} bind def
/col232 {0.961 0.733 0.353 srgb} bind def
/col233 {0.541 0.604 0.420 srgb} bind def
/col234 {0.388 0.420 0.604 srgb} bind def
/col235 {0.322 0.420 0.161 srgb} bind def
/col236 {0.573 0.573 0.573 srgb} bind def
/col237 {0.000 0.388 0.000 srgb} bind def
/col238 {0.541 0.541 0.639 srgb} bind def
/col239 {0.541 0.541 0.639 srgb} bind def
/col240 {0.541 0.541 0.639 srgb} bind def
/col241 {0.000 0.388 0.290 srgb} bind def
/col242 {0.482 0.510 0.290 srgb} bind def
/col243 {0.898 0.733 0.482 srgb} bind def
/col244 {0.541 0.604 0.482 srgb} bind def
/col245 {0.639 0.702 0.769 srgb} bind def
/col246 {0.420 0.420 0.573 srgb} bind def
/col247 {0.510 0.420 0.420 srgb} bind def
/col248 {0.322 0.604 0.290 srgb} bind def
/col249 {0.831 0.898 0.898 srgb} bind def
/col250 {0.322 0.388 0.388 srgb} bind def
/col251 {0.094 0.420 0.290 srgb} bind def
/col252 {0.604 0.639 0.702 srgb} bind def
/col253 {0.992 0.573 0.000 srgb} bind def
/col254 {0.992 0.573 0.000 srgb} bind def
/col255 {0.541 0.420 0.420 srgb} bind def
/col256 {0.000 0.388 0.290 srgb} bind def
/col257 {0.482 0.510 0.290 srgb} bind def
/col258 {0.388 0.451 0.482 srgb} bind def
/col259 {0.898 0.733 0.482 srgb} bind def
/col260 {0.094 0.290 0.094 srgb} bind def
/col261 {0.541 0.541 0.639 srgb} bind def
/col262 {0.961 0.733 0.353 srgb} bind def
/col263 {0.541 0.604 0.420 srgb} bind def
/col264 {0.541 0.541 0.639 srgb} bind def
/col265 {0.541 0.420 0.420 srgb} bind def
/col266 {0.541 0.604 0.420 srgb} bind def
/col267 {0.820 0.820 0.820 srgb} bind def
/col268 {0.659 0.659 0.659 srgb} bind def
/col269 {0.549 0.549 0.635 srgb} bind def
/col270 {0.945 0.718 0.365 srgb} bind def
/col271 {0.529 0.592 0.420 srgb} bind def
/col272 {0.541 0.541 0.639 srgb} bind def
/col273 {0.541 0.541 0.639 srgb} bind def
/col274 {0.541 0.420 0.420 srgb} bind def
/col275 {0.541 0.604 0.420 srgb} bind def
/col276 {0.541 0.541 0.639 srgb} bind def
/col277 {0.541 0.420 0.420 srgb} bind def
/col278 {0.541 0.604 0.482 srgb} bind def
/col279 {0.000 0.000 0.000 srgb} bind def
/col280 {0.961 0.220 0.161 srgb} bind def
/col281 {0.000 0.000 0.000 srgb} bind def
/col282 {0.992 0.992 0.322 srgb} bind def
/col283 {0.322 0.475 0.290 srgb} bind def
/col284 {0.388 0.596 0.353 srgb} bind def
/col285 {0.769 0.380 0.259 srgb} bind def
/col286 {0.898 0.412 0.259 srgb} bind def
/col287 {0.992 0.475 0.322 srgb} bind def
/col288 {0.863 0.863 0.863 srgb} bind def
/col289 {0.541 0.541 0.639 srgb} bind def
/col290 {0.961 0.733 0.353 srgb} bind def
/col291 {0.541 0.604 0.420 srgb} bind def
/col292 {0.388 0.420 0.604 srgb} bind def
/col293 {0.961 0.961 0.961 srgb} bind def
/col294 {0.541 0.420 0.420 srgb} bind def
/col295 {0.820 0.820 0.820 srgb} bind def
/col296 {0.659 0.659 0.659 srgb} bind def
/col297 {0.549 0.549 0.635 srgb} bind def
/col298 {0.945 0.718 0.365 srgb} bind def
/col299 {0.529 0.592 0.420 srgb} bind def
/col300 {0.820 0.820 0.820 srgb} bind def
/col301 {0.659 0.659 0.659 srgb} bind def
/col302 {0.549 0.549 0.635 srgb} bind def
/col303 {0.945 0.718 0.365 srgb} bind def
/col304 {0.529 0.592 0.420 srgb} bind def
/col305 {0.820 0.820 0.820 srgb} bind def
/col306 {0.659 0.659 0.659 srgb} bind def
/col307 {0.549 0.549 0.635 srgb} bind def
/col308 {0.945 0.718 0.365 srgb} bind def
/col309 {0.529 0.592 0.420 srgb} bind def
/col310 {0.820 0.820 0.820 srgb} bind def
/col311 {0.659 0.659 0.659 srgb} bind def
/col312 {0.549 0.549 0.635 srgb} bind def
/col313 {0.945 0.718 0.365 srgb} bind def
/col314 {0.529 0.592 0.420 srgb} bind def
/col315 {0.820 0.820 0.820 srgb} bind def
/col316 {0.659 0.659 0.659 srgb} bind def
/col317 {0.549 0.549 0.635 srgb} bind def
/col318 {0.945 0.718 0.365 srgb} bind def
/col319 {0.529 0.592 0.420 srgb} bind def
/col320 {0.541 0.541 0.639 srgb} bind def
/col321 {0.820 0.820 0.820 srgb} bind def
/col322 {0.659 0.659 0.659 srgb} bind def
/col323 {0.549 0.549 0.635 srgb} bind def
/col324 {0.945 0.718 0.365 srgb} bind def
/col325 {0.529 0.592 0.420 srgb} bind def
/col326 {0.820 0.820 0.820 srgb} bind def
/col327 {0.659 0.659 0.659 srgb} bind def
/col328 {0.549 0.549 0.635 srgb} bind def
/col329 {0.945 0.718 0.365 srgb} bind def
/col330 {0.529 0.592 0.420 srgb} bind def
/col331 {0.820 0.820 0.820 srgb} bind def
/col332 {0.659 0.659 0.659 srgb} bind def
/col333 {0.549 0.549 0.635 srgb} bind def
/col334 {0.945 0.718 0.365 srgb} bind def
/col335 {0.529 0.592 0.420 srgb} bind def
/col336 {0.820 0.820 0.820 srgb} bind def
/col337 {0.659 0.659 0.659 srgb} bind def
/col338 {0.549 0.549 0.635 srgb} bind def
/col339 {0.945 0.718 0.365 srgb} bind def
/col340 {0.529 0.592 0.420 srgb} bind def
/col341 {0.541 0.541 0.639 srgb} bind def
/col342 {0.945 0.925 0.820 srgb} bind def
/col343 {0.953 0.675 0.365 srgb} bind def
/col344 {0.584 0.800 0.592 srgb} bind def
/col345 {0.659 0.659 0.659 srgb} bind def
/col346 {0.702 0.082 0.490 srgb} bind def
/col347 {0.925 0.925 0.925 srgb} bind def
/col348 {0.510 0.510 0.510 srgb} bind def
/col349 {0.541 0.541 0.639 srgb} bind def
/col350 {0.961 0.733 0.353 srgb} bind def
/col351 {0.541 0.604 0.420 srgb} bind def
/col352 {0.388 0.420 0.604 srgb} bind def
/col353 {0.482 0.482 0.482 srgb} bind def
/col354 {0.000 0.353 0.000 srgb} bind def
/col355 {0.898 0.451 0.451 srgb} bind def
/col356 {0.961 0.961 0.961 srgb} bind def
/col357 {0.863 0.000 0.000 srgb} bind def
/col358 {0.992 0.788 0.192 srgb} bind def
/col359 {0.161 0.475 0.290 srgb} bind def
/col360 {0.863 0.157 0.129 srgb} bind def
/col361 {0.129 0.349 0.769 srgb} bind def
/col362 {0.965 0.965 0.965 srgb} bind def
/col363 {0.925 0.925 0.925 srgb} bind def
/col364 {0.482 0.510 0.290 srgb} bind def
/col365 {0.898 0.733 0.482 srgb} bind def
/col366 {0.541 0.604 0.482 srgb} bind def
/col367 {0.639 0.702 0.769 srgb} bind def
/col368 {0.420 0.420 0.573 srgb} bind def
/col369 {0.510 0.420 0.420 srgb} bind def
/col370 {0.322 0.604 0.290 srgb} bind def
/col371 {0.831 0.898 0.898 srgb} bind def
/col372 {0.604 0.639 0.702 srgb} bind def
/col373 {0.129 0.510 0.353 srgb} bind def
/col374 {0.541 0.541 0.639 srgb} bind def
/col375 {0.961 0.733 0.353 srgb} bind def
/col376 {0.541 0.604 0.420 srgb} bind def
/col377 {0.388 0.420 0.604 srgb} bind def
/col378 {0.541 0.541 0.639 srgb} bind def
/col379 {0.961 0.733 0.353 srgb} bind def
/col380 {0.541 0.604 0.420 srgb} bind def
/col381 {0.541 0.420 0.420 srgb} bind def

end

/cp {closepath} bind def
/ef {eofill} bind def
/gr {grestore} bind def
/gs {gsave} bind def
/sa {save} bind def
/rs {restore} bind def
/l {lineto} bind def
/m {moveto} bind def
/rm {rmoveto} bind def
/n {newpath} bind def
/s {stroke} bind def
/sh {show} bind def
/slc {setlinecap} bind def
/slj {setlinejoin} bind def
/slw {setlinewidth} bind def
/srgb {setrgbcolor} bind def
/rot {rotate} bind def
/sc {scale} bind def
/sd {setdash} bind def
/ff {findfont} bind def
/sf {setfont} bind def
/scf {scalefont} bind def
/sw {stringwidth} bind def
/tr {translate} bind def
/tnt {dup dup currentrgbcolor
  4 -2 roll dup 1 exch sub 3 -1 roll mul add
  4 -2 roll dup 1 exch sub 3 -1 roll mul add
  4 -2 roll dup 1 exch sub 3 -1 roll mul add srgb}
  bind def
/shd {dup dup currentrgbcolor 4 -2 roll mul 4 -2 roll mul
  4 -2 roll mul srgb} bind def
 /DrawEllipse {
	/endangle exch def
	/startangle exch def
	/yrad exch def
	/xrad exch def
	/y exch def
	/x exch def
	/savematrix mtrx currentmatrix def
	x y tr xrad yrad sc 0 0 1 startangle endangle arc
	closepath
	savematrix setmatrix
	} def

/$F2psBegin {$F2psDict begin /$F2psEnteredState save def} def
/$F2psEnd {$F2psEnteredState restore end} def

/pageheader {
save
newpath 0 112 moveto 0 0 lineto 312 0 lineto 312 112 lineto closepath clip newpath
-116.2 139.4 translate
1 -1 scale
$F2psBegin
10 setmiterlimit
0 slj 0 slc
 0.06299 0.06299 sc
} bind def
/pagefooter {
$F2psEnd
restore
} bind def
%%EndProlog
pageheader
%
% Fig objects follow
%
% 
% here starts figure with depth 1001
% Grid
0.5 setgray
gs 450 472 div dup scale
% Vertical
% Horizontal
gr
% here ends figure;
% 
% here starts figure with depth 52
% Polyline
0 slj
0 slc
7.500 slw
n 1980 630 m
 1980 2070 l gs col0 s gr 
% Ellipse
n 1980 1350 127 127 0 360 DrawEllipse gs col32 1.00 shd ef gr gs col7 s gr

% Ellipse
n 1980 630 127 127 0 360 DrawEllipse gs col32 1.00 shd ef gr gs col7 s gr

% Ellipse
n 1988 2078 127 127 0 360 DrawEllipse gs col33 1.00 shd ef gr gs col33 s gr

% Ellipse
n 1980 1710 127 127 0 360 DrawEllipse gs col33 1.00 shd ef gr gs col33 s gr

% Ellipse
n 1980 990 127 127 0 360 DrawEllipse gs col33 1.00 shd ef gr gs col33 s gr

% Arc
n 5265.0 1620.0 90.0 180.0000 0.0000 arc
gs col35 s gr

% Arc
n 5265.0 1620.0 180.0 180.0000 0.0000 arc
gs col35 s gr

% Arc
n 6300.0 1620.0 90.0 180.0000 0.0000 arc
gs col36 s gr

% Arc
n 6300.0 1620.0 180.0 180.0000 0.0000 arc
gs col36 s gr

% Arc
n 6300.0 1620.0 270.0 180.0000 0.0000 arc
gs col36 s gr

% Polyline
 [60] 0 sd
n 5490 585 m
 5760 585 l gs col38 s gr  [] 0 sd
% Polyline
n 5760 450 m 6660 450 l 6660 720 l 5760 720 l
 cp gs col35 s gr 
% Polyline
n 4590 450 m 5490 450 l 5490 720 l 4590 720 l
 cp gs col34 s gr 
% here ends figure;
pagefooter
showpage
%%Trailer
%EOF
