#FIG 3.2  Produced by xfig version 3.2.6a
Landscape
Center
Metric
A4
100.00
Single
-2
1200 2
0 32 #000080
0 33 #cbcbcb
0 34 #0072ba
0 35 #d65319
0 36 #7e2f8a
0 37 #eaae20
0 38 #77a930
0 39 #4dbbeb
0 40 #9f142f
6 1861 1951 2115 2205
1 3 0 1 33 33 51 -1 20 0.000 1 0.0000 1988 2078 127 127 1988 2078 2115 2078
4 0 33 50 -1 0 12 0.0000 2 150 105 1943 2146 5\001
-6
6 1853 503 2107 757
1 3 0 1 33 33 51 -1 20 0.000 1 0.0000 1980 630 127 127 1980 630 2107 630
4 0 33 50 -1 0 12 0.0000 2 150 105 1935 698 1\001
-6
6 1853 1223 2107 1477
1 3 0 1 33 33 51 -1 20 0.000 1 0.0000 1980 1350 127 127 1980 1350 2107 1350
4 0 33 50 -1 0 12 0.0000 2 150 105 1935 1418 3\001
-6
6 1853 863 2107 1117
1 3 0 1 33 33 51 -1 20 0.000 1 0.0000 1980 990 127 127 1980 990 2107 990
4 0 33 50 -1 0 12 0.0000 2 150 105 1935 1058 2\001
-6
6 1853 1583 2107 1837
1 3 0 1 7 32 51 -1 20 0.000 1 0.0000 1980 1710 127 127 1980 1710 2107 1710
4 0 7 50 -1 0 12 0.0000 2 150 105 1935 1778 4\001
-6
1 3 1 1 36 36 50 -1 20 4.000 1 0.0000 3735 1260 45 45 3735 1260 3735 1215
1 3 1 1 34 34 49 -1 20 4.000 1 0.0000 2790 630 45 45 2790 630 2835 630
1 3 1 1 34 34 49 -1 20 4.000 1 0.0000 4680 630 45 45 4680 630 4725 630
2 1 0 1 -1 0 52 -1 20 0.000 0 0 7 0 0 2
	 1980 630 1980 2070
2 1 1 1 38 38 51 -1 20 4.000 0 0 7 1 0 2
	1 1 1.00 60.00 120.00
	 2790 630 4590 630
4 0 0 50 -1 0 12 0.0000 2 195 3540 2250 1800 Frequency Difference of Arrival (FDOA)\001
