% This file was created by matlab2tikz.
%
%The latest updates can be retrieved from
%  http://www.mathworks.com/matlabcentral/fileexchange/22022-matlab2tikz-matlab2tikz
%where you can also make suggestions and rate matlab2tikz.
%
\definecolor{mycolor1}{rgb}{0.00000,0.44700,0.74100}%
\definecolor{mycolor2}{rgb}{0.85000,0.32500,0.09800}%
%
\begin{tikzpicture}

\begin{axis}[%
width=1.682in,
height=2.162in,
at={(2.509in,7.109in)},
scale only axis,
xmin=0,
xmax=40,
xlabel style={font=\color{white!15!black}, align=center},
xlabel={Sample Index\\[1ex]0},
ymin=0,
ymax=0.8,
ylabel style={font=\color{white!15!black}},
ylabel={Magnitude},
axis background/.style={fill=white},
legend style={legend cell align=left, align=left, draw=white!15!black}
]
\addplot [color=mycolor1]
  table[row sep=crcr]{%
1	0.0290353777770815\\
2	0.116966960029715\\
3	0.717636063243026\\
4	0.255922222732413\\
5	0.157839859809963\\
6	0.479919953075153\\
7	0.252673611615711\\
8	0.0212220199961293\\
9	0.0444926115260959\\
10	0.209705739044994\\
11	0.162051986725887\\
12	0.0667471624141741\\
13	0.0423910396560651\\
14	0.0440400420600397\\
15	0.0317325213314167\\
16	0.0254199930683306\\
17	0.0255593479826149\\
18	0.0221782788051155\\
19	0.0191878997791188\\
20	0.0177564433165022\\
21	0.0115511254698717\\
22	0.0131267800310863\\
23	0.0123576690588262\\
24	0.0115582646133275\\
25	0.0108285182954966\\
26	0.010175472000293\\
27	0.00959217841048023\\
28	0.00906973820212693\\
29	0.00859985897354149\\
30	0.00817536672822264\\
31	0.00779019454801119\\
32	0.00743924197600599\\
33	0.00711821813015632\\
34	0.00682350062408453\\
35	0.00655201712046718\\
36	0.00630114846041809\\
37	0.00606865019252615\\
38	0.00585258913265084\\
39	0.00565129198617896\\
40	0.00546330358806904\\
};
\addlegendentry{data1}

\addplot [color=mycolor2]
  table[row sep=crcr]{%
1	0.0797532113275035\\
2	0.101851993247255\\
3	0.141454952505187\\
4	0.234483456785733\\
5	0.756727712121983\\
6	0.449086410912579\\
7	0.0987533508255954\\
8	0.287649819391416\\
9	0.133739223679385\\
10	0.0953203346823361\\
11	0.0750748201216471\\
12	0.0621887182941901\\
13	0.053172517503691\\
14	0.0464800595287934\\
15	0\\
16	0\\
17	0\\
18	0\\
19	0\\
20	0\\
21	0\\
22	0\\
23	0\\
24	0\\
25	0\\
26	0\\
27	0\\
28	0\\
29	0\\
30	0\\
31	0\\
32	0\\
33	0\\
34	0\\
35	0\\
36	0\\
37	0\\
38	0\\
39	0\\
40	0\\
};
\addlegendentry{data2}

\end{axis}

\begin{axis}[%
width=1.682in,
height=2.162in,
at={(4.722in,7.109in)},
scale only axis,
xmin=0,
xmax=40,
xlabel style={font=\color{white!15!black}, align=center},
xlabel={Sample Index\\[1ex]1},
ymin=0,
ymax=1,
ylabel style={font=\color{white!15!black}},
ylabel={Magnitude},
axis background/.style={fill=white},
legend style={legend cell align=left, align=left, draw=white!15!black}
]
\addplot [color=mycolor1]
  table[row sep=crcr]{%
1	0.0464557958520233\\
2	0.103647870262577\\
3	0.955450210908857\\
4	0.0928085205305244\\
5	0.0960207801260711\\
6	0.161182148158188\\
7	0.110123574692431\\
8	0.0900169426506973\\
9	0.0530094015626946\\
10	0.0704440599141715\\
11	0.00968548745102703\\
12	0.0136854154788474\\
13	0.0137696227846996\\
14	0.0288751614910043\\
15	0.0130272381083789\\
16	0.0113459777532635\\
17	0.0142137904707909\\
18	0.00744088960225545\\
19	0.007560239332673\\
20	0.00748892985622124\\
21	0.00651794971052768\\
22	0.00612854182818386\\
23	0.00589431229854237\\
24	0.00563829380828747\\
25	0.005391396515266\\
26	0.0051600002871436\\
27	0.0049450015841851\\
28	0.00474570423226772\\
29	0.00456093474063303\\
30	0.00438942394322639\\
31	0.00422994752432054\\
32	0.00408137608631127\\
33	0.00394268863415969\\
34	0.0038129708884949\\
35	0.00369140755156807\\
36	0.00357727257186848\\
37	0.00346991921724372\\
38	0.00336877073851284\\
39	0.00327331192154075\\
40	0.00318308159719773\\
};
\addlegendentry{data1}

\addplot [color=mycolor2]
  table[row sep=crcr]{%
1	0.0540242397396708\\
2	0.0714049156339838\\
3	0.104166800460931\\
4	0.18639607275557\\
5	0.689824071207794\\
6	0.580530461142803\\
7	0.347612688775646\\
8	0.0948275816048146\\
9	0.0220393609700012\\
10	0.0288159063256776\\
11	0.0276451261966783\\
12	0.0253113121954666\\
13	0.0230001013530726\\
14	0.0209469340140485\\
15	0\\
16	0\\
17	0\\
18	0\\
19	0\\
20	0\\
21	0\\
22	0\\
23	0\\
24	0\\
25	0\\
26	0\\
27	0\\
28	0\\
29	0\\
30	0\\
31	0\\
32	0\\
33	0\\
34	0\\
35	0\\
36	0\\
37	0\\
38	0\\
39	0\\
40	0\\
};
\addlegendentry{data2}

\end{axis}

\begin{axis}[%
width=1.682in,
height=2.162in,
at={(6.935in,7.109in)},
scale only axis,
xmin=0,
xmax=40,
xlabel style={font=\color{white!15!black}, align=center},
xlabel={Sample Index\\[1ex]2},
ymin=0,
ymax=1,
ylabel style={font=\color{white!15!black}},
ylabel={Magnitude},
axis background/.style={fill=white},
legend style={legend cell align=left, align=left, draw=white!15!black}
]
\addplot [color=mycolor1]
  table[row sep=crcr]{%
1	0.0381331745123578\\
2	0.0410278865157122\\
3	0.856160514123452\\
4	0.119719085465109\\
5	0.076274380733333\\
6	0.268134172850308\\
7	0.21209679337022\\
8	0.072635057685215\\
9	0.11290784094351\\
10	0.300346973548677\\
11	0.0933041173999121\\
12	0.043754854852243\\
13	0.0240998661464871\\
14	0.0567425297970608\\
15	0.0288016663702655\\
16	0.0249848149119034\\
17	0.0177101803699117\\
18	0.0163421516438265\\
19	0.0158106659161025\\
20	0.0151329146208042\\
21	0.0135458617834192\\
22	0.0125838103773853\\
23	0.0119246780232706\\
24	0.0112925815792962\\
25	0.0107126875013662\\
26	0.0101850127700108\\
27	0.00970491590758898\\
28	0.00926710519324187\\
29	0.00886662841858364\\
30	0.00849910362129724\\
31	0.0081607280553869\\
32	0.00784822210934787\\
33	0.00755875912865178\\
34	0.0072898981392434\\
35	0.00703952458871\\
36	0.00680579992494399\\
37	0.00658711933175919\\
38	0.00638207650939082\\
39	0.00618943436224169\\
40	0.00600810057299734\\
};
\addlegendentry{data1}

\addplot [color=mycolor2]
  table[row sep=crcr]{%
1	0.0769952738230809\\
2	0.0987626216727105\\
3	0.138060345624216\\
4	0.231329823727782\\
5	0.763060846948481\\
6	0.498956293529545\\
7	0.130286272489529\\
8	0.176447485511031\\
9	0.114526030379576\\
10	0.0849414519192569\\
11	0.068003927142214\\
12	0.0568412704472838\\
13	0.0488793074039917\\
14	0.0428969268690243\\
15	0\\
16	0\\
17	0\\
18	0\\
19	0\\
20	0\\
21	0\\
22	0\\
23	0\\
24	0\\
25	0\\
26	0\\
27	0\\
28	0\\
29	0\\
30	0\\
31	0\\
32	0\\
33	0\\
34	0\\
35	0\\
36	0\\
37	0\\
38	0\\
39	0\\
40	0\\
};
\addlegendentry{data2}

\end{axis}

\begin{axis}[%
width=1.682in,
height=2.162in,
at={(9.148in,7.109in)},
scale only axis,
xmin=0,
xmax=40,
xlabel style={font=\color{white!15!black}, align=center},
xlabel={Sample Index\\[1ex]3},
ymin=0,
ymax=0.8,
ylabel style={font=\color{white!15!black}},
ylabel={Magnitude},
axis background/.style={fill=white},
legend style={legend cell align=left, align=left, draw=white!15!black}
]
\addplot [color=mycolor1]
  table[row sep=crcr]{%
1	0.0991548149545245\\
2	0.187743021934909\\
3	0.740136084765199\\
4	0.0516600475901836\\
5	0.141621467553459\\
6	0.379944791447282\\
7	0.2030255960607\\
8	0.117553652021827\\
9	0.0641154455542004\\
10	0.347703486084439\\
11	0.172251139201225\\
12	0.0972034057631986\\
13	0.074399736712068\\
14	0.0521194065253531\\
15	0.0431019086217703\\
16	0.0376030515291129\\
17	0.0432335878080521\\
18	0.0322433442275353\\
19	0.0292971535535386\\
20	0.0276022331445158\\
21	0.0198712082810664\\
22	0.0219426948928851\\
23	0.0208555759235595\\
24	0.0197248284370166\\
25	0.0186766686430924\\
26	0.0177230865957744\\
27	0.0168578270018432\\
28	0.0160713732297146\\
29	0.0153543614505738\\
30	0.0146984100723554\\
31	0.0140962418207981\\
32	0.0135416012033791\\
33	0.0130291215854\\
34	0.0125541916945691\\
35	0.0121128367278669\\
36	0.0117016171725523\\
37	0.0113175443233316\\
38	0.0109580102628779\\
39	0.0106207299324508\\
40	0.0103036931489641\\
};
\addlegendentry{data1}

\addplot [color=mycolor2]
  table[row sep=crcr]{%
1	0.0587396187091895\\
2	0.076813887546142\\
3	0.110470277882314\\
4	0.193785396369922\\
5	0.696999502400785\\
6	0.572611132845169\\
7	0.31581007947924\\
8	0.131315334050963\\
9	0.0592410050198672\\
10	0.0475794595172019\\
11	0.0400472835074915\\
12	0.0345405337478385\\
13	0.030338090059216\\
14	0.027032349684529\\
15	0\\
16	0\\
17	0\\
18	0\\
19	0\\
20	0\\
21	0\\
22	0\\
23	0\\
24	0\\
25	0\\
26	0\\
27	0\\
28	0\\
29	0\\
30	0\\
31	0\\
32	0\\
33	0\\
34	0\\
35	0\\
36	0\\
37	0\\
38	0\\
39	0\\
40	0\\
};
\addlegendentry{data2}

\end{axis}

\begin{axis}[%
width=1.682in,
height=2.162in,
at={(11.361in,7.109in)},
scale only axis,
xmin=0,
xmax=40,
xlabel style={font=\color{white!15!black}, align=center},
xlabel={Sample Index\\[1ex]4},
ymin=0,
ymax=0.8,
ylabel style={font=\color{white!15!black}},
ylabel={Magnitude},
axis background/.style={fill=white},
legend style={legend cell align=left, align=left, draw=white!15!black}
]
\addplot [color=mycolor1]
  table[row sep=crcr]{%
1	0.0609944837518478\\
2	0.197625994306191\\
3	0.742825404845097\\
4	0.350037341334446\\
5	0.261195429759511\\
6	0.384290438556384\\
7	0.174993435946638\\
8	0.111640658891356\\
9	0.0694117334694492\\
10	0.0621545810089293\\
11	0.105528277759393\\
12	0.0390652216321202\\
13	0.0323162709242385\\
14	0.0293969212437902\\
15	0.0137463863099193\\
16	0.0131936521603019\\
17	0.00569644712727078\\
18	0.00524671331315988\\
19	0.00556079036405648\\
20	0.00562176151074476\\
21	0.0074534716399318\\
22	0.00421193580077119\\
23	0.00384790600979821\\
24	0.00355174886432607\\
25	0.00329187631632381\\
26	0.00306224765095578\\
27	0.00285871479699366\\
28	0.00267768643484375\\
29	0.00251604776716556\\
30	0.00237113495145183\\
31	0.00224068881547786\\
32	0.00212279951545587\\
33	0.00201585244589766\\
34	0.00191847992749859\\
35	0.0018295199114667\\
36	0.00174798146066603\\
37	0.00167301621520829\\
38	0.00160389492137314\\
39	0.00153998815138272\\
40	0.00148075045292044\\
};
\addlegendentry{data1}

\addplot [color=mycolor2]
  table[row sep=crcr]{%
1	0.0672346886923401\\
2	0.0872400247221156\\
3	0.124037044328475\\
4	0.213632600761616\\
5	0.74295157479396\\
6	0.562147387127497\\
7	0.189191596691557\\
8	0.082663268682102\\
9	0.0750112341701269\\
10	0.0606337785436907\\
11	0.0504522211058521\\
12	0.043107194635053\\
13	0.0375992222856513\\
14	0.0333271052671764\\
15	0\\
16	0\\
17	0\\
18	0\\
19	0\\
20	0\\
21	0\\
22	0\\
23	0\\
24	0\\
25	0\\
26	0\\
27	0\\
28	0\\
29	0\\
30	0\\
31	0\\
32	0\\
33	0\\
34	0\\
35	0\\
36	0\\
37	0\\
38	0\\
39	0\\
40	0\\
};
\addlegendentry{data2}

\end{axis}

\begin{axis}[%
width=1.682in,
height=2.162in,
at={(13.574in,7.109in)},
scale only axis,
xmin=0,
xmax=40,
xlabel style={font=\color{white!15!black}, align=center},
xlabel={Sample Index\\[1ex]5},
ymin=0,
ymax=0.8,
ylabel style={font=\color{white!15!black}},
ylabel={Magnitude},
axis background/.style={fill=white},
legend style={legend cell align=left, align=left, draw=white!15!black}
]
\addplot [color=mycolor1]
  table[row sep=crcr]{%
1	0.112802063274404\\
2	0.291908772417942\\
3	0.768624981152602\\
4	0.287763359456972\\
5	0.177488463268308\\
6	0.335563801689438\\
7	0.229301798021047\\
8	0.129435584094847\\
9	0.0174536463905644\\
10	0.0961245708894279\\
11	0.0486304382648491\\
12	0.0218134264259929\\
13	0.0276013970373007\\
14	0.0231388063294037\\
15	0.0111976351703283\\
16	0.0120504311991974\\
17	0.0106869480938778\\
18	0.00697886741011739\\
19	0.00756950167482025\\
20	0.00687905358949081\\
21	0.0123411713011016\\
22	0.0083116843631971\\
23	0.00768899169530348\\
24	0.00728970266395983\\
25	0.0069636673278263\\
26	0.00667708739845415\\
27	0.00641776399149571\\
28	0.00617981543506224\\
29	0.00595975724675451\\
30	0.00575520402191149\\
31	0.00556435809357525\\
32	0.00538577904127425\\
33	0.00521826716480077\\
34	0.00506079822644023\\
35	0.00491248340257502\\
36	0.00477254267406928\\
37	0.00464028594102902\\
38	0.00451509889991963\\
39	0.00439643205030716\\
40	0.00428379187674368\\
};
\addlegendentry{data1}

\addplot [color=mycolor2]
  table[row sep=crcr]{%
1	0.0735213975196606\\
2	0.0945538184358367\\
3	0.132717197632443\\
4	0.223977289476747\\
5	0.750349726666888\\
6	0.514361413630851\\
7	0.130881339383909\\
8	0.211647353436191\\
9	0.107341657026121\\
10	0.0792149599678972\\
11	0.0634811700705565\\
12	0.0531332273923757\\
13	0.0457445617341354\\
14	0.0401844555717191\\
15	0\\
16	0\\
17	0\\
18	0\\
19	0\\
20	0\\
21	0\\
22	0\\
23	0\\
24	0\\
25	0\\
26	0\\
27	0\\
28	0\\
29	0\\
30	0\\
31	0\\
32	0\\
33	0\\
34	0\\
35	0\\
36	0\\
37	0\\
38	0\\
39	0\\
40	0\\
};
\addlegendentry{data2}

\end{axis}

\begin{axis}[%
width=1.682in,
height=2.162in,
at={(15.787in,7.109in)},
scale only axis,
xmin=0,
xmax=40,
xlabel style={font=\color{white!15!black}, align=center},
xlabel={Sample Index\\[1ex]6},
ymin=0,
ymax=0.8,
ylabel style={font=\color{white!15!black}},
ylabel={Magnitude},
axis background/.style={fill=white},
legend style={legend cell align=left, align=left, draw=white!15!black}
]
\addplot [color=mycolor1]
  table[row sep=crcr]{%
1	0.111231812465709\\
2	0.210516291248277\\
3	0.491365270621281\\
4	0.13814955154843\\
5	0.221077769059745\\
6	0.612209578666268\\
7	0.361952523692139\\
8	0.258121618584728\\
9	0.0948864347160276\\
10	0.121048884790835\\
11	0.109558701559059\\
12	0.0718321377282015\\
13	0.0564571202762853\\
14	0.0612962038711738\\
15	0.0455577098862803\\
16	0.0402155853557993\\
17	0.0382266796857125\\
18	0.0315917168608911\\
19	0.0292456212947596\\
20	0.026866084272853\\
21	0.0276968818315835\\
22	0.0242281300445206\\
23	0.0226471608605705\\
24	0.0213264264906504\\
25	0.0201692429373181\\
26	0.0191386734353962\\
27	0.0182122211407592\\
28	0.0173736755223175\\
29	0.016610495978175\\
30	0.0159126249067149\\
31	0.0152718194117155\\
32	0.014681222463685\\
33	0.0141350651084344\\
34	0.013628449202765\\
35	0.0131571836239175\\
36	0.012717657899421\\
37	0.0123067429977918\\
38	0.0119217123635985\\
39	0.0115601783488316\\
40	0.0112200405417913\\
};
\addlegendentry{data1}

\addplot [color=mycolor2]
  table[row sep=crcr]{%
1	0.0719582520696845\\
2	0.0926585195834718\\
3	0.130300244502614\\
4	0.220578905286742\\
5	0.743252778864282\\
6	0.512630376588538\\
7	0.20988162977745\\
8	0.187174657750103\\
9	0.102998645473886\\
10	0.0763233441319423\\
11	0.0612925802155198\\
12	0.0513709780980554\\
13	0.0442693823850754\\
14	0.0389158630140212\\
15	0\\
16	0\\
17	0\\
18	0\\
19	0\\
20	0\\
21	0\\
22	0\\
23	0\\
24	0\\
25	0\\
26	0\\
27	0\\
28	0\\
29	0\\
30	0\\
31	0\\
32	0\\
33	0\\
34	0\\
35	0\\
36	0\\
37	0\\
38	0\\
39	0\\
40	0\\
};
\addlegendentry{data2}

\end{axis}

\begin{axis}[%
width=1.682in,
height=2.162in,
at={(2.509in,4.106in)},
scale only axis,
xmin=0,
xmax=40,
xlabel style={font=\color{white!15!black}, align=center},
xlabel={Sample Index\\[1ex]7},
ymin=0,
ymax=1,
ylabel style={font=\color{white!15!black}},
ylabel={Magnitude},
axis background/.style={fill=white},
legend style={legend cell align=left, align=left, draw=white!15!black}
]
\addplot [color=mycolor1]
  table[row sep=crcr]{%
1	0.0531483980317847\\
2	0.148303755130892\\
3	0.951414285111657\\
4	0.178819370490203\\
5	0.0477989874516466\\
6	0.152036386075321\\
7	0.0515547800486403\\
8	0.0251703125589513\\
9	0.0409427669082627\\
10	0.0564226172961567\\
11	0.0486281514956413\\
12	0.0249357133001889\\
13	0.0135993605746015\\
14	0.0164622376501057\\
15	0.0139767835163063\\
16	0.0116826271881654\\
17	0.00362435564585498\\
18	0.00895848662653476\\
19	0.00764354888238304\\
20	0.00634244831784806\\
21	0.0110037624244029\\
22	0.00701494305042939\\
23	0.00628291498717282\\
24	0.00580644791019216\\
25	0.00543093247534864\\
26	0.00511522934421236\\
27	0.0048415264459255\\
28	0.00459990668818215\\
29	0.00438398788279949\\
30	0.00418928287318446\\
31	0.00401245171480814\\
32	0.00385090997478222\\
33	0.00370260142494463\\
34	0.00356585558644587\\
35	0.00343929307478567\\
36	0.00332175980485263\\
37	0.00321227961120681\\
38	0.00311001915355485\\
39	0.00301426131954424\\
40	0.00292438468193623\\
};
\addlegendentry{data1}

\addplot [color=mycolor2]
  table[row sep=crcr]{%
1	0.0705987083468756\\
2	0.0911378256676959\\
3	0.128600957174023\\
4	0.218722316072723\\
5	0.740823634063998\\
6	0.49544570142265\\
7	0.26435025956057\\
8	0.188580911226019\\
9	0.0937993479346293\\
10	0.0708375988262019\\
11	0.0574916893296815\\
12	0.0484906194959482\\
13	0.0419605808321629\\
14	0.0369936991689467\\
15	0\\
16	0\\
17	0\\
18	0\\
19	0\\
20	0\\
21	0\\
22	0\\
23	0\\
24	0\\
25	0\\
26	0\\
27	0\\
28	0\\
29	0\\
30	0\\
31	0\\
32	0\\
33	0\\
34	0\\
35	0\\
36	0\\
37	0\\
38	0\\
39	0\\
40	0\\
};
\addlegendentry{data2}

\end{axis}

\begin{axis}[%
width=1.682in,
height=2.162in,
at={(4.722in,4.106in)},
scale only axis,
xmin=0,
xmax=40,
xlabel style={font=\color{white!15!black}, align=center},
xlabel={Sample Index\\[1ex]8},
ymin=0,
ymax=0.8,
ylabel style={font=\color{white!15!black}},
ylabel={Magnitude},
axis background/.style={fill=white},
legend style={legend cell align=left, align=left, draw=white!15!black}
]
\addplot [color=mycolor1]
  table[row sep=crcr]{%
1	0.100123333041828\\
2	0.19129028223076\\
3	0.623431378148185\\
4	0.0396389019677442\\
5	0.292255698743248\\
6	0.485571477993136\\
7	0.329469694066882\\
8	0.117387548210609\\
9	0.0670963728701294\\
10	0.201492759046372\\
11	0.199656661048778\\
12	0.0982317115872291\\
13	0.0710314104549118\\
14	0.0691634801726978\\
15	0.0537633117070401\\
16	0.0473734297375968\\
17	0.0153872291457362\\
18	0.0367356675123144\\
19	0.0336702946825217\\
20	0.0318673357949731\\
21	0.0224405926927454\\
22	0.0251813210477047\\
23	0.0239526953004699\\
24	0.0226512256372308\\
25	0.0214391663851197\\
26	0.0203345421330652\\
27	0.0193316070908913\\
28	0.0184199489329571\\
29	0.0175889706912925\\
30	0.0168290519524008\\
31	0.0161317770303225\\
32	0.0154898799007174\\
33	0.0148971100015596\\
34	0.0143480874046378\\
35	0.0138381699049614\\
36	0.0133633380576658\\
37	0.0129200982170551\\
38	0.0125054016379673\\
39	0.0121165772356965\\
40	0.0117512757073584\\
};
\addlegendentry{data1}

\addplot [color=mycolor2]
  table[row sep=crcr]{%
1	0.0643437698840814\\
2	0.0836764800396638\\
3	0.1193908591832\\
4	0.206939363247676\\
5	0.730357545633652\\
6	0.593324612077528\\
7	0.159702065863218\\
8	0.0816043882441882\\
9	0.0697018870728314\\
10	0.0565975119713701\\
11	0.0472389153842113\\
12	0.0404449745207536\\
13	0.035328664407177\\
14	0.0313484580553921\\
15	0\\
16	0\\
17	0\\
18	0\\
19	0\\
20	0\\
21	0\\
22	0\\
23	0\\
24	0\\
25	0\\
26	0\\
27	0\\
28	0\\
29	0\\
30	0\\
31	0\\
32	0\\
33	0\\
34	0\\
35	0\\
36	0\\
37	0\\
38	0\\
39	0\\
40	0\\
};
\addlegendentry{data2}

\end{axis}

\begin{axis}[%
width=1.682in,
height=2.162in,
at={(6.935in,4.106in)},
scale only axis,
xmin=0,
xmax=40,
xlabel style={font=\color{white!15!black}, align=center},
xlabel={Sample Index\\[1ex]9},
ymin=0,
ymax=0.8,
ylabel style={font=\color{white!15!black}},
ylabel={Magnitude},
axis background/.style={fill=white},
legend style={legend cell align=left, align=left, draw=white!15!black}
]
\addplot [color=mycolor1]
  table[row sep=crcr]{%
1	0.0849155609738945\\
2	0.188794767730059\\
3	0.43903508924996\\
4	0.300083005081431\\
5	0.348495809016185\\
6	0.574300917762901\\
7	0.338226701734691\\
8	0.179032163704004\\
9	0.0659168875495418\\
10	0.255358727291414\\
11	0.0657286690316802\\
12	0.0323826109635735\\
13	0.0244470639209615\\
14	0.0025667495783834\\
15	0.0103456840399021\\
16	0.0102184734226104\\
17	0.0158218580155773\\
18	0.00841833567605418\\
19	0.00825701920575083\\
20	0.00854342595104694\\
21	0.0035197702676658\\
22	0.00585925658499059\\
23	0.00588413640969241\\
24	0.00572783820603466\\
25	0.00553505490715509\\
26	0.00533788387932363\\
27	0.00514633975521497\\
28	0.00496384524014318\\
29	0.00479140311171645\\
30	0.00462902800486132\\
31	0.00447631660455756\\
32	0.00433269728982883\\
33	0.0041975458463277\\
34	0.00407024041582618\\
35	0.00395018722881113\\
36	0.00383683173666015\\
37	0.00372966229788198\\
38	0.003628210067805\\
39	0.00353204700876831\\
40	0.00344078304623573\\
};
\addlegendentry{data1}

\addplot [color=mycolor2]
  table[row sep=crcr]{%
1	0.0662102567461149\\
2	0.0859191173857778\\
3	0.122189128284694\\
4	0.210577968790538\\
5	0.733480984522674\\
6	0.556265127316598\\
7	0.21762939515223\\
8	0.133143177264147\\
9	0.0771041403184883\\
10	0.0607172361826032\\
11	0.0501671916454609\\
12	0.0427359548484004\\
13	0.037216562819543\\
14	0.0329564048511957\\
15	0\\
16	0\\
17	0\\
18	0\\
19	0\\
20	0\\
21	0\\
22	0\\
23	0\\
24	0\\
25	0\\
26	0\\
27	0\\
28	0\\
29	0\\
30	0\\
31	0\\
32	0\\
33	0\\
34	0\\
35	0\\
36	0\\
37	0\\
38	0\\
39	0\\
40	0\\
};
\addlegendentry{data2}

\end{axis}

\begin{axis}[%
width=1.682in,
height=2.162in,
at={(9.148in,4.106in)},
scale only axis,
xmin=0,
xmax=40,
xlabel style={font=\color{white!15!black}, align=center},
xlabel={Sample Index\\[1ex]10},
ymin=0,
ymax=0.8,
ylabel style={font=\color{white!15!black}},
ylabel={Magnitude},
axis background/.style={fill=white},
legend style={legend cell align=left, align=left, draw=white!15!black}
]
\addplot [color=mycolor1]
  table[row sep=crcr]{%
1	0.0523229174195285\\
2	0.16649629007141\\
3	0.537875346558585\\
4	0.24192859843164\\
5	0.2785932347529\\
6	0.485341712890782\\
7	0.31208656819741\\
8	0.203237062018565\\
9	0.119240571075354\\
10	0.344087889574821\\
11	0.129884084547475\\
12	0.0840368138466998\\
13	0.0668440412367596\\
14	0.037847297707915\\
15	0.030647981421968\\
16	0.0260191248168284\\
17	0.0424295268666981\\
18	0.0232116486917886\\
19	0.0195952469859914\\
20	0.0165362944447957\\
21	0.0250945503318348\\
22	0.0168851533244822\\
23	0.0151811910620456\\
24	0.0140108749158267\\
25	0.0130687404503504\\
26	0.0122696055557096\\
27	0.0115744537211185\\
28	0.0109604476449749\\
29	0.0104123030577904\\
30	0.00991895668099479\\
31	0.00947199739292591\\
32	0.00906481624583473\\
33	0.00869209676898747\\
34	0.00834948580065952\\
35	0.00803336891070327\\
36	0.00774071070979986\\
37	0.00746893762488986\\
38	0.00721584966375964\\
39	0.00697955264514291\\
40	0.00675840527482791\\
};
\addlegendentry{data1}

\addplot [color=mycolor2]
  table[row sep=crcr]{%
1	0.074091593672756\\
2	0.0952635510038824\\
3	0.133637529023797\\
4	0.225188323338569\\
5	0.750227702137727\\
6	0.490503376862065\\
7	0.203677311630902\\
8	0.20852833736749\\
9	0.107194436088232\\
10	0.079410101894779\\
11	0.0637463441010242\\
12	0.0534041275625816\\
13	0.046003395684963\\
14	0.0404266976938363\\
15	0\\
16	0\\
17	0\\
18	0\\
19	0\\
20	0\\
21	0\\
22	0\\
23	0\\
24	0\\
25	0\\
26	0\\
27	0\\
28	0\\
29	0\\
30	0\\
31	0\\
32	0\\
33	0\\
34	0\\
35	0\\
36	0\\
37	0\\
38	0\\
39	0\\
40	0\\
};
\addlegendentry{data2}

\end{axis}

\begin{axis}[%
width=1.682in,
height=2.162in,
at={(11.361in,4.106in)},
scale only axis,
xmin=0,
xmax=40,
xlabel style={font=\color{white!15!black}, align=center},
xlabel={Sample Index\\[1ex]11},
ymin=0,
ymax=0.8,
ylabel style={font=\color{white!15!black}},
ylabel={Magnitude},
axis background/.style={fill=white},
legend style={legend cell align=left, align=left, draw=white!15!black}
]
\addplot [color=mycolor1]
  table[row sep=crcr]{%
1	0.0730675369516874\\
2	0.127231024069279\\
3	0.459637152657351\\
4	0.106413165888807\\
5	0.139192616080807\\
6	0.612841342028764\\
7	0.424679369928927\\
8	0.336444938410117\\
9	0.151488877193041\\
10	0.178225322521972\\
11	0.0560288427252178\\
12	0.0263403696987249\\
13	0.0299966236076935\\
14	0.0395953363673711\\
15	0.0275247109712914\\
16	0.0229293506247946\\
17	0.0337211042740851\\
18	0.0246761077341221\\
19	0.0215915473919888\\
20	0.020775695829356\\
21	0.0112805826090667\\
22	0.0152053674770977\\
23	0.0147464025962398\\
24	0.014083587721859\\
25	0.0134239929312694\\
26	0.0128043928104436\\
27	0.0122311766546453\\
28	0.0117029666295573\\
29	0.0112162481889259\\
30	0.0107670900604986\\
31	0.0103517149420631\\
32	0.00996668024267202\\
33	0.00960891581872379\\
34	0.0092757084585022\\
35	0.00896466811790718\\
36	0.00867369002617267\\
37	0.00840091829204561\\
38	0.00814471305256542\\
39	0.0079036216696867\\
40	0.00767635383719339\\
};
\addlegendentry{data1}

\addplot [color=mycolor2]
  table[row sep=crcr]{%
1	0.0812719638547705\\
2	0.103855094495482\\
3	0.144300018372441\\
4	0.239047064569923\\
5	0.765980741930276\\
6	0.41524686219975\\
7	0.19587003803056\\
8	0.259400842870021\\
9	0.128955035477213\\
10	0.0938058693441382\\
11	0.0745321012011476\\
12	0.0620328131531135\\
13	0.053195412778996\\
14	0.0465926168610752\\
15	0\\
16	0\\
17	0\\
18	0\\
19	0\\
20	0\\
21	0\\
22	0\\
23	0\\
24	0\\
25	0\\
26	0\\
27	0\\
28	0\\
29	0\\
30	0\\
31	0\\
32	0\\
33	0\\
34	0\\
35	0\\
36	0\\
37	0\\
38	0\\
39	0\\
40	0\\
};
\addlegendentry{data2}

\end{axis}

\begin{axis}[%
width=1.682in,
height=2.162in,
at={(13.574in,4.106in)},
scale only axis,
xmin=0,
xmax=40,
xlabel style={font=\color{white!15!black}, align=center},
xlabel={Sample Index\\[1ex]12},
ymin=0,
ymax=0.8,
ylabel style={font=\color{white!15!black}},
ylabel={Magnitude},
axis background/.style={fill=white},
legend style={legend cell align=left, align=left, draw=white!15!black}
]
\addplot [color=mycolor1]
  table[row sep=crcr]{%
1	0.122810375122608\\
2	0.435021089265413\\
3	0.43918197376899\\
4	0.308787354175998\\
5	0.226872133968233\\
6	0.420545555314624\\
7	0.0804168871209577\\
8	0.172524148293666\\
9	0.0981929292136101\\
10	0.444886645627905\\
11	0.130794869404807\\
12	0.0633703382883217\\
13	0.056939521421945\\
14	0.0924646610544124\\
15	0.0258543134669442\\
16	0.0215906787888548\\
17	0.0245258270739179\\
18	0.00901496445921871\\
19	0.00963719267592737\\
20	0.0105859978287841\\
21	0.00708884148325293\\
22	0.00546309081802551\\
23	0.00558952326595719\\
24	0.00541090177576236\\
25	0.00516992065148193\\
26	0.00492306337784048\\
27	0.00468722342244383\\
28	0.00446744421880251\\
29	0.00426458900487599\\
30	0.00407795858465677\\
31	0.00390630069623642\\
32	0.00374822510935044\\
33	0.00360237670322736\\
34	0.00346750373195719\\
35	0.00334247923972804\\
36	0.00322630154039309\\
37	0.00311808578006567\\
38	0.00301705225501034\\
39	0.002922514148082\\
40	0.00283386588538986\\
};
\addlegendentry{data1}

\addplot [color=mycolor2]
  table[row sep=crcr]{%
1	0.0671406970561168\\
2	0.0870334601939511\\
3	0.123509676398453\\
4	0.211783132188139\\
5	0.725888261034119\\
6	0.493327238070089\\
7	0.351609390269101\\
8	0.132210257945813\\
9	0.0761401372979858\\
10	0.0607358693844691\\
11	0.0504627379491259\\
12	0.0431096999022423\\
13	0.0376038421336757\\
14	0.033334246259201\\
15	0\\
16	0\\
17	0\\
18	0\\
19	0\\
20	0\\
21	0\\
22	0\\
23	0\\
24	0\\
25	0\\
26	0\\
27	0\\
28	0\\
29	0\\
30	0\\
31	0\\
32	0\\
33	0\\
34	0\\
35	0\\
36	0\\
37	0\\
38	0\\
39	0\\
40	0\\
};
\addlegendentry{data2}

\end{axis}

\begin{axis}[%
width=1.682in,
height=2.162in,
at={(15.787in,4.106in)},
scale only axis,
xmin=0,
xmax=40,
xlabel style={font=\color{white!15!black}, align=center},
xlabel={Sample Index\\[1ex]13},
ymin=0,
ymax=1,
ylabel style={font=\color{white!15!black}},
ylabel={Magnitude},
axis background/.style={fill=white},
legend style={legend cell align=left, align=left, draw=white!15!black}
]
\addplot [color=mycolor1]
  table[row sep=crcr]{%
1	0.0681230708295432\\
2	0.177020837819997\\
3	0.890908566330016\\
4	0.0443096999301586\\
5	0.0898541450673492\\
6	0.201541822936105\\
7	0.186072953195308\\
8	0.0606976146873826\\
9	0.0812222527999391\\
10	0.249755775596339\\
11	0.0937665194926294\\
12	0.0301529565657013\\
13	0.0261274063795452\\
14	0.0166572223711606\\
15	0.0121679971386182\\
16	0.0110155539751207\\
17	0.0203491278164466\\
18	0.0124357319524048\\
19	0.0109819463445156\\
20	0.0108934723075302\\
21	0.00378244842892804\\
22	0.00742597101112777\\
23	0.00737127281412554\\
24	0.00711838667046424\\
25	0.00683617645203615\\
26	0.00655886328085371\\
27	0.00629573581624193\\
28	0.00604910798759783\\
29	0.00581894696804947\\
30	0.00560438247517948\\
31	0.00540427123541634\\
32	0.00521742439172624\\
33	0.00504270082094989\\
34	0.00487904314517938\\
35	0.00472548823672242\\
36	0.00458116627941056\\
37	0.00444529489395134\\
38	0.00431717141949756\\
39	0.00419616482830236\\
40	0.00408170796141706\\
};
\addlegendentry{data1}

\addplot [color=mycolor2]
  table[row sep=crcr]{%
1	0.0779708887500007\\
2	0.100192745445952\\
3	0.14036392479061\\
4	0.235700386784584\\
5	0.775903116759866\\
6	0.456944394459908\\
7	0.213465233219196\\
8	0.150647633403415\\
9	0.106661171349587\\
10	0.0814309362087503\\
11	0.0660157639438622\\
12	0.0555609365508192\\
13	0.047985527910213\\
14	0.0422373838123578\\
15	0\\
16	0\\
17	0\\
18	0\\
19	0\\
20	0\\
21	0\\
22	0\\
23	0\\
24	0\\
25	0\\
26	0\\
27	0\\
28	0\\
29	0\\
30	0\\
31	0\\
32	0\\
33	0\\
34	0\\
35	0\\
36	0\\
37	0\\
38	0\\
39	0\\
40	0\\
};
\addlegendentry{data2}

\end{axis}

\begin{axis}[%
width=1.682in,
height=2.162in,
at={(2.509in,1.103in)},
scale only axis,
xmin=0,
xmax=40,
xlabel style={font=\color{white!15!black}, align=center},
xlabel={Sample Index\\[1ex]14},
ymin=0,
ymax=0.8,
ylabel style={font=\color{white!15!black}},
ylabel={Magnitude},
axis background/.style={fill=white},
legend style={legend cell align=left, align=left, draw=white!15!black}
]
\addplot [color=mycolor1]
  table[row sep=crcr]{%
1	0.0727112237730476\\
2	0.188395181028991\\
3	0.067179504601043\\
4	0.182787677706586\\
5	0.384456110032008\\
6	0.473259465040918\\
7	0.319941450362918\\
8	0.257347455589656\\
9	0.0887048375897572\\
10	0.550076678429319\\
11	0.203608634351603\\
12	0.0995042133186224\\
13	0.0518413565326451\\
14	0.0754390959084187\\
15	0.0457672053218698\\
16	0.0359527139647402\\
17	0.047098448798136\\
18	0.0287205073597549\\
19	0.0251239449136842\\
20	0.0228164775525782\\
21	0.0210092163507245\\
22	0.01841841488692\\
23	0.0170618151079279\\
24	0.0158838798021118\\
25	0.0148577029389236\\
26	0.013957371035117\\
27	0.0131614333905389\\
28	0.0124527472248256\\
29	0.0118176398920498\\
30	0.011245130585413\\
31	0.0107263178310411\\
32	0.0102539158392693\\
33	0.00982190570642103\\
34	0.00942527179367625\\
35	0.00905980077644705\\
36	0.00872192696079921\\
37	0.00840861202382474\\
38	0.00811725060896368\\
39	0.0078455955329144\\
40	0.00759169801436389\\
};
\addlegendentry{data1}

\addplot [color=mycolor2]
  table[row sep=crcr]{%
1	0.0688900661585226\\
2	0.089131383894827\\
3	0.126101958138046\\
4	0.214985460114805\\
5	0.725587318139872\\
6	0.429213493077432\\
7	0.409461304928649\\
8	0.168198403861275\\
9	0.0824781108311271\\
10	0.0643030570493905\\
11	0.0530280464734214\\
12	0.0451345533401321\\
13	0.0392832787099628\\
14	0.034771562889423\\
15	0\\
16	0\\
17	0\\
18	0\\
19	0\\
20	0\\
21	0\\
22	0\\
23	0\\
24	0\\
25	0\\
26	0\\
27	0\\
28	0\\
29	0\\
30	0\\
31	0\\
32	0\\
33	0\\
34	0\\
35	0\\
36	0\\
37	0\\
38	0\\
39	0\\
40	0\\
};
\addlegendentry{data2}

\end{axis}

\begin{axis}[%
width=1.682in,
height=2.162in,
at={(4.722in,1.103in)},
scale only axis,
xmin=0,
xmax=40,
xlabel style={font=\color{white!15!black}, align=center},
xlabel={Sample Index\\[1ex]15},
ymin=0,
ymax=1,
ylabel style={font=\color{white!15!black}},
ylabel={Magnitude},
axis background/.style={fill=white},
legend style={legend cell align=left, align=left, draw=white!15!black}
]
\addplot [color=mycolor1]
  table[row sep=crcr]{%
1	0.0946968700299752\\
2	0.192076830411605\\
3	0.836040085511104\\
4	0.0882052698027218\\
5	0.256946671310426\\
6	0.271889327495986\\
7	0.247495509851464\\
8	0.0401296312140071\\
9	0.102347097889692\\
10	0.164318741416917\\
11	0.0503398792974033\\
12	0.0283746589197755\\
13	0.0317871263552439\\
14	0.0045649768408494\\
15	0.0151286616016357\\
16	0.0156133308135196\\
17	0.0156295418696078\\
18	0.014843408017817\\
19	0.0141491997729982\\
20	0.0141177219038008\\
21	0.00909654097961802\\
22	0.0109606176847336\\
23	0.0107330190473822\\
24	0.0103535069083511\\
25	0.00995616296165694\\
26	0.00957015042130377\\
27	0.00920378075834617\\
28	0.00885913283631604\\
29	0.00853603783059661\\
30	0.00823346025329491\\
31	0.00795005008915288\\
32	0.00768438249949955\\
33	0.00743506544666422\\
34	0.00720078695493894\\
35	0.00698033338198634\\
36	0.00677259343133581\\
37	0.00657655518719309\\
38	0.00639129989916394\\
39	0.00621599446315157\\
40	0.00604988361737573\\
};
\addlegendentry{data1}

\addplot [color=mycolor2]
  table[row sep=crcr]{%
1	0.0822885912234207\\
2	0.104837988346634\\
3	0.1450257824591\\
4	0.238551431783863\\
5	0.753937918219263\\
6	0.383957177005499\\
7	0.215274524308334\\
8	0.309766695919797\\
9	0.141668877108103\\
10	0.100505017415974\\
11	0.0789621216254544\\
12	0.0653037704467764\\
13	0.0557724882287625\\
14	0.0487113637006182\\
15	0\\
16	0\\
17	0\\
18	0\\
19	0\\
20	0\\
21	0\\
22	0\\
23	0\\
24	0\\
25	0\\
26	0\\
27	0\\
28	0\\
29	0\\
30	0\\
31	0\\
32	0\\
33	0\\
34	0\\
35	0\\
36	0\\
37	0\\
38	0\\
39	0\\
40	0\\
};
\addlegendentry{data2}

\end{axis}

\begin{axis}[%
width=1.682in,
height=2.162in,
at={(6.935in,1.103in)},
scale only axis,
xmin=0,
xmax=40,
xlabel style={font=\color{white!15!black}, align=center},
xlabel={Sample Index\\[1ex]16},
ymin=0,
ymax=0.8,
ylabel style={font=\color{white!15!black}},
ylabel={Magnitude},
axis background/.style={fill=white},
legend style={legend cell align=left, align=left, draw=white!15!black}
]
\addplot [color=mycolor1]
  table[row sep=crcr]{%
1	0.0665178056218435\\
2	0.119928532127978\\
3	0.70802198224321\\
4	0.0856056919138664\\
5	0.24879513928199\\
6	0.501413561364278\\
7	0.266873235767481\\
8	0.218470186818588\\
9	0.0167585179292603\\
10	0.113905061675358\\
11	0.10047343822652\\
12	0.0540830237157948\\
13	0.0446536594786832\\
14	0.0622047130511836\\
15	0.0350774363400423\\
16	0.0295242253920089\\
17	0.024019994411782\\
18	0.0266487199138953\\
19	0.023032754142146\\
20	0.0199928941418305\\
21	0.0263336526519428\\
22	0.0196768735488486\\
23	0.0179873235095368\\
24	0.016759961761971\\
25	0.0157443063887415\\
26	0.0148673470587037\\
27	0.0140943103363714\\
28	0.0134041668849506\\
29	0.0127824643894731\\
30	0.0122185126560833\\
31	0.0117040358570942\\
32	0.0112324300726093\\
33	0.0107983108202336\\
34	0.010397216309084\\
35	0.0100254020220096\\
36	0.00967969264876186\\
37	0.00935737200421175\\
38	0.0090560991799562\\
39	0.00877384342529743\\
40	0.00850883276245494\\
};
\addlegendentry{data1}

\addplot [color=mycolor2]
  table[row sep=crcr]{%
1	0.078154875215054\\
2	0.100024873179494\\
3	0.139368063984447\\
4	0.232307048583686\\
5	0.758880273127531\\
6	0.482120868796421\\
7	0.136417629971709\\
8	0.216578163216285\\
9	0.123796705669767\\
10	0.0899949316735864\\
11	0.0714289753080131\\
12	0.0594159230916774\\
13	0.0509355299531487\\
14	0.0446055581864202\\
15	0\\
16	0\\
17	0\\
18	0\\
19	0\\
20	0\\
21	0\\
22	0\\
23	0\\
24	0\\
25	0\\
26	0\\
27	0\\
28	0\\
29	0\\
30	0\\
31	0\\
32	0\\
33	0\\
34	0\\
35	0\\
36	0\\
37	0\\
38	0\\
39	0\\
40	0\\
};
\addlegendentry{data2}

\end{axis}

\begin{axis}[%
width=1.682in,
height=2.162in,
at={(9.148in,1.103in)},
scale only axis,
xmin=0,
xmax=40,
xlabel style={font=\color{white!15!black}, align=center},
xlabel={Sample Index\\[1ex]17},
ymin=0,
ymax=0.8,
ylabel style={font=\color{white!15!black}},
ylabel={Magnitude},
axis background/.style={fill=white},
legend style={legend cell align=left, align=left, draw=white!15!black}
]
\addplot [color=mycolor1]
  table[row sep=crcr]{%
1	0.077256109504698\\
2	0.223287767296582\\
3	0.654594568376021\\
4	0.313473244130437\\
5	0.21623714008\\
6	0.547858569609704\\
7	0.192948246595663\\
8	0.0649610938634613\\
9	0.0409798290089695\\
10	0.146662977091429\\
11	0.0618384958438806\\
12	0.0219461906437103\\
13	0.0151892325155156\\
14	0.0258133795401531\\
15	0.0126856478051168\\
16	0.0109941813618084\\
17	0.0144468359689499\\
18	0.00477408556827654\\
19	0.00534803394562678\\
20	0.00589883558084781\\
21	0.00219677389275927\\
22	0.00273790115686456\\
23	0.00288461734125634\\
24	0.0027992489521819\\
25	0.00266761440264947\\
26	0.00252982076700786\\
27	0.00239768932461991\\
28	0.00227481358963152\\
29	0.00216191288619835\\
30	0.00205863066013981\\
31	0.00196422327413423\\
32	0.00187784307309163\\
33	0.00179865698223083\\
34	0.00172589393239528\\
35	0.00165886039275677\\
36	0.00159694156433683\\
37	0.00153959639034769\\
38	0.00148635024828889\\
39	0.00143678715092359\\
40	0.00139054229018179\\
};
\addlegendentry{data1}

\addplot [color=mycolor2]
  table[row sep=crcr]{%
1	0.0676995434255712\\
2	0.0874907608818513\\
3	0.123651777933228\\
4	0.210816979334371\\
5	0.716496309345349\\
6	0.475368920794142\\
7	0.352000298323024\\
8	0.209727103310992\\
9	0.0909205032810179\\
10	0.067629947555151\\
11	0.0547308262596881\\
12	0.0461328320055001\\
13	0.0399181202257153\\
14	0.0351970452722952\\
15	0\\
16	0\\
17	0\\
18	0\\
19	0\\
20	0\\
21	0\\
22	0\\
23	0\\
24	0\\
25	0\\
26	0\\
27	0\\
28	0\\
29	0\\
30	0\\
31	0\\
32	0\\
33	0\\
34	0\\
35	0\\
36	0\\
37	0\\
38	0\\
39	0\\
40	0\\
};
\addlegendentry{data2}

\end{axis}

\begin{axis}[%
width=1.682in,
height=2.162in,
at={(11.361in,1.103in)},
scale only axis,
xmin=0,
xmax=40,
xlabel style={font=\color{white!15!black}, align=center},
xlabel={Sample Index\\[1ex]18},
ymin=0,
ymax=0.8,
ylabel style={font=\color{white!15!black}},
ylabel={Magnitude},
axis background/.style={fill=white},
legend style={legend cell align=left, align=left, draw=white!15!black}
]
\addplot [color=mycolor1]
  table[row sep=crcr]{%
1	0.119260670125698\\
2	0.243320028892641\\
3	0.669225926426194\\
4	0.222926691195567\\
5	0.17132909583469\\
6	0.303367034183304\\
7	0.177501898283538\\
8	0.0794778911580866\\
9	0.0422673788272717\\
10	0.467485534182635\\
11	0.159179857685588\\
12	0.0848282121524543\\
13	0.0617302528998397\\
14	0.0518653130520128\\
15	0.0366841640707628\\
16	0.030904294940411\\
17	0.0340332250148119\\
18	0.0301518555395978\\
19	0.025847265235809\\
20	0.0223737193979943\\
21	0.0294880580449734\\
22	0.0220874853573267\\
23	0.0202127526739874\\
24	0.0188577003695807\\
25	0.0177389918976328\\
26	0.0167738863777431\\
27	0.015923167683649\\
28	0.015163300564372\\
29	0.0144782349243674\\
30	0.0138561775775946\\
31	0.013288047589685\\
32	0.0127666285022608\\
33	0.0122860546343148\\
34	0.0118414764303009\\
35	0.0114288303880493\\
36	0.0110446743011354\\
37	0.0106860654934885\\
38	0.01035046855613\\
39	0.0100356840161581\\
40	0.00973979226594797\\
};
\addlegendentry{data1}

\addplot [color=mycolor2]
  table[row sep=crcr]{%
1	0.0627861430099597\\
2	0.081753311983816\\
3	0.116878209868619\\
4	0.203310609245458\\
5	0.723519515631104\\
6	0.609860333955662\\
7	0.138419354348145\\
8	0.0815169779603941\\
9	0.0670970957513058\\
10	0.0545392152944516\\
11	0.0455767293517499\\
12	0.0390577141228994\\
13	0.0341402287356367\\
14	0.0303097326613428\\
15	0\\
16	0\\
17	0\\
18	0\\
19	0\\
20	0\\
21	0\\
22	0\\
23	0\\
24	0\\
25	0\\
26	0\\
27	0\\
28	0\\
29	0\\
30	0\\
31	0\\
32	0\\
33	0\\
34	0\\
35	0\\
36	0\\
37	0\\
38	0\\
39	0\\
40	0\\
};
\addlegendentry{data2}

\end{axis}

\begin{axis}[%
width=1.682in,
height=2.162in,
at={(13.574in,1.103in)},
scale only axis,
xmin=0,
xmax=40,
xlabel style={font=\color{white!15!black}, align=center},
xlabel={Sample Index\\[1ex]19},
ymin=0,
ymax=0.8,
ylabel style={font=\color{white!15!black}},
ylabel={Magnitude},
axis background/.style={fill=white},
legend style={legend cell align=left, align=left, draw=white!15!black}
]
\addplot [color=mycolor1]
  table[row sep=crcr]{%
1	0.0959174067637253\\
2	0.298843945318925\\
3	0.492764291318301\\
4	0.218542257187926\\
5	0.077153184676211\\
6	0.497854638191863\\
7	0.353104683968662\\
8	0.241766370916873\\
9	0.153822655066802\\
10	0.360313206967166\\
11	0.110573511415522\\
12	0.0504027563722706\\
13	0.0278462111053694\\
14	0.0307944708676377\\
15	0.0249452820907797\\
16	0.0220702219953181\\
17	0.0119521981345048\\
18	0.0163230335379649\\
19	0.0145433756277005\\
20	0.01216276893646\\
21	0.0222420971677521\\
22	0.0141987904790703\\
23	0.0127873279457432\\
24	0.0118832323328555\\
25	0.0111694623631843\\
26	0.0105650935248457\\
27	0.0100366953997846\\
28	0.00956632903333887\\
29	0.0091427100565444\\
30	0.00875799006626756\\
31	0.00840634113550263\\
32	0.00808324022732692\\
33	0.0077850665909892\\
34	0.00750885554547033\\
35	0.00725213772553961\\
36	0.0070128285820825\\
37	0.00678914927055218\\
38	0.00657956814420821\\
39	0.00638275634110147\\
40	0.00619755334516419\\
};
\addlegendentry{data1}

\addplot [color=mycolor2]
  table[row sep=crcr]{%
1	0.0644089050510483\\
2	0.0836685951620636\\
3	0.119196572180168\\
4	0.20614554178961\\
5	0.72536991097165\\
6	0.595548212383388\\
7	0.177659948908519\\
8	0.0695259029364646\\
9	0.0722671748724371\\
10	0.0580575193185089\\
11	0.048212181058854\\
12	0.0411599588741693\\
13	0.035887356391022\\
14	0.0318038235743496\\
15	0\\
16	0\\
17	0\\
18	0\\
19	0\\
20	0\\
21	0\\
22	0\\
23	0\\
24	0\\
25	0\\
26	0\\
27	0\\
28	0\\
29	0\\
30	0\\
31	0\\
32	0\\
33	0\\
34	0\\
35	0\\
36	0\\
37	0\\
38	0\\
39	0\\
40	0\\
};
\addlegendentry{data2}

\end{axis}

\begin{axis}[%
width=1.682in,
height=2.162in,
at={(15.787in,1.103in)},
scale only axis,
xmin=0,
xmax=40,
xlabel style={font=\color{white!15!black}, align=center},
xlabel={Sample Index\\[1ex]20},
ymin=0,
ymax=0.8,
ylabel style={font=\color{white!15!black}},
ylabel={Magnitude},
axis background/.style={fill=white},
legend style={legend cell align=left, align=left, draw=white!15!black}
]
\addplot [color=mycolor1]
  table[row sep=crcr]{%
1	0.152075309499804\\
2	0.330454259679033\\
3	0.678402756212873\\
4	0.43229555234506\\
5	0.287926878100921\\
6	0.267309346391492\\
7	0.0404463969506076\\
8	0.158041898108382\\
9	0.0968947820478822\\
10	0.0827109206015788\\
11	0.0908859930392274\\
12	0.0464509884690865\\
13	0.0430240005618896\\
14	0.0334823924231801\\
15	0.0311011133059797\\
16	0.026540840397328\\
17	0.0487477176926125\\
18	0.0296638208451425\\
19	0.0261770630577656\\
20	0.0252059866504442\\
21	0.0133965873254357\\
22	0.0186445231027924\\
23	0.0181039234341801\\
24	0.0173152987212368\\
25	0.0165288848610412\\
26	0.0157889882308522\\
27	0.0151034315626549\\
28	0.0144707261312394\\
29	0.0138868140887496\\
30	0.0133471247523178\\
31	0.0128472566417442\\
32	0.0123831940422388\\
33	0.011951353126275\\
34	0.0115485646764706\\
35	0.0111720350733985\\
36	0.0108193023173973\\
37	0.0104881937557508\\
38	0.0101767879286149\\
39	0.00988338112896574\\
40	0.0096064585144108\\
};
\addlegendentry{data1}

\addplot [color=mycolor2]
  table[row sep=crcr]{%
1	0.0642204935557786\\
2	0.083391424868803\\
3	0.118746924125437\\
4	0.205262804487009\\
5	0.72194640221168\\
6	0.590750628815149\\
7	0.169049200051683\\
8	0.134841148805713\\
9	0.075972579314737\\
10	0.0593208255569479\\
11	0.0488555327527365\\
12	0.0415530403037844\\
13	0.0361540355230128\\
14	0.031997520736852\\
15	0\\
16	0\\
17	0\\
18	0\\
19	0\\
20	0\\
21	0\\
22	0\\
23	0\\
24	0\\
25	0\\
26	0\\
27	0\\
28	0\\
29	0\\
30	0\\
31	0\\
32	0\\
33	0\\
34	0\\
35	0\\
36	0\\
37	0\\
38	0\\
39	0\\
40	0\\
};
\addlegendentry{data2}

\end{axis}

\end{tikzpicture}%