#FIG 3.2  Produced by xfig version 3.2.6a
Landscape
Center
Metric
A4
100.00
Single
-2
1200 2
2 1 0 1 1 1 50 -1 -1 0.000 0 0 -1 1 0 2
	1 1 1.00 30.00 60.00
	 2160 2250 2160 2025
2 1 0 1 1 1 50 -1 -1 0.000 0 0 -1 1 0 2
	1 1 1.00 30.00 60.00
	 2520 2250 2520 2025
2 1 0 1 1 1 50 -1 -1 0.000 0 0 -1 1 0 2
	1 1 1.00 30.00 60.00
	 1935 2250 1935 2025
2 1 0 1 1 1 50 -1 -1 0.000 0 0 -1 1 0 2
	1 1 1.00 30.00 60.00
	 1845 2250 1845 2025
2 1 0 1 0 7 50 -1 -1 0.000 0 0 -1 1 1 2
	0 0 1.00 30.00 60.00
	0 0 1.00 30.00 60.00
	 1260 2250 3060 2250
4 0 0 50 -1 0 8 0.0000 2 105 165 2070 2385 $t$\001
