%!PS-Adobe-3.0 EPSF-3.0
%%Title: sample.pstex
%%Creator: fig2dev Version 3.2.6a
%%CreationDate: 2020-03-20 10:46:35
%%BoundingBox: 0 0 115 58
%Magnification: 1.0000
%%EndComments
%%BeginProlog
/$F2psDict 200 dict def
$F2psDict begin
$F2psDict /mtrx matrix put
/col-1 {0 setgray} bind def
/col0 {0.000 0.000 0.000 srgb} bind def
/col1 {0.000 0.000 1.000 srgb} bind def
/col7 {1.000 1.000 1.000 srgb} bind def

end

/cp {closepath} bind def
/ef {eofill} bind def
/gr {grestore} bind def
/gs {gsave} bind def
/sa {save} bind def
/rs {restore} bind def
/l {lineto} bind def
/m {moveto} bind def
/rm {rmoveto} bind def
/n {newpath} bind def
/s {stroke} bind def
/sh {show} bind def
/slc {setlinecap} bind def
/slj {setlinejoin} bind def
/slw {setlinewidth} bind def
/srgb {setrgbcolor} bind def
/rot {rotate} bind def
/sc {scale} bind def
/sd {setdash} bind def
/ff {findfont} bind def
/sf {setfont} bind def
/scf {scalefont} bind def
/sw {stringwidth} bind def
/tr {translate} bind def
/tnt {dup dup currentrgbcolor
  4 -2 roll dup 1 exch sub 3 -1 roll mul add
  4 -2 roll dup 1 exch sub 3 -1 roll mul add
  4 -2 roll dup 1 exch sub 3 -1 roll mul add srgb}
  bind def
/shd {dup dup currentrgbcolor 4 -2 roll mul 4 -2 roll mul
  4 -2 roll mul srgb} bind def
/$F2psBegin {$F2psDict begin /$F2psEnteredState save def} def
/$F2psEnd {$F2psEnteredState restore end} def

/pageheader {
save
newpath 0 58 moveto 0 0 lineto 115 0 lineto 115 58 lineto closepath clip newpath
-78.6 156.0 translate
1 -1 scale
$F2psBegin
10 setmiterlimit
0 slj 0 slc
 0.06299 0.06299 sc
} bind def
/pagefooter {
$F2psEnd
restore
} bind def
%%EndProlog
pageheader
%
% Fig objects follow
%
% 
% here starts figure with depth 50
% Polyline
0 slj
0 slc
7.500 slw
n 1350 2250 m
 1350 2070 l gs col1 s gr 
% Polyline
gs  clippath
3067 2243 m 3067 2257 l 2983 2265 l 3043 2250 l 2983 2235 l cp
1253 2257 m 1253 2243 l 1337 2235 l 1277 2250 l 1337 2265 l cp
eoclip
n 1260 2250 m
 3060 2250 l gs col0 s gr gr

% arrowhead
n 1337 2265 m 1277 2250 l 1337 2235 l  col0 s
% arrowhead
n 2983 2235 m 3043 2250 l 2983 2265 l  col0 s
% Polyline
n 1436 2250 m 1444 2250 l gs col1 s gr
% Polyline
n 1440 2295 m
 1440 2250 l gs col1 s gr 
% Polyline
n 1530 2250 m
 1530 2025 l gs col1 s gr 
% Polyline
n 1620 2250 m
 1620 1710 l gs col1 s gr 
% Polyline
n 1710 2250 m
 1710 1575 l gs col1 s gr 
% Polyline
n 1800 2250 m
 1800 1755 l gs col1 s gr 
% Polyline
n 1890 2250 m
 1890 1980 l gs col1 s gr 
% Polyline
n 1980 2250 m
 1980 2160 l gs col1 s gr 
% Polyline
n 2070 2250 m
 2070 1800 l gs col1 s gr 
% Polyline
n 2160 2250 m
 2160 1665 l gs col1 s gr 
% Polyline
n 2250 2250 m
 2250 1800 l gs col1 s gr 
% Polyline
n 2340 2250 m
 2340 2115 l gs col1 s gr 
% Polyline
n 2430 2250 m
 2430 2205 l gs col1 s gr 
% Polyline
n 2520 2250 m
 2520 2115 l gs col1 s gr 
% Polyline
n 2610 2250 m
 2610 1980 l gs col1 s gr 
% Polyline
n 2700 2250 m
 2700 2340 l gs col1 s gr 
% Polyline
n 2790 2250 m
 2790 2340 l gs col1 s gr 
% Polyline
n 2880 2250 m
 2880 1890 l gs col1 s gr 
% Polyline
n 2970 2250 m
 2970 1710 l gs col1 s gr 
% here ends figure;
pagefooter
showpage
%%Trailer
%EOF
