#FIG 3.2  Produced by xfig version 3.2.6a
Landscape
Center
Metric
A4
100.00
Single
-2
1200 2
6 1305 1800 3015 2340
3 0 0 1 1 1 50 -1 -1 0.000 0 0 0 10
	 2160 1800 1980 1890 1980 2340 1800 2340 1800 2070 1620 2070
	 1620 2340 1440 2295 1440 2160 1305 2160
	 0.000 1.000 1.000 1.000 1.000 1.000 1.000 1.000
	 1.000 0.000
3 0 0 1 1 1 50 -1 -1 0.000 0 0 0 10
	 2160 1800 2340 1890 2340 2340 2520 2340 2520 2070 2700 2070
	 2700 2340 2880 2295 2880 2160 3015 2160
	 0.000 1.000 1.000 1.000 1.000 1.000 1.000 1.000
	 1.000 0.000
-6
6 1305 1800 3060 2340
3 0 0 1 1 1 50 -1 -1 0.000 0 0 0 5
	 1665 1800 1485 1890 1485 2340 1305 2340 1305 2070
	 0.000 1.000 1.000 1.000 0.000
3 0 0 1 1 1 50 -1 -1 0.000 0 0 0 15
	 1665 1800 1845 1890 1845 2340 2025 2340 2025 2070 2205 2070
	 2205 2340 2385 2295 2385 2160 2520 2160 2565 2295 2655 2205
	 2700 2295 2745 2250 3060 2250
	 0.000 1.000 1.000 1.000 1.000 1.000 1.000 1.000
	 1.000 1.000 1.000 1.000 1.000 1.000 0.000
-6
6 1395 1845 3015 2385
3 0 0 1 1 1 50 -1 -1 0.000 0 0 0 15
	 3015 1845 2835 1935 2835 2385 2655 2385 2655 2115 2475 2115
	 2475 2385 2295 2340 2295 2205 2160 2205 2115 2295 1980 2205
	 1890 2295 1845 2250 1395 2250
	 0.000 1.000 1.000 1.000 1.000 1.000 1.000 1.000
	 1.000 1.000 1.000 1.000 1.000 1.000 0.000
-6
6 1260 1800 3060 2340
3 0 0 1 1 1 50 -1 -1 0.000 0 0 0 7
	 1800 1800 1620 1890 1620 2340 1440 2340 1440 2070 1260 2070
	 1260 2340
	 0.000 1.000 1.000 1.000 1.000 1.000 0.000
3 0 0 1 1 1 50 -1 -1 0.000 0 0 0 13
	 1800 1800 1980 1890 1980 2340 2160 2340 2160 2070 2340 2070
	 2340 2340 2520 2295 2520 2160 2655 2160 2700 2295 2790 2250
	 3060 2250
	 0.000 1.000 1.000 1.000 1.000 1.000 1.000 1.000
	 1.000 1.000 1.000 1.000 0.000
-6
2 1 0 1 0 7 50 -1 -1 0.000 0 0 -1 1 1 2
	0 0 1.00 30.00 60.00
	0 0 1.00 30.00 60.00
	 1260 2250 3060 2250
4 0 0 50 -1 0 8 0.0000 2 105 255 2070 2430 $t$
\001
