% This file was created by matlab2tikz.
%
%The latest updates can be retrieved from
%  http://www.mathworks.com/matlabcentral/fileexchange/22022-matlab2tikz-matlab2tikz
%where you can also make suggestions and rate matlab2tikz.
%
\definecolor{mycolor1}{rgb}{0.00000,0.44700,0.74100}%
\definecolor{mycolor2}{rgb}{0.85000,0.32500,0.09800}%
%
\begin{tikzpicture}

\begin{axis}[%
width=1.935in,
height=3.2in,
at={(0.758in,0.512in)},
scale only axis,
xmin=0,
xmax=100,
xlabel style={font=\color{white!15!black}, align=center},
xlabel={Sample Index\\[1ex](a) Actual},
ymin=0,
ymax=1,
axis background/.style={fill=white},
legend style={legend cell align=left, align=left, draw=white!15!black}
]
\addplot [color=mycolor1]
  table[row sep=crcr]{%
1	0.0216926152020066\\
2	0.0241183965289278\\
3	0.0267807478156139\\
4	0.0354280601095614\\
5	0.221828667704926\\
6	0.648965745595675\\
7	0.241270440438586\\
8	0.0776642628644082\\
9	0.0581044824071981\\
10	0.0611489366831747\\
11	0.0798140419847986\\
12	0.062735544320507\\
13	0.113011040425493\\
14	0.377485382687519\\
15	0.331649248845691\\
16	0.18615433793772\\
17	0.146493252817741\\
18	0.0847190801249442\\
19	0.0628278567269286\\
20	0.0148364296169451\\
21	0.0250471739922352\\
22	0.0344835915107885\\
23	0.116323790948646\\
24	0.279210940275387\\
25	0.101045410677318\\
26	0.0464379665429307\\
27	0.041398863205924\\
28	0.0263226969199998\\
29	0.0221848789960478\\
30	0.0197642774213948\\
31	0.0186496517239344\\
32	0.0219339353832985\\
33	0.018414044189717\\
34	0.00937919788338426\\
35	0.0100670783096178\\
36	0.0098135024549665\\
37	0.00937197330245933\\
38	0.00884810306396591\\
39	0.00821513429074651\\
40	0.00732026654240377\\
41	0.00945021173361951\\
42	0.0127255218727005\\
43	0.00946415089832864\\
44	0.00862800399957479\\
45	0.00816256372793386\\
46	0.00784857678072338\\
47	0.00764005346579914\\
48	0.00755773656417068\\
49	0.00776075567554332\\
50	0.00986938420958768\\
51	0.00319649311885596\\
52	0.00500292172051245\\
53	0.00524752973649041\\
54	0.00526667690567613\\
55	0.00521575322380608\\
56	0.00513704586881206\\
57	0.00504647235310817\\
58	0.00495116794332671\\
59	0.00485468351773321\\
60	0.00475890010347922\\
61	0.00466484578572566\\
62	0.00457308311118313\\
63	0.00448390798586452\\
64	0.0043974582605137\\
65	0.00431377595094964\\
66	0.00423284428954661\\
67	0.00415461047403326\\
68	0.00407899997367922\\
69	0.00400592569101114\\
70	0.00393529390404367\\
71	0.0038670081481966\\
72	0.00380097175500134\\
73	0.00373708950172093\\
74	0.00367526866536834\\
75	0.00361541967416126\\
76	0.00355745648532918\\
77	0.00350129677649243\\
78	0.00344686201027152\\
79	0.00339407741330312\\
80	0.00334287189828014\\
81	0.0032931779490063\\
82	0.00324493148246751\\
83	0.00319807169773062\\
84	0.003152540918526\\
85	0.00310828443427485\\
86	0.00306525034282854\\
87	0.00302338939712195\\
88	0.00298265485717807\\
89	0.00294300234835571\\
90	0.00290438972634362\\
91	0.0028667769491261\\
92	0.00283012595595264\\
93	0.0027944005532083\\
94	0.00275956630699144\\
95	0.0027255904421446\\
96	0.00269244174744817\\
97	0.00266009048666622\\
98	0.00262850831512411\\
99	0\\
100	0\\
};
\addlegendentry{$\mathbf{h_1}$}

\addplot [color=mycolor2]
  table[row sep=crcr]{%
1	0.00108294891904515\\
2	0.00115806441999571\\
3	0.00125656841390277\\
4	0.00139359850086552\\
5	0.00159676508941691\\
6	0.00191784013184518\\
7	0.00245777585368985\\
8	0.00342819163679349\\
9	0.00533730915065768\\
10	0.00974214709050295\\
11	0.0244449264542886\\
12	0.973731186814765\\
13	0.0500739614470277\\
14	0.0426946282907342\\
15	0.00536788790071817\\
16	0.0362080823589407\\
17	0.176144271962331\\
18	0.115663212635922\\
19	0.0234963057121139\\
20	0.0138738178597906\\
21	0.00966054585381422\\
22	0.00731818549393035\\
23	0.00584139575065055\\
24	0.0048330083027894\\
25	0.00410500747522503\\
26	0.00355723928842746\\
27	0.00313167065616096\\
28	0.00279247304593218\\
29	0.00251639833876938\\
30	0.00228774297450139\\
31	0.00209554142652578\\
32	0.00193191967393617\\
33	0.00179108704155738\\
34	0.00166869616651274\\
35	0\\
36	0\\
37	0\\
38	0\\
39	0\\
40	0\\
41	0\\
42	0\\
43	0\\
44	0\\
45	0\\
46	0\\
47	0\\
48	0\\
49	0\\
50	0\\
51	0\\
52	0\\
53	0\\
54	0\\
55	0\\
56	0\\
57	0\\
58	0\\
59	0\\
60	0\\
61	0\\
62	0\\
63	0\\
64	0\\
65	0\\
66	0\\
67	0\\
68	0\\
69	0\\
70	0\\
71	0\\
72	0\\
73	0\\
74	0\\
75	0\\
76	0\\
77	0\\
78	0\\
79	0\\
80	0\\
81	0\\
82	0\\
83	0\\
84	0\\
85	0\\
86	0\\
87	0\\
88	0\\
89	0\\
90	0\\
91	0\\
92	0\\
93	0\\
94	0\\
95	0\\
96	0\\
97	0\\
98	0\\
99	0\\
100	0\\
};
\addlegendentry{$\mathbf{h_{2}}$}

\end{axis}

\begin{axis}[%
width=1.935in,
height=3.2in,
at={(3.327in,0.512in)},
scale only axis,
xmin=0,
xmax=100,
xlabel style={font=\color{white!15!black}, align=center},
xlabel={Sample Index\\[1ex](b) Estimated},
ymin=0,
ymax=1,
axis background/.style={fill=white},
legend style={legend cell align=left, align=left, draw=white!15!black}
]
\addplot [color=mycolor1]
  table[row sep=crcr]{%
0	0.000109010034254449\\
1	0.00122665811015216\\
2	0.00302495570929463\\
3	0.00230459820477126\\
4	0.00071980198062882\\
5	0.00100630780966935\\
6	0.000819978368994105\\
7	0.000495048530847601\\
8	0.00230115722272503\\
9	0.0005986529988077\\
10	0.00228614651034667\\
11	0.00220910763893222\\
12	0.00142528423670978\\
13	0.00234126316807773\\
14	0.000818796637847791\\
15	0.00156427206394327\\
16	0.00327469226835898\\
17	0.00205186476288338\\
18	0.0018818203959708\\
19	0.00107926463518998\\
20	0.00211384513947799\\
21	0.00342717546168991\\
22	0.0028837891550879\\
23	0.00377876434652715\\
24	0.00711018113801608\\
25	0.0203997045202212\\
26	0.00260858679635659\\
27	0.00676409156461817\\
28	0.00654053869281061\\
29	0.00638496365851793\\
30	0.00680400227705291\\
31	0.00932768653547947\\
32	0.0170597368528448\\
33	0.0346322693189011\\
34	0.0212496727087049\\
35	0.0205122552294371\\
36	0.0322028261681224\\
37	0.0459876654011983\\
38	0.107315141159588\\
39	0.0283067913479113\\
40	0.0334449439758583\\
41	0.0244741216556988\\
42	0.191160098507868\\
43	0.661285343778859\\
44	0.208373737622267\\
45	0.0443340577564205\\
46	0.14405725383551\\
47	0.0738473122513848\\
48	0.103354049031651\\
49	0.035005474483968\\
50	0.10595702782758\\
51	0.391890855300437\\
52	0.295462082059099\\
53	0.173629514153307\\
54	0.129430046467477\\
55	0.0730152200139712\\
56	0.107972868488281\\
57	0.0344705485806122\\
58	0.0374875450015962\\
59	0.0496374079971187\\
60	0.117423553310469\\
61	0.271682793628888\\
62	0.0763211952901166\\
63	0.022815247751283\\
64	0.0207892466816857\\
65	0.0254088343950317\\
66	0.0186147055801948\\
67	0.0265260524119992\\
68	0.0309911493255821\\
69	0.0419903818335935\\
70	0.0191704025105661\\
71	0.00667367471734449\\
72	0.00581482319012846\\
73	0.0152406353205559\\
74	0.0141479643386717\\
75	0.0100838603018599\\
76	0.00756798540897675\\
77	0.0074707952868015\\
78	0.0128078681864211\\
79	0.00806285757647663\\
80	0.0116274844760665\\
81	0.00942484415435963\\
82	0.00753066847364388\\
83	0.00887698903512942\\
84	0.0102411108622491\\
85	0.00936954259396245\\
86	0.0106402585122262\\
87	0.0101662261970409\\
88	0.00233081501177136\\
89	0.0066197312853047\\
90	0.00539991792356475\\
91	0.00421231401058325\\
92	0.00546328685475724\\
93	0.00591835767191433\\
94	0.00603036524960179\\
95	0.00477880291405687\\
96	0.00586976666157545\\
97	0.00598519795742213\\
98	0.0047143708059941\\
99	0.00467779796476079\\
};
\addlegendentry{$\mathbf{\hat{h}_{1}}$}

\addplot [color=mycolor2]
  table[row sep=crcr]{%
0	0.000515654062304627\\
1	0.000899262754644876\\
2	0.000992742002185603\\
3	0.000551749335265691\\
4	0.000932445479293431\\
5	0.00174275343213262\\
6	0.00148626353573145\\
7	0.00177969536597188\\
8	0.00118567140509853\\
9	0.00018596349858017\\
10	0.00103066489731866\\
11	0.00158419628082998\\
12	0.00108395833536346\\
13	0.000823228463272324\\
14	0.000723068729834376\\
15	0.00264426094200583\\
16	0.00187241953607901\\
17	0.00182276985946794\\
18	0.0023041442417177\\
19	0.00172946460799739\\
20	0.000784077002206823\\
21	0.00343192700384242\\
22	0.00295036051777763\\
23	0.00588896287438653\\
24	0.00479009939889432\\
25	0.00282924102776374\\
26	0.00288609450848353\\
27	0.00191975286460728\\
28	0.00222823315351096\\
29	0.00695820652148915\\
30	0.00784592347731271\\
31	0.0491368190413238\\
32	0.0078215582376231\\
33	0.0114056789148293\\
34	0.00766261746415173\\
35	0.00677738019196857\\
36	0.00912319694192009\\
37	0.00109723424603881\\
38	0.0340954124038172\\
39	0.0516045040466852\\
40	0.0171642184568626\\
41	0.0745115656296506\\
42	0.00735954476027768\\
43	0.0053182209541028\\
44	0.0160861959857632\\
45	0.0124430720921073\\
46	0.0211729728348438\\
47	0.0301654658026017\\
48	0.00713983050795873\\
49	0.985266375407454\\
50	0.00713999756540497\\
51	0.0301667357308883\\
52	0.0211742700837691\\
53	0.0124516410042944\\
54	0.0160864721163744\\
55	0.00530537044950352\\
56	0.00736184961467946\\
57	0.074510879458542\\
58	0.0171562139292308\\
59	0.0515918497175835\\
60	0.0340874401829625\\
61	0.00109299688069427\\
62	0.0091317975177962\\
63	0.00675437747930597\\
64	0.00764182957964901\\
65	0.0114102845600806\\
66	0.00783292598266325\\
67	0.0491204617436706\\
68	0.00786105762817386\\
69	0.0069436123269333\\
70	0.00220146678578286\\
71	0.0019086037426037\\
72	0.00286372673463832\\
73	0.00282844448947801\\
74	0.00477116018891644\\
75	0.00590888057887899\\
76	0.00295225706838383\\
77	0.00344386501079563\\
78	0.000794145062534128\\
79	0.00170329797764366\\
80	0.00226799973386092\\
81	0.00181320487513742\\
82	0.00182424749548406\\
83	0.00259407283302222\\
84	0.000758022373708717\\
85	0.000800744467841959\\
86	0.00101919247116992\\
87	0.00152229521375273\\
88	0.00102385744693733\\
89	0.000225613650445136\\
90	0.00116828304233977\\
91	0.00174856906560442\\
92	0.00145868626649421\\
93	0.00164534581413187\\
94	0.000936530279166842\\
95	0.000475169101834471\\
96	0.000945330542080824\\
97	0.000941488410547213\\
98	0.000597924859190944\\
99	0.00128767684428582\\
};
\addlegendentry{$\mathbf{\hat{h}_{2}}$}

\end{axis}
\end{tikzpicture}%