% This file was created by matlab2tikz.
%
%The latest updates can be retrieved from
%  http://www.mathworks.com/matlabcentral/fileexchange/22022-matlab2tikz-matlab2tikz
%where you can also make suggestions and rate matlab2tikz.
%
\definecolor{mycolor1}{rgb}{0.00000,0.44700,0.74100}%
\definecolor{mycolor2}{rgb}{0.85000,0.32500,0.09800}%
%
\begin{tikzpicture}

\begin{axis}[%
width=1.935in,
height=3.2in,
at={(0.758in,0.512in)},
scale only axis,
xmin=0,
xmax=100,
xlabel style={font=\color{white!15!black}, align=center},
xlabel={Sample Index\\[1ex](a) Actual},
ymin=0,
ymax=1,
axis background/.style={fill=white},
legend style={legend cell align=left, align=left, draw=white!15!black}
]
\addplot [color=mycolor1]
  table[row sep=crcr]{%
1	0.0216926152020066\\
2	0.0241183965289278\\
3	0.0267807478156139\\
4	0.0354280601095614\\
5	0.221828667704926\\
6	0.648965745595675\\
7	0.241270440438586\\
8	0.0776642628644082\\
9	0.0581044824071981\\
10	0.0611489366831747\\
11	0.0798140419847986\\
12	0.062735544320507\\
13	0.113011040425493\\
14	0.377485382687519\\
15	0.331649248845691\\
16	0.18615433793772\\
17	0.146493252817741\\
18	0.0847190801249442\\
19	0.0628278567269286\\
20	0.0148364296169451\\
21	0.0250471739922352\\
22	0.0344835915107885\\
23	0.116323790948646\\
24	0.279210940275387\\
25	0.101045410677318\\
26	0.0464379665429307\\
27	0.041398863205924\\
28	0.0263226969199998\\
29	0.0221848789960478\\
30	0.0197642774213948\\
31	0.0186496517239344\\
32	0.0219339353832985\\
33	0.018414044189717\\
34	0.00937919788338426\\
35	0.0100670783096178\\
36	0.0098135024549665\\
37	0.00937197330245933\\
38	0.00884810306396591\\
39	0.00821513429074651\\
40	0.00732026654240377\\
41	0.00945021173361951\\
42	0.0127255218727005\\
43	0.00946415089832864\\
44	0.00862800399957479\\
45	0.00816256372793386\\
46	0.00784857678072338\\
47	0.00764005346579914\\
48	0.00755773656417068\\
49	0.00776075567554332\\
50	0.00986938420958768\\
51	0.00319649311885596\\
52	0.00500292172051245\\
53	0.00524752973649041\\
54	0.00526667690567613\\
55	0.00521575322380608\\
56	0.00513704586881206\\
57	0.00504647235310817\\
58	0.00495116794332671\\
59	0.00485468351773321\\
60	0.00475890010347922\\
61	0.00466484578572566\\
62	0.00457308311118313\\
63	0.00448390798586452\\
64	0.0043974582605137\\
65	0.00431377595094964\\
66	0.00423284428954661\\
67	0.00415461047403326\\
68	0.00407899997367922\\
69	0.00400592569101114\\
70	0.00393529390404367\\
71	0.0038670081481966\\
72	0.00380097175500134\\
73	0.00373708950172093\\
74	0.00367526866536834\\
75	0.00361541967416126\\
76	0.00355745648532918\\
77	0.00350129677649243\\
78	0.00344686201027152\\
79	0.00339407741330312\\
80	0.00334287189828014\\
81	0.0032931779490063\\
82	0.00324493148246751\\
83	0.00319807169773062\\
84	0.003152540918526\\
85	0.00310828443427485\\
86	0.00306525034282854\\
87	0.00302338939712195\\
88	0.00298265485717807\\
89	0.00294300234835571\\
90	0.00290438972634362\\
91	0.0028667769491261\\
92	0.00283012595595264\\
93	0.0027944005532083\\
94	0.00275956630699144\\
95	0.0027255904421446\\
96	0.00269244174744817\\
97	0.00266009048666622\\
98	0.00262850831512411\\
99	0\\
100	0\\
};
\addlegendentry{$\mathbf{h_1}$}

\addplot [color=mycolor2]
  table[row sep=crcr]{%
1	0.00108294891904515\\
2	0.00115806441999571\\
3	0.00125656841390277\\
4	0.00139359850086552\\
5	0.00159676508941691\\
6	0.00191784013184518\\
7	0.00245777585368985\\
8	0.00342819163679349\\
9	0.00533730915065768\\
10	0.00974214709050295\\
11	0.0244449264542886\\
12	0.973731186814765\\
13	0.0500739614470277\\
14	0.0426946282907342\\
15	0.00536788790071817\\
16	0.0362080823589407\\
17	0.176144271962331\\
18	0.115663212635922\\
19	0.0234963057121139\\
20	0.0138738178597906\\
21	0.00966054585381422\\
22	0.00731818549393035\\
23	0.00584139575065055\\
24	0.0048330083027894\\
25	0.00410500747522503\\
26	0.00355723928842746\\
27	0.00313167065616096\\
28	0.00279247304593218\\
29	0.00251639833876938\\
30	0.00228774297450139\\
31	0.00209554142652578\\
32	0.00193191967393617\\
33	0.00179108704155738\\
34	0.00166869616651274\\
35	0\\
36	0\\
37	0\\
38	0\\
39	0\\
40	0\\
41	0\\
42	0\\
43	0\\
44	0\\
45	0\\
46	0\\
47	0\\
48	0\\
49	0\\
50	0\\
51	0\\
52	0\\
53	0\\
54	0\\
55	0\\
56	0\\
57	0\\
58	0\\
59	0\\
60	0\\
61	0\\
62	0\\
63	0\\
64	0\\
65	0\\
66	0\\
67	0\\
68	0\\
69	0\\
70	0\\
71	0\\
72	0\\
73	0\\
74	0\\
75	0\\
76	0\\
77	0\\
78	0\\
79	0\\
80	0\\
81	0\\
82	0\\
83	0\\
84	0\\
85	0\\
86	0\\
87	0\\
88	0\\
89	0\\
90	0\\
91	0\\
92	0\\
93	0\\
94	0\\
95	0\\
96	0\\
97	0\\
98	0\\
99	0\\
100	0\\
};
\addlegendentry{$\mathbf{h_{2}}$}

\end{axis}

\begin{axis}[%
width=1.935in,
height=3.2in,
at={(3.327in,0.512in)},
scale only axis,
xmin=0,
xmax=100,
xlabel style={font=\color{white!15!black}, align=center},
xlabel={Sample Index\\[1ex](b) Estimated},
ymin=0,
ymax=0.2,
axis background/.style={fill=white},
legend style={legend cell align=left, align=left, draw=white!15!black}
]
\addplot [color=mycolor1]
  table[row sep=crcr]{%
0	0.0712389667948527\\
1	0.14030115591378\\
2	0.19225016401417\\
3	0.176665421600534\\
4	0.177497900674391\\
5	0.166336108888578\\
6	0.161028077443021\\
7	0.160594578348385\\
8	0.143037967446333\\
9	0.108736183065386\\
10	0.0868772171100701\\
11	0.0904987027560535\\
12	0.087567938899394\\
13	0.101031947333462\\
14	0.101784556676942\\
15	0.103905650316025\\
16	0.102774274139578\\
17	0.0775107719930817\\
18	0.0768345915129169\\
19	0.0703546205417728\\
20	0.0880053112381326\\
21	0.0930987355523797\\
22	0.0815658147212749\\
23	0.0942296340756498\\
24	0.0979237836550607\\
25	0.07446834695905\\
26	0.0768214259189672\\
27	0.0776162665887601\\
28	0.0799460542382309\\
29	0.08926412474852\\
30	0.0912960996027662\\
31	0.120393631997448\\
32	0.141304636992541\\
33	0.122307838832339\\
34	0.12329914480451\\
35	0.137221284138959\\
36	0.128230563087648\\
37	0.129067442819456\\
38	0.109669336014812\\
39	0.101630233345509\\
40	0.0982845971925093\\
41	0.0928969492978063\\
42	0.105224302739205\\
43	0.111788441637127\\
44	0.13346599619628\\
45	0.137443157267721\\
46	0.135140994410242\\
47	0.142685621482144\\
48	0.142035458962612\\
49	0.13126212137089\\
50	0.125509894988438\\
51	0.130081952577518\\
52	0.117947282670585\\
53	0.120366303073018\\
54	0.100957034763068\\
55	0.0884362578818366\\
56	0.0631404768746739\\
57	0.068583917260706\\
58	0.0635114953159126\\
59	0.0674439245973068\\
60	0.0729553855820549\\
61	0.0832545274934338\\
62	0.0843936799845432\\
63	0.0801520105396868\\
64	0.0809540428321717\\
65	0.069620239724691\\
66	0.0599021343796849\\
67	0.0513723747481546\\
68	0.0144034621065993\\
69	0.0302479700607722\\
70	0.0323849943804957\\
71	0.0516729671326805\\
72	0.0585882919567862\\
73	0.0690983476143109\\
74	0.0778132235532994\\
75	0.0781584679844234\\
76	0.112836374013534\\
77	0.141711329860427\\
78	0.153600744176692\\
79	0.143134593962476\\
80	0.139606288536152\\
81	0.114871844294689\\
82	0.0909873574810676\\
83	0.0805555427435142\\
84	0.0813909699218229\\
85	0.061050864728555\\
86	0.0265592437478778\\
87	0.0374992356634029\\
88	0.0165024713885949\\
89	0.0185672695570601\\
90	0.0269440547374806\\
91	0.0270365343942778\\
92	0.0275670760125575\\
93	0.0222692220526161\\
94	0.0235681751094696\\
95	0.0150842613982038\\
96	0.0071948906408933\\
97	0.01154930012116\\
98	0.014981158394528\\
99	0.0128927855092915\\
};
\addlegendentry{$\mathbf{\hat{h}_{1}}$}

\addplot [color=mycolor2]
  table[row sep=crcr]{%
0	0.000315014938975273\\
1	0.000405877976393781\\
2	0.0023503043287094\\
3	0.00370333254192042\\
4	0.0032799741802782\\
5	0.013144372557046\\
6	0.0404624908987919\\
7	0.0819624114020656\\
8	0.11341890697105\\
9	0.102342721917143\\
10	0.105042072759091\\
11	0.109307087723252\\
12	0.111007484210872\\
13	0.107037245633684\\
14	0.117919579702585\\
15	0.125844773007569\\
16	0.137833591498771\\
17	0.137591606387379\\
18	0.13507733420577\\
19	0.142327586524605\\
20	0.145153940077928\\
21	0.129347299000023\\
22	0.133913217273041\\
23	0.139871114530562\\
24	0.145567887601166\\
25	0.141561916348971\\
26	0.122586744831985\\
27	0.146518237175023\\
28	0.140491384988348\\
29	0.135292634523304\\
30	0.136347355652905\\
31	0.130543384493505\\
32	0.128017088389325\\
33	0.122988199612502\\
34	0.109966909168487\\
35	0.111783706570019\\
36	0.112356725889476\\
37	0.114134412152606\\
38	0.123097511394377\\
39	0.125360266099628\\
40	0.121885346335813\\
41	0.108998967793836\\
42	0.0996974848528994\\
43	0.0980700545473089\\
44	0.0918565205871175\\
45	0.0970788699506078\\
46	0.103309180107674\\
47	0.106637422584996\\
48	0.108044527469242\\
49	0.109445623849\\
50	0.105727119235849\\
51	0.102538133649723\\
52	0.106731290037669\\
53	0.108349950084612\\
54	0.118237539029948\\
55	0.122996896073929\\
56	0.128464163773847\\
57	0.125505440118941\\
58	0.124426181034394\\
59	0.124194367656129\\
60	0.114943879466411\\
61	0.112017459623163\\
62	0.113299162887666\\
63	0.113314610535213\\
64	0.11457062945301\\
65	0.111387785195088\\
66	0.116763931368647\\
67	0.115372160144605\\
68	0.111288841202431\\
69	0.10961510294122\\
70	0.104796913570893\\
71	0.0995773227098923\\
72	0.100073550485712\\
73	0.0822584703372799\\
74	0.104253098667966\\
75	0.106655256649603\\
76	0.0986317123359926\\
77	0.0870296222362681\\
78	0.073525029330297\\
79	0.0606574475471466\\
80	0.0597701649658884\\
81	0.0546127313224396\\
82	0.052821332474169\\
83	0.0335487548673592\\
84	0.02264777145383\\
85	0.0356660167231146\\
86	0.0333620020629217\\
87	0.0221955524293183\\
88	0.00677633864112109\\
89	0.0090399626195323\\
90	0.00730920833406098\\
91	0.00722496427305792\\
92	0.00551714874261118\\
93	0.00671002323139686\\
94	0.00546331649636971\\
95	0.00560792870574626\\
96	0.00432836592635301\\
97	0.00308126843948565\\
98	0.00333861016046494\\
99	0.0028000775979094\\
};
\addlegendentry{$\mathbf{\hat{h}_{2}}$}

\end{axis}
\end{tikzpicture}%