% This file was created by matlab2tikz.
%
%The latest updates can be retrieved from
%  http://www.mathworks.com/matlabcentral/fileexchange/22022-matlab2tikz-matlab2tikz
%where you can also make suggestions and rate matlab2tikz.
%
\definecolor{mycolor1}{rgb}{0.00000,0.44700,0.74100}%
\definecolor{mycolor2}{rgb}{0.85000,0.32500,0.09800}%
%
\begin{tikzpicture}

\begin{axis}[%
width=1.935in,
height=3.2in,
at={(0.758in,0.512in)},
scale only axis,
xmin=0,
xmax=100,
xlabel style={font=\color{white!15!black}, align=center},
xlabel={Sample Index\\[1ex](a)},
ymin=0,
ymax=1,
axis background/.style={fill=white},
legend style={legend cell align=left, align=left, draw=white!15!black}
]
\addplot [color=mycolor1]
  table[row sep=crcr]{%
1	0.0216926152020066\\
2	0.0241183965289278\\
3	0.0267807478156139\\
4	0.0354280601095614\\
5	0.221828667704926\\
6	0.648965745595675\\
7	0.241270440438586\\
8	0.0776642628644082\\
9	0.0581044824071981\\
10	0.0611489366831747\\
11	0.0798140419847986\\
12	0.062735544320507\\
13	0.113011040425493\\
14	0.377485382687519\\
15	0.331649248845691\\
16	0.18615433793772\\
17	0.146493252817741\\
18	0.0847190801249442\\
19	0.0628278567269286\\
20	0.0148364296169451\\
21	0.0250471739922352\\
22	0.0344835915107885\\
23	0.116323790948646\\
24	0.279210940275387\\
25	0.101045410677318\\
26	0.0464379665429307\\
27	0.041398863205924\\
28	0.0263226969199998\\
29	0.0221848789960478\\
30	0.0197642774213948\\
31	0.0186496517239344\\
32	0.0219339353832985\\
33	0.018414044189717\\
34	0.00937919788338426\\
35	0.0100670783096178\\
36	0.0098135024549665\\
37	0.00937197330245933\\
38	0.00884810306396591\\
39	0.00821513429074651\\
40	0.00732026654240377\\
41	0.00945021173361951\\
42	0.0127255218727005\\
43	0.00946415089832864\\
44	0.00862800399957479\\
45	0.00816256372793386\\
46	0.00784857678072338\\
47	0.00764005346579914\\
48	0.00755773656417068\\
49	0.00776075567554332\\
50	0.00986938420958768\\
51	0.00319649311885596\\
52	0.00500292172051245\\
53	0.00524752973649041\\
54	0.00526667690567613\\
55	0.00521575322380608\\
56	0.00513704586881206\\
57	0.00504647235310817\\
58	0.00495116794332671\\
59	0.00485468351773321\\
60	0.00475890010347922\\
61	0.00466484578572566\\
62	0.00457308311118313\\
63	0.00448390798586452\\
64	0.0043974582605137\\
65	0.00431377595094964\\
66	0.00423284428954661\\
67	0.00415461047403326\\
68	0.00407899997367922\\
69	0.00400592569101114\\
70	0.00393529390404367\\
71	0.0038670081481966\\
72	0.00380097175500134\\
73	0.00373708950172093\\
74	0.00367526866536834\\
75	0.00361541967416126\\
76	0.00355745648532918\\
77	0.00350129677649243\\
78	0.00344686201027152\\
79	0.00339407741330312\\
80	0.00334287189828014\\
81	0.0032931779490063\\
82	0.00324493148246751\\
83	0.00319807169773062\\
84	0.003152540918526\\
85	0.00310828443427485\\
86	0.00306525034282854\\
87	0.00302338939712195\\
88	0.00298265485717807\\
89	0.00294300234835571\\
90	0.00290438972634362\\
91	0.0028667769491261\\
92	0.00283012595595264\\
93	0.0027944005532083\\
94	0.00275956630699144\\
95	0.0027255904421446\\
96	0.00269244174744817\\
97	0.00266009048666622\\
98	0.00262850831512411\\
99	0\\
100	0\\
};
\addlegendentry{$\mathbf{h_1}$}

\addplot [color=mycolor2]
  table[row sep=crcr]{%
1	0.00108294891904515\\
2	0.00115806441999571\\
3	0.00125656841390277\\
4	0.00139359850086552\\
5	0.00159676508941691\\
6	0.00191784013184518\\
7	0.00245777585368985\\
8	0.00342819163679349\\
9	0.00533730915065768\\
10	0.00974214709050295\\
11	0.0244449264542886\\
12	0.973731186814765\\
13	0.0500739614470277\\
14	0.0426946282907342\\
15	0.00536788790071817\\
16	0.0362080823589407\\
17	0.176144271962331\\
18	0.115663212635922\\
19	0.0234963057121139\\
20	0.0138738178597906\\
21	0.00966054585381422\\
22	0.00731818549393035\\
23	0.00584139575065055\\
24	0.0048330083027894\\
25	0.00410500747522503\\
26	0.00355723928842746\\
27	0.00313167065616096\\
28	0.00279247304593218\\
29	0.00251639833876938\\
30	0.00228774297450139\\
31	0.00209554142652578\\
32	0.00193191967393617\\
33	0.00179108704155738\\
34	0.00166869616651274\\
35	0\\
36	0\\
37	0\\
38	0\\
39	0\\
40	0\\
41	0\\
42	0\\
43	0\\
44	0\\
45	0\\
46	0\\
47	0\\
48	0\\
49	0\\
50	0\\
51	0\\
52	0\\
53	0\\
54	0\\
55	0\\
56	0\\
57	0\\
58	0\\
59	0\\
60	0\\
61	0\\
62	0\\
63	0\\
64	0\\
65	0\\
66	0\\
67	0\\
68	0\\
69	0\\
70	0\\
71	0\\
72	0\\
73	0\\
74	0\\
75	0\\
76	0\\
77	0\\
78	0\\
79	0\\
80	0\\
81	0\\
82	0\\
83	0\\
84	0\\
85	0\\
86	0\\
87	0\\
88	0\\
89	0\\
90	0\\
91	0\\
92	0\\
93	0\\
94	0\\
95	0\\
96	0\\
97	0\\
98	0\\
99	0\\
100	0\\
};
\addlegendentry{$\mathbf{h_{2}}$}

\end{axis}

\begin{axis}[%
width=1.935in,
height=3.2in,
at={(3.327in,0.512in)},
scale only axis,
xmin=0,
xmax=100,
xlabel style={font=\color{white!15!black}, align=center},
xlabel={Sample Index\\[1ex](b)},
ymin=0,
ymax=1,
axis background/.style={fill=white},
legend style={legend cell align=left, align=left, draw=white!15!black}
]
\addplot [color=mycolor1]
  table[row sep=crcr]{%
0	0.00983966599520138\\
1	0.020315625350322\\
2	0.0145060336415317\\
3	0.0421015646027416\\
4	0.0225849187477686\\
5	0.0122905115055173\\
6	0.0162255388647081\\
7	0.0114039700339185\\
8	0.0115969581283365\\
9	0.013173415400345\\
10	0.00764559170996675\\
11	0.0320223370559862\\
12	0.0193489251721468\\
13	0.0414476120721598\\
14	0.0134174079234755\\
15	0.037421342804544\\
16	0.0232104174084014\\
17	0.00763895016877097\\
18	0.015737895836286\\
19	0.0228410753465402\\
20	0.0314036745809643\\
21	0.0344764953797108\\
22	0.00476237626058958\\
23	0.0404016292028388\\
24	0.0221405464624961\\
25	0.0243547266446727\\
26	0.0132583810889245\\
27	0.0049271040732873\\
28	0.0169207386121472\\
29	0.0351495350029663\\
30	0.0124426410576086\\
31	0.0223921419370124\\
32	0.045741127477284\\
33	0.0373256302520069\\
34	0.00798530543245618\\
35	0.0272429835277337\\
36	0.0297611398762419\\
37	0.0545544607919305\\
38	0.12321150833493\\
39	0.0417124964574283\\
40	0.0405507588937637\\
41	0.0455339592310707\\
42	0.192692809774479\\
43	0.62855167590487\\
44	0.209115442663206\\
45	0.043659990241423\\
46	0.164802815533805\\
47	0.0574851082007048\\
48	0.0828077720398503\\
49	0.0505165165996086\\
50	0.107141707532568\\
51	0.401110448282096\\
52	0.287447901201\\
53	0.163479478082313\\
54	0.120325227059238\\
55	0.0802150180225778\\
56	0.123038187996957\\
57	0.0439378710380311\\
58	0.0153165441723879\\
59	0.03491074826283\\
60	0.0781541509246936\\
61	0.272136899755073\\
62	0.0830459233132462\\
63	0.0620239271283678\\
64	0.0377579033984592\\
65	0.0321568564768859\\
66	0.0395568096797988\\
67	0.0397959336634613\\
68	0.0473400975818421\\
69	0.0182639204069865\\
70	0.00887847272995961\\
71	0.0267277350648695\\
72	0.0216509934677769\\
73	0.0144423579712906\\
74	0.019328517545947\\
75	0.0304839502810249\\
76	0.00807143777629495\\
77	0.0348519290159666\\
78	0.0233491406581946\\
79	0.0347775203941863\\
80	0.0277567412462594\\
81	0.0154017242345835\\
82	0.0332716268891266\\
83	0.0440815125876572\\
84	0.00813675587921535\\
85	0.00236370419064594\\
86	0.0239385126237461\\
87	0.0191372516002784\\
88	0.019097266813487\\
89	0.00941137972521651\\
90	0.0241195773950993\\
91	0.0246669064381059\\
92	0.0206621040121432\\
93	0.00990433609550755\\
94	0.0224274993737245\\
95	0.0144646840144515\\
96	0.0248779644539704\\
97	0.0228798079927691\\
98	0.0162459304990526\\
99	0.0284511568602376\\
};
\addlegendentry{$\mathbf{\hat{h}_{1}}$}

\addplot [color=mycolor2]
  table[row sep=crcr]{%
0	0.000281292100207042\\
1	0.00138016439962084\\
2	0.000342831919184585\\
3	0.000474075459026932\\
4	0.000661403694377444\\
5	0.000422658909591496\\
6	0.000635791060601792\\
7	0.000168640897873405\\
8	0.000400461624601354\\
9	0.00174519710319594\\
10	0.000321955348647844\\
11	0.000981487981418909\\
12	0.000998954290234288\\
13	0.000624858061516189\\
14	0.000397442060950823\\
15	0.000631573640920675\\
16	0.000155347982459241\\
17	0.00118172078190729\\
18	0.000275913499755303\\
19	0.00111213885872293\\
20	0.00104528893540845\\
21	0.000898392588564482\\
22	0.000561743067697687\\
23	0.000336439373492343\\
24	0.000855407859173911\\
25	0.000993314166210785\\
26	0.000774473683230451\\
27	0.00127467026979695\\
28	0.00061797243786601\\
29	0.00173507434427837\\
30	0.00146560080547454\\
31	0.00532102122146796\\
32	0.00015911170724129\\
33	0.000279333228867978\\
34	0.000664784537272537\\
35	0.00161643192196169\\
36	0.00143884807588746\\
37	0.000526789043467673\\
38	0.00280388745895604\\
39	0.00645238578570631\\
40	0.00189559215464499\\
41	0.00826843716943688\\
42	0.000780401743710486\\
43	0.000373098831277631\\
44	0.00165037459084175\\
45	0.00102031093521789\\
46	0.00238725325067672\\
47	0.00342645532164265\\
48	0.000891246853076446\\
49	0.999797423172762\\
50	0.000895895320540212\\
51	0.00342127381595008\\
52	0.0023946526850083\\
53	0.00103119780876131\\
54	0.00164860409175521\\
55	0.000331615272481517\\
56	0.000805805925816957\\
57	0.00830080100724629\\
58	0.00192479439009544\\
59	0.00645372321247319\\
60	0.00287780098086176\\
61	0.000492030378879888\\
62	0.00145788366571751\\
63	0.00154005680544568\\
64	0.000674405570611961\\
65	0.000313934747598208\\
66	0.000204534377695211\\
67	0.00535799155823905\\
68	0.00145576069577666\\
69	0.00176325755390963\\
70	0.000592414842405711\\
71	0.00130361098035864\\
72	0.000784080224472218\\
73	0.000932868780037714\\
74	0.000819985578535954\\
75	0.000440839757280165\\
76	0.000601058075291676\\
77	0.000964005054572135\\
78	0.000974273060156221\\
79	0.00108363479126062\\
80	0.000238450444707202\\
81	0.00113015680729175\\
82	8.87249546891578e-05\\
83	0.000720915079213344\\
84	0.00043721478438662\\
85	0.00069020886894042\\
86	0.000963460873351712\\
87	0.000920237510525081\\
88	0.000391469884004774\\
89	0.00165150393151074\\
90	0.000281696481819002\\
91	0.000191557979552534\\
92	0.000660375604502664\\
93	0.000518548442829552\\
94	0.000702159137312162\\
95	0.000515229039413638\\
96	0.000262115192760552\\
97	0.0011340713203033\\
98	0.000320344291661256\\
99	0.00056595237420778\\
};
\addlegendentry{$\mathbf{\hat{h}_{2}}$}

\end{axis}
\end{tikzpicture}%