% This file was created by matlab2tikz.
%
%The latest updates can be retrieved from
%  http://www.mathworks.com/matlabcentral/fileexchange/22022-matlab2tikz-matlab2tikz
%where you can also make suggestions and rate matlab2tikz.
%
\definecolor{mycolor1}{rgb}{0.00000,0.44700,0.74100}%
\definecolor{mycolor2}{rgb}{0.85000,0.32500,0.09800}%
%
\begin{tikzpicture}

\begin{axis}[%
width=1.935in,
height=3.2in,
at={(0.758in,0.512in)},
scale only axis,
xmin=0,
xmax=150,
xlabel style={font=\color{white!15!black}, align=center},
xlabel={Sample Index\\[1ex](a)},
ymin=0,
ymax=0.7,
axis background/.style={fill=white},
legend style={legend cell align=left, align=left, draw=white!15!black}
]
\addplot [color=mycolor1]
  table[row sep=crcr]{%
1	0.0234657806037261\\
2	0.0272334504034075\\
3	0.0326864300765018\\
4	0.0414541482980318\\
5	0.0586677033458464\\
6	0.117843438362983\\
7	0.159969331461504\\
8	0.174397116945152\\
9	0.616552810702634\\
10	0.0882137642931462\\
11	0.0472681903124796\\
12	0.0327587509505929\\
13	0.0272256709659274\\
14	0.0412344622245766\\
15	0.0186762848129325\\
16	0.0451940046978057\\
17	0.0153724087875252\\
18	0.0239672675363248\\
19	0.0400285717874473\\
20	0.0828333966509162\\
21	0.557624977131952\\
22	0.149414784250917\\
23	0.109138078132702\\
24	0.0381681231028791\\
25	0.032799759178118\\
26	0.191519461959093\\
27	0.0734580287558902\\
28	0.0358315656953253\\
29	0.0179563195827385\\
30	0.0169149242156914\\
31	0.0179798517146348\\
32	0.0199431506445131\\
33	0.0279225394655299\\
34	0.0908594243819801\\
35	0.0439964246924232\\
36	0.330890477505262\\
37	0.037800506563543\\
38	0.020261933748638\\
39	0.0138181229977315\\
40	0.0211497159554441\\
41	0.0112042208144458\\
42	0.00964538908702694\\
43	0.00864780826327016\\
44	0.00787736374270682\\
45	0.00720180133294831\\
46	0.00651453200193765\\
47	0.00565492088107664\\
48	0.0112814316241706\\
49	0.0075966567083061\\
50	0.0102713040739602\\
51	0.00787142060243747\\
52	0.00711780022683946\\
53	0.00668443537322835\\
54	0.00638223966522588\\
55	0.00615487020840034\\
56	0.00598242225636516\\
57	0.00586293416152974\\
58	0.00581626175933958\\
59	0.00593494184987807\\
60	0.00707647204853056\\
61	0.00861312572402681\\
62	0.00240649054353041\\
63	0.0036902508247688\\
64	0.0040125763148678\\
65	0.00408542983582614\\
66	0.00408934467211144\\
67	0.00406760360864643\\
68	0.00403657730104579\\
69	0.00400486664899167\\
70	0.00397913876457006\\
71	0.00396763365360209\\
72	0.00398577860522856\\
73	0.00407460869510253\\
74	0.00440882178496405\\
75	0.00852319154542653\\
76	0.00211982859547221\\
77	0.00279674481878385\\
78	0.00295234209521732\\
79	0.00299967450324673\\
80	0.00300734384297471\\
81	0.00299658049652506\\
82	0.00297609501762909\\
83	0.00295010695632826\\
84	0.00292089738309008\\
85	0.00288979839106794\\
86	0.00285763293534116\\
87	0.00282493110979805\\
88	0.00279204510261472\\
89	0.00275921420187501\\
90	0.00272660345813555\\
91	0.00269432766245323\\
92	0.00266246675038502\\
93	0.00263107599882434\\
94	0.00260019295165966\\
95	0.00256984222925479\\
96	0.00254003893333548\\
97	0.0025107910982644\\
98	0.00248210148178531\\
99	0.00245396889001376\\
100	0.00242638916874131\\
101	0.00239935595223708\\
102	0.00237286123354156\\
103	0.00234689580183488\\
104	0.00232144957979209\\
105	0.00229651188498403\\
106	0.00227207163310714\\
107	0.0022481174963278\\
108	0.00222463802675857\\
109	0.00220162175268604\\
110	0.00217905725339276\\
111	0.0021569332170867\\
112	0.00213523848544673\\
113	0.00211396208753109\\
114	0.00209309326520902\\
115	0.00207262149182518\\
116	0.00205253648545491\\
117	0.00203282821783402\\
118	0.00201348691983224\\
119	0.00199450308416773\\
120	0.00197586746592614\\
121	0.00195757108133911\\
122	0.0019396052051902\\
123	0.0019219613671484\\
124	0.00190463134727109\\
125	0.00188760717087541\\
126	0.00187088110293773\\
127	0.00185444564215264\\
128	0.0018382935147574\\
129	0.00182241766820821\\
130	0.00180681126477794\\
131	0.00179146767513212\\
132	0.00177638047192757\\
133	0.00176154342347035\\
134	0.00174695048746156\\
135	0.0017325958048528\\
136	0.00171847369382931\\
137	0.00170457864393352\\
138	0.0016909053103386\\
139	0.00167744850827835\\
140	0.00166420320763913\\
141	0.00165116452771496\\
142	0.00163832773212761\\
143	0.00162568822391149\\
144	0.00161324154076111\\
145	0.0016009833504405\\
146	0.00158890944635072\\
147	0.00157701574325256\\
148	0.00156529827314105\\
149	0\\
150	0\\
};
\addlegendentry{$\mathbf{h_1}$}

\addplot [color=mycolor2]
  table[row sep=crcr]{%
1	0.019775303219206\\
2	0.0210217764534023\\
3	0.0224372323963497\\
4	0.024058742711813\\
5	0.0259351263737046\\
6	0.0281320174688059\\
7	0.0307398096072034\\
8	0.0338865833958781\\
9	0.0377600935275399\\
10	0.0426472101764649\\
11	0.0490094599986528\\
12	0.0576401827385178\\
13	0.0700288298559564\\
14	0.0893407156606893\\
15	0.123700774100431\\
16	0.202175033398071\\
17	0.564479813098353\\
18	0.690442426104836\\
19	0.212260509632627\\
20	0.126132345068284\\
21	0.100380135781766\\
22	0.0378663697499036\\
23	0.0333199748773482\\
24	0.0149453064107011\\
25	0.10083899339379\\
26	0.161002397050911\\
27	0.0405118251764787\\
28	0.0383644765554957\\
29	0.0341227495803863\\
30	0.0306469105251072\\
31	0.0278570926171954\\
32	0.0255709383506331\\
33	0.0236574529195357\\
34	0.0220274984760589\\
35	0.0206190941704396\\
36	0.0193877726649002\\
37	0.0183006807256663\\
38	0.0173329207549748\\
39	0.016465211935799\\
40	0.0156823459816501\\
41	0.0149721364414517\\
42	0.0143246843629073\\
43	0.0137318527665838\\
44	0.0131868826449622\\
45	0.0126841071808284\\
46	0.0122187355837443\\
47	0.0117866872087634\\
48	0.0113844626077037\\
49	0.0110090421200206\\
50	0.0106578052804057\\
51	0\\
52	0\\
53	0\\
54	0\\
55	0\\
56	0\\
57	0\\
58	0\\
59	0\\
60	0\\
61	0\\
62	0\\
63	0\\
64	0\\
65	0\\
66	0\\
67	0\\
68	0\\
69	0\\
70	0\\
71	0\\
72	0\\
73	0\\
74	0\\
75	0\\
76	0\\
77	0\\
78	0\\
79	0\\
80	0\\
81	0\\
82	0\\
83	0\\
84	0\\
85	0\\
86	0\\
87	0\\
88	0\\
89	0\\
90	0\\
91	0\\
92	0\\
93	0\\
94	0\\
95	0\\
96	0\\
97	0\\
98	0\\
99	0\\
100	0\\
101	0\\
102	0\\
103	0\\
104	0\\
105	0\\
106	0\\
107	0\\
108	0\\
109	0\\
110	0\\
111	0\\
112	0\\
113	0\\
114	0\\
115	0\\
116	0\\
117	0\\
118	0\\
119	0\\
120	0\\
121	0\\
122	0\\
123	0\\
124	0\\
125	0\\
126	0\\
127	0\\
128	0\\
129	0\\
130	0\\
131	0\\
132	0\\
133	0\\
134	0\\
135	0\\
136	0\\
137	0\\
138	0\\
139	0\\
140	0\\
141	0\\
142	0\\
143	0\\
144	0\\
145	0\\
146	0\\
147	0\\
148	0\\
149	0\\
150	0\\
};
\addlegendentry{$\mathbf{h_{2}}$}

\end{axis}

\begin{axis}[%
width=1.935in,
height=3.2in,
at={(3.327in,0.512in)},
scale only axis,
xmin=0,
xmax=150,
xlabel style={font=\color{white!15!black}, align=center},
xlabel={Sample Index\\[1ex](b)},
ymin=0,
ymax=1,
axis background/.style={fill=white},
legend style={legend cell align=left, align=left, draw=white!15!black}
]
\addplot [color=mycolor1]
  table[row sep=crcr]{%
0	0.0245788997234696\\
1	0.034446488363149\\
2	0.0128200696195712\\
3	0.0103265459420391\\
4	0.0147265962288362\\
5	0.0244421321403332\\
6	0.00423572121391414\\
7	0.0340019061599405\\
8	0.0241453995543569\\
9	0.0130352369236505\\
10	0.032749783860313\\
11	0.00685094113489334\\
12	0.0110459286499382\\
13	0.00932269751449461\\
14	0.00861868307446154\\
15	0.0030160753014497\\
16	0.00589118678729422\\
17	0.0448358856874045\\
18	0.00404910767022675\\
19	0.0169081356888059\\
20	0.0167838305865463\\
21	0.0345290636524964\\
22	0.0152323567232673\\
23	0.0262436358531806\\
24	0.0226637781120083\\
25	0.0160213661537648\\
26	0.00360221456075462\\
27	0.0333514904795622\\
28	0.00610348501396097\\
29	0.00633580296848574\\
30	0.0285578929536412\\
31	0.0130156795345499\\
32	0.0115800373396499\\
33	0.0121207535223163\\
34	0.0334234244747245\\
35	0.0143103512828867\\
36	0.00449502775826978\\
37	0.0108816487300747\\
38	0.0414183331863793\\
39	0.0292158110078106\\
40	0.0100250233032029\\
41	0.0281514049151807\\
42	0.0290202460173992\\
43	0.0219313228025829\\
44	0.042043677249918\\
45	0.0174580409162959\\
46	0.0309192783007059\\
47	0.0180266805464892\\
48	0.011441617989177\\
49	0.0310444121175508\\
50	0.0287045582609595\\
51	0.0205758865884798\\
52	0.0298147326619439\\
53	0.0135417926516857\\
54	0.0436640347157684\\
55	0.0520198115535931\\
56	0.0547595212638691\\
57	0.136182651457385\\
58	0.0659290079645467\\
59	0.0345728610522842\\
60	0.0479022711461051\\
61	0.053684915044035\\
62	0.0344126122219542\\
63	0.168023964015235\\
64	0.040765608807969\\
65	0.464387215297987\\
66	0.366304559113516\\
67	0.112021023199793\\
68	0.0622450187140709\\
69	0.0516518262400123\\
70	0.153705738170392\\
71	0.0292860440172364\\
72	0.0319685604289241\\
73	0.0297834140145769\\
74	0.0586311640946703\\
75	0.0676514770312959\\
76	0.0887416175193583\\
77	0.24740238167974\\
78	0.460861949652083\\
79	0.174326208592226\\
80	0.0524916212245044\\
81	0.0825180686822576\\
82	0.137523548471761\\
83	0.0868657228606923\\
84	0.125942210220796\\
85	0.0563643427509259\\
86	0.0318317892398747\\
87	0.00960154341510771\\
88	0.0592182042338897\\
89	0.0551147949933257\\
90	0.0536242184922894\\
91	0.0967009749245906\\
92	0.274559166408464\\
93	0.116646701544564\\
94	0.035338084926289\\
95	0.0430097710762921\\
96	0.0225795806667725\\
97	0.017075036477806\\
98	0.0293224461217951\\
99	0.0325274415450905\\
100	0.0438532371581825\\
101	0.0215336192496471\\
102	0.038043870779633\\
103	0.0107066470370904\\
104	0.0284098325880723\\
105	0.0192120655947394\\
106	0.0218374476818739\\
107	0.00844133780076756\\
108	0.0220832243603127\\
109	0.0305172346407456\\
110	0.0160538617476555\\
111	0.00858784368610008\\
112	0.0157552053444921\\
113	0.0133767920934518\\
114	0.0188801942679723\\
115	0.0157343010425578\\
116	0.017608382482928\\
117	0.0106552881364715\\
118	0.0137551003322527\\
119	0.0211644664659975\\
120	0.0201576784322215\\
121	0.0152070273085878\\
122	0.0275265398883987\\
123	0.0207752037088375\\
124	0.0181494399383412\\
125	0.0141281453312472\\
126	0.0358326391850266\\
127	0.00201124511335486\\
128	0.0116642858345935\\
129	0.00638601987791621\\
130	0.0135530744002655\\
131	0.0241948399758488\\
132	0.015773241220925\\
133	0.0212336208905152\\
134	0.0122150096902739\\
135	0.01626757761437\\
136	0.0173728425232674\\
137	0.0099954782030404\\
138	0.00595753831273876\\
139	0.00746631887786713\\
140	0.00951786043174889\\
141	0.0245984050159526\\
142	0.023818390910518\\
143	0.0260292620892566\\
144	0.0122160308417229\\
145	0.00882932149877866\\
146	0.0301370497799625\\
147	0.0286252194189543\\
148	0.00121932799715027\\
149	0.0168878924532859\\
};
\addlegendentry{$\mathbf{\hat{h}_{1}}$}

\addplot [color=mycolor2]
  table[row sep=crcr]{%
0	0.000526725367047312\\
1	0.00031952013701708\\
2	0.000700437356847789\\
3	0.00046498164856417\\
4	0.000316945080949593\\
5	4.76234703580609e-05\\
6	0.000364201940012437\\
7	0.000370048425258778\\
8	0.000261653751602705\\
9	0.000933770081870975\\
10	0.000636559697102253\\
11	0.000341188367647335\\
12	0.000380679679041929\\
13	0.000657704204087549\\
14	0.000792363650237264\\
15	0.000576443447058936\\
16	0.000732526159243447\\
17	0.00066147570078208\\
18	0.000403992114488932\\
19	0.000947301039477955\\
20	2.52326051750141e-05\\
21	0.000828234689975832\\
22	0.000387371461417533\\
23	0.000548289999103495\\
24	0.00019618307678266\\
25	0.000718977869425942\\
26	0.000998428004226527\\
27	0.000439058511589239\\
28	0.000561939638892452\\
29	0.000412734941898846\\
30	0.00086717313530806\\
31	0.000755054883249862\\
32	0.000308842547467426\\
33	0.000664458235346634\\
34	0.000670149850342458\\
35	0.00084216541574184\\
36	0.000327249802589079\\
37	0.000581652483101772\\
38	0.000585068209965954\\
39	0.000305230475791169\\
40	0.000659601153649304\\
41	0.000555053644541628\\
42	0.000801948384400879\\
43	0.000878129621756905\\
44	0.000481537237778436\\
45	0.00106745579027641\\
46	0.000856134080196918\\
47	0.00403053460867254\\
48	0.000987814352595457\\
49	0.00172343981909505\\
50	0.00105792356295596\\
51	0.000505682011286735\\
52	0.00199260180096752\\
53	0.000721475102741876\\
54	0.000117378508449298\\
55	0.00166501073838003\\
56	0.00124211886058113\\
57	0.00242503661625749\\
58	0.0011722932424618\\
59	0.00457137754632482\\
60	0.0034012410229046\\
61	0.00330982448338248\\
62	0.00752352170377471\\
63	0.00114436376151516\\
64	0.00269209752988427\\
65	0.00110282169495388\\
66	0.0011719407868472\\
67	0.00175968905351709\\
68	0.00134834629311521\\
69	0.00199079995498004\\
70	0.00195159180668922\\
71	0.00209952898239392\\
72	0.00283695946878331\\
73	0.00221348018524909\\
74	0.999804452464449\\
75	0.00223202167194055\\
76	0.00282818398713582\\
77	0.00210989504180136\\
78	0.00194186041574857\\
79	0.00197334005564105\\
80	0.00135345040686364\\
81	0.00176180408904483\\
82	0.00118359834026392\\
83	0.00108205423888508\\
84	0.00272028184037189\\
85	0.00110559282816895\\
86	0.00749557135168482\\
87	0.00327235929587707\\
88	0.00333709791789033\\
89	0.00459078136651882\\
90	0.00116199789916683\\
91	0.00246234091269469\\
92	0.0012982089533292\\
93	0.00158659513476562\\
94	0.000139205087319385\\
95	0.000713326761909314\\
96	0.00193863964380801\\
97	0.000503871777384143\\
98	0.00109863497148833\\
99	0.00176554490998514\\
100	0.000870884393275211\\
101	0.00403568015170423\\
102	0.000842100482785691\\
103	0.000935206445364849\\
104	0.000584700936931686\\
105	0.000938874878831061\\
106	0.000795211836410944\\
107	0.000407829355702171\\
108	0.00060636633310487\\
109	0.00027065119642152\\
110	0.000608780912571982\\
111	0.000569766759863638\\
112	0.000254106657435515\\
113	0.000748544776810667\\
114	0.000622319933732311\\
115	0.000680221117638956\\
116	0.000162276925286162\\
117	0.000785231040309032\\
118	0.000855174907087822\\
119	0.000395629727686633\\
120	0.000665084402305095\\
121	0.000489331005296475\\
122	0.000841311489564037\\
123	0.00072842728777945\\
124	0.000163969314309195\\
125	0.000505632132401061\\
126	0.00028619644595346\\
127	0.000705975612764754\\
128	0.000129302661034127\\
129	0.000852312191495951\\
130	0.000293871799515069\\
131	0.00058192909883318\\
132	0.000697900775376578\\
133	0.000512912760885662\\
134	0.00070555158163704\\
135	0.000636537520198519\\
136	0.000426787964561839\\
137	0.000291958365706129\\
138	0.000491432998720193\\
139	0.000891763238626998\\
140	0.000350092192952567\\
141	0.00044021317031447\\
142	0.000383166746974137\\
143	0.000115562203234629\\
144	0.000423632001402806\\
145	0.000414226842558612\\
146	0.000692103248662787\\
147	0.000378798318855448\\
148	0.000402514459112816\\
149	0.000238479878919338\\
};
\addlegendentry{$\mathbf{\hat{h}_{2}}$}

\end{axis}
\end{tikzpicture}%