% This file was created by matlab2tikz.
%
%The latest updates can be retrieved from
%  http://www.mathworks.com/matlabcentral/fileexchange/22022-matlab2tikz-matlab2tikz
%where you can also make suggestions and rate matlab2tikz.
%
\definecolor{mycolor1}{rgb}{0.00000,0.44700,0.74100}%
\definecolor{mycolor2}{rgb}{0.85000,0.32500,0.09800}%
%
\begin{tikzpicture}

\begin{axis}[%
width=1.935in,
height=3.2in,
at={(0.758in,0.512in)},
scale only axis,
xmin=0,
xmax=150,
xlabel style={font=\color{white!15!black}, align=center},
xlabel={Sample Index\\[1ex](a) Actual},
ymin=0,
ymax=0.7,
axis background/.style={fill=white},
legend style={legend cell align=left, align=left, draw=white!15!black}
]
\addplot [color=mycolor1]
  table[row sep=crcr]{%
1	0.0234657806037261\\
2	0.0272334504034075\\
3	0.0326864300765018\\
4	0.0414541482980318\\
5	0.0586677033458464\\
6	0.117843438362983\\
7	0.159969331461504\\
8	0.174397116945152\\
9	0.616552810702634\\
10	0.0882137642931462\\
11	0.0472681903124796\\
12	0.0327587509505929\\
13	0.0272256709659274\\
14	0.0412344622245766\\
15	0.0186762848129325\\
16	0.0451940046978057\\
17	0.0153724087875252\\
18	0.0239672675363248\\
19	0.0400285717874473\\
20	0.0828333966509162\\
21	0.557624977131952\\
22	0.149414784250917\\
23	0.109138078132702\\
24	0.0381681231028791\\
25	0.032799759178118\\
26	0.191519461959093\\
27	0.0734580287558902\\
28	0.0358315656953253\\
29	0.0179563195827385\\
30	0.0169149242156914\\
31	0.0179798517146348\\
32	0.0199431506445131\\
33	0.0279225394655299\\
34	0.0908594243819801\\
35	0.0439964246924232\\
36	0.330890477505262\\
37	0.037800506563543\\
38	0.020261933748638\\
39	0.0138181229977315\\
40	0.0211497159554441\\
41	0.0112042208144458\\
42	0.00964538908702694\\
43	0.00864780826327016\\
44	0.00787736374270682\\
45	0.00720180133294831\\
46	0.00651453200193765\\
47	0.00565492088107664\\
48	0.0112814316241706\\
49	0.0075966567083061\\
50	0.0102713040739602\\
51	0.00787142060243747\\
52	0.00711780022683946\\
53	0.00668443537322835\\
54	0.00638223966522588\\
55	0.00615487020840034\\
56	0.00598242225636516\\
57	0.00586293416152974\\
58	0.00581626175933958\\
59	0.00593494184987807\\
60	0.00707647204853056\\
61	0.00861312572402681\\
62	0.00240649054353041\\
63	0.0036902508247688\\
64	0.0040125763148678\\
65	0.00408542983582614\\
66	0.00408934467211144\\
67	0.00406760360864643\\
68	0.00403657730104579\\
69	0.00400486664899167\\
70	0.00397913876457006\\
71	0.00396763365360209\\
72	0.00398577860522856\\
73	0.00407460869510253\\
74	0.00440882178496405\\
75	0.00852319154542653\\
76	0.00211982859547221\\
77	0.00279674481878385\\
78	0.00295234209521732\\
79	0.00299967450324673\\
80	0.00300734384297471\\
81	0.00299658049652506\\
82	0.00297609501762909\\
83	0.00295010695632826\\
84	0.00292089738309008\\
85	0.00288979839106794\\
86	0.00285763293534116\\
87	0.00282493110979805\\
88	0.00279204510261472\\
89	0.00275921420187501\\
90	0.00272660345813555\\
91	0.00269432766245323\\
92	0.00266246675038502\\
93	0.00263107599882434\\
94	0.00260019295165966\\
95	0.00256984222925479\\
96	0.00254003893333548\\
97	0.0025107910982644\\
98	0.00248210148178531\\
99	0.00245396889001376\\
100	0.00242638916874131\\
101	0.00239935595223708\\
102	0.00237286123354156\\
103	0.00234689580183488\\
104	0.00232144957979209\\
105	0.00229651188498403\\
106	0.00227207163310714\\
107	0.0022481174963278\\
108	0.00222463802675857\\
109	0.00220162175268604\\
110	0.00217905725339276\\
111	0.0021569332170867\\
112	0.00213523848544673\\
113	0.00211396208753109\\
114	0.00209309326520902\\
115	0.00207262149182518\\
116	0.00205253648545491\\
117	0.00203282821783402\\
118	0.00201348691983224\\
119	0.00199450308416773\\
120	0.00197586746592614\\
121	0.00195757108133911\\
122	0.0019396052051902\\
123	0.0019219613671484\\
124	0.00190463134727109\\
125	0.00188760717087541\\
126	0.00187088110293773\\
127	0.00185444564215264\\
128	0.0018382935147574\\
129	0.00182241766820821\\
130	0.00180681126477794\\
131	0.00179146767513212\\
132	0.00177638047192757\\
133	0.00176154342347035\\
134	0.00174695048746156\\
135	0.0017325958048528\\
136	0.00171847369382931\\
137	0.00170457864393352\\
138	0.0016909053103386\\
139	0.00167744850827835\\
140	0.00166420320763913\\
141	0.00165116452771496\\
142	0.00163832773212761\\
143	0.00162568822391149\\
144	0.00161324154076111\\
145	0.0016009833504405\\
146	0.00158890944635072\\
147	0.00157701574325256\\
148	0.00156529827314105\\
149	0\\
150	0\\
};
\addlegendentry{$\mathbf{h_1}$}

\addplot [color=mycolor2]
  table[row sep=crcr]{%
1	0.019775303219206\\
2	0.0210217764534023\\
3	0.0224372323963497\\
4	0.024058742711813\\
5	0.0259351263737046\\
6	0.0281320174688059\\
7	0.0307398096072034\\
8	0.0338865833958781\\
9	0.0377600935275399\\
10	0.0426472101764649\\
11	0.0490094599986528\\
12	0.0576401827385178\\
13	0.0700288298559564\\
14	0.0893407156606893\\
15	0.123700774100431\\
16	0.202175033398071\\
17	0.564479813098353\\
18	0.690442426104836\\
19	0.212260509632627\\
20	0.126132345068284\\
21	0.100380135781766\\
22	0.0378663697499036\\
23	0.0333199748773482\\
24	0.0149453064107011\\
25	0.10083899339379\\
26	0.161002397050911\\
27	0.0405118251764787\\
28	0.0383644765554957\\
29	0.0341227495803863\\
30	0.0306469105251072\\
31	0.0278570926171954\\
32	0.0255709383506331\\
33	0.0236574529195357\\
34	0.0220274984760589\\
35	0.0206190941704396\\
36	0.0193877726649002\\
37	0.0183006807256663\\
38	0.0173329207549748\\
39	0.016465211935799\\
40	0.0156823459816501\\
41	0.0149721364414517\\
42	0.0143246843629073\\
43	0.0137318527665838\\
44	0.0131868826449622\\
45	0.0126841071808284\\
46	0.0122187355837443\\
47	0.0117866872087634\\
48	0.0113844626077037\\
49	0.0110090421200206\\
50	0.0106578052804057\\
51	0\\
52	0\\
53	0\\
54	0\\
55	0\\
56	0\\
57	0\\
58	0\\
59	0\\
60	0\\
61	0\\
62	0\\
63	0\\
64	0\\
65	0\\
66	0\\
67	0\\
68	0\\
69	0\\
70	0\\
71	0\\
72	0\\
73	0\\
74	0\\
75	0\\
76	0\\
77	0\\
78	0\\
79	0\\
80	0\\
81	0\\
82	0\\
83	0\\
84	0\\
85	0\\
86	0\\
87	0\\
88	0\\
89	0\\
90	0\\
91	0\\
92	0\\
93	0\\
94	0\\
95	0\\
96	0\\
97	0\\
98	0\\
99	0\\
100	0\\
101	0\\
102	0\\
103	0\\
104	0\\
105	0\\
106	0\\
107	0\\
108	0\\
109	0\\
110	0\\
111	0\\
112	0\\
113	0\\
114	0\\
115	0\\
116	0\\
117	0\\
118	0\\
119	0\\
120	0\\
121	0\\
122	0\\
123	0\\
124	0\\
125	0\\
126	0\\
127	0\\
128	0\\
129	0\\
130	0\\
131	0\\
132	0\\
133	0\\
134	0\\
135	0\\
136	0\\
137	0\\
138	0\\
139	0\\
140	0\\
141	0\\
142	0\\
143	0\\
144	0\\
145	0\\
146	0\\
147	0\\
148	0\\
149	0\\
150	0\\
};
\addlegendentry{$\mathbf{h_{2}}$}

\end{axis}

\begin{axis}[%
width=1.935in,
height=3.2in,
at={(3.327in,0.512in)},
scale only axis,
xmin=0,
xmax=150,
xlabel style={font=\color{white!15!black}, align=center},
xlabel={Sample Index\\[1ex](b) Estimated},
ymin=0,
ymax=1,
axis background/.style={fill=white},
legend style={legend cell align=left, align=left, draw=white!15!black}
]
\addplot [color=mycolor1]
  table[row sep=crcr]{%
0	0.00367644430277591\\
1	0.01327270536789\\
2	0.000521923541033586\\
3	0.00142603178030859\\
4	0.015235593462919\\
5	0.0043452014889691\\
6	0.0133394133724414\\
7	0.00894327242732779\\
8	0.0120234112931735\\
9	0.00385703607553507\\
10	0.0100491165314982\\
11	0.0207091165281196\\
12	0.0193893074635932\\
13	0.0121760122629724\\
14	0.0153271825719741\\
15	0.0209065724392058\\
16	0.0105345725818529\\
17	0.0099361396917265\\
18	0.0160349374106469\\
19	0.0202965149340126\\
20	0.00881530184115582\\
21	0.00255016531335225\\
22	0.0137751157897973\\
23	0.00913984570233839\\
24	0.0135343378691026\\
25	0.0176518112681193\\
26	0.0132259236674544\\
27	0.0102979485764525\\
28	0.0160951175460794\\
29	0.00810526071273556\\
30	0.015246468373194\\
31	0.0121297226752197\\
32	0.00624423657135903\\
33	0.0136442318454694\\
34	0.00637121489619861\\
35	0.00824194261112448\\
36	0.00898644602468893\\
37	0.00993602877243517\\
38	0.0130706020243805\\
39	0.0149473814798757\\
40	0.0141126338468612\\
41	0.00576530810443448\\
42	0.0201293336436443\\
43	0.00757095913877352\\
44	0.00912106223685583\\
45	0.0171942930330767\\
46	0.0315851129923562\\
47	0.00993949508815927\\
48	0.00788497038843655\\
49	0.014677295306391\\
50	0.0371795521395172\\
51	0.0105026605342538\\
52	0.0276136868302428\\
53	0.0273717037901513\\
54	0.019608607695475\\
55	0.0146928613652365\\
56	0.0240188762425286\\
57	0.120134709545531\\
58	0.0410043372921991\\
59	0.0163795641041903\\
60	0.0351086105325178\\
61	0.0314415999332313\\
62	0.0232677428638766\\
63	0.156014208549753\\
64	0.0341878122373724\\
65	0.494271959835812\\
66	0.400917325685491\\
67	0.0961499191502707\\
68	0.0593007972864379\\
69	0.0646932197069068\\
70	0.121609102569735\\
71	0.0455021622512843\\
72	0.0488871733831514\\
73	0.0278357433852045\\
74	0.0243366204962178\\
75	0.0638360779662322\\
76	0.070999621727898\\
77	0.2862331063785\\
78	0.480119742810643\\
79	0.161083847698143\\
80	0.0423600669657565\\
81	0.0298306005862451\\
82	0.111280392950934\\
83	0.0420682612599082\\
84	0.108588178460884\\
85	0.010559509545766\\
86	0.0207597272924223\\
87	0.030824308918797\\
88	0.0264887521806415\\
89	0.00914388855186219\\
90	0.0447289947831827\\
91	0.100863025556432\\
92	0.280958444455865\\
93	0.130315753730183\\
94	0.0316987208364047\\
95	0.0328257515336756\\
96	0.00466361680074238\\
97	0.0162202235842616\\
98	0.0251976853879861\\
99	0.00816530971726835\\
100	0.0227404246990233\\
101	0.00690604824947043\\
102	0.0021337888467348\\
103	0.0108776222472202\\
104	0.000580603451126123\\
105	0.0133949358407719\\
106	0.00864912214920784\\
107	0.0115297507405627\\
108	0.012900011888736\\
109	0.0159994342442637\\
110	0.00956894134972256\\
111	0.00636059556088543\\
112	0.0373963274673561\\
113	0.0143856598802765\\
114	0.00644865815910866\\
115	0.0084603990021022\\
116	0.0183275515914837\\
117	0.0247544332562298\\
118	0.00324090953616198\\
119	0.0197932552533059\\
120	0.021213261946324\\
121	0.0124136868136098\\
122	0.0125573033732236\\
123	0.0100940015810627\\
124	0.0314516900229446\\
125	0.0139904002767846\\
126	0.00131058526423677\\
127	0.00318796108263073\\
128	0.0302638417696897\\
129	0.0145543344515454\\
130	0.00742879490544916\\
131	0.01280006827994\\
132	0.0228550520916883\\
133	0.0149310347751867\\
134	0.00510493798406616\\
135	0.00407445300040757\\
136	0.0110790494068115\\
137	0.00792080138645541\\
138	0.00951414353384219\\
139	0.00100235557419226\\
140	0.016497225301067\\
141	0.00743034266633126\\
142	0.00800405985396968\\
143	0.00698270874354653\\
144	0.0113994536891777\\
145	0.00330866307905969\\
146	0.00928503303017535\\
147	0.0146020220410727\\
148	0.00997471259812772\\
149	0.0132395327217148\\
};
\addlegendentry{$\mathbf{\hat{h}_{1}}$}

\addplot [color=mycolor2]
  table[row sep=crcr]{%
0	2.699861688954e-05\\
1	4.63808142748351e-05\\
2	3.90507558638266e-05\\
3	2.80855352823442e-05\\
4	4.54476945077846e-05\\
5	4.25312746556557e-05\\
6	5.26451496992437e-05\\
7	0.000101948325183803\\
8	3.44569871294633e-05\\
9	2.40984617610859e-05\\
10	4.46856048542939e-05\\
11	5.07183660348499e-05\\
12	3.42212452443441e-05\\
13	2.25505867564337e-05\\
14	2.95266442187924e-05\\
15	8.41812374082425e-05\\
16	2.72183069272518e-05\\
17	2.19923103328817e-06\\
18	2.59952200608025e-05\\
19	6.30552085852313e-05\\
20	6.86017853520865e-06\\
21	5.19289169432225e-05\\
22	6.20333324471351e-05\\
23	4.85274743116342e-05\\
24	5.44110016695773e-05\\
25	8.97938773116731e-06\\
26	4.10022086418787e-05\\
27	9.71250404845873e-05\\
28	5.48405938162981e-05\\
29	1.11436519374387e-05\\
30	2.42468882178649e-05\\
31	2.58678691149726e-05\\
32	3.57400065543441e-05\\
33	6.791889559284e-05\\
34	3.3587694630135e-05\\
35	4.85564678445087e-05\\
36	3.81168348199953e-05\\
37	7.48643881629435e-06\\
38	5.48317893436311e-05\\
39	4.75475500033487e-05\\
40	6.63761028852407e-05\\
41	8.40309023585473e-06\\
42	9.80659463733298e-05\\
43	4.79072636908922e-05\\
44	6.83478669683379e-05\\
45	9.34286712628142e-05\\
46	5.60963448091446e-05\\
47	0.000486140694683193\\
48	8.60784182090988e-05\\
49	0.000126357308707481\\
50	6.26121062150113e-05\\
51	1.76336545007055e-05\\
52	3.62901089562787e-05\\
53	7.6193260416246e-05\\
54	0.000130799768334749\\
55	9.3954735890557e-05\\
56	3.58635282763177e-05\\
57	0.000197320563688179\\
58	9.16080570207844e-05\\
59	0.000501047737490457\\
60	0.000314736807210294\\
61	0.000318401005486228\\
62	0.000882168754984625\\
63	4.75280254355265e-05\\
64	0.000135862679375662\\
65	0.000130369863261212\\
66	3.48852753148874e-05\\
67	0.000109099493413375\\
68	0.000115834371810489\\
69	9.02033034611629e-05\\
70	0.000180804536009904\\
71	0.000146846694423406\\
72	0.000289080594875952\\
73	0.00026824596530932\\
74	0.999998019019946\\
75	0.000267634768660994\\
76	0.000289423011989875\\
77	0.000148340786670665\\
78	0.000179298328044976\\
79	9.08763179626421e-05\\
80	0.00011413789577233\\
81	0.000110248012798412\\
82	3.49923696014259e-05\\
83	0.000133408899166547\\
84	0.000133565066836064\\
85	4.6533650334985e-05\\
86	0.000886460580751718\\
87	0.000324214480700294\\
88	0.000311556160037896\\
89	0.000501267002661979\\
90	9.15665939853746e-05\\
91	0.000195061779771489\\
92	3.52885335477606e-05\\
93	9.52069817918459e-05\\
94	0.000129375152250107\\
95	7.85018499121374e-05\\
96	3.00814658117859e-05\\
97	2.2004801878753e-05\\
98	5.56311030570764e-05\\
99	0.000122213900227403\\
100	8.41356386710702e-05\\
101	0.000481590936322923\\
102	5.60692652069499e-05\\
103	0.000103917374751548\\
104	5.87363723487533e-05\\
105	4.54316890568429e-05\\
106	9.47213961529725e-05\\
107	2.01016719937832e-05\\
108	7.44666985534182e-05\\
109	5.64796912508792e-05\\
110	5.16415893455063e-05\\
111	1.20713061671041e-05\\
112	3.99308122916012e-05\\
113	4.50729443905849e-05\\
114	2.71671914966528e-05\\
115	6.97319669717239e-05\\
116	2.97346407467409e-05\\
117	2.79452768823181e-05\\
118	2.43718285861585e-05\\
119	1.94957537447783e-05\\
120	5.14348788730186e-05\\
121	0.000104525399010572\\
122	4.98813356112072e-05\\
123	2.11923894334513e-05\\
124	4.85868444375067e-05\\
125	6.38962438977741e-05\\
126	6.33391828384345e-05\\
127	4.93172264117342e-05\\
128	2.07930755281006e-05\\
129	6.71622194148837e-05\\
130	1.11274729217201e-05\\
131	1.51909480878096e-05\\
132	2.29559108034609e-05\\
133	9.00652376060881e-05\\
134	3.45197636678107e-05\\
135	2.72366936070375e-05\\
136	3.59175959640292e-05\\
137	6.45938421168593e-05\\
138	3.67262155451531e-05\\
139	1.47082983729397e-05\\
140	2.91730354657946e-05\\
141	8.49393466625269e-05\\
142	4.55392356716385e-05\\
143	6.29319186345881e-05\\
144	2.55339490146431e-05\\
145	3.4693078467052e-05\\
146	4.0340644526007e-05\\
147	3.83353225694164e-05\\
148	2.87123741767937e-05\\
149	2.27150717180473e-05\\
};
\addlegendentry{$\mathbf{\hat{h}_{2}}$}

\end{axis}
\end{tikzpicture}%