% This file was created by matlab2tikz.
%
%The latest updates can be retrieved from
%  http://www.mathworks.com/matlabcentral/fileexchange/22022-matlab2tikz-matlab2tikz
%where you can also make suggestions and rate matlab2tikz.
%
\definecolor{mycolor1}{rgb}{0.00000,0.44700,0.74100}%
\definecolor{mycolor2}{rgb}{0.85000,0.32500,0.09800}%
%
\begin{tikzpicture}

\begin{axis}[%
width=1.935in,
height=3.2in,
at={(0.758in,0.512in)},
scale only axis,
xmin=0,
xmax=150,
xlabel style={font=\color{white!15!black}, align=center},
xlabel={Sample Index\\[1ex](a) Actual},
ymin=0,
ymax=0.7,
axis background/.style={fill=white},
legend style={legend cell align=left, align=left, draw=white!15!black}
]
\addplot [color=mycolor1]
  table[row sep=crcr]{%
1	0.0234657806037261\\
2	0.0272334504034075\\
3	0.0326864300765018\\
4	0.0414541482980318\\
5	0.0586677033458464\\
6	0.117843438362983\\
7	0.159969331461504\\
8	0.174397116945152\\
9	0.616552810702634\\
10	0.0882137642931462\\
11	0.0472681903124796\\
12	0.0327587509505929\\
13	0.0272256709659274\\
14	0.0412344622245766\\
15	0.0186762848129325\\
16	0.0451940046978057\\
17	0.0153724087875252\\
18	0.0239672675363248\\
19	0.0400285717874473\\
20	0.0828333966509162\\
21	0.557624977131952\\
22	0.149414784250917\\
23	0.109138078132702\\
24	0.0381681231028791\\
25	0.032799759178118\\
26	0.191519461959093\\
27	0.0734580287558902\\
28	0.0358315656953253\\
29	0.0179563195827385\\
30	0.0169149242156914\\
31	0.0179798517146348\\
32	0.0199431506445131\\
33	0.0279225394655299\\
34	0.0908594243819801\\
35	0.0439964246924232\\
36	0.330890477505262\\
37	0.037800506563543\\
38	0.020261933748638\\
39	0.0138181229977315\\
40	0.0211497159554441\\
41	0.0112042208144458\\
42	0.00964538908702694\\
43	0.00864780826327016\\
44	0.00787736374270682\\
45	0.00720180133294831\\
46	0.00651453200193765\\
47	0.00565492088107664\\
48	0.0112814316241706\\
49	0.0075966567083061\\
50	0.0102713040739602\\
51	0.00787142060243747\\
52	0.00711780022683946\\
53	0.00668443537322835\\
54	0.00638223966522588\\
55	0.00615487020840034\\
56	0.00598242225636516\\
57	0.00586293416152974\\
58	0.00581626175933958\\
59	0.00593494184987807\\
60	0.00707647204853056\\
61	0.00861312572402681\\
62	0.00240649054353041\\
63	0.0036902508247688\\
64	0.0040125763148678\\
65	0.00408542983582614\\
66	0.00408934467211144\\
67	0.00406760360864643\\
68	0.00403657730104579\\
69	0.00400486664899167\\
70	0.00397913876457006\\
71	0.00396763365360209\\
72	0.00398577860522856\\
73	0.00407460869510253\\
74	0.00440882178496405\\
75	0.00852319154542653\\
76	0.00211982859547221\\
77	0.00279674481878385\\
78	0.00295234209521732\\
79	0.00299967450324673\\
80	0.00300734384297471\\
81	0.00299658049652506\\
82	0.00297609501762909\\
83	0.00295010695632826\\
84	0.00292089738309008\\
85	0.00288979839106794\\
86	0.00285763293534116\\
87	0.00282493110979805\\
88	0.00279204510261472\\
89	0.00275921420187501\\
90	0.00272660345813555\\
91	0.00269432766245323\\
92	0.00266246675038502\\
93	0.00263107599882434\\
94	0.00260019295165966\\
95	0.00256984222925479\\
96	0.00254003893333548\\
97	0.0025107910982644\\
98	0.00248210148178531\\
99	0.00245396889001376\\
100	0.00242638916874131\\
101	0.00239935595223708\\
102	0.00237286123354156\\
103	0.00234689580183488\\
104	0.00232144957979209\\
105	0.00229651188498403\\
106	0.00227207163310714\\
107	0.0022481174963278\\
108	0.00222463802675857\\
109	0.00220162175268604\\
110	0.00217905725339276\\
111	0.0021569332170867\\
112	0.00213523848544673\\
113	0.00211396208753109\\
114	0.00209309326520902\\
115	0.00207262149182518\\
116	0.00205253648545491\\
117	0.00203282821783402\\
118	0.00201348691983224\\
119	0.00199450308416773\\
120	0.00197586746592614\\
121	0.00195757108133911\\
122	0.0019396052051902\\
123	0.0019219613671484\\
124	0.00190463134727109\\
125	0.00188760717087541\\
126	0.00187088110293773\\
127	0.00185444564215264\\
128	0.0018382935147574\\
129	0.00182241766820821\\
130	0.00180681126477794\\
131	0.00179146767513212\\
132	0.00177638047192757\\
133	0.00176154342347035\\
134	0.00174695048746156\\
135	0.0017325958048528\\
136	0.00171847369382931\\
137	0.00170457864393352\\
138	0.0016909053103386\\
139	0.00167744850827835\\
140	0.00166420320763913\\
141	0.00165116452771496\\
142	0.00163832773212761\\
143	0.00162568822391149\\
144	0.00161324154076111\\
145	0.0016009833504405\\
146	0.00158890944635072\\
147	0.00157701574325256\\
148	0.00156529827314105\\
149	0\\
150	0\\
};
\addlegendentry{$\mathbf{h_1}$}

\addplot [color=mycolor2]
  table[row sep=crcr]{%
1	0.019775303219206\\
2	0.0210217764534023\\
3	0.0224372323963497\\
4	0.024058742711813\\
5	0.0259351263737046\\
6	0.0281320174688059\\
7	0.0307398096072034\\
8	0.0338865833958781\\
9	0.0377600935275399\\
10	0.0426472101764649\\
11	0.0490094599986528\\
12	0.0576401827385178\\
13	0.0700288298559564\\
14	0.0893407156606893\\
15	0.123700774100431\\
16	0.202175033398071\\
17	0.564479813098353\\
18	0.690442426104836\\
19	0.212260509632627\\
20	0.126132345068284\\
21	0.100380135781766\\
22	0.0378663697499036\\
23	0.0333199748773482\\
24	0.0149453064107011\\
25	0.10083899339379\\
26	0.161002397050911\\
27	0.0405118251764787\\
28	0.0383644765554957\\
29	0.0341227495803863\\
30	0.0306469105251072\\
31	0.0278570926171954\\
32	0.0255709383506331\\
33	0.0236574529195357\\
34	0.0220274984760589\\
35	0.0206190941704396\\
36	0.0193877726649002\\
37	0.0183006807256663\\
38	0.0173329207549748\\
39	0.016465211935799\\
40	0.0156823459816501\\
41	0.0149721364414517\\
42	0.0143246843629073\\
43	0.0137318527665838\\
44	0.0131868826449622\\
45	0.0126841071808284\\
46	0.0122187355837443\\
47	0.0117866872087634\\
48	0.0113844626077037\\
49	0.0110090421200206\\
50	0.0106578052804057\\
51	0\\
52	0\\
53	0\\
54	0\\
55	0\\
56	0\\
57	0\\
58	0\\
59	0\\
60	0\\
61	0\\
62	0\\
63	0\\
64	0\\
65	0\\
66	0\\
67	0\\
68	0\\
69	0\\
70	0\\
71	0\\
72	0\\
73	0\\
74	0\\
75	0\\
76	0\\
77	0\\
78	0\\
79	0\\
80	0\\
81	0\\
82	0\\
83	0\\
84	0\\
85	0\\
86	0\\
87	0\\
88	0\\
89	0\\
90	0\\
91	0\\
92	0\\
93	0\\
94	0\\
95	0\\
96	0\\
97	0\\
98	0\\
99	0\\
100	0\\
101	0\\
102	0\\
103	0\\
104	0\\
105	0\\
106	0\\
107	0\\
108	0\\
109	0\\
110	0\\
111	0\\
112	0\\
113	0\\
114	0\\
115	0\\
116	0\\
117	0\\
118	0\\
119	0\\
120	0\\
121	0\\
122	0\\
123	0\\
124	0\\
125	0\\
126	0\\
127	0\\
128	0\\
129	0\\
130	0\\
131	0\\
132	0\\
133	0\\
134	0\\
135	0\\
136	0\\
137	0\\
138	0\\
139	0\\
140	0\\
141	0\\
142	0\\
143	0\\
144	0\\
145	0\\
146	0\\
147	0\\
148	0\\
149	0\\
150	0\\
};
\addlegendentry{$\mathbf{h_{2}}$}

\end{axis}

\begin{axis}[%
width=1.935in,
height=3.2in,
at={(3.327in,0.512in)},
scale only axis,
xmin=0,
xmax=300,
xlabel style={font=\color{white!15!black}, align=center},
xlabel={Sample Index\\[1ex](b) Estimated},
ymin=0,
ymax=0.14,
axis background/.style={fill=white},
legend style={legend cell align=left, align=left, draw=white!15!black}
]
\addplot [color=mycolor1]
  table[row sep=crcr]{%
0	0.00164394114566491\\
1	0.000905016636588483\\
2	0.00164898360524733\\
3	0.0021491837871695\\
4	0.00224751947089987\\
5	0.00652212938815423\\
6	0.0174096522380614\\
7	0.0185091825482988\\
8	0.0611131146039689\\
9	0.0684024868026365\\
10	0.0639460311665875\\
11	0.0618586158328827\\
12	0.0632467086797004\\
13	0.0649312078017845\\
14	0.0619218632635755\\
15	0.0638153867325631\\
16	0.0693479053774841\\
17	0.0732560815476624\\
18	0.07265436714656\\
19	0.0702240419350029\\
20	0.079268462199772\\
21	0.0850559777128056\\
22	0.0813350716569623\\
23	0.0768331516843914\\
24	0.0764467022823571\\
25	0.0732978858959886\\
26	0.0755544933791989\\
27	0.0776069088558114\\
28	0.0755554677365248\\
29	0.0761702685982835\\
30	0.0786387384267563\\
31	0.076244967270338\\
32	0.0746162994784407\\
33	0.0725409322740134\\
34	0.0758930028124129\\
35	0.0791103477481331\\
36	0.0738926461673919\\
37	0.0767339394617796\\
38	0.0796465553612054\\
39	0.0800408522865172\\
40	0.0764976408816936\\
41	0.0722799617789031\\
42	0.0737630621108147\\
43	0.0794931055918662\\
44	0.0780642758788195\\
45	0.0772422037997812\\
46	0.0805170730153147\\
47	0.0858718037945478\\
48	0.0781444346260173\\
49	0.0778771667855566\\
50	0.0764783470142086\\
51	0.0778596481871311\\
52	0.0772112898639161\\
53	0.0753937312033347\\
54	0.0761670924703528\\
55	0.0784790379171873\\
56	0.0828895305481091\\
57	0.0875620660486194\\
58	0.0857208869418102\\
59	0.085942400760712\\
60	0.084908868879589\\
61	0.0830999081334071\\
62	0.0808922386267413\\
63	0.0810752439209964\\
64	0.0862765828246026\\
65	0.0875914244608181\\
66	0.0849456960237279\\
67	0.0819575340943809\\
68	0.0814541985546954\\
69	0.0832641192744689\\
70	0.0821998977589393\\
71	0.081035494588984\\
72	0.0852314449072698\\
73	0.0882738575222921\\
74	0.0877507253706347\\
75	0.0843283562028471\\
76	0.0854461141230809\\
77	0.0821655427318651\\
78	0.0801076621882855\\
79	0.0744434893620569\\
80	0.0783341197620686\\
81	0.0797716011099407\\
82	0.078874096917593\\
83	0.0810843167012978\\
84	0.0823550916222979\\
85	0.0815485965449178\\
86	0.0816454698620872\\
87	0.0782358221203214\\
88	0.073833305284773\\
89	0.0764129997777388\\
90	0.0774118859976502\\
91	0.0765012100685764\\
92	0.0738955251075516\\
93	0.0737054470621113\\
94	0.0785298976750115\\
95	0.0768930162459452\\
96	0.0738271367535522\\
97	0.0727127891028441\\
98	0.0710981702891814\\
99	0.0747087117860752\\
100	0.0744503853958996\\
101	0.0749152886870132\\
102	0.0776898624708354\\
103	0.0817911316060526\\
104	0.0847056929685077\\
105	0.084424832577083\\
106	0.08630252768302\\
107	0.0856052186276183\\
108	0.0852300800951549\\
109	0.0837660718765271\\
110	0.087733757589846\\
111	0.0889080015318962\\
112	0.0861839776303292\\
113	0.0840165073854901\\
114	0.0833044270701992\\
115	0.0848677460968796\\
116	0.0807183448689025\\
117	0.0783099164593994\\
118	0.0792582229227778\\
119	0.0826112848703543\\
120	0.0853720374760703\\
121	0.0841186597975573\\
122	0.0801730772033881\\
123	0.0801591505174714\\
124	0.0801703720506574\\
125	0.0780532671970131\\
126	0.0763717880601193\\
127	0.0749449711443432\\
128	0.076573522968374\\
129	0.0795298117172409\\
130	0.0776385185197102\\
131	0.0780102688103443\\
132	0.0821571640471663\\
133	0.0856379475183992\\
134	0.0854806071553448\\
135	0.0819510460668165\\
136	0.0809687708168086\\
137	0.082356828452431\\
138	0.0802599296598442\\
139	0.0786707678892829\\
140	0.0805885043253005\\
141	0.0845489337329704\\
142	0.0834853507870451\\
143	0.0817233148345356\\
144	0.0778806558272056\\
145	0.0834996518700059\\
146	0.086192915178805\\
147	0.0817965805029077\\
148	0.0871431460520164\\
149	0.0867852264929175\\
150	0.0890174047744448\\
151	0.0877608661455117\\
152	0.0870328880902683\\
153	0.0870252644558747\\
154	0.081957996059575\\
155	0.0838527098244602\\
156	0.0785117184958585\\
157	0.0759275425765361\\
158	0.0804363730880624\\
159	0.0818121214901576\\
160	0.0744843619560798\\
161	0.0586860925600695\\
162	0.0575572312176282\\
163	0.0479635646881692\\
164	0.0429001850427285\\
165	0.037713062128835\\
166	0.0401557291917158\\
167	0.0438278290908621\\
168	0.045463808115617\\
169	0.0445167727489806\\
170	0.0464936850634853\\
171	0.0444795045216931\\
172	0.0454692321458416\\
173	0.0182060484442051\\
174	0.0177517771887534\\
175	0.0174274891655899\\
176	0.0182296923887324\\
177	0.0181428236709812\\
178	0.0213690570631409\\
179	0.0135468491845654\\
180	0.0161634156669642\\
181	0.0192601987727581\\
182	0.0205163013191342\\
183	0.019538583290263\\
184	0.0176093696936535\\
185	0.0192023093315505\\
186	0.0229078563252748\\
187	0.0213768986188222\\
188	0.0064482263531924\\
189	0.010134480003315\\
190	0.00591550286265583\\
191	0.00303919456929122\\
192	0.0014836980351668\\
193	0.00286863574383958\\
194	0.0021851928400085\\
195	0.000274287810598077\\
196	0.00262268918930909\\
197	0.0026466623752793\\
198	0.00133164081511293\\
199	0.000535614032875289\\
200	0.000113111622605459\\
201	0.000189267395732429\\
202	0.00180951425774482\\
203	0.00322683295068775\\
204	0.00437801667294899\\
205	0.00216755941283499\\
206	0.00109062783630315\\
207	0.000994499781906289\\
208	0.000378669667258547\\
209	0.00102498982223425\\
210	0.000896777679585238\\
211	0.00159662736341703\\
212	0.00144919911952592\\
213	0.000883869570472762\\
214	0.000774193615547306\\
215	0.00027691144710507\\
216	0.000363898500438253\\
217	0.000352433273977858\\
218	0.000332336758034455\\
219	0.000609237585924769\\
220	0.00042215225990075\\
221	0.000776396997241033\\
222	0.000413844461543547\\
223	0.000595843695608515\\
224	0.000579925170838623\\
225	0.000376621541956726\\
226	0.000727932809951532\\
227	0.000225564155261376\\
228	0.000593943252343\\
229	0.000331410404196569\\
230	0.000308115922786618\\
231	0.000204926470464512\\
232	0.000171332442223609\\
233	0.000224585958167937\\
234	5.55417035556445e-05\\
235	0.000304358381424747\\
236	0.000154229431572283\\
237	0.000245650575450475\\
238	0.000212349300730787\\
239	0.000109537332078425\\
240	0.00020456504897606\\
241	9.23117499570168e-05\\
242	0.000210145995480608\\
243	0.000216813772197394\\
244	0.000166165648116964\\
245	0.000190217095963413\\
246	0.000103781841193079\\
247	0.000204108369354982\\
248	7.63746745958543e-05\\
249	0.000178387485027457\\
250	0.000140032646936193\\
251	0.000130674355317358\\
252	0.000186224298600436\\
253	7.83314248309115e-05\\
254	0.000185702746370349\\
255	7.85832228254659e-05\\
256	0.000160299319683102\\
257	0.000120186802502764\\
258	0.000110458535537895\\
259	0.00015494583006737\\
260	6.30689380155526e-05\\
261	0.000161400715210643\\
262	7.58850652821733e-05\\
263	0.000129032819125684\\
264	0.000113991010464701\\
265	9.4564083081451e-05\\
266	0.000136296945805398\\
267	6.04830757179145e-05\\
268	0.000137576185491482\\
269	7.56165592008353e-05\\
270	0.000112531543349878\\
271	0.000117541359515508\\
272	6.56106055826393e-05\\
273	0.000142280867125933\\
274	4.72168288681965e-05\\
275	0.000128313332798817\\
276	9.24698007124342e-05\\
277	8.58093424986816e-05\\
278	0.000117730926993347\\
279	3.70355556090972e-05\\
280	0.000130835631471015\\
281	4.12706442419958e-05\\
282	0.000111098961527958\\
283	8.23912912564808e-05\\
284	6.84418555746654e-05\\
285	0.000108814006181258\\
286	3.16687987782016e-05\\
287	0.000110379361170051\\
288	5.29728376407703e-05\\
289	8.75725346420227e-05\\
290	8.8839177978737e-05\\
291	5.65098917007708e-05\\
292	9.99310157757581e-05\\
293	1.15763075716557e-05\\
294	9.93686650941188e-05\\
295	4.50168126516452e-05\\
296	7.31131431705216e-05\\
297	7.6684426838685e-05\\
298	3.58917546894306e-05\\
299	9.42644568925746e-05\\
};
\addlegendentry{$\mathbf{\hat{h}_{1}}$}

\addplot [color=mycolor2]
  table[row sep=crcr]{%
0	0.00225861218215164\\
1	0.00115506626927663\\
2	0.00191903979160595\\
3	0.00222826836802577\\
4	0.00122480899696854\\
5	0.00295196133865416\\
6	0.00120732631893563\\
7	0.00329322764507542\\
8	0.00262661463650615\\
9	0.00313653527678613\\
10	0.00468523990701636\\
11	0.00324433838379236\\
12	0.00628888260973893\\
13	0.0057465827654174\\
14	0.0101390606654721\\
15	0.0156510180551217\\
16	0.0512253136861505\\
17	0.126570946993657\\
18	0.110465851775507\\
19	0.111516721301283\\
20	0.105152497855844\\
21	0.109045277194955\\
22	0.106136090939201\\
23	0.102732494562868\\
24	0.0980794147891488\\
25	0.0943351250028641\\
26	0.105477055805576\\
27	0.110943779337457\\
28	0.0923904456190931\\
29	0.0841247814613993\\
30	0.0810386584796416\\
31	0.0773724156404074\\
32	0.0741660130396446\\
33	0.0698847631695419\\
34	0.0786557872062383\\
35	0.0802328344973891\\
36	0.082972603398964\\
37	0.0790991508524793\\
38	0.0771670228917691\\
39	0.0808906095323764\\
40	0.0763014659648448\\
41	0.075914183772037\\
42	0.073941492797514\\
43	0.0841758902388493\\
44	0.073725562227538\\
45	0.0726743925490699\\
46	0.0782068956235925\\
47	0.0778199204438016\\
48	0.0744036351044503\\
49	0.0610179010835779\\
50	0.0600486479829044\\
51	0.0652382481357298\\
52	0.0696820747583928\\
53	0.0731083939416564\\
54	0.0781971203470909\\
55	0.0810186510052308\\
56	0.0785217450015942\\
57	0.0763934395556963\\
58	0.066874952631431\\
59	0.0665139576794074\\
60	0.0722880018343834\\
61	0.0782328479972899\\
62	0.0803206817733873\\
63	0.0768003041069724\\
64	0.0788948264213162\\
65	0.0877894757038473\\
66	0.0842824305882752\\
67	0.0805478337813684\\
68	0.0882299328621942\\
69	0.0916120116312569\\
70	0.0906025968555297\\
71	0.0829032498981895\\
72	0.0864909038421039\\
73	0.0834626288974033\\
74	0.0803643800385392\\
75	0.0704905325938434\\
76	0.0679094041588877\\
77	0.0701467942626439\\
78	0.0722178537330995\\
79	0.0720199251992751\\
80	0.0687089897563742\\
81	0.0699907876048269\\
82	0.0741212094155077\\
83	0.0801325606880255\\
84	0.0749909648593266\\
85	0.0755174993215367\\
86	0.0777797919308133\\
87	0.0726087408954293\\
88	0.0693649592891238\\
89	0.0724093831954583\\
90	0.0763028905089642\\
91	0.0747074204228459\\
92	0.0795235516146668\\
93	0.0768602025159466\\
94	0.0757777152789114\\
95	0.0749677399662678\\
96	0.0691211426068055\\
97	0.0694401443117014\\
98	0.0691394326539437\\
99	0.0773918342154389\\
100	0.0697447070495614\\
101	0.0648880663573356\\
102	0.0710329772602404\\
103	0.0661376495218779\\
104	0.0666752907203974\\
105	0.0684498234574842\\
106	0.0681122909689569\\
107	0.0689911852463024\\
108	0.0756678021439177\\
109	0.0708038411460052\\
110	0.0648410111734113\\
111	0.0749295138807915\\
112	0.0810387993380377\\
113	0.0847332227379057\\
114	0.0838423984101266\\
115	0.0940350687752935\\
116	0.0903462828319059\\
117	0.0835131007506246\\
118	0.0808423412727673\\
119	0.0847086929994494\\
120	0.0851438517418653\\
121	0.0825218798539579\\
122	0.0820192566738838\\
123	0.0830460945974535\\
124	0.0774204566291675\\
125	0.0718667549524726\\
126	0.0682841742145573\\
127	0.061734184833009\\
128	0.0693193077120639\\
129	0.0746840684345902\\
130	0.0775069129553598\\
131	0.0755505717749446\\
132	0.0751405129487998\\
133	0.0786229957635641\\
134	0.0761768065380374\\
135	0.0689623738680887\\
136	0.0684071823446597\\
137	0.076192929729456\\
138	0.0776363267261047\\
139	0.0765847307867282\\
140	0.0778950257359978\\
141	0.0847765693112367\\
142	0.0919006122574962\\
143	0.082008782985488\\
144	0.0808022029521826\\
145	0.0781569831593208\\
146	0.0792179753684814\\
147	0.0770076707923182\\
148	0.0854106791906719\\
149	0.0880990607765414\\
150	0.089027663389979\\
151	0.0892309995621053\\
152	0.0773243644152937\\
153	0.0740779154105091\\
154	0.0764412243291842\\
155	0.0789685096435361\\
156	0.0844972121627061\\
157	0.0877146625659931\\
158	0.0982759591352822\\
159	0.10401359541793\\
160	0.0966686407423721\\
161	0.0894787823239899\\
162	0.082019289682698\\
163	0.0871593422804416\\
164	0.087724148936254\\
165	0.0771477012906231\\
166	0.0805851860332357\\
167	0.0785818474414842\\
168	0.0956772193612921\\
169	0.0503821566024497\\
170	0.0228034131077149\\
171	0.00755131707055503\\
172	0.0178569504209978\\
173	0.0214492200529624\\
174	0.0211339857075591\\
175	0.0261511437927653\\
176	0.0230678294706169\\
177	0.0118642743171685\\
178	0.00683706429495922\\
179	0.00681148676465197\\
180	0.00352934996212967\\
181	0.00679738376562082\\
182	0.00229063139795308\\
183	0.00583889441494959\\
184	0.01072847127951\\
185	0.0146322106642143\\
186	0.0130733336529731\\
187	0.00256122145051287\\
188	0.000703700500633254\\
189	0.00182347307924561\\
190	0.00160681393622478\\
191	0.00108475331532761\\
192	0.00154525632707276\\
193	0.000447896115306713\\
194	0.00136496789210606\\
195	0.000315970724001804\\
196	0.0011363511152013\\
197	0.00108929847196803\\
198	0.000602187332190449\\
199	0.0011207058046782\\
200	0.000643870836962163\\
201	0.00136451227786412\\
202	0.000485435009903516\\
203	0.000466828628293126\\
204	0.000435329301683378\\
205	0.00040605202034731\\
206	0.00038752307395238\\
207	0.000405385460220037\\
208	0.000510306983712959\\
209	0.000642088697194674\\
210	0.000730252484638763\\
211	0.000629360960408439\\
212	0.00042863625279369\\
213	0.00024497631181271\\
214	0.000177367654256387\\
215	0.000186010610095404\\
216	0.000184366418874283\\
217	0.000176397675335834\\
218	0.000154672064771907\\
219	0.000135283743866853\\
220	0.000136534308235673\\
221	0.000142425747628204\\
222	0.000160664904715335\\
223	0.000225267153189125\\
224	0.000278737277894223\\
225	0.000251285974679808\\
226	0.00011167114553734\\
227	9.32329960603867e-06\\
228	6.97663523633225e-06\\
229	6.47518747363331e-06\\
230	8.89928071001935e-06\\
231	8.39404319000343e-06\\
232	8.55813789385959e-06\\
233	1.00239952464929e-05\\
234	1.02726260729851e-05\\
235	9.5582412407655e-06\\
236	9.24112081230596e-06\\
237	9.80654228505625e-06\\
238	1.06804320943989e-05\\
239	1.1344030591309e-05\\
240	1.18136869390505e-05\\
241	1.28495223705304e-05\\
242	1.40122518315733e-05\\
243	1.42524275674277e-05\\
244	1.27514105501753e-05\\
245	1.2034371427003e-05\\
246	1.20289490772836e-05\\
247	1.19731578758766e-05\\
248	1.21196090935276e-05\\
249	1.26207947754409e-05\\
250	1.31799460686429e-05\\
251	1.22865488430721e-05\\
252	1.20527549500031e-05\\
253	1.21147584175596e-05\\
254	1.11722325919978e-05\\
255	1.08504109497505e-05\\
256	9.37964330859966e-06\\
257	6.86165039131167e-06\\
258	7.00882865108049e-06\\
259	8.32804772460463e-06\\
260	8.99160876933161e-06\\
261	9.14098980713283e-06\\
262	7.27511537249573e-06\\
263	5.89730415717058e-06\\
264	6.34656114205784e-06\\
265	6.27718076291491e-06\\
266	5.72308435276919e-06\\
267	5.00283084721655e-06\\
268	6.89852615390735e-06\\
269	8.65831362925285e-06\\
270	8.37140360624436e-06\\
271	7.30716840916207e-06\\
272	9.02022008695917e-06\\
273	9.80105030181099e-06\\
274	9.88792866322702e-06\\
275	1.07293810294785e-05\\
276	1.16768273484621e-05\\
277	1.2552427080656e-05\\
278	1.28503130605008e-05\\
279	1.24338373907104e-05\\
280	1.17420136467026e-05\\
281	1.62167425511506e-05\\
282	2.18481611237468e-05\\
283	2.37806968919558e-05\\
284	2.34526268322528e-05\\
285	2.54479392894225e-05\\
286	2.62352251415078e-05\\
287	2.60079155922498e-05\\
288	2.70812562346057e-05\\
289	2.72533814014177e-05\\
290	2.67231210115383e-05\\
291	2.39820635799079e-05\\
292	2.03168086309835e-05\\
293	1.89228779018377e-05\\
294	2.01650641552503e-05\\
295	2.01381645170331e-05\\
296	2.85295267340045e-05\\
297	3.91658669956188e-05\\
298	4.25080085306311e-05\\
299	2.299168603019e-05\\
};
\addlegendentry{$\mathbf{\hat{h}_{2}}$}

\end{axis}
\end{tikzpicture}%