% This file was created by matlab2tikz.
%
%The latest updates can be retrieved from
%  http://www.mathworks.com/matlabcentral/fileexchange/22022-matlab2tikz-matlab2tikz
%where you can also make suggestions and rate matlab2tikz.
%
\definecolor{mycolor1}{rgb}{0.00000,0.44700,0.74100}%
\definecolor{mycolor2}{rgb}{0.85000,0.32500,0.09800}%
%
\begin{tikzpicture}

\begin{axis}[%
width=1.935in,
height=3.2in,
at={(0.758in,0.512in)},
scale only axis,
xmin=0,
xmax=200,
xlabel style={font=\color{white!15!black}, align=center},
xlabel={Sample Index\\[1ex](a) Actual},
ymin=0,
ymax=1,
axis background/.style={fill=white},
legend style={legend cell align=left, align=left, draw=white!15!black}
]
\addplot [color=mycolor1]
  table[row sep=crcr]{%
1	0.0167418731260698\\
2	0.018659722218203\\
3	0.0211495716349754\\
4	0.0245407494314006\\
5	0.029505643974117\\
6	0.0377161636169434\\
7	0.0550750576238134\\
8	0.131028403455825\\
9	0.141533477104454\\
10	0.158175166246243\\
11	0.163761757297189\\
12	0.600100605556833\\
13	0.118033417583129\\
14	0.0610914209628117\\
15	0.0426162246246858\\
16	0.0332715711707656\\
17	0.0321939439283243\\
18	0.0268871008873183\\
19	0.0316920608120786\\
20	0.0286771919664519\\
21	0.00773119825769845\\
22	0.0330073087209196\\
23	0.019415059292473\\
24	0.0177688778425817\\
25	0.0188194600762088\\
26	0.0237714798713867\\
27	0.0430806655948836\\
28	0.586023006720236\\
29	0.0970905103802927\\
30	0.0246981078960262\\
31	0.0780346253424249\\
32	0.0580455436901626\\
33	0.0681836526256362\\
34	0.163824852865525\\
35	0.0446106828365612\\
36	0.06119675966513\\
37	0.00907835157153909\\
38	0.0310093774848825\\
39	0.00125972832884384\\
40	0.005422098150711\\
41	0.0107374596162295\\
42	0.0165479326643041\\
43	0.024789327411243\\
44	0.0446277431282512\\
45	0.058019450740893\\
46	0.074843365423057\\
47	0.199666615467323\\
48	0.216838516027539\\
49	0.0783890355452335\\
50	0.0495529240878659\\
51	0.0370791446049236\\
52	0.0307530810094058\\
53	0.0155757068681131\\
54	0.0198807977432187\\
55	0.0179871495341263\\
56	0.0162887905400521\\
57	0.0148728268904216\\
58	0.0136909847461918\\
59	0.0126943671543235\\
60	0.011846112844806\\
61	0.0111233301448608\\
62	0.0105291449791113\\
63	0.0102108676347222\\
64	0.00751288118280402\\
65	0.00739035992869396\\
66	0.0116365722557393\\
67	0.00899390796280924\\
68	0.00831157148096884\\
69	0.00788086875151191\\
70	0.00754217236777393\\
71	0.00725475830161164\\
72	0.00700327644843893\\
73	0.006780818536885\\
74	0.00658453626015097\\
75	0.00641472878078445\\
76	0.00627599401250467\\
77	0.00618216997550965\\
78	0.00617516728867787\\
79	0.00642745729543014\\
80	0.00873051939586948\\
81	0.00471465923588381\\
82	0.00195996010568866\\
83	0.004980313957114\\
84	0.00475839614864904\\
85	0.00464733241660508\\
86	0.00455444244400457\\
87	0.00446749239384432\\
88	0.00438406292262191\\
89	0.00430366820355207\\
90	0.00422628355118023\\
91	0.00415201532524293\\
92	0.00408104289588831\\
93	0.00401365198230764\\
94	0.00395033763548775\\
95	0.00389203620501121\\
96	0.00384070443755282\\
97	0.00380107128140597\\
98	0.00378779867734327\\
99	0.00387836096292209\\
100	0.00228454900881806\\
101	0.00321909463290553\\
102	0.00328982387499096\\
103	0.00328100374444436\\
104	0.00325253146337885\\
105	0.00321692683031362\\
106	0.00317840637543852\\
107	0.00313876414674543\\
108	0.00309887602618152\\
109	0.00305920797263281\\
110	0.00302002111537278\\
111	0.00298146552488656\\
112	0.00294362726599965\\
113	0.0029065537719176\\
114	0.00287026833389302\\
115	0.00283477876811283\\
116	0.00280008280049957\\
117	0.00276617151884636\\
118	0.00273303164395387\\
119	0.00270064705586787\\
120	0.00266899983729428\\
121	0.00263807099659409\\
122	0.00260784097374635\\
123	0.00257828999668392\\
124	0.00254939833288439\\
125	0.00252114646667125\\
126	0.00249351522323938\\
127	0.00246648585412356\\
128	0.00244004009455901\\
129	0.00241416020024051\\
130	0.00238882896892876\\
131	0.0023640297508985\\
132	0.00233974645117835\\
133	0.00231596352577768\\
134	0.00229266597354371\\
135	0.00226983932488367\\
136	0.00224746962828519\\
137	0.00222554343533969\\
138	0.00220404778480324\\
139	0.00218297018609978\\
140	0.00216229860257188\\
141	0.00214202143470905\\
142	0.00212212750352594\\
143	0.00210260603421662\\
144	0.00208344664017788\\
145	0.00206463930746792\\
146	0.00204617437974413\\
147	0.00202804254371082\\
148	0.00201023481509265\\
149	0.00199274252514179\\
150	0.00197555730767936\\
151	0.0019586710866655\\
152	0.00194207606428942\\
153	0.00192576470956709\\
154	0.00190972974743187\\
155	0.00189396414830307\\
156	0.00187846111811499\\
157	0.00186321408878906\\
158	0.00184821670913216\\
159	0.00183346283614256\\
160	0.00181894652670628\\
161	0.00180466202966742\\
162	0.00179060377825436\\
163	0.00177676638284649\\
164	0.00176314462406556\\
165	0.00174973344617591\\
166	0.0017365279507797\\
167	0.00172352339079259\\
168	0.00171071516468654\\
169	0.00169809881098722\\
170	0.00168567000301325\\
171	0.00167342454384613\\
172	0.00166135836151948\\
173	0.00164946750441694\\
174	0.00163774813686889\\
175	0.00162619653493841\\
176	0.00161480908238697\\
177	0.00160358226681213\\
178	0.001592512675948\\
179	0.00158159699412143\\
180	0.00157083199885632\\
181	0.00156021455761888\\
182	0.00154974162469766\\
183	0.00153941023821136\\
184	0.00152921751723897\\
185	0.00151916065906659\\
186	0.00150923693654504\\
187	0.00149944369555362\\
188	0.00148977835256491\\
189	0.00148023839230615\\
190	0.0014708213655126\\
191	0.00146152488676917\\
192	0.00145234663243548\\
193	0.00144328433865201\\
194	0.00143433579942216\\
195	0.0014254988647679\\
196	0.00141677143895562\\
197	0.00140815147878894\\
198	0.00139963699196521\\
199	0\\
200	0\\
};
\addlegendentry{$\mathbf{h_1}$}

\addplot [color=mycolor2]
  table[row sep=crcr]{%
1	0.00495033386861547\\
2	0.00515738368500011\\
3	0.00538309861623286\\
4	0.00563019833310769\\
5	0.00590197136255583\\
6	0.00620243506959928\\
7	0.00653655369620811\\
8	0.00691054090538825\\
9	0.00733228812251618\\
10	0.00781198494389501\\
11	0.00836304134465097\\
12	0.0090034999823859\\
13	0.00975827527656913\\
14	0.0106628508662167\\
15	0.0117696896019869\\
16	0.0131600228416925\\
17	0.0149671880151623\\
18	0.0174273921400842\\
19	0.0210049332363351\\
20	0.0267613442180004\\
21	0.037792597580649\\
22	0.068721841139076\\
23	0.97572931769219\\
24	0.0649085399616321\\
25	0.0262918397391367\\
26	0.0126468169615953\\
27	0.00419508123086451\\
28	0.0214241856295046\\
29	0.0134643328328179\\
30	0.00412679327935559\\
31	0.0112712342656943\\
32	0.0282552508318709\\
33	0.111702725947746\\
34	0.12653020104749\\
35	0.0361926668223949\\
36	0.024130019396178\\
37	0.019518168382204\\
38	0.0163235660243771\\
39	0.0140849625225472\\
40	0.0124312948441269\\
41	0.0111552918846637\\
42	0.0101369616841952\\
43	0.00930266674553233\\
44	0.00860476970863487\\
45	0.00801105372801389\\
46	0.00749890841387189\\
47	0.00705196472677567\\
48	0.00665805661850076\\
49	0.0063079366485928\\
50	0.00599443852440938\\
51	0.00571191453485358\\
52	0.00545584764793091\\
53	0.0052225778141873\\
54	0.00500910486747672\\
55	0.00481294397681212\\
56	0.00463201789166602\\
57	0.00446457542356871\\
58	0.00430912894812168\\
59	0.00416440590497024\\
60	0.00402931074167137\\
61	0.00390289474814389\\
62	0.00378433192171684\\
63	0.00367289949042518\\
64	0.0035679620699816\\
65	0.00346895868109233\\
66	0.00337539203747226\\
67	0.00328681965070268\\
68	0.00320284639950925\\
69	0\\
70	0\\
71	0\\
72	0\\
73	0\\
74	0\\
75	0\\
76	0\\
77	0\\
78	0\\
79	0\\
80	0\\
81	0\\
82	0\\
83	0\\
84	0\\
85	0\\
86	0\\
87	0\\
88	0\\
89	0\\
90	0\\
91	0\\
92	0\\
93	0\\
94	0\\
95	0\\
96	0\\
97	0\\
98	0\\
99	0\\
100	0\\
101	0\\
102	0\\
103	0\\
104	0\\
105	0\\
106	0\\
107	0\\
108	0\\
109	0\\
110	0\\
111	0\\
112	0\\
113	0\\
114	0\\
115	0\\
116	0\\
117	0\\
118	0\\
119	0\\
120	0\\
121	0\\
122	0\\
123	0\\
124	0\\
125	0\\
126	0\\
127	0\\
128	0\\
129	0\\
130	0\\
131	0\\
132	0\\
133	0\\
134	0\\
135	0\\
136	0\\
137	0\\
138	0\\
139	0\\
140	0\\
141	0\\
142	0\\
143	0\\
144	0\\
145	0\\
146	0\\
147	0\\
148	0\\
149	0\\
150	0\\
151	0\\
152	0\\
153	0\\
154	0\\
155	0\\
156	0\\
157	0\\
158	0\\
159	0\\
160	0\\
161	0\\
162	0\\
163	0\\
164	0\\
165	0\\
166	0\\
167	0\\
168	0\\
169	0\\
170	0\\
171	0\\
172	0\\
173	0\\
174	0\\
175	0\\
176	0\\
177	0\\
178	0\\
179	0\\
180	0\\
181	0\\
182	0\\
183	0\\
184	0\\
185	0\\
186	0\\
187	0\\
188	0\\
189	0\\
190	0\\
191	0\\
192	0\\
193	0\\
194	0\\
195	0\\
196	0\\
197	0\\
198	0\\
199	0\\
200	0\\
};
\addlegendentry{$\mathbf{h_{2}}$}

\end{axis}

\begin{axis}[%
width=1.935in,
height=3.2in,
at={(3.327in,0.512in)},
scale only axis,
xmin=0,
xmax=200,
xlabel style={font=\color{white!15!black}, align=center},
xlabel={Sample Index\\[1ex](b) Estimated},
ymin=0,
ymax=1,
axis background/.style={fill=white},
legend style={legend cell align=left, align=left, draw=white!15!black}
]
\addplot [color=mycolor1]
  table[row sep=crcr]{%
0	0.0213054553669565\\
1	0.0167726354594431\\
2	0.0395427790399357\\
3	0.00851992517927409\\
4	0.00740390161889266\\
5	0.0109571738405596\\
6	0.0288930499361898\\
7	0.0437452861012742\\
8	0.0194148600456748\\
9	0.0159715515875617\\
10	0.010915896150682\\
11	0.0253103620386228\\
12	0.0162643854536385\\
13	0.00526473192187443\\
14	0.0123208036860531\\
15	0.023101692700789\\
16	0.0195626314656487\\
17	0.0042717917444222\\
18	0.025143092347802\\
19	0.0159074404475523\\
20	0.00691586402205534\\
21	0.0176905389936032\\
22	0.0182288511856378\\
23	0.00955133623971659\\
24	0.0152619882883005\\
25	0.0274860516071724\\
26	0.0109011080497816\\
27	0.0437113822218396\\
28	0.0213539689671458\\
29	0.0100133318782997\\
30	0.0348080604888933\\
31	0.0192438093561494\\
32	0.0224036983399675\\
33	0.0244339288661984\\
34	0.0181178039894608\\
35	0.0104624173431679\\
36	0.00700925988813568\\
37	0.014865682806704\\
38	0.02643372763712\\
39	0.0224717622789057\\
40	0.0370045516768761\\
41	0.0386891986589508\\
42	0.0112357998392519\\
43	0.00812753143056907\\
44	0.00458416715566005\\
45	0.0311607475675801\\
46	0.0153475187225339\\
47	0.00879635433673938\\
48	0.00653979411798531\\
49	0.0159340273060718\\
50	0.0418862314891455\\
51	0.00588644796465352\\
52	0.0116794286200338\\
53	0.0103334400488829\\
54	0.0117927972679446\\
55	0.0171261740544063\\
56	0.00615966920718282\\
57	0.0174609509435319\\
58	0.0103276435668491\\
59	0.0381523933300169\\
60	0.0139730157031281\\
61	0.0223305222165165\\
62	0.023695058849671\\
63	0.0113446025807037\\
64	0.0198367501498525\\
65	0.0070316619133257\\
66	0.0129472631879693\\
67	0.0311748243635147\\
68	0.0170188798264299\\
69	0.0244999676698129\\
70	0.016237647478805\\
71	0.00410069910740208\\
72	0.0238453207617907\\
73	0.0111855757543398\\
74	0.0389528933565826\\
75	0.0404429442928116\\
76	0.0536608087923848\\
77	0.0989042792071852\\
78	0.0214192114855942\\
79	0.00444787021460855\\
80	0.0267156637553129\\
81	0.0127762207583142\\
82	0.0566949163822907\\
83	0.0562846817778763\\
84	0.15428223472556\\
85	0.124781374476762\\
86	0.135713739031917\\
87	0.175052173063596\\
88	0.542495929813401\\
89	0.142748358166783\\
90	0.0736005166302082\\
91	0.0436161509957559\\
92	0.0544425915981027\\
93	0.0772030603974074\\
94	0.0755893304180469\\
95	0.0348727932304204\\
96	0.0334358954452801\\
97	0.00262051802074337\\
98	0.0417439944906658\\
99	0.0126932711429412\\
100	0.0456407108193186\\
101	0.0279631916366866\\
102	0.0307338035650129\\
103	0.072152594690261\\
104	0.54949831424756\\
105	0.115093614370266\\
106	0.0380187662114621\\
107	0.0829243708408743\\
108	0.0537188777240792\\
109	0.0792190115224297\\
110	0.169389289728862\\
111	0.0200687130773836\\
112	0.0531467395556698\\
113	0.066060323833575\\
114	0.0329674472190292\\
115	0.0132727230545411\\
116	0.00946442813608905\\
117	0.0019745037454488\\
118	0.041909056048329\\
119	0.0105394511928018\\
120	0.0509972408880587\\
121	0.0456339426010314\\
122	0.0794775119405589\\
123	0.227068765762251\\
124	0.172254290237605\\
125	0.0553266948677306\\
126	0.0466747311942259\\
127	0.0423634884161046\\
128	0.0169369821005866\\
129	0.0236919309637357\\
130	0.00558355396095632\\
131	0.00558501084037219\\
132	0.0118975204210619\\
133	0.0146535781341799\\
134	0.0102829490025549\\
135	0.013794502548408\\
136	0.00374940104616699\\
137	0.0134480684361361\\
138	0.0373043587154744\\
139	0.0219031986672102\\
140	0.0103015235795642\\
141	0.023832258128603\\
142	0.0204614756543514\\
143	0.0143725999623324\\
144	0.0115995171797653\\
145	0.0258792736668125\\
146	0.0142436376614386\\
147	0.0225311715611232\\
148	0.0334750331869363\\
149	0.0117520207112796\\
150	0.0134295221149666\\
151	0.0217188347396923\\
152	0.0335544287223254\\
153	0.0249795291488065\\
154	0.0247479079805795\\
155	0.0138287199285096\\
156	0.0248505719409552\\
157	0.0248638004710948\\
158	0.0258599001827104\\
159	0.0151988080333693\\
160	0.0227936648485071\\
161	0.0125097252064398\\
162	0.0199066876130816\\
163	0.0150455217543761\\
164	0.0343418706837169\\
165	0.00958580447720745\\
166	0.0217061116531824\\
167	0.0287297804457094\\
168	0.00821690618620591\\
169	0.0170303081390943\\
170	0.0366830506958444\\
171	0.0133900352722023\\
172	0.0249239506716885\\
173	0.0479161754041858\\
174	0.0262698510103417\\
175	0.0112175880078328\\
176	0.0149289445260978\\
177	0.00370369642477913\\
178	0.0130771753095288\\
179	0.0218312372067945\\
180	0.0165582144862387\\
181	0.0311833897768767\\
182	0.0107217553182349\\
183	0.0173031930506849\\
184	0.0155297893695012\\
185	0.0252302804332864\\
186	0.0388595620185938\\
187	0.0266965442958992\\
188	0.00840742314103232\\
189	0.0271942389722476\\
190	0.0377635882426642\\
191	0.026746616970538\\
192	0.00521893881369754\\
193	0.0377185349667633\\
194	0.00964641391117306\\
195	0.0107845900762068\\
196	0.0343418138353072\\
197	0.0189131589812801\\
198	0.0164567334158259\\
199	0.0176829823658891\\
};
\addlegendentry{$\mathbf{\hat{h}_{1}}$}

\addplot [color=mycolor2]
  table[row sep=crcr]{%
0	5.82833777672269e-05\\
1	5.23641001044565e-05\\
2	0.000188079289390317\\
3	7.93072066628195e-05\\
4	1.39913124887566e-05\\
5	3.01140416323116e-05\\
6	7.70841175504377e-05\\
7	8.50675483892926e-05\\
8	2.7347660668441e-05\\
9	4.36710073964106e-05\\
10	7.64445715222596e-05\\
11	5.15731024842533e-05\\
12	1.44047622185705e-05\\
13	0.000130783741494494\\
14	0.000133409892982278\\
15	2.90708856456447e-05\\
16	4.50252872560343e-05\\
17	0.000123288252472797\\
18	9.01054622906443e-05\\
19	2.35910404883306e-05\\
20	7.55986173639872e-05\\
21	7.82187026359819e-05\\
22	0.000105018242016318\\
23	8.0073036229312e-05\\
24	2.17332704742944e-05\\
25	9.18517921065426e-05\\
26	4.85489366881192e-05\\
27	8.61224872260547e-05\\
28	4.9265991219661e-05\\
29	4.6749546692009e-05\\
30	0.000109976905021598\\
31	5.16565467317023e-05\\
32	1.50546017761386e-05\\
33	0.000118643813964544\\
34	8.49223581405133e-05\\
35	0.000134124712070757\\
36	0.000110115645786075\\
37	8.40426721499373e-05\\
38	6.12812234960548e-05\\
39	9.81757768039524e-05\\
40	9.64404818311019e-05\\
41	0.000109383080659714\\
42	2.62388812067288e-05\\
43	6.38911253553631e-05\\
44	7.20778094412373e-05\\
45	8.84209006008944e-05\\
46	2.27800081802613e-05\\
47	2.99084711862736e-05\\
48	5.32801704274183e-05\\
49	0.000115217387188229\\
50	7.55024578486329e-05\\
51	8.69987379018419e-05\\
52	8.96736699903272e-05\\
53	5.83932355640017e-05\\
54	3.64448805774306e-05\\
55	5.40931919093563e-05\\
56	7.46341454410231e-05\\
57	3.04476037674581e-05\\
58	6.08745624038032e-05\\
59	3.85989437194589e-05\\
60	0.000260901432340833\\
61	0.000203372477303857\\
62	9.15737769577525e-05\\
63	0.000421728874938075\\
64	0.000171187968507198\\
65	0.000188043240317239\\
66	0.00013006141073538\\
67	6.83838222632431e-05\\
68	2.24349289603957e-05\\
69	3.17936470266839e-05\\
70	5.28916561264361e-05\\
71	5.95351824162326e-05\\
72	3.05441635741591e-05\\
73	0.000135197683199442\\
74	2.97895523214599e-05\\
75	0.0001137439942114\\
76	0.000103064332089142\\
77	0.000204898346602634\\
78	9.85149572991148e-05\\
79	0.000381693421645123\\
80	0.000536505640663507\\
81	0.000308986509621794\\
82	0.000162035748568955\\
83	0.000899735031254355\\
84	0.000218520360623332\\
85	8.304685282004e-05\\
86	0.000141850085126838\\
87	9.89583847312851e-05\\
88	9.69717859400199e-05\\
89	3.98830307423606e-05\\
90	0.000105017494818754\\
91	0.000126001257253313\\
92	6.73536314964994e-05\\
93	0.000147365182902123\\
94	0.000108622286919836\\
95	8.15069438022404e-05\\
96	0.000447899404883513\\
97	0.000229907661431046\\
98	3.75753336527038e-05\\
99	0.999997367949922\\
100	3.74207008513613e-05\\
101	0.000228261987717427\\
102	0.000451847817675262\\
103	8.48573005017624e-05\\
104	0.000108115046286217\\
105	0.000155212081005125\\
106	6.99545552687686e-05\\
107	0.000121655755224517\\
108	9.86656057932616e-05\\
109	3.6159747534938e-05\\
110	9.98822775976016e-05\\
111	9.58086152348849e-05\\
112	0.000144053042287423\\
113	8.04672198635705e-05\\
114	0.000218842306618054\\
115	0.000893266854516968\\
116	0.000164458340855174\\
117	0.000300990591060075\\
118	0.000532647062798009\\
119	0.000370774066266722\\
120	0.000100195903390688\\
121	0.000213079817235896\\
122	0.000109711056491183\\
123	0.000106030007288946\\
124	3.41691757701972e-05\\
125	0.000140897399533004\\
126	2.70605036255952e-05\\
127	4.28326186134155e-05\\
128	4.63454970797617e-05\\
129	4.14903847437583e-05\\
130	2.75525140635886e-05\\
131	7.20506968608313e-05\\
132	0.000135438069435386\\
133	0.000182830862336668\\
134	0.0001689595519409\\
135	0.000416693603462764\\
136	0.000100568680605936\\
137	0.000190674412403182\\
138	0.000258078427512415\\
139	4.40304410937182e-05\\
140	6.58861937521266e-05\\
141	3.71450952303036e-05\\
142	5.94136600245897e-05\\
143	6.0069944449506e-05\\
144	2.65293383060658e-05\\
145	6.3781322971056e-05\\
146	9.58403627366372e-05\\
147	7.31764897426708e-05\\
148	8.32306752207102e-05\\
149	0.000113876151774516\\
150	6.36392996256585e-05\\
151	4.49506677058065e-05\\
152	1.0908810144831e-05\\
153	7.71058255112197e-05\\
154	7.70160363715851e-05\\
155	5.7503503670738e-05\\
156	3.34814826466569e-05\\
157	8.97816611579792e-05\\
158	9.557066203869e-05\\
159	0.000112286052731686\\
160	5.84717395850258e-05\\
161	8.05691248621706e-05\\
162	0.00011536891314591\\
163	9.82857414609425e-05\\
164	9.99442681725176e-05\\
165	0.000105825822784265\\
166	2.51853121782266e-05\\
167	8.51784791112071e-05\\
168	0.000118149434372928\\
169	5.85706178054352e-05\\
170	5.57334564457592e-05\\
171	9.91130222806376e-05\\
172	4.68777783433929e-05\\
173	0.000100323232346339\\
174	3.04098129522011e-05\\
175	8.25305122640183e-05\\
176	9.59404810627621e-05\\
177	5.94708536843712e-05\\
178	9.34833540589067e-05\\
179	4.43206856185775e-05\\
180	7.90905133856499e-05\\
181	0.000153977865264905\\
182	4.18760757870587e-05\\
183	6.1873145951443e-05\\
184	0.000135375304801496\\
185	0.000130661888521956\\
186	1.73173290418438e-05\\
187	8.37860308297347e-05\\
188	8.5544666694796e-05\\
189	3.73346575527592e-05\\
190	4.06645938157827e-05\\
191	8.95916980908523e-05\\
192	6.02781874461306e-05\\
193	2.70424462437477e-05\\
194	1.23830936248387e-05\\
195	7.59167232235175e-05\\
196	0.00015447243214533\\
197	4.63230668241855e-05\\
198	5.01768398700105e-05\\
199	3.6336856198032e-05\\
};
\addlegendentry{$\mathbf{\hat{h}_{2}}$}

\end{axis}
\end{tikzpicture}%