% This file was created by matlab2tikz.
%
%The latest updates can be retrieved from
%  http://www.mathworks.com/matlabcentral/fileexchange/22022-matlab2tikz-matlab2tikz
%where you can also make suggestions and rate matlab2tikz.
%
\definecolor{mycolor1}{rgb}{0.00000,0.44700,0.74100}%
\definecolor{mycolor2}{rgb}{0.85000,0.32500,0.09800}%
%
\begin{tikzpicture}

\begin{axis}[%
width=1.935in,
height=3.2in,
at={(0.758in,0.512in)},
scale only axis,
xmin=0,
xmax=200,
xlabel style={font=\color{white!15!black}, align=center},
xlabel={Sample Index\\[1ex](a) Actual},
ymin=0,
ymax=1,
axis background/.style={fill=white},
legend style={legend cell align=left, align=left, draw=white!15!black}
]
\addplot [color=mycolor1]
  table[row sep=crcr]{%
1	0.0167418731260698\\
2	0.018659722218203\\
3	0.0211495716349754\\
4	0.0245407494314006\\
5	0.029505643974117\\
6	0.0377161636169434\\
7	0.0550750576238134\\
8	0.131028403455825\\
9	0.141533477104454\\
10	0.158175166246243\\
11	0.163761757297189\\
12	0.600100605556833\\
13	0.118033417583129\\
14	0.0610914209628117\\
15	0.0426162246246858\\
16	0.0332715711707656\\
17	0.0321939439283243\\
18	0.0268871008873183\\
19	0.0316920608120786\\
20	0.0286771919664519\\
21	0.00773119825769845\\
22	0.0330073087209196\\
23	0.019415059292473\\
24	0.0177688778425817\\
25	0.0188194600762088\\
26	0.0237714798713867\\
27	0.0430806655948836\\
28	0.586023006720236\\
29	0.0970905103802927\\
30	0.0246981078960262\\
31	0.0780346253424249\\
32	0.0580455436901626\\
33	0.0681836526256362\\
34	0.163824852865525\\
35	0.0446106828365612\\
36	0.06119675966513\\
37	0.00907835157153909\\
38	0.0310093774848825\\
39	0.00125972832884384\\
40	0.005422098150711\\
41	0.0107374596162295\\
42	0.0165479326643041\\
43	0.024789327411243\\
44	0.0446277431282512\\
45	0.058019450740893\\
46	0.074843365423057\\
47	0.199666615467323\\
48	0.216838516027539\\
49	0.0783890355452335\\
50	0.0495529240878659\\
51	0.0370791446049236\\
52	0.0307530810094058\\
53	0.0155757068681131\\
54	0.0198807977432187\\
55	0.0179871495341263\\
56	0.0162887905400521\\
57	0.0148728268904216\\
58	0.0136909847461918\\
59	0.0126943671543235\\
60	0.011846112844806\\
61	0.0111233301448608\\
62	0.0105291449791113\\
63	0.0102108676347222\\
64	0.00751288118280402\\
65	0.00739035992869396\\
66	0.0116365722557393\\
67	0.00899390796280924\\
68	0.00831157148096884\\
69	0.00788086875151191\\
70	0.00754217236777393\\
71	0.00725475830161164\\
72	0.00700327644843893\\
73	0.006780818536885\\
74	0.00658453626015097\\
75	0.00641472878078445\\
76	0.00627599401250467\\
77	0.00618216997550965\\
78	0.00617516728867787\\
79	0.00642745729543014\\
80	0.00873051939586948\\
81	0.00471465923588381\\
82	0.00195996010568866\\
83	0.004980313957114\\
84	0.00475839614864904\\
85	0.00464733241660508\\
86	0.00455444244400457\\
87	0.00446749239384432\\
88	0.00438406292262191\\
89	0.00430366820355207\\
90	0.00422628355118023\\
91	0.00415201532524293\\
92	0.00408104289588831\\
93	0.00401365198230764\\
94	0.00395033763548775\\
95	0.00389203620501121\\
96	0.00384070443755282\\
97	0.00380107128140597\\
98	0.00378779867734327\\
99	0.00387836096292209\\
100	0.00228454900881806\\
101	0.00321909463290553\\
102	0.00328982387499096\\
103	0.00328100374444436\\
104	0.00325253146337885\\
105	0.00321692683031362\\
106	0.00317840637543852\\
107	0.00313876414674543\\
108	0.00309887602618152\\
109	0.00305920797263281\\
110	0.00302002111537278\\
111	0.00298146552488656\\
112	0.00294362726599965\\
113	0.0029065537719176\\
114	0.00287026833389302\\
115	0.00283477876811283\\
116	0.00280008280049957\\
117	0.00276617151884636\\
118	0.00273303164395387\\
119	0.00270064705586787\\
120	0.00266899983729428\\
121	0.00263807099659409\\
122	0.00260784097374635\\
123	0.00257828999668392\\
124	0.00254939833288439\\
125	0.00252114646667125\\
126	0.00249351522323938\\
127	0.00246648585412356\\
128	0.00244004009455901\\
129	0.00241416020024051\\
130	0.00238882896892876\\
131	0.0023640297508985\\
132	0.00233974645117835\\
133	0.00231596352577768\\
134	0.00229266597354371\\
135	0.00226983932488367\\
136	0.00224746962828519\\
137	0.00222554343533969\\
138	0.00220404778480324\\
139	0.00218297018609978\\
140	0.00216229860257188\\
141	0.00214202143470905\\
142	0.00212212750352594\\
143	0.00210260603421662\\
144	0.00208344664017788\\
145	0.00206463930746792\\
146	0.00204617437974413\\
147	0.00202804254371082\\
148	0.00201023481509265\\
149	0.00199274252514179\\
150	0.00197555730767936\\
151	0.0019586710866655\\
152	0.00194207606428942\\
153	0.00192576470956709\\
154	0.00190972974743187\\
155	0.00189396414830307\\
156	0.00187846111811499\\
157	0.00186321408878906\\
158	0.00184821670913216\\
159	0.00183346283614256\\
160	0.00181894652670628\\
161	0.00180466202966742\\
162	0.00179060377825436\\
163	0.00177676638284649\\
164	0.00176314462406556\\
165	0.00174973344617591\\
166	0.0017365279507797\\
167	0.00172352339079259\\
168	0.00171071516468654\\
169	0.00169809881098722\\
170	0.00168567000301325\\
171	0.00167342454384613\\
172	0.00166135836151948\\
173	0.00164946750441694\\
174	0.00163774813686889\\
175	0.00162619653493841\\
176	0.00161480908238697\\
177	0.00160358226681213\\
178	0.001592512675948\\
179	0.00158159699412143\\
180	0.00157083199885632\\
181	0.00156021455761888\\
182	0.00154974162469766\\
183	0.00153941023821136\\
184	0.00152921751723897\\
185	0.00151916065906659\\
186	0.00150923693654504\\
187	0.00149944369555362\\
188	0.00148977835256491\\
189	0.00148023839230615\\
190	0.0014708213655126\\
191	0.00146152488676917\\
192	0.00145234663243548\\
193	0.00144328433865201\\
194	0.00143433579942216\\
195	0.0014254988647679\\
196	0.00141677143895562\\
197	0.00140815147878894\\
198	0.00139963699196521\\
199	0\\
200	0\\
};
\addlegendentry{$\mathbf{h_1}$}

\addplot [color=mycolor2]
  table[row sep=crcr]{%
1	0.00495033386861547\\
2	0.00515738368500011\\
3	0.00538309861623286\\
4	0.00563019833310769\\
5	0.00590197136255583\\
6	0.00620243506959928\\
7	0.00653655369620811\\
8	0.00691054090538825\\
9	0.00733228812251618\\
10	0.00781198494389501\\
11	0.00836304134465097\\
12	0.0090034999823859\\
13	0.00975827527656913\\
14	0.0106628508662167\\
15	0.0117696896019869\\
16	0.0131600228416925\\
17	0.0149671880151623\\
18	0.0174273921400842\\
19	0.0210049332363351\\
20	0.0267613442180004\\
21	0.037792597580649\\
22	0.068721841139076\\
23	0.97572931769219\\
24	0.0649085399616321\\
25	0.0262918397391367\\
26	0.0126468169615953\\
27	0.00419508123086451\\
28	0.0214241856295046\\
29	0.0134643328328179\\
30	0.00412679327935559\\
31	0.0112712342656943\\
32	0.0282552508318709\\
33	0.111702725947746\\
34	0.12653020104749\\
35	0.0361926668223949\\
36	0.024130019396178\\
37	0.019518168382204\\
38	0.0163235660243771\\
39	0.0140849625225472\\
40	0.0124312948441269\\
41	0.0111552918846637\\
42	0.0101369616841952\\
43	0.00930266674553233\\
44	0.00860476970863487\\
45	0.00801105372801389\\
46	0.00749890841387189\\
47	0.00705196472677567\\
48	0.00665805661850076\\
49	0.0063079366485928\\
50	0.00599443852440938\\
51	0.00571191453485358\\
52	0.00545584764793091\\
53	0.0052225778141873\\
54	0.00500910486747672\\
55	0.00481294397681212\\
56	0.00463201789166602\\
57	0.00446457542356871\\
58	0.00430912894812168\\
59	0.00416440590497024\\
60	0.00402931074167137\\
61	0.00390289474814389\\
62	0.00378433192171684\\
63	0.00367289949042518\\
64	0.0035679620699816\\
65	0.00346895868109233\\
66	0.00337539203747226\\
67	0.00328681965070268\\
68	0.00320284639950925\\
69	0\\
70	0\\
71	0\\
72	0\\
73	0\\
74	0\\
75	0\\
76	0\\
77	0\\
78	0\\
79	0\\
80	0\\
81	0\\
82	0\\
83	0\\
84	0\\
85	0\\
86	0\\
87	0\\
88	0\\
89	0\\
90	0\\
91	0\\
92	0\\
93	0\\
94	0\\
95	0\\
96	0\\
97	0\\
98	0\\
99	0\\
100	0\\
101	0\\
102	0\\
103	0\\
104	0\\
105	0\\
106	0\\
107	0\\
108	0\\
109	0\\
110	0\\
111	0\\
112	0\\
113	0\\
114	0\\
115	0\\
116	0\\
117	0\\
118	0\\
119	0\\
120	0\\
121	0\\
122	0\\
123	0\\
124	0\\
125	0\\
126	0\\
127	0\\
128	0\\
129	0\\
130	0\\
131	0\\
132	0\\
133	0\\
134	0\\
135	0\\
136	0\\
137	0\\
138	0\\
139	0\\
140	0\\
141	0\\
142	0\\
143	0\\
144	0\\
145	0\\
146	0\\
147	0\\
148	0\\
149	0\\
150	0\\
151	0\\
152	0\\
153	0\\
154	0\\
155	0\\
156	0\\
157	0\\
158	0\\
159	0\\
160	0\\
161	0\\
162	0\\
163	0\\
164	0\\
165	0\\
166	0\\
167	0\\
168	0\\
169	0\\
170	0\\
171	0\\
172	0\\
173	0\\
174	0\\
175	0\\
176	0\\
177	0\\
178	0\\
179	0\\
180	0\\
181	0\\
182	0\\
183	0\\
184	0\\
185	0\\
186	0\\
187	0\\
188	0\\
189	0\\
190	0\\
191	0\\
192	0\\
193	0\\
194	0\\
195	0\\
196	0\\
197	0\\
198	0\\
199	0\\
200	0\\
};
\addlegendentry{$\mathbf{h_{2}}$}

\end{axis}

\begin{axis}[%
width=1.935in,
height=3.2in,
at={(3.327in,0.512in)},
scale only axis,
xmin=0,
xmax=200,
xlabel style={font=\color{white!15!black}, align=center},
xlabel={Sample Index\\[1ex](b) Estimated},
ymin=0,
ymax=1,
axis background/.style={fill=white},
legend style={legend cell align=left, align=left, draw=white!15!black}
]
\addplot [color=mycolor1]
  table[row sep=crcr]{%
0	0.00191868727837446\\
1	0.00165178738605837\\
2	0.00179063458421964\\
3	0.00154607718329606\\
4	0.00103725337138445\\
5	0.000493404040077103\\
6	0.00168893031477351\\
7	0.000665931160327718\\
8	0.00148703537615022\\
9	0.00160836659784778\\
10	0.00183138130011623\\
11	0.00258290685890683\\
12	0.00362093174325184\\
13	0.000567027991182145\\
14	0.00360089807114027\\
15	0.00432522265978525\\
16	0.00350791873505917\\
17	0.00228215278964434\\
18	0.00412298554463432\\
19	0.00248193142213412\\
20	0.00169228513482329\\
21	0.00207867409817647\\
22	0.000565517059565764\\
23	0.00582904341215949\\
24	0.00524790940667701\\
25	0.00168181901522427\\
26	0.00651124419310707\\
27	0.00373187860822582\\
28	0.00151183803233606\\
29	0.0093545732458664\\
30	0.00194385875527423\\
31	0.00870057323625325\\
32	0.0128950511703445\\
33	0.0119613170754481\\
34	0.00951332611884518\\
35	0.00537193127619737\\
36	0.00589656839439172\\
37	0.00464199790891685\\
38	0.00314811796379963\\
39	0.00519355450087928\\
40	0.00409362141253839\\
41	0.00755085361653297\\
42	0.00607933214348915\\
43	0.00461972379733265\\
44	0.00271187720771903\\
45	0.00385672921063932\\
46	0.0109238285318651\\
47	0.0083870097883484\\
48	0.0019631387199951\\
49	0.0254653508353387\\
50	0.030669690065622\\
51	0.0120835425964326\\
52	0.0302541970730795\\
53	0.00211821209749897\\
54	0.0141823700079742\\
55	0.0123304757504538\\
56	0.00885071932281829\\
57	0.0104368074109837\\
58	0.00903260295200637\\
59	0.00807387758966721\\
60	0.00293142562848416\\
61	0.00251218683910447\\
62	0.0305873448850657\\
63	0.0205042076192499\\
64	0.00511788454646178\\
65	0.0327835043772547\\
66	0.0237370244742805\\
67	0.0192307493265139\\
68	0.0932050920082135\\
69	0.0452035435385215\\
70	0.0528155910594925\\
71	0.00766285855276113\\
72	0.0867878894909768\\
73	0.0249161019697978\\
74	0.0342720276250274\\
75	0.0310566171929042\\
76	0.0163619394741697\\
77	0.0754417234890932\\
78	0.0145303268053285\\
79	0.00788677373863964\\
80	0.0134399740821138\\
81	0.032198548342016\\
82	0.0483211889687742\\
83	0.0847897398871448\\
84	0.153043349498907\\
85	0.0839304578110961\\
86	0.133635426341064\\
87	0.213771437853637\\
88	0.543913653281022\\
89	0.123337994106072\\
90	0.062480889325422\\
91	0.0254037152672042\\
92	0.0384999904373121\\
93	0.0351546621932935\\
94	0.069337775231844\\
95	0.0192355716664707\\
96	0.0279828715802939\\
97	0.0234407527219871\\
98	0.0619486090435396\\
99	0.0485003441543908\\
100	0.02995215204758\\
101	0.0535199744350214\\
102	0.0807260168220063\\
103	0.0709858688530244\\
104	0.558082344144117\\
105	0.139469497099548\\
106	0.0204793584952316\\
107	0.0809640224814331\\
108	0.0684200013679743\\
109	0.0772590772444859\\
110	0.155539120207277\\
111	0.0345852765346156\\
112	0.0389141556631875\\
113	0.0247582010398538\\
114	0.0087011029594635\\
115	0.0307725125917664\\
116	0.0123071949028035\\
117	0.00999945015507954\\
118	0.0140193087970104\\
119	0.0292465301812112\\
120	0.124342477775854\\
121	0.0875058892883847\\
122	0.0806309160244596\\
123	0.211555642583563\\
124	0.161683151979412\\
125	0.0817511033787189\\
126	0.0565631934196348\\
127	0.00191759875146715\\
128	0.0392991386660641\\
129	0.0245370410250384\\
130	0.00994179289318002\\
131	0.0139121147282686\\
132	0.0286095643640645\\
133	0.0235530733738188\\
134	0.00537224370828673\\
135	0.0260756892082215\\
136	0.0309904492716689\\
137	0.0250414315777802\\
138	0.0307431200604185\\
139	0.0667198125592163\\
140	0.0593571173896648\\
141	0.0288146789196324\\
142	0.02853004393396\\
143	0.0249454034528217\\
144	0.0183729436636664\\
145	0.0146938167200965\\
146	0.0215995246556206\\
147	0.00916616997942729\\
148	0.00880338482990455\\
149	0.00591357852094347\\
150	0.00628272429687866\\
151	0.012157651217516\\
152	0.00431474885673339\\
153	0.0159252525455245\\
154	0.00532287450145144\\
155	0.00727537390549761\\
156	0.0290993355929993\\
157	0.020150103686725\\
158	0.0136023699331456\\
159	0.0169304729641444\\
160	0.00410413606573089\\
161	0.00742768873988825\\
162	0.0151696667001815\\
163	0.00184917808686167\\
164	0.00997721205670458\\
165	0.00849269847031266\\
166	0.00120086490765272\\
167	0.00463736736808689\\
168	0.00590377197658988\\
169	0.00350926453790498\\
170	0.00387615637002452\\
171	0.00419857268276296\\
172	0.00991372654060116\\
173	0.00856771171421352\\
174	0.00461304358598108\\
175	0.00878116096829902\\
176	0.00582224912743478\\
177	0.00683690900644971\\
178	0.00586185762818145\\
179	0.00673700534077768\\
180	0.00409259163879676\\
181	0.00299752876190108\\
182	0.00361939635789199\\
183	0.000933567554090583\\
184	0.00503879400561637\\
185	0.00289237098044642\\
186	0.000921409659128354\\
187	0.00288158263251747\\
188	0.00200088662954801\\
189	0.00413637163196794\\
190	0.00195698141431676\\
191	0.00229895206108584\\
192	0.00483498252002495\\
193	0.00271415123646788\\
194	0.00250027175854538\\
195	0.0035183351002647\\
196	0.00430815585150025\\
197	0.00268715020007678\\
198	0.00135212022123005\\
199	0.00258895931207225\\
};
\addlegendentry{$\mathbf{\hat{h}_{1}}$}

\addplot [color=mycolor2]
  table[row sep=crcr]{%
0	0.000755186616462109\\
1	0.000773707086914726\\
2	0.000365849399444116\\
3	0.000433305761392879\\
4	0.0012698755686974\\
5	0.000652672207597257\\
6	0.00102260932897875\\
7	0.00229678057803189\\
8	0.00135647517319343\\
9	0.00190651785975107\\
10	0.00290252188853751\\
11	0.00234072196939717\\
12	0.00182547644118112\\
13	0.00258833135909881\\
14	0.0017482979881708\\
15	0.00269697892615481\\
16	0.00272976991945637\\
17	0.0022993848879772\\
18	0.00161717817827928\\
19	0.00138208822218624\\
20	0.00159114495701435\\
21	0.000688142232816607\\
22	0.00294000913021254\\
23	0.0047653595176844\\
24	0.00135310729214622\\
25	0.00591271799755904\\
26	0.00298921993631901\\
27	0.0048531457794702\\
28	0.00349396012726598\\
29	0.00560816764722212\\
30	0.00644310293817953\\
31	0.0054053473745244\\
32	0.00303554692698218\\
33	0.00168162556909239\\
34	0.00762116472449998\\
35	0.00364878251982348\\
36	0.00318378790374265\\
37	0.00625031843534914\\
38	0.000870417879816321\\
39	0.00502453659174125\\
40	0.00740955216284604\\
41	0.00576253708862118\\
42	0.00361807985560679\\
43	0.0150728986767677\\
44	0.0203811488669031\\
45	0.0116849361292691\\
46	0.010785638497293\\
47	0.0160515307509568\\
48	0.0133372259088446\\
49	0.0106136514633132\\
50	0.0119196634094213\\
51	0.00669137741844863\\
52	0.00877615271427827\\
53	0.00511546915297548\\
54	0.00626384306899938\\
55	0.00845526007835918\\
56	0.00223661711735779\\
57	0.00858999559726668\\
58	0.00419414434834838\\
59	0.0165155630484144\\
60	0.035180849045887\\
61	0.0313714501335385\\
62	0.00743399913660107\\
63	0.0567012111857581\\
64	0.0309063580336427\\
65	0.0278579944398086\\
66	0.0315935480032398\\
67	0.0222587383279714\\
68	0.00962130015866224\\
69	0.0143198141083212\\
70	0.00831285519482286\\
71	0.00417172122842902\\
72	0.0079330388335004\\
73	0.0199913879540287\\
74	0.00699942517314731\\
75	0.00537674147801074\\
76	0.0302334684085223\\
77	0.031373358759588\\
78	0.0199196191961837\\
79	0.052194780431475\\
80	0.0629384558280401\\
81	0.0459057282163131\\
82	0.0144519637769575\\
83	0.162285202398812\\
84	0.0271047374850622\\
85	0.0121383528314853\\
86	0.0307582731426851\\
87	0.0145646236265351\\
88	0.0372291729856743\\
89	0.0368889929541665\\
90	0.0274204678147672\\
91	0.031085529976364\\
92	0.0108782158406327\\
93	0.0178039650256612\\
94	0.0242145227887502\\
95	0.0220987422040135\\
96	0.0569149093473261\\
97	0.0320110916927989\\
98	0.0134651693726461\\
99	0.935407468970271\\
100	0.013461958694843\\
101	0.032015209101655\\
102	0.0569216703073582\\
103	0.0220842819400713\\
104	0.0242088070087243\\
105	0.017820747412521\\
106	0.0108636633315887\\
107	0.031063518303187\\
108	0.027391935723775\\
109	0.0368841839502742\\
110	0.0372548831055427\\
111	0.0145915704129052\\
112	0.0307725713901507\\
113	0.0121747864224107\\
114	0.0271140240844916\\
115	0.162306678002109\\
116	0.0144095770252412\\
117	0.0459388498115192\\
118	0.0629659964729304\\
119	0.0522111913181367\\
120	0.0199535738550551\\
121	0.0314451691490766\\
122	0.0301825772897711\\
123	0.00531637393810484\\
124	0.00701323350533267\\
125	0.0199596525137352\\
126	0.00792146516501878\\
127	0.00408604641302252\\
128	0.00825473386808974\\
129	0.014321620636835\\
130	0.00961653938157612\\
131	0.0221965975490515\\
132	0.0316349848837046\\
133	0.0278409658571539\\
134	0.0309254470337556\\
135	0.0566582374466264\\
136	0.00734694259334611\\
137	0.0312847787886755\\
138	0.0352180463142368\\
139	0.0165083676123017\\
140	0.00428185211808044\\
141	0.00863219489920867\\
142	0.00228578182894031\\
143	0.00843563664311802\\
144	0.00633102381971336\\
145	0.00500223734840998\\
146	0.00876243964756354\\
147	0.00677105279122723\\
148	0.0117301662469133\\
149	0.0104987190588432\\
150	0.013280874848959\\
151	0.0161520093504128\\
152	0.0108111724265883\\
153	0.0117764757085186\\
154	0.0204112889451122\\
155	0.0152014682408126\\
156	0.00363808147475382\\
157	0.00573514466062783\\
158	0.00763686474043342\\
159	0.0051137137048653\\
160	0.00104705476650764\\
161	0.00627088159962802\\
162	0.00328224873923724\\
163	0.00367233675812669\\
164	0.00765009268026181\\
165	0.00172244852026555\\
166	0.00303194196909738\\
167	0.00510104282943146\\
168	0.0064902479700228\\
169	0.00531321251600478\\
170	0.00322489790688558\\
171	0.00481120093611599\\
172	0.0027603542530269\\
173	0.00577449479625504\\
174	0.00148165515310597\\
175	0.0045947771166776\\
176	0.00308835111690211\\
177	0.00103818555808129\\
178	0.00182152148441332\\
179	0.00134463588935506\\
180	0.00136171531774236\\
181	0.0016810760295229\\
182	0.00249389434361451\\
183	0.00294738188525334\\
184	0.000943142156603502\\
185	0.0026247990624946\\
186	0.0018280036545296\\
187	0.00199861603631842\\
188	0.0035474406688478\\
189	0.0031504714791909\\
190	0.00179087445009961\\
191	0.0031903120024482\\
192	0.00104497899619612\\
193	0.00151328313073713\\
194	0.0013142239241405\\
195	0.000805147599221786\\
196	0.00124103982042116\\
197	0.00171666156424968\\
198	0.000622498723888901\\
199	0.00148922277286233\\
};
\addlegendentry{$\mathbf{\hat{h}_{2}}$}

\end{axis}
\end{tikzpicture}%