% This file was created by matlab2tikz.
%
%The latest updates can be retrieved from
%  http://www.mathworks.com/matlabcentral/fileexchange/22022-matlab2tikz-matlab2tikz
%where you can also make suggestions and rate matlab2tikz.
%
\definecolor{mycolor1}{rgb}{0.00000,0.44700,0.74100}%
\definecolor{mycolor2}{rgb}{0.85000,0.32500,0.09800}%
%
\begin{tikzpicture}

\begin{axis}[%
width=1.952in,
height=3.2in,
at={(0.758in,0.512in)},
scale only axis,
xmin=0,
xmax=20,
xlabel style={font=\color{white!15!black}, align=center},
xlabel={Sample Index\\[1ex](a) Actual},
ymin=0,
ymax=0.9,
axis background/.style={fill=white},
legend style={legend cell align=left, align=left, draw=white!15!black}
]
\addplot [color=mycolor1]
  table[row sep=crcr]{%
1	0.0444337104356374\\
2	0.738127803558165\\
3	0.357839506790865\\
4	0.481268775571525\\
5	0.10955194752004\\
6	0.267783168107473\\
7	0.0769544524124665\\
8	0.0372836026936495\\
9	0.027789744685169\\
10	0.0196434178633453\\
11	0.0212138243269196\\
12	0.0147156812719569\\
13	0.0126517206023441\\
14	0.0111331007215966\\
15	0.00994473974674355\\
16	0.00898571135769806\\
17	0.00819466874468931\\
18	0.00753086667278431\\
19	0.00696589032366256\\
20	0.00647923877975415\\
};
\addlegendentry{$\mathbf{h_1}$}

\addplot [color=mycolor2]
  table[row sep=crcr]{%
1	0.0696363384444256\\
2	0.13399148454392\\
3	0.889181852408627\\
4	0.426869408918664\\
5	0.0527923084371181\\
6	0.0393468637154593\\
7	0\\
8	0\\
9	0\\
10	0\\
11	0\\
12	0\\
13	0\\
14	0\\
15	0\\
16	0\\
17	0\\
18	0\\
19	0\\
20	0\\
};
\addlegendentry{$\mathbf{h_{2}}$}

\end{axis}

\begin{axis}[%
width=1.952in,
height=3.2in,
at={(3.327in,0.512in)},
scale only axis,
xmin=0,
xmax=20,
xlabel style={font=\color{white!15!black}, align=center},
xlabel={Sample Index\\[1ex](b) Estimated},
ymin=0,
ymax=0.9,
axis background/.style={fill=white},
legend style={legend cell align=left, align=left, draw=white!15!black}
]
\addplot [color=mycolor1]
  table[row sep=crcr]{%
0	0.0444051941761934\\
1	0.73768006154242\\
2	0.358847382133623\\
3	0.481248252479025\\
4	0.109835296335323\\
5	0.267643684463511\\
6	0.0768537387184664\\
7	0.0372195562140392\\
8	0.0277793049093688\\
9	0.0195658483142889\\
10	0.0211893006901757\\
11	0.0147042298128058\\
12	0.0126288774561232\\
13	0.0111276224116927\\
14	0.00996465776969322\\
15	0.00892116438736008\\
16	0.00823342789204746\\
17	0.00748656016671281\\
18	0.00697117271544635\\
19	0.00647397639279011\\
};
\addlegendentry{$\mathbf{\hat{h}_{1}}$}

\addplot [color=mycolor2]
  table[row sep=crcr]{%
0	0.0696123966501814\\
1	0.133896519292407\\
2	0.888792995810473\\
3	0.42761541448667\\
4	0.0536780627814777\\
5	0.0391984083794499\\
6	0.00015922776789336\\
7	0.000109711644597537\\
8	7.63282193256157e-05\\
9	1.98285552039472e-05\\
10	3.68244939023403e-05\\
11	4.22992699879029e-05\\
12	1.1225141879783e-05\\
13	5.79206162345997e-06\\
14	1.87106237643424e-05\\
15	4.26692196780123e-05\\
16	5.75064488701767e-05\\
17	3.74221373443608e-05\\
18	2.67846115649783e-05\\
19	9.69547904018106e-06\\
};
\addlegendentry{$\mathbf{\hat{h}_{2}}$}

\end{axis}

\end{tikzpicture}%