\relax 
\providecommand\hyper@newdestlabel[2]{}
\@writefile{toc}{\contentsline {chapter}{\numberline {7}RESULTS}{74}{chapter.7}}
\newlabel{ch:8}{{7}{74}{RESULTS}{chapter.7}{}}
\@writefile{toc}{\contentsline {section}{\numberline {7.1}Comparison of Algorithms}{74}{section.7.1}}
\@writefile{toc}{\contentsline {section}{\numberline {7.2}Effects of Various Parameters}{74}{section.7.2}}
\@writefile{toc}{\contentsline {subsection}{\numberline {7.2.1}Bandwidth}{74}{subsection.7.2.1}}
\@writefile{toc}{\contentsline {subsection}{\numberline {7.2.2}Noise}{74}{subsection.7.2.2}}
\@writefile{toc}{\contentsline {subsection}{\numberline {7.2.3}Sample Rate}{74}{subsection.7.2.3}}
\@writefile{toc}{\contentsline {subsection}{\numberline {7.2.4}Number of Samples}{74}{subsection.7.2.4}}
\@writefile{toc}{\contentsline {section}{\numberline {7.3}Observations with Real Data}{74}{section.7.3}}
\@setckpt{Chapters/Chapter_8/ch_8_results}{
\setcounter{page}{75}
\setcounter{equation}{0}
\setcounter{enumi}{2}
\setcounter{enumii}{0}
\setcounter{enumiii}{0}
\setcounter{enumiv}{0}
\setcounter{footnote}{0}
\setcounter{mpfootnote}{0}
\setcounter{part}{0}
\setcounter{chapter}{7}
\setcounter{section}{3}
\setcounter{subsection}{0}
\setcounter{subsubsection}{0}
\setcounter{paragraph}{0}
\setcounter{subparagraph}{0}
\setcounter{figure}{0}
\setcounter{table}{0}
\setcounter{savemainpageno}{0}
\setcounter{savefrontpageno}{11}
\setcounter{savetotalpageno}{0}
\setcounter{float@type}{16}
\setcounter{alg}{0}
\setcounter{parentequation}{0}
\setcounter{lstnumber}{1}
\setcounter{ContinuedFloat}{0}
\setcounter{subfigure}{0}
\setcounter{subtable}{0}
\setcounter{Item}{2}
\setcounter{Hfootnote}{6}
\setcounter{bookmark@seq@number}{65}
\setcounter{lstlisting}{0}
\setcounter{section@level}{1}
}
