\relax 
\providecommand\hyper@newdestlabel[2]{}
\citation{book:matComp}
\@writefile{toc}{\contentsline {chapter}{\numberline {7}RESULTS}{149}{chapter.7}}
\newlabel{ch:8}{{7}{149}{RESULTS}{chapter.7}{}}
\@writefile{toc}{\contentsline {section}{\numberline {7.1}Comparison of Algorithms}{149}{section.7.1}}
\@writefile{toc}{\contentsline {subsection}{\numberline {7.1.1}Algorithm Complexity}{149}{subsection.7.1.1}}
\@writefile{lot}{\contentsline {table}{\numberline {7.1}{\ignorespaces Comparison of the computational complexity of the algorithms.\relax }}{150}{table.caption.137}}
\newlabel{tab:compAlgComplexity}{{7.1}{150}{Comparison of the computational complexity of the algorithms.\relax }{table.caption.137}{}}
\@writefile{lot}{\contentsline {table}{\numberline {7.2}{\ignorespaces Table of various variables used in simulation.\relax }}{151}{table.caption.138}}
\newlabel{tab:Sim_Variable_Values_Code}{{7.2}{151}{Table of various variables used in simulation.\relax }{table.caption.138}{}}
\@writefile{toc}{\contentsline {subsection}{\numberline {7.1.2}Simulation Results}{151}{subsection.7.1.2}}
\@writefile{toc}{\contentsline {subsubsection}{MATLAB Conditions}{151}{section*.139}}
\@writefile{toc}{\contentsline {subsubsection}{Results}{152}{section*.140}}
\@writefile{toc}{\contentsline {paragraph}{\textbf  {\textit  {Effects of Various Parameters:}}}{152}{section*.141}}
\@writefile{toc}{\contentsline {subparagraph}{\relax $\@@underline {\hbox {Signal Bandwidth and Sample Rate:}}\mathsurround \z@ $\relax }{152}{section*.142}}
\@writefile{toc}{\contentsline {subparagraph}{\relax $\@@underline {\hbox {Noise:}}\mathsurround \z@ $\relax }{153}{section*.143}}
\@writefile{toc}{\contentsline {subparagraph}{\relax $\@@underline {\hbox {Sample Size:}}\mathsurround \z@ $\relax }{153}{section*.144}}
\@writefile{toc}{\contentsline {subparagraph}{\relax $\@@underline {\hbox {Channel Order:}}\mathsurround \z@ $\relax }{153}{section*.145}}
\@writefile{toc}{\contentsline {subparagraph}{\relax $\@@underline {\hbox {Initial Channel Estimates:}}\mathsurround \z@ $\relax }{154}{section*.146}}
\@writefile{toc}{\contentsline {subsection}{\numberline {7.1.3}Results with Real Observed Data}{154}{subsection.7.1.3}}
\@writefile{lof}{\contentsline {figure}{\numberline {7.1}{\ignorespaces The approximate locations of the antennas used during real-world data testing. The large blue circles correspond to the location of the receivers, and the smaller multi-colored circles the location of the transmitters. Note that this figure is not to scale.\relax }}{155}{figure.caption.148}}
\newlabel{fig:santLoc_approx}{{7.1}{155}{The approximate locations of the antennas used during real-world data testing. The large blue circles correspond to the location of the receivers, and the smaller multi-colored circles the location of the transmitters. Note that this figure is not to scale.\relax }{figure.caption.148}{}}
\@writefile{toc}{\contentsline {subsubsection}{Testing Conditions}{155}{section*.147}}
\@writefile{lot}{\contentsline {table}{\numberline {7.3}{\ignorespaces The distance in meters between antennas (receiver or transmitters).\relax }}{156}{table.caption.149}}
\newlabel{tab:sant_Dist}{{7.3}{156}{The distance in meters between antennas (receiver or transmitters).\relax }{table.caption.149}{}}
\@writefile{lof}{\contentsline {figure}{\numberline {7.2}{\ignorespaces Channel estimates for the Gaussian Data sets with the most ``reasonable'' results, using a model order of $L = 32$. These plots show $\qopname  \relax o{ln}(\mathbf  {h}_i)$, for $i = 2, 3$, as the values received by the receiver are very small.\relax }}{156}{figure.caption.151}}
\newlabel{fig:gauss_Real}{{7.2}{156}{Channel estimates for the Gaussian Data sets with the most ``reasonable'' results, using a model order of $L = 32$. These plots show $\ln (\mathbf {h}_i)$, for $i = 2, 3$, as the values received by the receiver are very small.\relax }{figure.caption.151}{}}
\@writefile{toc}{\contentsline {subsubsection}{Results}{156}{section*.150}}
\@writefile{lof}{\contentsline {figure}{\numberline {7.3}{\ignorespaces Channel estimates for the HT Data sets, using a model order of $L = 32$. These plots show $\qopname  \relax o{ln}(\mathbf  {h}_i)$, for $i = 2, 3$, to match the results shown above in Figure \ref  {fig:gauss_Real}.\relax }}{157}{figure.caption.152}}
\newlabel{fig:HT_Real}{{7.3}{157}{Channel estimates for the HT Data sets, using a model order of $L = 32$. These plots show $\ln (\mathbf {h}_i)$, for $i = 2, 3$, to match the results shown above in Figure \ref {fig:gauss_Real}.\relax }{figure.caption.152}{}}
\@writefile{toc}{\contentsline {section}{\numberline {7.2}Final Observations}{157}{section.7.2}}
\@setckpt{Chapters/Chapter_8/ch_8_results}{
\setcounter{page}{159}
\setcounter{equation}{0}
\setcounter{enumi}{3}
\setcounter{enumii}{0}
\setcounter{enumiii}{0}
\setcounter{enumiv}{0}
\setcounter{footnote}{2}
\setcounter{mpfootnote}{0}
\setcounter{part}{0}
\setcounter{chapter}{7}
\setcounter{section}{2}
\setcounter{subsection}{0}
\setcounter{subsubsection}{0}
\setcounter{paragraph}{0}
\setcounter{subparagraph}{0}
\setcounter{figure}{3}
\setcounter{table}{3}
\setcounter{savemainpageno}{0}
\setcounter{savefrontpageno}{22}
\setcounter{savetotalpageno}{0}
\setcounter{float@type}{16}
\setcounter{alg}{0}
\setcounter{parentequation}{0}
\setcounter{lstnumber}{1}
\setcounter{LT@tables}{0}
\setcounter{LT@chunks}{0}
\setcounter{ContinuedFloat}{0}
\setcounter{subfigure}{2}
\setcounter{subtable}{0}
\setcounter{Item}{12}
\setcounter{Hfootnote}{10}
\setcounter{bookmark@seq@number}{67}
\setcounter{lstlisting}{0}
\setcounter{section@level}{1}
}
