% This file was created by matlab2tikz.
%
%The latest updates can be retrieved from
%  http://www.mathworks.com/matlabcentral/fileexchange/22022-matlab2tikz-matlab2tikz
%where you can also make suggestions and rate matlab2tikz.
%
\definecolor{mycolor1}{rgb}{0.00000,0.44700,0.74100}%
%
\begin{tikzpicture}

\begin{axis}[%
width=1.952in,
height=3.433in,
at={(0.758in,0.513in)},
scale only axis,
xmin=-30,
xmax=29.4059405940594,
xlabel style={font=\color{white!15!black}, align=center},
xlabel={Frequency (MHz)\\[1ex](a)},
ymin=140,
ymax=280,
ylabel style={font=\color{white!15!black}},
ylabel={Magnitude},
axis background/.style={fill=white},
legend style={legend cell align=left, align=left, draw=white!15!black}
]
\addplot [color=mycolor1]
  table[row sep=crcr]{%
-30	242.481679732089\\
-29.4059405940594	186.386010836469\\
-28.8118811881188	186.205548267848\\
-28.2178217821782	193.965242349809\\
-27.6237623762376	226.08420978143\\
-27.029702970297	223.578730288069\\
-26.4356435643564	214.04216440909\\
-25.8415841584158	169.008977870155\\
-25.2475247524752	224.865984151022\\
-24.6534653465347	185.252965795012\\
-24.0594059405941	242.838060666602\\
-23.4653465346535	201.799409333623\\
-22.8712871287129	206.843830891585\\
-22.2772277227723	185.225396955028\\
-21.6831683168317	183.747434619516\\
-21.0891089108911	182.199033470135\\
-20.4950495049505	214.406971590317\\
-19.9009900990099	227.688575394365\\
-19.3069306930693	187.41292098848\\
-18.7128712871287	190.851455199391\\
-18.1188118811881	184.29203976182\\
-17.5247524752475	209.07594247427\\
-16.9306930693069	199.539023343521\\
-16.3366336633663	196.658673374547\\
-15.7425742574257	189.732291863659\\
-15.1485148514851	175.026129140411\\
-14.5544554455446	207.643623469689\\
-13.960396039604	192.132158698077\\
-13.3663366336634	197.16208636726\\
-12.7722772277228	230.630447632415\\
-12.1782178217822	184.424678771828\\
-11.5841584158416	177.80886125689\\
-10.990099009901	160.544789482139\\
-10.3960396039604	210.550678855796\\
-9.8019801980198	182.518832121084\\
-9.20792079207921	163.803995072967\\
-8.61386138613862	234.450625639048\\
-8.01980198019802	189.134393134985\\
-7.42574257425743	217.358987631484\\
-6.83168316831683	200.840838173148\\
-6.23762376237624	184.557383703525\\
-5.64356435643564	164.299102244418\\
-5.04950495049505	200.733687346618\\
-4.45544554455446	157.055494855909\\
-3.86138613861386	211.214025913597\\
-3.26732673267327	204.611900010488\\
-2.67326732673267	205.738395441927\\
-2.07920792079208	243.424948802934\\
-1.48514851485149	208.715652851454\\
-0.891089108910894	201.406518734241\\
-0.297029702970299	205.740752166365\\
0.297029702970296	211.308473547894\\
0.89108910891089	179.62655741747\\
1.48514851485148	175.277183038931\\
2.07920792079208	208.262477369117\\
2.67326732673267	209.261412789451\\
3.26732673267326	205.280311307975\\
3.86138613861386	216.206782979988\\
4.45544554455445	196.705678188267\\
5.04950495049505	224.033989293231\\
5.64356435643564	186.224647703605\\
6.23762376237623	196.349724783954\\
6.83168316831683	209.634722766553\\
7.42574257425742	207.163654969451\\
8.01980198019802	183.070561911024\\
8.61386138613861	183.087372724598\\
9.2079207920792	214.398436928717\\
9.8019801980198	208.389459608473\\
10.3960396039604	202.524855754829\\
10.990099009901	176.437015610552\\
11.5841584158416	191.587353213384\\
12.1782178217822	197.61003253563\\
12.7722772277228	185.790213875231\\
13.3663366336634	192.781176510417\\
13.960396039604	180.452681442212\\
14.5544554455446	227.018290172928\\
15.1485148514851	216.636254232396\\
15.7425742574257	213.573263889807\\
16.3366336633663	233.133595571597\\
16.9306930693069	203.312465581848\\
17.5247524752475	185.051210781159\\
18.1188118811881	209.590711493868\\
18.7128712871287	154.357925715547\\
19.3069306930693	212.862091238624\\
19.9009900990099	225.439256444182\\
20.4950495049505	263.844950124281\\
21.0891089108911	190.942565581508\\
21.6831683168317	216.935914307995\\
22.2772277227723	159.852720760817\\
22.8712871287129	208.530886793186\\
23.4653465346535	219.745596670158\\
24.0594059405941	199.410568584787\\
24.6534653465346	180.640363622094\\
25.2475247524752	192.317111624692\\
25.8415841584158	201.130379725451\\
26.4356435643564	190.78549348867\\
27.029702970297	165.482323586936\\
27.6237623762376	180.953163371604\\
28.2178217821782	199.308043053271\\
28.8118811881188	207.642176824423\\
29.4059405940594	186.097822564753\\
};
\addlegendentry{data1}

\end{axis}

\begin{axis}[%
width=1.952in,
height=3.433in,
at={(3.327in,0.513in)},
scale only axis,
xmin=-30,
xmax=30,
xlabel style={font=\color{white!15!black}, align=center},
xlabel={Frequency (MHz)\\[1ex](b)},
ymin=0,
ymax=250,
ylabel style={font=\color{white!15!black}},
ylabel={Magnitude},
axis background/.style={fill=white},
legend style={legend cell align=left, align=left, draw=white!15!black}
]
\addplot [color=mycolor1]
  table[row sep=crcr]{%
-30	1.09347631702348\\
-29.4059405940594	1.09226494768196\\
-28.8118811881188	1.09439730376421\\
-28.2178217821782	1.09542105484815\\
-27.6237623762376	1.09980278231286\\
-27.029702970297	1.10309341460699\\
-26.4356435643564	1.10979947204956\\
-25.8415841584158	1.11543778490752\\
-25.2475247524752	1.12459481537398\\
-24.6534653465347	1.13271486160635\\
-24.0594059405941	1.14450763220725\\
-23.4653465346535	1.15530398608836\\
-22.8712871287129	1.16998533713159\\
-22.2772277227723	1.18372412682044\\
-21.6831683168317	1.20162942854031\\
-21.0891089108911	1.21866426377118\\
-20.4950495049505	1.24023191142541\\
-19.9009900990099	1.26102641481769\\
-19.3069306930693	1.28682664799312\\
-18.7128712871287	1.31198610106701\\
-18.1188118811881	1.34276149820294\\
-17.5247524752475	1.37307718397168\\
-16.9306930693069	1.40979960028515\\
-16.3366336633663	1.44631064015806\\
-15.7425742574257	1.49026087106218\\
-15.1485148514851	1.5343388767303\\
-14.5544554455446	1.58721541890286\\
-13.960396039604	1.64067349716518\\
-13.3663366336634	1.70472877525463\\
-12.7722772277228	1.76993371787906\\
-12.1782178217822	1.84809199715497\\
-11.5841584158416	1.9279555150456\\
-10.990099009901	2.02366139238669\\
-10.3960396039604	2.12091483778756\\
-9.8019801980198	2.23644577774872\\
-9.20792079207921	2.34913865233468\\
-8.61386138613862	2.47513177654542\\
-8.01980198019802	2.56856494126991\\
-7.42574257425743	2.60663095292173\\
-6.83168316831683	2.34921460459774\\
-6.23762376237624	0.9744712125637\\
-5.64356435643564	14.0018003937592\\
-5.04950495049505	187.66357116206\\
-4.45544554455446	144.814274416019\\
-3.86138613861386	204.532515164738\\
-3.26732673267327	184.909883049937\\
-2.67326732673267	203.173502368347\\
-2.07920792079208	224.14393704277\\
-1.48514851485149	194.893833024301\\
-0.891089108910894	199.602281916232\\
-0.297029702970299	181.956410482801\\
0.297029702970296	207.710823951634\\
0.89108910891089	168.41297641044\\
1.48514851485148	161.377405158327\\
2.07920792079208	203.583816286305\\
2.67326732673267	191.653475296522\\
3.26732673267326	196.332011736036\\
3.86138613861386	200.381255144674\\
4.45544554455445	181.947135094308\\
5.04950495049505	32.2734299226863\\
5.64356435643564	10.0872299504885\\
6.23762376237623	6.56755785335347\\
6.83168316831683	4.9925985201442\\
7.42574257425742	4.15318656575872\\
8.01980198019802	3.56937052061156\\
8.61386138613861	3.17954491152556\\
9.2079207920792	2.86324334722684\\
9.8019801980198	2.63162723679124\\
10.3960396039604	2.42896558740108\\
10.990099009901	2.27327592888271\\
11.5841584158416	2.13087974692187\\
12.1782178217822	2.0183869996854\\
12.7722772277228	1.91244244067169\\
13.3663366336634	1.8273085021469\\
13.960396039604	1.74541436503827\\
14.5544554455446	1.67893493541762\\
15.1485148514851	1.61392257444122\\
15.7425742574257	1.56087073190224\\
16.3366336633663	1.5082746644185\\
16.9306930693069	1.46530181341435\\
17.5247524752475	1.42218124394923\\
18.1188118811881	1.38703510734461\\
18.7128712871287	1.35136936921602\\
19.3069306930693	1.32247764769431\\
19.9009900990099	1.29283213272033\\
20.4950495049505	1.26906561547633\\
21.0891089108911	1.24439597333086\\
21.6831683168317	1.22492641655412\\
22.2772277227723	1.2044582331218\\
22.8712871287129	1.18866938490461\\
23.4653465346535	1.17182136973176\\
24.0594059405941	1.15925134753633\\
24.6534653465346	1.14558479493818\\
25.2475247524752	1.13588779267016\\
25.8415841584158	1.12507257506148\\
26.4356435643564	1.11799297669239\\
27.029702970297	1.10978434756375\\
27.6237623762376	1.10513912294908\\
28.2178217821782	1.09936186565701\\
28.8118811881188	1.09702873207089\\
29.4059405940594	1.09356651733444\\
};
\addlegendentry{data1}

\end{axis}
\end{tikzpicture}%