% This file was created by matlab2tikz.
%
%The latest updates can be retrieved from
%  http://www.mathworks.com/matlabcentral/fileexchange/22022-matlab2tikz-matlab2tikz
%where you can also make suggestions and rate matlab2tikz.
%
\definecolor{mycolor1}{rgb}{0.00000,0.44700,0.74100}%
%
\begin{tikzpicture}

\begin{axis}[%
width=1.952in,
height=3.433in,
at={(0.758in,0.513in)},
scale only axis,
xmin=-50,
xmax=50,
xlabel style={font=\color{white!15!black}, align=center},
xlabel={Frequency (MHz)\\[1ex](a)},
ymin=140,
ymax=280,
ylabel style={font=\color{white!15!black}},
ylabel={Magnitude},
axis background/.style={fill=white},
legend style={legend cell align=left, align=left, draw=white!15!black}
]
\addplot [color=mycolor1]
  table[row sep=crcr]{%
-50	242.481679732089\\
-49.009900990099	186.386010836469\\
-48.019801980198	186.205548267848\\
-47.029702970297	193.965242349809\\
-46.039603960396	226.08420978143\\
-45.049504950495	223.578730288069\\
-44.0594059405941	214.04216440909\\
-43.0693069306931	169.008977870155\\
-42.0792079207921	224.865984151022\\
-41.0891089108911	185.252965795012\\
-40.0990099009901	242.838060666602\\
-39.1089108910891	201.799409333623\\
-38.1188118811881	206.843830891585\\
-37.1287128712871	185.225396955028\\
-36.1386138613861	183.747434619516\\
-35.1485148514851	182.199033470135\\
-34.1584158415842	214.406971590317\\
-33.1683168316832	227.688575394365\\
-32.1782178217822	187.41292098848\\
-31.1881188118812	190.851455199391\\
-30.1980198019802	184.29203976182\\
-29.2079207920792	209.07594247427\\
-28.2178217821782	199.539023343521\\
-27.2277227722772	196.658673374547\\
-26.2376237623762	189.732291863659\\
-25.2475247524752	175.026129140411\\
-24.2574257425743	207.643623469689\\
-23.2673267326733	192.132158698077\\
-22.2772277227723	197.16208636726\\
-21.2871287128713	230.630447632415\\
-20.2970297029703	184.424678771828\\
-19.3069306930693	177.80886125689\\
-18.3168316831683	160.544789482139\\
-17.3267326732673	210.550678855796\\
-16.3366336633663	182.518832121084\\
-15.3465346534653	163.803995072967\\
-14.3564356435644	234.450625639048\\
-13.3663366336634	189.134393134985\\
-12.3762376237624	217.358987631484\\
-11.3861386138614	200.840838173148\\
-10.3960396039604	184.557383703525\\
-9.40594059405941	164.299102244418\\
-8.41584158415841	200.733687346618\\
-7.42574257425743	157.055494855909\\
-6.43564356435644	211.214025913597\\
-5.44554455445545	204.611900010488\\
-4.45544554455446	205.738395441927\\
-3.46534653465346	243.424948802934\\
-2.47524752475248	208.715652851454\\
-1.48514851485149	201.406518734241\\
-0.495049504950494	205.740752166365\\
0.495049504950501	211.308473547894\\
1.48514851485149	179.62655741747\\
2.47524752475248	175.277183038931\\
3.46534653465347	208.262477369117\\
4.45544554455446	209.261412789451\\
5.44554455445545	205.280311307975\\
6.43564356435644	216.206782979988\\
7.42574257425743	196.705678188267\\
8.41584158415842	224.033989293231\\
9.40594059405941	186.224647703605\\
10.3960396039604	196.349724783954\\
11.3861386138614	209.634722766553\\
12.3762376237624	207.163654969451\\
13.3663366336634	183.070561911024\\
14.3564356435644	183.087372724598\\
15.3465346534653	214.398436928717\\
16.3366336633663	208.389459608473\\
17.3267326732673	202.524855754829\\
18.3168316831683	176.437015610552\\
19.3069306930693	191.587353213384\\
20.2970297029703	197.61003253563\\
21.2871287128713	185.790213875231\\
22.2772277227723	192.781176510417\\
23.2673267326733	180.452681442212\\
24.2574257425743	227.018290172928\\
25.2475247524753	216.636254232396\\
26.2376237623762	213.573263889807\\
27.2277227722772	233.133595571597\\
28.2178217821782	203.312465581848\\
29.2079207920792	185.051210781159\\
30.1980198019802	209.590711493868\\
31.1881188118812	154.357925715547\\
32.1782178217822	212.862091238624\\
33.1683168316832	225.439256444182\\
34.1584158415842	263.844950124281\\
35.1485148514852	190.942565581508\\
36.1386138613861	216.935914307995\\
37.1287128712871	159.852720760817\\
38.1188118811881	208.530886793186\\
39.1089108910891	219.745596670158\\
40.0990099009901	199.410568584787\\
41.0891089108911	180.640363622094\\
42.0792079207921	192.317111624692\\
43.0693069306931	201.130379725451\\
44.0594059405941	190.78549348867\\
45.049504950495	165.482323586936\\
46.039603960396	180.953163371604\\
47.029702970297	199.308043053271\\
48.019801980198	207.642176824423\\
49.009900990099	186.097822564753\\
};
\addlegendentry{data1}

\end{axis}

\begin{axis}[%
width=1.952in,
height=3.433in,
at={(3.327in,0.513in)},
scale only axis,
xmin=-50,
xmax=50,
xlabel style={font=\color{white!15!black}, align=center},
xlabel={Frequency (MHz)\\[1ex](b)},
ymin=0,
ymax=250,
ylabel style={font=\color{white!15!black}},
ylabel={Magnitude},
axis background/.style={fill=white},
legend style={legend cell align=left, align=left, draw=white!15!black}
]
\addplot [color=mycolor1]
  table[row sep=crcr]{%
-50	0.536486977024759\\
-49.009900990099	0.532715464006493\\
-48.019801980198	0.530400789538262\\
-47.029702970297	0.527629788013315\\
-46.039603960396	0.526299995149978\\
-45.049504950495	0.524477967178985\\
-44.0594059405941	0.524097866491656\\
-43.0693069306931	0.523189057812337\\
-42.0792079207921	0.523738839042943\\
-41.0891089108911	0.523721172995336\\
-40.0990099009901	0.525194815663914\\
-39.1089108910891	0.526058067075705\\
-38.1188118811881	0.528461979275074\\
-37.1287128712871	0.530205941116591\\
-36.1386138613861	0.533557538680836\\
-35.1485148514851	0.536189785302954\\
-34.1584158415842	0.540515582296197\\
-33.1683168316832	0.54404820267931\\
-32.1782178217822	0.549380692767744\\
-31.1881188118812	0.553824913883167\\
-30.1980198019802	0.560196943869919\\
-29.2079207920792	0.5655536763842\\
-28.2178217821782	0.57298785737175\\
-27.2277227722772	0.579230419170302\\
-26.2376237623762	0.587718746626036\\
-25.2475247524752	0.594760334780076\\
-24.2574257425743	0.604224112748087\\
-23.2673267326733	0.61185458715886\\
-22.2772277227723	0.622063329564021\\
-21.2871287128713	0.62982143396223\\
-20.2970297029703	0.640222027747156\\
-19.3069306930693	0.647123577837479\\
-18.3168316831683	0.65645991864061\\
-17.3267326732673	0.660379204230948\\
-16.3366336633663	0.665778670079319\\
-15.3465346534653	0.661906740125643\\
-14.3564356435644	0.656443907613652\\
-13.3663366336634	0.632930655908827\\
-12.3762376237624	0.59808261623815\\
-11.3861386138614	0.521243467251917\\
-10.3960396039604	0.397594804136844\\
-9.40594059405941	0.144844354945075\\
-8.41584158415841	0.334425705540073\\
-7.42574257425743	1.49075745146415\\
-6.43564356435644	4.78462790194131\\
-5.44554455445545	109.097650324104\\
-4.45544554455446	213.701646040689\\
-3.46534653465346	219.056306581331\\
-2.47524752475248	204.962813017116\\
-1.48514851485149	184.452191625669\\
-0.495049504950494	200.065853465859\\
0.495049504950501	195.245308568552\\
1.48514851485149	174.385210518179\\
2.47524752475248	157.819147095868\\
3.46534653465347	207.492816092712\\
4.45544554455446	134.545353343744\\
5.44554455445545	15.0727820155446\\
6.43564356435644	8.67004986381576\\
7.42574257425743	5.98492635304156\\
8.41584158415842	4.57349011037752\\
9.40594059405941	3.68180106546483\\
10.3960396039604	3.0891276716827\\
11.3861386138614	2.65130309058679\\
12.3762376237624	2.32885768356816\\
13.3663366336634	2.07054090326297\\
14.3564356435644	1.86927720732062\\
15.3465346534653	1.69977514185339\\
16.3366336633663	1.56301902435233\\
17.3267326732673	1.44382989750984\\
18.3168316831683	1.34541012933964\\
19.3069306930693	1.25744149449935\\
20.2970297029703	1.18363000009254\\
21.2871287128713	1.11635178167429\\
22.2772277227723	1.05926683639648\\
23.2673267326733	1.00640304352887\\
24.2574257425743	0.961203735721624\\
25.2475247524753	0.918786106930525\\
26.2376237623762	0.882339575566879\\
27.2277227722772	0.84773956513049\\
28.2178217821782	0.817932117696518\\
29.2079207920792	0.789342127271402\\
30.1980198019802	0.764698630365364\\
31.1881188118812	0.740836865028307\\
32.1782178217822	0.720298786131058\\
33.1683168316832	0.700232906331109\\
34.1584158415842	0.683022963106194\\
35.1485148514852	0.666060322125135\\
36.1386138613861	0.65159679087406\\
37.1287128712871	0.637213714477012\\
38.1188118811881	0.625054422858201\\
39.1089108910891	0.612849279333484\\
40.0990099009901	0.602653990666624\\
41.0891089108911	0.592315248601438\\
42.0792079207921	0.583819803328309\\
43.0693069306931	0.575103811238594\\
44.0594059405941	0.568101995444629\\
45.049504950495	0.56081723270226\\
46.039603960396	0.555147852774027\\
47.029702970297	0.549143588579921\\
48.019801980198	0.54468113342017\\
49.009900990099	0.539839150520079\\
};
\addlegendentry{data1}

\end{axis}

\begin{axis}[%
width=5.833in,
height=4.375in,
at={(0in,0in)},
scale only axis,
xmin=0,
xmax=1,
ymin=0,
ymax=1,
axis line style={draw=none},
ticks=none,
axis x line*=bottom,
axis y line*=left,
legend style={legend cell align=left, align=left, draw=white!15!black}
]
\end{axis}
\end{tikzpicture}%