% This file was created by matlab2tikz.
%
%The latest updates can be retrieved from
%  http://www.mathworks.com/matlabcentral/fileexchange/22022-matlab2tikz-matlab2tikz
%where you can also make suggestions and rate matlab2tikz.
%
\definecolor{mycolor1}{rgb}{0.00000,0.44700,0.74100}%
\definecolor{mycolor2}{rgb}{0.85000,0.32500,0.09800}%
%
\begin{tikzpicture}

\begin{axis}[%
width=1.935in,
height=3.2in,
at={(0.758in,0.512in)},
scale only axis,
xmin=0,
xmax=100,
xlabel style={font=\color{white!15!black}, align=center},
xlabel={Sample Index\\[1ex](a) Actual},
ymin=0,
ymax=1,
axis background/.style={fill=white},
legend style={legend cell align=left, align=left, draw=white!15!black}
]
\addplot [color=mycolor1]
  table[row sep=crcr]{%
1	0.0216926152020066\\
2	0.0241183965289278\\
3	0.0267807478156139\\
4	0.0354280601095614\\
5	0.221828667704926\\
6	0.648965745595675\\
7	0.241270440438586\\
8	0.0776642628644082\\
9	0.0581044824071981\\
10	0.0611489366831747\\
11	0.0798140419847986\\
12	0.062735544320507\\
13	0.113011040425493\\
14	0.377485382687519\\
15	0.331649248845691\\
16	0.18615433793772\\
17	0.146493252817741\\
18	0.0847190801249442\\
19	0.0628278567269286\\
20	0.0148364296169451\\
21	0.0250471739922352\\
22	0.0344835915107885\\
23	0.116323790948646\\
24	0.279210940275387\\
25	0.101045410677318\\
26	0.0464379665429307\\
27	0.041398863205924\\
28	0.0263226969199998\\
29	0.0221848789960478\\
30	0.0197642774213948\\
31	0.0186496517239344\\
32	0.0219339353832985\\
33	0.018414044189717\\
34	0.00937919788338426\\
35	0.0100670783096178\\
36	0.0098135024549665\\
37	0.00937197330245933\\
38	0.00884810306396591\\
39	0.00821513429074651\\
40	0.00732026654240377\\
41	0.00945021173361951\\
42	0.0127255218727005\\
43	0.00946415089832864\\
44	0.00862800399957479\\
45	0.00816256372793386\\
46	0.00784857678072338\\
47	0.00764005346579914\\
48	0.00755773656417068\\
49	0.00776075567554332\\
50	0.00986938420958768\\
51	0.00319649311885596\\
52	0.00500292172051245\\
53	0.00524752973649041\\
54	0.00526667690567613\\
55	0.00521575322380608\\
56	0.00513704586881206\\
57	0.00504647235310817\\
58	0.00495116794332671\\
59	0.00485468351773321\\
60	0.00475890010347922\\
61	0.00466484578572566\\
62	0.00457308311118313\\
63	0.00448390798586452\\
64	0.0043974582605137\\
65	0.00431377595094964\\
66	0.00423284428954661\\
67	0.00415461047403326\\
68	0.00407899997367922\\
69	0.00400592569101114\\
70	0.00393529390404367\\
71	0.0038670081481966\\
72	0.00380097175500134\\
73	0.00373708950172093\\
74	0.00367526866536834\\
75	0.00361541967416126\\
76	0.00355745648532918\\
77	0.00350129677649243\\
78	0.00344686201027152\\
79	0.00339407741330312\\
80	0.00334287189828014\\
81	0.0032931779490063\\
82	0.00324493148246751\\
83	0.00319807169773062\\
84	0.003152540918526\\
85	0.00310828443427485\\
86	0.00306525034282854\\
87	0.00302338939712195\\
88	0.00298265485717807\\
89	0.00294300234835571\\
90	0.00290438972634362\\
91	0.0028667769491261\\
92	0.00283012595595264\\
93	0.0027944005532083\\
94	0.00275956630699144\\
95	0.0027255904421446\\
96	0.00269244174744817\\
97	0.00266009048666622\\
98	0.00262850831512411\\
99	0\\
100	0\\
};
\addlegendentry{$\mathbf{h_1}$}

\addplot [color=mycolor2]
  table[row sep=crcr]{%
1	0.00108294891904515\\
2	0.00115806441999571\\
3	0.00125656841390277\\
4	0.00139359850086552\\
5	0.00159676508941691\\
6	0.00191784013184518\\
7	0.00245777585368985\\
8	0.00342819163679349\\
9	0.00533730915065768\\
10	0.00974214709050295\\
11	0.0244449264542886\\
12	0.973731186814765\\
13	0.0500739614470277\\
14	0.0426946282907342\\
15	0.00536788790071817\\
16	0.0362080823589407\\
17	0.176144271962331\\
18	0.115663212635922\\
19	0.0234963057121139\\
20	0.0138738178597906\\
21	0.00966054585381422\\
22	0.00731818549393035\\
23	0.00584139575065055\\
24	0.0048330083027894\\
25	0.00410500747522503\\
26	0.00355723928842746\\
27	0.00313167065616096\\
28	0.00279247304593218\\
29	0.00251639833876938\\
30	0.00228774297450139\\
31	0.00209554142652578\\
32	0.00193191967393617\\
33	0.00179108704155738\\
34	0.00166869616651274\\
35	0\\
36	0\\
37	0\\
38	0\\
39	0\\
40	0\\
41	0\\
42	0\\
43	0\\
44	0\\
45	0\\
46	0\\
47	0\\
48	0\\
49	0\\
50	0\\
51	0\\
52	0\\
53	0\\
54	0\\
55	0\\
56	0\\
57	0\\
58	0\\
59	0\\
60	0\\
61	0\\
62	0\\
63	0\\
64	0\\
65	0\\
66	0\\
67	0\\
68	0\\
69	0\\
70	0\\
71	0\\
72	0\\
73	0\\
74	0\\
75	0\\
76	0\\
77	0\\
78	0\\
79	0\\
80	0\\
81	0\\
82	0\\
83	0\\
84	0\\
85	0\\
86	0\\
87	0\\
88	0\\
89	0\\
90	0\\
91	0\\
92	0\\
93	0\\
94	0\\
95	0\\
96	0\\
97	0\\
98	0\\
99	0\\
100	0\\
};
\addlegendentry{$\mathbf{h_{2}}$}

\end{axis}

\begin{axis}[%
width=1.935in,
height=3.2in,
at={(3.327in,0.512in)},
scale only axis,
xmin=0,
xmax=100,
xlabel style={font=\color{white!15!black}, align=center},
xlabel={Sample Index\\[1ex](b) Estimated},
ymin=0,
ymax=1,
axis background/.style={fill=white},
legend style={legend cell align=left, align=left, draw=white!15!black}
]
\addplot [color=mycolor1]
  table[row sep=crcr]{%
0	0.00105573600900066\\
1	0.00021088768646679\\
2	0.000381535367609363\\
3	0.000958600427428244\\
4	0.00249952199667106\\
5	0.00102535590445523\\
6	0.00101231568541074\\
7	0.000887966971336013\\
8	0.00187769430980075\\
9	0.000787896979743922\\
10	0.00277560331900196\\
11	0.00286410812603429\\
12	0.00138999443126512\\
13	0.00291100631316435\\
14	0.00249096172973575\\
15	0.00233653633770196\\
16	0.00202609463782138\\
17	0.00558245256512766\\
18	0.0038800962323239\\
19	0.00733549903949819\\
20	0.0192484922553029\\
21	0.00272179676849099\\
22	0.00595817597876823\\
23	0.00527901724533077\\
24	0.00454053551714521\\
25	0.00582241715506379\\
26	0.00800813290783578\\
27	0.0167591446880816\\
28	0.0352119199397061\\
29	0.0225815133717491\\
30	0.0226250325183188\\
31	0.0322619675612091\\
32	0.045425219748826\\
33	0.106019244178525\\
34	0.0294938743571605\\
35	0.0331090576583541\\
36	0.0230979075745276\\
37	0.192304964524116\\
38	0.661268058381848\\
39	0.209395988464988\\
40	0.0434988638215204\\
41	0.144553913321209\\
42	0.0742668626751501\\
43	0.103076041100992\\
44	0.0350670312910247\\
45	0.106005273899503\\
46	0.392148649072277\\
47	0.292878343654337\\
48	0.172338024267927\\
49	0.130438687316879\\
50	0.0734422155882267\\
51	0.106474407252697\\
52	0.0347342542305621\\
53	0.0387901706120947\\
54	0.0521128021363065\\
55	0.117679156036881\\
56	0.272616179920388\\
57	0.0771817060542631\\
58	0.021691947887434\\
59	0.022000319745947\\
60	0.0237828911170598\\
61	0.0201699610448202\\
62	0.0261738336936876\\
63	0.0309760225568483\\
64	0.0415311435800753\\
65	0.0213082450183639\\
66	0.00649927690956326\\
67	0.00422674470922616\\
68	0.0173270275506127\\
69	0.0145869410349238\\
70	0.0096485104739768\\
71	0.00713453512723655\\
72	0.0114880333438084\\
73	0.0121638956005334\\
74	0.00980707788728583\\
75	0.012265980300169\\
76	0.0103321142291796\\
77	0.00794040493997034\\
78	0.00968212331838728\\
79	0.00989291494869968\\
80	0.00835373226117132\\
81	0.0108957004238322\\
82	0.0112134481550042\\
83	0.0033277474422717\\
84	0.0058232153264665\\
85	0.00515531622277241\\
86	0.00526575263934345\\
87	0.00562455792753264\\
88	0.00466723106840464\\
89	0.00443892648119699\\
};
\addlegendentry{$\mathbf{\hat{h}_{1}}$}

\addplot [color=mycolor2]
  table[row sep=crcr]{%
0	0.00237397248641949\\
1	0.00138720732677299\\
2	0.00112882167067964\\
3	0.00130534706411912\\
4	0.000780373552792896\\
5	0.00151576931305414\\
6	0.00182446285946434\\
7	0.00157421159535214\\
8	0.00125977081993371\\
9	0.000231982610764999\\
10	0.00263246889462881\\
11	0.00158178687828701\\
12	0.00209660795171874\\
13	0.0026358627159862\\
14	0.0022367988253995\\
15	0.0013174793053023\\
16	0.00357982542169133\\
17	0.00353093437989847\\
18	0.00586887747633443\\
19	0.00410132469685727\\
20	0.00268495903101999\\
21	0.00268666863852094\\
22	0.00193333120686479\\
23	0.00161356412218045\\
24	0.00683553397271109\\
25	0.0079042730238735\\
26	0.0499984285216755\\
27	0.00834098558107209\\
28	0.0118054619615936\\
29	0.00815467953311842\\
30	0.00673811712950179\\
31	0.00898849041807369\\
32	0.000729860932952176\\
33	0.0346097805874827\\
34	0.0521093943498302\\
35	0.0166994233530102\\
36	0.0755384655980252\\
37	0.00736365961126875\\
38	0.00521884877439334\\
39	0.0161180488907501\\
40	0.0126160470930175\\
41	0.0215187258178482\\
42	0.0300064389364785\\
43	0.00778558811655731\\
44	0.984908775660344\\
45	0.00778245807049442\\
46	0.030004025435547\\
47	0.0215180293857175\\
48	0.0126235562206343\\
49	0.0161219819712718\\
50	0.00521492967821575\\
51	0.00736802126797431\\
52	0.0755401177452756\\
53	0.0166872700426804\\
54	0.0521018110022347\\
55	0.034598215004859\\
56	0.000726055737430097\\
57	0.00899383508608719\\
58	0.00672229142795682\\
59	0.00813777749411375\\
60	0.0117886462520971\\
61	0.00834494301630354\\
62	0.0499917354688915\\
63	0.00793496222017143\\
64	0.00682216689446888\\
65	0.00157746555521655\\
66	0.00190288739379727\\
67	0.00265914979781718\\
68	0.00265934019634722\\
69	0.00407112807811025\\
70	0.00587983188480683\\
71	0.00350732206525904\\
72	0.00358882464585397\\
73	0.00135287806572758\\
74	0.00218646459723591\\
75	0.00258102670038745\\
76	0.00203555821297653\\
77	0.0014911048452836\\
78	0.0026515813977833\\
79	0.000212511375024015\\
80	0.00123264824401163\\
81	0.00153329729209509\\
82	0.00178492407684646\\
83	0.00146414455255208\\
84	0.000728186622972437\\
85	0.00119125407330059\\
86	0.00109003251561878\\
87	0.00128981139218408\\
88	0.00228706420501132\\
89	0.00122220290436049\\
};
\addlegendentry{$\mathbf{\hat{h}_{2}}$}

\end{axis}
\end{tikzpicture}%