% This file was created by matlab2tikz.
%
%The latest updates can be retrieved from
%  http://www.mathworks.com/matlabcentral/fileexchange/22022-matlab2tikz-matlab2tikz
%where you can also make suggestions and rate matlab2tikz.
%
\definecolor{mycolor1}{rgb}{0.00000,0.44700,0.74100}%
\definecolor{mycolor2}{rgb}{0.85000,0.32500,0.09800}%
%
\begin{tikzpicture}

\begin{axis}[%
width=1.935in,
height=3.2in,
at={(0.758in,0.512in)},
scale only axis,
xmin=0,
xmax=100,
xlabel style={font=\color{white!15!black}, align=center},
xlabel={Sample Index\\[1ex](a) Actual},
ymin=0,
ymax=1,
axis background/.style={fill=white},
legend style={legend cell align=left, align=left, draw=white!15!black}
]
\addplot [color=mycolor1]
  table[row sep=crcr]{%
1	0.0216926152020066\\
2	0.0241183965289278\\
3	0.0267807478156139\\
4	0.0354280601095614\\
5	0.221828667704926\\
6	0.648965745595675\\
7	0.241270440438586\\
8	0.0776642628644082\\
9	0.0581044824071981\\
10	0.0611489366831747\\
11	0.0798140419847986\\
12	0.062735544320507\\
13	0.113011040425493\\
14	0.377485382687519\\
15	0.331649248845691\\
16	0.18615433793772\\
17	0.146493252817741\\
18	0.0847190801249442\\
19	0.0628278567269286\\
20	0.0148364296169451\\
21	0.0250471739922352\\
22	0.0344835915107885\\
23	0.116323790948646\\
24	0.279210940275387\\
25	0.101045410677318\\
26	0.0464379665429307\\
27	0.041398863205924\\
28	0.0263226969199998\\
29	0.0221848789960478\\
30	0.0197642774213948\\
31	0.0186496517239344\\
32	0.0219339353832985\\
33	0.018414044189717\\
34	0.00937919788338426\\
35	0.0100670783096178\\
36	0.0098135024549665\\
37	0.00937197330245933\\
38	0.00884810306396591\\
39	0.00821513429074651\\
40	0.00732026654240377\\
41	0.00945021173361951\\
42	0.0127255218727005\\
43	0.00946415089832864\\
44	0.00862800399957479\\
45	0.00816256372793386\\
46	0.00784857678072338\\
47	0.00764005346579914\\
48	0.00755773656417068\\
49	0.00776075567554332\\
50	0.00986938420958768\\
51	0.00319649311885596\\
52	0.00500292172051245\\
53	0.00524752973649041\\
54	0.00526667690567613\\
55	0.00521575322380608\\
56	0.00513704586881206\\
57	0.00504647235310817\\
58	0.00495116794332671\\
59	0.00485468351773321\\
60	0.00475890010347922\\
61	0.00466484578572566\\
62	0.00457308311118313\\
63	0.00448390798586452\\
64	0.0043974582605137\\
65	0.00431377595094964\\
66	0.00423284428954661\\
67	0.00415461047403326\\
68	0.00407899997367922\\
69	0.00400592569101114\\
70	0.00393529390404367\\
71	0.0038670081481966\\
72	0.00380097175500134\\
73	0.00373708950172093\\
74	0.00367526866536834\\
75	0.00361541967416126\\
76	0.00355745648532918\\
77	0.00350129677649243\\
78	0.00344686201027152\\
79	0.00339407741330312\\
80	0.00334287189828014\\
81	0.0032931779490063\\
82	0.00324493148246751\\
83	0.00319807169773062\\
84	0.003152540918526\\
85	0.00310828443427485\\
86	0.00306525034282854\\
87	0.00302338939712195\\
88	0.00298265485717807\\
89	0.00294300234835571\\
90	0.00290438972634362\\
91	0.0028667769491261\\
92	0.00283012595595264\\
93	0.0027944005532083\\
94	0.00275956630699144\\
95	0.0027255904421446\\
96	0.00269244174744817\\
97	0.00266009048666622\\
98	0.00262850831512411\\
99	0\\
100	0\\
};
\addlegendentry{$\mathbf{h_1}$}

\addplot [color=mycolor2]
  table[row sep=crcr]{%
1	0.00108294891904515\\
2	0.00115806441999571\\
3	0.00125656841390277\\
4	0.00139359850086552\\
5	0.00159676508941691\\
6	0.00191784013184518\\
7	0.00245777585368985\\
8	0.00342819163679349\\
9	0.00533730915065768\\
10	0.00974214709050295\\
11	0.0244449264542886\\
12	0.973731186814765\\
13	0.0500739614470277\\
14	0.0426946282907342\\
15	0.00536788790071817\\
16	0.0362080823589407\\
17	0.176144271962331\\
18	0.115663212635922\\
19	0.0234963057121139\\
20	0.0138738178597906\\
21	0.00966054585381422\\
22	0.00731818549393035\\
23	0.00584139575065055\\
24	0.0048330083027894\\
25	0.00410500747522503\\
26	0.00355723928842746\\
27	0.00313167065616096\\
28	0.00279247304593218\\
29	0.00251639833876938\\
30	0.00228774297450139\\
31	0.00209554142652578\\
32	0.00193191967393617\\
33	0.00179108704155738\\
34	0.00166869616651274\\
35	0\\
36	0\\
37	0\\
38	0\\
39	0\\
40	0\\
41	0\\
42	0\\
43	0\\
44	0\\
45	0\\
46	0\\
47	0\\
48	0\\
49	0\\
50	0\\
51	0\\
52	0\\
53	0\\
54	0\\
55	0\\
56	0\\
57	0\\
58	0\\
59	0\\
60	0\\
61	0\\
62	0\\
63	0\\
64	0\\
65	0\\
66	0\\
67	0\\
68	0\\
69	0\\
70	0\\
71	0\\
72	0\\
73	0\\
74	0\\
75	0\\
76	0\\
77	0\\
78	0\\
79	0\\
80	0\\
81	0\\
82	0\\
83	0\\
84	0\\
85	0\\
86	0\\
87	0\\
88	0\\
89	0\\
90	0\\
91	0\\
92	0\\
93	0\\
94	0\\
95	0\\
96	0\\
97	0\\
98	0\\
99	0\\
100	0\\
};
\addlegendentry{$\mathbf{h_{2}}$}

\end{axis}

\begin{axis}[%
width=1.935in,
height=3.2in,
at={(3.327in,0.512in)},
scale only axis,
xmin=0,
xmax=100,
xlabel style={font=\color{white!15!black}, align=center},
xlabel={Sample Index\\[1ex](b) Estimated},
ymin=0,
ymax=1,
axis background/.style={fill=white},
legend style={legend cell align=left, align=left, draw=white!15!black}
]
\addplot [color=mycolor1]
  table[row sep=crcr]{%
0	0.00406920782703869\\
1	0.0010261649606423\\
2	0.00256422903776003\\
3	0.00177539319906008\\
4	0.00298241323585177\\
5	0.00245131519585689\\
6	0.00352112057143535\\
7	0.00234183082228147\\
8	0.00554477954501502\\
9	0.00865206295943667\\
10	0.00572748748611467\\
11	0.004489219761859\\
12	0.00251674921828296\\
13	0.00249966721294448\\
14	0.00961057504794605\\
15	0.016122615118361\\
16	0.0147256751307771\\
17	0.00989044732854152\\
18	0.0076834048248698\\
19	0.0056215515381446\\
20	0.00473421047187278\\
21	0.00345432653202576\\
22	0.0112776847960336\\
23	0.00239555190852088\\
24	0.0254232861051745\\
25	0.0520923975164421\\
26	0.00156109616250289\\
27	0.0202081225659409\\
28	0.00541619396534734\\
29	0.00830992564062196\\
30	0.0183678939264492\\
31	0.0152281559776917\\
32	0.0481971338761132\\
33	0.101537132382074\\
34	0.0601490642366725\\
35	0.0771897057815843\\
36	0.0436250448294721\\
37	0.0150105121952226\\
38	0.0716287630642135\\
39	0.0176438169562464\\
40	0.0502116365167314\\
41	0.00963586520054929\\
42	0.171075810905692\\
43	0.662834096569914\\
44	0.201505528829039\\
45	0.0385780896636225\\
46	0.0955388799820542\\
47	0.0913820313745768\\
48	0.130518447568846\\
49	0.0343063276132995\\
50	0.0982903730186648\\
51	0.351401404568284\\
52	0.279690130477479\\
53	0.200317880039892\\
54	0.124878994478222\\
55	0.0877105005717479\\
56	0.068324548990083\\
57	0.0675052725452311\\
58	0.0401196431305254\\
59	0.0808816633679157\\
60	0.153161926448982\\
61	0.264387124765087\\
62	0.0608664243839599\\
63	0.0192631730884466\\
64	0.0211701186087001\\
65	0.0186976909375637\\
66	0.0144418795836127\\
67	0.0373135542943238\\
68	0.0677621773672975\\
69	0.090763385106772\\
70	0.0422358394944016\\
71	0.0264253067270588\\
72	0.0148074526595581\\
73	0.0315806348856822\\
74	0.01907335568535\\
75	0.0259880738574736\\
76	0.013803623156464\\
77	0.0236856293570117\\
78	0.0375121007554351\\
79	0.023550041663921\\
80	0.0219428183941849\\
81	0.00406192561673825\\
82	0.00792540553982333\\
83	0.0133261604062039\\
84	0.0169198370713547\\
85	0.0142413950534781\\
86	0.0248615677948971\\
87	0.0204452327601578\\
88	0.0044904325936869\\
89	0.0154470774869451\\
90	0.0105912574533355\\
91	0.0119756893185207\\
92	0.00574508134091896\\
93	0.00383520775741187\\
94	0.00465715194154344\\
95	0.00657107489966034\\
96	0.0134108527517509\\
97	0.0124028255307394\\
98	0.00786187218014873\\
99	0.0070785380380369\\
};
\addlegendentry{$\mathbf{\hat{h}_{1}}$}

\addplot [color=mycolor2]
  table[row sep=crcr]{%
0	0.00307919299985137\\
1	0.00351204312586487\\
2	0.00300413626933082\\
3	0.00175601273251767\\
4	0.00377534841429534\\
5	0.0045232423290941\\
6	0.00710617006030776\\
7	0.00260196217201285\\
8	0.00420977977817825\\
9	0.000509034981312755\\
10	0.00153542515479425\\
11	0.00399554678261718\\
12	0.00634702364113513\\
13	0.00735570407183462\\
14	0.00360662969014489\\
15	0.0130950911529998\\
16	0.00984097517280525\\
17	0.00918148275879388\\
18	0.00729969669058221\\
19	0.00638491822899657\\
20	0.00817889901270314\\
21	0.0222516833349835\\
22	0.0150094367520017\\
23	0.0286464587148084\\
24	0.017516164029331\\
25	0.00375322192053517\\
26	0.00615338308001456\\
27	0.00533617798808126\\
28	0.00724194260602089\\
29	0.0119888218688155\\
30	0.0268509920494624\\
31	0.0917203401821599\\
32	0.027255762634904\\
33	0.0394076229178168\\
34	0.0171871644289569\\
35	0.0141404026030638\\
36	0.0100210167048758\\
37	0.00263053003153749\\
38	0.0706666412278914\\
39	0.0785385493766179\\
40	0.0389225226859112\\
41	0.14098040049767\\
42	0.0100368846139625\\
43	0.0357640285505092\\
44	0.0562689846578462\\
45	0.0329085460494715\\
46	0.0324599395980591\\
47	0.047816261475084\\
48	0.0132920709896199\\
49	0.941766979617131\\
50	0.0133576852335671\\
51	0.0477179229959836\\
52	0.03234118640039\\
53	0.0329053980780564\\
54	0.0563043151763067\\
55	0.0356162553110263\\
56	0.0099886283909652\\
57	0.141123850319202\\
58	0.0386977031696233\\
59	0.0783497664848303\\
60	0.0703236520545654\\
61	0.00279154897275125\\
62	0.0104224639339136\\
63	0.0136560319014134\\
64	0.0165948901722322\\
65	0.03893310270136\\
66	0.027509794767893\\
67	0.0916431270600203\\
68	0.027502492003724\\
69	0.0112804876726523\\
70	0.00667843308953355\\
71	0.00519560844109899\\
72	0.00638433233612239\\
73	0.00458436945691858\\
74	0.0168893091339927\\
75	0.0290566821062803\\
76	0.0140765161921081\\
77	0.0230226995578035\\
78	0.00855692969479851\\
79	0.00567552280035124\\
80	0.00678049737611936\\
81	0.00796520840706119\\
82	0.00890857807675277\\
83	0.0117013391137966\\
84	0.0049362078101069\\
85	0.00794910141095316\\
86	0.00635025067970455\\
87	0.00236767095828628\\
88	0.00157308341642303\\
89	0.000928397615738878\\
90	0.00301089849427341\\
91	0.00161659897729939\\
92	0.00625018339976739\\
93	0.00446735281101146\\
94	0.00359115953276549\\
95	0.00186567285680779\\
96	0.00104847961810034\\
97	0.00383839217885029\\
98	0.00346579126311522\\
99	0.00313936630167238\\
};
\addlegendentry{$\mathbf{\hat{h}_{2}}$}

\end{axis}
\end{tikzpicture}%