% This file was created by matlab2tikz.
%
%The latest updates can be retrieved from
%  http://www.mathworks.com/matlabcentral/fileexchange/22022-matlab2tikz-matlab2tikz
%where you can also make suggestions and rate matlab2tikz.
%
\definecolor{mycolor1}{rgb}{0.00000,0.44700,0.74100}%
\definecolor{mycolor2}{rgb}{0.85000,0.32500,0.09800}%
%
\begin{tikzpicture}

\begin{axis}[%
width=1.935in,
height=3.2in,
at={(0.758in,0.512in)},
scale only axis,
xmin=0,
xmax=150,
xlabel style={font=\color{white!15!black}, align=center},
xlabel={Sample Index\\[1ex](a) Actual},
ymin=0,
ymax=0.7,
axis background/.style={fill=white},
legend style={legend cell align=left, align=left, draw=white!15!black}
]
\addplot [color=mycolor1]
  table[row sep=crcr]{%
1	0.0234657806037261\\
2	0.0272334504034075\\
3	0.0326864300765018\\
4	0.0414541482980318\\
5	0.0586677033458464\\
6	0.117843438362983\\
7	0.159969331461504\\
8	0.174397116945152\\
9	0.616552810702634\\
10	0.0882137642931462\\
11	0.0472681903124796\\
12	0.0327587509505929\\
13	0.0272256709659274\\
14	0.0412344622245766\\
15	0.0186762848129325\\
16	0.0451940046978057\\
17	0.0153724087875252\\
18	0.0239672675363248\\
19	0.0400285717874473\\
20	0.0828333966509162\\
21	0.557624977131952\\
22	0.149414784250917\\
23	0.109138078132702\\
24	0.0381681231028791\\
25	0.032799759178118\\
26	0.191519461959093\\
27	0.0734580287558902\\
28	0.0358315656953253\\
29	0.0179563195827385\\
30	0.0169149242156914\\
31	0.0179798517146348\\
32	0.0199431506445131\\
33	0.0279225394655299\\
34	0.0908594243819801\\
35	0.0439964246924232\\
36	0.330890477505262\\
37	0.037800506563543\\
38	0.020261933748638\\
39	0.0138181229977315\\
40	0.0211497159554441\\
41	0.0112042208144458\\
42	0.00964538908702694\\
43	0.00864780826327016\\
44	0.00787736374270682\\
45	0.00720180133294831\\
46	0.00651453200193765\\
47	0.00565492088107664\\
48	0.0112814316241706\\
49	0.0075966567083061\\
50	0.0102713040739602\\
51	0.00787142060243747\\
52	0.00711780022683946\\
53	0.00668443537322835\\
54	0.00638223966522588\\
55	0.00615487020840034\\
56	0.00598242225636516\\
57	0.00586293416152974\\
58	0.00581626175933958\\
59	0.00593494184987807\\
60	0.00707647204853056\\
61	0.00861312572402681\\
62	0.00240649054353041\\
63	0.0036902508247688\\
64	0.0040125763148678\\
65	0.00408542983582614\\
66	0.00408934467211144\\
67	0.00406760360864643\\
68	0.00403657730104579\\
69	0.00400486664899167\\
70	0.00397913876457006\\
71	0.00396763365360209\\
72	0.00398577860522856\\
73	0.00407460869510253\\
74	0.00440882178496405\\
75	0.00852319154542653\\
76	0.00211982859547221\\
77	0.00279674481878385\\
78	0.00295234209521732\\
79	0.00299967450324673\\
80	0.00300734384297471\\
81	0.00299658049652506\\
82	0.00297609501762909\\
83	0.00295010695632826\\
84	0.00292089738309008\\
85	0.00288979839106794\\
86	0.00285763293534116\\
87	0.00282493110979805\\
88	0.00279204510261472\\
89	0.00275921420187501\\
90	0.00272660345813555\\
91	0.00269432766245323\\
92	0.00266246675038502\\
93	0.00263107599882434\\
94	0.00260019295165966\\
95	0.00256984222925479\\
96	0.00254003893333548\\
97	0.0025107910982644\\
98	0.00248210148178531\\
99	0.00245396889001376\\
100	0.00242638916874131\\
101	0.00239935595223708\\
102	0.00237286123354156\\
103	0.00234689580183488\\
104	0.00232144957979209\\
105	0.00229651188498403\\
106	0.00227207163310714\\
107	0.0022481174963278\\
108	0.00222463802675857\\
109	0.00220162175268604\\
110	0.00217905725339276\\
111	0.0021569332170867\\
112	0.00213523848544673\\
113	0.00211396208753109\\
114	0.00209309326520902\\
115	0.00207262149182518\\
116	0.00205253648545491\\
117	0.00203282821783402\\
118	0.00201348691983224\\
119	0.00199450308416773\\
120	0.00197586746592614\\
121	0.00195757108133911\\
122	0.0019396052051902\\
123	0.0019219613671484\\
124	0.00190463134727109\\
125	0.00188760717087541\\
126	0.00187088110293773\\
127	0.00185444564215264\\
128	0.0018382935147574\\
129	0.00182241766820821\\
130	0.00180681126477794\\
131	0.00179146767513212\\
132	0.00177638047192757\\
133	0.00176154342347035\\
134	0.00174695048746156\\
135	0.0017325958048528\\
136	0.00171847369382931\\
137	0.00170457864393352\\
138	0.0016909053103386\\
139	0.00167744850827835\\
140	0.00166420320763913\\
141	0.00165116452771496\\
142	0.00163832773212761\\
143	0.00162568822391149\\
144	0.00161324154076111\\
145	0.0016009833504405\\
146	0.00158890944635072\\
147	0.00157701574325256\\
148	0.00156529827314105\\
149	0\\
150	0\\
};
\addlegendentry{$\mathbf{h_1}$}

\addplot [color=mycolor2]
  table[row sep=crcr]{%
1	0.019775303219206\\
2	0.0210217764534023\\
3	0.0224372323963497\\
4	0.024058742711813\\
5	0.0259351263737046\\
6	0.0281320174688059\\
7	0.0307398096072034\\
8	0.0338865833958781\\
9	0.0377600935275399\\
10	0.0426472101764649\\
11	0.0490094599986528\\
12	0.0576401827385178\\
13	0.0700288298559564\\
14	0.0893407156606893\\
15	0.123700774100431\\
16	0.202175033398071\\
17	0.564479813098353\\
18	0.690442426104836\\
19	0.212260509632627\\
20	0.126132345068284\\
21	0.100380135781766\\
22	0.0378663697499036\\
23	0.0333199748773482\\
24	0.0149453064107011\\
25	0.10083899339379\\
26	0.161002397050911\\
27	0.0405118251764787\\
28	0.0383644765554957\\
29	0.0341227495803863\\
30	0.0306469105251072\\
31	0.0278570926171954\\
32	0.0255709383506331\\
33	0.0236574529195357\\
34	0.0220274984760589\\
35	0.0206190941704396\\
36	0.0193877726649002\\
37	0.0183006807256663\\
38	0.0173329207549748\\
39	0.016465211935799\\
40	0.0156823459816501\\
41	0.0149721364414517\\
42	0.0143246843629073\\
43	0.0137318527665838\\
44	0.0131868826449622\\
45	0.0126841071808284\\
46	0.0122187355837443\\
47	0.0117866872087634\\
48	0.0113844626077037\\
49	0.0110090421200206\\
50	0.0106578052804057\\
51	0\\
52	0\\
53	0\\
54	0\\
55	0\\
56	0\\
57	0\\
58	0\\
59	0\\
60	0\\
61	0\\
62	0\\
63	0\\
64	0\\
65	0\\
66	0\\
67	0\\
68	0\\
69	0\\
70	0\\
71	0\\
72	0\\
73	0\\
74	0\\
75	0\\
76	0\\
77	0\\
78	0\\
79	0\\
80	0\\
81	0\\
82	0\\
83	0\\
84	0\\
85	0\\
86	0\\
87	0\\
88	0\\
89	0\\
90	0\\
91	0\\
92	0\\
93	0\\
94	0\\
95	0\\
96	0\\
97	0\\
98	0\\
99	0\\
100	0\\
101	0\\
102	0\\
103	0\\
104	0\\
105	0\\
106	0\\
107	0\\
108	0\\
109	0\\
110	0\\
111	0\\
112	0\\
113	0\\
114	0\\
115	0\\
116	0\\
117	0\\
118	0\\
119	0\\
120	0\\
121	0\\
122	0\\
123	0\\
124	0\\
125	0\\
126	0\\
127	0\\
128	0\\
129	0\\
130	0\\
131	0\\
132	0\\
133	0\\
134	0\\
135	0\\
136	0\\
137	0\\
138	0\\
139	0\\
140	0\\
141	0\\
142	0\\
143	0\\
144	0\\
145	0\\
146	0\\
147	0\\
148	0\\
149	0\\
150	0\\
};
\addlegendentry{$\mathbf{h_{2}}$}

\end{axis}

\begin{axis}[%
width=1.935in,
height=3.2in,
at={(3.327in,0.512in)},
scale only axis,
xmin=0,
xmax=150,
xlabel style={font=\color{white!15!black}, align=center},
xlabel={Sample Index\\[1ex](b) Estimated},
ymin=0,
ymax=0.5,
axis background/.style={fill=white},
legend style={legend cell align=left, align=left, draw=white!15!black}
]
\addplot [color=mycolor1]
  table[row sep=crcr]{%
0	0.0158569975762484\\
1	0.0268780501465613\\
2	0.0353719046296382\\
3	0.0429003074244775\\
4	0.0560596646298359\\
5	0.0933311448949704\\
6	0.169288534539316\\
7	0.222097603516988\\
8	0.271050661471879\\
9	0.192679314682951\\
10	0.430505001334072\\
11	0.0857510507999391\\
12	0.065902056237454\\
13	0.0193312880814304\\
14	0.0193563756332601\\
15	0.0534926540758425\\
16	0.0245509435411332\\
17	0.0491607230357426\\
18	0.0335984439137876\\
19	0.0727733196226668\\
20	0.40109744171412\\
21	0.227436047544033\\
22	0.33226363191888\\
23	0.112916647718353\\
24	0.0871492282955462\\
25	0.159506480598433\\
26	0.135421084646717\\
27	0.11692087375571\\
28	0.0543520552252172\\
29	0.036329377226262\\
30	0.0108229024203931\\
31	0.0217327028330899\\
32	0.0258661060488227\\
33	0.0824166985468777\\
34	0.0790298673932421\\
35	0.268735070267128\\
36	0.178332199296626\\
37	0.237633507964252\\
38	0.0357204577344066\\
39	0.019510371454079\\
40	0.022708592439688\\
41	0.0220423430170846\\
42	0.0140141818178365\\
43	0.0124124537849922\\
44	0.00993482429155508\\
45	0.00889078499785349\\
46	0.00892631238348725\\
47	0.0146145641728031\\
48	0.00478449178268101\\
49	0.00455531529508277\\
50	0.014073260755545\\
51	0.00971487497758224\\
52	0.00856349764401687\\
53	0.00860640898240102\\
54	0.00856508194096703\\
55	0.00775312347930764\\
56	0.00779977676433079\\
57	0.0070163317743379\\
58	0.0069479871069826\\
59	0.00658866573208321\\
60	0.0118748740954474\\
61	0.0101833698800182\\
62	0.00518918660266249\\
63	0.00263010679509277\\
64	0.00486209873407178\\
65	0.00497491602501456\\
66	0.00511706115871678\\
67	0.00505641568176546\\
68	0.00502640543193185\\
69	0.00505514282044623\\
70	0.00506545223530512\\
71	0.00506907263887871\\
72	0.00497334444343727\\
73	0.00528278128685068\\
74	0.00721450597786912\\
75	0.00689731863484295\\
76	0.00648675321170722\\
77	0.00332234586195552\\
78	0.00365947727116965\\
79	0.00383354766762309\\
80	0.00376545751125296\\
81	0.00378372670662254\\
82	0.00376394458278898\\
83	0.00373053649194288\\
84	0.00369765548218091\\
85	0.00365509634288325\\
86	0.00361972717200676\\
87	0.00357968147669069\\
88	0.00355462034555014\\
89	0.00345478508156728\\
90	0.00342792892324974\\
91	0.00342542793014131\\
92	0.00336625845135423\\
93	0.00335685382620887\\
94	0.00327240646517309\\
95	0.00325267413249773\\
96	0.00320108191409762\\
97	0.00319131238563712\\
98	0.0031437699165816\\
99	0.00310273140657002\\
100	0.00307640949684702\\
101	0.00302446329255423\\
102	0.00301049657430391\\
103	0.00296485856006104\\
104	0.00293304699322464\\
105	0.00290633483573817\\
106	0.00287591567609636\\
107	0.00284247069332093\\
108	0.00281088548811234\\
109	0.0027869997826724\\
110	0.0027586440078611\\
111	0.00272583907852142\\
112	0.00270265386213107\\
113	0.00267355922880987\\
114	0.00265393910307408\\
115	0.00262382094403258\\
116	0.00259016375093394\\
117	0.00256965582300562\\
118	0.00254991325923517\\
119	0.00252490171591572\\
120	0.00249908184033077\\
121	0.00247290434497101\\
122	0.00245044182701037\\
123	0.00243237876560161\\
124	0.00241264614206341\\
125	0.00238375553966056\\
126	0.00237376457333777\\
127	0.00234177034918519\\
128	0.00231728781201888\\
129	0.00231217167501549\\
130	0.00228720980961354\\
131	0.00226454653890109\\
132	0.00224492424930443\\
133	0.00223093873880452\\
134	0.00220445008428335\\
135	0.00219224777577263\\
136	0.00218400453498223\\
137	0.00214611933164998\\
138	0.00213732794249236\\
139	0.00211933794765954\\
140	0.00210210423525455\\
141	0.00209483959800287\\
142	0.00207242761668415\\
143	0.00205389134768693\\
144	0.00203911174709342\\
145	0.00202342174153758\\
146	0.0020072860204218\\
147	0.00199811104770673\\
148	0.00164553455433538\\
149	0.001072233914652\\
};
\addlegendentry{$\mathbf{\hat{h}_{1}}$}

\addplot [color=mycolor2]
  table[row sep=crcr]{%
0	0.0124114308283528\\
1	0.0199090580138048\\
2	0.0247772000361818\\
3	0.0264240865902243\\
4	0.0283164997824594\\
5	0.0306087265608265\\
6	0.03329355676569\\
7	0.0364284181280445\\
8	0.0401998388726689\\
9	0.044882845277581\\
10	0.0508842109322913\\
11	0.0588487088840537\\
12	0.0698457088981488\\
13	0.0862473587966273\\
14	0.113697739110947\\
15	0.171159307704911\\
16	0.40796820045688\\
17	0.468469734857313\\
18	0.45224743806729\\
19	0.489511868257455\\
20	0.179545477737085\\
21	0.111012551578871\\
22	0.0792231490580271\\
23	0.0408533654882843\\
24	0.0827912780131498\\
25	0.0704674610949788\\
26	0.0845049772193221\\
27	0.124842722713523\\
28	0.0373270890056542\\
29	0.0379431983427791\\
30	0.0364417110175878\\
31	0.0353262560419905\\
32	0.0309452058426745\\
33	0.0256955903718737\\
34	0.0255013470533889\\
35	0.0230061058298034\\
36	0.0255831642309405\\
37	0.0205747440190002\\
38	0.0205337729173626\\
39	0.0192939093839984\\
40	0.0184943660339848\\
41	0.0175502607581807\\
42	0.0167800329250132\\
43	0.0161822126620498\\
44	0.015519905185947\\
45	0.0149755635023626\\
46	0.0143837195650768\\
47	0.01387388518362\\
48	0.013274319276483\\
49	0.0129757002683944\\
50	0.0104995980913119\\
51	0.00674946990110063\\
52	7.36121585085432e-05\\
53	5.73787157765563e-05\\
54	1.87922905534752e-05\\
55	7.67447831322386e-05\\
56	6.71572267702995e-05\\
57	6.93742557308435e-05\\
58	8.66808792175605e-05\\
59	3.49904786705656e-05\\
60	9.41457951772744e-05\\
61	0.00011280769231411\\
62	5.07145559802661e-05\\
63	5.21963359986744e-05\\
64	6.85683879021257e-05\\
65	2.42442245587302e-05\\
66	2.28229764235295e-05\\
67	2.19075114177535e-05\\
68	1.18927404843283e-05\\
69	2.10029764208392e-05\\
70	2.14186437805897e-05\\
71	3.36822059272773e-05\\
72	4.27655915422602e-05\\
73	2.07690513189233e-05\\
74	1.6799213892791e-05\\
75	4.01802101893465e-05\\
76	3.18921138452277e-05\\
77	8.06674877062427e-06\\
78	3.86206056210836e-06\\
79	8.56965442589522e-06\\
80	2.75770733620228e-06\\
81	6.30512731745196e-06\\
82	2.54854187664955e-06\\
83	2.06419188964905e-06\\
84	8.20766464627246e-06\\
85	4.04700988152336e-06\\
86	1.05857102216404e-05\\
87	5.2920897683524e-06\\
88	3.78224402243731e-06\\
89	3.37642072770408e-06\\
90	3.2656223551279e-06\\
91	4.4568224479336e-06\\
92	2.90160770997219e-06\\
93	8.00728094397608e-07\\
94	4.06691847124501e-06\\
95	1.99256774166931e-06\\
96	2.61595271589982e-06\\
97	6.40037888129319e-06\\
98	4.06835194276301e-06\\
99	3.6589694251609e-06\\
100	5.44895395353822e-06\\
101	6.69574603769693e-06\\
102	5.08605041118454e-06\\
103	4.36963772058951e-06\\
104	7.77953268548295e-06\\
105	5.13903464110996e-06\\
106	1.92996188836114e-06\\
107	1.43281256205236e-06\\
108	3.25642653112054e-06\\
109	2.47224631884615e-06\\
110	3.16501804051242e-06\\
111	5.04359061814037e-06\\
112	6.60439789819094e-06\\
113	2.36394064236487e-06\\
114	8.15645158363664e-06\\
115	1.26321989405775e-06\\
116	4.51664616417362e-06\\
117	2.32930856892105e-06\\
118	3.75718779544723e-06\\
119	2.96029631184954e-06\\
120	8.0847628234234e-06\\
121	4.5295028033028e-06\\
122	6.33712415561578e-06\\
123	6.84277670026151e-06\\
124	4.14305790982843e-06\\
125	6.47728412745971e-06\\
126	8.89718621775491e-06\\
127	1.99206223108642e-06\\
128	8.0409647338578e-06\\
129	7.30173539327088e-06\\
130	3.7172745206513e-06\\
131	1.39834619825484e-06\\
132	5.11667478453496e-06\\
133	8.87558413112828e-06\\
134	4.1419081481028e-06\\
135	5.25498396292485e-06\\
136	1.88239080726486e-06\\
137	1.31493646460194e-05\\
138	8.23343674131681e-06\\
139	6.26885243049782e-06\\
140	6.73639886211562e-06\\
141	2.78273270815061e-06\\
142	4.80880254388569e-06\\
143	4.62844328460176e-06\\
144	7.85653451372252e-06\\
145	9.70973408753703e-06\\
146	7.06549199343462e-06\\
147	3.09512795099165e-06\\
148	7.43292340027112e-06\\
149	7.51713217595885e-06\\
};
\addlegendentry{$\mathbf{\hat{h}_{2}}$}

\end{axis}
\end{tikzpicture}%