% This file was created by matlab2tikz.
%
%The latest updates can be retrieved from
%  http://www.mathworks.com/matlabcentral/fileexchange/22022-matlab2tikz-matlab2tikz
%where you can also make suggestions and rate matlab2tikz.
%
\definecolor{mycolor1}{rgb}{0.00000,0.44700,0.74100}%
\definecolor{mycolor2}{rgb}{0.85000,0.32500,0.09800}%
%
\begin{tikzpicture}

\begin{axis}[%
width=1.935in,
height=3.2in,
at={(0.758in,0.512in)},
scale only axis,
xmin=0,
xmax=150,
xlabel style={font=\color{white!15!black}, align=center},
xlabel={Sample Index\\[1ex](a) Actual},
ymin=0,
ymax=0.7,
axis background/.style={fill=white},
legend style={legend cell align=left, align=left, draw=white!15!black}
]
\addplot [color=mycolor1]
  table[row sep=crcr]{%
1	0.0234657806037261\\
2	0.0272334504034075\\
3	0.0326864300765018\\
4	0.0414541482980318\\
5	0.0586677033458464\\
6	0.117843438362983\\
7	0.159969331461504\\
8	0.174397116945152\\
9	0.616552810702634\\
10	0.0882137642931462\\
11	0.0472681903124796\\
12	0.0327587509505929\\
13	0.0272256709659274\\
14	0.0412344622245766\\
15	0.0186762848129325\\
16	0.0451940046978057\\
17	0.0153724087875252\\
18	0.0239672675363248\\
19	0.0400285717874473\\
20	0.0828333966509162\\
21	0.557624977131952\\
22	0.149414784250917\\
23	0.109138078132702\\
24	0.0381681231028791\\
25	0.032799759178118\\
26	0.191519461959093\\
27	0.0734580287558902\\
28	0.0358315656953253\\
29	0.0179563195827385\\
30	0.0169149242156914\\
31	0.0179798517146348\\
32	0.0199431506445131\\
33	0.0279225394655299\\
34	0.0908594243819801\\
35	0.0439964246924232\\
36	0.330890477505262\\
37	0.037800506563543\\
38	0.020261933748638\\
39	0.0138181229977315\\
40	0.0211497159554441\\
41	0.0112042208144458\\
42	0.00964538908702694\\
43	0.00864780826327016\\
44	0.00787736374270682\\
45	0.00720180133294831\\
46	0.00651453200193765\\
47	0.00565492088107664\\
48	0.0112814316241706\\
49	0.0075966567083061\\
50	0.0102713040739602\\
51	0.00787142060243747\\
52	0.00711780022683946\\
53	0.00668443537322835\\
54	0.00638223966522588\\
55	0.00615487020840034\\
56	0.00598242225636516\\
57	0.00586293416152974\\
58	0.00581626175933958\\
59	0.00593494184987807\\
60	0.00707647204853056\\
61	0.00861312572402681\\
62	0.00240649054353041\\
63	0.0036902508247688\\
64	0.0040125763148678\\
65	0.00408542983582614\\
66	0.00408934467211144\\
67	0.00406760360864643\\
68	0.00403657730104579\\
69	0.00400486664899167\\
70	0.00397913876457006\\
71	0.00396763365360209\\
72	0.00398577860522856\\
73	0.00407460869510253\\
74	0.00440882178496405\\
75	0.00852319154542653\\
76	0.00211982859547221\\
77	0.00279674481878385\\
78	0.00295234209521732\\
79	0.00299967450324673\\
80	0.00300734384297471\\
81	0.00299658049652506\\
82	0.00297609501762909\\
83	0.00295010695632826\\
84	0.00292089738309008\\
85	0.00288979839106794\\
86	0.00285763293534116\\
87	0.00282493110979805\\
88	0.00279204510261472\\
89	0.00275921420187501\\
90	0.00272660345813555\\
91	0.00269432766245323\\
92	0.00266246675038502\\
93	0.00263107599882434\\
94	0.00260019295165966\\
95	0.00256984222925479\\
96	0.00254003893333548\\
97	0.0025107910982644\\
98	0.00248210148178531\\
99	0.00245396889001376\\
100	0.00242638916874131\\
101	0.00239935595223708\\
102	0.00237286123354156\\
103	0.00234689580183488\\
104	0.00232144957979209\\
105	0.00229651188498403\\
106	0.00227207163310714\\
107	0.0022481174963278\\
108	0.00222463802675857\\
109	0.00220162175268604\\
110	0.00217905725339276\\
111	0.0021569332170867\\
112	0.00213523848544673\\
113	0.00211396208753109\\
114	0.00209309326520902\\
115	0.00207262149182518\\
116	0.00205253648545491\\
117	0.00203282821783402\\
118	0.00201348691983224\\
119	0.00199450308416773\\
120	0.00197586746592614\\
121	0.00195757108133911\\
122	0.0019396052051902\\
123	0.0019219613671484\\
124	0.00190463134727109\\
125	0.00188760717087541\\
126	0.00187088110293773\\
127	0.00185444564215264\\
128	0.0018382935147574\\
129	0.00182241766820821\\
130	0.00180681126477794\\
131	0.00179146767513212\\
132	0.00177638047192757\\
133	0.00176154342347035\\
134	0.00174695048746156\\
135	0.0017325958048528\\
136	0.00171847369382931\\
137	0.00170457864393352\\
138	0.0016909053103386\\
139	0.00167744850827835\\
140	0.00166420320763913\\
141	0.00165116452771496\\
142	0.00163832773212761\\
143	0.00162568822391149\\
144	0.00161324154076111\\
145	0.0016009833504405\\
146	0.00158890944635072\\
147	0.00157701574325256\\
148	0.00156529827314105\\
149	0\\
150	0\\
};
\addlegendentry{$\mathbf{h_1}$}

\addplot [color=mycolor2]
  table[row sep=crcr]{%
1	0.019775303219206\\
2	0.0210217764534023\\
3	0.0224372323963497\\
4	0.024058742711813\\
5	0.0259351263737046\\
6	0.0281320174688059\\
7	0.0307398096072034\\
8	0.0338865833958781\\
9	0.0377600935275399\\
10	0.0426472101764649\\
11	0.0490094599986528\\
12	0.0576401827385178\\
13	0.0700288298559564\\
14	0.0893407156606893\\
15	0.123700774100431\\
16	0.202175033398071\\
17	0.564479813098353\\
18	0.690442426104836\\
19	0.212260509632627\\
20	0.126132345068284\\
21	0.100380135781766\\
22	0.0378663697499036\\
23	0.0333199748773482\\
24	0.0149453064107011\\
25	0.10083899339379\\
26	0.161002397050911\\
27	0.0405118251764787\\
28	0.0383644765554957\\
29	0.0341227495803863\\
30	0.0306469105251072\\
31	0.0278570926171954\\
32	0.0255709383506331\\
33	0.0236574529195357\\
34	0.0220274984760589\\
35	0.0206190941704396\\
36	0.0193877726649002\\
37	0.0183006807256663\\
38	0.0173329207549748\\
39	0.016465211935799\\
40	0.0156823459816501\\
41	0.0149721364414517\\
42	0.0143246843629073\\
43	0.0137318527665838\\
44	0.0131868826449622\\
45	0.0126841071808284\\
46	0.0122187355837443\\
47	0.0117866872087634\\
48	0.0113844626077037\\
49	0.0110090421200206\\
50	0.0106578052804057\\
51	0\\
52	0\\
53	0\\
54	0\\
55	0\\
56	0\\
57	0\\
58	0\\
59	0\\
60	0\\
61	0\\
62	0\\
63	0\\
64	0\\
65	0\\
66	0\\
67	0\\
68	0\\
69	0\\
70	0\\
71	0\\
72	0\\
73	0\\
74	0\\
75	0\\
76	0\\
77	0\\
78	0\\
79	0\\
80	0\\
81	0\\
82	0\\
83	0\\
84	0\\
85	0\\
86	0\\
87	0\\
88	0\\
89	0\\
90	0\\
91	0\\
92	0\\
93	0\\
94	0\\
95	0\\
96	0\\
97	0\\
98	0\\
99	0\\
100	0\\
101	0\\
102	0\\
103	0\\
104	0\\
105	0\\
106	0\\
107	0\\
108	0\\
109	0\\
110	0\\
111	0\\
112	0\\
113	0\\
114	0\\
115	0\\
116	0\\
117	0\\
118	0\\
119	0\\
120	0\\
121	0\\
122	0\\
123	0\\
124	0\\
125	0\\
126	0\\
127	0\\
128	0\\
129	0\\
130	0\\
131	0\\
132	0\\
133	0\\
134	0\\
135	0\\
136	0\\
137	0\\
138	0\\
139	0\\
140	0\\
141	0\\
142	0\\
143	0\\
144	0\\
145	0\\
146	0\\
147	0\\
148	0\\
149	0\\
150	0\\
};
\addlegendentry{$\mathbf{h_{2}}$}

\end{axis}

\begin{axis}[%
width=1.935in,
height=3.2in,
at={(3.327in,0.512in)},
scale only axis,
xmin=0,
xmax=74,
xlabel style={font=\color{white!15!black}, align=center},
xlabel={Sample Index\\[1ex](b) Estimated},
ymin=0,
ymax=1,
axis background/.style={fill=white},
legend style={legend cell align=left, align=left, draw=white!15!black}
]
\addplot [color=mycolor1]
  table[row sep=crcr]{%
0	0.0183381980201872\\
1	0.01713932748526\\
2	0.0126134196871447\\
3	0.0162391316038084\\
4	0.0107032680659555\\
5	0.0163604009559894\\
6	0.0130160766810932\\
7	0.0180138256785139\\
8	0.0135083123198374\\
9	0.0163095792016966\\
10	0.021507804342853\\
11	0.0179285001853754\\
12	0.0274160089413336\\
13	0.056577603313003\\
14	0.0276855405603295\\
15	0.00864573115183047\\
16	0.0427022366939396\\
17	0.00891982488503191\\
18	0.0287223027311219\\
19	0.122326443618339\\
20	0.0466284196808035\\
21	0.0395004353046296\\
22	0.0390267779618904\\
23	0.0242758245844587\\
24	0.0539156610167158\\
25	0.157815258173023\\
26	0.0354187793196909\\
27	0.476910829800712\\
28	0.394932217633097\\
29	0.111478772774842\\
30	0.0815162552552589\\
31	0.0462445359355963\\
32	0.115987438234199\\
33	0.0317468307335121\\
34	0.0555003896497957\\
35	0.00824439934261477\\
36	0.0774303427314882\\
37	0.0835862996935612\\
38	0.11032882439337\\
39	0.260733791895647\\
40	0.469279656410582\\
41	0.182147846514732\\
42	0.0639833694526377\\
43	0.0756722255580908\\
44	0.112710653456297\\
45	0.0958823930099813\\
46	0.114648510735917\\
47	0.0236715552625341\\
48	0.0348483711422265\\
49	0.0317022620666108\\
50	0.0223035551250421\\
51	0.0404485658379515\\
52	0.0870175307782185\\
53	0.109269476943169\\
54	0.283601774126647\\
55	0.110026489439579\\
56	0.042842595080013\\
57	0.0440313519670716\\
58	0.0204045304971992\\
59	0.00244536695633094\\
60	0.016448058633751\\
61	0.0155742045516776\\
62	0.0227257795316325\\
63	0.0108558033919341\\
64	0.0131176592015061\\
65	0.0225331287765426\\
66	0.039770568504797\\
67	0.0242394679990418\\
68	0.00971470433232715\\
69	0.0201573896488384\\
70	0.00650447516989989\\
71	0.00614582380313118\\
72	0.00519601205704973\\
73	0.00427530161889109\\
74	0.00487387111387446\\
};
\addlegendentry{$\mathbf{\hat{h}_{1}}$}

\addplot [color=mycolor2]
  table[row sep=crcr]{%
0	0.00211619385837073\\
1	0.000842662821298895\\
2	0.00463153572418029\\
3	0.0042934545228641\\
4	0.0054902010407766\\
5	0.00406354342784293\\
6	0.00482837227713906\\
7	0.0136560502674307\\
8	0.00962083768411721\\
9	0.0409278019467046\\
10	0.0103755450119679\\
11	0.017232131389345\\
12	0.0105113469140547\\
13	0.00689856159058727\\
14	0.00310918425923374\\
15	0.00514107878195463\\
16	0.0080690587348028\\
17	0.00989740774088893\\
18	0.00815223884941668\\
19	0.0231561050819183\\
20	0.0156250517805163\\
21	0.0445320972548702\\
22	0.027601174356416\\
23	0.0336108298974825\\
24	0.0821966495055109\\
25	0.015428244726907\\
26	0.020237270101697\\
27	0.00773730389399077\\
28	0.00811058893755787\\
29	0.0125719691550201\\
30	0.012432485896733\\
31	0.0129276155746397\\
32	0.0108682542822502\\
33	0.0194964364245757\\
34	0.0281203368426567\\
35	0.0255729006276517\\
36	0.982322008037794\\
37	0.0255805027610674\\
38	0.0281148417872956\\
39	0.0194736432516226\\
40	0.0108511113056326\\
41	0.012958142435684\\
42	0.0124343622690076\\
43	0.0125940193194533\\
44	0.00810533973977586\\
45	0.0077539889386698\\
46	0.0203340382015156\\
47	0.0154310093192274\\
48	0.0821787685804214\\
49	0.03363683881698\\
50	0.0275946258257038\\
51	0.0445651630602503\\
52	0.0156553121929163\\
53	0.0232029484141056\\
54	0.00817589347943522\\
55	0.00991124901211369\\
56	0.00818101632038163\\
57	0.00516258396052217\\
58	0.00330975956152131\\
59	0.00694957012864147\\
60	0.0105635677316127\\
61	0.0170821355934192\\
62	0.0105857240520502\\
63	0.0408131836829191\\
64	0.00963861265783706\\
65	0.0137895989827563\\
66	0.00492157227182988\\
67	0.00402389001543928\\
68	0.00562374914026735\\
69	0.00427106921386091\\
70	0.0045822761269749\\
71	0.000983830149200864\\
72	0.00227222752074875\\
73	0.00412205361559797\\
74	0.00248825302004046\\
};
\addlegendentry{$\mathbf{\hat{h}_{2}}$}

\end{axis}
\end{tikzpicture}%