% This file was created by matlab2tikz.
%
%The latest updates can be retrieved from
%  http://www.mathworks.com/matlabcentral/fileexchange/22022-matlab2tikz-matlab2tikz
%where you can also make suggestions and rate matlab2tikz.
%
\definecolor{mycolor1}{rgb}{0.00000,0.44700,0.74100}%
\definecolor{mycolor2}{rgb}{0.85000,0.32500,0.09800}%
%
\begin{tikzpicture}

\begin{axis}[%
width=1.935in,
height=3.2in,
at={(0.758in,0.512in)},
scale only axis,
xmin=0,
xmax=200,
xlabel style={font=\color{white!15!black}, align=center},
xlabel={Sample Index\\[1ex](a) Actual},
ymin=0,
ymax=1,
axis background/.style={fill=white},
legend style={legend cell align=left, align=left, draw=white!15!black}
]
\addplot [color=mycolor1]
  table[row sep=crcr]{%
1	0.0167418731260698\\
2	0.018659722218203\\
3	0.0211495716349754\\
4	0.0245407494314006\\
5	0.029505643974117\\
6	0.0377161636169434\\
7	0.0550750576238134\\
8	0.131028403455825\\
9	0.141533477104454\\
10	0.158175166246243\\
11	0.163761757297189\\
12	0.600100605556833\\
13	0.118033417583129\\
14	0.0610914209628117\\
15	0.0426162246246858\\
16	0.0332715711707656\\
17	0.0321939439283243\\
18	0.0268871008873183\\
19	0.0316920608120786\\
20	0.0286771919664519\\
21	0.00773119825769845\\
22	0.0330073087209196\\
23	0.019415059292473\\
24	0.0177688778425817\\
25	0.0188194600762088\\
26	0.0237714798713867\\
27	0.0430806655948836\\
28	0.586023006720236\\
29	0.0970905103802927\\
30	0.0246981078960262\\
31	0.0780346253424249\\
32	0.0580455436901626\\
33	0.0681836526256362\\
34	0.163824852865525\\
35	0.0446106828365612\\
36	0.06119675966513\\
37	0.00907835157153909\\
38	0.0310093774848825\\
39	0.00125972832884384\\
40	0.005422098150711\\
41	0.0107374596162295\\
42	0.0165479326643041\\
43	0.024789327411243\\
44	0.0446277431282512\\
45	0.058019450740893\\
46	0.074843365423057\\
47	0.199666615467323\\
48	0.216838516027539\\
49	0.0783890355452335\\
50	0.0495529240878659\\
51	0.0370791446049236\\
52	0.0307530810094058\\
53	0.0155757068681131\\
54	0.0198807977432187\\
55	0.0179871495341263\\
56	0.0162887905400521\\
57	0.0148728268904216\\
58	0.0136909847461918\\
59	0.0126943671543235\\
60	0.011846112844806\\
61	0.0111233301448608\\
62	0.0105291449791113\\
63	0.0102108676347222\\
64	0.00751288118280402\\
65	0.00739035992869396\\
66	0.0116365722557393\\
67	0.00899390796280924\\
68	0.00831157148096884\\
69	0.00788086875151191\\
70	0.00754217236777393\\
71	0.00725475830161164\\
72	0.00700327644843893\\
73	0.006780818536885\\
74	0.00658453626015097\\
75	0.00641472878078445\\
76	0.00627599401250467\\
77	0.00618216997550965\\
78	0.00617516728867787\\
79	0.00642745729543014\\
80	0.00873051939586948\\
81	0.00471465923588381\\
82	0.00195996010568866\\
83	0.004980313957114\\
84	0.00475839614864904\\
85	0.00464733241660508\\
86	0.00455444244400457\\
87	0.00446749239384432\\
88	0.00438406292262191\\
89	0.00430366820355207\\
90	0.00422628355118023\\
91	0.00415201532524293\\
92	0.00408104289588831\\
93	0.00401365198230764\\
94	0.00395033763548775\\
95	0.00389203620501121\\
96	0.00384070443755282\\
97	0.00380107128140597\\
98	0.00378779867734327\\
99	0.00387836096292209\\
100	0.00228454900881806\\
101	0.00321909463290553\\
102	0.00328982387499096\\
103	0.00328100374444436\\
104	0.00325253146337885\\
105	0.00321692683031362\\
106	0.00317840637543852\\
107	0.00313876414674543\\
108	0.00309887602618152\\
109	0.00305920797263281\\
110	0.00302002111537278\\
111	0.00298146552488656\\
112	0.00294362726599965\\
113	0.0029065537719176\\
114	0.00287026833389302\\
115	0.00283477876811283\\
116	0.00280008280049957\\
117	0.00276617151884636\\
118	0.00273303164395387\\
119	0.00270064705586787\\
120	0.00266899983729428\\
121	0.00263807099659409\\
122	0.00260784097374635\\
123	0.00257828999668392\\
124	0.00254939833288439\\
125	0.00252114646667125\\
126	0.00249351522323938\\
127	0.00246648585412356\\
128	0.00244004009455901\\
129	0.00241416020024051\\
130	0.00238882896892876\\
131	0.0023640297508985\\
132	0.00233974645117835\\
133	0.00231596352577768\\
134	0.00229266597354371\\
135	0.00226983932488367\\
136	0.00224746962828519\\
137	0.00222554343533969\\
138	0.00220404778480324\\
139	0.00218297018609978\\
140	0.00216229860257188\\
141	0.00214202143470905\\
142	0.00212212750352594\\
143	0.00210260603421662\\
144	0.00208344664017788\\
145	0.00206463930746792\\
146	0.00204617437974413\\
147	0.00202804254371082\\
148	0.00201023481509265\\
149	0.00199274252514179\\
150	0.00197555730767936\\
151	0.0019586710866655\\
152	0.00194207606428942\\
153	0.00192576470956709\\
154	0.00190972974743187\\
155	0.00189396414830307\\
156	0.00187846111811499\\
157	0.00186321408878906\\
158	0.00184821670913216\\
159	0.00183346283614256\\
160	0.00181894652670628\\
161	0.00180466202966742\\
162	0.00179060377825436\\
163	0.00177676638284649\\
164	0.00176314462406556\\
165	0.00174973344617591\\
166	0.0017365279507797\\
167	0.00172352339079259\\
168	0.00171071516468654\\
169	0.00169809881098722\\
170	0.00168567000301325\\
171	0.00167342454384613\\
172	0.00166135836151948\\
173	0.00164946750441694\\
174	0.00163774813686889\\
175	0.00162619653493841\\
176	0.00161480908238697\\
177	0.00160358226681213\\
178	0.001592512675948\\
179	0.00158159699412143\\
180	0.00157083199885632\\
181	0.00156021455761888\\
182	0.00154974162469766\\
183	0.00153941023821136\\
184	0.00152921751723897\\
185	0.00151916065906659\\
186	0.00150923693654504\\
187	0.00149944369555362\\
188	0.00148977835256491\\
189	0.00148023839230615\\
190	0.0014708213655126\\
191	0.00146152488676917\\
192	0.00145234663243548\\
193	0.00144328433865201\\
194	0.00143433579942216\\
195	0.0014254988647679\\
196	0.00141677143895562\\
197	0.00140815147878894\\
198	0.00139963699196521\\
199	0\\
200	0\\
};
\addlegendentry{$\mathbf{h_1}$}

\addplot [color=mycolor2]
  table[row sep=crcr]{%
1	0.00495033386861547\\
2	0.00515738368500011\\
3	0.00538309861623286\\
4	0.00563019833310769\\
5	0.00590197136255583\\
6	0.00620243506959928\\
7	0.00653655369620811\\
8	0.00691054090538825\\
9	0.00733228812251618\\
10	0.00781198494389501\\
11	0.00836304134465097\\
12	0.0090034999823859\\
13	0.00975827527656913\\
14	0.0106628508662167\\
15	0.0117696896019869\\
16	0.0131600228416925\\
17	0.0149671880151623\\
18	0.0174273921400842\\
19	0.0210049332363351\\
20	0.0267613442180004\\
21	0.037792597580649\\
22	0.068721841139076\\
23	0.97572931769219\\
24	0.0649085399616321\\
25	0.0262918397391367\\
26	0.0126468169615953\\
27	0.00419508123086451\\
28	0.0214241856295046\\
29	0.0134643328328179\\
30	0.00412679327935559\\
31	0.0112712342656943\\
32	0.0282552508318709\\
33	0.111702725947746\\
34	0.12653020104749\\
35	0.0361926668223949\\
36	0.024130019396178\\
37	0.019518168382204\\
38	0.0163235660243771\\
39	0.0140849625225472\\
40	0.0124312948441269\\
41	0.0111552918846637\\
42	0.0101369616841952\\
43	0.00930266674553233\\
44	0.00860476970863487\\
45	0.00801105372801389\\
46	0.00749890841387189\\
47	0.00705196472677567\\
48	0.00665805661850076\\
49	0.0063079366485928\\
50	0.00599443852440938\\
51	0.00571191453485358\\
52	0.00545584764793091\\
53	0.0052225778141873\\
54	0.00500910486747672\\
55	0.00481294397681212\\
56	0.00463201789166602\\
57	0.00446457542356871\\
58	0.00430912894812168\\
59	0.00416440590497024\\
60	0.00402931074167137\\
61	0.00390289474814389\\
62	0.00378433192171684\\
63	0.00367289949042518\\
64	0.0035679620699816\\
65	0.00346895868109233\\
66	0.00337539203747226\\
67	0.00328681965070268\\
68	0.00320284639950925\\
69	0\\
70	0\\
71	0\\
72	0\\
73	0\\
74	0\\
75	0\\
76	0\\
77	0\\
78	0\\
79	0\\
80	0\\
81	0\\
82	0\\
83	0\\
84	0\\
85	0\\
86	0\\
87	0\\
88	0\\
89	0\\
90	0\\
91	0\\
92	0\\
93	0\\
94	0\\
95	0\\
96	0\\
97	0\\
98	0\\
99	0\\
100	0\\
101	0\\
102	0\\
103	0\\
104	0\\
105	0\\
106	0\\
107	0\\
108	0\\
109	0\\
110	0\\
111	0\\
112	0\\
113	0\\
114	0\\
115	0\\
116	0\\
117	0\\
118	0\\
119	0\\
120	0\\
121	0\\
122	0\\
123	0\\
124	0\\
125	0\\
126	0\\
127	0\\
128	0\\
129	0\\
130	0\\
131	0\\
132	0\\
133	0\\
134	0\\
135	0\\
136	0\\
137	0\\
138	0\\
139	0\\
140	0\\
141	0\\
142	0\\
143	0\\
144	0\\
145	0\\
146	0\\
147	0\\
148	0\\
149	0\\
150	0\\
151	0\\
152	0\\
153	0\\
154	0\\
155	0\\
156	0\\
157	0\\
158	0\\
159	0\\
160	0\\
161	0\\
162	0\\
163	0\\
164	0\\
165	0\\
166	0\\
167	0\\
168	0\\
169	0\\
170	0\\
171	0\\
172	0\\
173	0\\
174	0\\
175	0\\
176	0\\
177	0\\
178	0\\
179	0\\
180	0\\
181	0\\
182	0\\
183	0\\
184	0\\
185	0\\
186	0\\
187	0\\
188	0\\
189	0\\
190	0\\
191	0\\
192	0\\
193	0\\
194	0\\
195	0\\
196	0\\
197	0\\
198	0\\
199	0\\
200	0\\
};
\addlegendentry{$\mathbf{h_{2}}$}

\end{axis}

\begin{axis}[%
width=1.935in,
height=3.2in,
at={(3.327in,0.512in)},
scale only axis,
xmin=0,
xmax=200,
xlabel style={font=\color{white!15!black}, align=center},
xlabel={Sample Index\\[1ex](b) Estimated},
ymin=0,
ymax=1,
axis background/.style={fill=white},
legend style={legend cell align=left, align=left, draw=white!15!black}
]
\addplot [color=mycolor1]
  table[row sep=crcr]{%
0	9.68472926593669e-05\\
1	8.09221101696201e-05\\
2	3.77881470321893e-05\\
3	0.00011727827649843\\
4	4.9356432039264e-05\\
5	0.000105079772027077\\
6	1.09468074253242e-05\\
7	4.44149129062374e-05\\
8	4.53954113892603e-05\\
9	5.05430727470162e-05\\
10	9.06489868369965e-05\\
11	3.43788941636616e-05\\
12	7.91512121059406e-05\\
13	9.04379123830661e-05\\
14	6.30196278813578e-05\\
15	8.51331713246454e-05\\
16	2.79692564599085e-05\\
17	8.44639604690936e-05\\
18	5.48841089816938e-05\\
19	0.000141814094109598\\
20	6.79015005284791e-05\\
21	8.19876115363057e-05\\
22	6.68391428795291e-05\\
23	0.000124694747372464\\
24	2.6521902202292e-05\\
25	0.000109322183198938\\
26	5.09668614757237e-05\\
27	6.85026686167904e-05\\
28	8.53613074774503e-05\\
29	2.18848160098897e-05\\
30	8.09010343999582e-05\\
31	2.46452486449624e-05\\
32	7.22787911787836e-05\\
33	2.17240629115327e-05\\
34	8.22092289280953e-05\\
35	6.87355492590232e-05\\
36	3.991040174908e-05\\
37	7.31924289150935e-05\\
38	6.88970628125423e-05\\
39	3.87765405692276e-05\\
40	1.97222072931962e-05\\
41	0.00013090087640347\\
42	5.19581232210926e-05\\
43	8.04225249510734e-05\\
44	0.000135817452729341\\
45	0.000187934859936345\\
46	5.54175272643732e-05\\
47	4.01452751700755e-05\\
48	5.5563020263231e-05\\
49	0.00013722065376642\\
50	2.81762984643751e-05\\
51	3.74545698169481e-05\\
52	0.000119146723688867\\
53	6.81780704646213e-05\\
54	4.44346151277769e-06\\
55	8.50862064869166e-05\\
56	8.1383132473749e-05\\
57	0.000117160166731056\\
58	4.51237560303821e-05\\
59	0.00013133917366391\\
60	4.77295589425111e-05\\
61	0.000182490492136378\\
62	4.2662181453667e-05\\
63	3.54334849776215e-05\\
64	6.09113117261181e-05\\
65	3.96446965902632e-05\\
66	8.49216610650668e-05\\
67	3.28398094796209e-05\\
68	0.00757075264886283\\
69	0.000648143475222989\\
70	0.00213334167394988\\
71	5.01086034184376e-05\\
72	0.0179803013889835\\
73	3.73447432398063e-05\\
74	0.0193016358709912\\
75	0.0214821957354937\\
76	0.00912037115796146\\
77	0.08309138139069\\
78	5.06039193433683e-05\\
79	0.000110448701013743\\
80	3.41296344075456e-05\\
81	7.83013235032287e-05\\
82	0.0294390750080259\\
83	0.043228095214206\\
84	0.139487343267797\\
85	0.0953231318694391\\
86	0.12617015207676\\
87	0.207797700426295\\
88	0.596230038308472\\
89	0.121860842122092\\
90	0.0540624033862221\\
91	0.00647836306215486\\
92	0.0354681731209387\\
93	0.0592133630558376\\
94	0.06279714082715\\
95	0.000126873383200816\\
96	0.0114754827273529\\
97	0.000162398976108411\\
98	0.0248012219462084\\
99	0.00487780244082609\\
100	0.019877629138354\\
101	0.0191947632560361\\
102	0.0210108014467708\\
103	0.0654521091175377\\
104	0.608530861993468\\
105	0.11434741003637\\
106	0.0126609100761552\\
107	0.0503571696158452\\
108	0.0417617431212007\\
109	0.0631642520695833\\
110	0.167932538123739\\
111	0.00221164783951782\\
112	0.030293392188677\\
113	0.0261726973134765\\
114	0.00342004679524952\\
115	2.89461146506844e-05\\
116	6.38449422423943e-06\\
117	1.5316003555987e-05\\
118	9.06482830504073e-05\\
119	0.000131399952539365\\
120	0.0469808491609364\\
121	0.047591881560865\\
122	0.0585086146765132\\
123	0.220752549996807\\
124	0.172925658727144\\
125	0.0611036865211536\\
126	0.0339280135274591\\
127	0.00560143196360883\\
128	0.00674875615891185\\
129	0.00112132154721073\\
130	0.000109139002429166\\
131	0.000243110108300469\\
132	0.000169202790065869\\
133	5.26779609268189e-05\\
134	0.000115615108702988\\
135	0.000180409785786989\\
136	4.20049108758817e-05\\
137	0.000102073629946125\\
138	0.000100457771842073\\
139	0.00300613617777267\\
140	0.00202759947758759\\
141	7.58596961963263e-05\\
142	2.26586883192349e-05\\
143	0.000109966652458858\\
144	0.000181179110294802\\
145	7.68147346204897e-05\\
146	0.000143252756217762\\
147	6.01987486503265e-05\\
148	0.00016704724923416\\
149	9.50598109098987e-05\\
150	0.000184161025142601\\
151	9.28552424647403e-05\\
152	4.1255433363241e-05\\
153	9.72046307585525e-05\\
154	9.35097076158773e-05\\
155	6.92732828809852e-05\\
156	2.29211248139129e-05\\
157	9.27060434706472e-05\\
158	2.61299646108824e-05\\
159	5.81738912604915e-05\\
160	8.39476166486317e-05\\
161	3.09975286533438e-05\\
162	7.43826176947842e-05\\
163	0.000126432330479851\\
164	4.93512509217761e-05\\
165	0.000114629772360802\\
166	4.25860190205452e-05\\
167	1.87232011685071e-05\\
168	9.93216001050778e-05\\
169	6.58027321227047e-05\\
170	7.83100790345752e-05\\
171	0.000116470030590398\\
172	2.04557982729654e-05\\
173	0.000182844466173049\\
174	2.48148321354547e-05\\
175	6.27905181618637e-05\\
176	5.05011413167298e-05\\
177	5.92177892035104e-05\\
178	1.44362349178234e-05\\
179	0.000104301835330447\\
180	9.43799617733702e-05\\
181	3.99755567270178e-05\\
182	0.000147818671450238\\
183	4.68970333450794e-05\\
184	0.00016728350389522\\
185	8.18381982441942e-05\\
186	3.88745402559329e-05\\
187	7.3589778527089e-05\\
188	4.35479017028938e-05\\
189	0.000116257983453803\\
190	2.89244725990131e-05\\
191	0.000108330649155777\\
192	5.99108092714875e-05\\
193	7.73042315446075e-05\\
194	0.000124260335253284\\
195	6.87251336633525e-05\\
196	8.4932085196883e-05\\
197	9.81563018680993e-05\\
198	1.00721658981081e-05\\
199	5.03464965591208e-05\\
};
\addlegendentry{$\mathbf{\hat{h}_{1}}$}

\addplot [color=mycolor2]
  table[row sep=crcr]{%
0	1.50113773321479e-05\\
1	2.05527371137448e-05\\
2	3.31723604648991e-05\\
3	6.23092642181042e-06\\
4	2.60417421406598e-05\\
5	2.86316199459938e-05\\
6	2.33284851764906e-05\\
7	1.68877556732915e-05\\
8	1.26754074220312e-05\\
9	3.11410835562707e-05\\
10	7.874072176464e-06\\
11	1.76190381355341e-05\\
12	2.29681305830005e-05\\
13	1.19846426167644e-05\\
14	3.80200891301312e-05\\
15	1.49424560383971e-05\\
16	3.07349655237767e-05\\
17	1.13931990819861e-05\\
18	1.99514475838079e-05\\
19	1.60519085336038e-05\\
20	7.47469403046343e-06\\
21	2.51196739882651e-05\\
22	1.09505785137669e-05\\
23	2.26668964760653e-05\\
24	4.44595700882412e-05\\
25	7.18626634703609e-06\\
26	2.03650547904219e-05\\
27	2.51330144199448e-05\\
28	2.44647709566324e-05\\
29	2.23089864937757e-05\\
30	2.64863562366841e-05\\
31	1.80613317766022e-05\\
32	1.43282048240835e-05\\
33	9.73013325088933e-06\\
34	1.66772498365738e-05\\
35	1.38579774303561e-05\\
36	4.27071717805621e-05\\
37	4.84346995455815e-05\\
38	2.3246706957627e-05\\
39	3.41801379767879e-05\\
40	3.14691628968928e-05\\
41	2.17854496082016e-05\\
42	2.30289702534845e-05\\
43	9.94505319877824e-05\\
44	3.04454595954657e-05\\
45	1.93706659969357e-05\\
46	1.3591134796597e-05\\
47	3.63022704954897e-05\\
48	1.43272979312263e-05\\
49	1.35857358706836e-05\\
50	2.05017708606542e-05\\
51	1.5385813384386e-05\\
52	2.93013724238141e-05\\
53	5.64336938953022e-05\\
54	3.58975160655315e-05\\
55	5.6968119303232e-05\\
56	4.18506378457784e-05\\
57	7.0452540990033e-06\\
58	7.83237705995088e-06\\
59	0.000438872063602379\\
60	0.0119981657954235\\
61	0.00762003081973023\\
62	1.76240000384385e-05\\
63	0.026201778444109\\
64	0.00877400970340847\\
65	0.00442820245764222\\
66	0.00493328778938512\\
67	0.00061093256300068\\
68	1.98350095706489e-05\\
69	1.35627092155302e-05\\
70	8.87177478579808e-06\\
71	3.15613279283264e-05\\
72	8.55053774821587e-05\\
73	0.00953774603941914\\
74	1.04158952761545e-05\\
75	1.68084594171076e-05\\
76	0.0101875316812466\\
77	0.00843083106893732\\
78	0.00434320616822803\\
79	0.0252280009167257\\
80	0.0320068154657939\\
81	0.0154233721689687\\
82	0.00291365268174503\\
83	0.0679311419315816\\
84	0.00602845668933082\\
85	0.00150148733908731\\
86	0.00873283276239448\\
87	0.00134848154544008\\
88	0.00217774907677589\\
89	3.66954530610456e-05\\
90	0.00520261761637613\\
91	0.0077520950059397\\
92	0.00287304772512094\\
93	0.0041923768349647\\
94	0.000989167867030213\\
95	4.13521095657355e-05\\
96	0.0287760921655806\\
97	0.0127383620765224\\
98	1.80625375207933e-05\\
99	0.990850347898015\\
100	3.69989319864877e-05\\
101	0.0133029693887754\\
102	0.029288862821454\\
103	2.98218367842806e-05\\
104	0.00155166855700383\\
105	0.00540370992918659\\
106	0.00226088483843089\\
107	0.00737234038190383\\
108	0.00418366352335599\\
109	3.69597993515054e-05\\
110	0.00223439672014689\\
111	0.00127395379099104\\
112	0.00884957426825979\\
113	0.000674342231346765\\
114	0.00520937293893481\\
115	0.0678666698732826\\
116	0.00274024905983659\\
117	0.0156979365949092\\
118	0.0320170669836139\\
119	0.0257640282752586\\
120	0.00505099491804606\\
121	0.00882374958111933\\
122	0.0105695288682574\\
123	1.98741877945333e-05\\
124	1.8387039423494e-05\\
125	0.00971693701945404\\
126	0.000287500160386856\\
127	3.54330938966865e-05\\
128	1.25692346404049e-05\\
129	2.3685814574509e-05\\
130	1.62001121763366e-05\\
131	0.000322564457515745\\
132	0.00549914402403713\\
133	0.00436210149315228\\
134	0.00856893007043626\\
135	0.0266710193589961\\
136	9.53585832443956e-06\\
137	0.00806929898345496\\
138	0.0125989706711953\\
139	0.000956126461977067\\
140	7.89698680407266e-06\\
141	1.8674537049015e-05\\
142	7.55782304212923e-05\\
143	6.51960205961828e-05\\
144	4.45488858836027e-05\\
145	6.57389851005261e-05\\
146	2.46615686295712e-05\\
147	1.61281936850112e-05\\
148	2.68770395573959e-05\\
149	2.05875630105467e-05\\
150	2.52916617130997e-05\\
151	4.2920478011266e-05\\
152	1.85341751259327e-05\\
153	1.89206557878994e-05\\
154	1.55631695328618e-05\\
155	0.000116454871633559\\
156	4.67622383860995e-06\\
157	2.82886727298051e-05\\
158	3.95010789613015e-05\\
159	3.7730495728033e-05\\
160	2.57923055389766e-05\\
161	6.81909102849635e-05\\
162	2.89726449141103e-05\\
163	1.71819160735586e-05\\
164	2.69403319010278e-05\\
165	1.64520817650405e-05\\
166	2.0564160254503e-05\\
167	9.57857629440963e-06\\
168	3.25572442613634e-05\\
169	9.16646536682391e-06\\
170	1.20460833082217e-05\\
171	2.16900430717163e-05\\
172	2.3690402736563e-05\\
173	1.43869825104752e-05\\
174	3.41933195398381e-05\\
175	2.05156012259872e-05\\
176	2.2684155177756e-05\\
177	1.63397157829666e-05\\
178	2.55018360359381e-05\\
179	1.75701657599245e-05\\
180	1.92819912277254e-05\\
181	1.46329123140508e-05\\
182	3.01701630967636e-05\\
183	8.75783231705729e-06\\
184	3.66957857414222e-05\\
185	1.12563501711027e-05\\
186	3.07634971506276e-05\\
187	1.93643577906551e-05\\
188	1.33878887597795e-05\\
189	3.78496323878831e-05\\
190	2.85319619129889e-06\\
191	1.83350072182715e-05\\
192	2.42444306553338e-05\\
193	2.12062418852304e-05\\
194	1.6241202584541e-05\\
195	2.62573560606309e-05\\
196	1.96987386821698e-05\\
197	2.14680974024018e-05\\
198	1.89454480684275e-05\\
199	3.93341000282655e-06\\
};
\addlegendentry{$\mathbf{\hat{h}_{2}}$}

\end{axis}
\end{tikzpicture}%