% This file was created by matlab2tikz.
%
%The latest updates can be retrieved from
%  http://www.mathworks.com/matlabcentral/fileexchange/22022-matlab2tikz-matlab2tikz
%where you can also make suggestions and rate matlab2tikz.
%
\definecolor{mycolor1}{rgb}{0.00000,0.44700,0.74100}%
\definecolor{mycolor2}{rgb}{0.85000,0.32500,0.09800}%
%
\begin{tikzpicture}

\begin{axis}[%
width=1.952in,
height=3.2in,
at={(0.758in,0.512in)},
scale only axis,
xmin=0,
xmax=20,
xlabel style={font=\color{white!15!black}, align=center},
xlabel={Sample Index\\[1ex](a) Actual},
ymin=0,
ymax=1,
axis background/.style={fill=white},
legend style={legend cell align=left, align=left, draw=white!15!black}
]
\addplot [color=mycolor1]
  table[row sep=crcr]{%
1	0.113205605745861\\
2	0.919292270364926\\
3	0.256025577129562\\
4	0.221212160951117\\
5	0.110921817870281\\
6	0.0400328712358033\\
7	0.0687168441611535\\
8	0.0506014016738843\\
9	0.0552835931164163\\
10	0.0346525615393867\\
11	0.020191452822011\\
12	0.0185296152559968\\
13	0.0171404774442808\\
14	0.0156211388830756\\
15	0.0142945116316957\\
16	0.0131617720182863\\
17	0.0121914691582677\\
18	0.0113534257007881\\
19	0.0106231383936872\\
20	0.00998136168461187\\
};
\addlegendentry{$\mathbf{h_1}$}

\addplot [color=mycolor2]
  table[row sep=crcr]{%
1	0.0495723015654782\\
2	0.0685334241945042\\
3	0.511321702955238\\
4	0.765196656162612\\
5	0.358164812724738\\
6	0.132619444637821\\
7	0\\
8	0\\
9	0\\
10	0\\
11	0\\
12	0\\
13	0\\
14	0\\
15	0\\
16	0\\
17	0\\
18	0\\
19	0\\
20	0\\
};
\addlegendentry{$\mathbf{h_{2}}$}

\end{axis}

\begin{axis}[%
width=1.952in,
height=3.2in,
at={(3.327in,0.512in)},
scale only axis,
xmin=0,
xmax=20,
xlabel style={font=\color{white!15!black}, align=center},
xlabel={Sample Index\\[1ex](b) Estimated},
ymin=0,
ymax=1,
axis background/.style={fill=white},
legend style={legend cell align=left, align=left, draw=white!15!black}
]
\addplot [color=mycolor1]
  table[row sep=crcr]{%
0	0.113205730673424\\
1	0.919293605271431\\
2	0.256013198764007\\
3	0.221214943288848\\
4	0.110935008631704\\
5	0.0400214429392947\\
6	0.0687243676596872\\
7	0.0505995941537533\\
8	0.0552813089647068\\
9	0.034653161380789\\
10	0.0201923597008807\\
11	0.0185285200063458\\
12	0.0171380326283005\\
13	0.0156226510507966\\
14	0.0142944731090353\\
15	0.0131628258878394\\
16	0.0121897952822421\\
17	0.0113544320041707\\
18	0.0106233324370294\\
19	0.00998139173043645\\
};
\addlegendentry{$\mathbf{\hat{h}_{1}}$}

\addplot [color=mycolor2]
  table[row sep=crcr]{%
0	0.0495727618779533\\
1	0.0685349040379536\\
2	0.511327475836619\\
3	0.765194784364588\\
4	0.358158883742401\\
5	0.132623059310518\\
6	1.53053096566177e-05\\
7	1.74144530683311e-05\\
8	1.31392745517405e-05\\
9	7.45622951151465e-06\\
10	2.76493094887909e-06\\
11	6.5195437323258e-07\\
12	7.10571170055226e-07\\
13	5.18898736297014e-07\\
14	1.17995237451985e-06\\
15	1.15515271242404e-06\\
16	4.70688535731188e-07\\
17	1.36639783999174e-06\\
18	1.51829343968593e-06\\
19	6.68651820087621e-07\\
};
\addlegendentry{$\mathbf{\hat{h}_{2}}$}

\end{axis}
\end{tikzpicture}%