% This file was created by matlab2tikz.
%
%The latest updates can be retrieved from
%  http://www.mathworks.com/matlabcentral/fileexchange/22022-matlab2tikz-matlab2tikz
%where you can also make suggestions and rate matlab2tikz.
%
\definecolor{mycolor1}{rgb}{0.00000,0.44700,0.74100}%
\definecolor{mycolor2}{rgb}{0.85000,0.32500,0.09800}%
%
\begin{tikzpicture}

\begin{axis}[%
width=4.521in,
height=3.566in,
at={(0.758in,0.481in)},
scale only axis,
xmin=0,
xmax=40,
xlabel style={font=\color{white!15!black}},
xlabel={Samples (n)},
ymin=0,
ymax=1,
ylabel style={font=\color{white!15!black}},
ylabel={Magnitude},
axis background/.style={fill=white},
legend style={legend cell align=left, align=left, draw=white!15!black}
]
\addplot [color=mycolor1]
  table[row sep=crcr]{%
1	0.00874608177963953\\
2	0.00425931318247167\\
3	0.00608903981718203\\
4	0.00377410629708283\\
5	0.00347212355215915\\
6	0.0149419992161905\\
7	0.0180811852340042\\
8	0.0178775463174367\\
9	0.0400456651789156\\
10	0.0501432463344226\\
11	0.0370508216519988\\
12	0.0757694487699624\\
13	0.064978178749062\\
14	0.115848241289335\\
15	0.0865400531306558\\
16	0.430366781662754\\
17	0.542234236807293\\
18	0.374733406254917\\
19	0.482231308607699\\
20	0.145015882052422\\
21	0.15414596704891\\
22	0.0292537719815218\\
23	0.132694879827606\\
24	0.0493592821485784\\
25	0.0708515540336007\\
26	0.0413826932686559\\
27	0.115582218497462\\
28	0.0568061939836873\\
29	0.0895511523460761\\
30	0.0702949684714604\\
31	0.0282956602198857\\
32	0.0630876101988957\\
33	0.0319491213291927\\
34	0.0229838851567734\\
35	0.0347431790022284\\
36	0.00943111289222133\\
37	0.0145315322772933\\
38	0.016700289509965\\
39	0.0133697722788995\\
40	0.0117440236424462\\
};
\addlegendentry{$\hat{\mathbf{h}_1}$}
\addplot [color=mycolor2]
  table[row sep=crcr]{%
1	0.00472430896499602\\
2	0.00631502764117482\\
3	0.00432804833510558\\
4	0.00886214089803415\\
5	0.00435081120409098\\
6	0.0166836560585185\\
7	0.0128562624866234\\
8	0.010741910639845\\
9	0.0318726557218618\\
10	0.00643400702254673\\
11	0.00178273668708899\\
12	0.0190699689632243\\
13	0.0115232471224035\\
14	0.0182072487653488\\
15	0.0384777620535309\\
16	0.0639380303375483\\
17	0.0516577140331529\\
18	0.0287675156487148\\
19	0.0673815836516353\\
20	0.983626425143237\\
21	0.0674243930473506\\
22	0.028765703966818\\
23	0.0516634742697592\\
24	0.0639301613727476\\
25	0.0385170145923563\\
26	0.0181649194761453\\
27	0.0115535936964063\\
28	0.0190429362253396\\
29	0.00170989352235898\\
30	0.00641535412285526\\
31	0.0318750918405484\\
32	0.0107821728282435\\
33	0.0128901226050277\\
34	0.0166451633527966\\
35	0.00433409854615184\\
36	0.00870002523388088\\
37	0.00454030003570523\\
38	0.00639524625999271\\
39	0.0045568517789083\\
40	0.00355039302350298\\
};
\addlegendentry{$\hat{\mathbf{h}_2}$}

\end{axis}
\end{tikzpicture}%