\relax 
\providecommand\hyper@newdestlabel[2]{}
\citation{art:LS_Approach_BCID}
\citation{art:AEDDecomp}
\citation{art:LS_Approach_BCID,art:Det_BID_Multi-FIRSystems}
\citation{art:AEDDecomp,book:AcousticMIMOSigProc,conf:AED}
\@writefile{toc}{\contentsline {chapter}{\numberline {4}PRE-EXISTING CROSS RELATION METHODS}{31}{chapter.4}}
\newlabel{ch:4}{{4}{31}{PRE-EXISTING CROSS RELATION METHODS}{chapter.4}{}}
\@writefile{toc}{\contentsline {section}{\numberline {4.1}Pre-Existing Algorithms}{31}{section.4.1}}
\@writefile{toc}{\contentsline {subsection}{\numberline {4.1.1}System Model}{31}{subsection.4.1.1}}
\newlabel{eq:system}{{4.1}{31}{System Model}{equation.4.1.1}{}}
\@writefile{lof}{\contentsline {figure}{\numberline {4.1}{\ignorespaces System Model\relax }}{32}{figure.caption.26}}
\newlabel{fig:transmission_figure}{{4.1}{32}{System Model\relax }{figure.caption.26}{}}
\@writefile{toc}{\contentsline {subsection}{\numberline {4.1.2}Cross Relation}{32}{subsection.4.1.2}}
\newlabel{sec:ch_4_LS_conj_cr}{{4.1.2}{32}{Cross Relation}{subsection.4.1.2}{}}
\newlabel{eq:cr-derivation}{{4.4}{32}{Cross Relation}{equation.4.1.4}{}}
\newlabel{eq:cr-matrix}{{4.5}{32}{Cross Relation}{equation.4.1.5}{}}
\citation{art:LS_Approach_BCID}
\newlabel{eq:cr-brief}{{4.6}{33}{Cross Relation}{equation.4.1.6}{}}
\@writefile{toc}{\contentsline {subsection}{\numberline {4.1.3}A Least-Squares Approach According to Xu et al.}{33}{subsection.4.1.3}}
\newlabel{eq:cr-brief_approx}{{4.7}{33}{A Least-Squares Approach According to Xu et al}{equation.4.1.7}{}}
\newlabel{eq:min_cr_brief}{{4.8}{33}{A Least-Squares Approach According to Xu et al}{equation.4.1.8}{}}
\citation{art:AEDDecomp,book:AcousticMIMOSigProc,conf:AED}
\@writefile{toc}{\contentsline {subsection}{\numberline {4.1.4}Adaptive Eigenvalue Decomposition}{34}{subsection.4.1.4}}
\newlabel{eq:AED_objective}{{4.9}{34}{Adaptive Eigenvalue Decomposition}{equation.4.1.9}{}}
\newlabel{eq:AED_objective_2}{{4.11}{34}{Adaptive Eigenvalue Decomposition}{equation.4.1.11}{}}
\citation{art:LMS}
\citation{art:AEDDecomp,book:AcousticMIMOSigProc,conf:AED}
\citation{art:LS_Approach_BCID}
\newlabel{eq:AED_update}{{4.12}{35}{Adaptive Eigenvalue Decomposition}{equation.4.1.12}{}}
\@writefile{toc}{\contentsline {subsection}{\numberline {4.1.5}Pre-Existing Algorithms Implementations, Advantages, and Disadvantages}{35}{subsection.4.1.5}}
\@writefile{lof}{\contentsline {figure}{\numberline {4.2}{\ignorespaces Results of the SVD algorithm with 30,000 data samples, with SNR = 60 dB, at various sampling rates for wideband simulation, (a) 20 MHz, (b) 100 MHz, (c) 150 MHz, and (d) 200 MHz, for impulse response set IR-1, seed 0.\relax }}{36}{figure.caption.27}}
\newlabel{fig:LS_ideal_30v3000}{{4.2}{36}{Results of the SVD algorithm with 30,000 data samples, with SNR = 60 dB, at various sampling rates for wideband simulation, (a) 20 MHz, (b) 100 MHz, (c) 150 MHz, and (d) 200 MHz, for impulse response set IR-1, seed 0.\relax }{figure.caption.27}{}}
\citation{book:moon,book:matComp}
\@writefile{lof}{\contentsline {figure}{\numberline {4.3}{\ignorespaces Results of the SVD algorithm with 300 data samples, with SNR = 60 dB, at various sampling rates for wideband simulation, (a) 20 MHz, (b) 100 MHz, (c) 150 MHz, and (d) 200 MHz, for impulse response set IR-1, seed 0.\relax }}{37}{figure.caption.28}}
\newlabel{fig:LS_Nless_30v3000}{{4.3}{37}{Results of the SVD algorithm with 300 data samples, with SNR = 60 dB, at various sampling rates for wideband simulation, (a) 20 MHz, (b) 100 MHz, (c) 150 MHz, and (d) 200 MHz, for impulse response set IR-1, seed 0.\relax }{figure.caption.28}{}}
\@writefile{lof}{\contentsline {figure}{\numberline {4.4}{\ignorespaces Results of the SVD algorithm with 30,000 data samples, with SNR = 60 dB, at various sampling rates for wideband simulation, (a) 20 MHz, (b) 100 MHz, (c) 150 MHz, and (d) 200 MHz, for impulse response set IR-2, seed 0.\relax }}{38}{figure.caption.29}}
\newlabel{fig:LS_NITF_30v3000}{{4.4}{38}{Results of the SVD algorithm with 30,000 data samples, with SNR = 60 dB, at various sampling rates for wideband simulation, (a) 20 MHz, (b) 100 MHz, (c) 150 MHz, and (d) 200 MHz, for impulse response set IR-2, seed 0.\relax }{figure.caption.29}{}}
\citation{art:AEDDecomp,conf:AED}
\@writefile{lof}{\contentsline {figure}{\numberline {4.5}{\ignorespaces Results of the SVD algorithm with 30,000 data samples, with SNR = 60 dB, at various sampling rates for narrowband simulation, (a) 20 MHz, (b) 100 MHz, (c) 150 MHz, and (d) 200 MHz, forimpulse response set IR-1, seed 0.\relax }}{39}{figure.caption.30}}
\newlabel{fig:LS_narrowband_30v3000}{{4.5}{39}{Results of the SVD algorithm with 30,000 data samples, with SNR = 60 dB, at various sampling rates for narrowband simulation, (a) 20 MHz, (b) 100 MHz, (c) 150 MHz, and (d) 200 MHz, forimpulse response set IR-1, seed 0.\relax }{figure.caption.30}{}}
\newlabel{eq:ch_4_unit_vector}{{4.13}{39}{Pre-Existing Algorithms Implementations, Advantages, and Disadvantages}{equation.4.1.13}{}}
\citation{book:AcousticMIMOSigProc}
\@writefile{lof}{\contentsline {figure}{\numberline {4.6}{\ignorespaces Results of the SVD algorithm with 30,000 data samples, with SNR = 20 dB at various sampling rates for wideband simulation, (a) 20 MHz, (b) 100 MHz, (c) 150 MHz, and (d) 200 MHz, for impulse response set IR-1, seed 0.\relax }}{40}{figure.caption.31}}
\newlabel{fig:LS_noisy_30v3000}{{4.6}{40}{Results of the SVD algorithm with 30,000 data samples, with SNR = 20 dB at various sampling rates for wideband simulation, (a) 20 MHz, (b) 100 MHz, (c) 150 MHz, and (d) 200 MHz, for impulse response set IR-1, seed 0.\relax }{figure.caption.31}{}}
\@writefile{lof}{\contentsline {figure}{\numberline {4.7}{\ignorespaces Results of the SVD algorithm with 30,000 data samples, with SNR = 60 dB for wideband at 200 MHz sampling rate with incorrect channel orders, $L$ (a) $L/2$, (b) $L - 10$, (c) $L*2$, and (d) $L + 10$, for impulse response set IR-1, seed 0.\relax }}{41}{figure.caption.32}}
\newlabel{fig:LS_wrongModel_30v3000}{{4.7}{41}{Results of the SVD algorithm with 30,000 data samples, with SNR = 60 dB for wideband at 200 MHz sampling rate with incorrect channel orders, $L$ (a) $L/2$, (b) $L - 10$, (c) $L*2$, and (d) $L + 10$, for impulse response set IR-1, seed 0.\relax }{figure.caption.32}{}}
\@writefile{lof}{\contentsline {figure}{\numberline {4.8}{\ignorespaces Results of the AED algorithm with 250,000 data samples, with SNR = 60 dB for wideband simulation, (a) 20 MHz, (b) 100 MHz, (c) 150 MHz, and (d) 200 MHz, for impulse response set IR-1, seed 0.\relax }}{42}{figure.caption.33}}
\newlabel{fig:AED_ideal_30v3000}{{4.8}{42}{Results of the AED algorithm with 250,000 data samples, with SNR = 60 dB for wideband simulation, (a) 20 MHz, (b) 100 MHz, (c) 150 MHz, and (d) 200 MHz, for impulse response set IR-1, seed 0.\relax }{figure.caption.33}{}}
\@writefile{toc}{\contentsline {section}{\numberline {4.2}Modified Algorithms}{42}{section.4.2}}
\newlabel{sec:modAlgs}{{4.2}{42}{Modified Algorithms}{section.4.2}{}}
\@writefile{lof}{\contentsline {figure}{\numberline {4.9}{\ignorespaces Results of the AED algorithm with 250,000 data samples, with SNR = 60 dB for wideband simulation, (a) 20 MHz, (b) 100 MHz, (c) 150 MHz, and (d) 200 MHz, for impulse response set IR-1, seed 0 using a normalized random start.\relax }}{43}{figure.caption.34}}
\newlabel{fig:AED_rStart_30v3000}{{4.9}{43}{Results of the AED algorithm with 250,000 data samples, with SNR = 60 dB for wideband simulation, (a) 20 MHz, (b) 100 MHz, (c) 150 MHz, and (d) 200 MHz, for impulse response set IR-1, seed 0 using a normalized random start.\relax }{figure.caption.34}{}}
\@writefile{toc}{\contentsline {subsection}{\numberline {4.2.1}Modified System Model}{43}{subsection.4.2.1}}
\@writefile{lof}{\contentsline {figure}{\numberline {4.10}{\ignorespaces Results of the AED algorithm with 2,500 data samples, with SNR = 60 dB, at various sampling rates for wideband simulation, (a) 20 MHz, (b) 100 MHz, (c) 150 MHz, and (d) 200 MHz, for impulse response set IR-1, seed 0.\relax }}{44}{figure.caption.35}}
\newlabel{fig:AED_Nless_30v3000}{{4.10}{44}{Results of the AED algorithm with 2,500 data samples, with SNR = 60 dB, at various sampling rates for wideband simulation, (a) 20 MHz, (b) 100 MHz, (c) 150 MHz, and (d) 200 MHz, for impulse response set IR-1, seed 0.\relax }{figure.caption.35}{}}
\@writefile{lof}{\contentsline {figure}{\numberline {4.11}{\ignorespaces Results of the AED algorithm with 250,000 data samples, with SNR = 60 dB for narrowband simulation, (a) 20 MHz, (b) 100 MHz, (c) 150 MHz, and (d) 200 MHz, for impulse response set IR-1, seed 0.\relax }}{45}{figure.caption.36}}
\newlabel{fig:AED_narrowband_30v3000}{{4.11}{45}{Results of the AED algorithm with 250,000 data samples, with SNR = 60 dB for narrowband simulation, (a) 20 MHz, (b) 100 MHz, (c) 150 MHz, and (d) 200 MHz, for impulse response set IR-1, seed 0.\relax }{figure.caption.36}{}}
\newlabel{eq:system_conj}{{4.14}{45}{Modified System Model}{equation.4.2.14}{}}
\@writefile{lof}{\contentsline {figure}{\numberline {4.12}{\ignorespaces Results of the AED algorithm with 250,000 data samples, with SNR = 60 dB for wideband simulation, (a) 20 MHz, (b) 100 MHz, (c) 150 MHz, and (d) 200 MHz, for impulse response set IR-2, seed 0.\relax }}{46}{figure.caption.37}}
\newlabel{fig:AED_NITF_30v3000}{{4.12}{46}{Results of the AED algorithm with 250,000 data samples, with SNR = 60 dB for wideband simulation, (a) 20 MHz, (b) 100 MHz, (c) 150 MHz, and (d) 200 MHz, for impulse response set IR-2, seed 0.\relax }{figure.caption.37}{}}
\@writefile{toc}{\contentsline {subsection}{\numberline {4.2.2}Complex Cross Relation}{46}{subsection.4.2.2}}
\@writefile{lof}{\contentsline {figure}{\numberline {4.13}{\ignorespaces Results of the AED algorithm with 250,000 data samples, with SNR = 20 dB for wideband simulation, (a) 20 MHz, (b) 100 MHz, (c) 150 MHz, and (d) 200 MHz, for impulse response set IR-1, seed 0.\relax }}{47}{figure.caption.38}}
\newlabel{fig:AED_noisy_30v3000}{{4.13}{47}{Results of the AED algorithm with 250,000 data samples, with SNR = 20 dB for wideband simulation, (a) 20 MHz, (b) 100 MHz, (c) 150 MHz, and (d) 200 MHz, for impulse response set IR-1, seed 0.\relax }{figure.caption.38}{}}
\newlabel{eq:cr-derivation_conj}{{4.15}{47}{Complex Cross Relation}{equation.4.2.15}{}}
\newlabel{eq:cr-matrix_conj}{{4.16}{47}{Complex Cross Relation}{equation.4.2.16}{}}
\@writefile{lof}{\contentsline {figure}{\numberline {4.14}{\ignorespaces Results of the AED algorithm with 30,000 data samples, with SNR = 60 dB for wideband at 200 MHz sampling rate with incorrect channel orders, $L$ (a) $L/2$, (b) $L - 10$, (c) $L*2$, and (d) $L + 10$, for impulse response set IR-1, seed 0.\relax }}{48}{figure.caption.39}}
\newlabel{fig:AED_wrongModel_30v3000}{{4.14}{48}{Results of the AED algorithm with 30,000 data samples, with SNR = 60 dB for wideband at 200 MHz sampling rate with incorrect channel orders, $L$ (a) $L/2$, (b) $L - 10$, (c) $L*2$, and (d) $L + 10$, for impulse response set IR-1, seed 0.\relax }{figure.caption.39}{}}
\newlabel{eq:cr-brief_conj}{{4.17}{48}{Complex Cross Relation}{equation.4.2.17}{}}
\citation{art:AdaptBESparse,book:ProbRVandRP}
\@writefile{toc}{\contentsline {subsection}{\numberline {4.2.3}Modified Adaptive Eigenvalue Decomposition}{49}{subsection.4.2.3}}
\newlabel{eq:modAED_objective}{{4.18}{49}{Modified Adaptive Eigenvalue Decomposition}{equation.4.2.18}{}}
\newlabel{eq:modAED_lagrangian}{{4.19}{49}{Modified Adaptive Eigenvalue Decomposition}{equation.4.2.19}{}}
\newlabel{eq:AED_update_lambda}{{4.20}{49}{Modified Adaptive Eigenvalue Decomposition}{equation.4.2.20}{}}
\newlabel{eq:AED_constraint}{{4.21}{49}{Modified Adaptive Eigenvalue Decomposition}{equation.4.2.21}{}}
\citation{art:AdaptBESparse,art:IDinBDeconv,art:SparseBDeConv}
\citation{art:IDinBDeconv,art:AdaptiveTDEUsingFilterConstraints,thesis:SLvTDOA,art:SparseBDeConv,conf:ETDOARoomRefl}
\citation{web:subgradient_prince,web:subgradient_stan}
\newlabel{eq:modAED_final_update}{{4.22}{50}{Modified Adaptive Eigenvalue Decomposition}{equation.4.2.22}{}}
\@writefile{toc}{\contentsline {subsection}{\numberline {4.2.4}Modified AED with Sparsity}{50}{subsection.4.2.4}}
\newlabel{eq:modAEDS_objective}{{4.23}{50}{Modified AED with Sparsity}{equation.4.2.23}{}}
\newlabel{eq:lagrangian_modAEDS}{{4.24}{50}{Modified AED with Sparsity}{equation.4.2.24}{}}
\newlabel{eq:L1_norm_derivative}{{4.25}{50}{Modified AED with Sparsity}{equation.4.2.25}{}}
\newlabel{eq:modAEDS_derivative}{{4.27}{51}{Modified AED with Sparsity}{equation.4.2.27}{}}
\newlabel{eq:modAEDS_update_lambda}{{4.28}{51}{Modified AED with Sparsity}{equation.4.2.28}{}}
\newlabel{eq:modAEDS_constraint}{{4.29}{51}{Modified AED with Sparsity}{equation.4.2.29}{}}
\@writefile{lof}{\contentsline {figure}{\numberline {4.15}{\ignorespaces Results of the ModAED algorithm with 250,000 data samples, with SNR = 60 dB, at various sampling rates for wideband simulation, (a) 20 MHz, (b) 100 MHz, (c) 150 MHz, and (d) 200 MHz, for impulse response set IR-1, seed 0.\relax }}{52}{figure.caption.40}}
\newlabel{fig:modAED_ideal_30v3000}{{4.15}{52}{Results of the ModAED algorithm with 250,000 data samples, with SNR = 60 dB, at various sampling rates for wideband simulation, (a) 20 MHz, (b) 100 MHz, (c) 150 MHz, and (d) 200 MHz, for impulse response set IR-1, seed 0.\relax }{figure.caption.40}{}}
\@writefile{toc}{\contentsline {subsection}{\numberline {4.2.5}Modified Algorithms Implementations, Advantages, Disadvantages}{52}{subsection.4.2.5}}
\@writefile{lof}{\contentsline {figure}{\numberline {4.16}{\ignorespaces Results of the ModAEDS algorithm with 250,000 data samples, with SNR = 60 dB, at various sampling rates for wideband simulation, (a) 20 MHz, (b) 100 MHz, (c) 150 MHz, and (d) 200 MHz, for impulse response set IR-1, seed 0.\relax }}{53}{figure.caption.41}}
\newlabel{fig:modAEDS_ideal_30v3000}{{4.16}{53}{Results of the ModAEDS algorithm with 250,000 data samples, with SNR = 60 dB, at various sampling rates for wideband simulation, (a) 20 MHz, (b) 100 MHz, (c) 150 MHz, and (d) 200 MHz, for impulse response set IR-1, seed 0.\relax }{figure.caption.41}{}}
\citation{art:AdaptBESparse}
\@writefile{lof}{\contentsline {figure}{\numberline {4.17}{\ignorespaces Results of the ModAED algorithm with 250,000 data samples, with SNR = 60 dB, at various sampling rates for wideband simulation, (a) 20 MHz, (b) 100 MHz, (c) 150 MHz, and (d) 200 MHz, for impulse response set IR-2, seed 0.\relax }}{54}{figure.caption.42}}
\newlabel{fig:modAED_NITF_30v3000}{{4.17}{54}{Results of the ModAED algorithm with 250,000 data samples, with SNR = 60 dB, at various sampling rates for wideband simulation, (a) 20 MHz, (b) 100 MHz, (c) 150 MHz, and (d) 200 MHz, for impulse response set IR-2, seed 0.\relax }{figure.caption.42}{}}
\@writefile{lof}{\contentsline {figure}{\numberline {4.18}{\ignorespaces Results of the ModAED algorithm with 250,000 data samples, with SNR = 60 dB, at various sampling rates for narrowband simulation, (a) 20 MHz, (b) 100 MHz, (c) 150 MHz, and (d) 200 MHz, for impulse response set IR-1, seed 0.\relax }}{55}{figure.caption.43}}
\newlabel{fig:modAED_narrowband_30v3000}{{4.18}{55}{Results of the ModAED algorithm with 250,000 data samples, with SNR = 60 dB, at various sampling rates for narrowband simulation, (a) 20 MHz, (b) 100 MHz, (c) 150 MHz, and (d) 200 MHz, for impulse response set IR-1, seed 0.\relax }{figure.caption.43}{}}
\@writefile{lof}{\contentsline {figure}{\numberline {4.19}{\ignorespaces Results of the modAED algorithm with 250,000 data samples, with SNR = 20 dB, at various sampling rates for wideband simulation, (a) 20 MHz, (b) 100 MHz, (c) 150 MHz, and (d) 200 MHz, for impulse response set IR-1, seed 0.\relax }}{56}{figure.caption.44}}
\newlabel{fig:modAED_noisy_30v3000}{{4.19}{56}{Results of the modAED algorithm with 250,000 data samples, with SNR = 20 dB, at various sampling rates for wideband simulation, (a) 20 MHz, (b) 100 MHz, (c) 150 MHz, and (d) 200 MHz, for impulse response set IR-1, seed 0.\relax }{figure.caption.44}{}}
\@writefile{toc}{\contentsline {section}{\numberline {4.3}Algorithm Testing and Results}{56}{section.4.3}}
\newlabel{sec:AlgTesting_ch4}{{4.3}{56}{Algorithm Testing and Results}{section.4.3}{}}
\@writefile{lof}{\contentsline {figure}{\numberline {4.20}{\ignorespaces Results of the ModAED algorithm with 2,500 data samples, with SNR = 60 dB, at various sampling rates for wideband simulation, (a) 20 MHz, (b) 100 MHz, (c) 150 MHz, and (d) 200 MHz, for impulse response set IR-1, seed 0.\relax }}{57}{figure.caption.45}}
\newlabel{fig:modAED_Nless_30v3000}{{4.20}{57}{Results of the ModAED algorithm with 2,500 data samples, with SNR = 60 dB, at various sampling rates for wideband simulation, (a) 20 MHz, (b) 100 MHz, (c) 150 MHz, and (d) 200 MHz, for impulse response set IR-1, seed 0.\relax }{figure.caption.45}{}}
\@writefile{toc}{\contentsline {subsection}{\numberline {4.3.1}Simulation}{57}{subsection.4.3.1}}
\@writefile{lof}{\contentsline {figure}{\numberline {4.21}{\ignorespaces Results of the ModAED algorithm with 250,000 data samples, with SNR = 60 dB for wideband simulation at 200 MHz sampling rate for incorrect estimates of transfer function length, $L$, (a) $L/2$, (b) $L - 10$, (c) $L*2$, and (d) $L + 10$, for impulse response set IR-1, seed 0.\relax }}{58}{figure.caption.46}}
\newlabel{fig:modAED_wrongModel_30v3000}{{4.21}{58}{Results of the ModAED algorithm with 250,000 data samples, with SNR = 60 dB for wideband simulation at 200 MHz sampling rate for incorrect estimates of transfer function length, $L$, (a) $L/2$, (b) $L - 10$, (c) $L*2$, and (d) $L + 10$, for impulse response set IR-1, seed 0.\relax }{figure.caption.46}{}}
\@writefile{lof}{\contentsline {figure}{\numberline {4.22}{\ignorespaces Results of the ModAED algorithm with 250,000 data samples, with SNR = 60 dB, at various sampling rates for wideband simulation, (a) 20 MHz, (b) 100 MHz, (c) 150 MHz, and (d) 200 MHz, for impulse response set IR-1, seed 0, and normalized random initial estimates after 100 iterations.\relax }}{59}{figure.caption.47}}
\newlabel{fig:modAED_rStart_30v3000}{{4.22}{59}{Results of the ModAED algorithm with 250,000 data samples, with SNR = 60 dB, at various sampling rates for wideband simulation, (a) 20 MHz, (b) 100 MHz, (c) 150 MHz, and (d) 200 MHz, for impulse response set IR-1, seed 0, and normalized random initial estimates after 100 iterations.\relax }{figure.caption.47}{}}
\@writefile{lof}{\contentsline {figure}{\numberline {4.23}{\ignorespaces Results of the ModAED and ModAEDS algorithms with 2,500 data samples, with SNR = 60 dB, for wideband simulation at 100 MHz sampling rate for impulse response set IR-1, seed 0.\relax }}{60}{figure.caption.48}}
\newlabel{fig:modAEDvmodAEDS_Nless_30v3000}{{4.23}{60}{Results of the ModAED and ModAEDS algorithms with 2,500 data samples, with SNR = 60 dB, for wideband simulation at 100 MHz sampling rate for impulse response set IR-1, seed 0.\relax }{figure.caption.48}{}}
\@writefile{lof}{\contentsline {figure}{\numberline {4.24}{\ignorespaces Results of the ModAED and ModAEDS algorithms with 250,000 data samples, with SNR = 20 dB, for wideband simulation at 150 MHz sampling rate for impulse response set IR-1, seed 0.\relax }}{61}{figure.caption.49}}
\newlabel{fig:modAEDvmodAEDS_noisy_30v3000}{{4.24}{61}{Results of the ModAED and ModAEDS algorithms with 250,000 data samples, with SNR = 20 dB, for wideband simulation at 150 MHz sampling rate for impulse response set IR-1, seed 0.\relax }{figure.caption.49}{}}
\@writefile{lof}{\contentsline {figure}{\numberline {4.25}{\ignorespaces Results of the ModAED and ModAEDS algorithms with 250,000 data samples, with SNR = 60 dB, for wideband simulation at 100 MHz sampling rate for incorrect estimates of model order, $L = L/2$, for impulse response set IR-1, seed 0.\relax }}{62}{figure.caption.50}}
\newlabel{fig:modAEDvmodAEDS_wrongModel_30v3000}{{4.25}{62}{Results of the ModAED and ModAEDS algorithms with 250,000 data samples, with SNR = 60 dB, for wideband simulation at 100 MHz sampling rate for incorrect estimates of model order, $L = L/2$, for impulse response set IR-1, seed 0.\relax }{figure.caption.50}{}}
\@writefile{lot}{\contentsline {table}{\numberline {4.1}{\ignorespaces Numerical results for pre-existing and modified algorithms in the ``Ideal'' case.\relax }}{63}{table.caption.51}}
\newlabel{tab:preExist_Algs_Results_ideal}{{4.1}{63}{Numerical results for pre-existing and modified algorithms in the ``Ideal'' case.\relax }{table.caption.51}{}}
\@writefile{lot}{\contentsline {table}{\numberline {4.2}{\ignorespaces Numerical results for pre-existing and modified algorithms in the narrowband case.\relax }}{64}{table.caption.52}}
\newlabel{tab:preExist_Algs_Results_narrow}{{4.2}{64}{Numerical results for pre-existing and modified algorithms in the narrowband case.\relax }{table.caption.52}{}}
\@writefile{lot}{\contentsline {table}{\numberline {4.3}{\ignorespaces Numerical results for pre-existing and modified algorithms in the noisy case.\relax }}{65}{table.caption.53}}
\newlabel{tab:preExist_Algs_Results_noisy}{{4.3}{65}{Numerical results for pre-existing and modified algorithms in the noisy case.\relax }{table.caption.53}{}}
\@writefile{lot}{\contentsline {table}{\numberline {4.4}{\ignorespaces Numerical results for pre-existing and modified algorithms in the smaller data size case.\relax }}{66}{table.caption.54}}
\newlabel{tab:preExist_Algs_Results_lessSamples}{{4.4}{66}{Numerical results for pre-existing and modified algorithms in the smaller data size case.\relax }{table.caption.54}{}}
\@writefile{lot}{\contentsline {table}{\numberline {4.5}{\ignorespaces Numerical results for pre-existing and modified algorithms in the wrong model order, $L/2$, case.\relax }}{67}{table.caption.55}}
\newlabel{tab:preExist_Algs_Results_wrongModel_order_under1}{{4.5}{67}{Numerical results for pre-existing and modified algorithms in the wrong model order, $L/2$, case.\relax }{table.caption.55}{}}
\@writefile{lot}{\contentsline {table}{\numberline {4.6}{\ignorespaces Numerical results for pre-existing and modified algorithms in the wrong model order, $L-10$, case.\relax }}{68}{table.caption.56}}
\newlabel{tab:preExist_Algs_Results_wrongModel_order_under2}{{4.6}{68}{Numerical results for pre-existing and modified algorithms in the wrong model order, $L-10$, case.\relax }{table.caption.56}{}}
\@writefile{lot}{\contentsline {table}{\numberline {4.7}{\ignorespaces Numerical results for pre-existing and modified algorithms in the wrong model order, $2L$, case.\relax }}{69}{table.caption.57}}
\newlabel{tab:preExist_Algs_Results_wrongModel_order_over1}{{4.7}{69}{Numerical results for pre-existing and modified algorithms in the wrong model order, $2L$, case.\relax }{table.caption.57}{}}
\@writefile{lot}{\contentsline {table}{\numberline {4.8}{\ignorespaces  Numerical results for pre-existing and modified algorithms in the wrong model order, $L+10$, case.\relax }}{70}{table.caption.58}}
\newlabel{tab:preExist_Algs_Results_wrongModel_order_over2}{{4.8}{70}{Numerical results for pre-existing and modified algorithms in the wrong model order, $L+10$, case.\relax }{table.caption.58}{}}
\@writefile{lot}{\contentsline {table}{\numberline {4.9}{\ignorespaces Numerical results for pre-existing and modified algorithms in the normalized random start case.\relax }}{71}{table.caption.59}}
\newlabel{tab:preExist_Algs_Results_randomStart}{{4.9}{71}{Numerical results for pre-existing and modified algorithms in the normalized random start case.\relax }{table.caption.59}{}}
\@writefile{toc}{\contentsline {subsection}{\numberline {4.3.2}Real World Data Testing}{72}{subsection.4.3.2}}
\@setckpt{Chapters/Chapter_4/ch_4_cross_relation_methods}{
\setcounter{page}{73}
\setcounter{equation}{30}
\setcounter{enumi}{4}
\setcounter{enumii}{0}
\setcounter{enumiii}{0}
\setcounter{enumiv}{0}
\setcounter{footnote}{3}
\setcounter{mpfootnote}{0}
\setcounter{part}{0}
\setcounter{chapter}{4}
\setcounter{section}{3}
\setcounter{subsection}{2}
\setcounter{subsubsection}{0}
\setcounter{paragraph}{0}
\setcounter{subparagraph}{0}
\setcounter{figure}{25}
\setcounter{table}{9}
\setcounter{savemainpageno}{0}
\setcounter{savefrontpageno}{22}
\setcounter{savetotalpageno}{0}
\setcounter{float@type}{16}
\setcounter{alg}{0}
\setcounter{parentequation}{0}
\setcounter{lstnumber}{1}
\setcounter{LT@tables}{0}
\setcounter{LT@chunks}{0}
\setcounter{ContinuedFloat}{0}
\setcounter{subfigure}{2}
\setcounter{subtable}{0}
\setcounter{Item}{6}
\setcounter{Hfootnote}{8}
\setcounter{bookmark@seq@number}{40}
\setcounter{lstlisting}{0}
\setcounter{section@level}{2}
}
