% This file was created by matlab2tikz.
%
%The latest updates can be retrieved from
%  http://www.mathworks.com/matlabcentral/fileexchange/22022-matlab2tikz-matlab2tikz
%where you can also make suggestions and rate matlab2tikz.
%
\definecolor{mycolor1}{rgb}{0.00000,0.44700,0.74100}%
\definecolor{mycolor2}{rgb}{0.85000,0.32500,0.09800}%
%
\begin{tikzpicture}

\begin{axis}[%
width=1.935in,
height=3.2in,
at={(0.758in,0.512in)},
scale only axis,
xmin=0,
xmax=150,
xlabel style={font=\color{white!15!black}, align=center},
xlabel={Sample Index\\[1ex](a) Actual},
ymin=0,
ymax=0.7,
axis background/.style={fill=white},
legend style={legend cell align=left, align=left, draw=white!15!black}
]
\addplot [color=mycolor1]
  table[row sep=crcr]{%
1	0.0234657806037261\\
2	0.0272334504034075\\
3	0.0326864300765018\\
4	0.0414541482980318\\
5	0.0586677033458464\\
6	0.117843438362983\\
7	0.159969331461504\\
8	0.174397116945152\\
9	0.616552810702634\\
10	0.0882137642931462\\
11	0.0472681903124796\\
12	0.0327587509505929\\
13	0.0272256709659274\\
14	0.0412344622245766\\
15	0.0186762848129325\\
16	0.0451940046978057\\
17	0.0153724087875252\\
18	0.0239672675363248\\
19	0.0400285717874473\\
20	0.0828333966509162\\
21	0.557624977131952\\
22	0.149414784250917\\
23	0.109138078132702\\
24	0.0381681231028791\\
25	0.032799759178118\\
26	0.191519461959093\\
27	0.0734580287558902\\
28	0.0358315656953253\\
29	0.0179563195827385\\
30	0.0169149242156914\\
31	0.0179798517146348\\
32	0.0199431506445131\\
33	0.0279225394655299\\
34	0.0908594243819801\\
35	0.0439964246924232\\
36	0.330890477505262\\
37	0.037800506563543\\
38	0.020261933748638\\
39	0.0138181229977315\\
40	0.0211497159554441\\
41	0.0112042208144458\\
42	0.00964538908702694\\
43	0.00864780826327016\\
44	0.00787736374270682\\
45	0.00720180133294831\\
46	0.00651453200193765\\
47	0.00565492088107664\\
48	0.0112814316241706\\
49	0.0075966567083061\\
50	0.0102713040739602\\
51	0.00787142060243747\\
52	0.00711780022683946\\
53	0.00668443537322835\\
54	0.00638223966522588\\
55	0.00615487020840034\\
56	0.00598242225636516\\
57	0.00586293416152974\\
58	0.00581626175933958\\
59	0.00593494184987807\\
60	0.00707647204853056\\
61	0.00861312572402681\\
62	0.00240649054353041\\
63	0.0036902508247688\\
64	0.0040125763148678\\
65	0.00408542983582614\\
66	0.00408934467211144\\
67	0.00406760360864643\\
68	0.00403657730104579\\
69	0.00400486664899167\\
70	0.00397913876457006\\
71	0.00396763365360209\\
72	0.00398577860522856\\
73	0.00407460869510253\\
74	0.00440882178496405\\
75	0.00852319154542653\\
76	0.00211982859547221\\
77	0.00279674481878385\\
78	0.00295234209521732\\
79	0.00299967450324673\\
80	0.00300734384297471\\
81	0.00299658049652506\\
82	0.00297609501762909\\
83	0.00295010695632826\\
84	0.00292089738309008\\
85	0.00288979839106794\\
86	0.00285763293534116\\
87	0.00282493110979805\\
88	0.00279204510261472\\
89	0.00275921420187501\\
90	0.00272660345813555\\
91	0.00269432766245323\\
92	0.00266246675038502\\
93	0.00263107599882434\\
94	0.00260019295165966\\
95	0.00256984222925479\\
96	0.00254003893333548\\
97	0.0025107910982644\\
98	0.00248210148178531\\
99	0.00245396889001376\\
100	0.00242638916874131\\
101	0.00239935595223708\\
102	0.00237286123354156\\
103	0.00234689580183488\\
104	0.00232144957979209\\
105	0.00229651188498403\\
106	0.00227207163310714\\
107	0.0022481174963278\\
108	0.00222463802675857\\
109	0.00220162175268604\\
110	0.00217905725339276\\
111	0.0021569332170867\\
112	0.00213523848544673\\
113	0.00211396208753109\\
114	0.00209309326520902\\
115	0.00207262149182518\\
116	0.00205253648545491\\
117	0.00203282821783402\\
118	0.00201348691983224\\
119	0.00199450308416773\\
120	0.00197586746592614\\
121	0.00195757108133911\\
122	0.0019396052051902\\
123	0.0019219613671484\\
124	0.00190463134727109\\
125	0.00188760717087541\\
126	0.00187088110293773\\
127	0.00185444564215264\\
128	0.0018382935147574\\
129	0.00182241766820821\\
130	0.00180681126477794\\
131	0.00179146767513212\\
132	0.00177638047192757\\
133	0.00176154342347035\\
134	0.00174695048746156\\
135	0.0017325958048528\\
136	0.00171847369382931\\
137	0.00170457864393352\\
138	0.0016909053103386\\
139	0.00167744850827835\\
140	0.00166420320763913\\
141	0.00165116452771496\\
142	0.00163832773212761\\
143	0.00162568822391149\\
144	0.00161324154076111\\
145	0.0016009833504405\\
146	0.00158890944635072\\
147	0.00157701574325256\\
148	0.00156529827314105\\
149	0\\
150	0\\
};
\addlegendentry{$\mathbf{h_1}$}

\addplot [color=mycolor2]
  table[row sep=crcr]{%
1	0.019775303219206\\
2	0.0210217764534023\\
3	0.0224372323963497\\
4	0.024058742711813\\
5	0.0259351263737046\\
6	0.0281320174688059\\
7	0.0307398096072034\\
8	0.0338865833958781\\
9	0.0377600935275399\\
10	0.0426472101764649\\
11	0.0490094599986528\\
12	0.0576401827385178\\
13	0.0700288298559564\\
14	0.0893407156606893\\
15	0.123700774100431\\
16	0.202175033398071\\
17	0.564479813098353\\
18	0.690442426104836\\
19	0.212260509632627\\
20	0.126132345068284\\
21	0.100380135781766\\
22	0.0378663697499036\\
23	0.0333199748773482\\
24	0.0149453064107011\\
25	0.10083899339379\\
26	0.161002397050911\\
27	0.0405118251764787\\
28	0.0383644765554957\\
29	0.0341227495803863\\
30	0.0306469105251072\\
31	0.0278570926171954\\
32	0.0255709383506331\\
33	0.0236574529195357\\
34	0.0220274984760589\\
35	0.0206190941704396\\
36	0.0193877726649002\\
37	0.0183006807256663\\
38	0.0173329207549748\\
39	0.016465211935799\\
40	0.0156823459816501\\
41	0.0149721364414517\\
42	0.0143246843629073\\
43	0.0137318527665838\\
44	0.0131868826449622\\
45	0.0126841071808284\\
46	0.0122187355837443\\
47	0.0117866872087634\\
48	0.0113844626077037\\
49	0.0110090421200206\\
50	0.0106578052804057\\
51	0\\
52	0\\
53	0\\
54	0\\
55	0\\
56	0\\
57	0\\
58	0\\
59	0\\
60	0\\
61	0\\
62	0\\
63	0\\
64	0\\
65	0\\
66	0\\
67	0\\
68	0\\
69	0\\
70	0\\
71	0\\
72	0\\
73	0\\
74	0\\
75	0\\
76	0\\
77	0\\
78	0\\
79	0\\
80	0\\
81	0\\
82	0\\
83	0\\
84	0\\
85	0\\
86	0\\
87	0\\
88	0\\
89	0\\
90	0\\
91	0\\
92	0\\
93	0\\
94	0\\
95	0\\
96	0\\
97	0\\
98	0\\
99	0\\
100	0\\
101	0\\
102	0\\
103	0\\
104	0\\
105	0\\
106	0\\
107	0\\
108	0\\
109	0\\
110	0\\
111	0\\
112	0\\
113	0\\
114	0\\
115	0\\
116	0\\
117	0\\
118	0\\
119	0\\
120	0\\
121	0\\
122	0\\
123	0\\
124	0\\
125	0\\
126	0\\
127	0\\
128	0\\
129	0\\
130	0\\
131	0\\
132	0\\
133	0\\
134	0\\
135	0\\
136	0\\
137	0\\
138	0\\
139	0\\
140	0\\
141	0\\
142	0\\
143	0\\
144	0\\
145	0\\
146	0\\
147	0\\
148	0\\
149	0\\
150	0\\
};
\addlegendentry{$\mathbf{h_{2}}$}

\end{axis}

\begin{axis}[%
width=1.935in,
height=3.2in,
at={(3.327in,0.512in)},
scale only axis,
xmin=0,
xmax=150,
xlabel style={font=\color{white!15!black}, align=center},
xlabel={Sample Index\\[1ex](b) Estimated},
ymin=0,
ymax=1,
axis background/.style={fill=white},
legend style={legend cell align=left, align=left, draw=white!15!black}
]
\addplot [color=mycolor1]
  table[row sep=crcr]{%
0	3.19765907936695e-05\\
1	9.05723796584507e-05\\
2	0.000136047533977338\\
3	0.000104279323179932\\
4	6.17389915515451e-05\\
5	7.76465224496357e-05\\
6	8.90119679436135e-05\\
7	6.66159433088553e-05\\
8	5.35503005927945e-05\\
9	0.000172854295167053\\
10	2.0628697110396e-05\\
11	0.000100313338591067\\
12	0.000148867497322937\\
13	0.000145917687283118\\
14	0.000184527825192806\\
15	4.98712101188993e-05\\
16	1.40350748814639e-05\\
17	9.6308966028041e-05\\
18	0.000209093125428435\\
19	7.47457385616991e-05\\
20	5.45814783939528e-05\\
21	0.00074163373877688\\
22	7.18140348918224e-05\\
23	0.000171343611309413\\
24	0.00538867791442929\\
25	9.8139192546288e-05\\
26	0.00191967383749856\\
27	4.46238757707325e-05\\
28	0.000100726998402135\\
29	0.00120734368554868\\
30	0.000558422214221643\\
31	0.00121258782219805\\
32	0.00205250977745885\\
33	0.00561874246071313\\
34	0.00921128850783722\\
35	0.00473931200268682\\
36	0.00709809484247195\\
37	0.0177330105087156\\
38	0.0237562248861777\\
39	0.0188724027950699\\
40	0.0114975331683853\\
41	0.0175907374377527\\
42	0.00499301225312315\\
43	0.00999569564967017\\
44	0.0101645919815134\\
45	0.013519878112265\\
46	0.00191896475494722\\
47	0.0102985138916278\\
48	0.0238005139945038\\
49	0.00997937585505252\\
50	0.036129034875736\\
51	0.0908719314731362\\
52	0.0331286025476535\\
53	0.0243178336250535\\
54	0.0534491296970414\\
55	0.0080131798146297\\
56	0.0189904773446583\\
57	0.105204203586692\\
58	0.0320172310529393\\
59	0.0342147344793546\\
60	0.0372641271654369\\
61	0.0297701658939781\\
62	0.0464033928224101\\
63	0.146200254824406\\
64	0.0350327769118486\\
65	0.479803627791587\\
66	0.396741557169012\\
67	0.103357943518344\\
68	0.0915993737223408\\
69	0.0304252605416627\\
70	0.0957134334462938\\
71	0.0340510393318355\\
72	0.0549556815494074\\
73	0.0226518777934387\\
74	0.087319863871896\\
75	0.0947430380681005\\
76	0.119786260783864\\
77	0.24844008805794\\
78	0.468301350495143\\
79	0.190543816660566\\
80	0.080356369377237\\
81	0.076984628327575\\
82	0.10293217359124\\
83	0.1011829838188\\
84	0.106920609966478\\
85	0.0268021707437392\\
86	0.0370153767521368\\
87	0.0389815327220991\\
88	0.0267429821887984\\
89	0.0395587361884718\\
90	0.113140362521355\\
91	0.101594658388818\\
92	0.27564442530649\\
93	0.0998456716963618\\
94	0.0356103554886801\\
95	0.0513318540012962\\
96	0.0156256053814484\\
97	0.008545379609484\\
98	0.0169930841231036\\
99	0.0163121014087541\\
100	0.0246163156638388\\
101	0.00388686716392461\\
102	0.0201182347148243\\
103	0.0266222264961903\\
104	0.060156562838136\\
105	0.0363321352707955\\
106	0.000574001002734476\\
107	0.0270147042704454\\
108	0.000361535546442886\\
109	0.00521038368767824\\
110	0.00670604382455687\\
111	0.00014737035422831\\
112	0.00133494899507066\\
113	0.000639409761943977\\
114	2.15924757275557e-05\\
115	0.00277253663921581\\
116	3.43392407451933e-05\\
117	0.0199272238043453\\
118	0.00483901999602767\\
119	0.00474467671687711\\
120	0.00321800140154619\\
121	0.00108639626035065\\
122	0.000391694728135296\\
123	6.01159424126751e-05\\
124	0.000210732248056812\\
125	0.000220450048605056\\
126	0.00012163254942266\\
127	6.67789808387202e-05\\
128	0.000100804621751688\\
129	0.000544052488550764\\
130	6.87463764957697e-05\\
131	0.000579740721530497\\
132	0.000651047899440064\\
133	6.01581712042472e-05\\
134	0.000829310263884953\\
135	5.22907577514285e-05\\
136	0.000200908330571223\\
137	8.61054072151444e-05\\
138	6.48694515031278e-05\\
139	4.93523547933618e-05\\
140	3.61410882419983e-05\\
141	0.00012099308581316\\
142	8.95754889379045e-05\\
143	4.89831991299645e-05\\
144	0.000260151982073367\\
145	1.35401482288284e-05\\
146	1.99213877761996e-05\\
147	7.890095607462e-05\\
148	5.11828984273603e-05\\
149	2.20241105760301e-05\\
};
\addlegendentry{$\mathbf{\hat{h}_{1}}$}

\addplot [color=mycolor2]
  table[row sep=crcr]{%
0	3.17308836945608e-05\\
1	2.69422932828934e-05\\
2	5.44733498438731e-06\\
3	3.94938472594381e-05\\
4	6.07305228837609e-05\\
5	6.43824330364939e-05\\
6	6.39923955195916e-06\\
7	4.32286334330846e-05\\
8	4.84182752128094e-05\\
9	1.73508597171323e-05\\
10	1.32034702155844e-05\\
11	8.4849376436871e-05\\
12	5.69855399327963e-06\\
13	0.000210528460738632\\
14	0.000107736683844635\\
15	3.16917015659167e-05\\
16	0.000265763982473739\\
17	0.000184629237494135\\
18	5.96219255276516e-05\\
19	0.00153489539557974\\
20	0.00153880743268254\\
21	5.57119277508673e-05\\
22	0.00266117577486474\\
23	0.00176308628552719\\
24	0.00146181758685071\\
25	4.49334144073901e-05\\
26	4.43553775218352e-05\\
27	0.000339482710005385\\
28	3.36080356404365e-05\\
29	0.00014695686974309\\
30	0.00527552473104695\\
31	6.19328918088021e-05\\
32	0.00670094701291432\\
33	0.0120167730590975\\
34	0.00795698692798808\\
35	0.0108034484949338\\
36	0.00212101091509266\\
37	0.00831629921283286\\
38	0.00353334435509775\\
39	0.000508724533440868\\
40	0.00388796323875294\\
41	0.0056286182027738\\
42	0.00965966393361898\\
43	0.00291055746030669\\
44	0.00111343768917888\\
45	0.0202753831888836\\
46	0.0105651506988203\\
47	0.055300518015228\\
48	0.0107439588951701\\
49	0.0289354309142436\\
50	0.0157980793930893\\
51	0.00789054625165064\\
52	0.000115989820552712\\
53	0.00294278944034482\\
54	0.0106072943233767\\
55	0.00798247819583546\\
56	0.00924357827930642\\
57	0.0320940490083582\\
58	0.0242118958365818\\
59	0.0612457526800792\\
60	0.032705571817764\\
61	0.0459198520150013\\
62	0.13155308015914\\
63	0.0279297239290837\\
64	0.0292284080028304\\
65	0.00652352797477145\\
66	0.0243421466962675\\
67	0.0195554773389024\\
68	0.019898599416723\\
69	0.0107400451554319\\
70	0.0147458063563146\\
71	0.0282628283924095\\
72	0.0378742703586883\\
73	0.0358793082024129\\
74	0.960702470030143\\
75	0.0355127254558932\\
76	0.0372043699976635\\
77	0.0274545594241612\\
78	0.0156870821890894\\
79	0.0117845261754358\\
80	0.0206478984048196\\
81	0.0201155215282045\\
82	0.0264623498988712\\
83	0.00721906319846363\\
84	0.0281496541510001\\
85	0.0276167718818701\\
86	0.130879675932675\\
87	0.0464540468850344\\
88	0.0318016999499923\\
89	0.0624635152336835\\
90	0.0238510625612181\\
91	0.0328694864061675\\
92	0.00931509866966585\\
93	0.00856113538354723\\
94	0.00991285603945386\\
95	0.00286410260159945\\
96	0.000396149956425502\\
97	0.00694339432072719\\
98	0.0151909405680222\\
99	0.028643987268283\\
100	0.0106563652205396\\
101	0.0560562204155245\\
102	0.010432816135186\\
103	0.0195390609463711\\
104	0.00143574565763486\\
105	0.00314026534483639\\
106	0.00947059818698053\\
107	0.00562068957105884\\
108	0.00415031590252452\\
109	0.00114027321632022\\
110	0.00337967999535371\\
111	0.00770440396906723\\
112	0.00227036053706252\\
113	0.00987503577571576\\
114	0.00791827438339181\\
115	0.0123359544775523\\
116	0.00784290750980143\\
117	3.61576081969046e-05\\
118	0.00543684648229981\\
119	0.000496872217948603\\
120	5.47303989557918e-05\\
121	0.000364422043740535\\
122	2.0700062767519e-05\\
123	4.86628835636547e-05\\
124	0.0014528972756906\\
125	0.0015243541048307\\
126	0.002455609220417\\
127	6.6484163626832e-05\\
128	0.00124178862577878\\
129	0.00164439804727169\\
130	0.000102428064466908\\
131	6.00271943125028e-05\\
132	0.000154529335947461\\
133	2.09135030363491e-05\\
134	9.52816990950702e-05\\
135	0.000128003524848881\\
136	1.24778277461021e-05\\
137	7.16199616711492e-05\\
138	1.33113292282534e-05\\
139	2.95227984855069e-05\\
140	0.000289841267361988\\
141	5.70597597315435e-05\\
142	1.04353322091102e-05\\
143	6.81158964595616e-05\\
144	5.04138128009883e-05\\
145	4.80345152784331e-05\\
146	1.8300717325314e-05\\
147	2.87739280872756e-05\\
148	2.64764033890904e-05\\
149	1.42899229372893e-05\\
};
\addlegendentry{$\mathbf{\hat{h}_{2}}$}

\end{axis}
\end{tikzpicture}%