% This file was created by matlab2tikz.
%
%The latest updates can be retrieved from
%  http://www.mathworks.com/matlabcentral/fileexchange/22022-matlab2tikz-matlab2tikz
%where you can also make suggestions and rate matlab2tikz.
%
\definecolor{mycolor1}{rgb}{0.00000,0.44700,0.74100}%
\definecolor{mycolor2}{rgb}{0.85000,0.32500,0.09800}%
%
\begin{tikzpicture}

\begin{axis}[%
width=1.935in,
height=3.2in,
at={(0.758in,0.512in)},
scale only axis,
xmin=0,
xmax=150,
xlabel style={font=\color{white!15!black}, align=center},
xlabel={Sample Index\\[1ex](a) Actual},
ymin=0,
ymax=0.7,
axis background/.style={fill=white},
legend style={legend cell align=left, align=left, draw=white!15!black}
]
\addplot [color=mycolor1]
  table[row sep=crcr]{%
1	0.0234657806037261\\
2	0.0272334504034075\\
3	0.0326864300765018\\
4	0.0414541482980318\\
5	0.0586677033458464\\
6	0.117843438362983\\
7	0.159969331461504\\
8	0.174397116945152\\
9	0.616552810702634\\
10	0.0882137642931462\\
11	0.0472681903124796\\
12	0.0327587509505929\\
13	0.0272256709659274\\
14	0.0412344622245766\\
15	0.0186762848129325\\
16	0.0451940046978057\\
17	0.0153724087875252\\
18	0.0239672675363248\\
19	0.0400285717874473\\
20	0.0828333966509162\\
21	0.557624977131952\\
22	0.149414784250917\\
23	0.109138078132702\\
24	0.0381681231028791\\
25	0.032799759178118\\
26	0.191519461959093\\
27	0.0734580287558902\\
28	0.0358315656953253\\
29	0.0179563195827385\\
30	0.0169149242156914\\
31	0.0179798517146348\\
32	0.0199431506445131\\
33	0.0279225394655299\\
34	0.0908594243819801\\
35	0.0439964246924232\\
36	0.330890477505262\\
37	0.037800506563543\\
38	0.020261933748638\\
39	0.0138181229977315\\
40	0.0211497159554441\\
41	0.0112042208144458\\
42	0.00964538908702694\\
43	0.00864780826327016\\
44	0.00787736374270682\\
45	0.00720180133294831\\
46	0.00651453200193765\\
47	0.00565492088107664\\
48	0.0112814316241706\\
49	0.0075966567083061\\
50	0.0102713040739602\\
51	0.00787142060243747\\
52	0.00711780022683946\\
53	0.00668443537322835\\
54	0.00638223966522588\\
55	0.00615487020840034\\
56	0.00598242225636516\\
57	0.00586293416152974\\
58	0.00581626175933958\\
59	0.00593494184987807\\
60	0.00707647204853056\\
61	0.00861312572402681\\
62	0.00240649054353041\\
63	0.0036902508247688\\
64	0.0040125763148678\\
65	0.00408542983582614\\
66	0.00408934467211144\\
67	0.00406760360864643\\
68	0.00403657730104579\\
69	0.00400486664899167\\
70	0.00397913876457006\\
71	0.00396763365360209\\
72	0.00398577860522856\\
73	0.00407460869510253\\
74	0.00440882178496405\\
75	0.00852319154542653\\
76	0.00211982859547221\\
77	0.00279674481878385\\
78	0.00295234209521732\\
79	0.00299967450324673\\
80	0.00300734384297471\\
81	0.00299658049652506\\
82	0.00297609501762909\\
83	0.00295010695632826\\
84	0.00292089738309008\\
85	0.00288979839106794\\
86	0.00285763293534116\\
87	0.00282493110979805\\
88	0.00279204510261472\\
89	0.00275921420187501\\
90	0.00272660345813555\\
91	0.00269432766245323\\
92	0.00266246675038502\\
93	0.00263107599882434\\
94	0.00260019295165966\\
95	0.00256984222925479\\
96	0.00254003893333548\\
97	0.0025107910982644\\
98	0.00248210148178531\\
99	0.00245396889001376\\
100	0.00242638916874131\\
101	0.00239935595223708\\
102	0.00237286123354156\\
103	0.00234689580183488\\
104	0.00232144957979209\\
105	0.00229651188498403\\
106	0.00227207163310714\\
107	0.0022481174963278\\
108	0.00222463802675857\\
109	0.00220162175268604\\
110	0.00217905725339276\\
111	0.0021569332170867\\
112	0.00213523848544673\\
113	0.00211396208753109\\
114	0.00209309326520902\\
115	0.00207262149182518\\
116	0.00205253648545491\\
117	0.00203282821783402\\
118	0.00201348691983224\\
119	0.00199450308416773\\
120	0.00197586746592614\\
121	0.00195757108133911\\
122	0.0019396052051902\\
123	0.0019219613671484\\
124	0.00190463134727109\\
125	0.00188760717087541\\
126	0.00187088110293773\\
127	0.00185444564215264\\
128	0.0018382935147574\\
129	0.00182241766820821\\
130	0.00180681126477794\\
131	0.00179146767513212\\
132	0.00177638047192757\\
133	0.00176154342347035\\
134	0.00174695048746156\\
135	0.0017325958048528\\
136	0.00171847369382931\\
137	0.00170457864393352\\
138	0.0016909053103386\\
139	0.00167744850827835\\
140	0.00166420320763913\\
141	0.00165116452771496\\
142	0.00163832773212761\\
143	0.00162568822391149\\
144	0.00161324154076111\\
145	0.0016009833504405\\
146	0.00158890944635072\\
147	0.00157701574325256\\
148	0.00156529827314105\\
149	0\\
150	0\\
};
\addlegendentry{$\mathbf{h_1}$}

\addplot [color=mycolor2]
  table[row sep=crcr]{%
1	0.019775303219206\\
2	0.0210217764534023\\
3	0.0224372323963497\\
4	0.024058742711813\\
5	0.0259351263737046\\
6	0.0281320174688059\\
7	0.0307398096072034\\
8	0.0338865833958781\\
9	0.0377600935275399\\
10	0.0426472101764649\\
11	0.0490094599986528\\
12	0.0576401827385178\\
13	0.0700288298559564\\
14	0.0893407156606893\\
15	0.123700774100431\\
16	0.202175033398071\\
17	0.564479813098353\\
18	0.690442426104836\\
19	0.212260509632627\\
20	0.126132345068284\\
21	0.100380135781766\\
22	0.0378663697499036\\
23	0.0333199748773482\\
24	0.0149453064107011\\
25	0.10083899339379\\
26	0.161002397050911\\
27	0.0405118251764787\\
28	0.0383644765554957\\
29	0.0341227495803863\\
30	0.0306469105251072\\
31	0.0278570926171954\\
32	0.0255709383506331\\
33	0.0236574529195357\\
34	0.0220274984760589\\
35	0.0206190941704396\\
36	0.0193877726649002\\
37	0.0183006807256663\\
38	0.0173329207549748\\
39	0.016465211935799\\
40	0.0156823459816501\\
41	0.0149721364414517\\
42	0.0143246843629073\\
43	0.0137318527665838\\
44	0.0131868826449622\\
45	0.0126841071808284\\
46	0.0122187355837443\\
47	0.0117866872087634\\
48	0.0113844626077037\\
49	0.0110090421200206\\
50	0.0106578052804057\\
51	0\\
52	0\\
53	0\\
54	0\\
55	0\\
56	0\\
57	0\\
58	0\\
59	0\\
60	0\\
61	0\\
62	0\\
63	0\\
64	0\\
65	0\\
66	0\\
67	0\\
68	0\\
69	0\\
70	0\\
71	0\\
72	0\\
73	0\\
74	0\\
75	0\\
76	0\\
77	0\\
78	0\\
79	0\\
80	0\\
81	0\\
82	0\\
83	0\\
84	0\\
85	0\\
86	0\\
87	0\\
88	0\\
89	0\\
90	0\\
91	0\\
92	0\\
93	0\\
94	0\\
95	0\\
96	0\\
97	0\\
98	0\\
99	0\\
100	0\\
101	0\\
102	0\\
103	0\\
104	0\\
105	0\\
106	0\\
107	0\\
108	0\\
109	0\\
110	0\\
111	0\\
112	0\\
113	0\\
114	0\\
115	0\\
116	0\\
117	0\\
118	0\\
119	0\\
120	0\\
121	0\\
122	0\\
123	0\\
124	0\\
125	0\\
126	0\\
127	0\\
128	0\\
129	0\\
130	0\\
131	0\\
132	0\\
133	0\\
134	0\\
135	0\\
136	0\\
137	0\\
138	0\\
139	0\\
140	0\\
141	0\\
142	0\\
143	0\\
144	0\\
145	0\\
146	0\\
147	0\\
148	0\\
149	0\\
150	0\\
};
\addlegendentry{$\mathbf{h_{2}}$}

\end{axis}

\begin{axis}[%
width=1.935in,
height=3.2in,
at={(3.327in,0.512in)},
scale only axis,
xmin=0,
xmax=150,
xlabel style={font=\color{white!15!black}, align=center},
xlabel={Sample Index\\[1ex](b) Estimated},
ymin=0,
ymax=1,
axis background/.style={fill=white},
legend style={legend cell align=left, align=left, draw=white!15!black}
]
\addplot [color=mycolor1]
  table[row sep=crcr]{%
0	0.000103420882570321\\
1	6.69125113802441e-05\\
2	6.64961203106257e-05\\
3	2.41424014368196e-05\\
4	4.25787633535308e-05\\
5	7.32161435841947e-05\\
6	5.46613137126262e-05\\
7	8.18841541810989e-05\\
8	4.06926183626145e-05\\
9	0.000111210720900494\\
10	0.000123475009801482\\
11	0.000125125048797516\\
12	2.41109390274925e-05\\
13	7.07898799277691e-05\\
14	5.75030937215871e-05\\
15	6.30557909310828e-05\\
16	6.25803103380741e-05\\
17	0.000117625294609373\\
18	4.59399365262042e-05\\
19	0.000156832075009015\\
20	5.89805561760598e-05\\
21	0.00129774819286534\\
22	0.000151591199836196\\
23	0.000130809316215986\\
24	0.0049509979964721\\
25	3.29278547093656e-05\\
26	0.00264923930107537\\
27	8.2566700092616e-05\\
28	0.000266035068804922\\
29	0.000387053400084559\\
30	0.000153717094688936\\
31	0.00139381588424871\\
32	0.00169730661439233\\
33	0.00580587098596489\\
34	0.00956495786856598\\
35	0.00427727653565914\\
36	0.00723992465827836\\
37	0.0164210384176342\\
38	0.0234203103928103\\
39	0.0181260970368378\\
40	0.0118489076596735\\
41	0.0180127035993618\\
42	0.00420546896129955\\
43	0.00921924189375313\\
44	0.00935947582641829\\
45	0.0135722880963462\\
46	0.000725331997527739\\
47	0.0105193566956214\\
48	0.0243525297178378\\
49	0.00778624050369235\\
50	0.0372993126084545\\
51	0.092409486550343\\
52	0.0323385018437775\\
53	0.0258061245549102\\
54	0.0533501706557647\\
55	0.0108973610114464\\
56	0.0173684369247084\\
57	0.0991093326239367\\
58	0.0257124553157226\\
59	0.0330429811668068\\
60	0.0375594555911367\\
61	0.0298838034622038\\
62	0.0475748451600879\\
63	0.146934038859369\\
64	0.0360126187460688\\
65	0.479137053303674\\
66	0.398455788757583\\
67	0.106073086585749\\
68	0.0933718261856852\\
69	0.029396362110639\\
70	0.0905697230819549\\
71	0.0345795458976856\\
72	0.0545342223230159\\
73	0.0214007854585485\\
74	0.0872561316711524\\
75	0.0978544910046206\\
76	0.122873229790862\\
77	0.248464090815685\\
78	0.468539739227705\\
79	0.189174485458414\\
80	0.0797019919809668\\
81	0.0763890170680404\\
82	0.103733222175949\\
83	0.0994757534830543\\
84	0.105565579814545\\
85	0.027644343654381\\
86	0.0364112581853589\\
87	0.0386132936352266\\
88	0.0269437458550723\\
89	0.0395475228341171\\
90	0.113580143175362\\
91	0.101979205819144\\
92	0.275845711784796\\
93	0.0984937783109435\\
94	0.0355919254466968\\
95	0.0524025386214166\\
96	0.0149205230347433\\
97	0.00710625524318258\\
98	0.0162399710257916\\
99	0.0165366903693161\\
100	0.024162225224645\\
101	0.00252247571114316\\
102	0.0204564907383734\\
103	0.0264753532718714\\
104	0.0600160177742967\\
105	0.0371947018744275\\
106	6.34767991407046e-05\\
107	0.0269800181628098\\
108	0.00129973039946\\
109	0.00558893478222532\\
110	0.00625976257254152\\
111	0.00121515588482191\\
112	0.00049391478640776\\
113	0.000820967713613328\\
114	2.78474422513089e-05\\
115	0.00137449331318967\\
116	0.000157240211081733\\
117	0.0198420748247705\\
118	0.00469443279093272\\
119	0.00581861112852184\\
120	0.00270519648750623\\
121	0.000888907973572284\\
122	0.00104032267421592\\
123	4.86572397930404e-05\\
124	0.000834731652088723\\
125	8.46633884653453e-05\\
126	6.71283431678617e-05\\
127	3.47890527717094e-05\\
128	4.24542357564913e-05\\
129	0.000356506838609257\\
130	0.000254571609210954\\
131	0.000566981845302385\\
132	0.000973894861408433\\
133	0.000120531766289239\\
134	0.000445166985342733\\
135	0.000118792923212426\\
136	0.000120418083945817\\
137	9.59930093858811e-05\\
138	9.87934812774513e-05\\
139	3.34490504093565e-05\\
140	3.22198605286874e-05\\
141	0.000152054526248126\\
142	5.6239258681248e-05\\
143	0.000200835638340513\\
144	8.07255499848077e-05\\
145	3.64650984844179e-05\\
146	4.45472330527946e-05\\
147	3.79453438751392e-05\\
148	0.000127562527030758\\
149	2.38496314529132e-05\\
};
\addlegendentry{$\mathbf{\hat{h}_{1}}$}

\addplot [color=mycolor2]
  table[row sep=crcr]{%
0	1.86035334409882e-05\\
1	6.82009932112669e-05\\
2	4.05953652500803e-05\\
3	0.000140146664584432\\
4	3.2201600843787e-05\\
5	8.6850803989912e-05\\
6	7.753910922394e-05\\
7	7.19398694683642e-05\\
8	8.90889458162259e-06\\
9	1.22962189940363e-05\\
10	6.66214120888518e-05\\
11	2.50932722579099e-05\\
12	0.00021878553640574\\
13	6.64743273542916e-05\\
14	2.17430413442674e-05\\
15	9.49581065792122e-05\\
16	0.000387299118282844\\
17	0.000612300681976681\\
18	5.53256190059204e-05\\
19	0.00119682697576936\\
20	0.0020178612699371\\
21	2.10876588882603e-05\\
22	0.00232605156450443\\
23	0.00117510498263935\\
24	0.00132110047974678\\
25	4.25218715867334e-05\\
26	4.11029309453051e-05\\
27	0.000642684725526345\\
28	9.33739228598204e-05\\
29	0.000148533583222983\\
30	0.00449958667175604\\
31	8.55243696991882e-05\\
32	0.00671592093026309\\
33	0.0119236319578652\\
34	0.00830883088319728\\
35	0.0107931094125146\\
36	0.00154036215411586\\
37	0.00894782319080289\\
38	0.00323598965827503\\
39	0.000120296649750503\\
40	0.00385954030195247\\
41	0.00628102967547084\\
42	0.00910144379523223\\
43	0.0030645772177079\\
44	0.000699415572938509\\
45	0.0205738713370006\\
46	0.0107487761079515\\
47	0.0547126362771381\\
48	0.0107847096029355\\
49	0.0303474335350663\\
50	0.0159939506153782\\
51	0.00945634710008506\\
52	0.00021268906292542\\
53	0.00279614706584438\\
54	0.0104584400821592\\
55	0.00737109759097055\\
56	0.00845699305143589\\
57	0.0319643399284722\\
58	0.0232228698453747\\
59	0.0610037797085188\\
60	0.0323895518110806\\
61	0.0461945451149192\\
62	0.131554021690258\\
63	0.0281145885108783\\
64	0.0289434095421069\\
65	0.00695536563800944\\
66	4.82262521057674e-06\\
67	0.0204368279817914\\
68	0.021320946905868\\
69	0.00997623322498282\\
70	0.0144869206946267\\
71	0.0280453370619302\\
72	0.0390634986259604\\
73	0.0363895652024799\\
74	0.960907340720616\\
75	0.0357447795655261\\
76	0.037809105139303\\
77	0.0274732460364608\\
78	0.0131782337601027\\
79	0.0106783674921847\\
80	0.0207183180347183\\
81	0.0208701732499979\\
82	0.0268015686039987\\
83	0.00694919363742396\\
84	0.0278790199525078\\
85	0.0278346204732732\\
86	0.131054434005067\\
87	0.0468826992409482\\
88	0.0316209932782216\\
89	0.0623160053865561\\
90	0.0234769844003585\\
91	0.0334065446534858\\
92	0.00868314683831411\\
93	0.00714468874060436\\
94	0.00973919650062544\\
95	0.00386374164365726\\
96	0.000317493279023299\\
97	0.0072267762381038\\
98	0.0148536846134206\\
99	0.0294735205911984\\
100	0.0106926873391726\\
101	0.0555326334067842\\
102	0.0105688036920922\\
103	0.0199079618734314\\
104	0.000990118393377481\\
105	0.00350963550612246\\
106	0.00909567382076808\\
107	0.0060553548448655\\
108	0.00402601377773815\\
109	0.000885771809860315\\
110	0.00301584460181\\
111	0.00796180033223941\\
112	0.00191735530603564\\
113	0.00964584428731175\\
114	0.00826553786129007\\
115	0.0124572814876203\\
116	0.00812148644435966\\
117	0.000112381242042705\\
118	0.00459644722022882\\
119	0.000512275284858267\\
120	0.000334814078671369\\
121	0.000804561429965256\\
122	3.91783457243768e-05\\
123	0.000294277278438688\\
124	0.00126415649858111\\
125	0.00118355117531019\\
126	0.00207314938568472\\
127	2.00605243536489e-05\\
128	0.00170654315131164\\
129	0.00151366777788923\\
130	7.89268506735451e-05\\
131	0.000308140553143643\\
132	0.000203654354121808\\
133	8.13135805738896e-05\\
134	9.00189011572053e-06\\
135	4.32712515932658e-05\\
136	0.000168011343768897\\
137	1.97822369972031e-05\\
138	9.25293264946813e-05\\
139	2.3364369707586e-05\\
140	1.61994715761641e-05\\
141	5.33771609063101e-05\\
142	0.00010962782113179\\
143	0.000107013084885942\\
144	3.4378812395484e-05\\
145	0.000170876052844997\\
146	5.41228754219186e-05\\
147	8.08526385056748e-05\\
148	3.3253123390619e-05\\
149	8.10077107742632e-06\\
};
\addlegendentry{$\mathbf{\hat{h}_{2}}$}

\end{axis}
\end{tikzpicture}%