% This file was created by matlab2tikz.
%
%The latest updates can be retrieved from
%  http://www.mathworks.com/matlabcentral/fileexchange/22022-matlab2tikz-matlab2tikz
%where you can also make suggestions and rate matlab2tikz.
%
\definecolor{mycolor1}{rgb}{0.00000,0.44700,0.74100}%
\definecolor{mycolor2}{rgb}{0.85000,0.32500,0.09800}%
%
\begin{tikzpicture}

\begin{axis}[%
width=1.935in,
height=3.2in,
at={(0.758in,0.512in)},
scale only axis,
xmin=0,
xmax=150,
xlabel style={font=\color{white!15!black}, align=center},
xlabel={Sample Index\\[1ex](a) Actual},
ymin=0,
ymax=0.7,
axis background/.style={fill=white},
legend style={legend cell align=left, align=left, draw=white!15!black}
]
\addplot [color=mycolor1]
  table[row sep=crcr]{%
1	0.0234657806037261\\
2	0.0272334504034075\\
3	0.0326864300765018\\
4	0.0414541482980318\\
5	0.0586677033458464\\
6	0.117843438362983\\
7	0.159969331461504\\
8	0.174397116945152\\
9	0.616552810702634\\
10	0.0882137642931462\\
11	0.0472681903124796\\
12	0.0327587509505929\\
13	0.0272256709659274\\
14	0.0412344622245766\\
15	0.0186762848129325\\
16	0.0451940046978057\\
17	0.0153724087875252\\
18	0.0239672675363248\\
19	0.0400285717874473\\
20	0.0828333966509162\\
21	0.557624977131952\\
22	0.149414784250917\\
23	0.109138078132702\\
24	0.0381681231028791\\
25	0.032799759178118\\
26	0.191519461959093\\
27	0.0734580287558902\\
28	0.0358315656953253\\
29	0.0179563195827385\\
30	0.0169149242156914\\
31	0.0179798517146348\\
32	0.0199431506445131\\
33	0.0279225394655299\\
34	0.0908594243819801\\
35	0.0439964246924232\\
36	0.330890477505262\\
37	0.037800506563543\\
38	0.020261933748638\\
39	0.0138181229977315\\
40	0.0211497159554441\\
41	0.0112042208144458\\
42	0.00964538908702694\\
43	0.00864780826327016\\
44	0.00787736374270682\\
45	0.00720180133294831\\
46	0.00651453200193765\\
47	0.00565492088107664\\
48	0.0112814316241706\\
49	0.0075966567083061\\
50	0.0102713040739602\\
51	0.00787142060243747\\
52	0.00711780022683946\\
53	0.00668443537322835\\
54	0.00638223966522588\\
55	0.00615487020840034\\
56	0.00598242225636516\\
57	0.00586293416152974\\
58	0.00581626175933958\\
59	0.00593494184987807\\
60	0.00707647204853056\\
61	0.00861312572402681\\
62	0.00240649054353041\\
63	0.0036902508247688\\
64	0.0040125763148678\\
65	0.00408542983582614\\
66	0.00408934467211144\\
67	0.00406760360864643\\
68	0.00403657730104579\\
69	0.00400486664899167\\
70	0.00397913876457006\\
71	0.00396763365360209\\
72	0.00398577860522856\\
73	0.00407460869510253\\
74	0.00440882178496405\\
75	0.00852319154542653\\
76	0.00211982859547221\\
77	0.00279674481878385\\
78	0.00295234209521732\\
79	0.00299967450324673\\
80	0.00300734384297471\\
81	0.00299658049652506\\
82	0.00297609501762909\\
83	0.00295010695632826\\
84	0.00292089738309008\\
85	0.00288979839106794\\
86	0.00285763293534116\\
87	0.00282493110979805\\
88	0.00279204510261472\\
89	0.00275921420187501\\
90	0.00272660345813555\\
91	0.00269432766245323\\
92	0.00266246675038502\\
93	0.00263107599882434\\
94	0.00260019295165966\\
95	0.00256984222925479\\
96	0.00254003893333548\\
97	0.0025107910982644\\
98	0.00248210148178531\\
99	0.00245396889001376\\
100	0.00242638916874131\\
101	0.00239935595223708\\
102	0.00237286123354156\\
103	0.00234689580183488\\
104	0.00232144957979209\\
105	0.00229651188498403\\
106	0.00227207163310714\\
107	0.0022481174963278\\
108	0.00222463802675857\\
109	0.00220162175268604\\
110	0.00217905725339276\\
111	0.0021569332170867\\
112	0.00213523848544673\\
113	0.00211396208753109\\
114	0.00209309326520902\\
115	0.00207262149182518\\
116	0.00205253648545491\\
117	0.00203282821783402\\
118	0.00201348691983224\\
119	0.00199450308416773\\
120	0.00197586746592614\\
121	0.00195757108133911\\
122	0.0019396052051902\\
123	0.0019219613671484\\
124	0.00190463134727109\\
125	0.00188760717087541\\
126	0.00187088110293773\\
127	0.00185444564215264\\
128	0.0018382935147574\\
129	0.00182241766820821\\
130	0.00180681126477794\\
131	0.00179146767513212\\
132	0.00177638047192757\\
133	0.00176154342347035\\
134	0.00174695048746156\\
135	0.0017325958048528\\
136	0.00171847369382931\\
137	0.00170457864393352\\
138	0.0016909053103386\\
139	0.00167744850827835\\
140	0.00166420320763913\\
141	0.00165116452771496\\
142	0.00163832773212761\\
143	0.00162568822391149\\
144	0.00161324154076111\\
145	0.0016009833504405\\
146	0.00158890944635072\\
147	0.00157701574325256\\
148	0.00156529827314105\\
149	0\\
150	0\\
};
\addlegendentry{$\mathbf{h_1}$}

\addplot [color=mycolor2]
  table[row sep=crcr]{%
1	0.019775303219206\\
2	0.0210217764534023\\
3	0.0224372323963497\\
4	0.024058742711813\\
5	0.0259351263737046\\
6	0.0281320174688059\\
7	0.0307398096072034\\
8	0.0338865833958781\\
9	0.0377600935275399\\
10	0.0426472101764649\\
11	0.0490094599986528\\
12	0.0576401827385178\\
13	0.0700288298559564\\
14	0.0893407156606893\\
15	0.123700774100431\\
16	0.202175033398071\\
17	0.564479813098353\\
18	0.690442426104836\\
19	0.212260509632627\\
20	0.126132345068284\\
21	0.100380135781766\\
22	0.0378663697499036\\
23	0.0333199748773482\\
24	0.0149453064107011\\
25	0.10083899339379\\
26	0.161002397050911\\
27	0.0405118251764787\\
28	0.0383644765554957\\
29	0.0341227495803863\\
30	0.0306469105251072\\
31	0.0278570926171954\\
32	0.0255709383506331\\
33	0.0236574529195357\\
34	0.0220274984760589\\
35	0.0206190941704396\\
36	0.0193877726649002\\
37	0.0183006807256663\\
38	0.0173329207549748\\
39	0.016465211935799\\
40	0.0156823459816501\\
41	0.0149721364414517\\
42	0.0143246843629073\\
43	0.0137318527665838\\
44	0.0131868826449622\\
45	0.0126841071808284\\
46	0.0122187355837443\\
47	0.0117866872087634\\
48	0.0113844626077037\\
49	0.0110090421200206\\
50	0.0106578052804057\\
51	0\\
52	0\\
53	0\\
54	0\\
55	0\\
56	0\\
57	0\\
58	0\\
59	0\\
60	0\\
61	0\\
62	0\\
63	0\\
64	0\\
65	0\\
66	0\\
67	0\\
68	0\\
69	0\\
70	0\\
71	0\\
72	0\\
73	0\\
74	0\\
75	0\\
76	0\\
77	0\\
78	0\\
79	0\\
80	0\\
81	0\\
82	0\\
83	0\\
84	0\\
85	0\\
86	0\\
87	0\\
88	0\\
89	0\\
90	0\\
91	0\\
92	0\\
93	0\\
94	0\\
95	0\\
96	0\\
97	0\\
98	0\\
99	0\\
100	0\\
101	0\\
102	0\\
103	0\\
104	0\\
105	0\\
106	0\\
107	0\\
108	0\\
109	0\\
110	0\\
111	0\\
112	0\\
113	0\\
114	0\\
115	0\\
116	0\\
117	0\\
118	0\\
119	0\\
120	0\\
121	0\\
122	0\\
123	0\\
124	0\\
125	0\\
126	0\\
127	0\\
128	0\\
129	0\\
130	0\\
131	0\\
132	0\\
133	0\\
134	0\\
135	0\\
136	0\\
137	0\\
138	0\\
139	0\\
140	0\\
141	0\\
142	0\\
143	0\\
144	0\\
145	0\\
146	0\\
147	0\\
148	0\\
149	0\\
150	0\\
};
\addlegendentry{$\mathbf{h_{2}}$}

\end{axis}

\begin{axis}[%
width=1.935in,
height=3.2in,
at={(3.327in,0.512in)},
scale only axis,
xmin=0,
xmax=150,
xlabel style={font=\color{white!15!black}, align=center},
xlabel={Sample Index\\[1ex](b) Estimated},
ymin=0,
ymax=1,
axis background/.style={fill=white},
legend style={legend cell align=left, align=left, draw=white!15!black}
]
\addplot [color=mycolor1]
  table[row sep=crcr]{%
0	0.0172342224811836\\
1	0.0226388229449783\\
2	0.00773787194364448\\
3	0.0256279264013438\\
4	0.0179483104457022\\
5	0.00615130088553695\\
6	0.0282160744567505\\
7	0.00755330212014209\\
8	0.0202277678083373\\
9	0.0337856255729777\\
10	0.0067792365047614\\
11	0.0103587131167456\\
12	0.0237787659674764\\
13	0.0264875196872499\\
14	0.025617729268356\\
15	0.0112810104220539\\
16	0.0268894473250176\\
17	0.0212025383270998\\
18	0.0143308847094524\\
19	0.022514528968379\\
20	0.0149830412995731\\
21	0.0149880105122705\\
22	0.0192644666869923\\
23	0.0133808433189701\\
24	0.00973073550186023\\
25	0.0166100055020393\\
26	0.0315670028522054\\
27	0.0159292377320081\\
28	0.0226999872132189\\
29	0.00577115377604619\\
30	0.0206054714312577\\
31	0.0180996656094533\\
32	0.0151963539594325\\
33	0.00628891634681586\\
34	0.0115466354908693\\
35	0.0166616650182315\\
36	0.0104291383121741\\
37	0.0088523415371508\\
38	0.019700097231278\\
39	0.00780942260684003\\
40	0.0374158096762454\\
41	0.0147721768285638\\
42	0.0138124487745774\\
43	0.0178030765597845\\
44	0.0210282137024741\\
45	0.0248104454195818\\
46	0.0114817661438881\\
47	0.0150898411386963\\
48	0.0405807008841965\\
49	0.0218062996826402\\
50	0.00838140782180528\\
51	0.0120360844901237\\
52	0.0388719728797904\\
53	0.0360215227028221\\
54	0.00528478399791117\\
55	0.0189625035432799\\
56	0.0273719636944156\\
57	0.108997828191209\\
58	0.0765064447685324\\
59	0.0302256961549732\\
60	0.0464018461750869\\
61	0.0350726316391009\\
62	0.0189376230884854\\
63	0.174408136123788\\
64	0.0326967158317107\\
65	0.466485735137439\\
66	0.386661682531571\\
67	0.108608407166475\\
68	0.0354130770840806\\
69	0.0654483667880031\\
70	0.133937914706961\\
71	0.014621399917898\\
72	0.0221981566702668\\
73	0.0260960461235871\\
74	0.0552243866795245\\
75	0.0255038880827281\\
76	0.0987268937794578\\
77	0.271696461340339\\
78	0.458004633270697\\
79	0.192896465846793\\
80	0.0558953121598876\\
81	0.0498528499682406\\
82	0.13440687058665\\
83	0.0946783972320475\\
84	0.126311527717842\\
85	0.0446789273222742\\
86	0.0167991012933183\\
87	0.0500047385443854\\
88	0.0291885653914053\\
89	0.038289684152577\\
90	0.0294577392748418\\
91	0.11267920990764\\
92	0.278680417220949\\
93	0.129858140025095\\
94	0.0439727594291282\\
95	0.0323219303739137\\
96	0.0217551080018161\\
97	0.00782894183810553\\
98	0.0212790668870929\\
99	0.00973521763736992\\
100	0.00812415564594036\\
101	0.0223651653170907\\
102	0.0124310781847971\\
103	0.0220955198797602\\
104	0.0148545735636484\\
105	0.00720357752209609\\
106	0.0212992728092614\\
107	0.0186283204544612\\
108	0.0213126731517137\\
109	0.0105983396342485\\
110	0.022607473523623\\
111	0.00812347721652162\\
112	0.0142485227643362\\
113	0.0263260356242641\\
114	0.00949953306434169\\
115	0.0217134222916128\\
116	0.00917437577606996\\
117	0.00197723091816078\\
118	0.034938251334998\\
119	0.0125198125285294\\
120	0.00751695210349851\\
121	0.0191827055516664\\
122	0.0132567821446974\\
123	0.0112462558002063\\
124	0.010955694113931\\
125	0.010598945146479\\
126	0.0227418348363697\\
127	0.022861561661704\\
128	0.0347349946955406\\
129	0.00508833331630519\\
130	0.0117447528642395\\
131	0.0276370806970319\\
132	0.00445833814905321\\
133	0.026982703052423\\
134	0.0324832988231036\\
135	0.0113887640758059\\
136	0.0183757934869925\\
137	0.0141928593412922\\
138	0.0153901591207731\\
139	0.0172413360455498\\
140	0.0205564829724424\\
141	0.0105644101564486\\
142	0.0224350987431161\\
143	0.0115236511590418\\
144	0.0188719085312562\\
145	0.0200357075605346\\
146	0.0200545003563907\\
147	0.00732586411699779\\
148	0.0172359791791524\\
149	0.0255026362896421\\
};
\addlegendentry{$\mathbf{\hat{h}_{1}}$}

\addplot [color=mycolor2]
  table[row sep=crcr]{%
0	0.000331938145678047\\
1	0.00013704573389787\\
2	0.0001971711046345\\
3	0.000268224076730334\\
4	0.000203097529372995\\
5	0.000353364047297273\\
6	0.000312943616169388\\
7	0.000333948717618996\\
8	0.000105536423230041\\
9	0.00036997398145835\\
10	0.00024421247763349\\
11	0.000341454702137172\\
12	0.000360761145595318\\
13	0.000327393223554889\\
14	0.000234427318783762\\
15	0.000331967596443692\\
16	0.000267930726931896\\
17	7.56906563424163e-05\\
18	0.000326029727243764\\
19	0.000179540973143591\\
20	0.000144334686688091\\
21	8.27991804228545e-05\\
22	0.000445389867876788\\
23	5.07546745313874e-05\\
24	0.000304319515381946\\
25	0.00030030707982337\\
26	0.000281975020308059\\
27	0.000449304154176721\\
28	0.000112841093713905\\
29	7.03331638127529e-05\\
30	0.000345970667027582\\
31	7.48292558093864e-05\\
32	0.000224386683367534\\
33	4.62716178062565e-05\\
34	0.000356321619236122\\
35	0.000141686816911741\\
36	0.000279375591900407\\
37	0.000207622942958217\\
38	0.000330265872456577\\
39	0.000444422266065046\\
40	0.00022128953019415\\
41	6.55174080296075e-05\\
42	0.00031178691888016\\
43	0.000368508262802737\\
44	0.000386127668445412\\
45	0.000681125189640569\\
46	0.000354743616027305\\
47	0.00189821387673712\\
48	0.000693187523518048\\
49	0.000682000916274086\\
50	0.000124811917822253\\
51	0.000410578670648538\\
52	0.000413594782976976\\
53	0.000392297710492483\\
54	0.000111157250963835\\
55	0.000761471996464689\\
56	0.000420498802312474\\
57	0.000840782483745296\\
58	0.00060315857930868\\
59	0.00218990636595647\\
60	0.00148247061528202\\
61	0.00152243299206808\\
62	0.00347397432281197\\
63	0.000340770162206517\\
64	0.000845088156181614\\
65	0.000761656774736624\\
66	0.000368519316112219\\
67	0.000476655368900714\\
68	0.000541585865017262\\
69	0.000875976986173774\\
70	0.000812894070018851\\
71	0.00113320480975829\\
72	0.00151415427419891\\
73	0.00118804651412069\\
74	0.999959078154227\\
75	0.00119721006071547\\
76	0.00151313980166186\\
77	0.00114331039728794\\
78	0.000811608850969288\\
79	0.000871520111058209\\
80	0.000540323972539214\\
81	0.000470260041429666\\
82	0.000359986362028428\\
83	0.000737060749349861\\
84	0.000826138049308779\\
85	0.000331331427279974\\
86	0.0035018458442558\\
87	0.00151261101028487\\
88	0.00147713074954173\\
89	0.00220076596396636\\
90	0.000615294266182994\\
91	0.00082030873427487\\
92	0.000406507138992243\\
93	0.00071047312329346\\
94	0.000131838681627962\\
95	0.000398837473959193\\
96	0.00042781895318957\\
97	0.000414402237631129\\
98	0.000122773451831337\\
99	0.000710744625538722\\
100	0.000716292813496704\\
101	0.00189900244051247\\
102	0.000333420529986988\\
103	0.000687097821582812\\
104	0.000390135413276949\\
105	0.000314127662572929\\
106	0.000296277368822911\\
107	5.0470543815555e-05\\
108	0.000227869985805068\\
109	0.000428696216387584\\
110	0.000362862605121457\\
111	0.000154565675896844\\
112	0.000320502475538058\\
113	0.000189642981866719\\
114	0.000354919798546934\\
115	9.7100403002112e-05\\
116	0.000234362609791596\\
117	5.07053403089842e-05\\
118	0.000352385076072685\\
119	6.27176513485242e-05\\
120	7.81263961646997e-05\\
121	0.000416334934507256\\
122	0.000299509990810063\\
123	0.000231857635619502\\
124	0.000326615638552966\\
125	9.56963144686462e-05\\
126	0.000433271468785025\\
127	0.000115136155586526\\
128	0.000178685168782279\\
129	0.000238587127658157\\
130	0.000367477329336802\\
131	5.22787391236303e-05\\
132	0.000261296521255857\\
133	0.000314465682193753\\
134	0.00025676983870168\\
135	0.000290115624706488\\
136	0.000299510637125366\\
137	0.000358919401533654\\
138	0.000199231148606776\\
139	0.000397962146021555\\
140	0.000134840301973188\\
141	0.000346162259897003\\
142	0.000340021614236372\\
143	0.000373925702928763\\
144	0.000289922344128771\\
145	0.000307751065120222\\
146	0.000220502947404031\\
147	0.000113651130742444\\
148	0.000331282102240594\\
149	0.000144892342407582\\
};
\addlegendentry{$\mathbf{\hat{h}_{2}}$}

\end{axis}
\end{tikzpicture}%