% This file was created by matlab2tikz.
%
%The latest updates can be retrieved from
%  http://www.mathworks.com/matlabcentral/fileexchange/22022-matlab2tikz-matlab2tikz
%where you can also make suggestions and rate matlab2tikz.
%
\definecolor{mycolor1}{rgb}{0.00000,0.44700,0.74100}%
\definecolor{mycolor2}{rgb}{0.85000,0.32500,0.09800}%
%
\begin{tikzpicture}

\begin{axis}[%
width=1.935in,
height=3.2in,
at={(0.758in,0.512in)},
scale only axis,
xmin=0,
xmax=150,
xlabel style={font=\color{white!15!black}, align=center},
xlabel={Sample Index\\[1ex](a) Actual},
ymin=0,
ymax=0.7,
axis background/.style={fill=white},
legend style={legend cell align=left, align=left, draw=white!15!black}
]
\addplot [color=mycolor1]
  table[row sep=crcr]{%
1	0.0234657806037261\\
2	0.0272334504034075\\
3	0.0326864300765018\\
4	0.0414541482980318\\
5	0.0586677033458464\\
6	0.117843438362983\\
7	0.159969331461504\\
8	0.174397116945152\\
9	0.616552810702634\\
10	0.0882137642931462\\
11	0.0472681903124796\\
12	0.0327587509505929\\
13	0.0272256709659274\\
14	0.0412344622245766\\
15	0.0186762848129325\\
16	0.0451940046978057\\
17	0.0153724087875252\\
18	0.0239672675363248\\
19	0.0400285717874473\\
20	0.0828333966509162\\
21	0.557624977131952\\
22	0.149414784250917\\
23	0.109138078132702\\
24	0.0381681231028791\\
25	0.032799759178118\\
26	0.191519461959093\\
27	0.0734580287558902\\
28	0.0358315656953253\\
29	0.0179563195827385\\
30	0.0169149242156914\\
31	0.0179798517146348\\
32	0.0199431506445131\\
33	0.0279225394655299\\
34	0.0908594243819801\\
35	0.0439964246924232\\
36	0.330890477505262\\
37	0.037800506563543\\
38	0.020261933748638\\
39	0.0138181229977315\\
40	0.0211497159554441\\
41	0.0112042208144458\\
42	0.00964538908702694\\
43	0.00864780826327016\\
44	0.00787736374270682\\
45	0.00720180133294831\\
46	0.00651453200193765\\
47	0.00565492088107664\\
48	0.0112814316241706\\
49	0.0075966567083061\\
50	0.0102713040739602\\
51	0.00787142060243747\\
52	0.00711780022683946\\
53	0.00668443537322835\\
54	0.00638223966522588\\
55	0.00615487020840034\\
56	0.00598242225636516\\
57	0.00586293416152974\\
58	0.00581626175933958\\
59	0.00593494184987807\\
60	0.00707647204853056\\
61	0.00861312572402681\\
62	0.00240649054353041\\
63	0.0036902508247688\\
64	0.0040125763148678\\
65	0.00408542983582614\\
66	0.00408934467211144\\
67	0.00406760360864643\\
68	0.00403657730104579\\
69	0.00400486664899167\\
70	0.00397913876457006\\
71	0.00396763365360209\\
72	0.00398577860522856\\
73	0.00407460869510253\\
74	0.00440882178496405\\
75	0.00852319154542653\\
76	0.00211982859547221\\
77	0.00279674481878385\\
78	0.00295234209521732\\
79	0.00299967450324673\\
80	0.00300734384297471\\
81	0.00299658049652506\\
82	0.00297609501762909\\
83	0.00295010695632826\\
84	0.00292089738309008\\
85	0.00288979839106794\\
86	0.00285763293534116\\
87	0.00282493110979805\\
88	0.00279204510261472\\
89	0.00275921420187501\\
90	0.00272660345813555\\
91	0.00269432766245323\\
92	0.00266246675038502\\
93	0.00263107599882434\\
94	0.00260019295165966\\
95	0.00256984222925479\\
96	0.00254003893333548\\
97	0.0025107910982644\\
98	0.00248210148178531\\
99	0.00245396889001376\\
100	0.00242638916874131\\
101	0.00239935595223708\\
102	0.00237286123354156\\
103	0.00234689580183488\\
104	0.00232144957979209\\
105	0.00229651188498403\\
106	0.00227207163310714\\
107	0.0022481174963278\\
108	0.00222463802675857\\
109	0.00220162175268604\\
110	0.00217905725339276\\
111	0.0021569332170867\\
112	0.00213523848544673\\
113	0.00211396208753109\\
114	0.00209309326520902\\
115	0.00207262149182518\\
116	0.00205253648545491\\
117	0.00203282821783402\\
118	0.00201348691983224\\
119	0.00199450308416773\\
120	0.00197586746592614\\
121	0.00195757108133911\\
122	0.0019396052051902\\
123	0.0019219613671484\\
124	0.00190463134727109\\
125	0.00188760717087541\\
126	0.00187088110293773\\
127	0.00185444564215264\\
128	0.0018382935147574\\
129	0.00182241766820821\\
130	0.00180681126477794\\
131	0.00179146767513212\\
132	0.00177638047192757\\
133	0.00176154342347035\\
134	0.00174695048746156\\
135	0.0017325958048528\\
136	0.00171847369382931\\
137	0.00170457864393352\\
138	0.0016909053103386\\
139	0.00167744850827835\\
140	0.00166420320763913\\
141	0.00165116452771496\\
142	0.00163832773212761\\
143	0.00162568822391149\\
144	0.00161324154076111\\
145	0.0016009833504405\\
146	0.00158890944635072\\
147	0.00157701574325256\\
148	0.00156529827314105\\
149	0\\
150	0\\
};
\addlegendentry{$\mathbf{h_1}$}

\addplot [color=mycolor2]
  table[row sep=crcr]{%
1	0.019775303219206\\
2	0.0210217764534023\\
3	0.0224372323963497\\
4	0.024058742711813\\
5	0.0259351263737046\\
6	0.0281320174688059\\
7	0.0307398096072034\\
8	0.0338865833958781\\
9	0.0377600935275399\\
10	0.0426472101764649\\
11	0.0490094599986528\\
12	0.0576401827385178\\
13	0.0700288298559564\\
14	0.0893407156606893\\
15	0.123700774100431\\
16	0.202175033398071\\
17	0.564479813098353\\
18	0.690442426104836\\
19	0.212260509632627\\
20	0.126132345068284\\
21	0.100380135781766\\
22	0.0378663697499036\\
23	0.0333199748773482\\
24	0.0149453064107011\\
25	0.10083899339379\\
26	0.161002397050911\\
27	0.0405118251764787\\
28	0.0383644765554957\\
29	0.0341227495803863\\
30	0.0306469105251072\\
31	0.0278570926171954\\
32	0.0255709383506331\\
33	0.0236574529195357\\
34	0.0220274984760589\\
35	0.0206190941704396\\
36	0.0193877726649002\\
37	0.0183006807256663\\
38	0.0173329207549748\\
39	0.016465211935799\\
40	0.0156823459816501\\
41	0.0149721364414517\\
42	0.0143246843629073\\
43	0.0137318527665838\\
44	0.0131868826449622\\
45	0.0126841071808284\\
46	0.0122187355837443\\
47	0.0117866872087634\\
48	0.0113844626077037\\
49	0.0110090421200206\\
50	0.0106578052804057\\
51	0\\
52	0\\
53	0\\
54	0\\
55	0\\
56	0\\
57	0\\
58	0\\
59	0\\
60	0\\
61	0\\
62	0\\
63	0\\
64	0\\
65	0\\
66	0\\
67	0\\
68	0\\
69	0\\
70	0\\
71	0\\
72	0\\
73	0\\
74	0\\
75	0\\
76	0\\
77	0\\
78	0\\
79	0\\
80	0\\
81	0\\
82	0\\
83	0\\
84	0\\
85	0\\
86	0\\
87	0\\
88	0\\
89	0\\
90	0\\
91	0\\
92	0\\
93	0\\
94	0\\
95	0\\
96	0\\
97	0\\
98	0\\
99	0\\
100	0\\
101	0\\
102	0\\
103	0\\
104	0\\
105	0\\
106	0\\
107	0\\
108	0\\
109	0\\
110	0\\
111	0\\
112	0\\
113	0\\
114	0\\
115	0\\
116	0\\
117	0\\
118	0\\
119	0\\
120	0\\
121	0\\
122	0\\
123	0\\
124	0\\
125	0\\
126	0\\
127	0\\
128	0\\
129	0\\
130	0\\
131	0\\
132	0\\
133	0\\
134	0\\
135	0\\
136	0\\
137	0\\
138	0\\
139	0\\
140	0\\
141	0\\
142	0\\
143	0\\
144	0\\
145	0\\
146	0\\
147	0\\
148	0\\
149	0\\
150	0\\
};
\addlegendentry{$\mathbf{h_{2}}$}

\end{axis}

\begin{axis}[%
width=1.935in,
height=3.2in,
at={(3.327in,0.512in)},
scale only axis,
xmin=0,
xmax=150,
xlabel style={font=\color{white!15!black}, align=center},
xlabel={Sample Index\\[1ex](b) Estimated},
ymin=0,
ymax=1,
axis background/.style={fill=white},
legend style={legend cell align=left, align=left, draw=white!15!black}
]
\addplot [color=mycolor1]
  table[row sep=crcr]{%
0	5.93518074683165e-05\\
1	3.62972920893077e-05\\
2	8.8596100066744e-05\\
3	4.59110820139491e-05\\
4	5.42276205398091e-05\\
5	1.01051266445769e-05\\
6	7.64605197405445e-05\\
7	7.99704361245213e-05\\
8	7.95874946020128e-05\\
9	8.18333620057974e-05\\
10	8.47882876036992e-05\\
11	3.64956349357404e-05\\
12	0.000213617800387843\\
13	4.31447215362765e-05\\
14	5.72307863249414e-05\\
15	9.08400549927698e-06\\
16	0.000290318243231638\\
17	1.7245543582674e-05\\
18	0.000115358401287961\\
19	0.000313516517077456\\
20	0.000240355497106379\\
21	0.0010053821544123\\
22	0.000111982125412171\\
23	0.000192130446559102\\
24	0.00397647902166981\\
25	0.000107929539591952\\
26	0.00189452715580179\\
27	5.66416030885403e-05\\
28	0.000189214773638819\\
29	0.000741777219652419\\
30	0.000414000303676136\\
31	0.00195571775142385\\
32	0.00325908388276949\\
33	0.00530156330454324\\
34	0.00905917396750567\\
35	0.00605115750676343\\
36	0.00712691048349298\\
37	0.0160135372656405\\
38	0.0230544772080114\\
39	0.019575723214591\\
40	0.0119027916244394\\
41	0.0181174597556595\\
42	0.00465540396082584\\
43	0.00994573519555955\\
44	0.00960890118549941\\
45	0.0133425893179686\\
46	0.000857598679265555\\
47	0.0101021379720289\\
48	0.024172690217193\\
49	0.00799428251717167\\
50	0.0373917242782623\\
51	0.0916476859607446\\
52	0.0317252849370077\\
53	0.024722259210394\\
54	0.0534615743318556\\
55	0.00877880907315983\\
56	0.0174665572186094\\
57	0.105213239782188\\
58	0.0325325603554929\\
59	0.0329734182399982\\
60	0.0366037279141414\\
61	0.0306845281185114\\
62	0.045476866959817\\
63	0.145103290924518\\
64	0.0352844110541057\\
65	0.479289112221321\\
66	0.397732349486933\\
67	0.103980903178711\\
68	0.0911789873105882\\
69	0.0309131928413976\\
70	0.0968619843458728\\
71	0.0338766961850044\\
72	0.0546596748938322\\
73	0.0214990139738795\\
74	0.087475377279487\\
75	0.0947862134584821\\
76	0.119683181540789\\
77	0.250241427986986\\
78	0.46839976413527\\
79	0.190364491526324\\
80	0.0799079526716305\\
81	0.0765568756394739\\
82	0.101577937046457\\
83	0.100209606995309\\
84	0.106022435658479\\
85	0.0259111432039412\\
86	0.0368520137646027\\
87	0.0383562777316575\\
88	0.0274704809553861\\
89	0.039412699260286\\
90	0.112560289404206\\
91	0.101540876851362\\
92	0.275538010682586\\
93	0.0991861040743559\\
94	0.0368640967362516\\
95	0.0510536209147208\\
96	0.0149177414293487\\
97	0.00730717451470763\\
98	0.0159422666477285\\
99	0.0161146459726747\\
100	0.0253459783287471\\
101	0.00333659719625374\\
102	0.0192990447016392\\
103	0.0261627766987909\\
104	0.0604323438270128\\
105	0.0379713958790631\\
106	0.000142788956662324\\
107	0.0279405896514069\\
108	0.000638571568230128\\
109	0.0048719625112035\\
110	0.0062449971575345\\
111	0.000517589853119981\\
112	0.00210439599312796\\
113	0.00118117860753555\\
114	9.93149592000588e-05\\
115	0.00212328396827256\\
116	0.000441691918871283\\
117	0.0197416446129813\\
118	0.00560253912184807\\
119	0.00557705985472069\\
120	0.00286883188686597\\
121	0.000647609349647569\\
122	0.000923689280818952\\
123	0.000110168156089771\\
124	0.000612976518717514\\
125	0.000239790480522212\\
126	0.000282243613081126\\
127	0.000193381181231259\\
128	5.28846220760614e-05\\
129	0.000255954515919244\\
130	0.000578809623682331\\
131	0.000479816511238238\\
132	0.0014927896251834\\
133	6.1003097170904e-05\\
134	0.000271456040691555\\
135	8.11377954637844e-05\\
136	2.52884417188816e-05\\
137	8.46481042488047e-05\\
138	1.75711095646457e-05\\
139	2.69590371504615e-05\\
140	0.000157902301168933\\
141	4.27376911522972e-05\\
142	4.82360623415532e-05\\
143	2.82277777119727e-05\\
144	0.000245730411300031\\
145	2.69109451183492e-05\\
146	3.43738714737974e-05\\
147	0.000110820840314241\\
148	7.27706918994108e-05\\
149	0.000107764169623442\\
};
\addlegendentry{$\mathbf{\hat{h}_{1}}$}

\addplot [color=mycolor2]
  table[row sep=crcr]{%
0	3.74718965434599e-05\\
1	9.63788191779949e-05\\
2	6.38833746640019e-05\\
3	7.12297687778775e-05\\
4	4.98465942749971e-05\\
5	0.000173947373146084\\
6	2.82423762880657e-05\\
7	8.92960423975415e-05\\
8	3.26105867058876e-05\\
9	5.89823896703041e-05\\
10	4.95252684481906e-05\\
11	2.31111415192439e-05\\
12	0.000262285005466124\\
13	0.000170604609705188\\
14	7.88547350873499e-05\\
15	0.00012130393103373\\
16	0.000291314383582851\\
17	0.000143859625489846\\
18	8.49092741292524e-05\\
19	0.000297612190584734\\
20	0.00117740167532331\\
21	4.26091103466528e-05\\
22	0.00336068328053387\\
23	0.00124932093519702\\
24	0.00152561289440029\\
25	5.27678371202132e-05\\
26	0.000169420283133334\\
27	0.000658162345640069\\
28	3.29406670894163e-05\\
29	0.000131367411312263\\
30	0.00450702356321842\\
31	6.19936111415495e-05\\
32	0.00703546729116483\\
33	0.0116771716476885\\
34	0.00766770583899722\\
35	0.0112859007495767\\
36	0.00192262756428867\\
37	0.0084875661879499\\
38	0.00342643377206969\\
39	0.000592972364160643\\
40	0.00399832290831767\\
41	0.00550245853826388\\
42	0.00945178382262129\\
43	0.0029257781293714\\
44	0.000709718245479176\\
45	0.020472393543727\\
46	0.010692510776531\\
47	0.0547174827137877\\
48	0.0108845899937532\\
49	0.0296692251636507\\
50	0.0159555741190953\\
51	0.00755414247460659\\
52	0.00025219228801648\\
53	0.00328372859459473\\
54	0.0103173569970906\\
55	0.00733832150747813\\
56	0.0087839508775878\\
57	0.0314481446535828\\
58	0.0232235189630157\\
59	0.060955769723554\\
60	0.0329586746904322\\
61	0.0461384366628452\\
62	0.131645922218714\\
63	0.0273863247781758\\
64	0.029795012117331\\
65	0.00702055888214409\\
66	0.0240793369464497\\
67	0.0192019502620654\\
68	0.0201902250899055\\
69	0.010679940993984\\
70	0.0146347183006979\\
71	0.0285011945973598\\
72	0.0384668566282351\\
73	0.0361213197900949\\
74	0.960742961789176\\
75	0.0357717443586115\\
76	0.0378051783096868\\
77	0.0276680990748981\\
78	0.0155869584055134\\
79	0.0118612716312749\\
80	0.0209256795523609\\
81	0.0196482549352163\\
82	0.0263036262096755\\
83	0.00773918191423108\\
84	0.0284909548837038\\
85	0.0271493279142998\\
86	0.131039440185483\\
87	0.0466967146666895\\
88	0.0318906073031713\\
89	0.0621237876951652\\
90	0.0229899957594088\\
91	0.0321280649850542\\
92	0.00887403935395432\\
93	0.00804316744910302\\
94	0.00961492585815116\\
95	0.00311745732019154\\
96	0.000619816931788574\\
97	0.00653012745562019\\
98	0.0155021493579087\\
99	0.0292098552001153\\
100	0.0109850136283355\\
101	0.0554223478433269\\
102	0.0104291757772477\\
103	0.0198018496129331\\
104	0.00110096687919724\\
105	0.00292644495008902\\
106	0.00927125654069302\\
107	0.00567411332400048\\
108	0.0040640855663268\\
109	0.00135489639294875\\
110	0.00331079132211812\\
111	0.00806756099904071\\
112	0.00217513031454667\\
113	0.0103636929203469\\
114	0.00730480588354864\\
115	0.0120895776182553\\
116	0.00829160836357483\\
117	5.67866541237601e-05\\
118	0.00471229105610153\\
119	0.000691083008737149\\
120	0.000230612269351704\\
121	0.000643690070184304\\
122	0.00014084079523089\\
123	0.000281459208450688\\
124	0.00155496305562269\\
125	0.00121047444684417\\
126	0.002978801042287\\
127	4.37117439092084e-05\\
128	0.000856052414040317\\
129	0.000371754570149228\\
130	0.000158288063559642\\
131	2.08553526165652e-05\\
132	0.000123300838423995\\
133	8.59790766197016e-05\\
134	6.81229775569843e-05\\
135	2.02908191648385e-05\\
136	0.000213455990569889\\
137	1.27994379757855e-05\\
138	6.41053841323523e-05\\
139	4.65852312085522e-05\\
140	5.56442898368939e-05\\
141	7.54572345868915e-05\\
142	2.33053744309582e-05\\
143	0.000172035035921767\\
144	3.31200262957036e-05\\
145	9.24668396658891e-05\\
146	3.68543922885747e-05\\
147	9.44343961330578e-05\\
148	4.21147219219268e-05\\
149	2.715799615914e-05\\
};
\addlegendentry{$\mathbf{\hat{h}_{2}}$}

\end{axis}
\end{tikzpicture}%