% This file was created by matlab2tikz.
%
%The latest updates can be retrieved from
%  http://www.mathworks.com/matlabcentral/fileexchange/22022-matlab2tikz-matlab2tikz
%where you can also make suggestions and rate matlab2tikz.
%
\definecolor{mycolor1}{rgb}{0.00000,0.44700,0.74100}%
\definecolor{mycolor2}{rgb}{0.85000,0.32500,0.09800}%
%
\begin{tikzpicture}

\begin{axis}[%
width=1.935in,
height=3.2in,
at={(0.758in,0.512in)},
scale only axis,
xmin=0,
xmax=200,
xlabel style={font=\color{white!15!black}, align=center},
xlabel={Sample Index\\[1ex](a) Actual},
ymin=0,
ymax=1,
axis background/.style={fill=white},
legend style={legend cell align=left, align=left, draw=white!15!black}
]
\addplot [color=mycolor1]
  table[row sep=crcr]{%
1	0.0167418731260698\\
2	0.018659722218203\\
3	0.0211495716349754\\
4	0.0245407494314006\\
5	0.029505643974117\\
6	0.0377161636169434\\
7	0.0550750576238134\\
8	0.131028403455825\\
9	0.141533477104454\\
10	0.158175166246243\\
11	0.163761757297189\\
12	0.600100605556833\\
13	0.118033417583129\\
14	0.0610914209628117\\
15	0.0426162246246858\\
16	0.0332715711707656\\
17	0.0321939439283243\\
18	0.0268871008873183\\
19	0.0316920608120786\\
20	0.0286771919664519\\
21	0.00773119825769845\\
22	0.0330073087209196\\
23	0.019415059292473\\
24	0.0177688778425817\\
25	0.0188194600762088\\
26	0.0237714798713867\\
27	0.0430806655948836\\
28	0.586023006720236\\
29	0.0970905103802927\\
30	0.0246981078960262\\
31	0.0780346253424249\\
32	0.0580455436901626\\
33	0.0681836526256362\\
34	0.163824852865525\\
35	0.0446106828365612\\
36	0.06119675966513\\
37	0.00907835157153909\\
38	0.0310093774848825\\
39	0.00125972832884384\\
40	0.005422098150711\\
41	0.0107374596162295\\
42	0.0165479326643041\\
43	0.024789327411243\\
44	0.0446277431282512\\
45	0.058019450740893\\
46	0.074843365423057\\
47	0.199666615467323\\
48	0.216838516027539\\
49	0.0783890355452335\\
50	0.0495529240878659\\
51	0.0370791446049236\\
52	0.0307530810094058\\
53	0.0155757068681131\\
54	0.0198807977432187\\
55	0.0179871495341263\\
56	0.0162887905400521\\
57	0.0148728268904216\\
58	0.0136909847461918\\
59	0.0126943671543235\\
60	0.011846112844806\\
61	0.0111233301448608\\
62	0.0105291449791113\\
63	0.0102108676347222\\
64	0.00751288118280402\\
65	0.00739035992869396\\
66	0.0116365722557393\\
67	0.00899390796280924\\
68	0.00831157148096884\\
69	0.00788086875151191\\
70	0.00754217236777393\\
71	0.00725475830161164\\
72	0.00700327644843893\\
73	0.006780818536885\\
74	0.00658453626015097\\
75	0.00641472878078445\\
76	0.00627599401250467\\
77	0.00618216997550965\\
78	0.00617516728867787\\
79	0.00642745729543014\\
80	0.00873051939586948\\
81	0.00471465923588381\\
82	0.00195996010568866\\
83	0.004980313957114\\
84	0.00475839614864904\\
85	0.00464733241660508\\
86	0.00455444244400457\\
87	0.00446749239384432\\
88	0.00438406292262191\\
89	0.00430366820355207\\
90	0.00422628355118023\\
91	0.00415201532524293\\
92	0.00408104289588831\\
93	0.00401365198230764\\
94	0.00395033763548775\\
95	0.00389203620501121\\
96	0.00384070443755282\\
97	0.00380107128140597\\
98	0.00378779867734327\\
99	0.00387836096292209\\
100	0.00228454900881806\\
101	0.00321909463290553\\
102	0.00328982387499096\\
103	0.00328100374444436\\
104	0.00325253146337885\\
105	0.00321692683031362\\
106	0.00317840637543852\\
107	0.00313876414674543\\
108	0.00309887602618152\\
109	0.00305920797263281\\
110	0.00302002111537278\\
111	0.00298146552488656\\
112	0.00294362726599965\\
113	0.0029065537719176\\
114	0.00287026833389302\\
115	0.00283477876811283\\
116	0.00280008280049957\\
117	0.00276617151884636\\
118	0.00273303164395387\\
119	0.00270064705586787\\
120	0.00266899983729428\\
121	0.00263807099659409\\
122	0.00260784097374635\\
123	0.00257828999668392\\
124	0.00254939833288439\\
125	0.00252114646667125\\
126	0.00249351522323938\\
127	0.00246648585412356\\
128	0.00244004009455901\\
129	0.00241416020024051\\
130	0.00238882896892876\\
131	0.0023640297508985\\
132	0.00233974645117835\\
133	0.00231596352577768\\
134	0.00229266597354371\\
135	0.00226983932488367\\
136	0.00224746962828519\\
137	0.00222554343533969\\
138	0.00220404778480324\\
139	0.00218297018609978\\
140	0.00216229860257188\\
141	0.00214202143470905\\
142	0.00212212750352594\\
143	0.00210260603421662\\
144	0.00208344664017788\\
145	0.00206463930746792\\
146	0.00204617437974413\\
147	0.00202804254371082\\
148	0.00201023481509265\\
149	0.00199274252514179\\
150	0.00197555730767936\\
151	0.0019586710866655\\
152	0.00194207606428942\\
153	0.00192576470956709\\
154	0.00190972974743187\\
155	0.00189396414830307\\
156	0.00187846111811499\\
157	0.00186321408878906\\
158	0.00184821670913216\\
159	0.00183346283614256\\
160	0.00181894652670628\\
161	0.00180466202966742\\
162	0.00179060377825436\\
163	0.00177676638284649\\
164	0.00176314462406556\\
165	0.00174973344617591\\
166	0.0017365279507797\\
167	0.00172352339079259\\
168	0.00171071516468654\\
169	0.00169809881098722\\
170	0.00168567000301325\\
171	0.00167342454384613\\
172	0.00166135836151948\\
173	0.00164946750441694\\
174	0.00163774813686889\\
175	0.00162619653493841\\
176	0.00161480908238697\\
177	0.00160358226681213\\
178	0.001592512675948\\
179	0.00158159699412143\\
180	0.00157083199885632\\
181	0.00156021455761888\\
182	0.00154974162469766\\
183	0.00153941023821136\\
184	0.00152921751723897\\
185	0.00151916065906659\\
186	0.00150923693654504\\
187	0.00149944369555362\\
188	0.00148977835256491\\
189	0.00148023839230615\\
190	0.0014708213655126\\
191	0.00146152488676917\\
192	0.00145234663243548\\
193	0.00144328433865201\\
194	0.00143433579942216\\
195	0.0014254988647679\\
196	0.00141677143895562\\
197	0.00140815147878894\\
198	0.00139963699196521\\
199	0\\
200	0\\
};
\addlegendentry{$\mathbf{h_1}$}

\addplot [color=mycolor2]
  table[row sep=crcr]{%
1	0.00495033386861547\\
2	0.00515738368500011\\
3	0.00538309861623286\\
4	0.00563019833310769\\
5	0.00590197136255583\\
6	0.00620243506959928\\
7	0.00653655369620811\\
8	0.00691054090538825\\
9	0.00733228812251618\\
10	0.00781198494389501\\
11	0.00836304134465097\\
12	0.0090034999823859\\
13	0.00975827527656913\\
14	0.0106628508662167\\
15	0.0117696896019869\\
16	0.0131600228416925\\
17	0.0149671880151623\\
18	0.0174273921400842\\
19	0.0210049332363351\\
20	0.0267613442180004\\
21	0.037792597580649\\
22	0.068721841139076\\
23	0.97572931769219\\
24	0.0649085399616321\\
25	0.0262918397391367\\
26	0.0126468169615953\\
27	0.00419508123086451\\
28	0.0214241856295046\\
29	0.0134643328328179\\
30	0.00412679327935559\\
31	0.0112712342656943\\
32	0.0282552508318709\\
33	0.111702725947746\\
34	0.12653020104749\\
35	0.0361926668223949\\
36	0.024130019396178\\
37	0.019518168382204\\
38	0.0163235660243771\\
39	0.0140849625225472\\
40	0.0124312948441269\\
41	0.0111552918846637\\
42	0.0101369616841952\\
43	0.00930266674553233\\
44	0.00860476970863487\\
45	0.00801105372801389\\
46	0.00749890841387189\\
47	0.00705196472677567\\
48	0.00665805661850076\\
49	0.0063079366485928\\
50	0.00599443852440938\\
51	0.00571191453485358\\
52	0.00545584764793091\\
53	0.0052225778141873\\
54	0.00500910486747672\\
55	0.00481294397681212\\
56	0.00463201789166602\\
57	0.00446457542356871\\
58	0.00430912894812168\\
59	0.00416440590497024\\
60	0.00402931074167137\\
61	0.00390289474814389\\
62	0.00378433192171684\\
63	0.00367289949042518\\
64	0.0035679620699816\\
65	0.00346895868109233\\
66	0.00337539203747226\\
67	0.00328681965070268\\
68	0.00320284639950925\\
69	0\\
70	0\\
71	0\\
72	0\\
73	0\\
74	0\\
75	0\\
76	0\\
77	0\\
78	0\\
79	0\\
80	0\\
81	0\\
82	0\\
83	0\\
84	0\\
85	0\\
86	0\\
87	0\\
88	0\\
89	0\\
90	0\\
91	0\\
92	0\\
93	0\\
94	0\\
95	0\\
96	0\\
97	0\\
98	0\\
99	0\\
100	0\\
101	0\\
102	0\\
103	0\\
104	0\\
105	0\\
106	0\\
107	0\\
108	0\\
109	0\\
110	0\\
111	0\\
112	0\\
113	0\\
114	0\\
115	0\\
116	0\\
117	0\\
118	0\\
119	0\\
120	0\\
121	0\\
122	0\\
123	0\\
124	0\\
125	0\\
126	0\\
127	0\\
128	0\\
129	0\\
130	0\\
131	0\\
132	0\\
133	0\\
134	0\\
135	0\\
136	0\\
137	0\\
138	0\\
139	0\\
140	0\\
141	0\\
142	0\\
143	0\\
144	0\\
145	0\\
146	0\\
147	0\\
148	0\\
149	0\\
150	0\\
151	0\\
152	0\\
153	0\\
154	0\\
155	0\\
156	0\\
157	0\\
158	0\\
159	0\\
160	0\\
161	0\\
162	0\\
163	0\\
164	0\\
165	0\\
166	0\\
167	0\\
168	0\\
169	0\\
170	0\\
171	0\\
172	0\\
173	0\\
174	0\\
175	0\\
176	0\\
177	0\\
178	0\\
179	0\\
180	0\\
181	0\\
182	0\\
183	0\\
184	0\\
185	0\\
186	0\\
187	0\\
188	0\\
189	0\\
190	0\\
191	0\\
192	0\\
193	0\\
194	0\\
195	0\\
196	0\\
197	0\\
198	0\\
199	0\\
200	0\\
};
\addlegendentry{$\mathbf{h_{2}}$}

\end{axis}

\begin{axis}[%
width=1.935in,
height=3.2in,
at={(3.327in,0.512in)},
scale only axis,
xmin=0,
xmax=200,
xlabel style={font=\color{white!15!black}, align=center},
xlabel={Sample Index\\[1ex](b) Estimated},
ymin=0,
ymax=1,
axis background/.style={fill=white},
legend style={legend cell align=left, align=left, draw=white!15!black}
]
\addplot [color=mycolor1]
  table[row sep=crcr]{%
0	0.00562237127214655\\
1	0.0179161571757766\\
2	0.0228975702877307\\
3	0.0106424308372229\\
4	0.0332449899473034\\
5	0.0165162516025135\\
6	0.0128506602694073\\
7	0.00883830825634116\\
8	0.0121708336189897\\
9	0.0265738588420219\\
10	0.0139546080221398\\
11	0.00795220482982791\\
12	0.00385034087011331\\
13	0.0114347082052808\\
14	0.00739358589078823\\
15	0.023647480725148\\
16	0.0153563932462711\\
17	0.00562240940360297\\
18	0.0105160555640431\\
19	0.0166889455645753\\
20	0.032571694582214\\
21	0.0131274425672485\\
22	0.0100399601187991\\
23	0.0280178304586033\\
24	0.00350684982852144\\
25	0.017651683276592\\
26	0.0107031497350652\\
27	0.00236446216693024\\
28	0.0198981327033324\\
29	0.0127394500383781\\
30	0.0269955410255609\\
31	0.0119322548811665\\
32	0.0142127768468012\\
33	0.0199597140228575\\
34	0.00960442394139188\\
35	0.0256079299940663\\
36	0.0237748877307858\\
37	0.018950410133917\\
38	0.0227368674988636\\
39	0.0258608070910747\\
40	0.00169378203188167\\
41	0.013287777421966\\
42	0.0040981397457484\\
43	0.00751163372020063\\
44	0.0130420872158336\\
45	0.0139690010494387\\
46	0.0100418076017633\\
47	0.00827713659533313\\
48	0.0187541920111667\\
49	0.00589522442573289\\
50	0.0116747769106743\\
51	0.00940046676753969\\
52	0.00524558424462684\\
53	0.00442075795479958\\
54	0.0162432633830182\\
55	0.0134996784900713\\
56	0.0103176152175316\\
57	0.0188417175721202\\
58	0.0202118423400677\\
59	0.00632450951741674\\
60	0.0231276795676512\\
61	0.0118720833312119\\
62	0.00457409112761916\\
63	0.0168490914552929\\
64	0.0124057082830176\\
65	0.0259408408187485\\
66	0.029629775647209\\
67	0.00859905072075758\\
68	0.0187700591822917\\
69	0.0130803884383417\\
70	0.00350432195559614\\
71	0.00957537664196082\\
72	0.0205798124729215\\
73	0.0131212447172636\\
74	0.0459241710036634\\
75	0.0309971661721916\\
76	0.0508265051150764\\
77	0.0865028705941433\\
78	0.0152645422342741\\
79	0.0239685866719767\\
80	0.0292025321458096\\
81	0.0387170904040027\\
82	0.0544756042866746\\
83	0.0641500469569938\\
84	0.147003126247267\\
85	0.110039485789024\\
86	0.124256004565353\\
87	0.207752449472121\\
88	0.550091099719482\\
89	0.120488257007026\\
90	0.0524089607161348\\
91	0.0505078326030901\\
92	0.0658320821199765\\
93	0.0643420289794759\\
94	0.0744501838218261\\
95	0.0421921967807572\\
96	0.027581663326235\\
97	0.0175520889061934\\
98	0.0618468985413392\\
99	0.0348207454834358\\
100	0.0674628008309154\\
101	0.0311887511826462\\
102	0.043506761192254\\
103	0.0936186572142037\\
104	0.565442222791034\\
105	0.118686718080681\\
106	0.0334729017006582\\
107	0.0822506355232733\\
108	0.0699736894035135\\
109	0.0754957248166589\\
110	0.164088021277905\\
111	0.0182289386451623\\
112	0.0658141233951684\\
113	0.0320412790149412\\
114	0.0278283295080228\\
115	0.0163516444014672\\
116	0.0353238817701017\\
117	0.0167834611829808\\
118	0.00987745469974548\\
119	0.0319293289234982\\
120	0.0254641177793878\\
121	0.0632967050578391\\
122	0.0762328875198413\\
123	0.204290529681643\\
124	0.192763306127874\\
125	0.0661849590538025\\
126	0.0471972436798804\\
127	0.027775567026489\\
128	0.0269725111885611\\
129	0.0241719291536582\\
130	0.0227330678387404\\
131	0.0244745563979891\\
132	0.00486367611300971\\
133	0.014383458190278\\
134	0.0173731601112334\\
135	0.0169015096522881\\
136	0.00929196943717624\\
137	0.0113615590787367\\
138	0.0151501664657445\\
139	0.0145090136000803\\
140	0.00719198001203154\\
141	0.0122352885705478\\
142	0.0186586358747323\\
143	0.0140526845634996\\
144	0.00410290563166225\\
145	0.00835103393435459\\
146	0.035624132007942\\
147	0.00508712867795181\\
148	0.0117339550134982\\
149	0.00309671852084943\\
150	0.021736377384406\\
151	0.0148973894146976\\
152	0.00468470907519352\\
153	0.0276558481181906\\
154	0.00361233373797664\\
155	0.0240588354956718\\
156	0.0155573670284258\\
157	0.00669034987138898\\
158	0.00349132770416287\\
159	0.0144308098428819\\
160	0.0178385119620694\\
161	0.0114960163493913\\
162	0.0248614270106455\\
163	0.0117041241027137\\
164	0.0198096195186279\\
165	0.0110328593847891\\
166	0.024534794319425\\
167	0.0164552307237234\\
168	0.00254060444990395\\
169	0.0212291034358367\\
170	0.0182701240993619\\
171	0.02292053589444\\
172	0.0210807998038988\\
173	0.0349174944259058\\
174	0.0145021117728442\\
175	0.00727447237351652\\
176	0.00624511177083063\\
177	0.00470762304973555\\
178	0.00783719664334173\\
179	0.00896306706215473\\
180	0.00578914697664586\\
181	0.00773726877316448\\
182	0.00775076545073922\\
183	0.00658579397691521\\
184	0.00661696443504421\\
185	0.00153350095729094\\
186	0.0193847688029923\\
187	0.0133391998262629\\
188	0.0174096613504696\\
189	0.0296294281973962\\
190	0.0201925718753287\\
191	0.0123891040717155\\
192	0.0277377506749358\\
193	0.00888083386261393\\
194	0.00932862165629174\\
195	0.0112191084978794\\
196	0.019569132808944\\
197	0.00560174481434904\\
198	0.0145436693058611\\
199	0.00849233694703852\\
};
\addlegendentry{$\mathbf{\hat{h}_{1}}$}

\addplot [color=mycolor2]
  table[row sep=crcr]{%
0	8.57551122632291e-05\\
1	0.000244940007798081\\
2	9.16177792421355e-05\\
3	7.12670523324569e-05\\
4	3.41153956458062e-05\\
5	0.000227147166216888\\
6	0.000124108341215037\\
7	0.000162495078116583\\
8	3.97637757213274e-05\\
9	7.18464809660887e-05\\
10	0.00014283067703792\\
11	0.000245211190251627\\
12	0.000162830651399369\\
13	0.000112831112765137\\
14	0.00029676349523947\\
15	0.000433071187861251\\
16	0.00020941940078915\\
17	9.19031839000979e-05\\
18	0.000211195048863477\\
19	7.06286851837582e-05\\
20	0.000201138803279965\\
21	8.00562257013117e-05\\
22	8.87675937013246e-05\\
23	4.22975021008481e-05\\
24	0.000109680996011528\\
25	0.00025095617923015\\
26	0.000158940941988048\\
27	8.3029821266506e-05\\
28	0.000112623100100905\\
29	3.02183789166104e-05\\
30	0.00026349613944145\\
31	0.000244207918716448\\
32	0.000218702888598327\\
33	3.01040696102022e-05\\
34	0.000396529958992502\\
35	2.36452420592187e-05\\
36	3.02401417424668e-05\\
37	0.000206343512637573\\
38	0.000100062156768772\\
39	0.000176509628245307\\
40	0.000112707191742002\\
41	0.000328862085439656\\
42	0.000116274082904276\\
43	0.000155014976276783\\
44	0.000153367087905485\\
45	7.69372235434885e-05\\
46	0.000129553285023374\\
47	8.3757052046697e-05\\
48	0.000265118772369883\\
49	0.000178308139602847\\
50	0.000191661507891187\\
51	4.24721711965321e-05\\
52	0.000176721800059957\\
53	3.46977858852182e-05\\
54	3.4960658827194e-05\\
55	0.000150099589121073\\
56	2.45160714177912e-05\\
57	0.000189999167487969\\
58	0.000111036224714534\\
59	0.000152675383973637\\
60	0.000662775436640849\\
61	0.000465705197805087\\
62	0.000175684040941676\\
63	0.00135348104253666\\
64	0.000426188949939174\\
65	0.000363550300755496\\
66	0.000409974119903546\\
67	7.59271127907734e-05\\
68	0.000252550748653432\\
69	7.00758346473985e-05\\
70	5.63818636729273e-05\\
71	8.24968656474165e-05\\
72	0.000231892940727693\\
73	0.000557044608956536\\
74	1.19475079233867e-05\\
75	0.00030309488892861\\
76	0.000680751676844782\\
77	0.000542958787164176\\
78	0.000513307386044453\\
79	0.00127077603843806\\
80	0.00153550431447768\\
81	0.00084559116683802\\
82	0.000337544295905044\\
83	0.00293589776475184\\
84	0.000425516474841574\\
85	0.000208219859755393\\
86	0.000523604816658935\\
87	0.000643709981959456\\
88	0.00028067835572984\\
89	0.000165678780109575\\
90	0.000309614930764976\\
91	0.000619526166172487\\
92	0.000234026635644924\\
93	0.000389989458661133\\
94	7.18351317119194e-05\\
95	0.000245585018859416\\
96	0.0013805812880915\\
97	0.000697737702532685\\
98	0.00013847919085558\\
99	0.999976042563878\\
100	0.000139668564493018\\
101	0.000689029716971798\\
102	0.00138693856387847\\
103	0.000248625337407801\\
104	6.12163854378045e-05\\
105	0.000390745624721473\\
106	0.00023280731325623\\
107	0.000625443857914127\\
108	0.000301587284671102\\
109	0.000174378131114534\\
110	0.000293215734933212\\
111	0.000616268384702678\\
112	0.000528060726510542\\
113	0.000222297940095507\\
114	0.000409046778699367\\
115	0.00294687190011292\\
116	0.000346832670397725\\
117	0.000819217217560491\\
118	0.00153678198543255\\
119	0.00127435915452503\\
120	0.000515354264716317\\
121	0.000548729862660045\\
122	0.000700799882340722\\
123	0.00032439727942245\\
124	3.09513402884818e-05\\
125	0.000567941514392803\\
126	0.0002304788370505\\
127	6.60718415358837e-05\\
128	9.035729807522e-05\\
129	0.000103170193563677\\
130	0.000231904322896009\\
131	6.92279232536449e-05\\
132	0.00039922239294085\\
133	0.000340245513871268\\
134	0.000458029095404037\\
135	0.00136655643349292\\
136	0.000197791337504438\\
137	0.000477036347863348\\
138	0.000669728904031381\\
139	0.000142471920348725\\
140	0.000114933815355264\\
141	0.000208432691328594\\
142	3.7940833347771e-05\\
143	0.000179876362279586\\
144	6.26586700200722e-05\\
145	3.36176227740457e-05\\
146	0.000165324582330069\\
147	2.05872576069923e-05\\
148	0.000162898243713821\\
149	0.000197788962109104\\
150	0.000241631629031283\\
151	9.6317869078715e-05\\
152	0.000131200058536828\\
153	3.81435737272613e-05\\
154	0.000173198969150174\\
155	0.000147161678885321\\
156	0.000116147362298267\\
157	0.000334552396801875\\
158	0.000117113086041785\\
159	0.000155741917996954\\
160	7.80807411815012e-05\\
161	0.000185873048640598\\
162	2.72066367779822e-05\\
163	5.79858722644925e-05\\
164	0.00038651407928465\\
165	4.3499902496159e-05\\
166	0.000199788910563885\\
167	0.000269241150350482\\
168	0.000247094025047056\\
169	4.84591362507324e-05\\
170	0.000127129566361752\\
171	0.000112275831493973\\
172	0.000138497309894199\\
173	0.000222381419901605\\
174	0.000123251522331186\\
175	6.07151408595152e-05\\
176	7.43054765599954e-05\\
177	8.97536619679887e-05\\
178	0.000187497998572322\\
179	9.28272506560141e-05\\
180	0.000197017189534553\\
181	0.000133435632101167\\
182	0.00017793436712699\\
183	0.000415503105269727\\
184	0.000300949332556933\\
185	0.000121070568251486\\
186	0.000135788184792396\\
187	0.00018514492975943\\
188	8.60271750764553e-05\\
189	6.16444677695291e-05\\
190	5.24828214325206e-05\\
191	0.000125126829894165\\
192	0.000100544823217607\\
193	0.000190408268267127\\
194	3.37257010485012e-05\\
195	7.56565741209367e-05\\
196	0.000130914399987741\\
197	0.000275430070242936\\
198	5.44700227359427e-05\\
199	0.000145000892716491\\
};
\addlegendentry{$\mathbf{\hat{h}_{2}}$}

\end{axis}
\end{tikzpicture}%