% This file was created by matlab2tikz.
%
%The latest updates can be retrieved from
%  http://www.mathworks.com/matlabcentral/fileexchange/22022-matlab2tikz-matlab2tikz
%where you can also make suggestions and rate matlab2tikz.
%
\definecolor{mycolor1}{rgb}{0.00000,0.44700,0.74100}%
\definecolor{mycolor2}{rgb}{0.85000,0.32500,0.09800}%
%
\begin{tikzpicture}

\begin{axis}[%
width=1.952in,
height=3.2in,
at={(0.758in,0.512in)},
scale only axis,
xmin=0,
xmax=20,
xlabel style={font=\color{white!15!black}, align=center},
xlabel={Sample Index\\[1ex](a) Actual},
ymin=0,
ymax=0.9,
axis background/.style={fill=white},
legend style={legend cell align=left, align=left, draw=white!15!black}
]
\addplot [color=mycolor1]
  table[row sep=crcr]{%
1	0.0444337104356374\\
2	0.738127803558165\\
3	0.357839506790865\\
4	0.481268775571525\\
5	0.10955194752004\\
6	0.267783168107473\\
7	0.0769544524124665\\
8	0.0372836026936495\\
9	0.027789744685169\\
10	0.0196434178633453\\
11	0.0212138243269196\\
12	0.0147156812719569\\
13	0.0126517206023441\\
14	0.0111331007215966\\
15	0.00994473974674355\\
16	0.00898571135769806\\
17	0.00819466874468931\\
18	0.00753086667278431\\
19	0.00696589032366256\\
20	0.00647923877975415\\
};
\addlegendentry{$\mathbf{h_1}$}

\addplot [color=mycolor2]
  table[row sep=crcr]{%
1	0.0696363384444256\\
2	0.13399148454392\\
3	0.889181852408627\\
4	0.426869408918664\\
5	0.0527923084371181\\
6	0.0393468637154593\\
7	0\\
8	0\\
9	0\\
10	0\\
11	0\\
12	0\\
13	0\\
14	0\\
15	0\\
16	0\\
17	0\\
18	0\\
19	0\\
20	0\\
};
\addlegendentry{$\mathbf{h_{2}}$}

\end{axis}

\begin{axis}[%
width=1.952in,
height=3.2in,
at={(3.327in,0.512in)},
scale only axis,
xmin=0,
xmax=20,
xlabel style={font=\color{white!15!black}, align=center},
xlabel={Sample Index\\[1ex](b) Estimated},
ymin=-0.2,
ymax=1,
axis background/.style={fill=white},
legend style={legend cell align=left, align=left, draw=white!15!black}
]
\addplot [color=mycolor1]
  table[row sep=crcr]{%
0	0.0213969030375745\\
0.25	0.0232766303801551\\
0.5	0.0250392351756808\\
0.75	0.0265634034613274\\
1	0.0277220006679749\\
1.25	0.028343905513019\\
1.5	0.0283772179808312\\
1.75	0.0277510813574229\\
2	0.0264331839164647\\
2.25	0.0245948252443727\\
2.5	0.0221276285774971\\
2.75	0.0191979543081148\\
3	0.0161396842561488\\
3.25	0.0126985802437991\\
3.5	0.01066156658212\\
3.75	0.0109565474618516\\
4	0.0141610524429939\\
4.25	0.0210920551039556\\
4.5	0.0300919877491556\\
4.75	0.0399745912917853\\
5	0.0496146360684219\\
5.25	0.0558335643121337\\
5.5	0.0623637545034428\\
5.75	0.07080046860969\\
6	0.0825827626845704\\
6.25	0.107690878727682\\
6.5	0.132687808559761\\
6.75	0.154512316834256\\
7	0.173433810019822\\
7.25	0.171688781004221\\
7.5	0.191656798814735\\
7.75	0.250693833056771\\
8	0.356415422024769\\
8.25	0.539435214702357\\
8.5	0.719421011549799\\
8.75	0.848604237178867\\
9	0.887367370657952\\
9.25	0.769698497480566\\
9.5	0.573196923838574\\
9.75	0.347008225452134\\
10	0.144573735749921\\
10.25	0.0515494475160168\\
10.5	0.026099421080628\\
10.75	0.0506965814336494\\
11	0.0973153331468267\\
11.25	0.108636019842099\\
11.5	0.106337328939922\\
11.75	0.0914444442405232\\
12	0.0706342468321407\\
12.25	0.0660018299055364\\
12.5	0.0647990862220631\\
12.75	0.066114662389727\\
13	0.0679595684464712\\
13.25	0.063992073838417\\
13.5	0.0586550214485156\\
13.75	0.0526185843104642\\
14	0.0466375506250816\\
14.25	0.0422306544664452\\
14.5	0.0382666723305359\\
14.75	0.0343203901114416\\
15	0.0299491214489952\\
15.25	0.0239320172433229\\
15.5	0.0178191710092799\\
15.75	0.0123765547262495\\
16	0.00834474504168269\\
16.25	0.0069478120394656\\
16.5	0.00721403632139764\\
16.75	0.00859947111491292\\
17	0.0104312668914754\\
17.25	0.0115366941300604\\
17.5	0.0123628283565229\\
17.75	0.0129907430608683\\
18	0.0136253328383463\\
18.25	0.0147678280843764\\
18.5	0.0161828086013646\\
18.75	0.0178313003669744\\
19	0.0196128698495643\\
19.25	0.0213864964734594\\
19.5	0.0230318323812986\\
19.75	0.0244499687560574\\
};
\addlegendentry{$\mathbf{\hat{h}_{1}}$}

\addplot [color=mycolor2]
  table[row sep=crcr]{%
0	0.00715233992410603\\
0.25	0.00768599173638089\\
0.5	0.00811484512379614\\
0.75	0.00835763194455692\\
1	0.00837711889122993\\
1.25	0.00810309724027575\\
1.5	0.00774486071203706\\
1.75	0.00745079124774801\\
2	0.00735955460153276\\
2.25	0.00770538811811781\\
2.5	0.00831133606153787\\
2.75	0.00910125532312596\\
3	0.00999797033628004\\
3.25	0.0106880794183164\\
3.5	0.0115970580351588\\
3.75	0.0128875947367188\\
4	0.0146686543081831\\
4.25	0.0171675253679169\\
4.5	0.0199391106212157\\
4.75	0.022705061264316\\
5	0.0252178822576229\\
5.25	0.0233250242082887\\
5.5	0.0231644125799589\\
5.75	0.0262942803127138\\
6	0.0329516852767251\\
6.25	0.0581189969331552\\
6.5	0.0744740762279373\\
6.75	0.0740292358907255\\
7	0.0561236889404156\\
7.25	-0.00791825010436284\\
7.5	-0.0426206534627519\\
7.75	-0.0122723177202815\\
8	0.104192357852471\\
8.25	0.363211857755533\\
8.5	0.643603992557286\\
8.75	0.871986617137129\\
9	0.983579073598292\\
9.25	0.872012583182865\\
9.5	0.643654470887185\\
9.75	0.363284170901877\\
10	0.104283044626632\\
10.25	-0.0121682138542468\\
10.5	-0.0425059117066206\\
10.75	-0.00779463301582755\\
11	0.0562550458055385\\
11.25	0.0741687855157969\\
11.5	0.074618546957075\\
11.75	0.0582626527576563\\
12	0.0330864916574365\\
12.25	0.0264081551478403\\
12.5	0.0232490433471428\\
12.75	0.0233743659745133\\
13	0.0252287427439446\\
13.25	0.0226811641415174\\
13.5	0.0198807870241632\\
13.75	0.0170760558132896\\
14	0.0145473432802017\\
14.25	0.0127355368026278\\
14.5	0.0114300508892272\\
14.75	0.0105301091562494\\
15	0.00987797429677647\\
15.25	0.00905080765284392\\
15.5	0.00835186815969864\\
15.75	0.00784662894607719\\
16	0.00759748646982466\\
16.25	0.00778343446437348\\
16.5	0.00813980380492806\\
16.75	0.00852232139749238\\
17	0.00879182940708429\\
17.25	0.0087091389232903\\
17.5	0.00846619700444044\\
17.75	0.00816148125156242\\
18	0.00791213472878104\\
18.25	0.00788913794439474\\
18.5	0.00804268823990267\\
18.75	0.00834624568308505\\
19	0.00873512989058264\\
19.25	0.00912047652795745\\
19.5	0.00942262842326468\\
19.75	0.00957758426664777\\
};
\addlegendentry{$\mathbf{\hat{h}_{2}}$}

\end{axis}
\end{tikzpicture}%