% This file was created by matlab2tikz.
%
%The latest updates can be retrieved from
%  http://www.mathworks.com/matlabcentral/fileexchange/22022-matlab2tikz-matlab2tikz
%where you can also make suggestions and rate matlab2tikz.
%
\definecolor{mycolor1}{rgb}{0.00000,0.44700,0.74100}%
\definecolor{mycolor2}{rgb}{0.85000,0.32500,0.09800}%
%
\begin{tikzpicture}

\begin{axis}[%
width=1.935in,
height=3.2in,
at={(0.758in,0.512in)},
scale only axis,
xmin=0,
xmax=100,
xlabel style={font=\color{white!15!black}, align=center},
xlabel={Sample Index\\[1ex](a) Actual},
ymin=0,
ymax=0.8,
axis background/.style={fill=white},
legend style={legend cell align=left, align=left, draw=white!15!black}
]
\addplot [color=mycolor1]
  table[row sep=crcr]{%
1	0.0129538532238509\\
2	0.0157278361368032\\
3	0.0191571608138802\\
4	0.0255923724575832\\
5	0.13057228915146\\
6	0.790598288418654\\
7	0.353827376030412\\
8	0.122418300101408\\
9	0.229084031593214\\
10	0.118243319340586\\
11	0.168368944374742\\
12	0.0163735399430034\\
13	0.0206849651924714\\
14	0.0262956791329175\\
15	0.151852199158411\\
16	0.152742171024721\\
17	0.110720168991091\\
18	0.123153341936425\\
19	0.125894992669405\\
20	0.0746063601393855\\
21	0.0186653655418556\\
22	0.0250643995407145\\
23	0.00974111680189212\\
24	0.0779603151980655\\
25	0.0307172164925168\\
26	0.0208261989317089\\
27	0.0752294272267323\\
28	0.0144668561504321\\
29	0.0123363814366294\\
30	0.0122598477519198\\
31	0.0155350862563734\\
32	0.0418132873290243\\
33	0.0573531042253119\\
34	0.0129196281383963\\
35	0.00895205820328393\\
36	0.00773833898796016\\
37	0.00748874666873079\\
38	0.00800183229182001\\
39	0.00975691772335202\\
40	0.0159028691535576\\
41	0.0384196893347397\\
42	0.0314876195631017\\
43	0.010044387559483\\
44	0.00616684731235577\\
45	0.00479175222070565\\
46	0.00437058826387638\\
47	0.00459828758875363\\
48	0.005652668265702\\
49	0.0087419213913912\\
50	0.0260232215344717\\
51	0.0227474232041571\\
52	0.00780973732786325\\
53	0.00473741257906885\\
54	0.00342802499502385\\
55	0.0027071673231627\\
56	0.00225206144341568\\
57	0.001938695300116\\
58	0.0017095024412107\\
59	0.00153423834592061\\
60	0.00139554782547471\\
61	0.00128278764759102\\
62	0.00118908147787501\\
63	0.00110979542168412\\
64	0.0010416958422628\\
65	0.000982458809342531\\
66	0.000930371514391801\\
67	0.000884143640819322\\
68	0.000842784330423255\\
69	0.000805519676312384\\
70	0.000771736027647173\\
71	0.000740940180026644\\
72	0.000712730877370764\\
73	0.000686778053613698\\
74	0.000662807472321918\\
75	0.000640589196550035\\
76	0.000619928819626308\\
77	0.000600660714929267\\
78	0.000582642781753098\\
79	0.000565752313398667\\
80	0.000549882716621264\\
81	0.000534940883763175\\
82	0.000520845070183068\\
83	0.000507523166470246\\
84	0.00049491128175685\\
85	0.000482952574159901\\
86	0.000471596279030148\\
87	0.000460796896662062\\
88	0.000450513509420678\\
89	0.000440709204573525\\
90	0.000431350583981088\\
91	0.000422407345569488\\
92	0.000413851924447944\\
93	0.000405659183842499\\
94	0.000397806147840094\\
95	0.000390271769389961\\
96	0.000383036728166029\\
97	0.00037608325382988\\
98	0.000369394970986201\\
99	0\\
100	0\\
};
\addlegendentry{$\mathbf{h_1}$}

\addplot [color=mycolor2]
  table[row sep=crcr]{%
1	0.0089849246842337\\
2	0.00955586856755047\\
3	0.0102000386246561\\
4	0.0109303448856752\\
5	0.0117611964369887\\
6	0.0127063869488681\\
7	0.013771787577086\\
8	0.0149309370172528\\
9	0.0160361992437888\\
10	0.0164244433772478\\
11	0.0125495760932937\\
12	0.664036312008792\\
13	0.0850193487524877\\
14	0.131745330322907\\
15	0.128609472347745\\
16	0.0491456993245761\\
17	0.382620258465008\\
18	0.593903782219221\\
19	0.0828507132426594\\
20	0.0515719011856109\\
21	0.0378681896084267\\
22	0.030017391607479\\
23	0.0248946679351547\\
24	0.0212776230780299\\
25	0.0185834085331559\\
26	0.0164971010401923\\
27	0.0148330326444681\\
28	0.0134744221797144\\
29	0.0123440432735997\\
30	0.0113887411741417\\
31	0.0105707107326117\\
32	0.00986231811042315\\
33	0.00924289003134423\\
34	0.00869664894813821\\
35	0\\
36	0\\
37	0\\
38	0\\
39	0\\
40	0\\
41	0\\
42	0\\
43	0\\
44	0\\
45	0\\
46	0\\
47	0\\
48	0\\
49	0\\
50	0\\
51	0\\
52	0\\
53	0\\
54	0\\
55	0\\
56	0\\
57	0\\
58	0\\
59	0\\
60	0\\
61	0\\
62	0\\
63	0\\
64	0\\
65	0\\
66	0\\
67	0\\
68	0\\
69	0\\
70	0\\
71	0\\
72	0\\
73	0\\
74	0\\
75	0\\
76	0\\
77	0\\
78	0\\
79	0\\
80	0\\
81	0\\
82	0\\
83	0\\
84	0\\
85	0\\
86	0\\
87	0\\
88	0\\
89	0\\
90	0\\
91	0\\
92	0\\
93	0\\
94	0\\
95	0\\
96	0\\
97	0\\
98	0\\
99	0\\
100	0\\
};
\addlegendentry{$\mathbf{h_{2}}$}

\end{axis}

\begin{axis}[%
width=1.935in,
height=3.2in,
at={(3.327in,0.512in)},
scale only axis,
xmin=0,
xmax=100,
xlabel style={font=\color{white!15!black}, align=center},
xlabel={Sample Index\\[1ex](b) Estimated},
ymin=0,
ymax=1,
axis background/.style={fill=white},
legend style={legend cell align=left, align=left, draw=white!15!black}
]
\addplot [color=mycolor1]
  table[row sep=crcr]{%
0	1.29298296218015e-05\\
1	3.72710965938493e-06\\
2	1.18817470579785e-05\\
3	2.49117455538061e-06\\
4	2.03852625005576e-05\\
5	1.81589106108026e-05\\
6	1.9343416005257e-05\\
7	2.06523409945108e-06\\
8	6.50869931689768e-06\\
9	1.35110595812483e-05\\
10	4.63007202137228e-05\\
11	2.465420855109e-05\\
12	2.25876633479573e-05\\
13	2.5199681016234e-05\\
14	1.77862890335023e-05\\
15	1.40032506562558e-05\\
16	8.24743998377121e-06\\
17	3.21665073429726e-05\\
18	6.30010308903287e-06\\
19	4.8717438020383e-06\\
20	1.12077008818091e-05\\
21	6.61388234932153e-06\\
22	2.54823603171669e-05\\
23	1.30144826935376e-05\\
24	0.0108296322441878\\
25	0.00121431018594291\\
26	0.0164366615727692\\
27	0.00372780821904974\\
28	0.00257648808394232\\
29	2.69097930507193e-05\\
30	0.0164564866569499\\
31	0.0529009056038777\\
32	0.11706986147962\\
33	0.0346965240789735\\
34	0.0029923530385882\\
35	0.044394678110681\\
36	0.076587957602833\\
37	0.367236272008211\\
38	0.601386008345155\\
39	0.0532968816742832\\
40	0.0434394419207719\\
41	0.0294487113795584\\
42	0.107473140921162\\
43	0.558493792723463\\
44	0.133055119267829\\
45	0.0926364000597849\\
46	0.169320199510416\\
47	0.123076703850998\\
48	0.108956926043344\\
49	0.131946195640748\\
50	0.0663622229247256\\
51	0.0305823936043144\\
52	0.113638329338389\\
53	0.075040256629763\\
54	0.0237037167144442\\
55	0.0923129961518299\\
56	0.0780209559518862\\
57	0.040217590600145\\
58	0.0546051096913402\\
59	0.000454944196997549\\
60	2.21675422558905e-05\\
61	0.0565048037424911\\
62	0.0146211616764216\\
63	0.000159107066631382\\
64	0.00480807809172376\\
65	2.26904123575332e-05\\
66	0.00996713634566561\\
67	3.27281450746522e-05\\
68	0.0157755383080787\\
69	0.0198074344666664\\
70	0.0164038004897463\\
71	2.14155713824182e-05\\
72	0.00493672672515229\\
73	0.0190470518104078\\
74	1.26743475296262e-05\\
75	2.6907851841534e-05\\
76	8.79847469178019e-06\\
77	2.44937197852213e-05\\
78	0.00972762792146054\\
79	2.26705282922523e-05\\
80	9.88056192504455e-06\\
81	2.31167233807372e-06\\
82	0.0147829741636716\\
83	9.26400039343316e-06\\
84	1.61850540223564e-05\\
85	1.99489069306085e-05\\
86	9.15490447691985e-06\\
87	0.000821882228399772\\
88	7.44880195344001e-05\\
89	1.22794558619663e-05\\
90	8.76338015140521e-06\\
91	2.92217412676612e-05\\
92	7.47294666515517e-06\\
93	9.94099215312522e-06\\
94	3.5084406533222e-05\\
95	5.84797994219492e-06\\
96	2.29704955716442e-05\\
97	4.33172992006595e-06\\
98	1.27160560905482e-05\\
99	3.0673725852719e-05\\
};
\addlegendentry{$\mathbf{\hat{h}_{1}}$}

\addplot [color=mycolor2]
  table[row sep=crcr]{%
0	2.33072129821269e-06\\
1	7.34612046205475e-06\\
2	2.4860390901951e-05\\
3	1.25075089540201e-05\\
4	1.77443894517855e-05\\
5	0.0027774215535903\\
6	1.20192608102689e-05\\
7	9.5894874336891e-06\\
8	2.15328430864408e-05\\
9	3.49707219785022e-05\\
10	1.58665816262346e-05\\
11	6.06351313812844e-06\\
12	6.51772442593324e-06\\
13	4.73455690343754e-06\\
14	0.00248436489858074\\
15	0.00102144758639032\\
16	1.07185025499015e-05\\
17	0.00362851440049595\\
18	2.20393337113012e-05\\
19	1.37088423188104e-05\\
20	7.10855728968138e-06\\
21	2.63637876373344e-05\\
22	0.00747188646147265\\
23	0.0241158233196069\\
24	0.0029714625838556\\
25	1.7579927215447e-05\\
26	3.62348608803126e-05\\
27	0.0033560060147575\\
28	0.00921488038109458\\
29	0.0107800114716185\\
30	0.00977248456698123\\
31	0.0114072022360065\\
32	0.000258019306230611\\
33	0.00307410356008328\\
34	2.31380147105854e-05\\
35	1.38977394382622e-05\\
36	0.0621698331978637\\
37	0.0700018089511781\\
38	0.0604640704231643\\
39	0.0528768005037914\\
40	0.068943802793784\\
41	0.0269098980503442\\
42	0.00479936709984308\\
43	0.106889598982036\\
44	0.12360305210331\\
45	0.0213670020559034\\
46	0.132033061546756\\
47	0.0138515979908465\\
48	0.00714760350027799\\
49	0.929037472608964\\
50	0.00792929273768428\\
51	0.0171047395937346\\
52	0.131025487193509\\
53	0.0201836901777387\\
54	0.124829791258172\\
55	0.105410983309916\\
56	0.00656280548543057\\
57	0.026240431147357\\
58	0.0721802771516021\\
59	0.0527346517501354\\
60	0.0644172074925093\\
61	0.0731067190119697\\
62	0.0722804457622485\\
63	1.75021574687605e-05\\
64	2.83618865023472e-05\\
65	0.00338561125741492\\
66	0.00197879741085333\\
67	0.0137126618858055\\
68	0.00751880592419487\\
69	0.0139318939424934\\
70	0.0137053950115342\\
71	0.00394700224121047\\
72	2.10599504437567e-05\\
73	0.00326811456851885\\
74	0.0021038081270625\\
75	0.0316190003377924\\
76	0.0144262101007322\\
77	1.72990039554383e-05\\
78	0.000855973098930605\\
79	1.40445441313116e-05\\
80	2.55406925034749e-05\\
81	0.00257635736254412\\
82	1.31918044652682e-05\\
83	0.00660177454403052\\
84	0.00978776818459244\\
85	1.96072946252276e-05\\
86	4.02917630502788e-06\\
87	1.25522600715794e-05\\
88	2.5555817499972e-05\\
89	4.00834798820404e-05\\
90	1.31698550580274e-05\\
91	7.49756840053399e-06\\
92	4.40804999433333e-06\\
93	0.0110313412155378\\
94	9.26154567002049e-06\\
95	1.26861635150433e-05\\
96	8.90196813080187e-06\\
97	5.85146184921112e-06\\
98	1.37222618287705e-05\\
99	8.19111190614834e-06\\
};
\addlegendentry{$\mathbf{\hat{h}_{2}}$}

\end{axis}
\end{tikzpicture}%