% This file was created by matlab2tikz.
%
%The latest updates can be retrieved from
%  http://www.mathworks.com/matlabcentral/fileexchange/22022-matlab2tikz-matlab2tikz
%where you can also make suggestions and rate matlab2tikz.
%
\definecolor{mycolor1}{rgb}{0.00000,0.44700,0.74100}%
\definecolor{mycolor2}{rgb}{0.85000,0.32500,0.09800}%
%
\begin{tikzpicture}

\begin{axis}[%
width=1.935in,
height=3.2in,
at={(0.758in,0.512in)},
scale only axis,
xmin=0,
xmax=100,
xlabel style={font=\color{white!15!black}, align=center},
xlabel={Sample Index\\[1ex](a) Actual},
ymin=0,
ymax=1,
axis background/.style={fill=white},
legend style={legend cell align=left, align=left, draw=white!15!black}
]
\addplot [color=mycolor1]
  table[row sep=crcr]{%
1	0.0216926152020066\\
2	0.0241183965289278\\
3	0.0267807478156139\\
4	0.0354280601095614\\
5	0.221828667704926\\
6	0.648965745595675\\
7	0.241270440438586\\
8	0.0776642628644082\\
9	0.0581044824071981\\
10	0.0611489366831747\\
11	0.0798140419847986\\
12	0.062735544320507\\
13	0.113011040425493\\
14	0.377485382687519\\
15	0.331649248845691\\
16	0.18615433793772\\
17	0.146493252817741\\
18	0.0847190801249442\\
19	0.0628278567269286\\
20	0.0148364296169451\\
21	0.0250471739922352\\
22	0.0344835915107885\\
23	0.116323790948646\\
24	0.279210940275387\\
25	0.101045410677318\\
26	0.0464379665429307\\
27	0.041398863205924\\
28	0.0263226969199998\\
29	0.0221848789960478\\
30	0.0197642774213948\\
31	0.0186496517239344\\
32	0.0219339353832985\\
33	0.018414044189717\\
34	0.00937919788338426\\
35	0.0100670783096178\\
36	0.0098135024549665\\
37	0.00937197330245933\\
38	0.00884810306396591\\
39	0.00821513429074651\\
40	0.00732026654240377\\
41	0.00945021173361951\\
42	0.0127255218727005\\
43	0.00946415089832864\\
44	0.00862800399957479\\
45	0.00816256372793386\\
46	0.00784857678072338\\
47	0.00764005346579914\\
48	0.00755773656417068\\
49	0.00776075567554332\\
50	0.00986938420958768\\
51	0.00319649311885596\\
52	0.00500292172051245\\
53	0.00524752973649041\\
54	0.00526667690567613\\
55	0.00521575322380608\\
56	0.00513704586881206\\
57	0.00504647235310817\\
58	0.00495116794332671\\
59	0.00485468351773321\\
60	0.00475890010347922\\
61	0.00466484578572566\\
62	0.00457308311118313\\
63	0.00448390798586452\\
64	0.0043974582605137\\
65	0.00431377595094964\\
66	0.00423284428954661\\
67	0.00415461047403326\\
68	0.00407899997367922\\
69	0.00400592569101114\\
70	0.00393529390404367\\
71	0.0038670081481966\\
72	0.00380097175500134\\
73	0.00373708950172093\\
74	0.00367526866536834\\
75	0.00361541967416126\\
76	0.00355745648532918\\
77	0.00350129677649243\\
78	0.00344686201027152\\
79	0.00339407741330312\\
80	0.00334287189828014\\
81	0.0032931779490063\\
82	0.00324493148246751\\
83	0.00319807169773062\\
84	0.003152540918526\\
85	0.00310828443427485\\
86	0.00306525034282854\\
87	0.00302338939712195\\
88	0.00298265485717807\\
89	0.00294300234835571\\
90	0.00290438972634362\\
91	0.0028667769491261\\
92	0.00283012595595264\\
93	0.0027944005532083\\
94	0.00275956630699144\\
95	0.0027255904421446\\
96	0.00269244174744817\\
97	0.00266009048666622\\
98	0.00262850831512411\\
99	0\\
100	0\\
};
\addlegendentry{$\mathbf{h_1}$}

\addplot [color=mycolor2]
  table[row sep=crcr]{%
1	0.00108294891904515\\
2	0.00115806441999571\\
3	0.00125656841390277\\
4	0.00139359850086552\\
5	0.00159676508941691\\
6	0.00191784013184518\\
7	0.00245777585368985\\
8	0.00342819163679349\\
9	0.00533730915065768\\
10	0.00974214709050295\\
11	0.0244449264542886\\
12	0.973731186814765\\
13	0.0500739614470277\\
14	0.0426946282907342\\
15	0.00536788790071817\\
16	0.0362080823589407\\
17	0.176144271962331\\
18	0.115663212635922\\
19	0.0234963057121139\\
20	0.0138738178597906\\
21	0.00966054585381422\\
22	0.00731818549393035\\
23	0.00584139575065055\\
24	0.0048330083027894\\
25	0.00410500747522503\\
26	0.00355723928842746\\
27	0.00313167065616096\\
28	0.00279247304593218\\
29	0.00251639833876938\\
30	0.00228774297450139\\
31	0.00209554142652578\\
32	0.00193191967393617\\
33	0.00179108704155738\\
34	0.00166869616651274\\
35	0\\
36	0\\
37	0\\
38	0\\
39	0\\
40	0\\
41	0\\
42	0\\
43	0\\
44	0\\
45	0\\
46	0\\
47	0\\
48	0\\
49	0\\
50	0\\
51	0\\
52	0\\
53	0\\
54	0\\
55	0\\
56	0\\
57	0\\
58	0\\
59	0\\
60	0\\
61	0\\
62	0\\
63	0\\
64	0\\
65	0\\
66	0\\
67	0\\
68	0\\
69	0\\
70	0\\
71	0\\
72	0\\
73	0\\
74	0\\
75	0\\
76	0\\
77	0\\
78	0\\
79	0\\
80	0\\
81	0\\
82	0\\
83	0\\
84	0\\
85	0\\
86	0\\
87	0\\
88	0\\
89	0\\
90	0\\
91	0\\
92	0\\
93	0\\
94	0\\
95	0\\
96	0\\
97	0\\
98	0\\
99	0\\
100	0\\
};
\addlegendentry{$\mathbf{h_{2}}$}

\end{axis}

\begin{axis}[%
width=1.935in,
height=3.2in,
at={(3.327in,0.512in)},
scale only axis,
xmin=0,
xmax=100,
xlabel style={font=\color{white!15!black}, align=center},
xlabel={Sample Index\\[1ex](b) Estimated},
ymin=0,
ymax=1,
axis background/.style={fill=white},
legend style={legend cell align=left, align=left, draw=white!15!black}
]
\addplot [color=mycolor1]
  table[row sep=crcr]{%
0	6.73015271357165e-05\\
1	3.31169644743854e-05\\
2	3.98964142395824e-05\\
3	6.03253153171051e-05\\
4	5.68409114995075e-05\\
5	4.60304676563395e-05\\
6	7.28338189245574e-05\\
7	5.81830714416595e-05\\
8	2.26116138851181e-05\\
9	8.42392537663284e-05\\
10	2.60471955591636e-05\\
11	1.10968877445268e-05\\
12	4.32165864962038e-05\\
13	5.4258002478474e-05\\
14	4.08574567405401e-05\\
15	2.36520816190908e-05\\
16	2.91217070378103e-05\\
17	2.99657696203637e-05\\
18	9.56000706759761e-05\\
19	1.98647952127271e-05\\
20	8.53944623417307e-06\\
21	6.13360093262829e-05\\
22	7.2458787855787e-05\\
23	6.51523444209981e-05\\
24	0.00324527637134823\\
25	0.0226048298805862\\
26	2.25814910312554e-05\\
27	0.00115325920935042\\
28	2.69247537078208e-05\\
29	0.000487970315607553\\
30	6.96939486939916e-05\\
31	0.00206804710277956\\
32	0.0175823323832031\\
33	0.045376630344545\\
34	0.0260606251482829\\
35	0.0345829403665345\\
36	0.024233063392701\\
37	0.0252303975345687\\
38	0.0814083315410496\\
39	0.0151642599749756\\
40	0.0251930906464165\\
41	0.00557871399865199\\
42	0.184797652197258\\
43	0.687657020015909\\
44	0.204483631306451\\
45	0.0233868693495751\\
46	0.123714338390773\\
47	0.0705680487319651\\
48	0.108799472660221\\
49	0.0229385032153131\\
50	0.0946249489831506\\
51	0.387036863035468\\
52	0.29393245260775\\
53	0.172771332550319\\
54	0.122399503415369\\
55	0.067437870794705\\
56	0.0879869305939556\\
57	0.0384444170124529\\
58	0.0284509123047877\\
59	0.0523557220774788\\
60	0.123986594116637\\
61	0.270717451800612\\
62	0.0632049681972435\\
63	0.00433488639689646\\
64	0.00463362869271668\\
65	0.0109485514094433\\
66	0.00598430083816499\\
67	0.0216203144967156\\
68	0.0286532479727232\\
69	0.0492927934074789\\
70	0.0178961650168802\\
71	0.00767366666247653\\
72	0.000108258941632083\\
73	0.00932522595010854\\
74	0.00738061121792421\\
75	0.00011606543725988\\
76	3.41125484161908e-05\\
77	0.000866010407283012\\
78	0.00663626354217255\\
79	0.00161929086672384\\
80	0.00391344695224661\\
81	0.000115143360335075\\
82	0.00011358003922165\\
83	9.25060021136158e-05\\
84	0.000202164397068769\\
85	9.14030216573654e-05\\
86	0.00048513704155055\\
87	0.000424526658987558\\
88	5.78612753714161e-05\\
89	1.05100787230323e-05\\
90	3.24746468301793e-05\\
91	5.83601523737086e-05\\
92	3.94414078475548e-05\\
93	5.46603326211403e-05\\
94	2.65297835517278e-05\\
95	0.000103195415061339\\
96	4.66441420587719e-05\\
97	9.42506426997823e-05\\
98	5.79964879757311e-05\\
99	1.4018882285396e-05\\
};
\addlegendentry{$\mathbf{\hat{h}_{1}}$}

\addplot [color=mycolor2]
  table[row sep=crcr]{%
0	1.94646843765494e-05\\
1	2.99452629897727e-05\\
2	1.38591106065504e-05\\
3	2.29539010677656e-05\\
4	7.14502636670854e-06\\
5	2.25797200754042e-05\\
6	8.18053941745236e-06\\
7	2.54600379441537e-05\\
8	3.29647559389406e-05\\
9	2.95553999201857e-05\\
10	3.33506697839595e-05\\
11	1.53754141239619e-05\\
12	1.23811797458297e-05\\
13	8.27424781441278e-06\\
14	7.66721336383864e-06\\
15	0.000145743509528095\\
16	3.77538797140626e-05\\
17	1.82634721551308e-05\\
18	3.98754812090964e-05\\
19	1.32486397501469e-05\\
20	9.9943858856349e-05\\
21	0.00603421233000961\\
22	0.00197805753123658\\
23	0.0101266962608543\\
24	0.00367668653513826\\
25	5.62111776206863e-06\\
26	0.000786105381819033\\
27	3.92921540934858e-05\\
28	0.00134342493921361\\
29	0.00286644140617879\\
30	0.00895747349717014\\
31	0.0682059165386701\\
32	0.00905157231771177\\
33	0.0173760195010614\\
34	0.0079497211227826\\
35	0.00559063607147986\\
36	0.00510809905996054\\
37	4.15084102073766e-05\\
38	0.0466858799615942\\
39	0.0716611900958328\\
40	0.0206939655352003\\
41	0.110229227648385\\
42	0.003927608733833\\
43	0.00729568346364373\\
44	0.0242934066858839\\
45	0.015592005326097\\
46	0.0234408184606869\\
47	0.0384057185127447\\
48	0.00689728300461713\\
49	0.970862107534949\\
50	0.00586837107622346\\
51	0.0388560730930424\\
52	0.0261340390970915\\
53	0.016245564866732\\
54	0.0247226305723669\\
55	0.00693245680554944\\
56	0.00293265477413818\\
57	0.110603100451085\\
58	0.0211006248665113\\
59	0.0726184084297473\\
60	0.0485307986134981\\
61	4.80566195518157e-05\\
62	0.00553827976112368\\
63	0.00675438838486782\\
64	0.00948231140115288\\
65	0.0179206840424288\\
66	0.00915539525682313\\
67	0.069968192538734\\
68	0.0087393352505366\\
69	0.00265104075141193\\
70	0.000376178865111429\\
71	4.05755057136336e-05\\
72	0.00038465795074958\\
73	5.78084451740186e-06\\
74	0.00386604850370658\\
75	0.008802495812734\\
76	0.00227078917703735\\
77	0.00639952337656327\\
78	0.000138061444118144\\
79	8.96134679377608e-06\\
80	3.29456224628326e-05\\
81	1.12202795280278e-05\\
82	8.22403656554882e-05\\
83	0.000666325227698677\\
84	1.36258394841825e-05\\
85	1.58426006996463e-05\\
86	1.11614618328347e-05\\
87	1.72171334013843e-05\\
88	4.35061662903024e-05\\
89	3.72686039730783e-05\\
90	3.55139984502821e-05\\
91	2.31270017348054e-05\\
92	2.81350517311385e-05\\
93	1.65647626730045e-05\\
94	2.17555921705303e-05\\
95	6.22705301370658e-06\\
96	6.62519894236703e-06\\
97	3.49607862980259e-05\\
98	2.54652017649703e-05\\
99	1.22555730250286e-05\\
};
\addlegendentry{$\mathbf{\hat{h}_{2}}$}

\end{axis}
\end{tikzpicture}%