% This file was created by matlab2tikz.
%
%The latest updates can be retrieved from
%  http://www.mathworks.com/matlabcentral/fileexchange/22022-matlab2tikz-matlab2tikz
%where you can also make suggestions and rate matlab2tikz.
%
\definecolor{mycolor1}{rgb}{0.00000,0.44700,0.74100}%
\definecolor{mycolor2}{rgb}{0.85000,0.32500,0.09800}%
%
\begin{tikzpicture}

\begin{axis}[%
width=1.935in,
height=3.2in,
at={(0.758in,0.512in)},
scale only axis,
xmin=0,
xmax=100,
xlabel style={font=\color{white!15!black}, align=center},
xlabel={Sample Index\\[1ex](a) Actual},
ymin=0,
ymax=1,
axis background/.style={fill=white},
legend style={legend cell align=left, align=left, draw=white!15!black}
]
\addplot [color=mycolor1]
  table[row sep=crcr]{%
1	0.0216926152020066\\
2	0.0241183965289278\\
3	0.0267807478156139\\
4	0.0354280601095614\\
5	0.221828667704926\\
6	0.648965745595675\\
7	0.241270440438586\\
8	0.0776642628644082\\
9	0.0581044824071981\\
10	0.0611489366831747\\
11	0.0798140419847986\\
12	0.062735544320507\\
13	0.113011040425493\\
14	0.377485382687519\\
15	0.331649248845691\\
16	0.18615433793772\\
17	0.146493252817741\\
18	0.0847190801249442\\
19	0.0628278567269286\\
20	0.0148364296169451\\
21	0.0250471739922352\\
22	0.0344835915107885\\
23	0.116323790948646\\
24	0.279210940275387\\
25	0.101045410677318\\
26	0.0464379665429307\\
27	0.041398863205924\\
28	0.0263226969199998\\
29	0.0221848789960478\\
30	0.0197642774213948\\
31	0.0186496517239344\\
32	0.0219339353832985\\
33	0.018414044189717\\
34	0.00937919788338426\\
35	0.0100670783096178\\
36	0.0098135024549665\\
37	0.00937197330245933\\
38	0.00884810306396591\\
39	0.00821513429074651\\
40	0.00732026654240377\\
41	0.00945021173361951\\
42	0.0127255218727005\\
43	0.00946415089832864\\
44	0.00862800399957479\\
45	0.00816256372793386\\
46	0.00784857678072338\\
47	0.00764005346579914\\
48	0.00755773656417068\\
49	0.00776075567554332\\
50	0.00986938420958768\\
51	0.00319649311885596\\
52	0.00500292172051245\\
53	0.00524752973649041\\
54	0.00526667690567613\\
55	0.00521575322380608\\
56	0.00513704586881206\\
57	0.00504647235310817\\
58	0.00495116794332671\\
59	0.00485468351773321\\
60	0.00475890010347922\\
61	0.00466484578572566\\
62	0.00457308311118313\\
63	0.00448390798586452\\
64	0.0043974582605137\\
65	0.00431377595094964\\
66	0.00423284428954661\\
67	0.00415461047403326\\
68	0.00407899997367922\\
69	0.00400592569101114\\
70	0.00393529390404367\\
71	0.0038670081481966\\
72	0.00380097175500134\\
73	0.00373708950172093\\
74	0.00367526866536834\\
75	0.00361541967416126\\
76	0.00355745648532918\\
77	0.00350129677649243\\
78	0.00344686201027152\\
79	0.00339407741330312\\
80	0.00334287189828014\\
81	0.0032931779490063\\
82	0.00324493148246751\\
83	0.00319807169773062\\
84	0.003152540918526\\
85	0.00310828443427485\\
86	0.00306525034282854\\
87	0.00302338939712195\\
88	0.00298265485717807\\
89	0.00294300234835571\\
90	0.00290438972634362\\
91	0.0028667769491261\\
92	0.00283012595595264\\
93	0.0027944005532083\\
94	0.00275956630699144\\
95	0.0027255904421446\\
96	0.00269244174744817\\
97	0.00266009048666622\\
98	0.00262850831512411\\
99	0\\
100	0\\
};
\addlegendentry{$\mathbf{h_1}$}

\addplot [color=mycolor2]
  table[row sep=crcr]{%
1	0.00108294891904515\\
2	0.00115806441999571\\
3	0.00125656841390277\\
4	0.00139359850086552\\
5	0.00159676508941691\\
6	0.00191784013184518\\
7	0.00245777585368985\\
8	0.00342819163679349\\
9	0.00533730915065768\\
10	0.00974214709050295\\
11	0.0244449264542886\\
12	0.973731186814765\\
13	0.0500739614470277\\
14	0.0426946282907342\\
15	0.00536788790071817\\
16	0.0362080823589407\\
17	0.176144271962331\\
18	0.115663212635922\\
19	0.0234963057121139\\
20	0.0138738178597906\\
21	0.00966054585381422\\
22	0.00731818549393035\\
23	0.00584139575065055\\
24	0.0048330083027894\\
25	0.00410500747522503\\
26	0.00355723928842746\\
27	0.00313167065616096\\
28	0.00279247304593218\\
29	0.00251639833876938\\
30	0.00228774297450139\\
31	0.00209554142652578\\
32	0.00193191967393617\\
33	0.00179108704155738\\
34	0.00166869616651274\\
35	0\\
36	0\\
37	0\\
38	0\\
39	0\\
40	0\\
41	0\\
42	0\\
43	0\\
44	0\\
45	0\\
46	0\\
47	0\\
48	0\\
49	0\\
50	0\\
51	0\\
52	0\\
53	0\\
54	0\\
55	0\\
56	0\\
57	0\\
58	0\\
59	0\\
60	0\\
61	0\\
62	0\\
63	0\\
64	0\\
65	0\\
66	0\\
67	0\\
68	0\\
69	0\\
70	0\\
71	0\\
72	0\\
73	0\\
74	0\\
75	0\\
76	0\\
77	0\\
78	0\\
79	0\\
80	0\\
81	0\\
82	0\\
83	0\\
84	0\\
85	0\\
86	0\\
87	0\\
88	0\\
89	0\\
90	0\\
91	0\\
92	0\\
93	0\\
94	0\\
95	0\\
96	0\\
97	0\\
98	0\\
99	0\\
100	0\\
};
\addlegendentry{$\mathbf{h_{2}}$}

\end{axis}

\begin{axis}[%
width=1.935in,
height=3.2in,
at={(3.327in,0.512in)},
scale only axis,
xmin=0,
xmax=60,
xlabel style={font=\color{white!15!black}, align=center},
xlabel={Sample Index\\[1ex](b) Estimated},
ymin=0,
ymax=1,
axis background/.style={fill=white},
legend style={legend cell align=left, align=left, draw=white!15!black}
]
\addplot [color=mycolor1]
  table[row sep=crcr]{%
0	0.0489095239946859\\
1	2.55838099580861e-05\\
2	0.0179068231045005\\
3	1.29365533595556e-05\\
4	1.93402556801862e-05\\
5	0.00305482231603425\\
6	0.00510088704698586\\
7	0.0431635041241262\\
8	0.0863066095546767\\
9	0.0493986811887816\\
10	0.0844373171543491\\
11	0.026274865294683\\
12	0.000727563952558139\\
13	0.0539643070266375\\
14	0.00635744066082852\\
15	0.0272901452445492\\
16	0.00274584711534523\\
17	0.174632877369886\\
18	0.686364396032921\\
19	0.196497013284289\\
20	0.0219228979177318\\
21	0.0876445347277821\\
22	0.0840260504453728\\
23	0.123731333030148\\
24	0.0215073606485249\\
25	0.0894157994571561\\
26	0.353302912030933\\
27	0.282708646655649\\
28	0.192334548878473\\
29	0.123052917070635\\
30	0.0783224501761742\\
31	0.0648041785740133\\
32	0.0671836305227002\\
33	0.0296928577056692\\
34	0.068902937784096\\
35	0.15333303983161\\
36	0.273659280497532\\
37	0.0551938066932658\\
38	0.0121960562129996\\
39	0.00729115098360928\\
40	0.00441453993850057\\
41	0.0020560885426259\\
42	0.0353826561612879\\
43	0.0551819991026345\\
44	0.0921148895978884\\
45	0.0388663428047046\\
46	0.0280967522165007\\
47	0.00271713631365407\\
48	0.0206578749913177\\
49	0.0152779290315119\\
};
\addlegendentry{$\mathbf{\hat{h}_{1}}$}

\addplot [color=mycolor2]
  table[row sep=crcr]{%
0	1.79389829638427e-05\\
1	0.00131872878593865\\
2	1.49084619442864e-05\\
3	9.79629295706405e-06\\
4	0.00104237989697692\\
5	0.006809878368904\\
6	0.0647097184437485\\
7	0.0151359716926921\\
8	0.0257681832842125\\
9	0.00858404873222873\\
10	1.08917931345975e-05\\
11	1.30933823110297e-05\\
12	1.47028492893229e-05\\
13	0.0509344435599592\\
14	0.0771700403201445\\
15	0.022378780406792\\
16	0.129456357643141\\
17	1.53263589906962e-05\\
18	0.0232414673057106\\
19	0.0483391864878361\\
20	0.0240323951421342\\
21	0.0191971424871577\\
22	0.0393582374180831\\
23	0.0118473346922216\\
24	0.960884419762516\\
25	0.00536714310352001\\
26	0.0421400943869864\\
27	0.0306924432621862\\
28	0.0260150977533196\\
29	0.05630833027684\\
30	0.0270714174986561\\
31	1.532297152493e-05\\
32	0.131042573239599\\
33	0.0224669454752566\\
34	0.0784506061035094\\
35	0.0566954782138043\\
36	2.69733199309835e-05\\
37	0.000232151480965364\\
38	0.0018709144130977\\
39	0.00956181485461864\\
40	0.025646342357157\\
41	0.0100648188189745\\
42	0.0688811481064159\\
43	0.0134270815030454\\
44	0.000766438265117911\\
45	0.00271501157490152\\
46	8.70068479512265e-06\\
47	0.00406868866805069\\
48	1.09957703941571e-05\\
49	0.000170888410573225\\
};
\addlegendentry{$\mathbf{\hat{h}_{2}}$}

\end{axis}
\end{tikzpicture}%