% This file was created by matlab2tikz.
%
%The latest updates can be retrieved from
%  http://www.mathworks.com/matlabcentral/fileexchange/22022-matlab2tikz-matlab2tikz
%where you can also make suggestions and rate matlab2tikz.
%
\definecolor{mycolor1}{rgb}{0.00000,0.44700,0.74100}%
\definecolor{mycolor2}{rgb}{0.85000,0.32500,0.09800}%
%
\begin{tikzpicture}

\begin{axis}[%
width=1.935in,
height=3.2in,
at={(0.758in,0.512in)},
scale only axis,
xmin=0,
xmax=150,
xlabel style={font=\color{white!15!black}, align=center},
xlabel={Sample Index\\[1ex](a) Actual},
ymin=0,
ymax=0.7,
axis background/.style={fill=white},
legend style={legend cell align=left, align=left, draw=white!15!black}
]
\addplot [color=mycolor1]
  table[row sep=crcr]{%
1	0.0234657806037261\\
2	0.0272334504034075\\
3	0.0326864300765018\\
4	0.0414541482980318\\
5	0.0586677033458464\\
6	0.117843438362983\\
7	0.159969331461504\\
8	0.174397116945152\\
9	0.616552810702634\\
10	0.0882137642931462\\
11	0.0472681903124796\\
12	0.0327587509505929\\
13	0.0272256709659274\\
14	0.0412344622245766\\
15	0.0186762848129325\\
16	0.0451940046978057\\
17	0.0153724087875252\\
18	0.0239672675363248\\
19	0.0400285717874473\\
20	0.0828333966509162\\
21	0.557624977131952\\
22	0.149414784250917\\
23	0.109138078132702\\
24	0.0381681231028791\\
25	0.032799759178118\\
26	0.191519461959093\\
27	0.0734580287558902\\
28	0.0358315656953253\\
29	0.0179563195827385\\
30	0.0169149242156914\\
31	0.0179798517146348\\
32	0.0199431506445131\\
33	0.0279225394655299\\
34	0.0908594243819801\\
35	0.0439964246924232\\
36	0.330890477505262\\
37	0.037800506563543\\
38	0.020261933748638\\
39	0.0138181229977315\\
40	0.0211497159554441\\
41	0.0112042208144458\\
42	0.00964538908702694\\
43	0.00864780826327016\\
44	0.00787736374270682\\
45	0.00720180133294831\\
46	0.00651453200193765\\
47	0.00565492088107664\\
48	0.0112814316241706\\
49	0.0075966567083061\\
50	0.0102713040739602\\
51	0.00787142060243747\\
52	0.00711780022683946\\
53	0.00668443537322835\\
54	0.00638223966522588\\
55	0.00615487020840034\\
56	0.00598242225636516\\
57	0.00586293416152974\\
58	0.00581626175933958\\
59	0.00593494184987807\\
60	0.00707647204853056\\
61	0.00861312572402681\\
62	0.00240649054353041\\
63	0.0036902508247688\\
64	0.0040125763148678\\
65	0.00408542983582614\\
66	0.00408934467211144\\
67	0.00406760360864643\\
68	0.00403657730104579\\
69	0.00400486664899167\\
70	0.00397913876457006\\
71	0.00396763365360209\\
72	0.00398577860522856\\
73	0.00407460869510253\\
74	0.00440882178496405\\
75	0.00852319154542653\\
76	0.00211982859547221\\
77	0.00279674481878385\\
78	0.00295234209521732\\
79	0.00299967450324673\\
80	0.00300734384297471\\
81	0.00299658049652506\\
82	0.00297609501762909\\
83	0.00295010695632826\\
84	0.00292089738309008\\
85	0.00288979839106794\\
86	0.00285763293534116\\
87	0.00282493110979805\\
88	0.00279204510261472\\
89	0.00275921420187501\\
90	0.00272660345813555\\
91	0.00269432766245323\\
92	0.00266246675038502\\
93	0.00263107599882434\\
94	0.00260019295165966\\
95	0.00256984222925479\\
96	0.00254003893333548\\
97	0.0025107910982644\\
98	0.00248210148178531\\
99	0.00245396889001376\\
100	0.00242638916874131\\
101	0.00239935595223708\\
102	0.00237286123354156\\
103	0.00234689580183488\\
104	0.00232144957979209\\
105	0.00229651188498403\\
106	0.00227207163310714\\
107	0.0022481174963278\\
108	0.00222463802675857\\
109	0.00220162175268604\\
110	0.00217905725339276\\
111	0.0021569332170867\\
112	0.00213523848544673\\
113	0.00211396208753109\\
114	0.00209309326520902\\
115	0.00207262149182518\\
116	0.00205253648545491\\
117	0.00203282821783402\\
118	0.00201348691983224\\
119	0.00199450308416773\\
120	0.00197586746592614\\
121	0.00195757108133911\\
122	0.0019396052051902\\
123	0.0019219613671484\\
124	0.00190463134727109\\
125	0.00188760717087541\\
126	0.00187088110293773\\
127	0.00185444564215264\\
128	0.0018382935147574\\
129	0.00182241766820821\\
130	0.00180681126477794\\
131	0.00179146767513212\\
132	0.00177638047192757\\
133	0.00176154342347035\\
134	0.00174695048746156\\
135	0.0017325958048528\\
136	0.00171847369382931\\
137	0.00170457864393352\\
138	0.0016909053103386\\
139	0.00167744850827835\\
140	0.00166420320763913\\
141	0.00165116452771496\\
142	0.00163832773212761\\
143	0.00162568822391149\\
144	0.00161324154076111\\
145	0.0016009833504405\\
146	0.00158890944635072\\
147	0.00157701574325256\\
148	0.00156529827314105\\
149	0\\
150	0\\
};
\addlegendentry{$\mathbf{h_1}$}

\addplot [color=mycolor2]
  table[row sep=crcr]{%
1	0.019775303219206\\
2	0.0210217764534023\\
3	0.0224372323963497\\
4	0.024058742711813\\
5	0.0259351263737046\\
6	0.0281320174688059\\
7	0.0307398096072034\\
8	0.0338865833958781\\
9	0.0377600935275399\\
10	0.0426472101764649\\
11	0.0490094599986528\\
12	0.0576401827385178\\
13	0.0700288298559564\\
14	0.0893407156606893\\
15	0.123700774100431\\
16	0.202175033398071\\
17	0.564479813098353\\
18	0.690442426104836\\
19	0.212260509632627\\
20	0.126132345068284\\
21	0.100380135781766\\
22	0.0378663697499036\\
23	0.0333199748773482\\
24	0.0149453064107011\\
25	0.10083899339379\\
26	0.161002397050911\\
27	0.0405118251764787\\
28	0.0383644765554957\\
29	0.0341227495803863\\
30	0.0306469105251072\\
31	0.0278570926171954\\
32	0.0255709383506331\\
33	0.0236574529195357\\
34	0.0220274984760589\\
35	0.0206190941704396\\
36	0.0193877726649002\\
37	0.0183006807256663\\
38	0.0173329207549748\\
39	0.016465211935799\\
40	0.0156823459816501\\
41	0.0149721364414517\\
42	0.0143246843629073\\
43	0.0137318527665838\\
44	0.0131868826449622\\
45	0.0126841071808284\\
46	0.0122187355837443\\
47	0.0117866872087634\\
48	0.0113844626077037\\
49	0.0110090421200206\\
50	0.0106578052804057\\
51	0\\
52	0\\
53	0\\
54	0\\
55	0\\
56	0\\
57	0\\
58	0\\
59	0\\
60	0\\
61	0\\
62	0\\
63	0\\
64	0\\
65	0\\
66	0\\
67	0\\
68	0\\
69	0\\
70	0\\
71	0\\
72	0\\
73	0\\
74	0\\
75	0\\
76	0\\
77	0\\
78	0\\
79	0\\
80	0\\
81	0\\
82	0\\
83	0\\
84	0\\
85	0\\
86	0\\
87	0\\
88	0\\
89	0\\
90	0\\
91	0\\
92	0\\
93	0\\
94	0\\
95	0\\
96	0\\
97	0\\
98	0\\
99	0\\
100	0\\
101	0\\
102	0\\
103	0\\
104	0\\
105	0\\
106	0\\
107	0\\
108	0\\
109	0\\
110	0\\
111	0\\
112	0\\
113	0\\
114	0\\
115	0\\
116	0\\
117	0\\
118	0\\
119	0\\
120	0\\
121	0\\
122	0\\
123	0\\
124	0\\
125	0\\
126	0\\
127	0\\
128	0\\
129	0\\
130	0\\
131	0\\
132	0\\
133	0\\
134	0\\
135	0\\
136	0\\
137	0\\
138	0\\
139	0\\
140	0\\
141	0\\
142	0\\
143	0\\
144	0\\
145	0\\
146	0\\
147	0\\
148	0\\
149	0\\
150	0\\
};
\addlegendentry{$\mathbf{h_{2}}$}

\end{axis}

\begin{axis}[%
width=1.935in,
height=3.2in,
at={(3.327in,0.512in)},
scale only axis,
xmin=0,
xmax=150,
xlabel style={font=\color{white!15!black}, align=center},
xlabel={Sample Index\\[1ex](b) Estimated},
ymin=0,
ymax=1,
axis background/.style={fill=white},
legend style={legend cell align=left, align=left, draw=white!15!black}
]
\addplot [color=mycolor1]
  table[row sep=crcr]{%
0	5.20005329187347e-05\\
1	7.31251147104238e-05\\
2	5.6195575328453e-05\\
3	3.85703233119131e-05\\
4	0.000105929064289184\\
5	7.37355176004416e-05\\
6	2.50921144567945e-05\\
7	2.01418691146105e-05\\
8	6.37752502727457e-05\\
9	2.88050355689501e-05\\
10	1.48118895158084e-05\\
11	5.36027236168714e-05\\
12	8.93473117885817e-05\\
13	8.37470170669745e-05\\
14	9.07557392230855e-05\\
15	4.40682560282859e-05\\
16	1.09550826260194e-05\\
17	7.2935308663519e-05\\
18	0.000100630246237478\\
19	3.30669767707821e-05\\
20	2.234310835637e-05\\
21	3.7334604611056e-05\\
22	2.65237305108945e-05\\
23	6.68385110592303e-05\\
24	5.74397005577319e-05\\
25	5.80321462434863e-05\\
26	5.10564522036887e-05\\
27	6.56710662405574e-05\\
28	4.6959006333484e-05\\
29	5.04734255114085e-05\\
30	5.31953017903214e-05\\
31	0.000105084206687879\\
32	3.69390723021466e-05\\
33	0.0001790249469921\\
34	4.40835778138079e-05\\
35	0.000109202723542612\\
36	7.56534084405252e-05\\
37	0.000289710261121253\\
38	0.0043065575374078\\
39	0.00249268045855539\\
40	0.000394595478764538\\
41	0.00200651239149191\\
42	3.80401252282883e-05\\
43	0.00171295730189156\\
44	0.00015642227075554\\
45	0.00154243435792851\\
46	9.62418100824859e-05\\
47	0.00047934553791048\\
48	0.00552629299742921\\
49	0.00105230230065808\\
50	0.0149980449585982\\
51	0.0484822796399114\\
52	0.0133815340598168\\
53	0.00401851457728595\\
54	0.0315535108435493\\
55	3.63820865057517e-05\\
56	0.0149758615096878\\
57	0.112664695030267\\
58	0.0315907200078393\\
59	0.0244638789939795\\
60	0.0264246635406348\\
61	0.0141043690446566\\
62	0.0385271565296328\\
63	0.15436816963677\\
64	0.023442970893539\\
65	0.495159796795763\\
66	0.409449766952004\\
67	0.102433921640503\\
68	0.0732283056424409\\
69	0.0327567566610351\\
70	0.105910287583551\\
71	0.0205167776754667\\
72	0.0442238914528378\\
73	0.0030148490188058\\
74	0.0676112405389625\\
75	0.0730764881595686\\
76	0.102163030520289\\
77	0.260911998516875\\
78	0.487321729555427\\
79	0.180224458446952\\
80	0.0523857253179515\\
81	0.0660873955691625\\
82	0.104461412903252\\
83	0.0888127821722175\\
84	0.108648322556131\\
85	0.0114968262475899\\
86	0.021790768710377\\
87	0.0199687547557705\\
88	0.0110689413159476\\
89	0.0288628865096655\\
90	0.0812830755230726\\
91	0.101057837157017\\
92	0.28939438419639\\
93	0.0997774076092194\\
94	0.0266513645268826\\
95	0.0286502075241775\\
96	0.00390174807700581\\
97	0.000222817309480374\\
98	0.00149196774252944\\
99	0.00161321019626759\\
100	0.0106978614961348\\
101	3.72508134530359e-05\\
102	0.000564671201912396\\
103	0.00962221819193771\\
104	0.030225940943283\\
105	0.0144295301705023\\
106	0.000112865207829281\\
107	0.00757195390486039\\
108	0.000116839254244457\\
109	3.71422017074542e-05\\
110	0.000128458744163147\\
111	4.05742749646405e-05\\
112	8.59033292632901e-05\\
113	9.06136308821765e-05\\
114	3.3487608120496e-05\\
115	6.78447472616286e-05\\
116	6.3822885599309e-05\\
117	0.00155902305792829\\
118	0.000178760657626383\\
119	8.82929638372706e-05\\
120	0.000169630790674578\\
121	2.21685217590129e-06\\
122	2.30932055788098e-05\\
123	4.41148866734671e-05\\
124	4.59013779267711e-05\\
125	5.45659118001275e-05\\
126	6.62624240347346e-05\\
127	6.55082723139681e-05\\
128	7.73123114136779e-05\\
129	8.46971739008894e-05\\
130	3.56514693356686e-05\\
131	9.79194589245443e-05\\
132	3.63840904326556e-05\\
133	5.17193623989059e-05\\
134	4.13241166666194e-05\\
135	4.91990227931639e-05\\
136	8.94372378377782e-06\\
137	9.12610717046735e-06\\
138	1.60316366396151e-05\\
139	9.51147291173027e-05\\
140	6.67093246251231e-05\\
141	5.51200805868862e-05\\
142	8.87955066165951e-05\\
143	0.000138816196206865\\
144	6.86076700556646e-05\\
145	9.75463097979626e-05\\
146	0.000110030770965902\\
147	0.000100941003269822\\
148	6.00938771625868e-05\\
149	3.56630218644124e-06\\
};
\addlegendentry{$\mathbf{\hat{h}_{1}}$}

\addplot [color=mycolor2]
  table[row sep=crcr]{%
0	4.5352972399786e-06\\
1	1.50914965211958e-05\\
2	8.72056247858067e-06\\
3	3.0572209408826e-05\\
4	6.45896178340052e-06\\
5	1.71207059070042e-05\\
6	6.81453618860567e-06\\
7	4.63625808766681e-06\\
8	4.13175505154593e-05\\
9	1.4277448006914e-05\\
10	1.82949365158335e-05\\
11	1.71826524735834e-05\\
12	2.79797757419207e-05\\
13	4.03562935305329e-05\\
14	1.35406807578835e-05\\
15	6.84601415178198e-06\\
16	6.66830329576544e-06\\
17	2.1314880244184e-05\\
18	1.25304328041316e-05\\
19	3.04247813125482e-05\\
20	6.13230542643168e-06\\
21	2.58617327904481e-05\\
22	9.02379835395026e-05\\
23	2.1490206890642e-05\\
24	2.12837682733879e-05\\
25	1.56348298866183e-06\\
26	2.77408304427036e-05\\
27	5.21507688598267e-05\\
28	1.07064291104782e-05\\
29	1.56125945703494e-05\\
30	5.45269852213253e-06\\
31	1.01241688646338e-05\\
32	0.000847948485485196\\
33	0.00253099088829564\\
34	0.000525152701854313\\
35	0.00219295732322343\\
36	3.24757245404645e-05\\
37	0.00102881403426625\\
38	1.5428176219869e-05\\
39	2.44719212065099e-05\\
40	0.000406754099433766\\
41	0.000154885240979963\\
42	0.00310441709602365\\
43	1.52202667442265e-05\\
44	0.000995660415921425\\
45	0.0116009532613515\\
46	0.00597597494912872\\
47	0.0429940275152923\\
48	0.00687675198907938\\
49	0.0158011162187538\\
50	0.00744691089279689\\
51	0.00416476558522318\\
52	3.72085438593483e-05\\
53	0.00109201045453895\\
54	0.00525924886008503\\
55	0.00604029302401728\\
56	0.00395755544287522\\
57	0.0226459407739425\\
58	0.0128940433137146\\
59	0.0479377851095184\\
60	0.0274858701918051\\
61	0.0354835406584166\\
62	0.0954536458514531\\
63	0.0146764093924847\\
64	0.020948389833931\\
65	0.00343909666271421\\
66	0.00592123822443508\\
67	0.0116705919539713\\
68	0.0102451241387995\\
69	0.00799613464548707\\
70	0.0080277756222309\\
71	0.019620461948056\\
72	0.0279425090921377\\
73	0.0242020683879153\\
74	0.980396401649301\\
75	0.0240407551453068\\
76	0.0273956642083084\\
77	0.0189840314822514\\
78	0.00859277755043051\\
79	0.00894179504933385\\
80	0.0107534979999239\\
81	0.0117336130983242\\
82	0.00696078339490197\\
83	0.00407858093716583\\
84	0.0200782625569297\\
85	0.0147603307979425\\
86	0.0948201765257705\\
87	0.0358150278808756\\
88	0.0268937155117646\\
89	0.0486971620843277\\
90	0.0128979146267782\\
91	0.0233181131375773\\
92	0.00405548957734974\\
93	0.00683262621049382\\
94	0.00476026913681924\\
95	0.000706944799842885\\
96	3.96627239427224e-05\\
97	0.00377504009131951\\
98	0.0071619789403376\\
99	0.0156540313652764\\
100	0.00658130966270357\\
101	0.043791060929538\\
102	0.00591452368957525\\
103	0.0113238121687221\\
104	0.00126682596050892\\
105	1.06890308281031e-05\\
106	0.00287249255274086\\
107	0.00026952329549682\\
108	0.000787769963856085\\
109	2.61886201928192e-05\\
110	4.22904821020112e-06\\
111	0.000920465977881059\\
112	2.94611185543518e-05\\
113	0.00178596042409983\\
114	0.0002027321017008\\
115	0.00246114249683914\\
116	0.001333201191888\\
117	2.58762355121681e-05\\
118	2.03741300847368e-05\\
119	2.0451818553366e-05\\
120	2.44313234722925e-05\\
121	4.97581531583239e-05\\
122	2.65759023886924e-05\\
123	5.65867764994764e-06\\
124	2.76298644993674e-05\\
125	2.19011682282074e-05\\
126	0.000129176207763112\\
127	3.58553793252364e-05\\
128	2.20558349482197e-05\\
129	5.12945960974073e-05\\
130	1.62701025028366e-05\\
131	5.24928418970721e-06\\
132	2.71131385119952e-05\\
133	1.52931179257293e-05\\
134	1.63173618213355e-05\\
135	3.242828510087e-05\\
136	4.46360080308e-05\\
137	1.73114312916276e-05\\
138	1.6565601362003e-05\\
139	2.6598067564711e-05\\
140	5.12585875414947e-05\\
141	1.60697124115735e-05\\
142	4.72688558706069e-06\\
143	2.65501130693194e-05\\
144	1.3271532259718e-05\\
145	3.01022734403356e-05\\
146	5.55233930833936e-06\\
147	2.76739636268553e-05\\
148	1.80176213708237e-05\\
149	1.96372719300005e-05\\
};
\addlegendentry{$\mathbf{\hat{h}_{2}}$}

\end{axis}
\end{tikzpicture}%