% This file was created by matlab2tikz.
%
%The latest updates can be retrieved from
%  http://www.mathworks.com/matlabcentral/fileexchange/22022-matlab2tikz-matlab2tikz
%where you can also make suggestions and rate matlab2tikz.
%
\definecolor{mycolor1}{rgb}{0.00000,0.44700,0.74100}%
\definecolor{mycolor2}{rgb}{0.85000,0.32500,0.09800}%
%
\begin{tikzpicture}

\begin{axis}[%
width=1.935in,
height=3.2in,
at={(0.758in,0.512in)},
scale only axis,
xmin=0,
xmax=150,
xlabel style={font=\color{white!15!black}, align=center},
xlabel={Sample Index\\[1ex](a) Actual},
ymin=0,
ymax=0.7,
axis background/.style={fill=white},
legend style={legend cell align=left, align=left, draw=white!15!black}
]
\addplot [color=mycolor1]
  table[row sep=crcr]{%
1	0.0234657806037261\\
2	0.0272334504034075\\
3	0.0326864300765018\\
4	0.0414541482980318\\
5	0.0586677033458464\\
6	0.117843438362983\\
7	0.159969331461504\\
8	0.174397116945152\\
9	0.616552810702634\\
10	0.0882137642931462\\
11	0.0472681903124796\\
12	0.0327587509505929\\
13	0.0272256709659274\\
14	0.0412344622245766\\
15	0.0186762848129325\\
16	0.0451940046978057\\
17	0.0153724087875252\\
18	0.0239672675363248\\
19	0.0400285717874473\\
20	0.0828333966509162\\
21	0.557624977131952\\
22	0.149414784250917\\
23	0.109138078132702\\
24	0.0381681231028791\\
25	0.032799759178118\\
26	0.191519461959093\\
27	0.0734580287558902\\
28	0.0358315656953253\\
29	0.0179563195827385\\
30	0.0169149242156914\\
31	0.0179798517146348\\
32	0.0199431506445131\\
33	0.0279225394655299\\
34	0.0908594243819801\\
35	0.0439964246924232\\
36	0.330890477505262\\
37	0.037800506563543\\
38	0.020261933748638\\
39	0.0138181229977315\\
40	0.0211497159554441\\
41	0.0112042208144458\\
42	0.00964538908702694\\
43	0.00864780826327016\\
44	0.00787736374270682\\
45	0.00720180133294831\\
46	0.00651453200193765\\
47	0.00565492088107664\\
48	0.0112814316241706\\
49	0.0075966567083061\\
50	0.0102713040739602\\
51	0.00787142060243747\\
52	0.00711780022683946\\
53	0.00668443537322835\\
54	0.00638223966522588\\
55	0.00615487020840034\\
56	0.00598242225636516\\
57	0.00586293416152974\\
58	0.00581626175933958\\
59	0.00593494184987807\\
60	0.00707647204853056\\
61	0.00861312572402681\\
62	0.00240649054353041\\
63	0.0036902508247688\\
64	0.0040125763148678\\
65	0.00408542983582614\\
66	0.00408934467211144\\
67	0.00406760360864643\\
68	0.00403657730104579\\
69	0.00400486664899167\\
70	0.00397913876457006\\
71	0.00396763365360209\\
72	0.00398577860522856\\
73	0.00407460869510253\\
74	0.00440882178496405\\
75	0.00852319154542653\\
76	0.00211982859547221\\
77	0.00279674481878385\\
78	0.00295234209521732\\
79	0.00299967450324673\\
80	0.00300734384297471\\
81	0.00299658049652506\\
82	0.00297609501762909\\
83	0.00295010695632826\\
84	0.00292089738309008\\
85	0.00288979839106794\\
86	0.00285763293534116\\
87	0.00282493110979805\\
88	0.00279204510261472\\
89	0.00275921420187501\\
90	0.00272660345813555\\
91	0.00269432766245323\\
92	0.00266246675038502\\
93	0.00263107599882434\\
94	0.00260019295165966\\
95	0.00256984222925479\\
96	0.00254003893333548\\
97	0.0025107910982644\\
98	0.00248210148178531\\
99	0.00245396889001376\\
100	0.00242638916874131\\
101	0.00239935595223708\\
102	0.00237286123354156\\
103	0.00234689580183488\\
104	0.00232144957979209\\
105	0.00229651188498403\\
106	0.00227207163310714\\
107	0.0022481174963278\\
108	0.00222463802675857\\
109	0.00220162175268604\\
110	0.00217905725339276\\
111	0.0021569332170867\\
112	0.00213523848544673\\
113	0.00211396208753109\\
114	0.00209309326520902\\
115	0.00207262149182518\\
116	0.00205253648545491\\
117	0.00203282821783402\\
118	0.00201348691983224\\
119	0.00199450308416773\\
120	0.00197586746592614\\
121	0.00195757108133911\\
122	0.0019396052051902\\
123	0.0019219613671484\\
124	0.00190463134727109\\
125	0.00188760717087541\\
126	0.00187088110293773\\
127	0.00185444564215264\\
128	0.0018382935147574\\
129	0.00182241766820821\\
130	0.00180681126477794\\
131	0.00179146767513212\\
132	0.00177638047192757\\
133	0.00176154342347035\\
134	0.00174695048746156\\
135	0.0017325958048528\\
136	0.00171847369382931\\
137	0.00170457864393352\\
138	0.0016909053103386\\
139	0.00167744850827835\\
140	0.00166420320763913\\
141	0.00165116452771496\\
142	0.00163832773212761\\
143	0.00162568822391149\\
144	0.00161324154076111\\
145	0.0016009833504405\\
146	0.00158890944635072\\
147	0.00157701574325256\\
148	0.00156529827314105\\
149	0\\
150	0\\
};
\addlegendentry{$\mathbf{h_1}$}

\addplot [color=mycolor2]
  table[row sep=crcr]{%
1	0.019775303219206\\
2	0.0210217764534023\\
3	0.0224372323963497\\
4	0.024058742711813\\
5	0.0259351263737046\\
6	0.0281320174688059\\
7	0.0307398096072034\\
8	0.0338865833958781\\
9	0.0377600935275399\\
10	0.0426472101764649\\
11	0.0490094599986528\\
12	0.0576401827385178\\
13	0.0700288298559564\\
14	0.0893407156606893\\
15	0.123700774100431\\
16	0.202175033398071\\
17	0.564479813098353\\
18	0.690442426104836\\
19	0.212260509632627\\
20	0.126132345068284\\
21	0.100380135781766\\
22	0.0378663697499036\\
23	0.0333199748773482\\
24	0.0149453064107011\\
25	0.10083899339379\\
26	0.161002397050911\\
27	0.0405118251764787\\
28	0.0383644765554957\\
29	0.0341227495803863\\
30	0.0306469105251072\\
31	0.0278570926171954\\
32	0.0255709383506331\\
33	0.0236574529195357\\
34	0.0220274984760589\\
35	0.0206190941704396\\
36	0.0193877726649002\\
37	0.0183006807256663\\
38	0.0173329207549748\\
39	0.016465211935799\\
40	0.0156823459816501\\
41	0.0149721364414517\\
42	0.0143246843629073\\
43	0.0137318527665838\\
44	0.0131868826449622\\
45	0.0126841071808284\\
46	0.0122187355837443\\
47	0.0117866872087634\\
48	0.0113844626077037\\
49	0.0110090421200206\\
50	0.0106578052804057\\
51	0\\
52	0\\
53	0\\
54	0\\
55	0\\
56	0\\
57	0\\
58	0\\
59	0\\
60	0\\
61	0\\
62	0\\
63	0\\
64	0\\
65	0\\
66	0\\
67	0\\
68	0\\
69	0\\
70	0\\
71	0\\
72	0\\
73	0\\
74	0\\
75	0\\
76	0\\
77	0\\
78	0\\
79	0\\
80	0\\
81	0\\
82	0\\
83	0\\
84	0\\
85	0\\
86	0\\
87	0\\
88	0\\
89	0\\
90	0\\
91	0\\
92	0\\
93	0\\
94	0\\
95	0\\
96	0\\
97	0\\
98	0\\
99	0\\
100	0\\
101	0\\
102	0\\
103	0\\
104	0\\
105	0\\
106	0\\
107	0\\
108	0\\
109	0\\
110	0\\
111	0\\
112	0\\
113	0\\
114	0\\
115	0\\
116	0\\
117	0\\
118	0\\
119	0\\
120	0\\
121	0\\
122	0\\
123	0\\
124	0\\
125	0\\
126	0\\
127	0\\
128	0\\
129	0\\
130	0\\
131	0\\
132	0\\
133	0\\
134	0\\
135	0\\
136	0\\
137	0\\
138	0\\
139	0\\
140	0\\
141	0\\
142	0\\
143	0\\
144	0\\
145	0\\
146	0\\
147	0\\
148	0\\
149	0\\
150	0\\
};
\addlegendentry{$\mathbf{h_{2}}$}

\end{axis}

\begin{axis}[%
width=1.935in,
height=3.2in,
at={(3.327in,0.512in)},
scale only axis,
xmin=0,
xmax=300,
xlabel style={font=\color{white!15!black}, align=center},
xlabel={Sample Index\\[1ex](b) Estimated},
ymin=0,
ymax=1,
axis background/.style={fill=white},
legend style={legend cell align=left, align=left, draw=white!15!black}
]
\addplot [color=mycolor1]
  table[row sep=crcr]{%
0	2.24392414836914e-05\\
1	0.00010372260847011\\
2	3.35183127199189e-05\\
3	1.61778633524966e-05\\
4	2.22567115568652e-05\\
5	6.6279069382534e-05\\
6	0.000102991759760684\\
7	5.84514417753757e-05\\
8	3.22307736331403e-05\\
9	5.14190242183509e-05\\
10	3.11495121830571e-05\\
11	9.57416176793684e-05\\
12	4.3319530780146e-05\\
13	5.42130158722635e-05\\
14	6.55627693817838e-05\\
15	1.25368789761746e-05\\
16	5.11460421040204e-05\\
17	5.94107303707646e-05\\
18	6.32274270879942e-05\\
19	3.81396833730066e-05\\
20	9.16938809667641e-05\\
21	0.000105409494324968\\
22	3.00626030465827e-05\\
23	3.24711150248489e-05\\
24	8.32594572241094e-05\\
25	2.62171258343201e-05\\
26	0.000115854979829166\\
27	0.000118816146077234\\
28	9.742112182462e-05\\
29	4.94256738623661e-05\\
30	6.56312159027568e-05\\
31	5.24998513090389e-05\\
32	0.000162223725233497\\
33	7.28955416987699e-05\\
34	2.70455081656206e-05\\
35	7.46500297693206e-05\\
36	4.74310406201907e-05\\
37	3.19485324814314e-05\\
38	5.01371684296641e-05\\
39	6.66114425179439e-05\\
40	3.89751246384765e-05\\
41	2.5955239312051e-05\\
42	1.62836390730935e-05\\
43	4.54073534450818e-05\\
44	9.29802289278151e-06\\
45	3.32706051429347e-05\\
46	0.000101775460029174\\
47	5.28105263038422e-05\\
48	2.43983175622051e-05\\
49	8.38134225746815e-05\\
50	4.39231446549213e-05\\
51	7.79367858043192e-06\\
52	4.65936256241413e-05\\
53	0.000106558488903572\\
54	4.66030289528123e-05\\
55	6.76981244816838e-05\\
56	0.00011574996136908\\
57	1.3092445429235e-05\\
58	6.57415828422252e-05\\
59	8.0925385250312e-05\\
60	5.61140019671644e-05\\
61	2.8795495929812e-05\\
62	4.71765697880115e-05\\
63	9.29553366133762e-05\\
64	5.23779571598328e-05\\
65	3.58407708736246e-05\\
66	5.78745358126643e-05\\
67	4.95073083349642e-05\\
68	2.45525474701944e-05\\
69	5.03197748163564e-05\\
70	2.94750634782113e-05\\
71	9.30771864140228e-05\\
72	7.52123896282817e-05\\
73	5.99662920876705e-05\\
74	4.10935434090108e-05\\
75	3.75208192970556e-05\\
76	6.64033429729872e-05\\
77	0.000229484005982558\\
78	0.000173242483998349\\
79	7.21601217800298e-05\\
80	0.00010666437441838\\
81	2.6483966597963e-05\\
82	8.08013035421865e-06\\
83	4.95776407558046e-05\\
84	8.75261074738046e-05\\
85	0.000120282154254803\\
86	5.56095640740525e-05\\
87	7.26360007014781e-05\\
88	6.53960005114174e-05\\
89	5.05013906797567e-05\\
90	5.25490520985919e-05\\
91	3.07193561152125e-05\\
92	4.9833961396865e-05\\
93	7.82625690070551e-05\\
94	4.26068076039241e-05\\
95	2.50637804419006e-05\\
96	6.43786037285167e-05\\
97	2.30583381533821e-05\\
98	3.09292101069267e-05\\
99	3.411824558643e-05\\
100	4.79846971662403e-05\\
101	3.3127293018677e-05\\
102	0.000120619951354906\\
103	1.63976662313566e-05\\
104	7.43946300215166e-05\\
105	4.6331113431936e-05\\
106	8.17220057754906e-06\\
107	3.8700612559201e-05\\
108	7.87359981976329e-05\\
109	7.07660083227241e-05\\
110	0.000127055965590216\\
111	2.87304473161383e-05\\
112	9.65427816957242e-05\\
113	0.00015591502889079\\
114	9.08708358870082e-05\\
115	3.73754248140633e-05\\
116	7.76855993646524e-05\\
117	4.71605676682166e-05\\
118	9.12634193400142e-05\\
119	3.27904214957936e-05\\
120	5.31476648591116e-05\\
121	5.67018161473724e-05\\
122	8.25796298976481e-05\\
123	0.000156332145734958\\
124	6.53052989495512e-05\\
125	0.000120379574103057\\
126	0.0135025749208838\\
127	0.000369216981346319\\
128	6.35386751282983e-05\\
129	0.0123012390858846\\
130	2.75473493318701e-05\\
131	0.00866126173155122\\
132	0.112235692104927\\
133	0.0318367422089649\\
134	0.0119867960342701\\
135	0.0118686355467599\\
136	0.0016751246718147\\
137	0.0253658438451031\\
138	0.157547628344799\\
139	0.0110892506487973\\
140	0.509553196917589\\
141	0.414593143687245\\
142	0.0992421207069153\\
143	0.0521136428284167\\
144	0.0283267980799457\\
145	0.109095230001549\\
146	0.00859462177209099\\
147	0.0300974471303178\\
148	7.34330687233742e-05\\
149	0.0480705381919213\\
150	0.0494113018415554\\
151	0.0878500307508156\\
152	0.266479127307876\\
153	0.501634025898193\\
154	0.167937928604901\\
155	0.0315689935788295\\
156	0.053083333841463\\
157	0.10524379009671\\
158	0.0779682933727664\\
159	0.102674823409073\\
160	0.00225393207407007\\
161	0.00376143414420359\\
162	0.00437359254756145\\
163	0.000373941980482177\\
164	0.0141289674042282\\
165	0.0540059999641488\\
166	0.0931599537654544\\
167	0.292836321391885\\
168	0.0976681847072301\\
169	0.0162922062874838\\
170	0.00789871240974073\\
171	5.90252569581749e-05\\
172	9.6098837051701e-05\\
173	6.67339132469349e-05\\
174	3.71705116669303e-05\\
175	0.000102601867954748\\
176	2.54310815827402e-05\\
177	0.000113712136424369\\
178	0.000313999484559705\\
179	0.00610277636881264\\
180	0.000442659959472882\\
181	9.84482238762485e-05\\
182	0.00010063520014131\\
183	1.30501539629444e-05\\
184	6.21837858685651e-05\\
185	3.35026741678322e-05\\
186	0.000152324988847766\\
187	5.18203446191329e-05\\
188	6.1868893927616e-05\\
189	5.1181492624843e-05\\
190	4.00509340352127e-05\\
191	3.52891415707706e-05\\
192	4.5069168420397e-05\\
193	3.1171032541085e-05\\
194	5.36908142430295e-05\\
195	6.80172779614688e-05\\
196	5.26121199763106e-05\\
197	5.51427035366041e-05\\
198	4.8663047687796e-06\\
199	3.26375726695862e-05\\
200	3.50284885021756e-05\\
201	5.71154380183143e-05\\
202	9.69453289845258e-05\\
203	3.31086344386372e-05\\
204	8.55450882285504e-05\\
205	0.000100686139447932\\
206	9.00861560061037e-05\\
207	0.000169574820715121\\
208	0.000122760134830027\\
209	6.99506576158034e-05\\
210	0.000120837229326761\\
211	1.45364656051945e-05\\
212	3.91586901012131e-05\\
213	5.82357489906376e-05\\
214	8.46542698961646e-05\\
215	4.77043000385437e-05\\
216	5.42503366769458e-05\\
217	3.29077158727853e-05\\
218	3.51441253141926e-05\\
219	5.90368230401942e-05\\
220	3.72780156200731e-05\\
221	2.41174353773982e-05\\
222	3.36337760520218e-05\\
223	7.08853291535289e-05\\
224	5.93637892611753e-05\\
225	1.34513941046368e-05\\
226	5.35706471482426e-05\\
227	8.33135834567963e-05\\
228	1.4956443977142e-05\\
229	4.9038253883836e-05\\
230	5.27519473031285e-05\\
231	7.38271263267924e-05\\
232	3.48274524365611e-05\\
233	9.92815240274018e-05\\
234	5.5463243966587e-05\\
235	3.96543010706326e-05\\
236	2.12676315039484e-05\\
237	9.32942387951144e-05\\
238	7.78183886316418e-05\\
239	3.56921515273165e-05\\
240	0.000102163643151926\\
241	4.15348344043581e-05\\
242	4.49327180252846e-05\\
243	3.70275928110815e-05\\
244	3.0722917572228e-05\\
245	1.28606241219928e-05\\
246	6.68882773530452e-05\\
247	6.54131455518789e-05\\
248	2.95495966655478e-05\\
249	3.95588805685933e-05\\
250	2.42053342065276e-05\\
251	7.0842319939782e-05\\
252	2.04832330673333e-05\\
253	6.93711610986659e-05\\
254	3.45764577951838e-05\\
255	6.9197932842306e-05\\
256	7.56292032239587e-05\\
257	5.55021662910695e-05\\
258	1.79103817375282e-05\\
259	3.59489252781631e-05\\
260	4.7129556798982e-05\\
261	4.67677070488099e-05\\
262	3.8045602829776e-05\\
263	8.20955347873863e-05\\
264	2.24594302090838e-05\\
265	5.92592925861898e-05\\
266	0.000159371045326631\\
267	3.64194763133077e-05\\
268	4.89897325492266e-05\\
269	1.56594974899855e-05\\
270	2.38517558840528e-05\\
271	4.86442675245186e-05\\
272	0.000149342313712876\\
273	0.000112705561124044\\
274	7.37431660821702e-05\\
275	1.74673570922326e-05\\
276	2.48525366291268e-05\\
277	6.8729818023813e-05\\
278	3.67519708859928e-05\\
279	0.000175490638105577\\
280	0.000156651133581277\\
281	6.1960822913271e-05\\
282	3.5123779009441e-05\\
283	0.000102437485459512\\
284	4.72876274821084e-05\\
285	0.000101868893069353\\
286	9.87678464450081e-05\\
287	4.47714532254374e-05\\
288	6.02456053170742e-05\\
289	4.75092655981918e-05\\
290	4.90539689092732e-05\\
291	9.57142042351605e-05\\
292	0.000112713107219409\\
293	8.57987758835708e-05\\
294	4.80089641604941e-05\\
295	5.20674222994997e-05\\
296	5.20878839644718e-05\\
297	0.000110005357248733\\
298	7.54226936031031e-05\\
299	2.92624731096868e-05\\
};
\addlegendentry{$\mathbf{\hat{h}_{1}}$}

\addplot [color=mycolor2]
  table[row sep=crcr]{%
0	8.5333183313537e-06\\
1	2.72869059130554e-05\\
2	1.97455842336912e-06\\
3	2.49862573745238e-05\\
4	2.35359643559039e-05\\
5	1.08420103688551e-05\\
6	6.57312632434631e-06\\
7	1.4585936577134e-05\\
8	4.23264781451207e-06\\
9	1.81212416197583e-05\\
10	1.30226382012187e-05\\
11	1.02274726574443e-05\\
12	4.34226672787635e-06\\
13	7.95024397292003e-06\\
14	1.03531053112914e-05\\
15	9.88793513197942e-06\\
16	5.19532619076061e-06\\
17	1.42269605099724e-05\\
18	3.96103146980353e-06\\
19	1.10845957018972e-05\\
20	1.82970202310764e-05\\
21	1.20419799828592e-05\\
22	5.69478371340415e-05\\
23	9.40344286326302e-06\\
24	1.53758223284698e-05\\
25	9.06703477079304e-06\\
26	4.19283315122643e-06\\
27	4.31048029258127e-07\\
28	1.45033862599218e-05\\
29	2.50157965931629e-05\\
30	1.81551286333307e-06\\
31	9.44928919583164e-06\\
32	1.94283909622687e-05\\
33	6.50236053509302e-06\\
34	1.41927210903099e-05\\
35	1.08221535943017e-05\\
36	2.52050395773233e-05\\
37	2.54073122152788e-05\\
38	1.08775453531219e-05\\
39	1.63565882363005e-05\\
40	6.78331795567432e-06\\
41	1.89886239480174e-05\\
42	1.5150618634467e-05\\
43	1.21744526814483e-05\\
44	6.29612376260725e-06\\
45	1.79235972044514e-05\\
46	1.98506009919972e-05\\
47	1.0185469418781e-05\\
48	1.31390350527124e-05\\
49	1.11713548637611e-05\\
50	1.10481123821432e-05\\
51	1.10579480877838e-05\\
52	4.16429252165415e-06\\
53	2.40209343832481e-06\\
54	8.05871234974804e-06\\
55	2.16144419978807e-05\\
56	9.19729814768698e-06\\
57	5.36046427242104e-06\\
58	8.65241851842838e-06\\
59	9.99740343355516e-06\\
60	1.06594034445115e-05\\
61	1.12150252893027e-05\\
62	1.69916879609881e-05\\
63	2.25211189593436e-05\\
64	9.63833357876614e-06\\
65	1.31310933886158e-05\\
66	1.37383124168169e-05\\
67	1.24077077954774e-05\\
68	2.95582402779066e-05\\
69	4.64961274189673e-06\\
70	1.07319597505913e-05\\
71	2.78610176602458e-06\\
72	1.63571628933249e-06\\
73	5.99445496910565e-06\\
74	1.45051612303466e-05\\
75	2.03177285506325e-05\\
76	5.61245513329534e-06\\
77	7.55347062416005e-06\\
78	1.54299785907752e-05\\
79	2.21635554809086e-05\\
80	8.25306995826104e-06\\
81	1.02523210258996e-05\\
82	1.82156946296133e-05\\
83	8.76062326567257e-06\\
84	2.00469254510732e-05\\
85	3.8498902215884e-05\\
86	2.61833338529681e-05\\
87	7.01081500856556e-06\\
88	1.53140087663605e-05\\
89	5.28513406619361e-06\\
90	9.95075500107148e-06\\
91	1.55463326446532e-05\\
92	4.60078761811862e-06\\
93	1.61240876506075e-05\\
94	1.71580156317845e-05\\
95	1.45450844378466e-05\\
96	4.67154058390112e-06\\
97	1.76581544762991e-05\\
98	1.40190958276536e-05\\
99	6.09091049970133e-06\\
100	9.27172951414202e-06\\
101	9.41912833012415e-06\\
102	8.88307079113899e-06\\
103	8.11331217994863e-06\\
104	2.26308400356863e-05\\
105	1.66028868907589e-05\\
106	2.64511289182747e-05\\
107	1.36407635368135e-05\\
108	1.79954843718372e-05\\
109	5.94190517266859e-05\\
110	2.32546210775648e-05\\
111	8.65122605526848e-06\\
112	1.36971991177764e-05\\
113	2.96185669107406e-05\\
114	1.39065145374728e-05\\
115	8.29846899165713e-06\\
116	1.19237979451131e-05\\
117	1.45575833358619e-05\\
118	1.77155368662972e-05\\
119	1.25696212533893e-05\\
120	0.00536257872371609\\
121	0.00211268623982965\\
122	0.0260838247300269\\
123	0.00217451333070697\\
124	0.00725181887275879\\
125	0.00172529738558871\\
126	7.29305011349401e-05\\
127	1.36362659790461e-05\\
128	3.74064208075321e-06\\
129	0.0010586158482717\\
130	0.00379113202627101\\
131	0.000758547343622605\\
132	0.0126415356386143\\
133	0.00506253761773855\\
134	0.0288371470469507\\
135	0.0167898052647754\\
136	0.0207796593497559\\
137	0.0549260996423405\\
138	0.00546864647221483\\
139	0.0110583174946092\\
140	0.000841666789269872\\
141	2.21906323646295e-05\\
142	0.0048907244698943\\
143	0.00355437409801578\\
144	0.00471311386828764\\
145	0.00386766538580076\\
146	0.0106371183897147\\
147	0.016638696284376\\
148	0.0130632934351584\\
149	0.993656921108317\\
150	0.0130100993555991\\
151	0.016355394740163\\
152	0.0102858922455865\\
153	0.0041999848122838\\
154	0.00514589708375535\\
155	0.00385970593885137\\
156	0.00475763923104518\\
157	9.62216584971749e-05\\
158	0.00111151346259722\\
159	0.0106722265262947\\
160	0.0055318432648887\\
161	0.0545910512889942\\
162	0.020883631902532\\
163	0.0165888084217535\\
164	0.0292882067348793\\
165	0.0051261336268882\\
166	0.0129074703682153\\
167	0.000670268247898767\\
168	0.00409637492379264\\
169	0.00084663318570722\\
170	4.28395394676147e-06\\
171	1.56365168212941e-05\\
172	7.1050358913386e-05\\
173	0.00163599021875075\\
174	0.00724699489956019\\
175	0.00195169881806204\\
176	0.0264477890242312\\
177	0.00213577672802252\\
178	0.00528286789746469\\
179	4.4604654591567e-06\\
180	1.63017975842992e-05\\
181	6.4555997979692e-06\\
182	9.13285471852997e-06\\
183	1.12023498559114e-05\\
184	9.41046961819094e-06\\
185	2.9327455175065e-05\\
186	1.4946168270402e-05\\
187	2.78363302241e-06\\
188	2.73667020984578e-05\\
189	5.86315022626311e-05\\
190	1.53198881500172e-05\\
191	1.38074521635886e-05\\
192	2.1497806152976e-05\\
193	1.87889424138039e-05\\
194	2.82810685693907e-05\\
195	1.92447770458915e-05\\
196	6.82193709907141e-06\\
197	1.05962024463201e-05\\
198	8.31511530372513e-06\\
199	7.89175087478787e-06\\
200	9.90720615752237e-06\\
201	1.90417412361639e-05\\
202	1.93676501065324e-05\\
203	2.01377426248309e-05\\
204	1.55375275527179e-05\\
205	1.43769776019042e-05\\
206	2.96795571869246e-06\\
207	1.04742223284258e-05\\
208	2.10899669344285e-06\\
209	8.54581828689719e-06\\
210	1.86978462289731e-05\\
211	5.00913668030132e-06\\
212	2.729208511378e-05\\
213	3.20611023385648e-05\\
214	1.74969470874816e-05\\
215	7.8130266947202e-06\\
216	1.71807521372225e-05\\
217	1.01833239265666e-05\\
218	1.06030686014016e-05\\
219	2.43215947379543e-05\\
220	5.18510669155506e-06\\
221	1.42595662363608e-05\\
222	9.26388993295012e-06\\
223	1.27403476720995e-05\\
224	1.75465261118606e-05\\
225	7.28196937219741e-06\\
226	2.03524551647395e-06\\
227	8.85444292545869e-06\\
228	4.6383435594087e-06\\
229	1.03684038272182e-05\\
230	2.61314378958972e-05\\
231	4.84658989113821e-06\\
232	1.23031583436901e-05\\
233	9.70857765485095e-06\\
234	1.34716612050137e-05\\
235	7.78286438349883e-06\\
236	1.33849835737072e-05\\
237	1.23774379056911e-05\\
238	1.13990396697422e-05\\
239	8.93511155893721e-06\\
240	7.32061946433139e-06\\
241	1.34838567986418e-05\\
242	1.74561867299222e-05\\
243	1.60739717853863e-05\\
244	6.44423602894869e-06\\
245	7.88782298738729e-06\\
246	3.96625847617753e-06\\
247	4.75865867130585e-06\\
248	5.68607684590974e-06\\
249	1.96743673369823e-05\\
250	1.489286435388e-05\\
251	8.87953386569338e-06\\
252	1.60612727133124e-05\\
253	1.95516217372951e-06\\
254	2.55329943888902e-06\\
255	1.04125300312056e-05\\
256	1.45459495321719e-05\\
257	1.99139568269158e-05\\
258	1.1516839827206e-05\\
259	9.50796697547081e-06\\
260	7.63052637665083e-06\\
261	3.7421309112583e-05\\
262	1.20565663329401e-05\\
263	1.90092408519782e-05\\
264	6.56147612536984e-06\\
265	1.01184241365266e-05\\
266	1.36032847045878e-05\\
267	9.82979912760324e-06\\
268	8.53979615029655e-06\\
269	2.69001935609202e-05\\
270	3.45933026643618e-06\\
271	7.57810650967351e-06\\
272	1.19259157555323e-05\\
273	1.64163629685026e-05\\
274	1.66344340266319e-05\\
275	2.66983892084674e-05\\
276	6.20459273720417e-05\\
277	1.08292812642749e-05\\
278	1.79244575010346e-05\\
279	8.20293848786718e-06\\
280	8.35603062889208e-06\\
281	2.05279148657397e-05\\
282	1.11484436684527e-05\\
283	1.89747541907439e-05\\
284	1.38475136120494e-05\\
285	1.41395383762457e-05\\
286	3.02476903411716e-06\\
287	2.50157918184114e-05\\
288	2.10276101290836e-05\\
289	1.31806901777203e-06\\
290	3.04595126129882e-05\\
291	1.25603157574424e-05\\
292	8.78123060770871e-06\\
293	1.79297697842604e-05\\
294	2.23516450148303e-05\\
295	1.45403742346828e-05\\
296	1.14358118992529e-05\\
297	1.14786639364099e-05\\
298	6.00086448644462e-06\\
299	1.03297278624158e-05\\
};
\addlegendentry{$\mathbf{\hat{h}_{2}}$}

\end{axis}
\end{tikzpicture}%