% This file was created by matlab2tikz.
%
%The latest updates can be retrieved from
%  http://www.mathworks.com/matlabcentral/fileexchange/22022-matlab2tikz-matlab2tikz
%where you can also make suggestions and rate matlab2tikz.
%
\definecolor{mycolor1}{rgb}{0.00000,0.44700,0.74100}%
\definecolor{mycolor2}{rgb}{0.85000,0.32500,0.09800}%
%
\begin{tikzpicture}

\begin{axis}[%
width=1.935in,
height=3.2in,
at={(0.758in,0.512in)},
scale only axis,
xmin=0,
xmax=150,
xlabel style={font=\color{white!15!black}, align=center},
xlabel={Sample Index\\[1ex](a) Actual},
ymin=0,
ymax=0.7,
axis background/.style={fill=white},
legend style={legend cell align=left, align=left, draw=white!15!black}
]
\addplot [color=mycolor1]
  table[row sep=crcr]{%
1	0.0234657806037261\\
2	0.0272334504034075\\
3	0.0326864300765018\\
4	0.0414541482980318\\
5	0.0586677033458464\\
6	0.117843438362983\\
7	0.159969331461504\\
8	0.174397116945152\\
9	0.616552810702634\\
10	0.0882137642931462\\
11	0.0472681903124796\\
12	0.0327587509505929\\
13	0.0272256709659274\\
14	0.0412344622245766\\
15	0.0186762848129325\\
16	0.0451940046978057\\
17	0.0153724087875252\\
18	0.0239672675363248\\
19	0.0400285717874473\\
20	0.0828333966509162\\
21	0.557624977131952\\
22	0.149414784250917\\
23	0.109138078132702\\
24	0.0381681231028791\\
25	0.032799759178118\\
26	0.191519461959093\\
27	0.0734580287558902\\
28	0.0358315656953253\\
29	0.0179563195827385\\
30	0.0169149242156914\\
31	0.0179798517146348\\
32	0.0199431506445131\\
33	0.0279225394655299\\
34	0.0908594243819801\\
35	0.0439964246924232\\
36	0.330890477505262\\
37	0.037800506563543\\
38	0.020261933748638\\
39	0.0138181229977315\\
40	0.0211497159554441\\
41	0.0112042208144458\\
42	0.00964538908702694\\
43	0.00864780826327016\\
44	0.00787736374270682\\
45	0.00720180133294831\\
46	0.00651453200193765\\
47	0.00565492088107664\\
48	0.0112814316241706\\
49	0.0075966567083061\\
50	0.0102713040739602\\
51	0.00787142060243747\\
52	0.00711780022683946\\
53	0.00668443537322835\\
54	0.00638223966522588\\
55	0.00615487020840034\\
56	0.00598242225636516\\
57	0.00586293416152974\\
58	0.00581626175933958\\
59	0.00593494184987807\\
60	0.00707647204853056\\
61	0.00861312572402681\\
62	0.00240649054353041\\
63	0.0036902508247688\\
64	0.0040125763148678\\
65	0.00408542983582614\\
66	0.00408934467211144\\
67	0.00406760360864643\\
68	0.00403657730104579\\
69	0.00400486664899167\\
70	0.00397913876457006\\
71	0.00396763365360209\\
72	0.00398577860522856\\
73	0.00407460869510253\\
74	0.00440882178496405\\
75	0.00852319154542653\\
76	0.00211982859547221\\
77	0.00279674481878385\\
78	0.00295234209521732\\
79	0.00299967450324673\\
80	0.00300734384297471\\
81	0.00299658049652506\\
82	0.00297609501762909\\
83	0.00295010695632826\\
84	0.00292089738309008\\
85	0.00288979839106794\\
86	0.00285763293534116\\
87	0.00282493110979805\\
88	0.00279204510261472\\
89	0.00275921420187501\\
90	0.00272660345813555\\
91	0.00269432766245323\\
92	0.00266246675038502\\
93	0.00263107599882434\\
94	0.00260019295165966\\
95	0.00256984222925479\\
96	0.00254003893333548\\
97	0.0025107910982644\\
98	0.00248210148178531\\
99	0.00245396889001376\\
100	0.00242638916874131\\
101	0.00239935595223708\\
102	0.00237286123354156\\
103	0.00234689580183488\\
104	0.00232144957979209\\
105	0.00229651188498403\\
106	0.00227207163310714\\
107	0.0022481174963278\\
108	0.00222463802675857\\
109	0.00220162175268604\\
110	0.00217905725339276\\
111	0.0021569332170867\\
112	0.00213523848544673\\
113	0.00211396208753109\\
114	0.00209309326520902\\
115	0.00207262149182518\\
116	0.00205253648545491\\
117	0.00203282821783402\\
118	0.00201348691983224\\
119	0.00199450308416773\\
120	0.00197586746592614\\
121	0.00195757108133911\\
122	0.0019396052051902\\
123	0.0019219613671484\\
124	0.00190463134727109\\
125	0.00188760717087541\\
126	0.00187088110293773\\
127	0.00185444564215264\\
128	0.0018382935147574\\
129	0.00182241766820821\\
130	0.00180681126477794\\
131	0.00179146767513212\\
132	0.00177638047192757\\
133	0.00176154342347035\\
134	0.00174695048746156\\
135	0.0017325958048528\\
136	0.00171847369382931\\
137	0.00170457864393352\\
138	0.0016909053103386\\
139	0.00167744850827835\\
140	0.00166420320763913\\
141	0.00165116452771496\\
142	0.00163832773212761\\
143	0.00162568822391149\\
144	0.00161324154076111\\
145	0.0016009833504405\\
146	0.00158890944635072\\
147	0.00157701574325256\\
148	0.00156529827314105\\
149	0\\
150	0\\
};
\addlegendentry{$\mathbf{h_1}$}

\addplot [color=mycolor2]
  table[row sep=crcr]{%
1	0.019775303219206\\
2	0.0210217764534023\\
3	0.0224372323963497\\
4	0.024058742711813\\
5	0.0259351263737046\\
6	0.0281320174688059\\
7	0.0307398096072034\\
8	0.0338865833958781\\
9	0.0377600935275399\\
10	0.0426472101764649\\
11	0.0490094599986528\\
12	0.0576401827385178\\
13	0.0700288298559564\\
14	0.0893407156606893\\
15	0.123700774100431\\
16	0.202175033398071\\
17	0.564479813098353\\
18	0.690442426104836\\
19	0.212260509632627\\
20	0.126132345068284\\
21	0.100380135781766\\
22	0.0378663697499036\\
23	0.0333199748773482\\
24	0.0149453064107011\\
25	0.10083899339379\\
26	0.161002397050911\\
27	0.0405118251764787\\
28	0.0383644765554957\\
29	0.0341227495803863\\
30	0.0306469105251072\\
31	0.0278570926171954\\
32	0.0255709383506331\\
33	0.0236574529195357\\
34	0.0220274984760589\\
35	0.0206190941704396\\
36	0.0193877726649002\\
37	0.0183006807256663\\
38	0.0173329207549748\\
39	0.016465211935799\\
40	0.0156823459816501\\
41	0.0149721364414517\\
42	0.0143246843629073\\
43	0.0137318527665838\\
44	0.0131868826449622\\
45	0.0126841071808284\\
46	0.0122187355837443\\
47	0.0117866872087634\\
48	0.0113844626077037\\
49	0.0110090421200206\\
50	0.0106578052804057\\
51	0\\
52	0\\
53	0\\
54	0\\
55	0\\
56	0\\
57	0\\
58	0\\
59	0\\
60	0\\
61	0\\
62	0\\
63	0\\
64	0\\
65	0\\
66	0\\
67	0\\
68	0\\
69	0\\
70	0\\
71	0\\
72	0\\
73	0\\
74	0\\
75	0\\
76	0\\
77	0\\
78	0\\
79	0\\
80	0\\
81	0\\
82	0\\
83	0\\
84	0\\
85	0\\
86	0\\
87	0\\
88	0\\
89	0\\
90	0\\
91	0\\
92	0\\
93	0\\
94	0\\
95	0\\
96	0\\
97	0\\
98	0\\
99	0\\
100	0\\
101	0\\
102	0\\
103	0\\
104	0\\
105	0\\
106	0\\
107	0\\
108	0\\
109	0\\
110	0\\
111	0\\
112	0\\
113	0\\
114	0\\
115	0\\
116	0\\
117	0\\
118	0\\
119	0\\
120	0\\
121	0\\
122	0\\
123	0\\
124	0\\
125	0\\
126	0\\
127	0\\
128	0\\
129	0\\
130	0\\
131	0\\
132	0\\
133	0\\
134	0\\
135	0\\
136	0\\
137	0\\
138	0\\
139	0\\
140	0\\
141	0\\
142	0\\
143	0\\
144	0\\
145	0\\
146	0\\
147	0\\
148	0\\
149	0\\
150	0\\
};
\addlegendentry{$\mathbf{h_{2}}$}

\end{axis}

\begin{axis}[%
width=1.935in,
height=3.2in,
at={(3.327in,0.512in)},
scale only axis,
xmin=0,
xmax=150,
xlabel style={font=\color{white!15!black}, align=center},
xlabel={Sample Index\\[1ex](b) Estimated},
ymin=0,
ymax=1,
axis background/.style={fill=white},
legend style={legend cell align=left, align=left, draw=white!15!black}
]
\addplot [color=mycolor1]
  table[row sep=crcr]{%
0	5.11060789409926e-05\\
1	2.19954801131055e-06\\
2	9.69817671922039e-06\\
3	1.71243808354179e-05\\
4	2.65068285606185e-05\\
5	1.1763054358034e-05\\
6	2.25311548586061e-05\\
7	8.69334787441362e-06\\
8	1.54100763977035e-05\\
9	2.05871970854015e-05\\
10	2.17712300572806e-05\\
11	3.32163831065562e-05\\
12	1.94198758040262e-05\\
13	4.63970145494731e-05\\
14	1.92146688058929e-05\\
15	1.83859016952348e-05\\
16	1.53750810796782e-05\\
17	1.17840817792313e-05\\
18	5.03438670099339e-06\\
19	1.77632077551971e-05\\
20	1.87093757645558e-05\\
21	1.12854192306178e-05\\
22	1.42836839545189e-05\\
23	1.29461901275987e-05\\
24	1.40759651031763e-05\\
25	2.99874661385396e-05\\
26	4.08042389119032e-05\\
27	2.81046745569463e-05\\
28	1.75813943540135e-05\\
29	2.24685488686315e-05\\
30	1.36032547678445e-05\\
31	3.31888161238575e-05\\
32	5.02352130562194e-06\\
33	1.06942952067213e-05\\
34	1.55599632976749e-05\\
35	1.41536136057102e-06\\
36	2.06354187141738e-05\\
37	5.98921544550994e-06\\
38	0.00796700982217827\\
39	0.00434765828042758\\
40	5.55286338090448e-05\\
41	0.00141749766510249\\
42	3.09683528978312e-05\\
43	1.39661441350253e-05\\
44	2.14875130517441e-05\\
45	1.32172927751353e-05\\
46	1.69723547091719e-05\\
47	2.3377056411662e-05\\
48	0.00547044697217243\\
49	3.10323439950093e-05\\
50	0.0178244997946895\\
51	0.0706232954438308\\
52	0.0165038850293939\\
53	0.0152168008832224\\
54	0.0382677548382382\\
55	5.19818817298947e-05\\
56	0.00421709428219131\\
57	0.0986095197828555\\
58	0.0212553904695165\\
59	0.0181835660099186\\
60	0.0243650131081209\\
61	0.0155455538319183\\
62	0.0344383746119543\\
63	0.147706308786274\\
64	0.0253104400697015\\
65	0.497030544200828\\
66	0.411727610702958\\
67	0.0986372362262384\\
68	0.0771005755748973\\
69	0.022042391045346\\
70	0.0931067070817406\\
71	0.0231110653424121\\
72	0.0437678772464375\\
73	0.00768405585259929\\
74	0.0758441685413584\\
75	0.0777540302470653\\
76	0.109479493799564\\
77	0.250434815533696\\
78	0.488510654575382\\
79	0.184059969724374\\
80	0.0630839088927405\\
81	0.0706703416284843\\
82	0.100917156699808\\
83	0.0918894845019998\\
84	0.103180097980271\\
85	0.0111684436277458\\
86	0.0184576571855746\\
87	0.0245622034306072\\
88	0.0146066877624814\\
89	0.0296044461428927\\
90	0.101029305399681\\
91	0.0948225775298536\\
92	0.286573887823054\\
93	0.0918867080761684\\
94	0.0199015771687509\\
95	0.0317377492096495\\
96	0.00202446525311025\\
97	6.00390485745407e-05\\
98	0.00110184404452353\\
99	0.000747239255409806\\
100	0.0109931439904109\\
101	3.08034461725991e-05\\
102	0.00251010342241663\\
103	0.0125977358371423\\
104	0.0447891770621238\\
105	0.0250722444078929\\
106	3.13427680799733e-05\\
107	0.0136456393981281\\
108	1.11752784009886e-05\\
109	4.18870381278915e-05\\
110	2.83020494334358e-05\\
111	1.43494631708374e-05\\
112	2.87132897610389e-05\\
113	4.92481048817384e-05\\
114	1.41623456153886e-05\\
115	2.5485229023887e-05\\
116	6.75477612841869e-06\\
117	0.0013844498961733\\
118	2.00519672061652e-05\\
119	6.51825141751276e-06\\
120	1.1994813759835e-05\\
121	3.2622016332689e-05\\
122	2.20823984651557e-05\\
123	1.39154361083261e-05\\
124	4.71125021878831e-05\\
125	1.60286997699251e-05\\
126	1.11326187872059e-05\\
127	2.70663070958911e-05\\
128	1.19162079144969e-05\\
129	1.9871569314953e-05\\
130	2.60739997020401e-05\\
131	2.12803599576692e-05\\
132	2.22342583611393e-05\\
133	2.25584439711774e-05\\
134	2.19953724933353e-05\\
135	1.58976522647108e-05\\
136	1.65375810611617e-05\\
137	1.06580628645832e-05\\
138	2.30185154137799e-05\\
139	2.50535282438674e-05\\
140	1.35443342504846e-05\\
141	1.17851050548926e-05\\
142	2.87476606093894e-06\\
143	2.45870232899702e-05\\
144	2.71532276755637e-05\\
145	2.80853555567694e-05\\
146	1.63375505119903e-05\\
147	3.04161501028255e-05\\
148	1.91123746970817e-05\\
149	1.0129333474889e-05\\
};
\addlegendentry{$\mathbf{\hat{h}_{1}}$}

\addplot [color=mycolor2]
  table[row sep=crcr]{%
0	1.42810583699645e-05\\
1	1.08302964265013e-05\\
2	8.89586012205582e-06\\
3	1.91649789725589e-05\\
4	7.78928694583428e-06\\
5	3.59000542739404e-06\\
6	8.75360551473418e-06\\
7	1.7342764446625e-05\\
8	2.18079765581708e-05\\
9	4.18561903450772e-06\\
10	1.71581414080691e-05\\
11	2.361966423021e-06\\
12	1.47371672877306e-05\\
13	6.92525352315783e-06\\
14	1.11102282338648e-05\\
15	1.27866817868312e-05\\
16	5.90135151847326e-06\\
17	4.77590247283991e-06\\
18	7.87842701767933e-06\\
19	9.42240333022943e-06\\
20	1.37101189520246e-05\\
21	9.31012014404555e-06\\
22	1.08649098956279e-05\\
23	3.75671829719395e-06\\
24	6.25633949530567e-06\\
25	5.80084970466203e-06\\
26	1.20012487780791e-05\\
27	4.65333860804252e-06\\
28	1.03288199303228e-05\\
29	3.98520893458782e-06\\
30	1.21027201584089e-05\\
31	7.30078275689716e-06\\
32	0.00149668341011823\\
33	0.00450399204463925\\
34	0.00156185755289941\\
35	0.00691886911445862\\
36	5.91999783531017e-06\\
37	0.00193815432960012\\
38	1.68329402321333e-05\\
39	1.44197401974409e-05\\
40	1.59690169613208e-05\\
41	1.42432499221063e-05\\
42	0.002991744633924\\
43	1.01748764690564e-05\\
44	2.89231750093839e-05\\
45	0.0128835383723733\\
46	0.00347520931101437\\
47	0.0487241058316246\\
48	0.00473928099090249\\
49	0.0229660175588512\\
50	0.00968259678668869\\
51	0.0031395826546387\\
52	7.05440054549539e-06\\
53	2.16485154283261e-05\\
54	0.00567630262193772\\
55	0.000930384460974484\\
56	0.00302861076974374\\
57	0.0269917796978993\\
58	0.0177807154440313\\
59	0.0590079889462977\\
60	0.0313415996614337\\
61	0.041739389708131\\
62	0.133690388265458\\
63	0.0236490729882554\\
64	0.0281548721153366\\
65	0.000304466759309675\\
66	0.0140021976212903\\
67	0.0140046102638854\\
68	0.012846063029871\\
69	0.00151207439587454\\
70	0.00780911871910156\\
71	0.0270636621294757\\
72	0.0337566801230231\\
73	0.0278166295270921\\
74	0.966386640515362\\
75	0.0265662631297034\\
76	0.031911654794432\\
77	0.0245810115893112\\
78	0.010427543432449\\
79	0.00445200827428409\\
80	0.0149599073977946\\
81	0.0153707368603359\\
82	0.0202670762984091\\
83	0.0027391486268048\\
84	0.0244614825245935\\
85	0.0224645721362078\\
86	0.131957036841767\\
87	0.0432503836053219\\
88	0.0286878081324395\\
89	0.0617434925074426\\
90	0.0175155060160903\\
91	0.0289588821143092\\
92	0.00338643824577456\\
93	0.00336097559423031\\
94	0.00420208751787802\\
95	1.23273425222445e-05\\
96	3.79120805915926e-06\\
97	0.00102875926632698\\
98	0.0081541598079456\\
99	0.0220444421670052\\
100	0.00422148574829343\\
101	0.0516341864913711\\
102	0.00381628452326934\\
103	0.0124518391516053\\
104	1.58564879341438e-05\\
105	1.0738550462426e-05\\
106	0.00306089080318972\\
107	1.37027244939318e-05\\
108	1.97438667543221e-05\\
109	1.45379724052735e-05\\
110	1.65036009404495e-05\\
111	0.00159975190828587\\
112	9.27460643238294e-06\\
113	0.00506945807684128\\
114	0.000508986385512572\\
115	0.0042438232612709\\
116	0.00392760285669582\\
117	1.08284187671292e-05\\
118	1.30678960232983e-05\\
119	1.59570040610638e-05\\
120	1.6303980774611e-05\\
121	1.2182178406502e-06\\
122	1.38829453087514e-05\\
123	5.59694111886845e-06\\
124	8.37978252819034e-06\\
125	8.03543212709256e-07\\
126	1.06970990795786e-05\\
127	3.97661383937415e-07\\
128	7.25128186458234e-06\\
129	1.165350780812e-05\\
130	1.74041935702455e-05\\
131	2.85013519162621e-06\\
132	3.73937054153019e-06\\
133	6.55492051089936e-06\\
134	3.4221175929081e-06\\
135	1.53954277745492e-05\\
136	1.35559139036293e-05\\
137	1.52084787633019e-05\\
138	7.66520652341143e-06\\
139	2.4570261408379e-06\\
140	3.8762246869781e-06\\
141	1.19340016014241e-05\\
142	3.20912717748992e-06\\
143	1.03095611655913e-05\\
144	4.72271285556097e-06\\
145	3.59956116416252e-06\\
146	6.65530525415211e-06\\
147	1.50160612841375e-05\\
148	1.43432552270845e-05\\
149	1.05163744964252e-05\\
};
\addlegendentry{$\mathbf{\hat{h}_{2}}$}

\end{axis}
\end{tikzpicture}%