% This file was created by matlab2tikz.
%
%The latest updates can be retrieved from
%  http://www.mathworks.com/matlabcentral/fileexchange/22022-matlab2tikz-matlab2tikz
%where you can also make suggestions and rate matlab2tikz.
%
\definecolor{mycolor1}{rgb}{0.00000,0.44700,0.74100}%
\definecolor{mycolor2}{rgb}{0.85000,0.32500,0.09800}%
%
\begin{tikzpicture}

\begin{axis}[%
width=1.935in,
height=3.2in,
at={(0.758in,0.512in)},
scale only axis,
xmin=0,
xmax=150,
xlabel style={font=\color{white!15!black}, align=center},
xlabel={Sample Index\\[1ex](a) Actual},
ymin=0,
ymax=0.7,
axis background/.style={fill=white},
legend style={legend cell align=left, align=left, draw=white!15!black}
]
\addplot [color=mycolor1]
  table[row sep=crcr]{%
1	0.0234657806037261\\
2	0.0272334504034075\\
3	0.0326864300765018\\
4	0.0414541482980318\\
5	0.0586677033458464\\
6	0.117843438362983\\
7	0.159969331461504\\
8	0.174397116945152\\
9	0.616552810702634\\
10	0.0882137642931462\\
11	0.0472681903124796\\
12	0.0327587509505929\\
13	0.0272256709659274\\
14	0.0412344622245766\\
15	0.0186762848129325\\
16	0.0451940046978057\\
17	0.0153724087875252\\
18	0.0239672675363248\\
19	0.0400285717874473\\
20	0.0828333966509162\\
21	0.557624977131952\\
22	0.149414784250917\\
23	0.109138078132702\\
24	0.0381681231028791\\
25	0.032799759178118\\
26	0.191519461959093\\
27	0.0734580287558902\\
28	0.0358315656953253\\
29	0.0179563195827385\\
30	0.0169149242156914\\
31	0.0179798517146348\\
32	0.0199431506445131\\
33	0.0279225394655299\\
34	0.0908594243819801\\
35	0.0439964246924232\\
36	0.330890477505262\\
37	0.037800506563543\\
38	0.020261933748638\\
39	0.0138181229977315\\
40	0.0211497159554441\\
41	0.0112042208144458\\
42	0.00964538908702694\\
43	0.00864780826327016\\
44	0.00787736374270682\\
45	0.00720180133294831\\
46	0.00651453200193765\\
47	0.00565492088107664\\
48	0.0112814316241706\\
49	0.0075966567083061\\
50	0.0102713040739602\\
51	0.00787142060243747\\
52	0.00711780022683946\\
53	0.00668443537322835\\
54	0.00638223966522588\\
55	0.00615487020840034\\
56	0.00598242225636516\\
57	0.00586293416152974\\
58	0.00581626175933958\\
59	0.00593494184987807\\
60	0.00707647204853056\\
61	0.00861312572402681\\
62	0.00240649054353041\\
63	0.0036902508247688\\
64	0.0040125763148678\\
65	0.00408542983582614\\
66	0.00408934467211144\\
67	0.00406760360864643\\
68	0.00403657730104579\\
69	0.00400486664899167\\
70	0.00397913876457006\\
71	0.00396763365360209\\
72	0.00398577860522856\\
73	0.00407460869510253\\
74	0.00440882178496405\\
75	0.00852319154542653\\
76	0.00211982859547221\\
77	0.00279674481878385\\
78	0.00295234209521732\\
79	0.00299967450324673\\
80	0.00300734384297471\\
81	0.00299658049652506\\
82	0.00297609501762909\\
83	0.00295010695632826\\
84	0.00292089738309008\\
85	0.00288979839106794\\
86	0.00285763293534116\\
87	0.00282493110979805\\
88	0.00279204510261472\\
89	0.00275921420187501\\
90	0.00272660345813555\\
91	0.00269432766245323\\
92	0.00266246675038502\\
93	0.00263107599882434\\
94	0.00260019295165966\\
95	0.00256984222925479\\
96	0.00254003893333548\\
97	0.0025107910982644\\
98	0.00248210148178531\\
99	0.00245396889001376\\
100	0.00242638916874131\\
101	0.00239935595223708\\
102	0.00237286123354156\\
103	0.00234689580183488\\
104	0.00232144957979209\\
105	0.00229651188498403\\
106	0.00227207163310714\\
107	0.0022481174963278\\
108	0.00222463802675857\\
109	0.00220162175268604\\
110	0.00217905725339276\\
111	0.0021569332170867\\
112	0.00213523848544673\\
113	0.00211396208753109\\
114	0.00209309326520902\\
115	0.00207262149182518\\
116	0.00205253648545491\\
117	0.00203282821783402\\
118	0.00201348691983224\\
119	0.00199450308416773\\
120	0.00197586746592614\\
121	0.00195757108133911\\
122	0.0019396052051902\\
123	0.0019219613671484\\
124	0.00190463134727109\\
125	0.00188760717087541\\
126	0.00187088110293773\\
127	0.00185444564215264\\
128	0.0018382935147574\\
129	0.00182241766820821\\
130	0.00180681126477794\\
131	0.00179146767513212\\
132	0.00177638047192757\\
133	0.00176154342347035\\
134	0.00174695048746156\\
135	0.0017325958048528\\
136	0.00171847369382931\\
137	0.00170457864393352\\
138	0.0016909053103386\\
139	0.00167744850827835\\
140	0.00166420320763913\\
141	0.00165116452771496\\
142	0.00163832773212761\\
143	0.00162568822391149\\
144	0.00161324154076111\\
145	0.0016009833504405\\
146	0.00158890944635072\\
147	0.00157701574325256\\
148	0.00156529827314105\\
149	0\\
150	0\\
};
\addlegendentry{$\mathbf{h_1}$}

\addplot [color=mycolor2]
  table[row sep=crcr]{%
1	0.019775303219206\\
2	0.0210217764534023\\
3	0.0224372323963497\\
4	0.024058742711813\\
5	0.0259351263737046\\
6	0.0281320174688059\\
7	0.0307398096072034\\
8	0.0338865833958781\\
9	0.0377600935275399\\
10	0.0426472101764649\\
11	0.0490094599986528\\
12	0.0576401827385178\\
13	0.0700288298559564\\
14	0.0893407156606893\\
15	0.123700774100431\\
16	0.202175033398071\\
17	0.564479813098353\\
18	0.690442426104836\\
19	0.212260509632627\\
20	0.126132345068284\\
21	0.100380135781766\\
22	0.0378663697499036\\
23	0.0333199748773482\\
24	0.0149453064107011\\
25	0.10083899339379\\
26	0.161002397050911\\
27	0.0405118251764787\\
28	0.0383644765554957\\
29	0.0341227495803863\\
30	0.0306469105251072\\
31	0.0278570926171954\\
32	0.0255709383506331\\
33	0.0236574529195357\\
34	0.0220274984760589\\
35	0.0206190941704396\\
36	0.0193877726649002\\
37	0.0183006807256663\\
38	0.0173329207549748\\
39	0.016465211935799\\
40	0.0156823459816501\\
41	0.0149721364414517\\
42	0.0143246843629073\\
43	0.0137318527665838\\
44	0.0131868826449622\\
45	0.0126841071808284\\
46	0.0122187355837443\\
47	0.0117866872087634\\
48	0.0113844626077037\\
49	0.0110090421200206\\
50	0.0106578052804057\\
51	0\\
52	0\\
53	0\\
54	0\\
55	0\\
56	0\\
57	0\\
58	0\\
59	0\\
60	0\\
61	0\\
62	0\\
63	0\\
64	0\\
65	0\\
66	0\\
67	0\\
68	0\\
69	0\\
70	0\\
71	0\\
72	0\\
73	0\\
74	0\\
75	0\\
76	0\\
77	0\\
78	0\\
79	0\\
80	0\\
81	0\\
82	0\\
83	0\\
84	0\\
85	0\\
86	0\\
87	0\\
88	0\\
89	0\\
90	0\\
91	0\\
92	0\\
93	0\\
94	0\\
95	0\\
96	0\\
97	0\\
98	0\\
99	0\\
100	0\\
101	0\\
102	0\\
103	0\\
104	0\\
105	0\\
106	0\\
107	0\\
108	0\\
109	0\\
110	0\\
111	0\\
112	0\\
113	0\\
114	0\\
115	0\\
116	0\\
117	0\\
118	0\\
119	0\\
120	0\\
121	0\\
122	0\\
123	0\\
124	0\\
125	0\\
126	0\\
127	0\\
128	0\\
129	0\\
130	0\\
131	0\\
132	0\\
133	0\\
134	0\\
135	0\\
136	0\\
137	0\\
138	0\\
139	0\\
140	0\\
141	0\\
142	0\\
143	0\\
144	0\\
145	0\\
146	0\\
147	0\\
148	0\\
149	0\\
150	0\\
};
\addlegendentry{$\mathbf{h_{2}}$}

\end{axis}

\begin{axis}[%
width=1.935in,
height=3.2in,
at={(3.327in,0.512in)},
scale only axis,
xmin=0,
xmax=300,
xlabel style={font=\color{white!15!black}, align=center},
xlabel={Sample Index\\[1ex](b) Estimated},
ymin=0,
ymax=1,
axis background/.style={fill=white},
legend style={legend cell align=left, align=left, draw=white!15!black}
]
\addplot [color=mycolor1]
  table[row sep=crcr]{%
0	3.38921701885514e-05\\
1	5.61110979735166e-05\\
2	1.84511911639059e-05\\
3	3.31477611941238e-05\\
4	2.65689387932033e-05\\
5	4.07458483584146e-05\\
6	4.62519877417093e-05\\
7	4.66559353737156e-06\\
8	6.70272332992618e-07\\
9	2.64913948688343e-05\\
10	8.01516072567876e-06\\
11	1.09288340339223e-05\\
12	2.80884237563345e-06\\
13	2.4674632069444e-05\\
14	2.11815622776258e-05\\
15	1.41278004091444e-05\\
16	3.18496298483604e-05\\
17	3.87678215069181e-05\\
18	8.47716657772354e-06\\
19	3.89781618931689e-05\\
20	2.54254779077621e-05\\
21	2.52570702544341e-05\\
22	1.08196539472307e-05\\
23	8.06969566573259e-06\\
24	2.418513225152e-05\\
25	2.55265004024458e-05\\
26	1.72368315468029e-05\\
27	4.26934281301704e-05\\
28	5.61325539403774e-05\\
29	1.82339174184072e-05\\
30	7.33170173307143e-05\\
31	4.61474966651499e-06\\
32	1.56216623472342e-06\\
33	3.5673279193271e-05\\
34	2.44355178485343e-05\\
35	7.59854952713686e-06\\
36	2.82962405946734e-05\\
37	4.63142775331227e-05\\
38	2.86243742597138e-05\\
39	2.50170904337486e-05\\
40	3.26748679350761e-05\\
41	2.00404060726222e-06\\
42	2.11294000680607e-05\\
43	1.47326723696562e-05\\
44	3.89069442771525e-05\\
45	1.64170770095003e-05\\
46	5.24662950201747e-05\\
47	4.53274219237234e-05\\
48	2.17569486376708e-05\\
49	3.89425052512809e-05\\
50	3.4567464188708e-05\\
51	1.50413525272331e-05\\
52	2.24805122082951e-05\\
53	3.39707574516005e-05\\
54	1.44706669978818e-05\\
55	3.85481030630236e-05\\
56	2.46366713976987e-05\\
57	2.29336657881404e-05\\
58	1.39999879484301e-05\\
59	8.38223735279138e-06\\
60	1.81717274311404e-05\\
61	3.77488549914619e-05\\
62	1.69964689015817e-05\\
63	2.17193851329028e-05\\
64	1.5365385888606e-05\\
65	3.26077357033331e-05\\
66	2.67303899013962e-05\\
67	1.61546021475371e-05\\
68	1.67606721210675e-06\\
69	2.64579056387228e-05\\
70	2.11586177897024e-05\\
71	1.14889701594234e-05\\
72	4.45797110841272e-05\\
73	3.16242799294937e-05\\
74	3.64136553085606e-05\\
75	2.43599484428162e-05\\
76	1.97695580924502e-05\\
77	4.13806609041482e-05\\
78	1.33161912430777e-05\\
79	2.65109006612117e-05\\
80	2.48514057005976e-05\\
81	9.92699849400784e-06\\
82	2.10812729008595e-05\\
83	2.15858755946851e-05\\
84	1.44519479444653e-05\\
85	1.27361690559329e-05\\
86	1.81109936082723e-05\\
87	8.93704755024876e-06\\
88	4.51962872874987e-05\\
89	4.50684545920718e-05\\
90	3.55058841171082e-05\\
91	4.17217322912791e-05\\
92	2.85462523970293e-05\\
93	2.2236874750593e-05\\
94	2.07473315661193e-05\\
95	4.21292979532646e-05\\
96	2.42530711872968e-05\\
97	2.94242544617375e-05\\
98	2.45563021293003e-06\\
99	2.93840655738934e-05\\
100	4.18135989674208e-05\\
101	1.91439258293138e-05\\
102	1.47756372623188e-05\\
103	3.74336043397229e-05\\
104	2.08898449462736e-05\\
105	2.59139501947852e-05\\
106	3.15553053619331e-05\\
107	3.97924846610654e-06\\
108	3.84148779783947e-05\\
109	7.2847999988104e-05\\
110	2.82339263976242e-05\\
111	1.75550068893116e-05\\
112	1.67600231009568e-05\\
113	2.63028949835949e-05\\
114	4.0087451066311e-05\\
115	2.29186838205643e-05\\
116	3.09982096093956e-05\\
117	9.70803503855234e-06\\
118	8.67482694392919e-06\\
119	1.45784518361467e-05\\
120	2.33287251227863e-05\\
121	8.25978444072829e-05\\
122	2.72258090220387e-05\\
123	5.31381677738982e-05\\
124	3.35760665858104e-05\\
125	2.75424781752676e-05\\
126	0.0247144510684081\\
127	8.2439257565871e-05\\
128	0.00020270394177817\\
129	0.0146081358330304\\
130	9.09098715163963e-06\\
131	2.03469398784237e-05\\
132	0.101959506394095\\
133	0.0178837311007964\\
134	0.00840259499898089\\
135	0.00991590795861616\\
136	7.48733809756618e-05\\
137	0.0233258268370531\\
138	0.151452802377176\\
139	0.00955298163060718\\
140	0.510699410520603\\
141	0.418711085217951\\
142	0.0923370088202416\\
143	0.0561663860976698\\
144	0.0196375165046453\\
145	0.0982822165678696\\
146	0.006234881548906\\
147	0.0308315788376194\\
148	1.73464394947126e-05\\
149	0.0539022638741536\\
150	0.0538700461367411\\
151	0.0886345028108637\\
152	0.259093364805386\\
153	0.505557582082177\\
154	0.174205439041914\\
155	0.0350037679241008\\
156	0.0548056655786954\\
157	0.10032248702073\\
158	0.0768360430733037\\
159	0.09850829863525\\
160	1.78149238493073e-05\\
161	0.00212552087162108\\
162	0.00378543365491712\\
163	1.62832614602594e-05\\
164	0.0155035824222752\\
165	0.0679199839238836\\
166	0.0894835018039748\\
167	0.296493858736894\\
168	0.0901970033765719\\
169	0.00945631457354234\\
170	0.00843617794102144\\
171	4.24121005540463e-05\\
172	2.40317372912989e-05\\
173	2.5655598878109e-05\\
174	1.4390113677201e-05\\
175	7.60517186063427e-05\\
176	4.5715742156463e-05\\
177	1.10090653261533e-05\\
178	5.00694423748568e-05\\
179	0.0124201110682304\\
180	0.000951453464314667\\
181	6.43111904817154e-05\\
182	2.22691546032871e-05\\
183	2.45951431338451e-05\\
184	3.65864130438685e-05\\
185	9.24794248297942e-06\\
186	2.90707992433198e-05\\
187	2.13469045130961e-05\\
188	2.6017885167242e-05\\
189	2.93209725536218e-05\\
190	1.29628128678436e-05\\
191	4.95767675661822e-05\\
192	1.01220595188675e-05\\
193	3.45275701514699e-05\\
194	5.55826925953063e-05\\
195	3.05363302245836e-05\\
196	3.03295473907414e-05\\
197	3.72837156884073e-05\\
198	2.43365484964409e-05\\
199	3.55335464781629e-05\\
200	2.60582284491648e-05\\
201	1.30910610702432e-05\\
202	2.6244269516127e-05\\
203	1.87421452833146e-05\\
204	4.04811736328574e-05\\
205	4.27421246110243e-05\\
206	3.08880217183816e-05\\
207	2.79555014085114e-05\\
208	3.38748699446575e-05\\
209	3.82248184782479e-05\\
210	2.35767256253424e-05\\
211	1.25656086045514e-05\\
212	2.33439902756679e-05\\
213	6.42510394437901e-06\\
214	2.5530748470377e-05\\
215	2.69886211084367e-05\\
216	9.8482205907986e-06\\
217	2.82071549371104e-05\\
218	2.14353550746234e-05\\
219	2.84871353329907e-05\\
220	3.76297942342097e-05\\
221	1.47337087038694e-05\\
222	6.99549702989034e-06\\
223	1.32275579386364e-05\\
224	2.60559530364882e-05\\
225	2.30185869030634e-05\\
226	3.2208372061528e-05\\
227	4.07402523267805e-05\\
228	1.33596865108827e-05\\
229	1.94920908551666e-05\\
230	1.59374989086895e-05\\
231	1.62043628323161e-05\\
232	2.80752284466075e-05\\
233	1.122756151452e-05\\
234	5.37966682551938e-05\\
235	1.5144865286853e-05\\
236	2.40212526573804e-05\\
237	3.58285158940419e-05\\
238	2.34150772235217e-05\\
239	2.94778191802201e-05\\
240	4.54354791844564e-06\\
241	1.41199872362364e-05\\
242	1.16697602035878e-05\\
243	1.62793119203948e-05\\
244	4.93764296198585e-05\\
245	6.39843606135011e-05\\
246	3.88000068138479e-05\\
247	5.1201917738514e-06\\
248	5.80949328836722e-05\\
249	4.79557560850631e-05\\
250	2.9146563501199e-05\\
251	2.19603329480449e-05\\
252	4.62324328539162e-05\\
253	2.05785926279628e-05\\
254	1.42155747965828e-05\\
255	3.2867588565027e-05\\
256	1.87080411171618e-05\\
257	1.77833157717351e-05\\
258	7.63268242050668e-06\\
259	7.61776863578771e-06\\
260	1.26787849241698e-05\\
261	4.17189512052517e-05\\
262	2.94756701060811e-05\\
263	1.7839370545115e-05\\
264	4.86785773910297e-05\\
265	1.43156410020065e-05\\
266	2.51043227936187e-05\\
267	2.40488983353078e-05\\
268	2.12749233539173e-05\\
269	6.37604803270882e-05\\
270	1.29450513139088e-05\\
271	1.02226408970434e-05\\
272	1.34133416275753e-05\\
273	2.51105283780948e-05\\
274	3.85867897829523e-05\\
275	1.90818294013947e-05\\
276	4.56674657691513e-05\\
277	1.29604128854252e-05\\
278	5.62064621117319e-05\\
279	2.79060479232673e-05\\
280	1.66955142391715e-05\\
281	1.87275985294684e-05\\
282	1.17215924966213e-05\\
283	2.33979662947378e-05\\
284	4.07211810350227e-05\\
285	3.30757278882524e-05\\
286	3.955043727711e-05\\
287	1.52848726645617e-05\\
288	4.95988841243726e-05\\
289	5.9811015637858e-05\\
290	4.03324864445619e-05\\
291	8.82065083794171e-06\\
292	1.30598745250867e-05\\
293	4.68114585734934e-05\\
294	3.77621122028904e-05\\
295	2.5605983519617e-05\\
296	3.6537875958996e-05\\
297	2.53803184939024e-05\\
298	3.65849180719141e-05\\
299	1.65550645300755e-05\\
};
\addlegendentry{$\mathbf{\hat{h}_{1}}$}

\addplot [color=mycolor2]
  table[row sep=crcr]{%
0	8.89047250446719e-06\\
1	1.02607162067927e-05\\
2	4.5499612960568e-06\\
3	8.20517471474985e-06\\
4	7.08626319164895e-06\\
5	7.1220612436889e-06\\
6	9.61886631743649e-07\\
7	7.02831406969503e-06\\
8	8.21981652729728e-06\\
9	9.677229256661e-06\\
10	7.31644722068664e-06\\
11	5.1053008480312e-06\\
12	2.65039508426648e-06\\
13	1.76264696860624e-05\\
14	7.03867807755653e-06\\
15	8.24154933233201e-06\\
16	2.24348421259296e-05\\
17	7.29098270221151e-06\\
18	8.9821078920216e-06\\
19	3.41986947361995e-06\\
20	7.66933155258866e-06\\
21	1.84339437575677e-05\\
22	1.24302561001576e-05\\
23	2.43956066306093e-06\\
24	6.7469334242615e-06\\
25	6.35936403133552e-06\\
26	1.02748118926727e-05\\
27	1.02239037534619e-05\\
28	7.78021467621978e-06\\
29	1.49049252495435e-05\\
30	2.92562594966737e-06\\
31	9.27164602534083e-06\\
32	1.49276843374751e-05\\
33	9.18338572335465e-06\\
34	6.14975850898887e-06\\
35	1.26411686244132e-05\\
36	1.36478900143736e-05\\
37	9.40083941792366e-06\\
38	4.73569856827711e-06\\
39	4.88000098709489e-06\\
40	5.85683880969589e-06\\
41	1.1353661189253e-05\\
42	1.41439739557439e-05\\
43	1.3247101973316e-05\\
44	1.14257956274008e-05\\
45	1.0843828295054e-05\\
46	2.7741631373995e-06\\
47	6.26065720005874e-06\\
48	1.0806048326161e-05\\
49	8.84685720607833e-06\\
50	2.13188980690108e-06\\
51	6.08695976156025e-06\\
52	1.57036215249111e-05\\
53	7.78200426218571e-06\\
54	8.71026295260542e-06\\
55	8.84675187138754e-06\\
56	5.79264227266317e-06\\
57	9.58541709620002e-06\\
58	8.91350361189254e-06\\
59	6.93662853576993e-06\\
60	1.534955371257e-05\\
61	1.59014675234914e-05\\
62	6.5690285508864e-06\\
63	4.45781396411968e-06\\
64	9.28645599927741e-06\\
65	1.36742180078273e-05\\
66	4.84911401497679e-06\\
67	1.37916258943953e-05\\
68	1.46651942945158e-05\\
69	1.49025860100141e-05\\
70	1.72417926840668e-05\\
71	1.68543584859867e-05\\
72	6.89069038055667e-06\\
73	6.3625889701171e-06\\
74	7.97056620191639e-06\\
75	1.17218471305749e-05\\
76	2.07088236821802e-06\\
77	1.26393174502865e-05\\
78	8.07599353812913e-06\\
79	1.31366932978543e-05\\
80	1.03646199371495e-05\\
81	2.1040760268447e-06\\
82	3.19244770041409e-06\\
83	6.20798717659134e-06\\
84	4.0873518351756e-06\\
85	5.213693199138e-06\\
86	8.83811741342421e-06\\
87	3.28305498798598e-06\\
88	1.47037449984975e-05\\
89	8.07166045350604e-06\\
90	1.53833481543965e-05\\
91	3.44444724861193e-06\\
92	8.75517361409893e-06\\
93	1.47161024043781e-05\\
94	5.15836318402737e-06\\
95	5.32245769701918e-06\\
96	8.71793573253689e-06\\
97	1.04129306230333e-05\\
98	1.37190126686459e-05\\
99	1.36554843653051e-05\\
100	8.53506719467428e-06\\
101	1.2912816283629e-05\\
102	1.29738826219795e-05\\
103	1.27352830524808e-05\\
104	7.48992649557201e-06\\
105	1.22136545198401e-05\\
106	9.67733312729565e-06\\
107	1.30594915932401e-05\\
108	1.55579324777664e-05\\
109	1.15836790711647e-05\\
110	6.86121580750579e-05\\
111	1.57856171305526e-05\\
112	2.69860898933231e-05\\
113	1.076659938804e-05\\
114	3.97659264105238e-06\\
115	7.99801367135271e-06\\
116	3.42951564262087e-06\\
117	3.48196065276084e-05\\
118	5.13912767271877e-06\\
119	1.99777859113944e-05\\
120	0.00708458254035491\\
121	0.000929596621268315\\
122	0.0391174494057928\\
123	0.00196513139808502\\
124	0.0105655266279302\\
125	0.00192793399975421\\
126	1.07937890709753e-05\\
127	1.02547615497268e-05\\
128	1.48057410286195e-05\\
129	0.00114683658115161\\
130	0.00185762204006934\\
131	1.25413830774784e-05\\
132	0.0174698246905198\\
133	0.00780279176358419\\
134	0.0442902506111899\\
135	0.0254953383025708\\
136	0.0305276548673112\\
137	0.0917078694733594\\
138	0.0100041779667398\\
139	0.0184063610549378\\
140	5.66022856196811e-06\\
141	8.4909280987461e-05\\
142	0.00757463622955017\\
143	0.00407492959408752\\
144	0.00212868340691386\\
145	0.00337916223507253\\
146	0.0164921995882209\\
147	0.0233329731455162\\
148	0.0172467862865363\\
149	0.984238697705062\\
150	0.0169262314815537\\
151	0.0222583517985726\\
152	0.0150475749668111\\
153	0.00479218972485936\\
154	0.00410439931112496\\
155	0.0054278195533831\\
156	0.00740792954864743\\
157	0.00149000828997868\\
158	9.31988471714726e-05\\
159	0.0167818816048573\\
160	0.0098696616496012\\
161	0.0906035334732459\\
162	0.0310556335569127\\
163	0.0244814966753923\\
164	0.0459935876555931\\
165	0.00806607726114155\\
166	0.0184871649479144\\
167	1.62281266063276e-05\\
168	0.00289261576531503\\
169	0.000363907751472721\\
170	2.14705684502834e-05\\
171	1.8681598373055e-05\\
172	7.98933279465853e-06\\
173	0.00143830222908672\\
174	0.0105078642463869\\
175	0.00117924617290738\\
176	0.0403603730834236\\
177	0.000877022406029668\\
178	0.00673306723261209\\
179	2.24589317381045e-05\\
180	2.8259657837967e-06\\
181	2.4912921006502e-05\\
182	2.14048508306454e-05\\
183	2.62433560234196e-06\\
184	7.97837718410645e-06\\
185	1.18865522641354e-05\\
186	2.19681674240751e-05\\
187	1.27275507361357e-05\\
188	8.21307676918548e-05\\
189	2.07543037540366e-05\\
190	1.61619981692367e-05\\
191	1.18961812760182e-05\\
192	1.27677502301467e-05\\
193	9.23994828382892e-06\\
194	1.01949277521134e-05\\
195	4.1821833187966e-06\\
196	1.07089438530939e-05\\
197	6.23561310182582e-06\\
198	3.45153233122687e-06\\
199	1.38541084947389e-05\\
200	1.19129571156417e-05\\
201	1.5787789199174e-05\\
202	6.98313044775054e-06\\
203	9.34578784807935e-06\\
204	9.54241794072317e-06\\
205	8.88061762556723e-06\\
206	4.66490029490559e-06\\
207	1.03752535054262e-05\\
208	2.96316796987344e-06\\
209	3.75867142453221e-06\\
210	1.28385554332233e-05\\
211	7.11180307338045e-06\\
212	7.23825720456306e-06\\
213	6.96052127112846e-06\\
214	2.48706983996655e-05\\
215	5.80900369369648e-06\\
216	1.1954833599903e-05\\
217	1.00939053591131e-05\\
218	1.25423460634938e-05\\
219	8.53094111564155e-06\\
220	7.10684029453642e-06\\
221	8.60135479480474e-06\\
222	3.91499613508681e-06\\
223	2.81774864181741e-06\\
224	1.02630169314752e-05\\
225	7.54577395758075e-06\\
226	1.56282974996853e-05\\
227	1.77092191199074e-05\\
228	1.2606314471838e-05\\
229	1.12425971455644e-05\\
230	1.03205291106407e-05\\
231	6.89714429033553e-06\\
232	9.33380831698572e-06\\
233	1.71713399825856e-05\\
234	5.63441537629588e-06\\
235	5.82696142661687e-06\\
236	8.73629768537827e-06\\
237	1.54521403815957e-05\\
238	4.27204495824007e-06\\
239	6.40733044349132e-06\\
240	1.2904568227697e-05\\
241	9.36013430239842e-06\\
242	4.43705140500131e-06\\
243	1.14750346447259e-05\\
244	1.17156921363526e-05\\
245	2.15819939329594e-06\\
246	1.60646037212325e-05\\
247	9.71714736724063e-06\\
248	5.28592084333314e-06\\
249	1.46218860860797e-05\\
250	1.91247617617451e-05\\
251	1.35330563250853e-05\\
252	9.24023812510414e-06\\
253	3.26544889450409e-06\\
254	1.41146700889953e-05\\
255	1.0321416501301e-05\\
256	1.17670679301093e-05\\
257	7.87277203307778e-06\\
258	1.97717243215747e-05\\
259	1.85854452467126e-05\\
260	2.54251097963948e-06\\
261	6.17632528731608e-06\\
262	1.33939927415953e-05\\
263	9.1223635350059e-07\\
264	6.38311807211932e-06\\
265	1.5058073276956e-05\\
266	1.18112710020125e-05\\
267	3.00113011029563e-06\\
268	7.97792471979362e-06\\
269	1.09420193715931e-05\\
270	1.40800337292107e-05\\
271	8.68716823450053e-06\\
272	8.83448557404159e-06\\
273	9.61188011898972e-06\\
274	1.56291228139531e-05\\
275	7.58767553917404e-06\\
276	1.41981539385905e-05\\
277	1.01340672908626e-05\\
278	5.39899403435785e-06\\
279	3.03158032445978e-06\\
280	2.54436700613967e-05\\
281	5.6844971985268e-06\\
282	1.0956458370807e-05\\
283	1.20940860428178e-05\\
284	8.936810514505e-06\\
285	1.26038188845228e-05\\
286	1.07747011630179e-05\\
287	2.14197466321939e-05\\
288	2.71363741515977e-06\\
289	5.12950227222466e-06\\
290	5.13657143564142e-06\\
291	5.90696831119157e-06\\
292	9.62384655620802e-06\\
293	1.37421672935922e-05\\
294	4.41899681602022e-06\\
295	6.49113014292818e-06\\
296	8.74442591390394e-06\\
297	1.52219985392011e-05\\
298	1.38002543827926e-05\\
299	1.56903150728598e-06\\
};
\addlegendentry{$\mathbf{\hat{h}_{2}}$}

\end{axis}
\end{tikzpicture}%