% This file was created by matlab2tikz.
%
%The latest updates can be retrieved from
%  http://www.mathworks.com/matlabcentral/fileexchange/22022-matlab2tikz-matlab2tikz
%where you can also make suggestions and rate matlab2tikz.
%
\definecolor{mycolor1}{rgb}{0.00000,0.44700,0.74100}%
\definecolor{mycolor2}{rgb}{0.85000,0.32500,0.09800}%
%
\begin{tikzpicture}

\begin{axis}[%
width=1.935in,
height=3.2in,
at={(0.758in,0.512in)},
scale only axis,
xmin=0,
xmax=200,
xlabel style={font=\color{white!15!black}, align=center},
xlabel={Sample Index\\[1ex](a) Actual},
ymin=0,
ymax=1,
axis background/.style={fill=white},
legend style={legend cell align=left, align=left, draw=white!15!black}
]
\addplot [color=mycolor1]
  table[row sep=crcr]{%
1	0.0167418731260698\\
2	0.018659722218203\\
3	0.0211495716349754\\
4	0.0245407494314006\\
5	0.029505643974117\\
6	0.0377161636169434\\
7	0.0550750576238134\\
8	0.131028403455825\\
9	0.141533477104454\\
10	0.158175166246243\\
11	0.163761757297189\\
12	0.600100605556833\\
13	0.118033417583129\\
14	0.0610914209628117\\
15	0.0426162246246858\\
16	0.0332715711707656\\
17	0.0321939439283243\\
18	0.0268871008873183\\
19	0.0316920608120786\\
20	0.0286771919664519\\
21	0.00773119825769845\\
22	0.0330073087209196\\
23	0.019415059292473\\
24	0.0177688778425817\\
25	0.0188194600762088\\
26	0.0237714798713867\\
27	0.0430806655948836\\
28	0.586023006720236\\
29	0.0970905103802927\\
30	0.0246981078960262\\
31	0.0780346253424249\\
32	0.0580455436901626\\
33	0.0681836526256362\\
34	0.163824852865525\\
35	0.0446106828365612\\
36	0.06119675966513\\
37	0.00907835157153909\\
38	0.0310093774848825\\
39	0.00125972832884384\\
40	0.005422098150711\\
41	0.0107374596162295\\
42	0.0165479326643041\\
43	0.024789327411243\\
44	0.0446277431282512\\
45	0.058019450740893\\
46	0.074843365423057\\
47	0.199666615467323\\
48	0.216838516027539\\
49	0.0783890355452335\\
50	0.0495529240878659\\
51	0.0370791446049236\\
52	0.0307530810094058\\
53	0.0155757068681131\\
54	0.0198807977432187\\
55	0.0179871495341263\\
56	0.0162887905400521\\
57	0.0148728268904216\\
58	0.0136909847461918\\
59	0.0126943671543235\\
60	0.011846112844806\\
61	0.0111233301448608\\
62	0.0105291449791113\\
63	0.0102108676347222\\
64	0.00751288118280402\\
65	0.00739035992869396\\
66	0.0116365722557393\\
67	0.00899390796280924\\
68	0.00831157148096884\\
69	0.00788086875151191\\
70	0.00754217236777393\\
71	0.00725475830161164\\
72	0.00700327644843893\\
73	0.006780818536885\\
74	0.00658453626015097\\
75	0.00641472878078445\\
76	0.00627599401250467\\
77	0.00618216997550965\\
78	0.00617516728867787\\
79	0.00642745729543014\\
80	0.00873051939586948\\
81	0.00471465923588381\\
82	0.00195996010568866\\
83	0.004980313957114\\
84	0.00475839614864904\\
85	0.00464733241660508\\
86	0.00455444244400457\\
87	0.00446749239384432\\
88	0.00438406292262191\\
89	0.00430366820355207\\
90	0.00422628355118023\\
91	0.00415201532524293\\
92	0.00408104289588831\\
93	0.00401365198230764\\
94	0.00395033763548775\\
95	0.00389203620501121\\
96	0.00384070443755282\\
97	0.00380107128140597\\
98	0.00378779867734327\\
99	0.00387836096292209\\
100	0.00228454900881806\\
101	0.00321909463290553\\
102	0.00328982387499096\\
103	0.00328100374444436\\
104	0.00325253146337885\\
105	0.00321692683031362\\
106	0.00317840637543852\\
107	0.00313876414674543\\
108	0.00309887602618152\\
109	0.00305920797263281\\
110	0.00302002111537278\\
111	0.00298146552488656\\
112	0.00294362726599965\\
113	0.0029065537719176\\
114	0.00287026833389302\\
115	0.00283477876811283\\
116	0.00280008280049957\\
117	0.00276617151884636\\
118	0.00273303164395387\\
119	0.00270064705586787\\
120	0.00266899983729428\\
121	0.00263807099659409\\
122	0.00260784097374635\\
123	0.00257828999668392\\
124	0.00254939833288439\\
125	0.00252114646667125\\
126	0.00249351522323938\\
127	0.00246648585412356\\
128	0.00244004009455901\\
129	0.00241416020024051\\
130	0.00238882896892876\\
131	0.0023640297508985\\
132	0.00233974645117835\\
133	0.00231596352577768\\
134	0.00229266597354371\\
135	0.00226983932488367\\
136	0.00224746962828519\\
137	0.00222554343533969\\
138	0.00220404778480324\\
139	0.00218297018609978\\
140	0.00216229860257188\\
141	0.00214202143470905\\
142	0.00212212750352594\\
143	0.00210260603421662\\
144	0.00208344664017788\\
145	0.00206463930746792\\
146	0.00204617437974413\\
147	0.00202804254371082\\
148	0.00201023481509265\\
149	0.00199274252514179\\
150	0.00197555730767936\\
151	0.0019586710866655\\
152	0.00194207606428942\\
153	0.00192576470956709\\
154	0.00190972974743187\\
155	0.00189396414830307\\
156	0.00187846111811499\\
157	0.00186321408878906\\
158	0.00184821670913216\\
159	0.00183346283614256\\
160	0.00181894652670628\\
161	0.00180466202966742\\
162	0.00179060377825436\\
163	0.00177676638284649\\
164	0.00176314462406556\\
165	0.00174973344617591\\
166	0.0017365279507797\\
167	0.00172352339079259\\
168	0.00171071516468654\\
169	0.00169809881098722\\
170	0.00168567000301325\\
171	0.00167342454384613\\
172	0.00166135836151948\\
173	0.00164946750441694\\
174	0.00163774813686889\\
175	0.00162619653493841\\
176	0.00161480908238697\\
177	0.00160358226681213\\
178	0.001592512675948\\
179	0.00158159699412143\\
180	0.00157083199885632\\
181	0.00156021455761888\\
182	0.00154974162469766\\
183	0.00153941023821136\\
184	0.00152921751723897\\
185	0.00151916065906659\\
186	0.00150923693654504\\
187	0.00149944369555362\\
188	0.00148977835256491\\
189	0.00148023839230615\\
190	0.0014708213655126\\
191	0.00146152488676917\\
192	0.00145234663243548\\
193	0.00144328433865201\\
194	0.00143433579942216\\
195	0.0014254988647679\\
196	0.00141677143895562\\
197	0.00140815147878894\\
198	0.00139963699196521\\
199	0\\
200	0\\
};
\addlegendentry{$\mathbf{h_1}$}

\addplot [color=mycolor2]
  table[row sep=crcr]{%
1	0.00495033386861547\\
2	0.00515738368500011\\
3	0.00538309861623286\\
4	0.00563019833310769\\
5	0.00590197136255583\\
6	0.00620243506959928\\
7	0.00653655369620811\\
8	0.00691054090538825\\
9	0.00733228812251618\\
10	0.00781198494389501\\
11	0.00836304134465097\\
12	0.0090034999823859\\
13	0.00975827527656913\\
14	0.0106628508662167\\
15	0.0117696896019869\\
16	0.0131600228416925\\
17	0.0149671880151623\\
18	0.0174273921400842\\
19	0.0210049332363351\\
20	0.0267613442180004\\
21	0.037792597580649\\
22	0.068721841139076\\
23	0.97572931769219\\
24	0.0649085399616321\\
25	0.0262918397391367\\
26	0.0126468169615953\\
27	0.00419508123086451\\
28	0.0214241856295046\\
29	0.0134643328328179\\
30	0.00412679327935559\\
31	0.0112712342656943\\
32	0.0282552508318709\\
33	0.111702725947746\\
34	0.12653020104749\\
35	0.0361926668223949\\
36	0.024130019396178\\
37	0.019518168382204\\
38	0.0163235660243771\\
39	0.0140849625225472\\
40	0.0124312948441269\\
41	0.0111552918846637\\
42	0.0101369616841952\\
43	0.00930266674553233\\
44	0.00860476970863487\\
45	0.00801105372801389\\
46	0.00749890841387189\\
47	0.00705196472677567\\
48	0.00665805661850076\\
49	0.0063079366485928\\
50	0.00599443852440938\\
51	0.00571191453485358\\
52	0.00545584764793091\\
53	0.0052225778141873\\
54	0.00500910486747672\\
55	0.00481294397681212\\
56	0.00463201789166602\\
57	0.00446457542356871\\
58	0.00430912894812168\\
59	0.00416440590497024\\
60	0.00402931074167137\\
61	0.00390289474814389\\
62	0.00378433192171684\\
63	0.00367289949042518\\
64	0.0035679620699816\\
65	0.00346895868109233\\
66	0.00337539203747226\\
67	0.00328681965070268\\
68	0.00320284639950925\\
69	0\\
70	0\\
71	0\\
72	0\\
73	0\\
74	0\\
75	0\\
76	0\\
77	0\\
78	0\\
79	0\\
80	0\\
81	0\\
82	0\\
83	0\\
84	0\\
85	0\\
86	0\\
87	0\\
88	0\\
89	0\\
90	0\\
91	0\\
92	0\\
93	0\\
94	0\\
95	0\\
96	0\\
97	0\\
98	0\\
99	0\\
100	0\\
101	0\\
102	0\\
103	0\\
104	0\\
105	0\\
106	0\\
107	0\\
108	0\\
109	0\\
110	0\\
111	0\\
112	0\\
113	0\\
114	0\\
115	0\\
116	0\\
117	0\\
118	0\\
119	0\\
120	0\\
121	0\\
122	0\\
123	0\\
124	0\\
125	0\\
126	0\\
127	0\\
128	0\\
129	0\\
130	0\\
131	0\\
132	0\\
133	0\\
134	0\\
135	0\\
136	0\\
137	0\\
138	0\\
139	0\\
140	0\\
141	0\\
142	0\\
143	0\\
144	0\\
145	0\\
146	0\\
147	0\\
148	0\\
149	0\\
150	0\\
151	0\\
152	0\\
153	0\\
154	0\\
155	0\\
156	0\\
157	0\\
158	0\\
159	0\\
160	0\\
161	0\\
162	0\\
163	0\\
164	0\\
165	0\\
166	0\\
167	0\\
168	0\\
169	0\\
170	0\\
171	0\\
172	0\\
173	0\\
174	0\\
175	0\\
176	0\\
177	0\\
178	0\\
179	0\\
180	0\\
181	0\\
182	0\\
183	0\\
184	0\\
185	0\\
186	0\\
187	0\\
188	0\\
189	0\\
190	0\\
191	0\\
192	0\\
193	0\\
194	0\\
195	0\\
196	0\\
197	0\\
198	0\\
199	0\\
200	0\\
};
\addlegendentry{$\mathbf{h_{2}}$}

\end{axis}

\begin{axis}[%
width=1.935in,
height=3.2in,
at={(3.327in,0.512in)},
scale only axis,
xmin=0,
xmax=200,
xlabel style={font=\color{white!15!black}, align=center},
xlabel={Sample Index\\[1ex](b) Estimated},
ymin=0,
ymax=1,
axis background/.style={fill=white},
legend style={legend cell align=left, align=left, draw=white!15!black}
]
\addplot [color=mycolor1]
  table[row sep=crcr]{%
0	3.09188644946291e-05\\
1	7.73807618759492e-05\\
2	3.3694039820746e-05\\
3	8.5656984383112e-05\\
4	0.000127979536323679\\
5	0.000115483103959715\\
6	4.25455530463077e-05\\
7	2.09200386559645e-05\\
8	3.4470872212951e-05\\
9	8.07542920922713e-05\\
10	0.000118247523803154\\
11	4.6269603560387e-05\\
12	4.35998035528942e-05\\
13	8.69248345622908e-05\\
14	0.00014641493537221\\
15	2.20513967257061e-05\\
16	8.26094791614751e-05\\
17	6.75697927695567e-05\\
18	2.7284841877978e-05\\
19	3.49241347978863e-05\\
20	8.02215609161061e-05\\
21	5.0387531076726e-05\\
22	4.4052160645559e-05\\
23	6.08694316868116e-05\\
24	3.47169772996782e-05\\
25	4.02908530976902e-05\\
26	6.89747678832274e-05\\
27	1.70863123655381e-05\\
28	8.60506148386212e-05\\
29	0.000112932058849079\\
30	7.41734596503665e-05\\
31	5.91712419816647e-05\\
32	4.53907534483299e-05\\
33	0.000105367409093281\\
34	5.00190375891509e-05\\
35	8.3009782517201e-05\\
36	9.26682076167498e-05\\
37	5.22545519021426e-05\\
38	7.04240122901629e-05\\
39	5.79688012802729e-05\\
40	8.15977338495441e-05\\
41	7.24864459796854e-06\\
42	4.52954875019169e-05\\
43	4.98199656492068e-05\\
44	3.13946474107567e-05\\
45	5.5094240891561e-05\\
46	1.40097393225167e-05\\
47	0.000187111402236197\\
48	6.05903210923146e-05\\
49	9.06283514921959e-05\\
50	3.72607009092072e-05\\
51	4.12852738749846e-05\\
52	0.000101682482417868\\
53	0.000115748092999371\\
54	3.74065120331245e-05\\
55	6.54214722622102e-05\\
56	9.29135389087576e-05\\
57	9.64430249830418e-05\\
58	0.000106237762147704\\
59	5.12637182978257e-05\\
60	0.000396816994542685\\
61	8.05095843505415e-05\\
62	5.73441911205856e-05\\
63	0.0153652246381774\\
64	0.00303289598293387\\
65	0.00795066769005737\\
66	9.07586232768879e-05\\
67	0.0247777019991784\\
68	0.000413461592612332\\
69	0.0204171561582015\\
70	0.0270751688456895\\
71	0.0109109759658823\\
72	0.0851190311476314\\
73	2.68233255098363e-05\\
74	0.00215597417151223\\
75	2.78944308614106e-05\\
76	0.00210475671033738\\
77	0.0325619521112918\\
78	0.0503773999778946\\
79	0.142160728667152\\
80	0.0952555865339954\\
81	0.127946661523652\\
82	0.208495510174016\\
83	0.591043387234236\\
84	0.125207093029745\\
85	0.0565022019771773\\
86	0.00906047472496765\\
87	0.0378478703045611\\
88	0.0595371902467324\\
89	0.0627697305992033\\
90	0.00147344206409811\\
91	0.0168511957870422\\
92	0.000131529309676321\\
93	0.0291839468353586\\
94	0.0109139329829098\\
95	0.0242134976673849\\
96	0.0251732496121195\\
97	0.030221828742314\\
98	0.0686084206770131\\
99	0.602624071286852\\
100	0.120336075523562\\
101	0.0155947071335109\\
102	0.0497172798556445\\
103	0.0466187512417744\\
104	0.0653475680546631\\
105	0.169503430344253\\
106	0.00753355400849152\\
107	0.0354406980859323\\
108	0.0277245129490538\\
109	0.000449731133021741\\
110	0.000213051052775668\\
111	8.28125904831538e-05\\
112	0.000145201497802364\\
113	0.00326373150953643\\
114	0.00160147481559195\\
115	0.0560733675809646\\
116	0.052834798957286\\
117	0.0669201958143172\\
118	0.220256162035876\\
119	0.173203946586442\\
120	0.0647280506560064\\
121	0.0377330875037856\\
122	0.0070135557879864\\
123	0.0123880630468955\\
124	0.00342344705264966\\
125	2.3520854075519e-05\\
126	6.2568980030911e-05\\
127	0.00321045866979187\\
128	0.00026035295657486\\
129	5.93352476759462e-05\\
130	0.000100207982508555\\
131	5.37670158460279e-05\\
132	4.29945480773124e-05\\
133	2.22794911363286e-05\\
134	0.0087391869702981\\
135	0.00836151932704822\\
136	3.43366112367577e-05\\
137	0.000580943122365368\\
138	3.52421981741495e-05\\
139	5.62782973157014e-05\\
140	0.000103539896693197\\
141	6.85724230087504e-05\\
142	4.89779309917442e-05\\
143	3.96063739244494e-05\\
144	7.45556775676417e-05\\
145	8.90650361589031e-05\\
146	0.000106032513031339\\
147	4.52811326184885e-05\\
148	6.02251530936682e-05\\
149	0.000201497803891591\\
150	3.81770975610421e-05\\
151	2.65395580936881e-05\\
152	5.44355972647497e-05\\
153	4.74210278670589e-05\\
154	8.64241293117428e-06\\
155	5.32650248371909e-05\\
156	5.84730244279327e-05\\
157	4.50784198101678e-05\\
158	7.42800759739181e-05\\
159	7.75493524249843e-05\\
160	3.13609044744394e-05\\
161	0.000106610607175696\\
162	8.60241105906291e-05\\
163	4.49989127275871e-05\\
164	6.2227481175049e-05\\
165	1.04149216896474e-05\\
166	8.33244064645251e-05\\
167	3.22842425094055e-05\\
168	5.75398577815658e-05\\
169	6.345513130953e-05\\
170	6.99886409011834e-05\\
171	8.10604936432539e-05\\
172	1.166061828502e-05\\
173	2.31286921011625e-05\\
174	2.22504004734911e-05\\
175	4.44393744050305e-05\\
176	5.22068198494434e-05\\
177	7.17311962871958e-05\\
178	6.79806893152723e-05\\
179	1.73069491801615e-05\\
180	9.17911874560892e-05\\
181	3.46733947795412e-05\\
182	0.000101467214613636\\
183	5.23261709043105e-05\\
184	5.31262867995022e-05\\
185	0.000101460205707563\\
186	5.06882982401491e-05\\
187	4.08456901012607e-05\\
188	7.97490173595861e-05\\
189	5.89472352343287e-05\\
};
\addlegendentry{$\mathbf{\hat{h}_{1}}$}

\addplot [color=mycolor2]
  table[row sep=crcr]{%
0	2.51409688732956e-05\\
1	1.19053081131358e-05\\
2	3.12405310082267e-06\\
3	1.23640984825458e-05\\
4	2.39478027401164e-05\\
5	2.33041321645209e-05\\
6	1.28430910267057e-05\\
7	4.08170271475357e-05\\
8	8.54871097529671e-06\\
9	2.09712721589986e-05\\
10	2.12365605756762e-05\\
11	1.04430632678115e-05\\
12	1.05305939221738e-05\\
13	2.98580366622172e-06\\
14	1.23855615517746e-05\\
15	2.50537356371426e-05\\
16	1.24663010407827e-05\\
17	8.36792353255009e-06\\
18	1.09138517869281e-05\\
19	2.79000205572916e-05\\
20	1.46635474898057e-05\\
21	1.89471039828219e-05\\
22	1.27338953302335e-05\\
23	2.56317906150071e-05\\
24	3.40124500367699e-05\\
25	2.30657707203157e-05\\
26	1.43479530487554e-05\\
27	3.2577163435313e-05\\
28	3.90933730060568e-05\\
29	3.85848269681599e-06\\
30	1.36946430287284e-05\\
31	1.85909909415617e-05\\
32	1.45407437640782e-05\\
33	1.45466787429168e-05\\
34	9.04755993716076e-06\\
35	2.11650684413869e-06\\
36	1.50667365909907e-05\\
37	2.95160983305284e-05\\
38	6.68144163086361e-05\\
39	0.000280826918272207\\
40	1.73706008690885e-05\\
41	2.44290098617604e-06\\
42	5.73323398111012e-05\\
43	7.17203976990673e-05\\
44	4.89076559325545e-06\\
45	2.09600805267163e-05\\
46	9.38607913721613e-06\\
47	2.04650885948017e-05\\
48	1.56764624700923e-05\\
49	1.78393909267556e-05\\
50	5.04747800921342e-05\\
51	2.58283019982978e-05\\
52	1.82106693315248e-05\\
53	3.99786446520385e-05\\
54	0.00122110889956554\\
55	0.0157131603136636\\
56	0.0104128822948888\\
57	1.03342183319025e-05\\
58	0.0317825273445975\\
59	0.011290076723238\\
60	0.0068509540142786\\
61	0.00749755942727221\\
62	0.00238102148752453\\
63	8.00885218925968e-05\\
64	0.000100344365687045\\
65	2.48817640819479e-05\\
66	2.23058522775736e-05\\
67	0.00100695212366837\\
68	0.0111535781602382\\
69	6.73804706512434e-06\\
70	0.00057293263284337\\
71	0.0134284365195159\\
72	0.0114815826272036\\
73	0.00566463754140096\\
74	0.0314842252213246\\
75	0.0386617776194052\\
76	0.0196715599431532\\
77	0.00421899756558107\\
78	0.0840545028931548\\
79	0.00813740577991491\\
80	0.00226978938810455\\
81	0.0119948925783913\\
82	0.00276777022208284\\
83	0.00333848543780669\\
84	8.4778752394056e-05\\
85	0.00821608231722021\\
86	0.0109782230642301\\
87	0.00445893324785726\\
88	0.00546632659891409\\
89	0.00249964709794707\\
90	0.000690541568203892\\
91	0.035550811090746\\
92	0.0161348485364185\\
93	1.14697780736434e-05\\
94	0.98574834298662\\
95	6.52696588880331e-06\\
96	0.0168094720758664\\
97	0.036187247861262\\
98	0.000107579745311779\\
99	0.00311630059533093\\
100	0.00692335716117055\\
101	0.00381470517827474\\
102	0.0104872630800493\\
103	0.00681401238728697\\
104	0.00092144215065261\\
105	0.00355271704727084\\
106	0.00288864190218385\\
107	0.0120624122823496\\
108	0.0013627649500587\\
109	0.0071101982194109\\
110	0.0839773077307839\\
111	0.00386238261215167\\
112	0.0200579938892868\\
113	0.0388491027717319\\
114	0.0322473492376423\\
115	0.00656115774906938\\
116	0.0119603951915476\\
117	0.0139747358834925\\
118	0.000513635168959481\\
119	1.126438999305e-06\\
120	0.0115760885980086\\
121	0.0014966088333735\\
122	1.92709482302754e-05\\
123	5.6059225569342e-06\\
124	0.000436615315248975\\
125	4.83834584251409e-05\\
126	0.00176776158985792\\
127	0.00824472233605834\\
128	0.00658590630523635\\
129	0.0110368811468472\\
130	0.0324130644536684\\
131	1.56681100596819e-05\\
132	0.0110887370786183\\
133	0.0166519424227247\\
134	0.00193107190972732\\
135	6.22488877619712e-05\\
136	1.48505704830208e-06\\
137	3.9254809918909e-05\\
138	6.56904681982334e-05\\
139	4.89412348831156e-05\\
140	7.2184465318048e-06\\
141	2.0808744137049e-05\\
142	1.57716776327393e-05\\
143	1.52490697497327e-05\\
144	8.99276841457424e-06\\
145	7.45448197812463e-05\\
146	5.47375610581351e-05\\
147	8.61716256742142e-06\\
148	1.10685635907832e-05\\
149	0.000181266143706506\\
150	0.000364590522739702\\
151	3.11604187664116e-05\\
152	1.25199001337282e-05\\
153	1.19349422706808e-05\\
154	9.28549992568586e-06\\
155	8.75321864401425e-06\\
156	3.03535124443497e-05\\
157	2.08970836436338e-05\\
158	1.19884955089005e-05\\
159	1.5479278784101e-05\\
160	4.49928795708255e-05\\
161	3.04853235654299e-05\\
162	8.33804349998196e-06\\
163	1.79274258690299e-05\\
164	2.91360964286655e-05\\
165	1.79628830048972e-05\\
166	1.03868878560387e-05\\
167	1.23710831982594e-05\\
168	2.83632095339805e-05\\
169	2.90567451538285e-05\\
170	8.58146758853507e-06\\
171	6.93526592566895e-06\\
172	1.97376913559995e-05\\
173	2.56357229427077e-05\\
174	2.15442097574734e-05\\
175	1.70211980567846e-05\\
176	7.95393618386371e-06\\
177	1.27318402426325e-05\\
178	1.56193645635644e-05\\
179	1.04372150634563e-05\\
180	1.39505791070299e-05\\
181	3.85486454314751e-05\\
182	6.56338098794937e-06\\
183	2.12544152600207e-05\\
184	4.30598853848356e-06\\
185	2.12205402633266e-06\\
186	7.51999491350362e-06\\
187	2.05196567996652e-05\\
188	2.004483790457e-05\\
189	1.09781620432615e-05\\
};
\addlegendentry{$\mathbf{\hat{h}_{2}}$}

\end{axis}
\end{tikzpicture}%