% This file was created by matlab2tikz.
%
%The latest updates can be retrieved from
%  http://www.mathworks.com/matlabcentral/fileexchange/22022-matlab2tikz-matlab2tikz
%where you can also make suggestions and rate matlab2tikz.
%
\definecolor{mycolor1}{rgb}{0.00000,0.44700,0.74100}%
\definecolor{mycolor2}{rgb}{0.85000,0.32500,0.09800}%
%
\begin{tikzpicture}

\begin{axis}[%
width=1.935in,
height=3.2in,
at={(0.758in,0.512in)},
scale only axis,
xmin=0,
xmax=200,
xlabel style={font=\color{white!15!black}, align=center},
xlabel={Sample Index\\[1ex](a) Actual},
ymin=0,
ymax=1,
axis background/.style={fill=white},
legend style={legend cell align=left, align=left, draw=white!15!black}
]
\addplot [color=mycolor1]
  table[row sep=crcr]{%
1	0.0167418731260698\\
2	0.018659722218203\\
3	0.0211495716349754\\
4	0.0245407494314006\\
5	0.029505643974117\\
6	0.0377161636169434\\
7	0.0550750576238134\\
8	0.131028403455825\\
9	0.141533477104454\\
10	0.158175166246243\\
11	0.163761757297189\\
12	0.600100605556833\\
13	0.118033417583129\\
14	0.0610914209628117\\
15	0.0426162246246858\\
16	0.0332715711707656\\
17	0.0321939439283243\\
18	0.0268871008873183\\
19	0.0316920608120786\\
20	0.0286771919664519\\
21	0.00773119825769845\\
22	0.0330073087209196\\
23	0.019415059292473\\
24	0.0177688778425817\\
25	0.0188194600762088\\
26	0.0237714798713867\\
27	0.0430806655948836\\
28	0.586023006720236\\
29	0.0970905103802927\\
30	0.0246981078960262\\
31	0.0780346253424249\\
32	0.0580455436901626\\
33	0.0681836526256362\\
34	0.163824852865525\\
35	0.0446106828365612\\
36	0.06119675966513\\
37	0.00907835157153909\\
38	0.0310093774848825\\
39	0.00125972832884384\\
40	0.005422098150711\\
41	0.0107374596162295\\
42	0.0165479326643041\\
43	0.024789327411243\\
44	0.0446277431282512\\
45	0.058019450740893\\
46	0.074843365423057\\
47	0.199666615467323\\
48	0.216838516027539\\
49	0.0783890355452335\\
50	0.0495529240878659\\
51	0.0370791446049236\\
52	0.0307530810094058\\
53	0.0155757068681131\\
54	0.0198807977432187\\
55	0.0179871495341263\\
56	0.0162887905400521\\
57	0.0148728268904216\\
58	0.0136909847461918\\
59	0.0126943671543235\\
60	0.011846112844806\\
61	0.0111233301448608\\
62	0.0105291449791113\\
63	0.0102108676347222\\
64	0.00751288118280402\\
65	0.00739035992869396\\
66	0.0116365722557393\\
67	0.00899390796280924\\
68	0.00831157148096884\\
69	0.00788086875151191\\
70	0.00754217236777393\\
71	0.00725475830161164\\
72	0.00700327644843893\\
73	0.006780818536885\\
74	0.00658453626015097\\
75	0.00641472878078445\\
76	0.00627599401250467\\
77	0.00618216997550965\\
78	0.00617516728867787\\
79	0.00642745729543014\\
80	0.00873051939586948\\
81	0.00471465923588381\\
82	0.00195996010568866\\
83	0.004980313957114\\
84	0.00475839614864904\\
85	0.00464733241660508\\
86	0.00455444244400457\\
87	0.00446749239384432\\
88	0.00438406292262191\\
89	0.00430366820355207\\
90	0.00422628355118023\\
91	0.00415201532524293\\
92	0.00408104289588831\\
93	0.00401365198230764\\
94	0.00395033763548775\\
95	0.00389203620501121\\
96	0.00384070443755282\\
97	0.00380107128140597\\
98	0.00378779867734327\\
99	0.00387836096292209\\
100	0.00228454900881806\\
101	0.00321909463290553\\
102	0.00328982387499096\\
103	0.00328100374444436\\
104	0.00325253146337885\\
105	0.00321692683031362\\
106	0.00317840637543852\\
107	0.00313876414674543\\
108	0.00309887602618152\\
109	0.00305920797263281\\
110	0.00302002111537278\\
111	0.00298146552488656\\
112	0.00294362726599965\\
113	0.0029065537719176\\
114	0.00287026833389302\\
115	0.00283477876811283\\
116	0.00280008280049957\\
117	0.00276617151884636\\
118	0.00273303164395387\\
119	0.00270064705586787\\
120	0.00266899983729428\\
121	0.00263807099659409\\
122	0.00260784097374635\\
123	0.00257828999668392\\
124	0.00254939833288439\\
125	0.00252114646667125\\
126	0.00249351522323938\\
127	0.00246648585412356\\
128	0.00244004009455901\\
129	0.00241416020024051\\
130	0.00238882896892876\\
131	0.0023640297508985\\
132	0.00233974645117835\\
133	0.00231596352577768\\
134	0.00229266597354371\\
135	0.00226983932488367\\
136	0.00224746962828519\\
137	0.00222554343533969\\
138	0.00220404778480324\\
139	0.00218297018609978\\
140	0.00216229860257188\\
141	0.00214202143470905\\
142	0.00212212750352594\\
143	0.00210260603421662\\
144	0.00208344664017788\\
145	0.00206463930746792\\
146	0.00204617437974413\\
147	0.00202804254371082\\
148	0.00201023481509265\\
149	0.00199274252514179\\
150	0.00197555730767936\\
151	0.0019586710866655\\
152	0.00194207606428942\\
153	0.00192576470956709\\
154	0.00190972974743187\\
155	0.00189396414830307\\
156	0.00187846111811499\\
157	0.00186321408878906\\
158	0.00184821670913216\\
159	0.00183346283614256\\
160	0.00181894652670628\\
161	0.00180466202966742\\
162	0.00179060377825436\\
163	0.00177676638284649\\
164	0.00176314462406556\\
165	0.00174973344617591\\
166	0.0017365279507797\\
167	0.00172352339079259\\
168	0.00171071516468654\\
169	0.00169809881098722\\
170	0.00168567000301325\\
171	0.00167342454384613\\
172	0.00166135836151948\\
173	0.00164946750441694\\
174	0.00163774813686889\\
175	0.00162619653493841\\
176	0.00161480908238697\\
177	0.00160358226681213\\
178	0.001592512675948\\
179	0.00158159699412143\\
180	0.00157083199885632\\
181	0.00156021455761888\\
182	0.00154974162469766\\
183	0.00153941023821136\\
184	0.00152921751723897\\
185	0.00151916065906659\\
186	0.00150923693654504\\
187	0.00149944369555362\\
188	0.00148977835256491\\
189	0.00148023839230615\\
190	0.0014708213655126\\
191	0.00146152488676917\\
192	0.00145234663243548\\
193	0.00144328433865201\\
194	0.00143433579942216\\
195	0.0014254988647679\\
196	0.00141677143895562\\
197	0.00140815147878894\\
198	0.00139963699196521\\
199	0\\
200	0\\
};
\addlegendentry{$\mathbf{h_1}$}

\addplot [color=mycolor2]
  table[row sep=crcr]{%
1	0.00495033386861547\\
2	0.00515738368500011\\
3	0.00538309861623286\\
4	0.00563019833310769\\
5	0.00590197136255583\\
6	0.00620243506959928\\
7	0.00653655369620811\\
8	0.00691054090538825\\
9	0.00733228812251618\\
10	0.00781198494389501\\
11	0.00836304134465097\\
12	0.0090034999823859\\
13	0.00975827527656913\\
14	0.0106628508662167\\
15	0.0117696896019869\\
16	0.0131600228416925\\
17	0.0149671880151623\\
18	0.0174273921400842\\
19	0.0210049332363351\\
20	0.0267613442180004\\
21	0.037792597580649\\
22	0.068721841139076\\
23	0.97572931769219\\
24	0.0649085399616321\\
25	0.0262918397391367\\
26	0.0126468169615953\\
27	0.00419508123086451\\
28	0.0214241856295046\\
29	0.0134643328328179\\
30	0.00412679327935559\\
31	0.0112712342656943\\
32	0.0282552508318709\\
33	0.111702725947746\\
34	0.12653020104749\\
35	0.0361926668223949\\
36	0.024130019396178\\
37	0.019518168382204\\
38	0.0163235660243771\\
39	0.0140849625225472\\
40	0.0124312948441269\\
41	0.0111552918846637\\
42	0.0101369616841952\\
43	0.00930266674553233\\
44	0.00860476970863487\\
45	0.00801105372801389\\
46	0.00749890841387189\\
47	0.00705196472677567\\
48	0.00665805661850076\\
49	0.0063079366485928\\
50	0.00599443852440938\\
51	0.00571191453485358\\
52	0.00545584764793091\\
53	0.0052225778141873\\
54	0.00500910486747672\\
55	0.00481294397681212\\
56	0.00463201789166602\\
57	0.00446457542356871\\
58	0.00430912894812168\\
59	0.00416440590497024\\
60	0.00402931074167137\\
61	0.00390289474814389\\
62	0.00378433192171684\\
63	0.00367289949042518\\
64	0.0035679620699816\\
65	0.00346895868109233\\
66	0.00337539203747226\\
67	0.00328681965070268\\
68	0.00320284639950925\\
69	0\\
70	0\\
71	0\\
72	0\\
73	0\\
74	0\\
75	0\\
76	0\\
77	0\\
78	0\\
79	0\\
80	0\\
81	0\\
82	0\\
83	0\\
84	0\\
85	0\\
86	0\\
87	0\\
88	0\\
89	0\\
90	0\\
91	0\\
92	0\\
93	0\\
94	0\\
95	0\\
96	0\\
97	0\\
98	0\\
99	0\\
100	0\\
101	0\\
102	0\\
103	0\\
104	0\\
105	0\\
106	0\\
107	0\\
108	0\\
109	0\\
110	0\\
111	0\\
112	0\\
113	0\\
114	0\\
115	0\\
116	0\\
117	0\\
118	0\\
119	0\\
120	0\\
121	0\\
122	0\\
123	0\\
124	0\\
125	0\\
126	0\\
127	0\\
128	0\\
129	0\\
130	0\\
131	0\\
132	0\\
133	0\\
134	0\\
135	0\\
136	0\\
137	0\\
138	0\\
139	0\\
140	0\\
141	0\\
142	0\\
143	0\\
144	0\\
145	0\\
146	0\\
147	0\\
148	0\\
149	0\\
150	0\\
151	0\\
152	0\\
153	0\\
154	0\\
155	0\\
156	0\\
157	0\\
158	0\\
159	0\\
160	0\\
161	0\\
162	0\\
163	0\\
164	0\\
165	0\\
166	0\\
167	0\\
168	0\\
169	0\\
170	0\\
171	0\\
172	0\\
173	0\\
174	0\\
175	0\\
176	0\\
177	0\\
178	0\\
179	0\\
180	0\\
181	0\\
182	0\\
183	0\\
184	0\\
185	0\\
186	0\\
187	0\\
188	0\\
189	0\\
190	0\\
191	0\\
192	0\\
193	0\\
194	0\\
195	0\\
196	0\\
197	0\\
198	0\\
199	0\\
200	0\\
};
\addlegendentry{$\mathbf{h_{2}}$}

\end{axis}

\begin{axis}[%
width=1.935in,
height=3.2in,
at={(3.327in,0.512in)},
scale only axis,
xmin=0,
xmax=200,
xlabel style={font=\color{white!15!black}, align=center},
xlabel={Sample Index\\[1ex](b) Estimated},
ymin=0,
ymax=1,
axis background/.style={fill=white},
legend style={legend cell align=left, align=left, draw=white!15!black}
]
\addplot [color=mycolor1]
  table[row sep=crcr]{%
0	2.52994896146989e-05\\
1	8.20101066377137e-06\\
2	1.76640492057943e-05\\
3	5.76306352126806e-05\\
4	6.56097803131501e-06\\
5	5.0311645217452e-05\\
6	1.2556820433658e-05\\
7	3.38186667311045e-05\\
8	1.69692126169536e-05\\
9	3.07728972912726e-05\\
10	4.2701768347163e-05\\
11	4.28153989751131e-05\\
12	6.64368484568065e-06\\
13	4.28621628310289e-05\\
14	1.16282227297004e-05\\
15	2.91874951434504e-05\\
16	1.25898052675278e-05\\
17	5.80997429231851e-05\\
18	7.96892903190378e-06\\
19	7.94413072055938e-06\\
20	4.56677783482624e-05\\
21	5.97591983937437e-05\\
22	4.0835047919654e-05\\
23	1.21868182940629e-05\\
24	1.32171802995945e-05\\
25	6.92065639970448e-06\\
26	3.9551717551945e-05\\
27	1.5371911214726e-05\\
28	3.28298971426629e-05\\
29	1.73457210600338e-05\\
30	2.13489373919705e-05\\
31	1.53154121740701e-05\\
32	3.14868580141264e-05\\
33	1.29301841522572e-05\\
34	5.27258107912209e-05\\
35	4.44830898803642e-05\\
36	2.73295823890392e-05\\
37	2.64497841059828e-05\\
38	2.40625351358165e-05\\
39	4.38749041020698e-06\\
40	3.02671958209078e-05\\
41	5.71625110593809e-05\\
42	2.20915393985346e-05\\
43	1.6469286353531e-05\\
44	2.02285712097915e-05\\
45	9.58619556644826e-06\\
46	1.84991359082788e-05\\
47	7.80856510643905e-06\\
48	2.33038086493175e-05\\
49	9.66690496769302e-06\\
50	4.88919092730502e-05\\
51	2.21819425174889e-05\\
52	0.000594855378770187\\
53	5.01332513220061e-05\\
54	1.63082923099167e-05\\
55	1.23802657451626e-05\\
56	2.08188270682501e-05\\
57	2.03600593020391e-05\\
58	3.38800946726155e-05\\
59	1.61147638654973e-05\\
60	1.71441466271869e-05\\
61	2.33565026883432e-05\\
62	1.89373818299584e-05\\
63	2.60898506027344e-05\\
64	2.91748783798894e-05\\
65	3.41389018358752e-05\\
66	2.73796248735336e-05\\
67	0.000114279251559435\\
68	0.0281206478780296\\
69	0.00554401234380736\\
70	0.0136734889924094\\
71	1.48210633269014e-05\\
72	0.0393472537589673\\
73	0.000116855922209292\\
74	0.0139366232242944\\
75	0.0215341963457183\\
76	2.32274752782314e-05\\
77	0.069483766788503\\
78	2.49782942045098e-05\\
79	2.99264819662632e-05\\
80	3.98263326368069e-05\\
81	4.38810801438886e-05\\
82	0.0285947558137562\\
83	0.0504380755808941\\
84	0.143797418998382\\
85	0.0865941809661948\\
86	0.128669368818697\\
87	0.2095151033233\\
88	0.597013016406251\\
89	0.119344079070703\\
90	0.0526384281803114\\
91	4.58005005123838e-05\\
92	0.0238521686786094\\
93	0.0490135623533151\\
94	0.0503602470815981\\
95	4.66191370202862e-05\\
96	0.0125434889099367\\
97	0.000101296873768021\\
98	0.0304735998641767\\
99	0.0107959198664971\\
100	0.0162272576559031\\
101	0.0284977330434345\\
102	0.0341302309730788\\
103	0.0581990805021269\\
104	0.606749910256175\\
105	0.121885965741471\\
106	0.00293123513166009\\
107	0.0431503740114794\\
108	0.0438738792789781\\
109	0.0621236871148339\\
110	0.165910521453839\\
111	8.08397200527656e-05\\
112	0.0295231668071919\\
113	0.0131495952928584\\
114	1.34896293689132e-05\\
115	3.4730610181585e-05\\
116	1.85554209451114e-05\\
117	2.960823401934e-05\\
118	2.13176217306377e-05\\
119	7.68656214498943e-06\\
120	0.0737829362813589\\
121	0.052653493358266\\
122	0.0673968767596682\\
123	0.220312112077692\\
124	0.165639383112574\\
125	0.0625179344897558\\
126	0.0402793351711324\\
127	4.91136082842705e-05\\
128	0.00852268116827825\\
129	0.00394681323326703\\
130	2.04069095502108e-05\\
131	7.26798482851801e-06\\
132	0.000674198442300188\\
133	3.61966701155321e-05\\
134	1.07685560004738e-05\\
135	2.58824535953846e-05\\
136	2.64562873656641e-05\\
137	1.13875916096845e-05\\
138	1.46447435667326e-05\\
139	0.0178842976832302\\
140	0.0170763327298129\\
141	5.45181100939595e-06\\
142	4.61595959903169e-05\\
143	0.000128592857196907\\
144	1.43771679017566e-05\\
145	2.25557302365142e-05\\
146	1.74238524960707e-05\\
147	1.53814170182639e-05\\
148	4.63685159198114e-05\\
149	1.64239894000833e-05\\
150	2.50466214041792e-05\\
151	2.75410370050478e-05\\
152	1.7840844190388e-05\\
153	2.52052739305451e-05\\
154	9.7160490880731e-06\\
155	3.08649711557187e-05\\
156	1.65649953629077e-05\\
157	5.3804810340427e-05\\
158	4.27610147153907e-05\\
159	2.90917635229225e-06\\
160	1.40812879658239e-05\\
161	3.28391911577997e-05\\
162	3.25866381231532e-05\\
163	1.990784299743e-05\\
164	1.70111549195973e-05\\
165	9.93875868691804e-06\\
166	2.30473464590364e-05\\
167	4.8812859728338e-06\\
168	1.90681576073776e-05\\
169	2.49591741327813e-05\\
170	3.88923562132067e-05\\
171	1.61062196857582e-05\\
172	2.01383807920607e-05\\
173	4.48471779176468e-05\\
174	1.66538734749601e-05\\
175	2.96835472970516e-05\\
176	7.14683876965364e-06\\
177	2.99085658711342e-05\\
178	3.48250707120943e-05\\
179	2.42898253207114e-05\\
180	1.57596386222278e-05\\
181	1.27566292595052e-05\\
182	2.41768830411479e-05\\
183	3.2741181086247e-05\\
184	2.50707971284998e-05\\
185	1.799094291823e-05\\
186	3.75749253453463e-05\\
187	1.50963730697414e-05\\
188	1.17708797158596e-05\\
189	3.61689320790161e-05\\
190	4.19018539176743e-05\\
191	3.51748801863772e-06\\
192	2.42695050619963e-05\\
193	2.76541806987401e-05\\
194	3.68453017877e-05\\
195	7.56409971399661e-06\\
196	8.02258129966235e-06\\
197	2.36401704664168e-05\\
198	1.77360398590899e-05\\
199	1.01891318609408e-05\\
};
\addlegendentry{$\mathbf{\hat{h}_{1}}$}

\addplot [color=mycolor2]
  table[row sep=crcr]{%
0	1.20490540985737e-05\\
1	1.10243734519512e-05\\
2	1.34339184626885e-05\\
3	5.88288240568053e-06\\
4	4.44281273733688e-06\\
5	8.04151847178539e-06\\
6	5.42667552081351e-06\\
7	5.38058407739027e-06\\
8	1.87239926262386e-05\\
9	6.39727901086867e-06\\
10	1.01930790897151e-06\\
11	6.16489176690691e-06\\
12	1.28110221035201e-05\\
13	8.28218192588742e-06\\
14	2.91537761709761e-05\\
15	6.79205342604776e-06\\
16	9.73104434186067e-06\\
17	6.76524037106344e-06\\
18	8.22055309607966e-06\\
19	1.28005711927062e-05\\
20	1.44073682036983e-05\\
21	5.22922760027227e-06\\
22	5.08333969807576e-06\\
23	1.74789399847747e-05\\
24	1.82845260822119e-05\\
25	1.30749593149471e-05\\
26	5.86567137037135e-06\\
27	1.24064108028616e-05\\
28	1.30290075834561e-05\\
29	1.811799070537e-05\\
30	1.4726333719063e-05\\
31	1.38922245903622e-05\\
32	9.33251595782991e-06\\
33	4.3116846388941e-06\\
34	6.61677957305131e-06\\
35	8.19487145655909e-06\\
36	1.93754206101754e-05\\
37	5.81787083554601e-06\\
38	5.94760791093972e-06\\
39	8.68320198135135e-06\\
40	8.04081809570115e-06\\
41	2.09192225250027e-06\\
42	1.77338321483037e-05\\
43	1.20865942504506e-05\\
44	0.00081437480520405\\
45	7.17524506162832e-06\\
46	1.59255854473676e-05\\
47	0.000472299740766376\\
48	5.2436142572555e-06\\
49	3.88181154876437e-06\\
50	6.36736660575934e-06\\
51	5.52936778873194e-06\\
52	6.03731971418062e-06\\
53	2.26012412369588e-05\\
54	1.00938881754004e-05\\
55	8.91908573829356e-06\\
56	5.49404488527061e-06\\
57	9.08396211787549e-06\\
58	5.01935586055363e-06\\
59	0.000203187112559654\\
60	0.0175113046477627\\
61	0.0137537465292815\\
62	1.78191881068322e-05\\
63	0.0391358827626163\\
64	0.0128609921693125\\
65	0.00841784301038716\\
66	0.0090347314671313\\
67	0.00450949680833095\\
68	1.18748487299318e-05\\
69	2.60673224649309e-05\\
70	6.84868248612417e-06\\
71	1.15296794108938e-05\\
72	8.86806415270977e-06\\
73	0.012167577480863\\
74	1.52089177496558e-05\\
75	1.37735286674919e-05\\
76	0.016704771816663\\
77	0.0133066035430577\\
78	0.00454648171362989\\
79	0.0399231414422861\\
80	0.0517900690002809\\
81	0.0255205618788933\\
82	0.00279197957249958\\
83	0.121350253631347\\
84	0.0100434950841177\\
85	0.000706456190414006\\
86	0.0157429430529751\\
87	4.71930199014647e-06\\
88	0.00311960049878715\\
89	4.97181302988929e-05\\
90	0.0128003843886368\\
91	0.0155601733474305\\
92	0.00155552975238414\\
93	0.000383504880912819\\
94	0.000388380439379795\\
95	0.00119309720209416\\
96	0.0475775027540458\\
97	0.0208023956267938\\
98	3.3097378416856e-06\\
99	0.972985107759667\\
100	7.69895485121743e-06\\
101	0.0231262954908053\\
102	0.0500619094375274\\
103	3.45737922195146e-05\\
104	0.00290713886505994\\
105	0.00436231242145185\\
106	1.4717228442651e-05\\
107	0.0142750449173426\\
108	0.00807817214853714\\
109	0.00386095615468458\\
110	0.00739037057595992\\
111	0.000926730701218963\\
112	0.0161172539813393\\
113	5.65825330650621e-05\\
114	0.00636829683878912\\
115	0.121368162081394\\
116	0.00212450910212887\\
117	0.0269332728226424\\
118	0.052287373653934\\
119	0.042133008678436\\
120	0.0074670158973983\\
121	0.0151360128401728\\
122	0.018305511680127\\
123	1.19667261722917e-05\\
124	9.1413763528193e-06\\
125	0.0133661920455646\\
126	0.0011331702530205\\
127	1.32518926722013e-05\\
128	1.32055669012413e-05\\
129	0.000208418118370674\\
130	6.0564814305983e-06\\
131	0.00270705030616224\\
132	0.0108553917698599\\
133	0.00731920955260532\\
134	0.0122275654789592\\
135	0.0414285870447484\\
136	1.0178565368771e-05\\
137	0.0156479057215427\\
138	0.0202883556127685\\
139	0.00180804326011896\\
140	1.40928436896519e-05\\
141	8.62828883876671e-06\\
142	9.40993180909611e-06\\
143	3.98094280785964e-06\\
144	1.34490654228533e-05\\
145	2.01099722130762e-05\\
146	2.62960731550792e-06\\
147	1.49616591122591e-05\\
148	1.59776820922137e-05\\
149	8.0285278415825e-06\\
150	4.12404146688729e-06\\
151	0.000205677645345377\\
152	8.23052668797823e-06\\
153	1.70253272664886e-06\\
154	0.000484530558055511\\
155	5.0039037793556e-05\\
156	1.11928727600366e-05\\
157	1.97062242972255e-06\\
158	4.01796139377096e-06\\
159	1.24095673271618e-05\\
160	3.04605347951524e-06\\
161	7.54571244994818e-06\\
162	1.17151413035023e-05\\
163	9.80710065200008e-06\\
164	8.64354781753266e-06\\
165	1.25032611361841e-05\\
166	4.52283779077725e-06\\
167	1.76888685836118e-05\\
168	2.53624055153728e-05\\
169	1.31845809340011e-05\\
170	1.92038334727442e-06\\
171	4.4809215312744e-06\\
172	7.06760574998828e-06\\
173	1.75874087939606e-05\\
174	2.1009302565587e-05\\
175	1.47482925637702e-05\\
176	6.66460688093389e-06\\
177	1.19661818583858e-05\\
178	1.22301975734403e-05\\
179	1.39004920836226e-05\\
180	1.32448722962605e-05\\
181	1.77693699827193e-05\\
182	1.27973424592767e-05\\
183	1.17218771025216e-05\\
184	2.74691563053704e-05\\
185	1.47679988479563e-05\\
186	2.52306117137608e-05\\
187	7.80351995569052e-06\\
188	1.76663383225315e-05\\
189	9.00969206548062e-06\\
190	1.09719107699281e-05\\
191	6.60686836290186e-06\\
192	9.86165800501502e-06\\
193	8.00502739839647e-06\\
194	6.22334172419175e-06\\
195	6.35271061528428e-06\\
196	5.85929486238746e-06\\
197	8.29697283157979e-06\\
198	1.40296562991032e-05\\
199	7.81897058696755e-06\\
};
\addlegendentry{$\mathbf{\hat{h}_{2}}$}

\end{axis}
\end{tikzpicture}%