% This file was created by matlab2tikz.
%
%The latest updates can be retrieved from
%  http://www.mathworks.com/matlabcentral/fileexchange/22022-matlab2tikz-matlab2tikz
%where you can also make suggestions and rate matlab2tikz.
%
\definecolor{mycolor1}{rgb}{0.00000,0.44700,0.74100}%
\definecolor{mycolor2}{rgb}{0.85000,0.32500,0.09800}%
%
\begin{tikzpicture}

\begin{axis}[%
width=1.935in,
height=3.2in,
at={(0.758in,0.512in)},
scale only axis,
xmin=0,
xmax=200,
xlabel style={font=\color{white!15!black}, align=center},
xlabel={Sample Index\\[1ex](a) Actual},
ymin=0,
ymax=1,
axis background/.style={fill=white},
legend style={legend cell align=left, align=left, draw=white!15!black}
]
\addplot [color=mycolor1]
  table[row sep=crcr]{%
1	0.0167418731260698\\
2	0.018659722218203\\
3	0.0211495716349754\\
4	0.0245407494314006\\
5	0.029505643974117\\
6	0.0377161636169434\\
7	0.0550750576238134\\
8	0.131028403455825\\
9	0.141533477104454\\
10	0.158175166246243\\
11	0.163761757297189\\
12	0.600100605556833\\
13	0.118033417583129\\
14	0.0610914209628117\\
15	0.0426162246246858\\
16	0.0332715711707656\\
17	0.0321939439283243\\
18	0.0268871008873183\\
19	0.0316920608120786\\
20	0.0286771919664519\\
21	0.00773119825769845\\
22	0.0330073087209196\\
23	0.019415059292473\\
24	0.0177688778425817\\
25	0.0188194600762088\\
26	0.0237714798713867\\
27	0.0430806655948836\\
28	0.586023006720236\\
29	0.0970905103802927\\
30	0.0246981078960262\\
31	0.0780346253424249\\
32	0.0580455436901626\\
33	0.0681836526256362\\
34	0.163824852865525\\
35	0.0446106828365612\\
36	0.06119675966513\\
37	0.00907835157153909\\
38	0.0310093774848825\\
39	0.00125972832884384\\
40	0.005422098150711\\
41	0.0107374596162295\\
42	0.0165479326643041\\
43	0.024789327411243\\
44	0.0446277431282512\\
45	0.058019450740893\\
46	0.074843365423057\\
47	0.199666615467323\\
48	0.216838516027539\\
49	0.0783890355452335\\
50	0.0495529240878659\\
51	0.0370791446049236\\
52	0.0307530810094058\\
53	0.0155757068681131\\
54	0.0198807977432187\\
55	0.0179871495341263\\
56	0.0162887905400521\\
57	0.0148728268904216\\
58	0.0136909847461918\\
59	0.0126943671543235\\
60	0.011846112844806\\
61	0.0111233301448608\\
62	0.0105291449791113\\
63	0.0102108676347222\\
64	0.00751288118280402\\
65	0.00739035992869396\\
66	0.0116365722557393\\
67	0.00899390796280924\\
68	0.00831157148096884\\
69	0.00788086875151191\\
70	0.00754217236777393\\
71	0.00725475830161164\\
72	0.00700327644843893\\
73	0.006780818536885\\
74	0.00658453626015097\\
75	0.00641472878078445\\
76	0.00627599401250467\\
77	0.00618216997550965\\
78	0.00617516728867787\\
79	0.00642745729543014\\
80	0.00873051939586948\\
81	0.00471465923588381\\
82	0.00195996010568866\\
83	0.004980313957114\\
84	0.00475839614864904\\
85	0.00464733241660508\\
86	0.00455444244400457\\
87	0.00446749239384432\\
88	0.00438406292262191\\
89	0.00430366820355207\\
90	0.00422628355118023\\
91	0.00415201532524293\\
92	0.00408104289588831\\
93	0.00401365198230764\\
94	0.00395033763548775\\
95	0.00389203620501121\\
96	0.00384070443755282\\
97	0.00380107128140597\\
98	0.00378779867734327\\
99	0.00387836096292209\\
100	0.00228454900881806\\
101	0.00321909463290553\\
102	0.00328982387499096\\
103	0.00328100374444436\\
104	0.00325253146337885\\
105	0.00321692683031362\\
106	0.00317840637543852\\
107	0.00313876414674543\\
108	0.00309887602618152\\
109	0.00305920797263281\\
110	0.00302002111537278\\
111	0.00298146552488656\\
112	0.00294362726599965\\
113	0.0029065537719176\\
114	0.00287026833389302\\
115	0.00283477876811283\\
116	0.00280008280049957\\
117	0.00276617151884636\\
118	0.00273303164395387\\
119	0.00270064705586787\\
120	0.00266899983729428\\
121	0.00263807099659409\\
122	0.00260784097374635\\
123	0.00257828999668392\\
124	0.00254939833288439\\
125	0.00252114646667125\\
126	0.00249351522323938\\
127	0.00246648585412356\\
128	0.00244004009455901\\
129	0.00241416020024051\\
130	0.00238882896892876\\
131	0.0023640297508985\\
132	0.00233974645117835\\
133	0.00231596352577768\\
134	0.00229266597354371\\
135	0.00226983932488367\\
136	0.00224746962828519\\
137	0.00222554343533969\\
138	0.00220404778480324\\
139	0.00218297018609978\\
140	0.00216229860257188\\
141	0.00214202143470905\\
142	0.00212212750352594\\
143	0.00210260603421662\\
144	0.00208344664017788\\
145	0.00206463930746792\\
146	0.00204617437974413\\
147	0.00202804254371082\\
148	0.00201023481509265\\
149	0.00199274252514179\\
150	0.00197555730767936\\
151	0.0019586710866655\\
152	0.00194207606428942\\
153	0.00192576470956709\\
154	0.00190972974743187\\
155	0.00189396414830307\\
156	0.00187846111811499\\
157	0.00186321408878906\\
158	0.00184821670913216\\
159	0.00183346283614256\\
160	0.00181894652670628\\
161	0.00180466202966742\\
162	0.00179060377825436\\
163	0.00177676638284649\\
164	0.00176314462406556\\
165	0.00174973344617591\\
166	0.0017365279507797\\
167	0.00172352339079259\\
168	0.00171071516468654\\
169	0.00169809881098722\\
170	0.00168567000301325\\
171	0.00167342454384613\\
172	0.00166135836151948\\
173	0.00164946750441694\\
174	0.00163774813686889\\
175	0.00162619653493841\\
176	0.00161480908238697\\
177	0.00160358226681213\\
178	0.001592512675948\\
179	0.00158159699412143\\
180	0.00157083199885632\\
181	0.00156021455761888\\
182	0.00154974162469766\\
183	0.00153941023821136\\
184	0.00152921751723897\\
185	0.00151916065906659\\
186	0.00150923693654504\\
187	0.00149944369555362\\
188	0.00148977835256491\\
189	0.00148023839230615\\
190	0.0014708213655126\\
191	0.00146152488676917\\
192	0.00145234663243548\\
193	0.00144328433865201\\
194	0.00143433579942216\\
195	0.0014254988647679\\
196	0.00141677143895562\\
197	0.00140815147878894\\
198	0.00139963699196521\\
199	0\\
200	0\\
};
\addlegendentry{$\mathbf{h_1}$}

\addplot [color=mycolor2]
  table[row sep=crcr]{%
1	0.00495033386861547\\
2	0.00515738368500011\\
3	0.00538309861623286\\
4	0.00563019833310769\\
5	0.00590197136255583\\
6	0.00620243506959928\\
7	0.00653655369620811\\
8	0.00691054090538825\\
9	0.00733228812251618\\
10	0.00781198494389501\\
11	0.00836304134465097\\
12	0.0090034999823859\\
13	0.00975827527656913\\
14	0.0106628508662167\\
15	0.0117696896019869\\
16	0.0131600228416925\\
17	0.0149671880151623\\
18	0.0174273921400842\\
19	0.0210049332363351\\
20	0.0267613442180004\\
21	0.037792597580649\\
22	0.068721841139076\\
23	0.97572931769219\\
24	0.0649085399616321\\
25	0.0262918397391367\\
26	0.0126468169615953\\
27	0.00419508123086451\\
28	0.0214241856295046\\
29	0.0134643328328179\\
30	0.00412679327935559\\
31	0.0112712342656943\\
32	0.0282552508318709\\
33	0.111702725947746\\
34	0.12653020104749\\
35	0.0361926668223949\\
36	0.024130019396178\\
37	0.019518168382204\\
38	0.0163235660243771\\
39	0.0140849625225472\\
40	0.0124312948441269\\
41	0.0111552918846637\\
42	0.0101369616841952\\
43	0.00930266674553233\\
44	0.00860476970863487\\
45	0.00801105372801389\\
46	0.00749890841387189\\
47	0.00705196472677567\\
48	0.00665805661850076\\
49	0.0063079366485928\\
50	0.00599443852440938\\
51	0.00571191453485358\\
52	0.00545584764793091\\
53	0.0052225778141873\\
54	0.00500910486747672\\
55	0.00481294397681212\\
56	0.00463201789166602\\
57	0.00446457542356871\\
58	0.00430912894812168\\
59	0.00416440590497024\\
60	0.00402931074167137\\
61	0.00390289474814389\\
62	0.00378433192171684\\
63	0.00367289949042518\\
64	0.0035679620699816\\
65	0.00346895868109233\\
66	0.00337539203747226\\
67	0.00328681965070268\\
68	0.00320284639950925\\
69	0\\
70	0\\
71	0\\
72	0\\
73	0\\
74	0\\
75	0\\
76	0\\
77	0\\
78	0\\
79	0\\
80	0\\
81	0\\
82	0\\
83	0\\
84	0\\
85	0\\
86	0\\
87	0\\
88	0\\
89	0\\
90	0\\
91	0\\
92	0\\
93	0\\
94	0\\
95	0\\
96	0\\
97	0\\
98	0\\
99	0\\
100	0\\
101	0\\
102	0\\
103	0\\
104	0\\
105	0\\
106	0\\
107	0\\
108	0\\
109	0\\
110	0\\
111	0\\
112	0\\
113	0\\
114	0\\
115	0\\
116	0\\
117	0\\
118	0\\
119	0\\
120	0\\
121	0\\
122	0\\
123	0\\
124	0\\
125	0\\
126	0\\
127	0\\
128	0\\
129	0\\
130	0\\
131	0\\
132	0\\
133	0\\
134	0\\
135	0\\
136	0\\
137	0\\
138	0\\
139	0\\
140	0\\
141	0\\
142	0\\
143	0\\
144	0\\
145	0\\
146	0\\
147	0\\
148	0\\
149	0\\
150	0\\
151	0\\
152	0\\
153	0\\
154	0\\
155	0\\
156	0\\
157	0\\
158	0\\
159	0\\
160	0\\
161	0\\
162	0\\
163	0\\
164	0\\
165	0\\
166	0\\
167	0\\
168	0\\
169	0\\
170	0\\
171	0\\
172	0\\
173	0\\
174	0\\
175	0\\
176	0\\
177	0\\
178	0\\
179	0\\
180	0\\
181	0\\
182	0\\
183	0\\
184	0\\
185	0\\
186	0\\
187	0\\
188	0\\
189	0\\
190	0\\
191	0\\
192	0\\
193	0\\
194	0\\
195	0\\
196	0\\
197	0\\
198	0\\
199	0\\
200	0\\
};
\addlegendentry{$\mathbf{h_{2}}$}

\end{axis}

\begin{axis}[%
width=1.935in,
height=3.2in,
at={(3.327in,0.512in)},
scale only axis,
xmin=0,
xmax=400,
xlabel style={font=\color{white!15!black}, align=center},
xlabel={Sample Index\\[1ex](b) Estimated},
ymin=0,
ymax=1,
axis background/.style={fill=white},
legend style={legend cell align=left, align=left, draw=white!15!black}
]
\addplot [color=mycolor1]
  table[row sep=crcr]{%
0	2.54372117909729e-05\\
1	9.73249605799444e-05\\
2	6.71933997152494e-05\\
3	3.66846062318376e-05\\
4	8.92300892964848e-05\\
5	3.69587504424225e-05\\
6	0.000106764084105119\\
7	2.62370144553789e-05\\
8	8.5614593534961e-06\\
9	6.30294223200863e-05\\
10	6.45862894627767e-05\\
11	5.67240296752994e-05\\
12	2.9147606986875e-05\\
13	5.9260379691237e-05\\
14	2.86259431152768e-05\\
15	2.79505867563276e-05\\
16	3.47450954487826e-05\\
17	0.000180049924780475\\
18	9.45209710703305e-05\\
19	1.04200296015199e-05\\
20	3.51792436148304e-05\\
21	5.20220776877158e-05\\
22	4.00195478715056e-05\\
23	3.36580077899631e-05\\
24	6.06642197038072e-05\\
25	5.93568665245954e-05\\
26	3.46431946232252e-05\\
27	9.42785615606505e-05\\
28	2.03067272092599e-05\\
29	8.10723454903485e-05\\
30	2.87555892174855e-05\\
31	4.91702113818879e-05\\
32	5.06976931297528e-05\\
33	5.96037364780565e-05\\
34	0.000104151192912478\\
35	0.00011691157836006\\
36	5.31468471489013e-05\\
37	4.24119031696989e-05\\
38	3.72700769864762e-05\\
39	3.25465229416378e-05\\
40	3.70490237258848e-05\\
41	9.96701426977573e-05\\
42	4.35218551750889e-05\\
43	6.97938909721173e-05\\
44	3.68764333775156e-05\\
45	5.47284666428686e-05\\
46	3.85908450005631e-05\\
47	2.88242306647966e-05\\
48	6.89571989477238e-05\\
49	2.53557113419303e-05\\
50	5.65639018361423e-05\\
51	8.13894273632665e-05\\
52	2.43895722016416e-05\\
53	4.61746199891262e-05\\
54	6.14090770796623e-05\\
55	2.57379812154778e-05\\
56	7.99752546643306e-05\\
57	1.3335245592924e-05\\
58	2.71083980801133e-05\\
59	6.35448249766196e-05\\
60	5.87269030233994e-05\\
61	3.81292706583688e-05\\
62	6.49529414700866e-05\\
63	7.61863628452807e-05\\
64	4.99893565103819e-05\\
65	4.25068790576284e-05\\
66	3.88937135906075e-05\\
67	5.0899224499343e-05\\
68	2.04110684941381e-05\\
69	7.98564332092667e-05\\
70	1.89082192452027e-05\\
71	8.09863997098e-05\\
72	8.49742523307726e-05\\
73	3.3871233307376e-05\\
74	5.5066191971113e-05\\
75	5.30672021636666e-05\\
76	1.93804473525758e-05\\
77	9.57692586130094e-05\\
78	2.297592105263e-05\\
79	0.000117809308070483\\
80	4.50266554070404e-05\\
81	7.85906044656386e-05\\
82	2.20816076014176e-05\\
83	1.98103895329313e-05\\
84	4.96515505663051e-05\\
85	5.02002427667423e-05\\
86	7.42493584075734e-05\\
87	6.75675561861386e-05\\
88	8.69912719067824e-05\\
89	3.29507619436216e-05\\
90	3.41832954796189e-05\\
91	2.73875560877959e-05\\
92	5.97106112764186e-05\\
93	5.08083773220307e-05\\
94	4.0212599123722e-05\\
95	7.48337794657224e-05\\
96	6.50139921273297e-05\\
97	2.03767312512733e-05\\
98	5.57325081912382e-05\\
99	1.12401796475997e-05\\
100	3.44903411227577e-05\\
101	4.82305095851225e-05\\
102	3.08495933045819e-05\\
103	3.56594861608604e-05\\
104	0.000113281993061676\\
105	2.19786120476636e-05\\
106	4.69452512272472e-05\\
107	7.97380350102448e-05\\
108	2.73728882447847e-05\\
109	4.03706538085476e-05\\
110	3.02859243316808e-05\\
111	3.14334034740306e-05\\
112	2.87848477264414e-05\\
113	6.30643675560751e-05\\
114	4.78212827507705e-05\\
115	5.16408885684172e-05\\
116	2.61868678591538e-05\\
117	3.68292985127213e-05\\
118	8.03413641336729e-05\\
119	5.04690295353225e-05\\
120	5.60021556336121e-05\\
121	3.24041096827201e-05\\
122	3.97721409182223e-05\\
123	7.44077695350014e-05\\
124	1.01999482145792e-05\\
125	9.1582943632777e-06\\
126	6.169569971302e-05\\
127	1.1434170566062e-05\\
128	3.9134829491507e-05\\
129	0.00010228307432319\\
130	6.71277598443727e-05\\
131	0.000111079033355102\\
132	0.000124068823913957\\
133	8.06849880387105e-05\\
134	3.75893891685642e-05\\
135	0.000135366651076475\\
136	3.01907932788217e-05\\
137	7.94720374655125e-05\\
138	4.40410707668687e-05\\
139	5.60039832849942e-05\\
140	0.00012159564455303\\
141	4.68021689528178e-05\\
142	6.31682729590129e-05\\
143	9.17078431813412e-05\\
144	4.99468730611459e-05\\
145	8.93847204946018e-06\\
146	5.8496455303929e-05\\
147	2.33900365214718e-05\\
148	4.02211599890334e-05\\
149	7.53903682614539e-05\\
150	3.77102958880926e-05\\
151	5.00859814778547e-05\\
152	4.63423202448953e-05\\
153	4.29676177313396e-05\\
154	2.17728540256456e-05\\
155	6.37057696332381e-05\\
156	8.77434734560603e-05\\
157	2.84527088361448e-05\\
158	3.17431672266997e-05\\
159	6.1686778611813e-05\\
160	4.35864686520364e-05\\
161	5.93426424785921e-05\\
162	2.24281119139736e-05\\
163	2.34441265485374e-05\\
164	6.04148049293546e-05\\
165	3.4051539115968e-05\\
166	8.67723761188462e-05\\
167	3.91984361538896e-05\\
168	5.02578805381815e-05\\
169	4.92489037346114e-05\\
170	2.48675578266688e-05\\
171	5.20392316749136e-05\\
172	0.00276190435049239\\
173	9.68667328872859e-05\\
174	0.00808928318850746\\
175	0.00905633762585886\\
176	0.000102753264314169\\
177	0.0759776139318769\\
178	5.63808662960932e-05\\
179	3.65716575060612e-05\\
180	3.03990166228628e-05\\
181	0.000208533738862766\\
182	0.0156983088656434\\
183	0.0314565481565481\\
184	0.134562377716712\\
185	0.0885396923059739\\
186	0.117807295476983\\
187	0.202900164082234\\
188	0.609912806905932\\
189	0.116133030834603\\
190	0.0372836295959505\\
191	0.000119763589745856\\
192	0.0270241607009254\\
193	0.0518751438560153\\
194	0.0547113842358171\\
195	8.18533022025744e-05\\
196	0.000501679200859989\\
197	9.86917962083903e-05\\
198	0.0102601718565649\\
199	0.00014365900581546\\
200	0.0104998448482472\\
201	0.00311265107045257\\
202	0.00880489171479741\\
203	0.0583530471795161\\
204	0.622384132138037\\
205	0.106034150803695\\
206	3.30934882171923e-05\\
207	0.045093812058359\\
208	0.0323453463237874\\
209	0.050894741848475\\
210	0.164875102080979\\
211	4.71148748949242e-07\\
212	0.0181056619582772\\
213	0.0176033911741019\\
214	6.13417936264619e-05\\
215	0.00010095544032985\\
216	3.26317062802186e-05\\
217	2.03215406330781e-05\\
218	3.0520639580152e-05\\
219	1.07659739612277e-05\\
220	0.0237828629537873\\
221	0.031225008931924\\
222	0.0508366727259967\\
223	0.216177989607362\\
224	0.170431847566024\\
225	0.0496238727778933\\
226	0.0195904741009106\\
227	0.000357515397956107\\
228	0.000119607867004303\\
229	0.00012440730665523\\
230	4.6659377819623e-05\\
231	0.000121336455589835\\
232	2.62080247580837e-05\\
233	0.00015093461284829\\
234	6.09217137801827e-05\\
235	4.00376942008386e-05\\
236	1.66133276750406e-05\\
237	7.36857380154994e-05\\
238	3.73228425865674e-05\\
239	6.05276199947215e-05\\
240	0.000289278073981292\\
241	4.19795176104263e-05\\
242	0.000138349513124987\\
243	6.97322546788632e-05\\
244	6.31597494704854e-05\\
245	6.32044082848423e-05\\
246	7.17468351067658e-05\\
247	3.78485839043915e-05\\
248	7.05107914412582e-05\\
249	3.60769206624885e-05\\
250	5.41128036034269e-05\\
251	0.000161471410905046\\
252	3.14433181809186e-05\\
253	4.86827504657535e-05\\
254	6.99666216846389e-05\\
255	6.0081090688781e-05\\
256	9.48742386750073e-06\\
257	4.57595664822332e-05\\
258	6.72832715453954e-05\\
259	0.000104406411770872\\
260	9.41851346940928e-05\\
261	4.10525923631408e-05\\
262	0.000109432395646481\\
263	5.65077343799092e-05\\
264	7.99992144545343e-05\\
265	4.29202371390416e-05\\
266	7.38117818806242e-05\\
267	4.13199405879505e-05\\
268	7.55204892696249e-05\\
269	9.84053249434627e-05\\
270	0.000113033895318582\\
271	5.73614851699588e-05\\
272	3.04605109175573e-05\\
273	6.94969717470941e-05\\
274	0.000132978673004955\\
275	2.14794924774124e-05\\
276	7.88600040086389e-05\\
277	5.65437465863793e-05\\
278	4.88590190159797e-05\\
279	1.2773884668882e-05\\
280	4.11578652138311e-05\\
281	4.19237250929795e-05\\
282	0.000130558050541095\\
283	5.57690913808637e-05\\
284	3.73064555681133e-05\\
285	2.82552413663396e-05\\
286	1.50525051252857e-05\\
287	5.33656407704066e-05\\
288	0.000111048281685099\\
289	1.88736632160697e-05\\
290	2.9071425155849e-05\\
291	5.64979884843981e-05\\
292	2.01182052800851e-05\\
293	7.9483474476716e-05\\
294	0.000100344749894654\\
295	1.53577258877843e-05\\
296	0.000145603673432277\\
297	6.61846673285291e-05\\
298	2.28112722522491e-05\\
299	4.42703348008802e-05\\
300	9.34376220564945e-05\\
301	4.91297983793414e-05\\
302	6.37632458530282e-05\\
303	2.29793364701363e-05\\
304	2.86786032521928e-05\\
305	8.43164610859714e-05\\
306	6.52401501114276e-05\\
307	1.81737376361219e-05\\
308	7.41658387938143e-05\\
309	0.000112891088001706\\
310	3.93634770608465e-05\\
311	0.000108066360304361\\
312	4.69754031535244e-05\\
313	5.29552677211842e-05\\
314	5.56360121641117e-05\\
315	0.000130539725977449\\
316	0.000127152772701051\\
317	3.54527070621219e-05\\
318	5.06735406093695e-05\\
319	1.67403197539821e-05\\
320	1.65760170843519e-05\\
321	3.974710173719e-05\\
322	0.000100781687699698\\
323	2.57352981664992e-05\\
324	4.62228351179085e-05\\
325	7.89131534859002e-05\\
326	6.82515962176625e-05\\
327	1.48406898369473e-05\\
328	0.000112017771071431\\
329	0.000101982666599416\\
330	1.80554940027546e-05\\
331	6.88170372979682e-05\\
332	0.000124389636804615\\
333	6.05251923465269e-05\\
334	6.5361878783571e-05\\
335	6.87636902542762e-05\\
336	0.00010314270171433\\
337	7.41998872719931e-05\\
338	0.000112687553222967\\
339	4.25163759299855e-05\\
340	3.5294021395361e-05\\
341	1.53836268495132e-05\\
342	3.55524743459323e-05\\
343	7.96602984865153e-05\\
344	6.51303273475687e-05\\
345	7.16236134129421e-05\\
346	5.15546722467313e-05\\
347	6.95156588707697e-05\\
348	4.61881082909233e-05\\
349	1.3231333365502e-05\\
350	5.94151076851665e-05\\
351	5.53415293073002e-05\\
352	4.71732532430481e-05\\
353	2.7374752545815e-05\\
354	7.38489866384218e-05\\
355	5.05495327170903e-05\\
356	3.42062459613148e-05\\
357	3.90238736427729e-05\\
358	3.15756649247354e-05\\
359	7.39551793438981e-05\\
360	0.000101091954985918\\
361	5.43914670028966e-05\\
362	2.81173458792903e-05\\
363	3.04138424690244e-05\\
364	5.28793208555761e-05\\
365	9.3736572691268e-05\\
366	3.87520929468599e-05\\
367	7.0089957928045e-05\\
368	8.08628771010925e-05\\
369	2.71694150655466e-05\\
370	2.20051220701183e-05\\
371	3.28800112135173e-05\\
372	2.6398341978413e-05\\
373	9.37094264676104e-05\\
374	4.05732302195563e-05\\
375	9.70291967906878e-05\\
376	2.72918274510253e-05\\
377	8.53920486132493e-05\\
378	2.02586789972597e-05\\
379	4.72655294520639e-05\\
380	2.30980519306336e-05\\
381	4.67692480452492e-05\\
382	6.5622383083472e-05\\
383	5.18442240132443e-05\\
384	6.10959992524435e-05\\
385	3.04017099950544e-05\\
386	3.87419790735228e-05\\
387	3.02477441622754e-05\\
388	7.03753865035986e-05\\
389	4.06551915509852e-05\\
390	6.15202925250435e-05\\
391	7.67919946206046e-05\\
392	3.09269708955608e-05\\
393	9.38819719121163e-05\\
394	0.000106093002523924\\
395	7.5782274144878e-05\\
396	4.8769248142072e-05\\
397	7.38422240018768e-05\\
398	2.3998229238919e-05\\
399	9.32757734972528e-05\\
};
\addlegendentry{$\mathbf{\hat{h}_{1}}$}

\addplot [color=mycolor2]
  table[row sep=crcr]{%
0	1.61898066327498e-05\\
1	9.57870157667557e-06\\
2	8.36098683186478e-06\\
3	3.13653524019372e-06\\
4	1.54798859070422e-05\\
5	1.15897704250504e-05\\
6	4.72026077515461e-06\\
7	2.57547858522107e-06\\
8	1.19997990795341e-05\\
9	2.09060229767438e-05\\
10	5.71085679932825e-06\\
11	1.45020865155679e-05\\
12	1.4023374078725e-05\\
13	5.81853504549198e-06\\
14	1.36980705032831e-05\\
15	3.78803836486215e-06\\
16	8.59433078924255e-06\\
17	1.04259780588908e-05\\
18	1.4424403353121e-05\\
19	6.36953213009241e-06\\
20	1.78217258298009e-05\\
21	9.66629732516561e-06\\
22	8.60399564664652e-06\\
23	8.27646698426727e-06\\
24	6.48904164420543e-06\\
25	7.65425980520175e-06\\
26	5.92097024782425e-06\\
27	6.3561841041713e-06\\
28	3.27516943371683e-05\\
29	2.51678196176368e-06\\
30	1.39398225279894e-05\\
31	1.12967743097117e-05\\
32	3.76559819557122e-06\\
33	5.57871402941307e-06\\
34	1.05064327570469e-05\\
35	1.71504768195821e-06\\
36	1.66527773258815e-06\\
37	2.87616867127675e-06\\
38	8.1290662405558e-06\\
39	4.46595915458112e-06\\
40	1.36116071154409e-05\\
41	4.02805039451015e-06\\
42	1.44374977863499e-06\\
43	1.60289142260261e-05\\
44	1.22235261950206e-05\\
45	2.49613737886011e-06\\
46	1.30559125031069e-05\\
47	2.57653758779114e-06\\
48	1.97631054237541e-06\\
49	1.02950394828541e-05\\
50	6.52245406503548e-06\\
51	9.966765263194e-06\\
52	9.34169636329665e-06\\
53	1.99992984062573e-06\\
54	1.27906633223561e-05\\
55	4.45153783460412e-06\\
56	1.80612782673244e-05\\
57	3.03139413841665e-06\\
58	5.11825426724218e-06\\
59	6.98536041525404e-06\\
60	1.16513664129062e-05\\
61	1.06039474589513e-05\\
62	7.52383354062237e-06\\
63	4.40832851160357e-06\\
64	8.5331385575732e-06\\
65	1.55198617593723e-05\\
66	6.28046828376287e-06\\
67	1.817830716401e-05\\
68	1.75901132003459e-06\\
69	7.60657415762826e-06\\
70	4.52710122833967e-06\\
71	1.6327884725719e-05\\
72	2.56779044963263e-05\\
73	5.70423178923266e-06\\
74	3.45408981438187e-06\\
75	7.66838127987956e-06\\
76	9.22699923881974e-06\\
77	1.56028210889124e-05\\
78	7.44274532134725e-06\\
79	1.49234326289705e-05\\
80	1.1305786456779e-05\\
81	4.00134624665909e-06\\
82	5.17231682659996e-06\\
83	7.56420446435223e-06\\
84	3.76154810023828e-06\\
85	1.58559679763172e-05\\
86	5.55337119557721e-06\\
87	2.37756239909474e-05\\
88	1.71162300962381e-05\\
89	6.26944765576224e-06\\
90	1.63844248181924e-05\\
91	2.31965062743842e-05\\
92	1.4036935551301e-05\\
93	3.97943742761151e-06\\
94	9.74055374954819e-06\\
95	8.94584142965658e-06\\
96	3.60669747253656e-06\\
97	1.63773857957215e-05\\
98	3.03243625468724e-06\\
99	5.52709532239732e-06\\
100	9.94003814946999e-06\\
101	2.76411977339816e-06\\
102	4.93627354692763e-06\\
103	7.71899513427713e-06\\
104	1.26491305262106e-05\\
105	5.20072823463164e-06\\
106	4.20863079746501e-06\\
107	2.42996127828353e-05\\
108	8.16004775757837e-06\\
109	7.1817561484329e-06\\
110	1.09493186424058e-05\\
111	6.03855705003077e-06\\
112	8.68258960544607e-06\\
113	2.33416472770259e-05\\
114	1.57409052734131e-05\\
115	4.99062170238901e-06\\
116	5.36325938166451e-06\\
117	1.20931767355726e-05\\
118	1.52573198796227e-06\\
119	8.19608281548233e-06\\
120	1.0394172700749e-05\\
121	4.02841299749865e-06\\
122	9.55446887512452e-07\\
123	5.14895686783021e-06\\
124	4.90976939307618e-06\\
125	2.66924897143829e-06\\
126	6.71733303710021e-06\\
127	1.16443430627016e-05\\
128	8.8535539579268e-06\\
129	7.60168647759764e-06\\
130	7.70297099358037e-06\\
131	3.39025708062723e-06\\
132	6.59871304174827e-06\\
133	4.68455876097809e-06\\
134	1.18118539340592e-05\\
135	1.65836161403584e-05\\
136	1.67046954283887e-05\\
137	4.13236808643028e-06\\
138	1.66182879033746e-07\\
139	7.6282320142686e-06\\
140	7.3765776659367e-06\\
141	2.86992303925493e-06\\
142	5.960008423852e-06\\
143	1.04404086706764e-05\\
144	1.43560856208068e-05\\
145	7.0531244141674e-06\\
146	5.00924112522438e-06\\
147	2.13813036377491e-05\\
148	6.34115781375018e-06\\
149	5.70141013082057e-06\\
150	3.60188247900109e-06\\
151	2.06251965250764e-06\\
152	8.73268737980313e-06\\
153	7.46296313255795e-06\\
154	1.65904256641297e-05\\
155	4.99379003881344e-06\\
156	4.8340771711206e-06\\
157	6.12400321456553e-06\\
158	8.55387973753667e-06\\
159	5.54707280971512e-06\\
160	0.00767655581716236\\
161	0.00360025405555006\\
162	1.14255989439759e-05\\
163	0.0163779618769881\\
164	0.00390576815603208\\
165	0.00152496492112625\\
166	0.0013791429200334\\
167	1.45484531314964e-05\\
168	6.71056410901949e-06\\
169	1.1722061680035e-05\\
170	2.4119851132551e-06\\
171	2.93626157544368e-06\\
172	4.25438450858891e-05\\
173	0.00493184276902419\\
174	1.52270713374602e-05\\
175	7.48239020553458e-06\\
176	0.00523936281657943\\
177	0.00434162921087763\\
178	0.000956249045452592\\
179	0.0164071085981714\\
180	0.0198899335554061\\
181	0.00859949344339239\\
182	0.00145857917143604\\
183	0.0436898526009012\\
184	0.00226029078994591\\
185	2.08044443932882e-05\\
186	0.00415297453040323\\
187	3.066605373609e-05\\
188	4.3376418597488e-05\\
189	2.72665657251934e-06\\
190	0.00114783508330299\\
191	0.00352895782638115\\
192	0.000799849847798224\\
193	0.00161576545475153\\
194	8.43953148156446e-06\\
195	4.82333274149098e-06\\
196	0.0183679701203667\\
197	0.00605122343331603\\
198	6.42189317977023e-06\\
199	0.996479972892182\\
200	1.31861271638361e-05\\
201	0.00640631644659613\\
202	0.0186792539060428\\
203	2.93483746363057e-06\\
204	8.11070924554105e-06\\
205	0.00235909640981836\\
206	0.000517789031662236\\
207	0.00332414198083562\\
208	0.000710344763352111\\
209	1.16211981204358e-05\\
210	4.94389630103563e-05\\
211	2.38502652131395e-05\\
212	0.00419713961008791\\
213	2.35408404927902e-05\\
214	0.0017884000710419\\
215	0.0436226716842954\\
216	0.00136302332797058\\
217	0.00871907943791275\\
218	0.0198832211998012\\
219	0.0166498902232655\\
220	0.00133360939836335\\
221	0.0045928224836714\\
222	0.00546822929094584\\
223	9.0262523631334e-06\\
224	1.19592472063897e-05\\
225	0.005050757717256\\
226	4.32877020270588e-05\\
227	3.01878494189131e-06\\
228	4.9007239863615e-06\\
229	7.14035719529092e-06\\
230	6.00798412645682e-06\\
231	1.16678819030608e-05\\
232	0.00176538051091382\\
233	0.00158914486009294\\
234	0.00392183953487915\\
235	0.0165808646422053\\
236	1.30068064024732e-05\\
237	0.00382804100482425\\
238	0.00793586920030055\\
239	1.04206504014463e-05\\
240	9.92800046085405e-06\\
241	1.27538758428164e-05\\
242	1.44440181072662e-05\\
243	8.20128310902219e-06\\
244	2.11927931735858e-05\\
245	9.16213377519608e-06\\
246	1.04779596268073e-05\\
247	5.32654440466364e-06\\
248	6.72762628798153e-06\\
249	5.08227771599436e-06\\
250	5.90660742710785e-06\\
251	2.30057356687896e-05\\
252	3.2940514417839e-06\\
253	1.17902034269697e-05\\
254	1.06942907709607e-05\\
255	4.13277498793443e-07\\
256	7.27958790415889e-06\\
257	7.95536739865074e-06\\
258	9.15620109836273e-06\\
259	1.50462171089793e-05\\
260	4.13702503581978e-06\\
261	3.15458648878572e-06\\
262	2.10599498541597e-05\\
263	1.09679797108421e-05\\
264	1.19114276735654e-05\\
265	4.5500750652314e-06\\
266	7.98427777838019e-06\\
267	4.92571035228242e-07\\
268	4.79086867625959e-06\\
269	1.28793856656575e-05\\
270	2.12354186151118e-06\\
271	4.93253668933399e-06\\
272	8.59297018177119e-06\\
273	8.99660848189361e-06\\
274	1.64574512815384e-06\\
275	3.50957779095509e-06\\
276	2.86607731287818e-06\\
277	2.68303019464895e-06\\
278	9.52538350861751e-06\\
279	2.15098508406675e-05\\
280	1.02645795691104e-05\\
281	1.34741647272489e-05\\
282	1.64277749320562e-05\\
283	9.34661245658865e-06\\
284	1.00301442852587e-06\\
285	1.64556165575698e-05\\
286	9.30709877345702e-06\\
287	5.66874514139204e-06\\
288	1.14384297765566e-05\\
289	4.29093101105029e-06\\
290	7.93386894542374e-06\\
291	2.41616249924381e-05\\
292	5.63797945397418e-06\\
293	2.58058101251229e-06\\
294	1.15728967779422e-05\\
295	9.89833596050016e-06\\
296	1.10559128541108e-05\\
297	7.3819057991787e-06\\
298	2.36690680084076e-05\\
299	7.32645680283535e-06\\
300	5.92494666538459e-06\\
301	9.34427208624601e-06\\
302	4.87197359476069e-06\\
303	1.26052464329738e-05\\
304	1.32466736977507e-05\\
305	7.18253031613643e-06\\
306	2.72169697959823e-06\\
307	1.87047486999249e-05\\
308	9.98184341550219e-06\\
309	6.91530198951692e-06\\
310	1.99767424927967e-05\\
311	3.12356482367712e-05\\
312	4.41370285754008e-06\\
313	2.06898459736893e-05\\
314	1.33898931573843e-05\\
315	3.68631591422014e-06\\
316	4.39996612989212e-06\\
317	5.58268114404672e-06\\
318	8.74642841709878e-06\\
319	1.89022076879566e-05\\
320	1.01639708651731e-05\\
321	4.90935499235627e-06\\
322	8.12935124433621e-06\\
323	6.47910231821884e-06\\
324	5.68560518353128e-06\\
325	8.7307474812573e-06\\
326	2.71485801296024e-05\\
327	2.05043229881053e-05\\
328	1.53037789906236e-05\\
329	1.41692353235866e-05\\
330	1.13454845117867e-05\\
331	1.3919798672035e-05\\
332	4.54442274293979e-06\\
333	5.20974593139211e-06\\
334	4.33288039227652e-06\\
335	1.2746695246798e-05\\
336	9.89259401702298e-06\\
337	5.86112443150177e-06\\
338	1.08306726726882e-05\\
339	1.52948304953573e-06\\
340	1.91395522334458e-05\\
341	3.20725260443482e-06\\
342	1.77893496602397e-05\\
343	1.34688773206251e-05\\
344	5.57794617397278e-06\\
345	3.0738087812647e-06\\
346	7.75493459836892e-06\\
347	7.86914533656391e-06\\
348	1.11949817026566e-06\\
349	4.6642174606296e-06\\
350	1.16402126543048e-05\\
351	8.08845610566955e-06\\
352	1.75359720289131e-05\\
353	5.97225497665238e-06\\
354	1.87934159407243e-05\\
355	1.73354665550417e-05\\
356	2.49307903646968e-06\\
357	5.51172607044111e-06\\
358	1.04324310173806e-05\\
359	3.87205800829614e-06\\
360	7.16066660335115e-06\\
361	7.97458623060924e-06\\
362	1.00767382644949e-05\\
363	1.13409028580686e-05\\
364	2.17697434371909e-06\\
365	4.40797992173918e-06\\
366	5.51705246283322e-06\\
367	1.38465375959432e-06\\
368	1.42496172502014e-05\\
369	7.68669698540808e-06\\
370	3.61768496504123e-05\\
371	1.02699523856382e-05\\
372	1.52403514684931e-05\\
373	3.7090280925897e-06\\
374	5.85992543087328e-06\\
375	1.00025208486725e-06\\
376	1.13990111415773e-05\\
377	1.60618182304384e-05\\
378	3.97382468252194e-06\\
379	3.08606790277198e-06\\
380	1.03817469794875e-05\\
381	2.14079249050562e-06\\
382	6.30594492417182e-06\\
383	5.92557110446728e-06\\
384	4.48381964325557e-06\\
385	2.85579566663067e-06\\
386	5.81504427095438e-06\\
387	5.06621643976823e-06\\
388	1.57726416740419e-05\\
389	2.25256299737065e-05\\
390	2.15963257797772e-05\\
391	2.2695305570555e-06\\
392	8.95557377077748e-06\\
393	1.21106637169554e-05\\
394	1.23847383279401e-05\\
395	4.60648969912956e-06\\
396	7.75099048823669e-06\\
397	1.72470555763899e-05\\
398	4.09689471294466e-06\\
399	4.26640866120455e-06\\
};
\addlegendentry{$\mathbf{\hat{h}_{2}}$}

\end{axis}
\end{tikzpicture}%