% This file was created by matlab2tikz.
%
%The latest updates can be retrieved from
%  http://www.mathworks.com/matlabcentral/fileexchange/22022-matlab2tikz-matlab2tikz
%where you can also make suggestions and rate matlab2tikz.
%
\definecolor{mycolor1}{rgb}{0.00000,0.44700,0.74100}%
\definecolor{mycolor2}{rgb}{0.85000,0.32500,0.09800}%
%
\begin{tikzpicture}

\begin{axis}[%
width=1.935in,
height=3.2in,
at={(0.758in,0.512in)},
scale only axis,
xmin=0,
xmax=200,
xlabel style={font=\color{white!15!black}, align=center},
xlabel={Sample Index\\[1ex](a) Actual},
ymin=0,
ymax=1,
axis background/.style={fill=white},
legend style={legend cell align=left, align=left, draw=white!15!black}
]
\addplot [color=mycolor1]
  table[row sep=crcr]{%
1	0.0167418731260698\\
2	0.018659722218203\\
3	0.0211495716349754\\
4	0.0245407494314006\\
5	0.029505643974117\\
6	0.0377161636169434\\
7	0.0550750576238134\\
8	0.131028403455825\\
9	0.141533477104454\\
10	0.158175166246243\\
11	0.163761757297189\\
12	0.600100605556833\\
13	0.118033417583129\\
14	0.0610914209628117\\
15	0.0426162246246858\\
16	0.0332715711707656\\
17	0.0321939439283243\\
18	0.0268871008873183\\
19	0.0316920608120786\\
20	0.0286771919664519\\
21	0.00773119825769845\\
22	0.0330073087209196\\
23	0.019415059292473\\
24	0.0177688778425817\\
25	0.0188194600762088\\
26	0.0237714798713867\\
27	0.0430806655948836\\
28	0.586023006720236\\
29	0.0970905103802927\\
30	0.0246981078960262\\
31	0.0780346253424249\\
32	0.0580455436901626\\
33	0.0681836526256362\\
34	0.163824852865525\\
35	0.0446106828365612\\
36	0.06119675966513\\
37	0.00907835157153909\\
38	0.0310093774848825\\
39	0.00125972832884384\\
40	0.005422098150711\\
41	0.0107374596162295\\
42	0.0165479326643041\\
43	0.024789327411243\\
44	0.0446277431282512\\
45	0.058019450740893\\
46	0.074843365423057\\
47	0.199666615467323\\
48	0.216838516027539\\
49	0.0783890355452335\\
50	0.0495529240878659\\
51	0.0370791446049236\\
52	0.0307530810094058\\
53	0.0155757068681131\\
54	0.0198807977432187\\
55	0.0179871495341263\\
56	0.0162887905400521\\
57	0.0148728268904216\\
58	0.0136909847461918\\
59	0.0126943671543235\\
60	0.011846112844806\\
61	0.0111233301448608\\
62	0.0105291449791113\\
63	0.0102108676347222\\
64	0.00751288118280402\\
65	0.00739035992869396\\
66	0.0116365722557393\\
67	0.00899390796280924\\
68	0.00831157148096884\\
69	0.00788086875151191\\
70	0.00754217236777393\\
71	0.00725475830161164\\
72	0.00700327644843893\\
73	0.006780818536885\\
74	0.00658453626015097\\
75	0.00641472878078445\\
76	0.00627599401250467\\
77	0.00618216997550965\\
78	0.00617516728867787\\
79	0.00642745729543014\\
80	0.00873051939586948\\
81	0.00471465923588381\\
82	0.00195996010568866\\
83	0.004980313957114\\
84	0.00475839614864904\\
85	0.00464733241660508\\
86	0.00455444244400457\\
87	0.00446749239384432\\
88	0.00438406292262191\\
89	0.00430366820355207\\
90	0.00422628355118023\\
91	0.00415201532524293\\
92	0.00408104289588831\\
93	0.00401365198230764\\
94	0.00395033763548775\\
95	0.00389203620501121\\
96	0.00384070443755282\\
97	0.00380107128140597\\
98	0.00378779867734327\\
99	0.00387836096292209\\
100	0.00228454900881806\\
101	0.00321909463290553\\
102	0.00328982387499096\\
103	0.00328100374444436\\
104	0.00325253146337885\\
105	0.00321692683031362\\
106	0.00317840637543852\\
107	0.00313876414674543\\
108	0.00309887602618152\\
109	0.00305920797263281\\
110	0.00302002111537278\\
111	0.00298146552488656\\
112	0.00294362726599965\\
113	0.0029065537719176\\
114	0.00287026833389302\\
115	0.00283477876811283\\
116	0.00280008280049957\\
117	0.00276617151884636\\
118	0.00273303164395387\\
119	0.00270064705586787\\
120	0.00266899983729428\\
121	0.00263807099659409\\
122	0.00260784097374635\\
123	0.00257828999668392\\
124	0.00254939833288439\\
125	0.00252114646667125\\
126	0.00249351522323938\\
127	0.00246648585412356\\
128	0.00244004009455901\\
129	0.00241416020024051\\
130	0.00238882896892876\\
131	0.0023640297508985\\
132	0.00233974645117835\\
133	0.00231596352577768\\
134	0.00229266597354371\\
135	0.00226983932488367\\
136	0.00224746962828519\\
137	0.00222554343533969\\
138	0.00220404778480324\\
139	0.00218297018609978\\
140	0.00216229860257188\\
141	0.00214202143470905\\
142	0.00212212750352594\\
143	0.00210260603421662\\
144	0.00208344664017788\\
145	0.00206463930746792\\
146	0.00204617437974413\\
147	0.00202804254371082\\
148	0.00201023481509265\\
149	0.00199274252514179\\
150	0.00197555730767936\\
151	0.0019586710866655\\
152	0.00194207606428942\\
153	0.00192576470956709\\
154	0.00190972974743187\\
155	0.00189396414830307\\
156	0.00187846111811499\\
157	0.00186321408878906\\
158	0.00184821670913216\\
159	0.00183346283614256\\
160	0.00181894652670628\\
161	0.00180466202966742\\
162	0.00179060377825436\\
163	0.00177676638284649\\
164	0.00176314462406556\\
165	0.00174973344617591\\
166	0.0017365279507797\\
167	0.00172352339079259\\
168	0.00171071516468654\\
169	0.00169809881098722\\
170	0.00168567000301325\\
171	0.00167342454384613\\
172	0.00166135836151948\\
173	0.00164946750441694\\
174	0.00163774813686889\\
175	0.00162619653493841\\
176	0.00161480908238697\\
177	0.00160358226681213\\
178	0.001592512675948\\
179	0.00158159699412143\\
180	0.00157083199885632\\
181	0.00156021455761888\\
182	0.00154974162469766\\
183	0.00153941023821136\\
184	0.00152921751723897\\
185	0.00151916065906659\\
186	0.00150923693654504\\
187	0.00149944369555362\\
188	0.00148977835256491\\
189	0.00148023839230615\\
190	0.0014708213655126\\
191	0.00146152488676917\\
192	0.00145234663243548\\
193	0.00144328433865201\\
194	0.00143433579942216\\
195	0.0014254988647679\\
196	0.00141677143895562\\
197	0.00140815147878894\\
198	0.00139963699196521\\
199	0\\
200	0\\
};
\addlegendentry{$\mathbf{h_1}$}

\addplot [color=mycolor2]
  table[row sep=crcr]{%
1	0.00495033386861547\\
2	0.00515738368500011\\
3	0.00538309861623286\\
4	0.00563019833310769\\
5	0.00590197136255583\\
6	0.00620243506959928\\
7	0.00653655369620811\\
8	0.00691054090538825\\
9	0.00733228812251618\\
10	0.00781198494389501\\
11	0.00836304134465097\\
12	0.0090034999823859\\
13	0.00975827527656913\\
14	0.0106628508662167\\
15	0.0117696896019869\\
16	0.0131600228416925\\
17	0.0149671880151623\\
18	0.0174273921400842\\
19	0.0210049332363351\\
20	0.0267613442180004\\
21	0.037792597580649\\
22	0.068721841139076\\
23	0.97572931769219\\
24	0.0649085399616321\\
25	0.0262918397391367\\
26	0.0126468169615953\\
27	0.00419508123086451\\
28	0.0214241856295046\\
29	0.0134643328328179\\
30	0.00412679327935559\\
31	0.0112712342656943\\
32	0.0282552508318709\\
33	0.111702725947746\\
34	0.12653020104749\\
35	0.0361926668223949\\
36	0.024130019396178\\
37	0.019518168382204\\
38	0.0163235660243771\\
39	0.0140849625225472\\
40	0.0124312948441269\\
41	0.0111552918846637\\
42	0.0101369616841952\\
43	0.00930266674553233\\
44	0.00860476970863487\\
45	0.00801105372801389\\
46	0.00749890841387189\\
47	0.00705196472677567\\
48	0.00665805661850076\\
49	0.0063079366485928\\
50	0.00599443852440938\\
51	0.00571191453485358\\
52	0.00545584764793091\\
53	0.0052225778141873\\
54	0.00500910486747672\\
55	0.00481294397681212\\
56	0.00463201789166602\\
57	0.00446457542356871\\
58	0.00430912894812168\\
59	0.00416440590497024\\
60	0.00402931074167137\\
61	0.00390289474814389\\
62	0.00378433192171684\\
63	0.00367289949042518\\
64	0.0035679620699816\\
65	0.00346895868109233\\
66	0.00337539203747226\\
67	0.00328681965070268\\
68	0.00320284639950925\\
69	0\\
70	0\\
71	0\\
72	0\\
73	0\\
74	0\\
75	0\\
76	0\\
77	0\\
78	0\\
79	0\\
80	0\\
81	0\\
82	0\\
83	0\\
84	0\\
85	0\\
86	0\\
87	0\\
88	0\\
89	0\\
90	0\\
91	0\\
92	0\\
93	0\\
94	0\\
95	0\\
96	0\\
97	0\\
98	0\\
99	0\\
100	0\\
101	0\\
102	0\\
103	0\\
104	0\\
105	0\\
106	0\\
107	0\\
108	0\\
109	0\\
110	0\\
111	0\\
112	0\\
113	0\\
114	0\\
115	0\\
116	0\\
117	0\\
118	0\\
119	0\\
120	0\\
121	0\\
122	0\\
123	0\\
124	0\\
125	0\\
126	0\\
127	0\\
128	0\\
129	0\\
130	0\\
131	0\\
132	0\\
133	0\\
134	0\\
135	0\\
136	0\\
137	0\\
138	0\\
139	0\\
140	0\\
141	0\\
142	0\\
143	0\\
144	0\\
145	0\\
146	0\\
147	0\\
148	0\\
149	0\\
150	0\\
151	0\\
152	0\\
153	0\\
154	0\\
155	0\\
156	0\\
157	0\\
158	0\\
159	0\\
160	0\\
161	0\\
162	0\\
163	0\\
164	0\\
165	0\\
166	0\\
167	0\\
168	0\\
169	0\\
170	0\\
171	0\\
172	0\\
173	0\\
174	0\\
175	0\\
176	0\\
177	0\\
178	0\\
179	0\\
180	0\\
181	0\\
182	0\\
183	0\\
184	0\\
185	0\\
186	0\\
187	0\\
188	0\\
189	0\\
190	0\\
191	0\\
192	0\\
193	0\\
194	0\\
195	0\\
196	0\\
197	0\\
198	0\\
199	0\\
200	0\\
};
\addlegendentry{$\mathbf{h_{2}}$}

\end{axis}

\begin{axis}[%
width=1.935in,
height=3.2in,
at={(3.327in,0.512in)},
scale only axis,
xmin=0,
xmax=200,
xlabel style={font=\color{white!15!black}, align=center},
xlabel={Sample Index\\[1ex](b) Estimated},
ymin=0,
ymax=0.25,
axis background/.style={fill=white},
legend style={legend cell align=left, align=left, draw=white!15!black}
]
\addplot [color=mycolor1]
  table[row sep=crcr]{%
0	0.0789865288999129\\
1	0.0156534133803629\\
2	0.0144986513165335\\
3	0.0149106371893268\\
4	0.0454878638172287\\
5	0.0408145525822488\\
6	0.177689012176973\\
7	0.0270580275210301\\
8	0.0450522536070789\\
9	0.00850169005965491\\
10	0.0993531897284231\\
11	0.00638048396959831\\
12	0.0654019859795682\\
13	1.97205861744215e-05\\
14	0.0139017773327583\\
15	0.025418107121605\\
16	0.132175433643796\\
17	3.9993847796849e-06\\
18	0.0209551421643452\\
19	2.73498297648079e-05\\
20	0.0430563468488023\\
21	0.0241958381573667\\
22	0.0687028621946003\\
23	0.0545080510060976\\
24	0.0933747976892935\\
25	0.0127487117345257\\
26	0.0128255640817632\\
27	0.0743595123762686\\
28	0.0491575311423642\\
29	0.016967523968368\\
30	0.0279868588539099\\
31	0.0753557476516359\\
32	0.0551434801079538\\
33	0.046720070704825\\
34	0.0560938455890118\\
35	0.036964446323329\\
36	0.0313688138187199\\
37	0.0338765131311305\\
38	0.136300626088832\\
39	0.0578009069839313\\
40	0.0213258731179752\\
41	1.53873086330111e-05\\
42	0.132112294880107\\
43	1.96558290196865e-05\\
44	0.112826124659784\\
45	0.0669380892956722\\
46	0.00194873917533446\\
47	0.146664042294259\\
48	0.0512464642833554\\
49	0.0718422248908652\\
50	0.00883315673972378\\
51	0.0272374657028985\\
52	0.0485632521666584\\
53	0.0421806820281329\\
54	0.00625580958543726\\
55	0.0279959661255585\\
56	0.103216669845458\\
57	0.165771146479884\\
58	0.034167518693528\\
59	0.000993631248514632\\
60	0.115549828014677\\
61	0.0810426636843371\\
62	0.0217521544405393\\
63	0.0578513457345245\\
64	0.0670397786792949\\
65	0.0718552505987367\\
66	0.0640072030606437\\
67	0.0499817746990599\\
68	0.158122761119419\\
69	0.0299163435978908\\
70	0.0318882179464272\\
71	0.0330701567440668\\
72	0.0504566480741086\\
73	0.0246944945518455\\
74	0.103391066618914\\
75	0.108368657701721\\
76	0.000880932266965363\\
77	0.0617606804020715\\
78	0.0821458629364831\\
79	0.0681946132986958\\
80	0.0631140929276248\\
81	0.0193710296617335\\
82	0.136871167710669\\
83	0.0124831833937808\\
84	0.0329368133759516\\
85	0.0696737065061424\\
86	0.0133737435154508\\
87	0.182549565912376\\
88	0.0962367572083228\\
89	0.0340578024807084\\
90	0.111200427708815\\
91	0.0116541184945469\\
92	0.037296274721684\\
93	0.0559749012964804\\
94	0.0322341189534143\\
95	0.00174744138987918\\
96	0.0539179488280354\\
97	0.0121005994597068\\
98	0.0835398080404811\\
99	0.0637938684771612\\
100	0.0304384816060438\\
101	0.0847368756869766\\
102	0.139212725122348\\
103	0.0520206835146763\\
104	0.092631163114988\\
105	0.0397032717525931\\
106	0.0832361233421181\\
107	0.0871803394214903\\
108	0.07857369696533\\
109	0.0795993211611262\\
110	0.0658221445899606\\
111	0.0322079755912817\\
112	0.0166144468109311\\
113	0.0169423545703149\\
114	0.00239569443972226\\
115	0.0481494495555235\\
116	0.0540170071920376\\
117	0.0356198691053626\\
118	0.187743073057641\\
119	0.219840631538028\\
120	0.0635009641415875\\
121	0.0524210862996613\\
122	0.0289374114451225\\
123	0.07661904177282\\
124	0.0129710217995809\\
125	0.00399200229793665\\
126	0.0329203184016751\\
127	0.122437984256676\\
128	0.0138215406288879\\
129	0.0175487070182596\\
130	0.0337596230925364\\
131	0.0502057335573188\\
132	0.137370489650841\\
133	0.0696993566979913\\
134	0.024755763711247\\
135	0.0466507270166432\\
136	0.141507238597291\\
137	1.65478988591437e-05\\
138	0.0862409615880246\\
139	0.0416872957882207\\
140	0.0473138694615307\\
141	0.0486188838442512\\
142	0.0181711576611246\\
143	0.0249193302092704\\
144	0.0104389769198816\\
145	0.0650002660560169\\
146	0.0398342371194274\\
147	0.0751017573536899\\
148	0.0304075260433883\\
149	1.59171612572286e-05\\
150	1.2894020253019e-05\\
151	0.142451717570634\\
152	0.045712713483738\\
153	0.10659704724404\\
154	0.0345399907150322\\
155	0.139863322287156\\
156	0.022454609933336\\
157	0.0565564540701435\\
158	0.106253847277183\\
159	0.0581229097395845\\
160	0.122504936523863\\
161	0.0339001168484397\\
162	0.0570028401729789\\
163	0.0201914650419605\\
164	0.0103730503601837\\
165	3.03812884709263e-05\\
166	0.0608402340055904\\
167	0.0955377994844488\\
168	0.0604022882814132\\
169	0.0340513587065991\\
170	0.0371100435196672\\
171	0.0174871906768664\\
172	0.0187082219241599\\
173	0.0973056968301451\\
174	0.0359236900355453\\
175	0.0432172161106411\\
176	0.0357311884106814\\
177	0.0317145973917089\\
178	0.0102446423991921\\
179	0.159220326671744\\
180	0.06349537447512\\
181	0.0363206285248167\\
182	0.0780543424979713\\
183	0.19523247388248\\
184	0.0727198122541422\\
185	0.0149227582684943\\
186	0.0292662937662391\\
187	0.0738873350209247\\
188	0.0702670122782317\\
189	0.0142049711762475\\
190	0.0634225554887923\\
191	1.39615968544009e-05\\
192	0.0468751998589488\\
193	0.122092589461567\\
194	0.0890794352414952\\
195	0.0257944849854316\\
196	0.0221300784611147\\
197	0.0973273346748177\\
198	0.0122928844081959\\
199	0.0221534707553552\\
};
\addlegendentry{$\mathbf{\hat{h}_{1}}$}

\addplot [color=mycolor2]
  table[row sep=crcr]{%
0	0.0335839817791464\\
1	0.180947212747023\\
2	0.0192232152919544\\
3	0.0647534663243397\\
4	0.0127380732648337\\
5	0.0017410985119271\\
6	0.0498522659913579\\
7	0.0872641681460607\\
8	0.0173500722480925\\
9	0.0172459361396075\\
10	0.020891357057108\\
11	0.0157401197646144\\
12	0.0303391371753614\\
13	0.0465104932945035\\
14	0.040799644360907\\
15	0.0506112400428841\\
16	0.0395945959784021\\
17	0.104896175730346\\
18	0.053538153905747\\
19	0.0298031667088076\\
20	0.0143599455655124\\
21	0.0177370163839053\\
22	0.0731550468634011\\
23	0.136577278973181\\
24	0.0164167096031974\\
25	0.0850151982550194\\
26	0.11653604210876\\
27	0.149386373228157\\
28	0.0920375666356946\\
29	0.0808963599679983\\
30	0.0627094370054999\\
31	0.0465876992801914\\
32	0.048689745351953\\
33	0.125102712883172\\
34	0.031692107799303\\
35	0.042996667496506\\
36	3.99382798312396e-05\\
37	0.127422986086817\\
38	0.00509828154586721\\
39	0.0543103948024207\\
40	0.0314009718835633\\
41	0.0470688177542673\\
42	0.0673661073941764\\
43	0.0293131385131991\\
44	0.0302391024000173\\
45	0.0581757802162883\\
46	0.00824224831807108\\
47	0.198033150530992\\
48	0.0198060065272251\\
49	0.0513764348627766\\
50	0.115453477474118\\
51	0.117027823041813\\
52	0.0509030415197051\\
53	0.0476970663832031\\
54	0.0583227963055833\\
55	0.0683714357304473\\
56	0.0360500774659812\\
57	0.0376890397298122\\
58	0.125298304880243\\
59	0.0445288639890957\\
60	0.0141647373982529\\
61	0.0183044771060931\\
62	0.0350328495736494\\
63	0.0580736052190736\\
64	0.0103102093932346\\
65	0.0316115000351045\\
66	0.0515837557687237\\
67	0.0284703086787718\\
68	0.0820750827644961\\
69	0.0697948830148231\\
70	0.089224108559895\\
71	4.12086939410029e-05\\
72	0.0146955199121601\\
73	0.00082636264792041\\
74	0.131178224624586\\
75	0.0348322781266154\\
76	0.0281198502236376\\
77	0.108565678064685\\
78	0.0504889384359955\\
79	0.135347402884973\\
80	0.110724113078448\\
81	0.073727295743285\\
82	0.0277312322195842\\
83	0.0956715548382761\\
84	0.0105626080868643\\
85	0.053685503850249\\
86	0.0537803017533781\\
87	0.0265965994608818\\
88	0.113783528327146\\
89	0.130850269751595\\
90	0.040935312973542\\
91	0.152054052887078\\
92	1.46579820186987e-05\\
93	0.104462561580449\\
94	0.0272811240217542\\
95	0.057865834475138\\
96	0.0539117449881821\\
97	0.0518990759849159\\
98	0.0554652417124359\\
99	0.110869567697189\\
100	0.106684005879844\\
101	1.94797308740091e-05\\
102	0.0246244277153802\\
103	0.150871968979125\\
104	0.0249581192587518\\
105	0.0156975568586281\\
106	0.128024798423929\\
107	0.0156842024208244\\
108	0.0306443336754184\\
109	0.0335040400833642\\
110	0.0482271823169375\\
111	2.53622025871588e-05\\
112	0.0288782953524905\\
113	0.123985960178894\\
114	0.130964169420549\\
115	0.133980699961224\\
116	0.0769470773778922\\
117	0.0900564418764814\\
118	0.171543882196466\\
119	0.0118184868798086\\
120	0.124854628545785\\
121	0.0764017500960176\\
122	0.038736009061486\\
123	0.106692133630696\\
124	0.0326631363881423\\
125	0.0019582162384437\\
126	0.0841885588368669\\
127	0.0252443983449645\\
128	0.0247303630201624\\
129	0.03367157414738\\
130	0.0895854337035233\\
131	0.0713397183691809\\
132	0.0402033130527148\\
133	0.0567678340332622\\
134	0.0515715669086477\\
135	6.41750487064701e-06\\
136	0.111004933537573\\
137	0.0266706041079841\\
138	0.0422585152370064\\
139	0.0294859325342175\\
140	0.063178040968442\\
141	0.0119794930558247\\
142	0.0725493546416027\\
143	0.0703255841905216\\
144	0.0792647529225096\\
145	0.00475865469758293\\
146	0.0101604651069555\\
147	0.0429053421508348\\
148	0.0440969675531536\\
149	0.0512248068129471\\
150	0.12345332264572\\
151	0.0349697881631816\\
152	0.0537532550515815\\
153	0.0465665837639378\\
154	0.0272461173903059\\
155	0.0189945880745823\\
156	0.0103336584323804\\
157	0.0760285187354151\\
158	0.100476859198983\\
159	0.0460749962923372\\
160	0.0451067322990651\\
161	0.00323817857225195\\
162	0.0402410493190437\\
163	0.00117350334782527\\
164	0.00631292149081838\\
165	0.0858501256502601\\
166	0.0240277620667272\\
167	0.00960279811522078\\
168	0.044737945222412\\
169	0.0756380358012492\\
170	0.156929635151352\\
171	6.21592050861209e-05\\
172	1.61979631965916e-05\\
173	0.0341922933481541\\
174	0.0035703918032118\\
175	0.119625895373443\\
176	0.077648491094072\\
177	0.123018969503443\\
178	0.0211406245962967\\
179	0.0354730014073058\\
180	0.0868357248652189\\
181	0.029857558793488\\
182	0.00651578497983912\\
183	0.0712931613706902\\
184	0.0147192148823098\\
185	0.0531159422723881\\
186	0.0319318353734701\\
187	0.0111435166759011\\
188	0.0512268129613406\\
189	0.0585067436014336\\
190	0.113975030366813\\
191	0.0602658238347677\\
192	0.0514443694265274\\
193	0.0824972296761723\\
194	0.121315469234227\\
195	0.158439668668952\\
196	0.0164124282479283\\
197	0.0268831776021416\\
198	0.0210187501530586\\
199	0.0331021983406122\\
};
\addlegendentry{$\mathbf{\hat{h}_{2}}$}

\end{axis}
\end{tikzpicture}%