% This file was created by matlab2tikz.
%
%The latest updates can be retrieved from
%  http://www.mathworks.com/matlabcentral/fileexchange/22022-matlab2tikz-matlab2tikz
%where you can also make suggestions and rate matlab2tikz.
%
\definecolor{mycolor1}{rgb}{0.00000,0.44700,0.74100}%
\definecolor{mycolor2}{rgb}{0.85000,0.32500,0.09800}%
%
\begin{tikzpicture}

\begin{axis}[%
width=1.952in,
height=3.2in,
at={(0.758in,0.512in)},
scale only axis,
xmin=0,
xmax=20,
xlabel style={font=\color{white!15!black}, align=center},
xlabel={Sample Index\\[1ex](a) Actual},
ymin=0,
ymax=0.9,
axis background/.style={fill=white},
legend style={legend cell align=left, align=left, draw=white!15!black}
]
\addplot [color=mycolor1]
  table[row sep=crcr]{%
1	0.0444337104356374\\
2	0.738127803558165\\
3	0.357839506790865\\
4	0.481268775571525\\
5	0.10955194752004\\
6	0.267783168107473\\
7	0.0769544524124665\\
8	0.0372836026936495\\
9	0.027789744685169\\
10	0.0196434178633453\\
11	0.0212138243269196\\
12	0.0147156812719569\\
13	0.0126517206023441\\
14	0.0111331007215966\\
15	0.00994473974674355\\
16	0.00898571135769806\\
17	0.00819466874468931\\
18	0.00753086667278431\\
19	0.00696589032366256\\
20	0.00647923877975415\\
};
\addlegendentry{$\mathbf{h_1}$}

\addplot [color=mycolor2]
  table[row sep=crcr]{%
1	0.0696363384444256\\
2	0.13399148454392\\
3	0.889181852408627\\
4	0.426869408918664\\
5	0.0527923084371181\\
6	0.0393468637154593\\
7	0\\
8	0\\
9	0\\
10	0\\
11	0\\
12	0\\
13	0\\
14	0\\
15	0\\
16	0\\
17	0\\
18	0\\
19	0\\
20	0\\
};
\addlegendentry{$\mathbf{h_{2}}$}

\end{axis}

\begin{axis}[%
width=1.952in,
height=3.2in,
at={(3.327in,0.512in)},
scale only axis,
xmin=0,
xmax=20,
xlabel style={font=\color{white!15!black}, align=center},
xlabel={Sample Index\\[1ex](b) Estimated},
ymin=-0.2,
ymax=1,
axis background/.style={fill=white},
legend style={legend cell align=left, align=left, draw=white!15!black}
]
\addplot [color=mycolor1]
  table[row sep=crcr]{%
0	0.0209011628813144\\
0.25	0.0209935750661601\\
0.5	0.0208961212107699\\
0.75	0.0204419669237006\\
1	0.0195071357389543\\
1.25	0.0181134979127858\\
1.5	0.0161496192308664\\
1.75	0.0136978980504521\\
2	0.0109703115419599\\
2.25	0.00804052896878261\\
2.5	0.00576539255998254\\
2.75	0.00473749877490579\\
3	0.00543887706780253\\
3.25	0.00827420469593232\\
3.5	0.0130747483319509\\
3.75	0.0195764937831311\\
4	0.0273625990028215\\
4.25	0.0354588761469685\\
4.5	0.0442182897931582\\
4.75	0.0535429129679603\\
5	0.0633621497989044\\
5.25	0.0722563848428255\\
5.5	0.0822866322578798\\
5.75	0.0939915548264398\\
6	0.10754933632231\\
6.25	0.131996389700164\\
6.5	0.152994644763177\\
6.75	0.167464619391742\\
7	0.176519730260424\\
7.25	0.161483192799744\\
7.5	0.170782860596204\\
7.75	0.224834178285364\\
8	0.332866542220645\\
8.25	0.530157398218174\\
8.5	0.725689704753144\\
8.75	0.865413955750745\\
9	0.904515966650285\\
9.25	0.767904083764669\\
9.5	0.544431226706825\\
9.75	0.290250222870679\\
10	0.0662135429186898\\
10.25	-0.0303115233791514\\
10.5	-0.0476290480707621\\
10.75	-0.0065193936708413\\
11	0.0601137059780968\\
11.25	0.0862221116754346\\
11.5	0.0951027994822769\\
11.75	0.0870620866019203\\
12	0.0692654967268206\\
12.25	0.0662470379106385\\
12.5	0.0651564898133963\\
12.75	0.0661782956941822\\
13	0.0682156502805682\\
13.25	0.065890753131392\\
13.5	0.0629981259054968\\
13.75	0.0596722506576064\\
14	0.0560141234256414\\
14.25	0.0520522227236458\\
14.5	0.0478761047856405\\
14.75	0.0435162500285918\\
15	0.0389969075584069\\
15.25	0.0343124334350715\\
15.5	0.0295907730893254\\
15.75	0.0249431747011294\\
16	0.0204999253756591\\
16.25	0.0163772955327077\\
16.5	0.0127344064091057\\
16.75	0.00967900761879455\\
17	0.00726966499720577\\
17.25	0.00555287129087198\\
17.5	0.00439120540077784\\
17.75	0.00365105743603877\\
18	0.00318219198143336\\
18.25	0.00279632338395112\\
18.5	0.00246556636579709\\
18.75	0.00214640414849009\\
19	0.00182463002571599\\
19.25	0.00150211696067716\\
19.5	0.00118266114672217\\
19.75	0.000852197725216128\\
};
\addlegendentry{$\mathbf{\hat{h}_{1}}$}

\addplot [color=mycolor2]
  table[row sep=crcr]{%
0	0.0105902877210127\\
0.25	0.0105336415410018\\
0.5	0.0104595842661961\\
0.75	0.0103701118986695\\
1	0.0103023197106329\\
1.25	0.0102564468698053\\
1.5	0.0104739431407691\\
1.75	0.0111299985266648\\
2	0.0123760718381171\\
2.25	0.01438274799261\\
2.5	0.0170535445343709\\
2.75	0.0203034908148462\\
3	0.0240064756506785\\
3.25	0.027885620989325\\
3.5	0.032033881122791\\
3.75	0.0364168496293328\\
4	0.0409988346810136\\
4.25	0.0456179422954277\\
4.5	0.0503837647697033\\
4.75	0.0552645099575939\\
5	0.0601899475345446\\
5.25	0.0620823498264033\\
5.5	0.065365005820851\\
5.75	0.0709783610246065\\
6	0.0788539823028079\\
6.25	0.101267972138939\\
6.5	0.115905808481664\\
6.75	0.116658571714936\\
7	0.103684656986101\\
7.25	0.0532367541429721\\
7.5	0.0296805000087421\\
7.75	0.0632368875877127\\
8	0.171247310645063\\
8.25	0.401150210230661\\
8.5	0.648102536376074\\
8.75	0.848321384878508\\
9	0.945651787751063\\
9.25	0.848502639485759\\
9.5	0.648453933869378\\
9.75	0.401650383782212\\
10	0.171866306063874\\
10.25	0.0639386225847746\\
10.5	0.0304249575138503\\
10.75	0.0539828562819133\\
11	0.10439282178589\\
11.25	0.117290431633935\\
11.5	0.116431849368969\\
11.75	0.101665450600359\\
12	0.0791061176610858\\
12.25	0.0710763676266888\\
12.5	0.065297396171874\\
12.75	0.0618380697153658\\
13	0.0597594991939983\\
13.25	0.0546341506187729\\
13.5	0.0495601719902053\\
13.75	0.044621861015658\\
14	0.0398649063301285\\
14.25	0.0351981930333234\\
14.5	0.030781415644432\\
14.75	0.026652408784083\\
15	0.0228467968184514\\
15.25	0.0192660237436153\\
15.5	0.0162022454941882\\
15.75	0.0137899479451225\\
16	0.0121211643841784\\
16.25	0.0112801494578553\\
16.5	0.0111187194167554\\
16.75	0.0114827156244858\\
17	0.0121815765172167\\
17.25	0.0129313760061414\\
17.5	0.0137157575110176\\
17.75	0.0144627113620286\\
18	0.0151365515676593\\
18.25	0.0157522966671359\\
18.5	0.0162919919492555\\
18.75	0.0167730807845878\\
19	0.017222443339294\\
19.25	0.0176648311149458\\
19.5	0.0181431487300508\\
19.75	0.0186856152323977\\
};
\addlegendentry{$\mathbf{\hat{h}_{2}}$}

\end{axis}
\end{tikzpicture}%