% This file was created by matlab2tikz.
%
%The latest updates can be retrieved from
%  http://www.mathworks.com/matlabcentral/fileexchange/22022-matlab2tikz-matlab2tikz
%where you can also make suggestions and rate matlab2tikz.
%
\definecolor{mycolor1}{rgb}{0.00000,0.44700,0.74100}%
\definecolor{mycolor2}{rgb}{0.85000,0.32500,0.09800}%
%
\begin{tikzpicture}

\begin{axis}[%
width=1.952in,
height=3.2in,
at={(0.758in,0.512in)},
scale only axis,
xmin=0,
xmax=20,
xlabel style={font=\color{white!15!black}, align=center},
xlabel={Sample Index\\[1ex](a) Actual},
ymin=0,
ymax=0.9,
axis background/.style={fill=white},
legend style={legend cell align=left, align=left, draw=white!15!black}
]
\addplot [color=mycolor1]
  table[row sep=crcr]{%
1	0.0444337104356374\\
2	0.738127803558165\\
3	0.357839506790865\\
4	0.481268775571525\\
5	0.10955194752004\\
6	0.267783168107473\\
7	0.0769544524124665\\
8	0.0372836026936495\\
9	0.027789744685169\\
10	0.0196434178633453\\
11	0.0212138243269196\\
12	0.0147156812719569\\
13	0.0126517206023441\\
14	0.0111331007215966\\
15	0.00994473974674355\\
16	0.00898571135769806\\
17	0.00819466874468931\\
18	0.00753086667278431\\
19	0.00696589032366256\\
20	0.00647923877975415\\
};
\addlegendentry{$\mathbf{h_1}$}

\addplot [color=mycolor2]
  table[row sep=crcr]{%
1	0.0696363384444256\\
2	0.13399148454392\\
3	0.889181852408627\\
4	0.426869408918664\\
5	0.0527923084371181\\
6	0.0393468637154593\\
7	0\\
8	0\\
9	0\\
10	0\\
11	0\\
12	0\\
13	0\\
14	0\\
15	0\\
16	0\\
17	0\\
18	0\\
19	0\\
20	0\\
};
\addlegendentry{$\mathbf{h_{2}}$}

\end{axis}

\begin{axis}[%
width=1.952in,
height=3.2in,
at={(3.327in,0.512in)},
scale only axis,
xmin=0,
xmax=20,
xlabel style={font=\color{white!15!black}, align=center},
xlabel={Sample Index\\[1ex](b) Estimated},
ymin=-0.2,
ymax=1,
axis background/.style={fill=white},
legend style={legend cell align=left, align=left, draw=white!15!black}
]
\addplot [color=mycolor1]
  table[row sep=crcr]{%
0	0.0257123229123665\\
0.25	0.0258081747080181\\
0.5	0.0260118557172278\\
0.75	0.0263659685316118\\
1	0.0267921469307898\\
1.25	0.0274755351352324\\
1.5	0.0274728214616927\\
1.75	0.0262850867806696\\
2	0.0236292857196312\\
2.25	0.0188622374527853\\
2.5	0.0135627639127865\\
2.75	0.00883298144897281\\
3	0.00576832185379124\\
3.25	0.00561890845622727\\
3.5	0.00818378712129895\\
3.75	0.0132458366215201\\
4	0.0202517815966095\\
4.25	0.0279864536228795\\
4.5	0.0364583349469982\\
4.75	0.0452877531043187\\
5	0.0542504435516834\\
5.25	0.0617987201054821\\
5.5	0.070464266780338\\
5.75	0.0812249755928566\\
6	0.0947212578194909\\
6.25	0.120074255834651\\
6.5	0.143539088945932\\
6.75	0.162025771331946\\
7	0.176233833338854\\
7.25	0.168036681579896\\
7.5	0.18275087397286\\
7.75	0.239251372795584\\
8	0.345960007483443\\
8.25	0.535831395317124\\
8.5	0.723234054265777\\
8.75	0.857312896775246\\
9	0.89591840945404\\
9.25	0.768518193441981\\
9.5	0.558479151434309\\
9.75	0.318510862781185\\
10	0.105770276034022\\
10.25	0.0118132598913106\\
10.5	-0.00868777390551952\\
10.75	0.024927782212966\\
11	0.0820294840086312\\
11.25	0.100747828175677\\
11.5	0.103675569608976\\
11.75	0.0915817720089661\\
12	0.0715452697484479\\
12.25	0.0670510873849906\\
12.5	0.065464302478092\\
12.75	0.066525359263168\\
13	0.0687130208586348\\
13.25	0.0662199966005586\\
13.5	0.0628242038085194\\
13.75	0.0586806648190767\\
14	0.0540050032503992\\
14.25	0.0492198485861041\\
14.5	0.0441606955479811\\
14.75	0.0388404747771448\\
15	0.0332805903848135\\
15.25	0.0273737755920747\\
15.5	0.0215682651616761\\
15.75	0.0161871233152186\\
16	0.0115707189501609\\
16.25	0.00797224852499494\\
16.5	0.0056865127709913\\
16.75	0.00481666085137541\\
17	0.00528928773770714\\
17.25	0.00699905400081359\\
17.5	0.00930754964683031\\
17.75	0.0116621529798085\\
18	0.013555504356831\\
18.25	0.0144674694100426\\
18.5	0.0145005531348463\\
18.75	0.0138073503162292\\
19	0.0127063450846346\\
19.25	0.0116001940123594\\
19.5	0.0109049466475754\\
19.75	0.010940074918546\\
};
\addlegendentry{$\mathbf{\hat{h}_{1}}$}

\addplot [color=mycolor2]
  table[row sep=crcr]{%
0	0.0135862808434544\\
0.25	0.0133486940702009\\
0.5	0.0130743869193882\\
0.75	0.0127383198994777\\
1	0.0123369128671483\\
1.25	0.0118957284872704\\
1.5	0.0114699756739536\\
1.75	0.0111470208969587\\
2	0.0110389625558314\\
2.25	0.0112175775154258\\
2.5	0.0118909047589521\\
2.75	0.0131862088025309\\
3	0.0151777753789374\\
3.25	0.0178252656113338\\
3.5	0.0211248681669153\\
3.75	0.0249560371678838\\
4	0.0291373479822925\\
4.25	0.0333700916340047\\
4.5	0.0375714157735143\\
4.75	0.0416098773959813\\
5	0.0454131998591015\\
5.25	0.0457105621011761\\
5.5	0.0475883848345397\\
5.75	0.052348386408956\\
6	0.0601718708229423\\
6.25	0.0841601289204268\\
6.5	0.100665148865523\\
6.75	0.102978155763556\\
7	0.0908447480264995\\
7.25	0.0390958397882268\\
7.5	0.0145375019569858\\
7.75	0.0485432311500287\\
8	0.159272709606252\\
8.25	0.396226457601636\\
8.5	0.650948847903814\\
8.75	0.85757711954298\\
9	0.958083545055751\\
9.25	0.857628235067075\\
9.5	0.651051245262868\\
9.75	0.396379870500483\\
10	0.159475337898735\\
10.25	0.0487936574189988\\
10.5	0.0148254252943591\\
10.75	0.0394053263413255\\
11	0.0911556646996857\\
11.25	0.103261526747243\\
11.5	0.100904591301794\\
11.75	0.0843462549517633\\
12	0.0603018964795825\\
12.25	0.0524345299695003\\
12.5	0.0476281764450503\\
12.75	0.0456965145657013\\
13	0.0453347376456782\\
13.25	0.0414425997807062\\
13.5	0.0373206933156416\\
13.75	0.033058183428734\\
14	0.0288012187655998\\
14.25	0.0246564057639103\\
14.5	0.0208992874487009\\
14.75	0.0176976047811536\\
15	0.0151567261581808\\
15.25	0.0132718923717329\\
15.5	0.0120725315875411\\
15.75	0.0114857814198527\\
16	0.011395307302381\\
16.25	0.0115780792692999\\
16.5	0.0120328736599223\\
16.75	0.0126735728147239\\
17	0.0134137816096533\\
17.25	0.0141966189220262\\
17.5	0.0148829685340421\\
17.75	0.0153748630091471\\
18	0.0155976750582891\\
18.25	0.0154755789952229\\
18.5	0.0150748161655191\\
18.75	0.014463240326153\\
19	0.0137384957591038\\
19.25	0.0130081873489592\\
19.5	0.012394400882646\\
19.75	0.0119958486798893\\
};
\addlegendentry{$\mathbf{\hat{h}_{2}}$}

\end{axis}
\end{tikzpicture}%