% This file was created by matlab2tikz.
%
%The latest updates can be retrieved from
%  http://www.mathworks.com/matlabcentral/fileexchange/22022-matlab2tikz-matlab2tikz
%where you can also make suggestions and rate matlab2tikz.
%
\definecolor{mycolor1}{rgb}{0.00000,0.44700,0.74100}%
\definecolor{mycolor2}{rgb}{0.85000,0.32500,0.09800}%
%
\begin{tikzpicture}

\begin{axis}[%
width=1.952in,
height=3.2in,
at={(0.758in,0.512in)},
scale only axis,
xmin=0,
xmax=20,
xlabel style={font=\color{white!15!black}, align=center},
xlabel={Sample Index\\[1ex](a) Actual},
ymin=0,
ymax=0.9,
axis background/.style={fill=white},
legend style={legend cell align=left, align=left, draw=white!15!black}
]
\addplot [color=mycolor1]
  table[row sep=crcr]{%
1	0.0444337104356374\\
2	0.738127803558165\\
3	0.357839506790865\\
4	0.481268775571525\\
5	0.10955194752004\\
6	0.267783168107473\\
7	0.0769544524124665\\
8	0.0372836026936495\\
9	0.027789744685169\\
10	0.0196434178633453\\
11	0.0212138243269196\\
12	0.0147156812719569\\
13	0.0126517206023441\\
14	0.0111331007215966\\
15	0.00994473974674355\\
16	0.00898571135769806\\
17	0.00819466874468931\\
18	0.00753086667278431\\
19	0.00696589032366256\\
20	0.00647923877975415\\
};
\addlegendentry{$\mathbf{h_1}$}

\addplot [color=mycolor2]
  table[row sep=crcr]{%
1	0.0696363384444256\\
2	0.13399148454392\\
3	0.889181852408627\\
4	0.426869408918664\\
5	0.0527923084371181\\
6	0.0393468637154593\\
7	0\\
8	0\\
9	0\\
10	0\\
11	0\\
12	0\\
13	0\\
14	0\\
15	0\\
16	0\\
17	0\\
18	0\\
19	0\\
20	0\\
};
\addlegendentry{$\mathbf{h_{2}}$}

\end{axis}

\begin{axis}[%
width=1.952in,
height=3.2in,
at={(3.327in,0.512in)},
scale only axis,
xmin=0,
xmax=40,
xlabel style={font=\color{white!15!black}, align=center},
xlabel={Sample Index\\[1ex](b) Estimated},
ymin=0,
ymax=1,
axis background/.style={fill=white},
legend style={legend cell align=left, align=left, draw=white!15!black}
]
\addplot [color=mycolor1]
  table[row sep=crcr]{%
0	2.03678199760001e-05\\
1	1.92121372439467e-05\\
2	1.22615760776706e-05\\
3	1.89384332457762e-05\\
4	1.38804581350615e-05\\
5	8.97831902047713e-06\\
6	8.78995338085195e-06\\
7	4.93381612085262e-05\\
8	1.76897181210842e-05\\
9	2.34701698811619e-05\\
10	8.34802469234715e-06\\
11	0.00440830613018827\\
12	0.0132297088824189\\
13	0.0168882438660229\\
14	0.0294075733288632\\
15	0.0401369737339702\\
16	0.192612709559155\\
17	0.164614874672519\\
18	0.777323908933534\\
19	0.238884614967264\\
20	0.376372691779204\\
21	0.272954311067257\\
22	0.174483550146203\\
23	0.152227166682614\\
24	0.0226072596600609\\
25	0.0218374225233035\\
26	0.0171905051108034\\
27	0.019189994864944\\
28	0.0106426488835511\\
29	0.00114033635957037\\
30	0.000315086523010846\\
31	0.000675201655168106\\
32	0.000126660105348873\\
33	2.44792921012447e-05\\
34	3.42239513773203e-05\\
35	5.04896870641174e-05\\
36	0.0018865309644283\\
37	3.13801600616675e-06\\
38	1.33205842256674e-05\\
39	7.7885867959492e-06\\
};
\addlegendentry{$\mathbf{\hat{h}_{1}}$}

\addplot [color=mycolor2]
  table[row sep=crcr]{%
0	4.08026447365232e-06\\
1	1.72737940199152e-05\\
2	2.8144123312675e-05\\
3	1.71031408392e-05\\
4	1.80143308779539e-05\\
5	6.54096020982367e-05\\
6	0.000268569946754573\\
7	0.00113908055638286\\
8	0.00195656246428302\\
9	0.00471111029334097\\
10	0.00832916488292197\\
11	0.0103618529818073\\
12	0.0181141192091039\\
13	0.0138504473460475\\
14	0.0495318380625354\\
15	0.0701510974004562\\
16	0.0726646635004662\\
17	0.168683103131504\\
18	0.0359788763334331\\
19	0.954801820064322\\
20	0.035035204073839\\
21	0.171471254837436\\
22	0.0740100314385034\\
23	0.0735930052289363\\
24	0.0509070162376269\\
25	0.0172863580318645\\
26	0.0215898364071703\\
27	0.012139855404648\\
28	0.0107388434201159\\
29	0.00682899968537189\\
30	0.00434635556528628\\
31	0.00307448621080716\\
32	0.00200129480171069\\
33	0.00178048512458466\\
34	0.00126276317736922\\
35	3.77657438612154e-05\\
36	1.72718846038843e-05\\
37	1.85274355919665e-05\\
38	1.69146997772222e-05\\
39	1.57188738698319e-05\\
};
\addlegendentry{$\mathbf{\hat{h}_{2}}$}

\end{axis}
\end{tikzpicture}%