% This file was created by matlab2tikz.
%
%The latest updates can be retrieved from
%  http://www.mathworks.com/matlabcentral/fileexchange/22022-matlab2tikz-matlab2tikz
%where you can also make suggestions and rate matlab2tikz.
%
\definecolor{mycolor1}{rgb}{0.00000,0.44700,0.74100}%
\definecolor{mycolor2}{rgb}{0.85000,0.32500,0.09800}%
%
\begin{tikzpicture}

\begin{axis}[%
width=1.935in,
height=3.2in,
at={(0.758in,0.512in)},
scale only axis,
xmin=0,
xmax=100,
xlabel style={font=\color{white!15!black}, align=center},
xlabel={Sample Index\\[1ex](a) Actual},
ymin=0,
ymax=1,
axis background/.style={fill=white},
legend style={legend cell align=left, align=left, draw=white!15!black}
]
\addplot [color=mycolor1]
  table[row sep=crcr]{%
1	0.0216926152020066\\
2	0.0241183965289278\\
3	0.0267807478156139\\
4	0.0354280601095614\\
5	0.221828667704926\\
6	0.648965745595675\\
7	0.241270440438586\\
8	0.0776642628644082\\
9	0.0581044824071981\\
10	0.0611489366831747\\
11	0.0798140419847986\\
12	0.062735544320507\\
13	0.113011040425493\\
14	0.377485382687519\\
15	0.331649248845691\\
16	0.18615433793772\\
17	0.146493252817741\\
18	0.0847190801249442\\
19	0.0628278567269286\\
20	0.0148364296169451\\
21	0.0250471739922352\\
22	0.0344835915107885\\
23	0.116323790948646\\
24	0.279210940275387\\
25	0.101045410677318\\
26	0.0464379665429307\\
27	0.041398863205924\\
28	0.0263226969199998\\
29	0.0221848789960478\\
30	0.0197642774213948\\
31	0.0186496517239344\\
32	0.0219339353832985\\
33	0.018414044189717\\
34	0.00937919788338426\\
35	0.0100670783096178\\
36	0.0098135024549665\\
37	0.00937197330245933\\
38	0.00884810306396591\\
39	0.00821513429074651\\
40	0.00732026654240377\\
41	0.00945021173361951\\
42	0.0127255218727005\\
43	0.00946415089832864\\
44	0.00862800399957479\\
45	0.00816256372793386\\
46	0.00784857678072338\\
47	0.00764005346579914\\
48	0.00755773656417068\\
49	0.00776075567554332\\
50	0.00986938420958768\\
51	0.00319649311885596\\
52	0.00500292172051245\\
53	0.00524752973649041\\
54	0.00526667690567613\\
55	0.00521575322380608\\
56	0.00513704586881206\\
57	0.00504647235310817\\
58	0.00495116794332671\\
59	0.00485468351773321\\
60	0.00475890010347922\\
61	0.00466484578572566\\
62	0.00457308311118313\\
63	0.00448390798586452\\
64	0.0043974582605137\\
65	0.00431377595094964\\
66	0.00423284428954661\\
67	0.00415461047403326\\
68	0.00407899997367922\\
69	0.00400592569101114\\
70	0.00393529390404367\\
71	0.0038670081481966\\
72	0.00380097175500134\\
73	0.00373708950172093\\
74	0.00367526866536834\\
75	0.00361541967416126\\
76	0.00355745648532918\\
77	0.00350129677649243\\
78	0.00344686201027152\\
79	0.00339407741330312\\
80	0.00334287189828014\\
81	0.0032931779490063\\
82	0.00324493148246751\\
83	0.00319807169773062\\
84	0.003152540918526\\
85	0.00310828443427485\\
86	0.00306525034282854\\
87	0.00302338939712195\\
88	0.00298265485717807\\
89	0.00294300234835571\\
90	0.00290438972634362\\
91	0.0028667769491261\\
92	0.00283012595595264\\
93	0.0027944005532083\\
94	0.00275956630699144\\
95	0.0027255904421446\\
96	0.00269244174744817\\
97	0.00266009048666622\\
98	0.00262850831512411\\
99	0\\
100	0\\
};
\addlegendentry{$\mathbf{h_1}$}

\addplot [color=mycolor2]
  table[row sep=crcr]{%
1	0.00108294891904515\\
2	0.00115806441999571\\
3	0.00125656841390277\\
4	0.00139359850086552\\
5	0.00159676508941691\\
6	0.00191784013184518\\
7	0.00245777585368985\\
8	0.00342819163679349\\
9	0.00533730915065768\\
10	0.00974214709050295\\
11	0.0244449264542886\\
12	0.973731186814765\\
13	0.0500739614470277\\
14	0.0426946282907342\\
15	0.00536788790071817\\
16	0.0362080823589407\\
17	0.176144271962331\\
18	0.115663212635922\\
19	0.0234963057121139\\
20	0.0138738178597906\\
21	0.00966054585381422\\
22	0.00731818549393035\\
23	0.00584139575065055\\
24	0.0048330083027894\\
25	0.00410500747522503\\
26	0.00355723928842746\\
27	0.00313167065616096\\
28	0.00279247304593218\\
29	0.00251639833876938\\
30	0.00228774297450139\\
31	0.00209554142652578\\
32	0.00193191967393617\\
33	0.00179108704155738\\
34	0.00166869616651274\\
35	0\\
36	0\\
37	0\\
38	0\\
39	0\\
40	0\\
41	0\\
42	0\\
43	0\\
44	0\\
45	0\\
46	0\\
47	0\\
48	0\\
49	0\\
50	0\\
51	0\\
52	0\\
53	0\\
54	0\\
55	0\\
56	0\\
57	0\\
58	0\\
59	0\\
60	0\\
61	0\\
62	0\\
63	0\\
64	0\\
65	0\\
66	0\\
67	0\\
68	0\\
69	0\\
70	0\\
71	0\\
72	0\\
73	0\\
74	0\\
75	0\\
76	0\\
77	0\\
78	0\\
79	0\\
80	0\\
81	0\\
82	0\\
83	0\\
84	0\\
85	0\\
86	0\\
87	0\\
88	0\\
89	0\\
90	0\\
91	0\\
92	0\\
93	0\\
94	0\\
95	0\\
96	0\\
97	0\\
98	0\\
99	0\\
100	0\\
};
\addlegendentry{$\mathbf{h_{2}}$}

\end{axis}

\begin{axis}[%
width=1.935in,
height=3.2in,
at={(3.327in,0.512in)},
scale only axis,
xmin=0,
xmax=200,
xlabel style={font=\color{white!15!black}, align=center},
xlabel={Sample Index\\[1ex](b) Estimated},
ymin=0,
ymax=1,
axis background/.style={fill=white},
legend style={legend cell align=left, align=left, draw=white!15!black}
]
\addplot [color=mycolor1]
  table[row sep=crcr]{%
0	2.8639476837577e-05\\
1	4.60764035337996e-05\\
2	7.66033533670188e-05\\
3	7.77005961250638e-05\\
4	6.29080667095639e-05\\
5	4.01517596795198e-05\\
6	9.76601282951454e-05\\
7	2.41401522439306e-05\\
8	2.23878936915647e-05\\
9	2.83946693557294e-05\\
10	3.78972248203166e-05\\
11	2.83258327165684e-05\\
12	4.68454967382268e-05\\
13	6.08644217168713e-05\\
14	4.03874825835498e-05\\
15	5.83976709306173e-05\\
16	6.25928941014739e-05\\
17	6.02252580565102e-05\\
18	5.10829866718406e-05\\
19	5.86129964717467e-05\\
20	5.37691516001239e-05\\
21	1.96298574797038e-05\\
22	2.37995103773533e-05\\
23	7.10027544059023e-05\\
24	1.58869608843608e-05\\
25	4.5926378247791e-05\\
26	9.22111076994668e-05\\
27	0.000192027744763972\\
28	8.20078624983272e-05\\
29	0.000130210195538917\\
30	4.7049267350031e-05\\
31	0.000121026774938059\\
32	3.47996816406454e-05\\
33	2.02796172011218e-05\\
34	3.43145108513293e-05\\
35	2.14333300843849e-05\\
36	9.76102914658227e-06\\
37	0.000140112070220592\\
38	5.86629829547681e-05\\
39	3.86077939778432e-05\\
40	7.50460114308692e-05\\
41	0.000179876565762837\\
42	3.85031164065223e-05\\
43	8.13318075373443e-05\\
44	6.12233249911079e-05\\
45	4.84449891557961e-05\\
46	2.77685883733749e-05\\
47	4.39873583515324e-05\\
48	3.19650406756046e-05\\
49	6.85167450430907e-05\\
50	6.75935904590915e-05\\
51	5.52711637456353e-05\\
52	4.96753493741033e-05\\
53	3.55226292281043e-05\\
54	4.52845656768186e-05\\
55	5.37951666690757e-05\\
56	4.71895863588775e-05\\
57	4.2299765299542e-05\\
58	8.82081185223574e-05\\
59	5.8238960804366e-05\\
60	6.14956106699256e-05\\
61	3.30391363503412e-05\\
62	4.70773061132476e-05\\
63	7.60292863900112e-05\\
64	1.72499619104314e-05\\
65	7.19778886855577e-05\\
66	4.73617842905943e-05\\
67	3.06046320281151e-05\\
68	9.79489657266008e-06\\
69	8.07532171077248e-05\\
70	0.000106753306993739\\
71	3.32865649367055e-05\\
72	6.43509384346183e-05\\
73	4.49248064715122e-05\\
74	6.83928949681628e-05\\
75	0.00438537412098708\\
76	5.59555093926846e-05\\
77	3.50987182197867e-05\\
78	8.67808980943126e-05\\
79	6.94173690459298e-05\\
80	6.55572020580269e-05\\
81	3.81037860460964e-05\\
82	0.00150956437426684\\
83	0.0138109593429133\\
84	0.00575570793688963\\
85	0.0087288029947342\\
86	0.0155403077260827\\
87	0.0301578755607151\\
88	0.093479482681757\\
89	0.0104418012242296\\
90	0.0148811112090177\\
91	0.00626027770550632\\
92	0.188643950723945\\
93	0.691470797897876\\
94	0.202179660908445\\
95	0.0270460925882022\\
96	0.136799290985829\\
97	0.0580153330044631\\
98	0.0861646047488344\\
99	0.0184561798470288\\
100	0.0940689940124407\\
101	0.401330839675529\\
102	0.297193950774308\\
103	0.162426850718833\\
104	0.119448779471884\\
105	0.0579405893603503\\
106	0.0975530908977249\\
107	0.0167983943180349\\
108	0.0152493571585203\\
109	0.0326415240892085\\
110	0.10512393812628\\
111	0.274073572392757\\
112	0.0619003553784092\\
113	0.00884868424159629\\
114	0.00326617830785664\\
115	0.00559626846381641\\
116	0.000300432620933998\\
117	0.00789434126826587\\
118	0.00659046388889294\\
119	0.0258208712994842\\
120	0.00336391319479075\\
121	2.43301677533318e-05\\
122	0.00012532402667839\\
123	0.000182875708951375\\
124	3.88084140507264e-05\\
125	2.35274957122393e-05\\
126	9.09645526015032e-05\\
127	2.22181718542899e-05\\
128	1.63119997244356e-05\\
129	3.63123279563257e-05\\
130	0.000111459751567813\\
131	6.71669037046972e-05\\
132	4.38347291013549e-05\\
133	6.36252307955927e-05\\
134	8.38350040842566e-05\\
135	4.34015796004073e-05\\
136	6.65506338700034e-05\\
137	4.787271876077e-05\\
138	4.72810686421667e-05\\
139	5.02459355256618e-05\\
140	6.71619165807081e-05\\
141	0.000134013283170619\\
142	2.17396670693776e-05\\
143	7.41389675971582e-05\\
144	3.12715144381137e-05\\
145	2.19084567898792e-05\\
146	4.68860095054802e-05\\
147	8.15428048081139e-06\\
148	2.49780629718561e-05\\
149	1.56794996062878e-05\\
150	7.38408397860102e-05\\
151	5.42839593310928e-05\\
152	4.8921273283464e-05\\
153	1.41831222435722e-05\\
154	0.000177321911401117\\
155	0.000225656284561877\\
156	6.37966611003863e-05\\
157	8.6254009295668e-06\\
158	6.58938813349567e-05\\
159	5.60919051202151e-05\\
160	8.14354424949691e-05\\
161	9.00095922345243e-05\\
162	7.76704483359133e-05\\
163	3.6222732743121e-05\\
164	5.75675270676474e-05\\
165	0.000109561160441693\\
166	0.00010911619421065\\
167	7.09535850245078e-05\\
168	7.48803831702579e-05\\
169	4.61918866827704e-05\\
170	3.06407524738249e-05\\
171	9.96622388088338e-05\\
172	6.2321109598312e-05\\
173	6.84118063790928e-05\\
174	9.79198483456854e-05\\
175	2.84688987221212e-05\\
176	7.88344811486951e-05\\
177	0.0001120633150224\\
178	6.8254263968541e-05\\
179	4.57631249083984e-05\\
180	3.21683085403134e-05\\
181	9.55156358555323e-05\\
182	2.25240117210043e-05\\
183	8.84242886290314e-05\\
184	0.000148510660979301\\
185	5.44128646236684e-05\\
186	3.69481879016657e-05\\
187	6.09495325511859e-05\\
188	7.0513926016797e-05\\
189	1.51619734502418e-05\\
190	2.8884934462898e-05\\
191	4.7176163446124e-05\\
192	2.4153066369827e-05\\
193	3.14756680637731e-05\\
194	9.16817142065753e-05\\
195	5.51731803404598e-05\\
196	3.09737657061851e-05\\
197	5.07812574152016e-05\\
198	9.99145903545614e-06\\
199	3.05809886904378e-05\\
};
\addlegendentry{$\mathbf{\hat{h}_{1}}$}

\addplot [color=mycolor2]
  table[row sep=crcr]{%
0	1.51918224602252e-05\\
1	1.50236899371148e-05\\
2	1.37662999567392e-05\\
3	6.37394668751199e-06\\
4	1.50849666710847e-05\\
5	1.04395771618136e-05\\
6	3.19103561977804e-05\\
7	7.2131272670099e-06\\
8	1.83542955586583e-05\\
9	9.87357435037945e-06\\
10	1.72559835447871e-05\\
11	1.52021738461664e-05\\
12	2.17128364072308e-05\\
13	1.02243117737836e-05\\
14	7.34022725138168e-06\\
15	1.88298566576391e-05\\
16	1.28155813406042e-06\\
17	4.80080943336115e-06\\
18	7.49810293343018e-06\\
19	1.47930671421199e-05\\
20	1.83535521530035e-05\\
21	2.70141311495483e-05\\
22	1.1675368705188e-05\\
23	6.96626395845953e-06\\
24	1.28939120182321e-05\\
25	4.3930230829112e-05\\
26	1.09478914653993e-05\\
27	1.92115863431979e-05\\
28	2.06060900274518e-05\\
29	9.68469738318395e-06\\
30	1.67813175345553e-05\\
31	1.24106286408693e-05\\
32	1.52975971298108e-05\\
33	5.39413022389958e-05\\
34	1.55579476853702e-05\\
35	3.73061047320027e-05\\
36	1.26274960009427e-05\\
37	5.86279141402356e-05\\
38	5.33826763588985e-05\\
39	4.90806944278061e-05\\
40	1.20307169002223e-06\\
41	1.99939133476941e-05\\
42	1.74784820294048e-05\\
43	1.2347794238514e-05\\
44	5.31313835840644e-06\\
45	1.13033131389783e-05\\
46	4.19011771341197e-05\\
47	8.25948616223118e-06\\
48	2.36177152213414e-05\\
49	1.3797751278598e-05\\
50	1.17885886224931e-05\\
51	1.68682841657087e-05\\
52	1.0472046809064e-05\\
53	1.35113839955198e-05\\
54	9.95572913067786e-06\\
55	2.6805610390581e-05\\
56	8.722684058805e-06\\
57	1.26285748546617e-05\\
58	1.91638901963434e-05\\
59	8.51476037921334e-06\\
60	2.80875711364698e-05\\
61	1.63724500834112e-05\\
62	1.64331512279514e-05\\
63	7.6477671542207e-06\\
64	1.77833175032743e-05\\
65	2.50236602555195e-05\\
66	3.3749085086702e-05\\
67	1.82753526880841e-05\\
68	2.20630573473427e-05\\
69	1.75276494367971e-05\\
70	2.96276479624853e-05\\
71	9.02689236062109e-05\\
72	1.98321789541612e-05\\
73	0.00160732181213315\\
74	5.98998062327241e-06\\
75	1.95333753628468e-05\\
76	1.14933620850683e-05\\
77	7.31975126686042e-06\\
78	7.5415907609695e-05\\
79	0.00241903761864818\\
80	0.00324838510465005\\
81	0.0456304941307623\\
82	0.00277687886856045\\
83	0.00702687395848279\\
84	0.00183092720241603\\
85	0.0012174246983933\\
86	0.0038084064273358\\
87	2.16168996655566e-06\\
88	0.0290209776841433\\
89	0.0499181230476315\\
90	0.011623503500451\\
91	0.0720936767968034\\
92	0.00316461538881419\\
93	0.000752268177494207\\
94	0.0114994518964696\\
95	0.00698320553571567\\
96	0.0166438612914072\\
97	0.025777641460997\\
98	0.00308054613844183\\
99	0.987812225047554\\
100	0.00246220821653189\\
101	0.0259669115978349\\
102	0.0180709959631449\\
103	0.00722877313284156\\
104	0.0111761841761792\\
105	0.000558306579177845\\
106	0.00256917056629157\\
107	0.0721691850106589\\
108	0.0116655108092014\\
109	0.0504313144993562\\
110	0.0300363331112054\\
111	2.74361768799887e-06\\
112	0.00394962831896324\\
113	0.00176732282934895\\
114	0.002645618168435\\
115	0.00711250141018755\\
116	0.00291986860470733\\
117	0.0464638603009842\\
118	0.0028878079688475\\
119	0.00233496301643437\\
120	4.38241123399688e-05\\
121	9.67128182060853e-06\\
122	1.91512715793557e-05\\
123	2.43232598592449e-05\\
124	1.07614243438058e-05\\
125	0.00129135940049481\\
126	3.98821656400645e-05\\
127	8.14430875883681e-05\\
128	2.91156147454239e-05\\
129	2.54056145119738e-05\\
130	2.86220724221182e-05\\
131	1.15329469734447e-05\\
132	4.40816494535746e-05\\
133	2.65380419497476e-05\\
134	1.55057884002579e-05\\
135	5.21232552460532e-06\\
136	1.37836208954382e-05\\
137	1.54092804748773e-05\\
138	2.80263471278812e-05\\
139	1.27156058284713e-05\\
140	1.52313547138518e-05\\
141	2.12076860618548e-05\\
142	8.46768941270914e-06\\
143	3.19208764296339e-05\\
144	1.19529542159335e-05\\
145	1.82916384953374e-05\\
146	1.22106312020992e-05\\
147	1.0936605193204e-05\\
148	6.93509077662701e-06\\
149	1.38373661993575e-05\\
150	2.40415383980272e-05\\
151	9.77382293453133e-06\\
152	3.97281934934377e-05\\
153	8.58170080669639e-06\\
154	5.35487140137096e-06\\
155	1.18424094021752e-05\\
156	1.45675620884105e-05\\
157	2.07955113293102e-05\\
158	1.02809103621192e-05\\
159	3.00250727184353e-05\\
160	5.64853450622441e-05\\
161	6.25470940746154e-05\\
162	1.06917075578449e-05\\
163	2.73208166785779e-05\\
164	1.11939243462442e-05\\
165	5.48433067106533e-05\\
166	9.18830023441649e-06\\
167	1.26084651701243e-05\\
168	1.87413340153632e-05\\
169	1.56811071188767e-05\\
170	2.7437026265244e-05\\
171	2.03136073912177e-05\\
172	2.11822817603458e-05\\
173	3.73177496253717e-05\\
174	1.46263350635017e-05\\
175	4.55981997854831e-06\\
176	7.00321802117007e-06\\
177	2.1160648708649e-05\\
178	2.94890957117763e-05\\
179	2.06245701131405e-05\\
180	9.82122920950801e-06\\
181	4.63394395409338e-06\\
182	1.41688473761329e-05\\
183	1.97084480658802e-05\\
184	2.64129307517906e-05\\
185	5.75212574507658e-06\\
186	1.89239145574083e-05\\
187	1.67973129714385e-05\\
188	1.03612581752311e-05\\
189	1.07897388181786e-05\\
190	2.80398389376822e-05\\
191	3.48258529140696e-06\\
192	4.09776021210703e-05\\
193	7.78741696113016e-06\\
194	1.27699698278797e-05\\
195	8.35412007034945e-06\\
196	3.28994832160997e-06\\
197	2.1977077041311e-05\\
198	7.70685559011324e-06\\
199	1.34550036561071e-05\\
};
\addlegendentry{$\mathbf{\hat{h}_{2}}$}

\end{axis}
\end{tikzpicture}%