% This file was created by matlab2tikz.
%
%The latest updates can be retrieved from
%  http://www.mathworks.com/matlabcentral/fileexchange/22022-matlab2tikz-matlab2tikz
%where you can also make suggestions and rate matlab2tikz.
%
\definecolor{mycolor1}{rgb}{0.00000,0.44700,0.74100}%
\definecolor{mycolor2}{rgb}{0.85000,0.32500,0.09800}%
%
\begin{tikzpicture}

\begin{axis}[%
width=1.935in,
height=3.2in,
at={(0.758in,0.512in)},
scale only axis,
xmin=0,
xmax=100,
xlabel style={font=\color{white!15!black}, align=center},
xlabel={Sample Index\\[1ex](a) Actual},
ymin=0,
ymax=1,
axis background/.style={fill=white},
legend style={legend cell align=left, align=left, draw=white!15!black}
]
\addplot [color=mycolor1]
  table[row sep=crcr]{%
1	0.0216926152020066\\
2	0.0241183965289278\\
3	0.0267807478156139\\
4	0.0354280601095614\\
5	0.221828667704926\\
6	0.648965745595675\\
7	0.241270440438586\\
8	0.0776642628644082\\
9	0.0581044824071981\\
10	0.0611489366831747\\
11	0.0798140419847986\\
12	0.062735544320507\\
13	0.113011040425493\\
14	0.377485382687519\\
15	0.331649248845691\\
16	0.18615433793772\\
17	0.146493252817741\\
18	0.0847190801249442\\
19	0.0628278567269286\\
20	0.0148364296169451\\
21	0.0250471739922352\\
22	0.0344835915107885\\
23	0.116323790948646\\
24	0.279210940275387\\
25	0.101045410677318\\
26	0.0464379665429307\\
27	0.041398863205924\\
28	0.0263226969199998\\
29	0.0221848789960478\\
30	0.0197642774213948\\
31	0.0186496517239344\\
32	0.0219339353832985\\
33	0.018414044189717\\
34	0.00937919788338426\\
35	0.0100670783096178\\
36	0.0098135024549665\\
37	0.00937197330245933\\
38	0.00884810306396591\\
39	0.00821513429074651\\
40	0.00732026654240377\\
41	0.00945021173361951\\
42	0.0127255218727005\\
43	0.00946415089832864\\
44	0.00862800399957479\\
45	0.00816256372793386\\
46	0.00784857678072338\\
47	0.00764005346579914\\
48	0.00755773656417068\\
49	0.00776075567554332\\
50	0.00986938420958768\\
51	0.00319649311885596\\
52	0.00500292172051245\\
53	0.00524752973649041\\
54	0.00526667690567613\\
55	0.00521575322380608\\
56	0.00513704586881206\\
57	0.00504647235310817\\
58	0.00495116794332671\\
59	0.00485468351773321\\
60	0.00475890010347922\\
61	0.00466484578572566\\
62	0.00457308311118313\\
63	0.00448390798586452\\
64	0.0043974582605137\\
65	0.00431377595094964\\
66	0.00423284428954661\\
67	0.00415461047403326\\
68	0.00407899997367922\\
69	0.00400592569101114\\
70	0.00393529390404367\\
71	0.0038670081481966\\
72	0.00380097175500134\\
73	0.00373708950172093\\
74	0.00367526866536834\\
75	0.00361541967416126\\
76	0.00355745648532918\\
77	0.00350129677649243\\
78	0.00344686201027152\\
79	0.00339407741330312\\
80	0.00334287189828014\\
81	0.0032931779490063\\
82	0.00324493148246751\\
83	0.00319807169773062\\
84	0.003152540918526\\
85	0.00310828443427485\\
86	0.00306525034282854\\
87	0.00302338939712195\\
88	0.00298265485717807\\
89	0.00294300234835571\\
90	0.00290438972634362\\
91	0.0028667769491261\\
92	0.00283012595595264\\
93	0.0027944005532083\\
94	0.00275956630699144\\
95	0.0027255904421446\\
96	0.00269244174744817\\
97	0.00266009048666622\\
98	0.00262850831512411\\
99	0\\
100	0\\
};
\addlegendentry{$\mathbf{h_1}$}

\addplot [color=mycolor2]
  table[row sep=crcr]{%
1	0.00108294891904515\\
2	0.00115806441999571\\
3	0.00125656841390277\\
4	0.00139359850086552\\
5	0.00159676508941691\\
6	0.00191784013184518\\
7	0.00245777585368985\\
8	0.00342819163679349\\
9	0.00533730915065768\\
10	0.00974214709050295\\
11	0.0244449264542886\\
12	0.973731186814765\\
13	0.0500739614470277\\
14	0.0426946282907342\\
15	0.00536788790071817\\
16	0.0362080823589407\\
17	0.176144271962331\\
18	0.115663212635922\\
19	0.0234963057121139\\
20	0.0138738178597906\\
21	0.00966054585381422\\
22	0.00731818549393035\\
23	0.00584139575065055\\
24	0.0048330083027894\\
25	0.00410500747522503\\
26	0.00355723928842746\\
27	0.00313167065616096\\
28	0.00279247304593218\\
29	0.00251639833876938\\
30	0.00228774297450139\\
31	0.00209554142652578\\
32	0.00193191967393617\\
33	0.00179108704155738\\
34	0.00166869616651274\\
35	0\\
36	0\\
37	0\\
38	0\\
39	0\\
40	0\\
41	0\\
42	0\\
43	0\\
44	0\\
45	0\\
46	0\\
47	0\\
48	0\\
49	0\\
50	0\\
51	0\\
52	0\\
53	0\\
54	0\\
55	0\\
56	0\\
57	0\\
58	0\\
59	0\\
60	0\\
61	0\\
62	0\\
63	0\\
64	0\\
65	0\\
66	0\\
67	0\\
68	0\\
69	0\\
70	0\\
71	0\\
72	0\\
73	0\\
74	0\\
75	0\\
76	0\\
77	0\\
78	0\\
79	0\\
80	0\\
81	0\\
82	0\\
83	0\\
84	0\\
85	0\\
86	0\\
87	0\\
88	0\\
89	0\\
90	0\\
91	0\\
92	0\\
93	0\\
94	0\\
95	0\\
96	0\\
97	0\\
98	0\\
99	0\\
100	0\\
};
\addlegendentry{$\mathbf{h_{2}}$}

\end{axis}

\begin{axis}[%
width=1.935in,
height=3.2in,
at={(3.327in,0.512in)},
scale only axis,
xmin=0,
xmax=100,
xlabel style={font=\color{white!15!black}, align=center},
xlabel={Sample Index\\[1ex](b) Estimated},
ymin=0,
ymax=1,
axis background/.style={fill=white},
legend style={legend cell align=left, align=left, draw=white!15!black}
]
\addplot [color=mycolor1]
  table[row sep=crcr]{%
0	2.91783732242504e-05\\
1	2.00753688632275e-05\\
2	4.75013416211213e-06\\
3	2.71086709536899e-05\\
4	1.98512974407671e-05\\
5	7.52644733374789e-06\\
6	4.45137335636863e-05\\
7	2.50092131078781e-05\\
8	1.05711028812134e-05\\
9	1.31548114905577e-05\\
10	2.84409944351093e-05\\
11	1.31668614057367e-05\\
12	2.20303296583106e-05\\
13	2.71363353873987e-05\\
14	7.62523950054224e-06\\
15	7.93041325843416e-06\\
16	1.71087118216493e-05\\
17	3.83920441878625e-05\\
18	3.26165336188795e-05\\
19	0.00561892613138382\\
20	0.0338524113071113\\
21	9.48274918581211e-06\\
22	0.00405917123538734\\
23	2.40682754173792e-05\\
24	3.54174623031025e-05\\
25	1.99977166746344e-05\\
26	0.00146467452579825\\
27	0.0301969516694465\\
28	0.0706929659420381\\
29	0.0414522464601411\\
30	0.0613226116677683\\
31	0.0236060369735611\\
32	0.00495176820732532\\
33	0.0586178854746534\\
34	0.00726843906436459\\
35	0.0238034807815994\\
36	3.16336849625849e-05\\
37	0.175832434338024\\
38	0.695688128528817\\
39	0.1990932095983\\
40	0.0168374164442781\\
41	0.0988276510996099\\
42	0.078269164961209\\
43	0.119464728679416\\
44	0.0202499205003052\\
45	0.0904355297399592\\
46	0.368320457183182\\
47	0.288060235753443\\
48	0.185240079379483\\
49	0.119203975544536\\
50	0.071870095598153\\
51	0.0711155653528382\\
52	0.0540841809275232\\
53	0.0269377189339381\\
54	0.0605796093882742\\
55	0.142433831754936\\
56	0.26907207564842\\
57	0.0542490380181396\\
58	0.00633103753099641\\
59	0.00160400162081468\\
60	0.00146735995709997\\
61	1.63067734157711e-05\\
62	0.027949297579752\\
63	0.0408313511203095\\
64	0.0705985839083367\\
65	0.0276868889045783\\
66	0.0121750586532936\\
67	1.25281019761318e-05\\
68	0.0124327135623684\\
69	0.00857382934776109\\
70	0.00410892703152075\\
71	2.11993063663098e-05\\
72	0.00358377535719031\\
73	0.0128522442803342\\
74	0.00611733888551408\\
75	0.00379271380271302\\
76	1.96920714832475e-05\\
77	2.46195857889794e-05\\
78	1.98692957242901e-05\\
79	9.29210312999294e-06\\
80	1.57185775788451e-05\\
81	0.000259642104454427\\
82	0.00132815584303059\\
83	1.75044667793429e-05\\
84	1.83944848290987e-05\\
85	8.31372732598966e-06\\
86	9.9472317430497e-06\\
87	3.35401007640495e-05\\
88	1.22772521171984e-05\\
89	8.66708136578544e-06\\
};
\addlegendentry{$\mathbf{\hat{h}_{1}}$}

\addplot [color=mycolor2]
  table[row sep=crcr]{%
0	1.24813209590339e-05\\
1	1.39815300532516e-05\\
2	6.6603728472877e-06\\
3	1.69745494679981e-05\\
4	2.59815494033387e-05\\
5	1.60612928768303e-05\\
6	3.65415902847646e-06\\
7	1.49607117837241e-05\\
8	1.0148344395334e-05\\
9	1.04098143435628e-05\\
10	0.00159035435648673\\
11	1.84031430692663e-05\\
12	2.20519719908689e-05\\
13	1.06244165604694e-05\\
14	5.60415851158211e-06\\
15	0.000652903431724005\\
16	0.0102731559280314\\
17	0.00106486679428723\\
18	0.0165590256500474\\
19	0.0024830772242741\\
20	1.39190334471477e-05\\
21	5.17786533301323e-05\\
22	1.28218066623642e-05\\
23	0.00104827637904561\\
24	2.63851835142163e-05\\
25	0.0117052411674334\\
26	0.0749304029891032\\
27	0.0122582505280017\\
28	0.0234603193798239\\
29	0.00792006274926047\\
30	0.00220387756691971\\
31	0.0013191603340643\\
32	3.26788110954906e-06\\
33	0.0523121246394575\\
34	0.0789605027073669\\
35	0.020376151568815\\
36	0.130758253811951\\
37	2.0999048074767e-05\\
38	0.0155561951683389\\
39	0.0383179129388822\\
40	0.0200766310494538\\
41	0.0188432640866238\\
42	0.0415542731324755\\
43	0.00772690967188736\\
44	0.959893126686946\\
45	0.00350776479980216\\
46	0.0434458204197779\\
47	0.0279425237374418\\
48	0.0217397417078776\\
49	0.0428454016051991\\
50	0.0161799037724966\\
51	1.20431949314657e-05\\
52	0.132038396998043\\
53	0.0219873343738178\\
54	0.0812656194181928\\
55	0.0575275149142303\\
56	1.0287759952862e-05\\
57	0.00182603355067168\\
58	0.0060169820462836\\
59	0.0118354566272358\\
60	0.0267258947473065\\
61	0.0115304298885284\\
62	0.0795834635916184\\
63	0.0114950660303544\\
64	4.72689686606879e-06\\
65	0.000199604409848707\\
66	1.1418019956516e-05\\
67	1.68417533956167e-05\\
68	2.533728965215e-06\\
69	0.00255456121018092\\
70	0.0123515434819697\\
71	0.00173057740872531\\
72	0.0142386906230302\\
73	0.00207437114137051\\
74	1.56393806918898e-05\\
75	7.884669574766e-06\\
76	2.0153531087221e-05\\
77	2.9305161198763e-05\\
78	0.00314803670268444\\
79	1.00765267750586e-05\\
80	1.22922534524942e-05\\
81	9.23654493568841e-06\\
82	1.57734476969371e-05\\
83	1.054441297835e-05\\
84	1.90727565717893e-05\\
85	1.84055611378987e-05\\
86	8.47171771314486e-06\\
87	5.13691134127357e-06\\
88	8.93731960236332e-06\\
89	1.49980852167469e-05\\
};
\addlegendentry{$\mathbf{\hat{h}_{2}}$}

\end{axis}
\end{tikzpicture}%