% This file was created by matlab2tikz.
%
%The latest updates can be retrieved from
%  http://www.mathworks.com/matlabcentral/fileexchange/22022-matlab2tikz-matlab2tikz
%where you can also make suggestions and rate matlab2tikz.
%
\definecolor{mycolor1}{rgb}{0.00000,0.44700,0.74100}%
\definecolor{mycolor2}{rgb}{0.85000,0.32500,0.09800}%
%
\begin{tikzpicture}

\begin{axis}[%
width=1.935in,
height=3.2in,
at={(0.758in,0.512in)},
scale only axis,
xmin=0,
xmax=100,
xlabel style={font=\color{white!15!black}, align=center},
xlabel={Sample Index\\[1ex](a) Actual},
ymin=0,
ymax=1,
axis background/.style={fill=white},
legend style={legend cell align=left, align=left, draw=white!15!black}
]
\addplot [color=mycolor1]
  table[row sep=crcr]{%
1	0.0216926152020066\\
2	0.0241183965289278\\
3	0.0267807478156139\\
4	0.0354280601095614\\
5	0.221828667704926\\
6	0.648965745595675\\
7	0.241270440438586\\
8	0.0776642628644082\\
9	0.0581044824071981\\
10	0.0611489366831747\\
11	0.0798140419847986\\
12	0.062735544320507\\
13	0.113011040425493\\
14	0.377485382687519\\
15	0.331649248845691\\
16	0.18615433793772\\
17	0.146493252817741\\
18	0.0847190801249442\\
19	0.0628278567269286\\
20	0.0148364296169451\\
21	0.0250471739922352\\
22	0.0344835915107885\\
23	0.116323790948646\\
24	0.279210940275387\\
25	0.101045410677318\\
26	0.0464379665429307\\
27	0.041398863205924\\
28	0.0263226969199998\\
29	0.0221848789960478\\
30	0.0197642774213948\\
31	0.0186496517239344\\
32	0.0219339353832985\\
33	0.018414044189717\\
34	0.00937919788338426\\
35	0.0100670783096178\\
36	0.0098135024549665\\
37	0.00937197330245933\\
38	0.00884810306396591\\
39	0.00821513429074651\\
40	0.00732026654240377\\
41	0.00945021173361951\\
42	0.0127255218727005\\
43	0.00946415089832864\\
44	0.00862800399957479\\
45	0.00816256372793386\\
46	0.00784857678072338\\
47	0.00764005346579914\\
48	0.00755773656417068\\
49	0.00776075567554332\\
50	0.00986938420958768\\
51	0.00319649311885596\\
52	0.00500292172051245\\
53	0.00524752973649041\\
54	0.00526667690567613\\
55	0.00521575322380608\\
56	0.00513704586881206\\
57	0.00504647235310817\\
58	0.00495116794332671\\
59	0.00485468351773321\\
60	0.00475890010347922\\
61	0.00466484578572566\\
62	0.00457308311118313\\
63	0.00448390798586452\\
64	0.0043974582605137\\
65	0.00431377595094964\\
66	0.00423284428954661\\
67	0.00415461047403326\\
68	0.00407899997367922\\
69	0.00400592569101114\\
70	0.00393529390404367\\
71	0.0038670081481966\\
72	0.00380097175500134\\
73	0.00373708950172093\\
74	0.00367526866536834\\
75	0.00361541967416126\\
76	0.00355745648532918\\
77	0.00350129677649243\\
78	0.00344686201027152\\
79	0.00339407741330312\\
80	0.00334287189828014\\
81	0.0032931779490063\\
82	0.00324493148246751\\
83	0.00319807169773062\\
84	0.003152540918526\\
85	0.00310828443427485\\
86	0.00306525034282854\\
87	0.00302338939712195\\
88	0.00298265485717807\\
89	0.00294300234835571\\
90	0.00290438972634362\\
91	0.0028667769491261\\
92	0.00283012595595264\\
93	0.0027944005532083\\
94	0.00275956630699144\\
95	0.0027255904421446\\
96	0.00269244174744817\\
97	0.00266009048666622\\
98	0.00262850831512411\\
99	0\\
100	0\\
};
\addlegendentry{$\mathbf{h_1}$}

\addplot [color=mycolor2]
  table[row sep=crcr]{%
1	0.00108294891904515\\
2	0.00115806441999571\\
3	0.00125656841390277\\
4	0.00139359850086552\\
5	0.00159676508941691\\
6	0.00191784013184518\\
7	0.00245777585368985\\
8	0.00342819163679349\\
9	0.00533730915065768\\
10	0.00974214709050295\\
11	0.0244449264542886\\
12	0.973731186814765\\
13	0.0500739614470277\\
14	0.0426946282907342\\
15	0.00536788790071817\\
16	0.0362080823589407\\
17	0.176144271962331\\
18	0.115663212635922\\
19	0.0234963057121139\\
20	0.0138738178597906\\
21	0.00966054585381422\\
22	0.00731818549393035\\
23	0.00584139575065055\\
24	0.0048330083027894\\
25	0.00410500747522503\\
26	0.00355723928842746\\
27	0.00313167065616096\\
28	0.00279247304593218\\
29	0.00251639833876938\\
30	0.00228774297450139\\
31	0.00209554142652578\\
32	0.00193191967393617\\
33	0.00179108704155738\\
34	0.00166869616651274\\
35	0\\
36	0\\
37	0\\
38	0\\
39	0\\
40	0\\
41	0\\
42	0\\
43	0\\
44	0\\
45	0\\
46	0\\
47	0\\
48	0\\
49	0\\
50	0\\
51	0\\
52	0\\
53	0\\
54	0\\
55	0\\
56	0\\
57	0\\
58	0\\
59	0\\
60	0\\
61	0\\
62	0\\
63	0\\
64	0\\
65	0\\
66	0\\
67	0\\
68	0\\
69	0\\
70	0\\
71	0\\
72	0\\
73	0\\
74	0\\
75	0\\
76	0\\
77	0\\
78	0\\
79	0\\
80	0\\
81	0\\
82	0\\
83	0\\
84	0\\
85	0\\
86	0\\
87	0\\
88	0\\
89	0\\
90	0\\
91	0\\
92	0\\
93	0\\
94	0\\
95	0\\
96	0\\
97	0\\
98	0\\
99	0\\
100	0\\
};
\addlegendentry{$\mathbf{h_{2}}$}

\end{axis}

\begin{axis}[%
width=1.935in,
height=3.2in,
at={(3.327in,0.512in)},
scale only axis,
xmin=0,
xmax=100,
xlabel style={font=\color{white!15!black}, align=center},
xlabel={Sample Index\\[1ex](b) Estimated},
ymin=0,
ymax=1,
axis background/.style={fill=white},
legend style={legend cell align=left, align=left, draw=white!15!black}
]
\addplot [color=mycolor1]
  table[row sep=crcr]{%
0	0.0104219532582125\\
1	0.036711079894941\\
2	0.0139030019359559\\
3	0.0155442258615826\\
4	0.0183245932152098\\
5	0.00157684116775519\\
6	0.0273247232683001\\
7	0.00847669128527342\\
8	0.0141476023367209\\
9	0.0021539394181425\\
10	0.0128155347247294\\
11	0.00772190261496189\\
12	0.018911157628508\\
13	0.00919302740572252\\
14	0.00174493931671307\\
15	0.0203098032864131\\
16	0.0212483777441494\\
17	0.032203985450114\\
18	0.00278713625381903\\
19	0.00421712992731873\\
20	0.0171964935096705\\
21	0.00791256028256191\\
22	0.0268508108195383\\
23	0.0147205497303871\\
24	0.0118554328186455\\
25	0.0230612655956025\\
26	0.0018699552381023\\
27	0.0339614415759094\\
28	0.026337982168477\\
29	0.028057356122662\\
30	0.0200174267256722\\
31	0.0296585774315674\\
32	0.0118682348493263\\
33	0.0193313922376602\\
34	0.0208984075263722\\
35	0.0230205997009042\\
36	0.0389982159104473\\
37	0.0464193213676611\\
38	0.110232452381396\\
39	0.040423538537234\\
40	0.0344034836004479\\
41	0.0404668304746587\\
42	0.207343276170838\\
43	0.645110450859517\\
44	0.204611359692813\\
45	0.0741837535034013\\
46	0.147135193862049\\
47	0.0726003930734727\\
48	0.0779217102692647\\
49	0.0535571946721756\\
50	0.0992714882639975\\
51	0.385800484879372\\
52	0.276119893074413\\
53	0.190489647684834\\
54	0.157945973662463\\
55	0.0553604380856471\\
56	0.127994341913273\\
57	0.0193134557682431\\
58	0.00470658006336406\\
59	0.0401106279452646\\
60	0.118873649397544\\
61	0.261954580491154\\
62	0.0936724900638877\\
63	0.0520899380404809\\
64	0.0346240371722012\\
65	0.0309427756197845\\
66	0.00660339774025133\\
67	0.026447526660061\\
68	0.0140676530430088\\
69	0.0461111331125872\\
70	0.0362908385215536\\
71	0.0137742446466049\\
72	0.0185927191606888\\
73	0.0212518314009103\\
74	0.0133563321207914\\
75	0.0148969759284963\\
76	0.00554440862373996\\
77	0.00608330153407587\\
78	0.00959602574971066\\
79	0.00807474114415903\\
80	0.0233555299303969\\
81	0.0181853118489412\\
82	0.0166359834023828\\
83	0.0128485249307749\\
84	0.00576862264623272\\
85	0.00928111817706093\\
86	0.00813423564175794\\
87	0.0141027407162108\\
88	0.00423459337381217\\
89	0.0101727836145935\\
90	0.0149987983273325\\
91	0.0130832504756912\\
92	0.0212216668367879\\
93	0.0101739436006302\\
94	0.017517135965694\\
95	0.0200670724486345\\
96	0.0161965366572979\\
97	0.0159523500841289\\
98	0.0073182523189876\\
99	0.00669594071486222\\
};
\addlegendentry{$\mathbf{\hat{h}_{1}}$}

\addplot [color=mycolor2]
  table[row sep=crcr]{%
0	0.000113683141810638\\
1	0.000160402260303127\\
2	0.0001118295359047\\
3	8.47927648540183e-05\\
4	0.000180367147213278\\
5	1.86927911389301e-05\\
6	7.54282233041406e-05\\
7	5.92115594207417e-05\\
8	0.000115520653870734\\
9	9.69511629974995e-05\\
10	0.000217442477184756\\
11	9.30757595959608e-05\\
12	7.00036658748251e-05\\
13	8.58753528374679e-05\\
14	2.85774146893236e-05\\
15	3.87874878565257e-05\\
16	4.17621341439621e-05\\
17	0.000102285410684186\\
18	0.000112377664893521\\
19	0.000185496669220599\\
20	0.000106908236070127\\
21	8.09075493729773e-05\\
22	0.000283304014039075\\
23	0.000228611165183891\\
24	5.1619206296486e-05\\
25	0.000142051520472639\\
26	0.000102837566376126\\
27	0.00018250217648138\\
28	7.72010869483665e-05\\
29	0.00042208748848427\\
30	8.16616717025378e-05\\
31	0.0011663456526198\\
32	0.000179697339488871\\
33	0.000350943521772135\\
34	7.82037285595272e-05\\
35	0.000252070753748458\\
36	0.00036436910005608\\
37	0.000213734983259965\\
38	0.00102105216963357\\
39	0.00142615243286911\\
40	0.000154321255760503\\
41	0.00176012343518832\\
42	0.000276149995064878\\
43	3.16274884137725e-05\\
44	0.000391433636122102\\
45	0.000347305418399058\\
46	0.000644820064098632\\
47	0.00095600237937612\\
48	0.000191254981380519\\
49	0.999989641166425\\
50	0.000187784468134947\\
51	0.000954935656904212\\
52	0.000651037363361518\\
53	0.000339756298532077\\
54	0.000391469691862981\\
55	2.86213596643673e-05\\
56	0.000278916777445069\\
57	0.00176677520465719\\
58	0.000148566715074596\\
59	0.00142706805650865\\
60	0.00102388558635607\\
61	0.000201908086466187\\
62	0.000373432759880898\\
63	0.00027301754331732\\
64	7.99779159074064e-05\\
65	0.000352502199282043\\
66	0.000198434822575013\\
67	0.00117076656046266\\
68	7.12917206358547e-05\\
69	0.000422671742693215\\
70	7.29114943587081e-05\\
71	0.000197524961831476\\
72	9.30607420276415e-05\\
73	0.000143181272045075\\
74	3.90696402874526e-05\\
75	0.000201981583474721\\
76	0.000272697509816783\\
77	7.4823497513231e-05\\
78	0.000118557346401461\\
79	0.000172798577445631\\
80	0.000103169074299692\\
81	0.000118800778121055\\
82	2.64671205342042e-05\\
83	5.0011858649031e-05\\
84	1.5488368600752e-05\\
85	8.87267987462062e-05\\
86	4.80054660041743e-05\\
87	8.80422497653007e-05\\
88	0.000205698976396614\\
89	9.79632874715209e-05\\
90	0.000137096333092808\\
91	3.83997761334021e-05\\
92	8.7304406767503e-05\\
93	2.56638906454999e-05\\
94	0.000158541563529283\\
95	6.62705341827472e-05\\
96	9.40397156220017e-05\\
97	0.000146859177679872\\
98	0.000128304529647432\\
99	9.11738217193726e-05\\
};
\addlegendentry{$\mathbf{\hat{h}_{2}}$}

\end{axis}
\end{tikzpicture}%