% This file was created by matlab2tikz.
%
%The latest updates can be retrieved from
%  http://www.mathworks.com/matlabcentral/fileexchange/22022-matlab2tikz-matlab2tikz
%where you can also make suggestions and rate matlab2tikz.
%
\definecolor{mycolor1}{rgb}{0.00000,0.44700,0.74100}%
\definecolor{mycolor2}{rgb}{0.85000,0.32500,0.09800}%
%
\begin{tikzpicture}

\begin{axis}[%
width=1.935in,
height=3.2in,
at={(0.758in,0.512in)},
scale only axis,
xmin=0,
xmax=150,
xlabel style={font=\color{white!15!black}, align=center},
xlabel={Sample Index\\[1ex](a) Actual},
ymin=0,
ymax=0.7,
axis background/.style={fill=white},
legend style={legend cell align=left, align=left, draw=white!15!black}
]
\addplot [color=mycolor1]
  table[row sep=crcr]{%
1	0.0234657806037261\\
2	0.0272334504034075\\
3	0.0326864300765018\\
4	0.0414541482980318\\
5	0.0586677033458464\\
6	0.117843438362983\\
7	0.159969331461504\\
8	0.174397116945152\\
9	0.616552810702634\\
10	0.0882137642931462\\
11	0.0472681903124796\\
12	0.0327587509505929\\
13	0.0272256709659274\\
14	0.0412344622245766\\
15	0.0186762848129325\\
16	0.0451940046978057\\
17	0.0153724087875252\\
18	0.0239672675363248\\
19	0.0400285717874473\\
20	0.0828333966509162\\
21	0.557624977131952\\
22	0.149414784250917\\
23	0.109138078132702\\
24	0.0381681231028791\\
25	0.032799759178118\\
26	0.191519461959093\\
27	0.0734580287558902\\
28	0.0358315656953253\\
29	0.0179563195827385\\
30	0.0169149242156914\\
31	0.0179798517146348\\
32	0.0199431506445131\\
33	0.0279225394655299\\
34	0.0908594243819801\\
35	0.0439964246924232\\
36	0.330890477505262\\
37	0.037800506563543\\
38	0.020261933748638\\
39	0.0138181229977315\\
40	0.0211497159554441\\
41	0.0112042208144458\\
42	0.00964538908702694\\
43	0.00864780826327016\\
44	0.00787736374270682\\
45	0.00720180133294831\\
46	0.00651453200193765\\
47	0.00565492088107664\\
48	0.0112814316241706\\
49	0.0075966567083061\\
50	0.0102713040739602\\
51	0.00787142060243747\\
52	0.00711780022683946\\
53	0.00668443537322835\\
54	0.00638223966522588\\
55	0.00615487020840034\\
56	0.00598242225636516\\
57	0.00586293416152974\\
58	0.00581626175933958\\
59	0.00593494184987807\\
60	0.00707647204853056\\
61	0.00861312572402681\\
62	0.00240649054353041\\
63	0.0036902508247688\\
64	0.0040125763148678\\
65	0.00408542983582614\\
66	0.00408934467211144\\
67	0.00406760360864643\\
68	0.00403657730104579\\
69	0.00400486664899167\\
70	0.00397913876457006\\
71	0.00396763365360209\\
72	0.00398577860522856\\
73	0.00407460869510253\\
74	0.00440882178496405\\
75	0.00852319154542653\\
76	0.00211982859547221\\
77	0.00279674481878385\\
78	0.00295234209521732\\
79	0.00299967450324673\\
80	0.00300734384297471\\
81	0.00299658049652506\\
82	0.00297609501762909\\
83	0.00295010695632826\\
84	0.00292089738309008\\
85	0.00288979839106794\\
86	0.00285763293534116\\
87	0.00282493110979805\\
88	0.00279204510261472\\
89	0.00275921420187501\\
90	0.00272660345813555\\
91	0.00269432766245323\\
92	0.00266246675038502\\
93	0.00263107599882434\\
94	0.00260019295165966\\
95	0.00256984222925479\\
96	0.00254003893333548\\
97	0.0025107910982644\\
98	0.00248210148178531\\
99	0.00245396889001376\\
100	0.00242638916874131\\
101	0.00239935595223708\\
102	0.00237286123354156\\
103	0.00234689580183488\\
104	0.00232144957979209\\
105	0.00229651188498403\\
106	0.00227207163310714\\
107	0.0022481174963278\\
108	0.00222463802675857\\
109	0.00220162175268604\\
110	0.00217905725339276\\
111	0.0021569332170867\\
112	0.00213523848544673\\
113	0.00211396208753109\\
114	0.00209309326520902\\
115	0.00207262149182518\\
116	0.00205253648545491\\
117	0.00203282821783402\\
118	0.00201348691983224\\
119	0.00199450308416773\\
120	0.00197586746592614\\
121	0.00195757108133911\\
122	0.0019396052051902\\
123	0.0019219613671484\\
124	0.00190463134727109\\
125	0.00188760717087541\\
126	0.00187088110293773\\
127	0.00185444564215264\\
128	0.0018382935147574\\
129	0.00182241766820821\\
130	0.00180681126477794\\
131	0.00179146767513212\\
132	0.00177638047192757\\
133	0.00176154342347035\\
134	0.00174695048746156\\
135	0.0017325958048528\\
136	0.00171847369382931\\
137	0.00170457864393352\\
138	0.0016909053103386\\
139	0.00167744850827835\\
140	0.00166420320763913\\
141	0.00165116452771496\\
142	0.00163832773212761\\
143	0.00162568822391149\\
144	0.00161324154076111\\
145	0.0016009833504405\\
146	0.00158890944635072\\
147	0.00157701574325256\\
148	0.00156529827314105\\
149	0\\
150	0\\
};
\addlegendentry{$\mathbf{h_1}$}

\addplot [color=mycolor2]
  table[row sep=crcr]{%
1	0.019775303219206\\
2	0.0210217764534023\\
3	0.0224372323963497\\
4	0.024058742711813\\
5	0.0259351263737046\\
6	0.0281320174688059\\
7	0.0307398096072034\\
8	0.0338865833958781\\
9	0.0377600935275399\\
10	0.0426472101764649\\
11	0.0490094599986528\\
12	0.0576401827385178\\
13	0.0700288298559564\\
14	0.0893407156606893\\
15	0.123700774100431\\
16	0.202175033398071\\
17	0.564479813098353\\
18	0.690442426104836\\
19	0.212260509632627\\
20	0.126132345068284\\
21	0.100380135781766\\
22	0.0378663697499036\\
23	0.0333199748773482\\
24	0.0149453064107011\\
25	0.10083899339379\\
26	0.161002397050911\\
27	0.0405118251764787\\
28	0.0383644765554957\\
29	0.0341227495803863\\
30	0.0306469105251072\\
31	0.0278570926171954\\
32	0.0255709383506331\\
33	0.0236574529195357\\
34	0.0220274984760589\\
35	0.0206190941704396\\
36	0.0193877726649002\\
37	0.0183006807256663\\
38	0.0173329207549748\\
39	0.016465211935799\\
40	0.0156823459816501\\
41	0.0149721364414517\\
42	0.0143246843629073\\
43	0.0137318527665838\\
44	0.0131868826449622\\
45	0.0126841071808284\\
46	0.0122187355837443\\
47	0.0117866872087634\\
48	0.0113844626077037\\
49	0.0110090421200206\\
50	0.0106578052804057\\
51	0\\
52	0\\
53	0\\
54	0\\
55	0\\
56	0\\
57	0\\
58	0\\
59	0\\
60	0\\
61	0\\
62	0\\
63	0\\
64	0\\
65	0\\
66	0\\
67	0\\
68	0\\
69	0\\
70	0\\
71	0\\
72	0\\
73	0\\
74	0\\
75	0\\
76	0\\
77	0\\
78	0\\
79	0\\
80	0\\
81	0\\
82	0\\
83	0\\
84	0\\
85	0\\
86	0\\
87	0\\
88	0\\
89	0\\
90	0\\
91	0\\
92	0\\
93	0\\
94	0\\
95	0\\
96	0\\
97	0\\
98	0\\
99	0\\
100	0\\
101	0\\
102	0\\
103	0\\
104	0\\
105	0\\
106	0\\
107	0\\
108	0\\
109	0\\
110	0\\
111	0\\
112	0\\
113	0\\
114	0\\
115	0\\
116	0\\
117	0\\
118	0\\
119	0\\
120	0\\
121	0\\
122	0\\
123	0\\
124	0\\
125	0\\
126	0\\
127	0\\
128	0\\
129	0\\
130	0\\
131	0\\
132	0\\
133	0\\
134	0\\
135	0\\
136	0\\
137	0\\
138	0\\
139	0\\
140	0\\
141	0\\
142	0\\
143	0\\
144	0\\
145	0\\
146	0\\
147	0\\
148	0\\
149	0\\
150	0\\
};
\addlegendentry{$\mathbf{h_{2}}$}

\end{axis}

\begin{axis}[%
width=1.935in,
height=3.2in,
at={(3.327in,0.512in)},
scale only axis,
xmin=0,
xmax=74,
xlabel style={font=\color{white!15!black}, align=center},
xlabel={Sample Index\\[1ex](b) Estimated},
ymin=0,
ymax=1,
axis background/.style={fill=white},
legend style={legend cell align=left, align=left, draw=white!15!black}
]
\addplot [color=mycolor1]
  table[row sep=crcr]{%
0	0.0242277226101602\\
1	0.018588735311334\\
2	0.00933297973729933\\
3	0.0214530600680823\\
4	3.20971310567645e-05\\
5	0.00495653502330825\\
6	0.00332018188706297\\
7	0.00816563123894336\\
8	3.378955483809e-05\\
9	0.00309387366789056\\
10	0.0199896007806886\\
11	5.60891585358913e-06\\
12	0.03274862709143\\
13	0.103554722906189\\
14	0.0292125040226462\\
15	0.0380678440570858\\
16	0.0612701881277253\\
17	0.00796106619327271\\
18	0.0171727992454363\\
19	0.0889138858640499\\
20	0.0283957998623747\\
21	0.0247926262370356\\
22	0.0309648699535501\\
23	0.0324029305861888\\
24	0.0361846509554565\\
25	0.143868239438517\\
26	0.0358010392788306\\
27	0.482024481601364\\
28	0.400941379361746\\
29	0.0967602845107528\\
30	0.0913042798270163\\
31	0.019734595444022\\
32	0.0811214314188689\\
33	0.0308632950736477\\
34	0.0466996362691605\\
35	0.0250293256638346\\
36	0.089979809657394\\
37	0.0954137358947157\\
38	0.123869663351969\\
39	0.23802132383778\\
40	0.47020623529936\\
41	0.18950786241154\\
42	0.0844834855478154\\
43	0.0756583792768934\\
44	0.103525951410424\\
45	0.105385796629543\\
46	0.103611215553403\\
47	0.0268791945483296\\
48	0.0327847650970275\\
49	0.0427682612126116\\
50	0.0303843847650255\\
51	0.0386394690127438\\
52	0.12409325518181\\
53	0.0926764999242837\\
54	0.280052340027841\\
55	0.0947898797493873\\
56	0.0276313252786065\\
57	0.0486548225635999\\
58	0.0123247418796541\\
59	0.00705230884029301\\
60	0.0198370728885478\\
61	0.0114352711490469\\
62	0.0249052699160746\\
63	7.9326825325739e-06\\
64	0.0195315589635697\\
65	0.0247406550072707\\
66	0.0746888468842577\\
67	0.0466858269421713\\
68	1.05305779718363e-05\\
69	0.0363553337089461\\
70	1.2905734805005e-05\\
71	0.00453976775745207\\
72	0.000860715831789902\\
73	4.57712621487285e-06\\
74	2.17096246388441e-05\\
};
\addlegendentry{$\mathbf{\hat{h}_{1}}$}

\addplot [color=mycolor2]
  table[row sep=crcr]{%
0	1.54616327374154e-06\\
1	9.53138146426313e-06\\
2	2.83698101825073e-06\\
3	0.000978063938747392\\
4	0.00397264936883571\\
5	9.13058365265416e-06\\
6	1.98124275688449e-05\\
7	0.0136918641503849\\
8	0.0023798174462772\\
9	0.0463076899006399\\
10	0.00311776076887611\\
11	0.0315180091732453\\
12	0.0127875672133866\\
13	0.00271567464853848\\
14	9.77256199774821e-06\\
15	3.38910810368282e-06\\
16	0.00495887510439616\\
17	0.00118907685265362\\
18	0.00508199707376934\\
19	0.0271709054720497\\
20	0.0253354031253294\\
21	0.0639410144822513\\
22	0.0285939952955208\\
23	0.0435314889721744\\
24	0.15092364598108\\
25	0.0311719887834844\\
26	0.0317773708568643\\
27	0.00417874122934113\\
28	0.0354681084150453\\
29	0.0153155082420015\\
30	0.0193785541330048\\
31	0.00476905980309715\\
32	0.0172038148852438\\
33	0.0351700150512502\\
34	0.0371415366919059\\
35	0.0305052962966277\\
36	0.956678718443425\\
37	0.0280402960266415\\
38	0.0345557993870958\\
39	0.0315521592955674\\
40	0.0213589703396535\\
41	0.00570174678064369\\
42	0.0222487433664407\\
43	0.0187193113446101\\
44	0.0462767810558672\\
45	0.00577167342206286\\
46	0.0273343964131672\\
47	0.0278590516694707\\
48	0.14876647703226\\
49	0.0458387119476784\\
50	0.0232418820440346\\
51	0.0675835394443976\\
52	0.0239928202065763\\
53	0.0296727145913112\\
54	0.00564456125062664\\
55	0.00391607501080078\\
56	0.00243760819819916\\
57	6.68801070442811e-06\\
58	5.08356643868884e-06\\
59	0.000389118928651822\\
60	0.00935973997638267\\
61	0.0285596446682501\\
62	0.00429984147364866\\
63	0.0482235864106906\\
64	0.00371784434315325\\
65	0.0160162222812013\\
66	1.0109961259664e-05\\
67	1.11155915153325e-05\\
68	0.00659160191524822\\
69	0.00329009760614996\\
70	9.81014440247962e-06\\
71	0.000487921000947239\\
72	0.00111974647218797\\
73	0.00790493851218586\\
74	1.65108778702539e-05\\
};
\addlegendentry{$\mathbf{\hat{h}_{2}}$}

\end{axis}
\end{tikzpicture}%