% This file was created by matlab2tikz.
%
%The latest updates can be retrieved from
%  http://www.mathworks.com/matlabcentral/fileexchange/22022-matlab2tikz-matlab2tikz
%where you can also make suggestions and rate matlab2tikz.
%
\definecolor{mycolor1}{rgb}{0.00000,0.44700,0.74100}%
\definecolor{mycolor2}{rgb}{0.85000,0.32500,0.09800}%
%
\begin{tikzpicture}

\begin{axis}[%
width=1.935in,
height=3.2in,
at={(0.758in,0.512in)},
scale only axis,
xmin=0,
xmax=150,
xlabel style={font=\color{white!15!black}, align=center},
xlabel={Sample Index\\[1ex](a) Actual},
ymin=0,
ymax=0.8,
axis background/.style={fill=white},
legend style={legend cell align=left, align=left, draw=white!15!black}
]
\addplot [color=mycolor1]
  table[row sep=crcr]{%
1	0.0151830319933043\\
2	0.0185496696438093\\
3	0.023502065016884\\
4	0.0315038869286449\\
5	0.0469062512391942\\
6	0.0954908680191146\\
7	0.0858266491267274\\
8	0.265807368316819\\
9	0.796648883752005\\
10	0.216493826260265\\
11	0.0878556377176694\\
12	0.07193222497443\\
13	0.105696480077463\\
14	0.149868327351951\\
15	0.0510921191197441\\
16	0.152868392263622\\
17	0.048017719918991\\
18	0.0109949328175406\\
19	0.0126732962157991\\
20	0.0175843103691614\\
21	0.0258891023896794\\
22	0.171301952341992\\
23	0.1212921102575\\
24	0.0235386564372659\\
25	0.00858129954461538\\
26	0.133991438537226\\
27	0.17851624212042\\
28	0.0777373619575687\\
29	0.110031729625206\\
30	0.00959913684727289\\
31	0.0101692934073309\\
32	0.0218927776733185\\
33	0.0485547145239866\\
34	0.028524787741674\\
35	0.0931132420825283\\
36	0.0761344452933766\\
37	0.0369812132104379\\
38	0.0270699566667011\\
39	0.026458256765523\\
40	0.0700820910745542\\
41	0.00787266021999488\\
42	0.00768771367639978\\
43	0.00738222171836111\\
44	0.00713402148494006\\
45	0.00716369066636382\\
46	0.00788882227497034\\
47	0.0112512475897253\\
48	0.0626689062200538\\
49	0.0427206763331481\\
50	0.00951578480873744\\
51	0.00243896181448075\\
52	0.0015691552028362\\
53	0.00146457511195334\\
54	0.00155057599858872\\
55	0.0017720937565566\\
56	0.00217432997301489\\
57	0.00286457318035984\\
58	0.00410346836174264\\
59	0.00676291579585115\\
60	0.0170053910864941\\
61	0.0301833155479945\\
62	0.0511202697583185\\
63	0.0105005975636433\\
64	0.00640544843735559\\
65	0.00470250391841775\\
66	0.00371961016971575\\
67	0.00305007107550002\\
68	0.00254202566702992\\
69	0.00212653652112194\\
70	0.0017767046983006\\
71	0.00152001410442311\\
72	0.00153304600268641\\
73	0.00230867360183963\\
74	0.00526136383537744\\
75	0.038333522890848\\
76	0.0121668181991512\\
77	0.00627619518067768\\
78	0.00457506177246321\\
79	0.00374737764088975\\
80	0.00324686636810371\\
81	0.00290502633566605\\
82	0.00265270743485525\\
83	0.00245624767322843\\
84	0.00229725334120465\\
85	0.0021647918883538\\
86	0.00205193428439391\\
87	0.00195406009034949\\
88	0.00186795865192442\\
89	0.00179132151185079\\
90	0.00172244056348044\\
91	0.00166002062260405\\
92	0.00160305868824092\\
93	0.00155076366110332\\
94	0.00150250147009903\\
95	0.00145775664490856\\
96	0.00141610482103629\\
97	0.00137719268617519\\
98	0.0013407230999277\\
99	0.00130644387932209\\
100	0.00127413922704226\\
101	0.00124362309491465\\
102	0.00121473398501049\\
103	0.00118733083279375\\
104	0.00116128971457897\\
105	0.00113650118998977\\
106	0.00111286813865705\\
107	0.00109030398529933\\
108	0.00106873123273224\\
109	0.00104808024105737\\
110	0.00102828820519932\\
111	0.00100929829342004\\
112	0.000991058917376328\\
113	0.000973523110361595\\
114	0.000956647995060137\\
115	0.000940394325788187\\
116	0.00092472609305463\\
117	0.000909610180527103\\
118	0.000895016066279295\\
119	0.000880915561628906\\
120	0.000867282582022485\\
121	0.000854092945356868\\
122	0.000841324193880593\\
123	0.000828955436438686\\
124	0.000816967208330094\\
125	0.000805341346466144\\
126	0.000794060877864884\\
127	0.000783109919805542\\
128	0.000772473590206662\\
129	0.000762137926996426\\
130	0.000752089815411914\\
131	0.000742316922307892\\
132	0.000732807636680009\\
133	0.000723551015708443\\
134	0.000714536735717782\\
135	0.000705755047526231\\
136	0.000697196735719498\\
137	0.000688853081443639\\
138	0.000680715828357098\\
139	0.000672777151427449\\
140	0.000665029628290027\\
141	0.000657466212923161\\
142	0.000650080211416905\\
143	0.000642865259640033\\
144	0.000635815302630011\\
145	0.000628924575548207\\
146	0.000622187586061679\\
147	0.000615599098024618\\
148	0.000609154116346598\\
149	0\\
150	0\\
};
\addlegendentry{$\mathbf{h_1}$}

\addplot [color=mycolor2]
  table[row sep=crcr]{%
1	0.0116283672604953\\
2	0.0123927463124993\\
3	0.0132649499786597\\
4	0.0142694730472227\\
5	0.0154388022064217\\
6	0.0168169460018562\\
7	0.0184650059045602\\
8	0.0204703044623656\\
9	0.0229620194387964\\
10	0.0261394268228958\\
11	0.030326372246617\\
12	0.0360853656003085\\
13	0.0444837647244236\\
14	0.0578138510431174\\
15	0.0820182949536605\\
16	0.138539152408166\\
17	0.40529101126893\\
18	0.531857257093217\\
19	0.183644612933698\\
20	0.136508722860241\\
21	0.200047586884045\\
22	0.106492504443086\\
23	0.0269767303978956\\
24	0.0384718138974967\\
25	0.247242183991229\\
26	0.550925101963883\\
27	0.195827754207156\\
28	0.0577902570880743\\
29	0.0334777071537313\\
30	0.0243597557761845\\
31	0.0197080234406676\\
32	0.0168717713396733\\
33	0.0149315700239635\\
34	0.0134968721772165\\
35	0.0123767429153913\\
36	0.0114674702329188\\
37	0.0107078852605367\\
38	0.0100594473104557\\
39	0.0094965290561411\\
40	0.00900131573338651\\
41	0.00856095738478305\\
42	0.00816589392182006\\
43	0.00780882485328738\\
44	0.00748405042307228\\
45	0.00718703568900882\\
46	0.00691411334689385\\
47	0.00666227571208106\\
48	0.00642902565379269\\
49	0.0062122675203184\\
50	0.00601022582354538\\
51	0\\
52	0\\
53	0\\
54	0\\
55	0\\
56	0\\
57	0\\
58	0\\
59	0\\
60	0\\
61	0\\
62	0\\
63	0\\
64	0\\
65	0\\
66	0\\
67	0\\
68	0\\
69	0\\
70	0\\
71	0\\
72	0\\
73	0\\
74	0\\
75	0\\
76	0\\
77	0\\
78	0\\
79	0\\
80	0\\
81	0\\
82	0\\
83	0\\
84	0\\
85	0\\
86	0\\
87	0\\
88	0\\
89	0\\
90	0\\
91	0\\
92	0\\
93	0\\
94	0\\
95	0\\
96	0\\
97	0\\
98	0\\
99	0\\
100	0\\
101	0\\
102	0\\
103	0\\
104	0\\
105	0\\
106	0\\
107	0\\
108	0\\
109	0\\
110	0\\
111	0\\
112	0\\
113	0\\
114	0\\
115	0\\
116	0\\
117	0\\
118	0\\
119	0\\
120	0\\
121	0\\
122	0\\
123	0\\
124	0\\
125	0\\
126	0\\
127	0\\
128	0\\
129	0\\
130	0\\
131	0\\
132	0\\
133	0\\
134	0\\
135	0\\
136	0\\
137	0\\
138	0\\
139	0\\
140	0\\
141	0\\
142	0\\
143	0\\
144	0\\
145	0\\
146	0\\
147	0\\
148	0\\
149	0\\
150	0\\
};
\addlegendentry{$\mathbf{h_{2}}$}

\end{axis}

\begin{axis}[%
width=1.935in,
height=3.2in,
at={(3.327in,0.512in)},
scale only axis,
xmin=0,
xmax=150,
xlabel style={font=\color{white!15!black}, align=center},
xlabel={Sample Index\\[1ex](b) Estimated},
ymin=0,
ymax=1,
axis background/.style={fill=white},
legend style={legend cell align=left, align=left, draw=white!15!black}
]
\addplot [color=mycolor1]
  table[row sep=crcr]{%
0	4.08219762149613e-05\\
1	4.29931171325433e-05\\
2	3.77133820201923e-05\\
3	7.90189927564481e-05\\
4	2.65374503966102e-05\\
5	9.15891207113449e-05\\
6	7.3760278691126e-05\\
7	6.83899730101992e-05\\
8	1.93862204742433e-05\\
9	1.24342788405145e-05\\
10	3.5362990932613e-05\\
11	7.10926044126297e-05\\
12	5.08294432600073e-05\\
13	2.38403145390131e-05\\
14	3.78215093853543e-05\\
15	4.40570780811459e-05\\
16	0.000103026735657917\\
17	0.0001511539469396\\
18	9.75545643248317e-05\\
19	1.54676829964621e-05\\
20	7.24928767532413e-05\\
21	4.90673299786043e-05\\
22	8.4326701668282e-05\\
23	4.16520928458908e-05\\
24	1.95964734221486e-05\\
25	3.63786551139136e-05\\
26	2.91219296632287e-05\\
27	8.76404877483909e-05\\
28	2.82633770792957e-05\\
29	4.73225696550396e-05\\
30	8.2086468513124e-05\\
31	3.04514527871516e-05\\
32	4.47767830456384e-05\\
33	6.96762133419493e-05\\
34	4.58730248878151e-05\\
35	2.7679897751924e-05\\
36	0.000173753159452996\\
37	0.000515920754527479\\
38	8.91881833181496e-05\\
39	2.46422285330707e-05\\
40	0.000412827243024328\\
41	8.54232772805027e-05\\
42	0.000103383628360128\\
43	0.000100040749540283\\
44	6.02191106174097e-05\\
45	5.71486193295172e-05\\
46	0.000268870355263334\\
47	0.0131793515883135\\
48	0.0189276481709046\\
49	0.0299195648148797\\
50	0.0118682284088852\\
51	0.000635193877226639\\
52	0.00129337347934181\\
53	0.00772192139027933\\
54	0.0300117731982153\\
55	0.018176435405883\\
56	0.241193957979282\\
57	0.563566716355662\\
58	0.276044782907946\\
59	0.0174510783297694\\
60	0.0155147377819078\\
61	0.00893385356819043\\
62	0.0612982421442861\\
63	0.0881543691674448\\
64	0.0303471839368455\\
65	0.482675233563938\\
66	0.374733955285585\\
67	0.17821055370573\\
68	0.0857725612836339\\
69	0.0903886494511622\\
70	0.0696496243546051\\
71	0.105174415162994\\
72	0.0219502698354115\\
73	0.0945969273319724\\
74	0.0509600714867716\\
75	0.0883601544780174\\
76	0.0433587534587448\\
77	0.0782981950837097\\
78	0.0775941348979611\\
79	0.0685248125871614\\
80	8.82592949938491e-05\\
81	0.0660956321443835\\
82	0.0807982672866333\\
83	0.0417781921229586\\
84	0.111901264033622\\
85	0.105459308670505\\
86	0.0229089264867977\\
87	0.00945056219274767\\
88	0.0766407285786052\\
89	0.0217115076900966\\
90	0.0555298643410895\\
91	0.0646899025383032\\
92	0.0640818684262323\\
93	0.000232780165137453\\
94	3.86347062376071e-05\\
95	0.0124763627922861\\
96	0.00378522615839383\\
97	0.0137901924230642\\
98	1.98995907722308e-05\\
99	0.00023880977966058\\
100	9.61057922969085e-05\\
101	0.00693641237956893\\
102	1.4906790502462e-05\\
103	0.000939676472708103\\
104	0.00601905841048673\\
105	0.0297784577519875\\
106	0.00981287433036258\\
107	6.93008894561943e-05\\
108	6.42410659608824e-05\\
109	0.00935574328367117\\
110	0.00932551020958409\\
111	8.4146279108883e-05\\
112	6.04789114485595e-05\\
113	3.13533677808383e-05\\
114	7.18056696863086e-05\\
115	2.56992654921418e-05\\
116	5.05105336735891e-05\\
117	0.0120821394031052\\
118	0.0206843615605265\\
119	4.18540103053385e-05\\
120	4.01473763703904e-05\\
121	7.27876046278824e-05\\
122	3.69936780726465e-05\\
123	0.00555823441601823\\
124	0.000355086725255089\\
125	4.22684870260563e-05\\
126	1.43978208771686e-05\\
127	6.13376693635864e-05\\
128	2.20025631495958e-05\\
129	5.18020613655698e-05\\
130	5.22893552815364e-05\\
131	3.30565070965675e-05\\
132	0.00955890081335803\\
133	7.77878136301847e-05\\
134	9.97227898492102e-05\\
135	5.01858952807978e-05\\
136	5.90687528099207e-05\\
137	5.43337336093127e-05\\
138	3.93396171506856e-06\\
139	0.000110308495844033\\
140	2.45148767257904e-05\\
141	5.77903918933806e-05\\
142	6.52886130686017e-05\\
143	4.62516851008798e-05\\
144	9.81954032668261e-05\\
145	4.63107874637393e-05\\
146	6.2156935932325e-05\\
147	3.63012648235565e-05\\
148	4.69606212213697e-05\\
149	3.11862205541189e-05\\
};
\addlegendentry{$\mathbf{\hat{h}_{1}}$}

\addplot [color=mycolor2]
  table[row sep=crcr]{%
0	4.52664675498464e-05\\
1	1.20019375973223e-05\\
2	6.67676498465032e-05\\
3	2.88428732983799e-05\\
4	1.899334464328e-05\\
5	2.58377069878468e-05\\
6	2.87602805002814e-05\\
7	2.60651249580569e-05\\
8	0.00301321502722535\\
9	2.00321751556821e-05\\
10	3.41120862277759e-05\\
11	1.37020298454413e-05\\
12	1.20321697468895e-05\\
13	2.27733607138032e-05\\
14	3.99472917226943e-05\\
15	1.85887924830743e-05\\
16	1.44545056649481e-05\\
17	1.77781225129476e-05\\
18	1.35346660398625e-05\\
19	4.33944678250885e-05\\
20	1.60118248463964e-05\\
21	0.00458053379764714\\
22	0.00406644282544434\\
23	2.94286419954521e-05\\
24	6.2074447762066e-05\\
25	2.38242985932059e-05\\
26	3.26721463735547e-05\\
27	0.000278893807688367\\
28	1.45443753611299e-05\\
29	1.48173761547791e-05\\
30	4.09548061833434e-05\\
31	3.91665744560018e-05\\
32	2.32002059995437e-05\\
33	2.33965096788675e-05\\
34	0.0105103358570397\\
35	0.013137920549949\\
36	4.93648907195836e-05\\
37	3.44621993505111e-05\\
38	0.000241160437745464\\
39	7.082912902079e-05\\
40	4.36547997074872e-05\\
41	0.000443903349435412\\
42	0.00323882537390627\\
43	0.00942094548366286\\
44	0.00516559574605574\\
45	0.00153236726532708\\
46	0.00180709773316217\\
47	0.0116218985767529\\
48	0.0139459277614099\\
49	0.00277885271582624\\
50	0.00515597484052411\\
51	0.00120948263037011\\
52	0.00307179633283815\\
53	0.0010665205864829\\
54	0.0230759812510331\\
55	0.0244791815125734\\
56	0.0424034919702393\\
57	0.0246532177613299\\
58	0.00283356572765394\\
59	0.0168179848998182\\
60	0.0313332819714932\\
61	0.023797337418626\\
62	0.00923764105704275\\
63	1.51277221131096e-05\\
64	0.00062431097765868\\
65	0.0116006679938135\\
66	0.0408246301976225\\
67	0.0292039734930789\\
68	0.00463077960484927\\
69	0.0391294466744738\\
70	0.052592848706529\\
71	0.0191784796892522\\
72	0.0213638368851778\\
73	0.0698667083930003\\
74	0.980589427030034\\
75	0.0702683360283833\\
76	0.0206550582909133\\
77	0.0188594079563615\\
78	0.0528252052954888\\
79	0.0382966322903126\\
80	0.00405940784704275\\
81	0.0300146207504891\\
82	0.0410931537224541\\
83	0.0111907975914977\\
84	0.000457813881208847\\
85	1.14606764812848e-05\\
86	0.00900857560772733\\
87	0.0247385867304762\\
88	0.0321503047309578\\
89	0.0157558221292574\\
90	0.00353426044243347\\
91	0.0256863164601497\\
92	0.0433553187892904\\
93	0.0251929233318132\\
94	0.0243700174063416\\
95	0.00157871868300415\\
96	0.00356882767247767\\
97	0.00115490333231119\\
98	0.00560901590194715\\
99	0.00295966868675248\\
100	0.0146176332281925\\
101	0.0126694033621912\\
102	0.0018565306840833\\
103	0.00100000559376014\\
104	0.00534664451430928\\
105	0.00998886736856909\\
106	0.00372165736484663\\
107	0.000493398949713752\\
108	9.24055902864906e-05\\
109	6.6196500285686e-05\\
110	0.000480596948425252\\
111	3.68072873170425e-05\\
112	5.16545940392629e-05\\
113	0.0139984620265013\\
114	0.011603327872417\\
115	2.17392749350022e-05\\
116	1.49330860883455e-05\\
117	3.08081587162838e-05\\
118	7.36192091762082e-05\\
119	6.04080769719936e-05\\
120	1.5010635568762e-05\\
121	2.63432610600678e-05\\
122	2.90440377444126e-05\\
123	2.06591095013154e-05\\
124	6.88862277499844e-05\\
125	0.000302163030243766\\
126	0.00569094851037286\\
127	0.00611669676253661\\
128	1.20803241984463e-05\\
129	4.49742485432093e-05\\
130	1.47365631999181e-05\\
131	1.56720460476827e-05\\
132	4.23234400248339e-06\\
133	3.1368306319718e-05\\
134	2.78142327890594e-05\\
135	1.80295513977024e-05\\
136	1.44095707297356e-05\\
137	1.35038487554124e-05\\
138	3.56996983767618e-05\\
139	3.61382486439982e-05\\
140	0.00483203739539821\\
141	0.000533517052963144\\
142	3.1357758665082e-05\\
143	1.82038577677691e-05\\
144	3.23404741885425e-05\\
145	2.37137914215318e-05\\
146	7.00945867054871e-05\\
147	1.68377841408762e-05\\
148	3.1478500834224e-05\\
149	1.94517077858147e-05\\
};
\addlegendentry{$\mathbf{\hat{h}_{2}}$}

\end{axis}
\end{tikzpicture}%