% This file was created by matlab2tikz.
%
%The latest updates can be retrieved from
%  http://www.mathworks.com/matlabcentral/fileexchange/22022-matlab2tikz-matlab2tikz
%where you can also make suggestions and rate matlab2tikz.
%
\definecolor{mycolor1}{rgb}{0.00000,0.44700,0.74100}%
\definecolor{mycolor2}{rgb}{0.85000,0.32500,0.09800}%
%
\begin{tikzpicture}

\begin{axis}[%
width=1.935in,
height=3.2in,
at={(0.758in,0.512in)},
scale only axis,
xmin=0,
xmax=150,
xlabel style={font=\color{white!15!black}, align=center},
xlabel={Sample Index\\[1ex](a) Actual},
ymin=0,
ymax=0.7,
axis background/.style={fill=white},
legend style={legend cell align=left, align=left, draw=white!15!black}
]
\addplot [color=mycolor1]
  table[row sep=crcr]{%
1	0.0234657806037261\\
2	0.0272334504034075\\
3	0.0326864300765018\\
4	0.0414541482980318\\
5	0.0586677033458464\\
6	0.117843438362983\\
7	0.159969331461504\\
8	0.174397116945152\\
9	0.616552810702634\\
10	0.0882137642931462\\
11	0.0472681903124796\\
12	0.0327587509505929\\
13	0.0272256709659274\\
14	0.0412344622245766\\
15	0.0186762848129325\\
16	0.0451940046978057\\
17	0.0153724087875252\\
18	0.0239672675363248\\
19	0.0400285717874473\\
20	0.0828333966509162\\
21	0.557624977131952\\
22	0.149414784250917\\
23	0.109138078132702\\
24	0.0381681231028791\\
25	0.032799759178118\\
26	0.191519461959093\\
27	0.0734580287558902\\
28	0.0358315656953253\\
29	0.0179563195827385\\
30	0.0169149242156914\\
31	0.0179798517146348\\
32	0.0199431506445131\\
33	0.0279225394655299\\
34	0.0908594243819801\\
35	0.0439964246924232\\
36	0.330890477505262\\
37	0.037800506563543\\
38	0.020261933748638\\
39	0.0138181229977315\\
40	0.0211497159554441\\
41	0.0112042208144458\\
42	0.00964538908702694\\
43	0.00864780826327016\\
44	0.00787736374270682\\
45	0.00720180133294831\\
46	0.00651453200193765\\
47	0.00565492088107664\\
48	0.0112814316241706\\
49	0.0075966567083061\\
50	0.0102713040739602\\
51	0.00787142060243747\\
52	0.00711780022683946\\
53	0.00668443537322835\\
54	0.00638223966522588\\
55	0.00615487020840034\\
56	0.00598242225636516\\
57	0.00586293416152974\\
58	0.00581626175933958\\
59	0.00593494184987807\\
60	0.00707647204853056\\
61	0.00861312572402681\\
62	0.00240649054353041\\
63	0.0036902508247688\\
64	0.0040125763148678\\
65	0.00408542983582614\\
66	0.00408934467211144\\
67	0.00406760360864643\\
68	0.00403657730104579\\
69	0.00400486664899167\\
70	0.00397913876457006\\
71	0.00396763365360209\\
72	0.00398577860522856\\
73	0.00407460869510253\\
74	0.00440882178496405\\
75	0.00852319154542653\\
76	0.00211982859547221\\
77	0.00279674481878385\\
78	0.00295234209521732\\
79	0.00299967450324673\\
80	0.00300734384297471\\
81	0.00299658049652506\\
82	0.00297609501762909\\
83	0.00295010695632826\\
84	0.00292089738309008\\
85	0.00288979839106794\\
86	0.00285763293534116\\
87	0.00282493110979805\\
88	0.00279204510261472\\
89	0.00275921420187501\\
90	0.00272660345813555\\
91	0.00269432766245323\\
92	0.00266246675038502\\
93	0.00263107599882434\\
94	0.00260019295165966\\
95	0.00256984222925479\\
96	0.00254003893333548\\
97	0.0025107910982644\\
98	0.00248210148178531\\
99	0.00245396889001376\\
100	0.00242638916874131\\
101	0.00239935595223708\\
102	0.00237286123354156\\
103	0.00234689580183488\\
104	0.00232144957979209\\
105	0.00229651188498403\\
106	0.00227207163310714\\
107	0.0022481174963278\\
108	0.00222463802675857\\
109	0.00220162175268604\\
110	0.00217905725339276\\
111	0.0021569332170867\\
112	0.00213523848544673\\
113	0.00211396208753109\\
114	0.00209309326520902\\
115	0.00207262149182518\\
116	0.00205253648545491\\
117	0.00203282821783402\\
118	0.00201348691983224\\
119	0.00199450308416773\\
120	0.00197586746592614\\
121	0.00195757108133911\\
122	0.0019396052051902\\
123	0.0019219613671484\\
124	0.00190463134727109\\
125	0.00188760717087541\\
126	0.00187088110293773\\
127	0.00185444564215264\\
128	0.0018382935147574\\
129	0.00182241766820821\\
130	0.00180681126477794\\
131	0.00179146767513212\\
132	0.00177638047192757\\
133	0.00176154342347035\\
134	0.00174695048746156\\
135	0.0017325958048528\\
136	0.00171847369382931\\
137	0.00170457864393352\\
138	0.0016909053103386\\
139	0.00167744850827835\\
140	0.00166420320763913\\
141	0.00165116452771496\\
142	0.00163832773212761\\
143	0.00162568822391149\\
144	0.00161324154076111\\
145	0.0016009833504405\\
146	0.00158890944635072\\
147	0.00157701574325256\\
148	0.00156529827314105\\
149	0\\
150	0\\
};
\addlegendentry{$\mathbf{h_1}$}

\addplot [color=mycolor2]
  table[row sep=crcr]{%
1	0.019775303219206\\
2	0.0210217764534023\\
3	0.0224372323963497\\
4	0.024058742711813\\
5	0.0259351263737046\\
6	0.0281320174688059\\
7	0.0307398096072034\\
8	0.0338865833958781\\
9	0.0377600935275399\\
10	0.0426472101764649\\
11	0.0490094599986528\\
12	0.0576401827385178\\
13	0.0700288298559564\\
14	0.0893407156606893\\
15	0.123700774100431\\
16	0.202175033398071\\
17	0.564479813098353\\
18	0.690442426104836\\
19	0.212260509632627\\
20	0.126132345068284\\
21	0.100380135781766\\
22	0.0378663697499036\\
23	0.0333199748773482\\
24	0.0149453064107011\\
25	0.10083899339379\\
26	0.161002397050911\\
27	0.0405118251764787\\
28	0.0383644765554957\\
29	0.0341227495803863\\
30	0.0306469105251072\\
31	0.0278570926171954\\
32	0.0255709383506331\\
33	0.0236574529195357\\
34	0.0220274984760589\\
35	0.0206190941704396\\
36	0.0193877726649002\\
37	0.0183006807256663\\
38	0.0173329207549748\\
39	0.016465211935799\\
40	0.0156823459816501\\
41	0.0149721364414517\\
42	0.0143246843629073\\
43	0.0137318527665838\\
44	0.0131868826449622\\
45	0.0126841071808284\\
46	0.0122187355837443\\
47	0.0117866872087634\\
48	0.0113844626077037\\
49	0.0110090421200206\\
50	0.0106578052804057\\
51	0\\
52	0\\
53	0\\
54	0\\
55	0\\
56	0\\
57	0\\
58	0\\
59	0\\
60	0\\
61	0\\
62	0\\
63	0\\
64	0\\
65	0\\
66	0\\
67	0\\
68	0\\
69	0\\
70	0\\
71	0\\
72	0\\
73	0\\
74	0\\
75	0\\
76	0\\
77	0\\
78	0\\
79	0\\
80	0\\
81	0\\
82	0\\
83	0\\
84	0\\
85	0\\
86	0\\
87	0\\
88	0\\
89	0\\
90	0\\
91	0\\
92	0\\
93	0\\
94	0\\
95	0\\
96	0\\
97	0\\
98	0\\
99	0\\
100	0\\
101	0\\
102	0\\
103	0\\
104	0\\
105	0\\
106	0\\
107	0\\
108	0\\
109	0\\
110	0\\
111	0\\
112	0\\
113	0\\
114	0\\
115	0\\
116	0\\
117	0\\
118	0\\
119	0\\
120	0\\
121	0\\
122	0\\
123	0\\
124	0\\
125	0\\
126	0\\
127	0\\
128	0\\
129	0\\
130	0\\
131	0\\
132	0\\
133	0\\
134	0\\
135	0\\
136	0\\
137	0\\
138	0\\
139	0\\
140	0\\
141	0\\
142	0\\
143	0\\
144	0\\
145	0\\
146	0\\
147	0\\
148	0\\
149	0\\
150	0\\
};
\addlegendentry{$\mathbf{h_{2}}$}

\end{axis}

\begin{axis}[%
width=1.935in,
height=3.2in,
at={(3.327in,0.512in)},
scale only axis,
xmin=0,
xmax=150,
xlabel style={font=\color{white!15!black}, align=center},
xlabel={Sample Index\\[1ex](b) Estimated},
ymin=0,
ymax=1,
axis background/.style={fill=white},
legend style={legend cell align=left, align=left, draw=white!15!black}
]
\addplot [color=mycolor1]
  table[row sep=crcr]{%
0	0.00845904628681619\\
1	0.0126501752955967\\
2	0.00173239138623948\\
3	0.0222663031346722\\
4	0.00492802387702901\\
5	0.00756018685367631\\
6	0.0211789678187013\\
7	0.00397530651602782\\
8	0.0354550120995015\\
9	0.00134941906281767\\
10	0.0209839137558555\\
11	0.0133091764264291\\
12	0.0107931864813259\\
13	0.0108808248472784\\
14	0.0224670868588068\\
15	0.0154200524408346\\
16	0.00630424206392261\\
17	0.0116129100668406\\
18	0.00910632307473894\\
19	0.00251706779883191\\
20	0.019233613822146\\
21	0.00862273984055279\\
22	0.016358063152364\\
23	0.0273230978262193\\
24	0.00621245226226604\\
25	0.0101048506228598\\
26	0.00641934282093236\\
27	0.0326592568069008\\
28	0.0176808891288774\\
29	0.0163011701413442\\
30	0.00495277405808948\\
31	0.00658840464414215\\
32	0.000909592510811494\\
33	0.0165357949436722\\
34	0.00748024977604534\\
35	0.0200889001523027\\
36	0.00717637890313925\\
37	0.0195821182431159\\
38	0.00759016041247671\\
39	0.0325883148816638\\
40	0.0165250231745389\\
41	0.00973795867667752\\
42	0.0129782291138312\\
43	0.0160175182220968\\
44	0.0207077219063074\\
45	0.0117805977575189\\
46	0.00690761002808322\\
47	0.0235426123201176\\
48	0.00501515976489563\\
49	0.0204272939617102\\
50	0.00325502832680467\\
51	0.00982279903232634\\
52	0.0163340933188036\\
53	0.00760173829535732\\
54	0.0117733343717056\\
55	0.0230768607617928\\
56	0.0420330420234059\\
57	0.138916147874955\\
58	0.0643463135859223\\
59	0.0396353837620692\\
60	0.0243207963881858\\
61	0.0219590317646568\\
62	0.035305402265575\\
63	0.181972014694731\\
64	0.0267651045474021\\
65	0.472044657500028\\
66	0.388034645661006\\
67	0.122070505386501\\
68	0.0767190638744536\\
69	0.044552351019135\\
70	0.125420630969527\\
71	0.0253896894422212\\
72	0.0409965792794768\\
73	0.0165361132261662\\
74	0.0710634078135446\\
75	0.0559648230103053\\
76	0.091713700219386\\
77	0.267603959042578\\
78	0.469389160934976\\
79	0.158506526294119\\
80	0.0498721029445134\\
81	0.065448585106956\\
82	0.122189633421853\\
83	0.10265370785119\\
84	0.111010796325476\\
85	0.0358551346261814\\
86	0.00501314214821129\\
87	0.00982054025182916\\
88	0.0138357833756073\\
89	0.0366920746339994\\
90	0.0646386480572403\\
91	0.105239654732698\\
92	0.293832502782041\\
93	0.0941453075593753\\
94	0.0472725619461949\\
95	0.0186170372231279\\
96	0.0077473978444534\\
97	0.0132106241415334\\
98	0.0144418451727394\\
99	0.00530941897500141\\
100	0.00181026554300011\\
101	0.0175840498318614\\
102	0.00301553990570684\\
103	0.0377536360322453\\
104	0.0157952005621972\\
105	0.0137619474360941\\
106	0.00524092529588772\\
107	0.0125558779569879\\
108	0.0168239143520151\\
109	0.0140339096089018\\
110	0.00861803981794829\\
111	0.00256183216339898\\
112	0.0106668026117121\\
113	0.0171667272797209\\
114	0.0174419797111029\\
115	0.0418389308819419\\
116	0.0276975683008683\\
117	0.016950410621812\\
118	0.00248190004048921\\
119	0.015489058143133\\
120	0.0283597838203934\\
121	0.00862002407538868\\
122	0.0151085643870515\\
123	0.0146347165801653\\
124	0.00439225134687479\\
125	0.00529465245976003\\
126	0.00810458897715949\\
127	0.0133686108968099\\
128	0.00916951586632899\\
129	0.0143755481687485\\
130	0.000891513168450345\\
131	0.00305133575944344\\
132	0.022178175325062\\
133	0.0325206550012302\\
134	0.00522548920019242\\
135	0.0213172614791498\\
136	0.00120088488333381\\
137	0.0188709549500507\\
138	0.0145241889654251\\
139	0.00606960109894127\\
140	0.0328067142077735\\
141	0.00749482878248712\\
142	0.00514338473494671\\
143	0.0125589177723697\\
144	0.022907666447023\\
145	0.0226973942475569\\
146	0.00322381601881949\\
147	0.0225172597447111\\
148	0.0152323167227091\\
149	0.00330654590084814\\
};
\addlegendentry{$\mathbf{\hat{h}_{1}}$}

\addplot [color=mycolor2]
  table[row sep=crcr]{%
0	0.000261402436151557\\
1	0.000160659355577737\\
2	7.7559023073238e-05\\
3	4.09723725325472e-05\\
4	0.000149315071187041\\
5	0.000171202434370624\\
6	0.000122631596644616\\
7	0.000214502569124078\\
8	2.00243062882922e-05\\
9	7.10114961430658e-05\\
10	6.2858719154682e-05\\
11	4.82467562447274e-05\\
12	0.000166787936163936\\
13	8.68445396214569e-05\\
14	5.17914759205154e-05\\
15	0.000106962470986815\\
16	0.000123791464496242\\
17	0.000231513210652345\\
18	0.000147423360675238\\
19	0.000256902167589523\\
20	6.21271728145208e-05\\
21	7.97542799158478e-05\\
22	0.000168831683040981\\
23	0.000248444174264165\\
24	0.000267116871712169\\
25	4.03550455096886e-05\\
26	0.000204565631077428\\
27	0.000109692591310089\\
28	3.2040942996282e-05\\
29	0.000176400047706557\\
30	2.38830530443641e-05\\
31	0.000170609534041338\\
32	0.000172938281650693\\
33	0.000138662648921007\\
34	9.41673140754482e-05\\
35	0.000106874535678993\\
36	0.000198588949179374\\
37	0.000203907607025041\\
38	0.000184260614687224\\
39	0.000225990271567356\\
40	0.000122781086832408\\
41	8.94012045180363e-05\\
42	5.37677611629804e-05\\
43	0.000201954119934702\\
44	1.83378713133693e-05\\
45	0.000424559808720855\\
46	0.000384645385014685\\
47	0.00109249113962526\\
48	0.000237498606638579\\
49	0.000241422932645346\\
50	0.000168345586420134\\
51	0.000544968955751187\\
52	0.000145539011365076\\
53	0.000161819992651472\\
54	0.000190631475917141\\
55	0.000445162395076346\\
56	0.0002514462546566\\
57	0.000747230124878691\\
58	0.000433519533178074\\
59	0.00131262146777027\\
60	0.000893039782380315\\
61	0.000883719407968552\\
62	0.00225815790705702\\
63	0.000556180219480226\\
64	0.000613608236235156\\
65	0.000120148416415679\\
66	0.000304859598826611\\
67	0.000382257744426255\\
68	0.000118716713871675\\
69	0.000472668751856592\\
70	0.000214127889433995\\
71	0.000601182449762596\\
72	0.000739318453515052\\
73	0.000589711123692686\\
74	0.999985027939542\\
75	0.000599967192902456\\
76	0.000732044621318597\\
77	0.000600120902017609\\
78	0.000211813430641834\\
79	0.000459208723827582\\
80	0.000130626300971738\\
81	0.000374428370164837\\
82	0.000299676826072921\\
83	0.000122934869160229\\
84	0.000605949705674064\\
85	0.000567648601979282\\
86	0.0022414242791801\\
87	0.000879915539058445\\
88	0.000898984441905494\\
89	0.00130935165182712\\
90	0.000430201864693324\\
91	0.000743247046918188\\
92	0.0002356835122104\\
93	0.000443818689247839\\
94	0.000178127889746514\\
95	0.000163974446315762\\
96	0.0001440350100597\\
97	0.000544035786175874\\
98	0.000126704700917165\\
99	0.0002419952764651\\
100	0.000263081250918435\\
101	0.00110519025350391\\
102	0.000397225226519135\\
103	0.00039917292155166\\
104	1.95473499099708e-05\\
105	0.000223908948053416\\
106	6.54778916799389e-05\\
107	7.48319846281175e-05\\
108	9.84654041986774e-05\\
109	0.000245655076937885\\
110	0.000195180518325079\\
111	0.00018933372758273\\
112	0.000213859332121467\\
113	0.000136784092631921\\
114	8.24124206165365e-05\\
115	0.000121947199984138\\
116	0.000176933504255243\\
117	0.00018197963569049\\
118	1.40188213770278e-05\\
119	0.000159213075059389\\
120	2.77532080445099e-05\\
121	0.000119915202308036\\
122	0.000214174716692963\\
123	4.11631851794933e-05\\
124	0.0002492088352782\\
125	0.000243391280791171\\
126	0.000160352754319545\\
127	5.69424487247166e-05\\
128	4.90824084404327e-05\\
129	0.000212533225470673\\
130	0.000145172100004562\\
131	0.000219631093206511\\
132	0.000119821899611051\\
133	0.000124964536354594\\
134	9.02281403767783e-05\\
135	8.89006026599088e-05\\
136	0.000186882614430241\\
137	8.78998507178646e-05\\
138	6.75311531756319e-05\\
139	9.50502797052518e-05\\
140	3.52292508291588e-05\\
141	0.000195532921175604\\
142	0.000129534979508913\\
143	0.000177625131754076\\
144	0.000154515808638455\\
145	3.68413966768715e-05\\
146	8.39426137605778e-05\\
147	0.000131953256167039\\
148	0.000286546365258126\\
149	0.000351267554142974\\
};
\addlegendentry{$\mathbf{\hat{h}_{2}}$}

\end{axis}
\end{tikzpicture}%