% This file was created by matlab2tikz.
%
%The latest updates can be retrieved from
%  http://www.mathworks.com/matlabcentral/fileexchange/22022-matlab2tikz-matlab2tikz
%where you can also make suggestions and rate matlab2tikz.
%
\definecolor{mycolor1}{rgb}{0.00000,0.44700,0.74100}%
\definecolor{mycolor2}{rgb}{0.85000,0.32500,0.09800}%
%
\begin{tikzpicture}

\begin{axis}[%
width=1.935in,
height=3.2in,
at={(0.758in,0.512in)},
scale only axis,
xmin=0,
xmax=150,
xlabel style={font=\color{white!15!black}, align=center},
xlabel={Sample Index\\[1ex](a) Actual},
ymin=0,
ymax=0.7,
axis background/.style={fill=white},
legend style={legend cell align=left, align=left, draw=white!15!black}
]
\addplot [color=mycolor1]
  table[row sep=crcr]{%
1	0.0234657806037261\\
2	0.0272334504034075\\
3	0.0326864300765018\\
4	0.0414541482980318\\
5	0.0586677033458464\\
6	0.117843438362983\\
7	0.159969331461504\\
8	0.174397116945152\\
9	0.616552810702634\\
10	0.0882137642931462\\
11	0.0472681903124796\\
12	0.0327587509505929\\
13	0.0272256709659274\\
14	0.0412344622245766\\
15	0.0186762848129325\\
16	0.0451940046978057\\
17	0.0153724087875252\\
18	0.0239672675363248\\
19	0.0400285717874473\\
20	0.0828333966509162\\
21	0.557624977131952\\
22	0.149414784250917\\
23	0.109138078132702\\
24	0.0381681231028791\\
25	0.032799759178118\\
26	0.191519461959093\\
27	0.0734580287558902\\
28	0.0358315656953253\\
29	0.0179563195827385\\
30	0.0169149242156914\\
31	0.0179798517146348\\
32	0.0199431506445131\\
33	0.0279225394655299\\
34	0.0908594243819801\\
35	0.0439964246924232\\
36	0.330890477505262\\
37	0.037800506563543\\
38	0.020261933748638\\
39	0.0138181229977315\\
40	0.0211497159554441\\
41	0.0112042208144458\\
42	0.00964538908702694\\
43	0.00864780826327016\\
44	0.00787736374270682\\
45	0.00720180133294831\\
46	0.00651453200193765\\
47	0.00565492088107664\\
48	0.0112814316241706\\
49	0.0075966567083061\\
50	0.0102713040739602\\
51	0.00787142060243747\\
52	0.00711780022683946\\
53	0.00668443537322835\\
54	0.00638223966522588\\
55	0.00615487020840034\\
56	0.00598242225636516\\
57	0.00586293416152974\\
58	0.00581626175933958\\
59	0.00593494184987807\\
60	0.00707647204853056\\
61	0.00861312572402681\\
62	0.00240649054353041\\
63	0.0036902508247688\\
64	0.0040125763148678\\
65	0.00408542983582614\\
66	0.00408934467211144\\
67	0.00406760360864643\\
68	0.00403657730104579\\
69	0.00400486664899167\\
70	0.00397913876457006\\
71	0.00396763365360209\\
72	0.00398577860522856\\
73	0.00407460869510253\\
74	0.00440882178496405\\
75	0.00852319154542653\\
76	0.00211982859547221\\
77	0.00279674481878385\\
78	0.00295234209521732\\
79	0.00299967450324673\\
80	0.00300734384297471\\
81	0.00299658049652506\\
82	0.00297609501762909\\
83	0.00295010695632826\\
84	0.00292089738309008\\
85	0.00288979839106794\\
86	0.00285763293534116\\
87	0.00282493110979805\\
88	0.00279204510261472\\
89	0.00275921420187501\\
90	0.00272660345813555\\
91	0.00269432766245323\\
92	0.00266246675038502\\
93	0.00263107599882434\\
94	0.00260019295165966\\
95	0.00256984222925479\\
96	0.00254003893333548\\
97	0.0025107910982644\\
98	0.00248210148178531\\
99	0.00245396889001376\\
100	0.00242638916874131\\
101	0.00239935595223708\\
102	0.00237286123354156\\
103	0.00234689580183488\\
104	0.00232144957979209\\
105	0.00229651188498403\\
106	0.00227207163310714\\
107	0.0022481174963278\\
108	0.00222463802675857\\
109	0.00220162175268604\\
110	0.00217905725339276\\
111	0.0021569332170867\\
112	0.00213523848544673\\
113	0.00211396208753109\\
114	0.00209309326520902\\
115	0.00207262149182518\\
116	0.00205253648545491\\
117	0.00203282821783402\\
118	0.00201348691983224\\
119	0.00199450308416773\\
120	0.00197586746592614\\
121	0.00195757108133911\\
122	0.0019396052051902\\
123	0.0019219613671484\\
124	0.00190463134727109\\
125	0.00188760717087541\\
126	0.00187088110293773\\
127	0.00185444564215264\\
128	0.0018382935147574\\
129	0.00182241766820821\\
130	0.00180681126477794\\
131	0.00179146767513212\\
132	0.00177638047192757\\
133	0.00176154342347035\\
134	0.00174695048746156\\
135	0.0017325958048528\\
136	0.00171847369382931\\
137	0.00170457864393352\\
138	0.0016909053103386\\
139	0.00167744850827835\\
140	0.00166420320763913\\
141	0.00165116452771496\\
142	0.00163832773212761\\
143	0.00162568822391149\\
144	0.00161324154076111\\
145	0.0016009833504405\\
146	0.00158890944635072\\
147	0.00157701574325256\\
148	0.00156529827314105\\
149	0\\
150	0\\
};
\addlegendentry{$\mathbf{h_1}$}

\addplot [color=mycolor2]
  table[row sep=crcr]{%
1	0.019775303219206\\
2	0.0210217764534023\\
3	0.0224372323963497\\
4	0.024058742711813\\
5	0.0259351263737046\\
6	0.0281320174688059\\
7	0.0307398096072034\\
8	0.0338865833958781\\
9	0.0377600935275399\\
10	0.0426472101764649\\
11	0.0490094599986528\\
12	0.0576401827385178\\
13	0.0700288298559564\\
14	0.0893407156606893\\
15	0.123700774100431\\
16	0.202175033398071\\
17	0.564479813098353\\
18	0.690442426104836\\
19	0.212260509632627\\
20	0.126132345068284\\
21	0.100380135781766\\
22	0.0378663697499036\\
23	0.0333199748773482\\
24	0.0149453064107011\\
25	0.10083899339379\\
26	0.161002397050911\\
27	0.0405118251764787\\
28	0.0383644765554957\\
29	0.0341227495803863\\
30	0.0306469105251072\\
31	0.0278570926171954\\
32	0.0255709383506331\\
33	0.0236574529195357\\
34	0.0220274984760589\\
35	0.0206190941704396\\
36	0.0193877726649002\\
37	0.0183006807256663\\
38	0.0173329207549748\\
39	0.016465211935799\\
40	0.0156823459816501\\
41	0.0149721364414517\\
42	0.0143246843629073\\
43	0.0137318527665838\\
44	0.0131868826449622\\
45	0.0126841071808284\\
46	0.0122187355837443\\
47	0.0117866872087634\\
48	0.0113844626077037\\
49	0.0110090421200206\\
50	0.0106578052804057\\
51	0\\
52	0\\
53	0\\
54	0\\
55	0\\
56	0\\
57	0\\
58	0\\
59	0\\
60	0\\
61	0\\
62	0\\
63	0\\
64	0\\
65	0\\
66	0\\
67	0\\
68	0\\
69	0\\
70	0\\
71	0\\
72	0\\
73	0\\
74	0\\
75	0\\
76	0\\
77	0\\
78	0\\
79	0\\
80	0\\
81	0\\
82	0\\
83	0\\
84	0\\
85	0\\
86	0\\
87	0\\
88	0\\
89	0\\
90	0\\
91	0\\
92	0\\
93	0\\
94	0\\
95	0\\
96	0\\
97	0\\
98	0\\
99	0\\
100	0\\
101	0\\
102	0\\
103	0\\
104	0\\
105	0\\
106	0\\
107	0\\
108	0\\
109	0\\
110	0\\
111	0\\
112	0\\
113	0\\
114	0\\
115	0\\
116	0\\
117	0\\
118	0\\
119	0\\
120	0\\
121	0\\
122	0\\
123	0\\
124	0\\
125	0\\
126	0\\
127	0\\
128	0\\
129	0\\
130	0\\
131	0\\
132	0\\
133	0\\
134	0\\
135	0\\
136	0\\
137	0\\
138	0\\
139	0\\
140	0\\
141	0\\
142	0\\
143	0\\
144	0\\
145	0\\
146	0\\
147	0\\
148	0\\
149	0\\
150	0\\
};
\addlegendentry{$\mathbf{h_{2}}$}

\end{axis}

\begin{axis}[%
width=1.935in,
height=3.2in,
at={(3.327in,0.512in)},
scale only axis,
xmin=0,
xmax=150,
xlabel style={font=\color{white!15!black}, align=center},
xlabel={Sample Index\\[1ex](b) Estimated},
ymin=0,
ymax=1,
axis background/.style={fill=white},
legend style={legend cell align=left, align=left, draw=white!15!black}
]
\addplot [color=mycolor1]
  table[row sep=crcr]{%
0	6.39960124779957e-06\\
1	8.85737005666827e-06\\
2	1.32222280110214e-05\\
3	1.90698345905868e-05\\
4	6.94148134751921e-06\\
5	1.94524978719288e-05\\
6	2.43267684663643e-05\\
7	2.76619721797052e-05\\
8	1.7601556973399e-05\\
9	1.07746411821503e-05\\
10	4.24524173354807e-05\\
11	7.98696008293492e-06\\
12	4.22640269763386e-05\\
13	2.84814775692661e-05\\
14	1.91700448740628e-05\\
15	2.64898152112657e-05\\
16	6.9816845064297e-06\\
17	9.03417202409321e-06\\
18	8.64600861291807e-06\\
19	7.04162521822545e-06\\
20	2.1126474275429e-05\\
21	1.33819023673077e-05\\
22	1.37066204373784e-05\\
23	4.10543815426635e-05\\
24	9.07259137781217e-06\\
25	2.26462160758473e-05\\
26	3.02239911941428e-05\\
27	1.10425196565166e-05\\
28	2.81894406876144e-05\\
29	2.53932071075911e-05\\
30	3.03384400998536e-05\\
31	3.14975716228641e-05\\
32	2.31410429620379e-05\\
33	1.08723838463468e-05\\
34	7.79575010337169e-06\\
35	6.88654516954635e-06\\
36	4.43236184031243e-05\\
37	2.129601364357e-05\\
38	0.00778752643962609\\
39	0.00363895361303283\\
40	4.43997759793271e-05\\
41	0.00133524283310314\\
42	1.72390818730057e-05\\
43	2.51064014217473e-05\\
44	2.95313376413259e-05\\
45	1.63976060546022e-05\\
46	1.00038909479116e-05\\
47	2.25796007314925e-05\\
48	0.0045863133552154\\
49	3.79982560582268e-05\\
50	0.0188158172561001\\
51	0.0709410331095575\\
52	0.016060340185473\\
53	0.0140054953583663\\
54	0.0402700601377528\\
55	5.01615860388591e-05\\
56	0.00339335585695124\\
57	0.0981975551664932\\
58	0.0202676286272549\\
59	0.020047880712549\\
60	0.0219305273854963\\
61	0.0153298040181338\\
62	0.0342322242311313\\
63	0.147095483790543\\
64	0.0256039301706925\\
65	0.497442837015499\\
66	0.411105667305692\\
67	0.0977688052258985\\
68	0.0754129397059562\\
69	0.0225315891556505\\
70	0.0919340769010318\\
71	0.0214147635155312\\
72	0.0436708210622949\\
73	0.00739940602361823\\
74	0.0745129755049167\\
75	0.0771072422575935\\
76	0.110035843943171\\
77	0.250457530687454\\
78	0.488582914886224\\
79	0.18517878396895\\
80	0.062972012629156\\
81	0.0711683581182895\\
82	0.101585524107346\\
83	0.0929691514147131\\
84	0.102330351140626\\
85	0.0117647748278558\\
86	0.0195997937701198\\
87	0.0265364905971893\\
88	0.013659515021694\\
89	0.0308130161329183\\
90	0.102725464775046\\
91	0.0945075073418113\\
92	0.286560522840587\\
93	0.0917096036524135\\
94	0.0212867587174637\\
95	0.0313412876175618\\
96	0.00152540560871717\\
97	4.25500690285631e-05\\
98	0.000811133576456321\\
99	0.000512208601521895\\
100	0.0138834662571805\\
101	2.02713088432461e-05\\
102	0.00298016840559381\\
103	0.011082000079696\\
104	0.0445418935089868\\
105	0.0242479804750227\\
106	8.21098658553394e-06\\
107	0.0139915229499043\\
108	1.92140682385484e-05\\
109	7.13470586013507e-06\\
110	3.10093339279175e-05\\
111	2.42191215612296e-06\\
112	2.37566198331998e-05\\
113	3.77322522981152e-05\\
114	1.87856708172437e-05\\
115	5.40372987301712e-06\\
116	1.00599984088733e-05\\
117	0.00105706806558905\\
118	2.6046499177372e-05\\
119	1.01453802057787e-05\\
120	4.00356051212094e-05\\
121	1.75041501074617e-05\\
122	2.17582919164116e-05\\
123	2.57809329066083e-05\\
124	2.84969405332628e-05\\
125	2.91716715729858e-05\\
126	5.76240275718587e-05\\
127	1.60638424781796e-05\\
128	2.83962702872455e-05\\
129	1.61253919475525e-05\\
130	2.164396715531e-05\\
131	2.75133761717483e-05\\
132	3.24450391558211e-06\\
133	5.64432337417802e-06\\
134	2.00742978167463e-05\\
135	3.21093351536578e-05\\
136	3.27290074719019e-05\\
137	9.06477377097009e-06\\
138	3.81459939240739e-05\\
139	3.32124230566501e-05\\
140	1.14192501835353e-05\\
141	3.95890210091259e-05\\
142	1.82499340943587e-05\\
143	1.76820752536313e-05\\
144	1.59041747538347e-05\\
145	2.16095669478736e-05\\
146	1.41352226591113e-05\\
147	1.93804537460491e-05\\
148	1.06006338982222e-05\\
149	1.08168489231466e-05\\
};
\addlegendentry{$\mathbf{\hat{h}_{1}}$}

\addplot [color=mycolor2]
  table[row sep=crcr]{%
0	3.77504730640351e-06\\
1	5.51465949865346e-06\\
2	1.25969743828691e-05\\
3	6.89608062452905e-06\\
4	7.42012630223395e-06\\
5	1.52336662109371e-05\\
6	1.06968467412476e-05\\
7	9.06896134446549e-06\\
8	6.82067673721174e-06\\
9	1.12588071078567e-05\\
10	1.30248452350941e-05\\
11	1.98983678606503e-05\\
12	3.08775289820131e-06\\
13	8.73577611903236e-06\\
14	1.85413546951004e-05\\
15	8.14815465035718e-06\\
16	1.285866380577e-05\\
17	1.57456721490814e-05\\
18	1.25437046971482e-05\\
19	1.36776598212297e-05\\
20	2.49805509097133e-05\\
21	1.22444972135954e-05\\
22	1.48994973750074e-05\\
23	3.36345064269667e-06\\
24	2.84167139908048e-05\\
25	4.47847417432362e-06\\
26	1.37680915978777e-06\\
27	6.27654983577919e-06\\
28	1.07700312326185e-05\\
29	1.24270733788709e-05\\
30	6.5706459745339e-06\\
31	1.06661691230804e-05\\
32	0.00105280841636701\\
33	0.00460086662663246\\
34	0.00194356207395852\\
35	0.00641533529193795\\
36	2.11843703478751e-05\\
37	0.00152313520590805\\
38	6.39650152316538e-06\\
39	1.47297443108723e-05\\
40	6.74320256579406e-06\\
41	1.93209015096241e-05\\
42	0.00341507438579147\\
43	6.67006673041196e-06\\
44	4.21618630391102e-06\\
45	0.0137784330878119\\
46	0.00274683155897192\\
47	0.049209216947739\\
48	0.00473871286682808\\
49	0.0239434850706478\\
50	0.00996963979255705\\
51	0.00409808233094337\\
52	3.27914725677888e-05\\
53	2.48668179636805e-05\\
54	0.0058456187225402\\
55	0.000652362544308831\\
56	0.00283128184462315\\
57	0.026728015815002\\
58	0.0185020062590755\\
59	0.0590310783776342\\
60	0.031298658154764\\
61	0.0413160923427347\\
62	0.133605534302108\\
63	0.023574618427943\\
64	0.0275977876127484\\
65	0.000878029503205602\\
66	0.0136365192051914\\
67	0.0144709663864033\\
68	0.0125127833466972\\
69	0.0023355651901561\\
70	0.00823036888144183\\
71	0.0270294929536984\\
72	0.0343548340610857\\
73	0.0275092765251068\\
74	0.966333767182511\\
75	0.0264602648955044\\
76	0.0324826242746157\\
77	0.024480666993054\\
78	0.010784618468505\\
79	0.00529321538962144\\
80	0.0147118708328473\\
81	0.0156641955565521\\
82	0.0200410768455452\\
83	0.00326714734748801\\
84	0.0241960127371712\\
85	0.0221240172309449\\
86	0.131716142958991\\
87	0.0430014526967694\\
88	0.0287794451225007\\
89	0.0619495816724336\\
90	0.0183022155330281\\
91	0.0285613296670743\\
92	0.00297994147700312\\
93	0.00303408128500995\\
94	0.00442285923292667\\
95	2.1904296463329e-05\\
96	3.20298883936155e-05\\
97	0.00177537722908727\\
98	0.00844390429440198\\
99	0.0227438243894177\\
100	0.00429884227135308\\
101	0.051932386087158\\
102	0.00292896825562383\\
103	0.0131897560084259\\
104	6.67411939744015e-06\\
105	1.39668153807428e-05\\
106	0.00325822973405579\\
107	2.18997453794313e-05\\
108	3.45133439833833e-05\\
109	2.31508256349324e-05\\
110	1.13340675551934e-05\\
111	0.0012939173304785\\
112	1.78621734205923e-05\\
113	0.00455454947271346\\
114	0.000925110581067203\\
115	0.00432758704650379\\
116	0.00347433742824553\\
117	6.69418864871378e-06\\
118	4.4761713013988e-06\\
119	2.87864061493945e-05\\
120	1.19211009162078e-05\\
121	3.83829188323566e-06\\
122	3.91246161845986e-06\\
123	3.50514460164295e-06\\
124	2.38704926567483e-05\\
125	7.45761862899893e-06\\
126	4.71321492969707e-06\\
127	1.27049083606126e-05\\
128	1.53030535719349e-05\\
129	1.58486570987135e-05\\
130	1.63962201946763e-05\\
131	1.42511303937759e-06\\
132	4.8592512231341e-06\\
133	6.427134886194e-06\\
134	4.88506256282961e-06\\
135	1.48629605252801e-05\\
136	6.828276105929e-06\\
137	1.97795043018815e-05\\
138	8.78152347657218e-06\\
139	1.62043688498266e-05\\
140	7.06550891392136e-06\\
141	8.96273157272483e-06\\
142	2.90443440220467e-06\\
143	1.43981984572113e-05\\
144	6.79397874166716e-06\\
145	1.33955939985745e-05\\
146	8.96730878902071e-06\\
147	3.00756524679458e-06\\
148	1.13119774070668e-05\\
149	1.49155731551021e-06\\
};
\addlegendentry{$\mathbf{\hat{h}_{2}}$}

\end{axis}
\end{tikzpicture}%