% This file was created by matlab2tikz.
%
%The latest updates can be retrieved from
%  http://www.mathworks.com/matlabcentral/fileexchange/22022-matlab2tikz-matlab2tikz
%where you can also make suggestions and rate matlab2tikz.
%
\definecolor{mycolor1}{rgb}{0.00000,0.44700,0.74100}%
\definecolor{mycolor2}{rgb}{0.85000,0.32500,0.09800}%
%
\begin{tikzpicture}

\begin{axis}[%
width=1.935in,
height=3.2in,
at={(0.758in,0.512in)},
scale only axis,
xmin=0,
xmax=150,
xlabel style={font=\color{white!15!black}, align=center},
xlabel={Sample Index\\[1ex](a) Actual},
ymin=0,
ymax=0.7,
axis background/.style={fill=white},
legend style={legend cell align=left, align=left, draw=white!15!black}
]
\addplot [color=mycolor1]
  table[row sep=crcr]{%
1	0.0234657806037261\\
2	0.0272334504034075\\
3	0.0326864300765018\\
4	0.0414541482980318\\
5	0.0586677033458464\\
6	0.117843438362983\\
7	0.159969331461504\\
8	0.174397116945152\\
9	0.616552810702634\\
10	0.0882137642931462\\
11	0.0472681903124796\\
12	0.0327587509505929\\
13	0.0272256709659274\\
14	0.0412344622245766\\
15	0.0186762848129325\\
16	0.0451940046978057\\
17	0.0153724087875252\\
18	0.0239672675363248\\
19	0.0400285717874473\\
20	0.0828333966509162\\
21	0.557624977131952\\
22	0.149414784250917\\
23	0.109138078132702\\
24	0.0381681231028791\\
25	0.032799759178118\\
26	0.191519461959093\\
27	0.0734580287558902\\
28	0.0358315656953253\\
29	0.0179563195827385\\
30	0.0169149242156914\\
31	0.0179798517146348\\
32	0.0199431506445131\\
33	0.0279225394655299\\
34	0.0908594243819801\\
35	0.0439964246924232\\
36	0.330890477505262\\
37	0.037800506563543\\
38	0.020261933748638\\
39	0.0138181229977315\\
40	0.0211497159554441\\
41	0.0112042208144458\\
42	0.00964538908702694\\
43	0.00864780826327016\\
44	0.00787736374270682\\
45	0.00720180133294831\\
46	0.00651453200193765\\
47	0.00565492088107664\\
48	0.0112814316241706\\
49	0.0075966567083061\\
50	0.0102713040739602\\
51	0.00787142060243747\\
52	0.00711780022683946\\
53	0.00668443537322835\\
54	0.00638223966522588\\
55	0.00615487020840034\\
56	0.00598242225636516\\
57	0.00586293416152974\\
58	0.00581626175933958\\
59	0.00593494184987807\\
60	0.00707647204853056\\
61	0.00861312572402681\\
62	0.00240649054353041\\
63	0.0036902508247688\\
64	0.0040125763148678\\
65	0.00408542983582614\\
66	0.00408934467211144\\
67	0.00406760360864643\\
68	0.00403657730104579\\
69	0.00400486664899167\\
70	0.00397913876457006\\
71	0.00396763365360209\\
72	0.00398577860522856\\
73	0.00407460869510253\\
74	0.00440882178496405\\
75	0.00852319154542653\\
76	0.00211982859547221\\
77	0.00279674481878385\\
78	0.00295234209521732\\
79	0.00299967450324673\\
80	0.00300734384297471\\
81	0.00299658049652506\\
82	0.00297609501762909\\
83	0.00295010695632826\\
84	0.00292089738309008\\
85	0.00288979839106794\\
86	0.00285763293534116\\
87	0.00282493110979805\\
88	0.00279204510261472\\
89	0.00275921420187501\\
90	0.00272660345813555\\
91	0.00269432766245323\\
92	0.00266246675038502\\
93	0.00263107599882434\\
94	0.00260019295165966\\
95	0.00256984222925479\\
96	0.00254003893333548\\
97	0.0025107910982644\\
98	0.00248210148178531\\
99	0.00245396889001376\\
100	0.00242638916874131\\
101	0.00239935595223708\\
102	0.00237286123354156\\
103	0.00234689580183488\\
104	0.00232144957979209\\
105	0.00229651188498403\\
106	0.00227207163310714\\
107	0.0022481174963278\\
108	0.00222463802675857\\
109	0.00220162175268604\\
110	0.00217905725339276\\
111	0.0021569332170867\\
112	0.00213523848544673\\
113	0.00211396208753109\\
114	0.00209309326520902\\
115	0.00207262149182518\\
116	0.00205253648545491\\
117	0.00203282821783402\\
118	0.00201348691983224\\
119	0.00199450308416773\\
120	0.00197586746592614\\
121	0.00195757108133911\\
122	0.0019396052051902\\
123	0.0019219613671484\\
124	0.00190463134727109\\
125	0.00188760717087541\\
126	0.00187088110293773\\
127	0.00185444564215264\\
128	0.0018382935147574\\
129	0.00182241766820821\\
130	0.00180681126477794\\
131	0.00179146767513212\\
132	0.00177638047192757\\
133	0.00176154342347035\\
134	0.00174695048746156\\
135	0.0017325958048528\\
136	0.00171847369382931\\
137	0.00170457864393352\\
138	0.0016909053103386\\
139	0.00167744850827835\\
140	0.00166420320763913\\
141	0.00165116452771496\\
142	0.00163832773212761\\
143	0.00162568822391149\\
144	0.00161324154076111\\
145	0.0016009833504405\\
146	0.00158890944635072\\
147	0.00157701574325256\\
148	0.00156529827314105\\
149	0\\
150	0\\
};
\addlegendentry{$\mathbf{h_1}$}

\addplot [color=mycolor2]
  table[row sep=crcr]{%
1	0.019775303219206\\
2	0.0210217764534023\\
3	0.0224372323963497\\
4	0.024058742711813\\
5	0.0259351263737046\\
6	0.0281320174688059\\
7	0.0307398096072034\\
8	0.0338865833958781\\
9	0.0377600935275399\\
10	0.0426472101764649\\
11	0.0490094599986528\\
12	0.0576401827385178\\
13	0.0700288298559564\\
14	0.0893407156606893\\
15	0.123700774100431\\
16	0.202175033398071\\
17	0.564479813098353\\
18	0.690442426104836\\
19	0.212260509632627\\
20	0.126132345068284\\
21	0.100380135781766\\
22	0.0378663697499036\\
23	0.0333199748773482\\
24	0.0149453064107011\\
25	0.10083899339379\\
26	0.161002397050911\\
27	0.0405118251764787\\
28	0.0383644765554957\\
29	0.0341227495803863\\
30	0.0306469105251072\\
31	0.0278570926171954\\
32	0.0255709383506331\\
33	0.0236574529195357\\
34	0.0220274984760589\\
35	0.0206190941704396\\
36	0.0193877726649002\\
37	0.0183006807256663\\
38	0.0173329207549748\\
39	0.016465211935799\\
40	0.0156823459816501\\
41	0.0149721364414517\\
42	0.0143246843629073\\
43	0.0137318527665838\\
44	0.0131868826449622\\
45	0.0126841071808284\\
46	0.0122187355837443\\
47	0.0117866872087634\\
48	0.0113844626077037\\
49	0.0110090421200206\\
50	0.0106578052804057\\
51	0\\
52	0\\
53	0\\
54	0\\
55	0\\
56	0\\
57	0\\
58	0\\
59	0\\
60	0\\
61	0\\
62	0\\
63	0\\
64	0\\
65	0\\
66	0\\
67	0\\
68	0\\
69	0\\
70	0\\
71	0\\
72	0\\
73	0\\
74	0\\
75	0\\
76	0\\
77	0\\
78	0\\
79	0\\
80	0\\
81	0\\
82	0\\
83	0\\
84	0\\
85	0\\
86	0\\
87	0\\
88	0\\
89	0\\
90	0\\
91	0\\
92	0\\
93	0\\
94	0\\
95	0\\
96	0\\
97	0\\
98	0\\
99	0\\
100	0\\
101	0\\
102	0\\
103	0\\
104	0\\
105	0\\
106	0\\
107	0\\
108	0\\
109	0\\
110	0\\
111	0\\
112	0\\
113	0\\
114	0\\
115	0\\
116	0\\
117	0\\
118	0\\
119	0\\
120	0\\
121	0\\
122	0\\
123	0\\
124	0\\
125	0\\
126	0\\
127	0\\
128	0\\
129	0\\
130	0\\
131	0\\
132	0\\
133	0\\
134	0\\
135	0\\
136	0\\
137	0\\
138	0\\
139	0\\
140	0\\
141	0\\
142	0\\
143	0\\
144	0\\
145	0\\
146	0\\
147	0\\
148	0\\
149	0\\
150	0\\
};
\addlegendentry{$\mathbf{h_{2}}$}

\end{axis}

\begin{axis}[%
width=1.935in,
height=3.2in,
at={(3.327in,0.512in)},
scale only axis,
xmin=0,
xmax=150,
xlabel style={font=\color{white!15!black}, align=center},
xlabel={Sample Index\\[1ex](b) Estimated},
ymin=0,
ymax=1,
axis background/.style={fill=white},
legend style={legend cell align=left, align=left, draw=white!15!black}
]
\addplot [color=mycolor1]
  table[row sep=crcr]{%
0	4.16385159226868e-05\\
1	0.000118462680375733\\
2	6.70621441361052e-05\\
3	8.29137718918656e-05\\
4	5.41803141879985e-05\\
5	1.97753428194092e-05\\
6	9.1592971133221e-05\\
7	6.77513325173024e-05\\
8	3.52914689102624e-05\\
9	0.000124622545564614\\
10	2.78288014780421e-05\\
11	5.16584883997233e-05\\
12	5.43469514553245e-05\\
13	2.92444593393533e-05\\
14	3.52306091195175e-05\\
15	9.44148312114871e-05\\
16	3.53838997014007e-05\\
17	3.17923272920585e-05\\
18	2.96583394068579e-05\\
19	5.04545630984336e-05\\
20	7.3190413971795e-05\\
21	3.64653077019874e-05\\
22	7.62382348972923e-05\\
23	2.90118014940473e-05\\
24	2.69694982504823e-06\\
25	4.05571679308326e-05\\
26	2.09777185820984e-05\\
27	6.01606332814821e-05\\
28	7.5810908193134e-05\\
29	0.000107165418007447\\
30	4.39992867882645e-05\\
31	1.54661556184202e-05\\
32	4.58506071051679e-05\\
33	0.000134199068040824\\
34	0.000138575531446482\\
35	2.98058653916102e-05\\
36	3.56442093532733e-05\\
37	0.000424356604638063\\
38	0.00530422568142817\\
39	0.00297163501930321\\
40	0.000872150140101168\\
41	0.000562904165549228\\
42	6.0124786175487e-05\\
43	0.00103537635927229\\
44	0.000164024157323164\\
45	0.00318294480328204\\
46	1.74318448008814e-05\\
47	0.00199214207717627\\
48	0.00564160641436648\\
49	5.62428623174036e-05\\
50	0.0143511204634944\\
51	0.0478215181754538\\
52	0.0138030829982129\\
53	0.0039087275038942\\
54	0.0305120900643874\\
55	5.98978072334079e-05\\
56	0.0149284341161393\\
57	0.108883021168992\\
58	0.0322236914611325\\
59	0.025628247655655\\
60	0.0255658251942126\\
61	0.0153376594648797\\
62	0.0388288119113269\\
63	0.152918295472006\\
64	0.0242696255729962\\
65	0.496149943106324\\
66	0.408330710217129\\
67	0.102845030940829\\
68	0.0706174513762437\\
69	0.0331347253653821\\
70	0.107476590062152\\
71	0.0205740909814143\\
72	0.0445056382680758\\
73	0.00186985270604174\\
74	0.0668713205598531\\
75	0.071095159824268\\
76	0.103201999671039\\
77	0.26080524476327\\
78	0.488601081090305\\
79	0.180435866881368\\
80	0.0525070739270618\\
81	0.0676752607664948\\
82	0.104775576046448\\
83	0.0891968717807389\\
84	0.106372893527218\\
85	0.0104366853685645\\
86	0.0196040363299938\\
87	0.0208091114677321\\
88	0.0121861292914319\\
89	0.0283574429278339\\
90	0.0816745406736344\\
91	0.0996364526889006\\
92	0.290190530177066\\
93	0.100227868236971\\
94	0.0272284300246768\\
95	0.0280842841013652\\
96	0.00372893266656338\\
97	4.05400828380579e-05\\
98	0.00210278146124568\\
99	0.00292839584847657\\
100	0.00757861908939688\\
101	0.000130145308038488\\
102	0.000346803445755512\\
103	0.00990584526739669\\
104	0.0292389862527358\\
105	0.0142059813812253\\
106	7.35324785357695e-05\\
107	0.00688892518655168\\
108	3.05523962792015e-05\\
109	7.41537311287723e-05\\
110	4.50574808107654e-05\\
111	1.16161245339099e-05\\
112	2.74571491376472e-05\\
113	9.56450539106753e-05\\
114	2.78015345853349e-05\\
115	6.62247032775543e-05\\
116	1.36930997110028e-05\\
117	0.00126634208641706\\
118	0.00018695755896218\\
119	0.000173329900921684\\
120	8.45474799841703e-06\\
121	4.95512172684101e-05\\
122	3.02470974639602e-05\\
123	7.79644332600915e-05\\
124	6.82208819124291e-05\\
125	6.46037393691877e-05\\
126	2.1835848852133e-05\\
127	5.99284125867797e-05\\
128	0.000123331294266836\\
129	5.48498147872399e-05\\
130	5.56046942994554e-05\\
131	3.05297538168842e-05\\
132	5.3594526205761e-06\\
133	3.52213062526377e-05\\
134	0.000118056525242307\\
135	1.31276473959175e-05\\
136	1.17900344123692e-05\\
137	1.89527592234064e-05\\
138	0.000109975108982189\\
139	4.14559417378263e-05\\
140	5.95935585616163e-05\\
141	6.68746015930216e-05\\
142	6.67807398411481e-05\\
143	2.96192303141873e-05\\
144	1.01824603857888e-05\\
145	2.43216538863596e-05\\
146	2.73104654695159e-05\\
147	8.56779991887392e-05\\
148	9.64240542172054e-05\\
149	3.43579967099547e-05\\
};
\addlegendentry{$\mathbf{\hat{h}_{1}}$}

\addplot [color=mycolor2]
  table[row sep=crcr]{%
0	2.06233210667192e-05\\
1	3.03568553215733e-06\\
2	1.52842050969968e-05\\
3	2.05179669849455e-05\\
4	6.90235888562564e-06\\
5	2.85048431395097e-05\\
6	1.06730274118323e-05\\
7	1.1726738303291e-05\\
8	1.56411210918313e-05\\
9	3.2498485037122e-05\\
10	1.84923130836344e-05\\
11	4.66303566228698e-05\\
12	6.07077647028588e-06\\
13	5.5570482272439e-06\\
14	2.13418721469001e-05\\
15	7.92667631693139e-06\\
16	3.17442390238813e-05\\
17	2.59547922390537e-05\\
18	4.10409442474163e-05\\
19	8.23119549658694e-06\\
20	1.09704210772515e-05\\
21	5.2255078836172e-06\\
22	2.83877614310555e-05\\
23	2.37452777706071e-05\\
24	3.51403347578104e-05\\
25	1.52087316304212e-05\\
26	8.45558920952019e-06\\
27	1.10837944754738e-05\\
28	1.16299891988597e-05\\
29	8.81598280653924e-06\\
30	4.09723247215843e-05\\
31	2.73169276165893e-05\\
32	0.000743786393373199\\
33	0.00204827243986745\\
34	0.000737860851224319\\
35	0.00209633604918964\\
36	1.67872296032816e-05\\
37	0.000460167945043227\\
38	4.12252563438601e-05\\
39	3.85890616837287e-05\\
40	3.29633585872598e-05\\
41	0.000888740595921648\\
42	0.00223361215751548\\
43	2.2998903771511e-05\\
44	0.000596676006010924\\
45	0.0112585482107534\\
46	0.00593995451845824\\
47	0.0426487313178804\\
48	0.00732384621372933\\
49	0.0162235955647676\\
50	0.00798696110320818\\
51	0.0037942610711312\\
52	2.14862915761596e-05\\
53	0.00124105222000104\\
54	0.00502764824021792\\
55	0.00592990442392053\\
56	0.00466576588090158\\
57	0.0226828590494304\\
58	0.0123044746200709\\
59	0.0484037169018118\\
60	0.0282408596642426\\
61	0.035079116320845\\
62	0.0954472410456731\\
63	0.0145213845802761\\
64	0.0214374292125526\\
65	0.00307877629031777\\
66	0.00545830465830444\\
67	0.011880375436257\\
68	0.00959965843790803\\
69	0.00819031815849037\\
70	0.00821553113213395\\
71	0.0196812800383907\\
72	0.0284266811974626\\
73	0.0243732136951707\\
74	0.980323477662624\\
75	0.0241657984295755\\
76	0.0278494461699766\\
77	0.0189984352142252\\
78	0.00879759959388992\\
79	0.00929930172675656\\
80	0.0102662001722242\\
81	0.0120389345536945\\
82	0.00655305512533816\\
83	0.00360579758494648\\
84	0.0205202196895174\\
85	0.0145130238535989\\
86	0.0948257100151672\\
87	0.0354663344958164\\
88	0.027633627092031\\
89	0.049213105105354\\
90	0.0124214704958916\\
91	0.0232780314699297\\
92	0.00473589229418941\\
93	0.00676444337762755\\
94	0.00458301625322825\\
95	0.000795938276065811\\
96	2.63050844378667e-05\\
97	0.00349156517037034\\
98	0.00762120436835739\\
99	0.0160320555726571\\
100	0.00700033680627425\\
101	0.0434147362897514\\
102	0.00577393327924587\\
103	0.0110953633548212\\
104	0.000975781343560316\\
105	1.27805315395298e-05\\
106	0.00197367783704758\\
107	0.000970928153089536\\
108	1.77757936986729e-05\\
109	5.01324891371435e-05\\
110	2.64581180588872e-05\\
111	0.000379271631410752\\
112	1.88031626797718e-05\\
113	0.00173167110559716\\
114	0.00052235088944078\\
115	0.00193260624791425\\
116	0.00130183958335956\\
117	1.85605258783545e-05\\
118	2.92029462557275e-05\\
119	1.34770452477056e-05\\
120	1.01677727463908e-05\\
121	1.36665543919334e-05\\
122	1.10609650325603e-05\\
123	1.22009707422769e-05\\
124	3.51537065405203e-05\\
125	3.17182451767086e-05\\
126	2.95750180125488e-05\\
127	1.652379801047e-05\\
128	7.65979284239355e-06\\
129	2.96133354938348e-06\\
130	4.04041094135038e-05\\
131	2.32738115919441e-05\\
132	2.93521200680929e-05\\
133	7.21184453970086e-06\\
134	1.50906171812067e-05\\
135	8.99341399526259e-06\\
136	8.9739406130642e-06\\
137	4.64796343291385e-05\\
138	2.39294085756051e-05\\
139	2.19037062647891e-05\\
140	1.66833263293692e-05\\
141	2.04214678572682e-05\\
142	1.12255917530132e-05\\
143	3.61267372846215e-05\\
144	1.24663325246268e-05\\
145	2.35173872259361e-05\\
146	1.20356611074498e-05\\
147	1.0365974479029e-05\\
148	1.87242332425192e-05\\
149	3.52033658284227e-05\\
};
\addlegendentry{$\mathbf{\hat{h}_{2}}$}

\end{axis}
\end{tikzpicture}%