% This file was created by matlab2tikz.
%
%The latest updates can be retrieved from
%  http://www.mathworks.com/matlabcentral/fileexchange/22022-matlab2tikz-matlab2tikz
%where you can also make suggestions and rate matlab2tikz.
%
\definecolor{mycolor1}{rgb}{0.00000,0.44700,0.74100}%
\definecolor{mycolor2}{rgb}{0.85000,0.32500,0.09800}%
%
\begin{tikzpicture}

\begin{axis}[%
width=1.935in,
height=3.2in,
at={(0.758in,0.512in)},
scale only axis,
xmin=0,
xmax=200,
xlabel style={font=\color{white!15!black}, align=center},
xlabel={Sample Index\\[1ex](a) Actual},
ymin=0,
ymax=1,
axis background/.style={fill=white},
legend style={legend cell align=left, align=left, draw=white!15!black}
]
\addplot [color=mycolor1]
  table[row sep=crcr]{%
1	0.0167418731260698\\
2	0.018659722218203\\
3	0.0211495716349754\\
4	0.0245407494314006\\
5	0.029505643974117\\
6	0.0377161636169434\\
7	0.0550750576238134\\
8	0.131028403455825\\
9	0.141533477104454\\
10	0.158175166246243\\
11	0.163761757297189\\
12	0.600100605556833\\
13	0.118033417583129\\
14	0.0610914209628117\\
15	0.0426162246246858\\
16	0.0332715711707656\\
17	0.0321939439283243\\
18	0.0268871008873183\\
19	0.0316920608120786\\
20	0.0286771919664519\\
21	0.00773119825769845\\
22	0.0330073087209196\\
23	0.019415059292473\\
24	0.0177688778425817\\
25	0.0188194600762088\\
26	0.0237714798713867\\
27	0.0430806655948836\\
28	0.586023006720236\\
29	0.0970905103802927\\
30	0.0246981078960262\\
31	0.0780346253424249\\
32	0.0580455436901626\\
33	0.0681836526256362\\
34	0.163824852865525\\
35	0.0446106828365612\\
36	0.06119675966513\\
37	0.00907835157153909\\
38	0.0310093774848825\\
39	0.00125972832884384\\
40	0.005422098150711\\
41	0.0107374596162295\\
42	0.0165479326643041\\
43	0.024789327411243\\
44	0.0446277431282512\\
45	0.058019450740893\\
46	0.074843365423057\\
47	0.199666615467323\\
48	0.216838516027539\\
49	0.0783890355452335\\
50	0.0495529240878659\\
51	0.0370791446049236\\
52	0.0307530810094058\\
53	0.0155757068681131\\
54	0.0198807977432187\\
55	0.0179871495341263\\
56	0.0162887905400521\\
57	0.0148728268904216\\
58	0.0136909847461918\\
59	0.0126943671543235\\
60	0.011846112844806\\
61	0.0111233301448608\\
62	0.0105291449791113\\
63	0.0102108676347222\\
64	0.00751288118280402\\
65	0.00739035992869396\\
66	0.0116365722557393\\
67	0.00899390796280924\\
68	0.00831157148096884\\
69	0.00788086875151191\\
70	0.00754217236777393\\
71	0.00725475830161164\\
72	0.00700327644843893\\
73	0.006780818536885\\
74	0.00658453626015097\\
75	0.00641472878078445\\
76	0.00627599401250467\\
77	0.00618216997550965\\
78	0.00617516728867787\\
79	0.00642745729543014\\
80	0.00873051939586948\\
81	0.00471465923588381\\
82	0.00195996010568866\\
83	0.004980313957114\\
84	0.00475839614864904\\
85	0.00464733241660508\\
86	0.00455444244400457\\
87	0.00446749239384432\\
88	0.00438406292262191\\
89	0.00430366820355207\\
90	0.00422628355118023\\
91	0.00415201532524293\\
92	0.00408104289588831\\
93	0.00401365198230764\\
94	0.00395033763548775\\
95	0.00389203620501121\\
96	0.00384070443755282\\
97	0.00380107128140597\\
98	0.00378779867734327\\
99	0.00387836096292209\\
100	0.00228454900881806\\
101	0.00321909463290553\\
102	0.00328982387499096\\
103	0.00328100374444436\\
104	0.00325253146337885\\
105	0.00321692683031362\\
106	0.00317840637543852\\
107	0.00313876414674543\\
108	0.00309887602618152\\
109	0.00305920797263281\\
110	0.00302002111537278\\
111	0.00298146552488656\\
112	0.00294362726599965\\
113	0.0029065537719176\\
114	0.00287026833389302\\
115	0.00283477876811283\\
116	0.00280008280049957\\
117	0.00276617151884636\\
118	0.00273303164395387\\
119	0.00270064705586787\\
120	0.00266899983729428\\
121	0.00263807099659409\\
122	0.00260784097374635\\
123	0.00257828999668392\\
124	0.00254939833288439\\
125	0.00252114646667125\\
126	0.00249351522323938\\
127	0.00246648585412356\\
128	0.00244004009455901\\
129	0.00241416020024051\\
130	0.00238882896892876\\
131	0.0023640297508985\\
132	0.00233974645117835\\
133	0.00231596352577768\\
134	0.00229266597354371\\
135	0.00226983932488367\\
136	0.00224746962828519\\
137	0.00222554343533969\\
138	0.00220404778480324\\
139	0.00218297018609978\\
140	0.00216229860257188\\
141	0.00214202143470905\\
142	0.00212212750352594\\
143	0.00210260603421662\\
144	0.00208344664017788\\
145	0.00206463930746792\\
146	0.00204617437974413\\
147	0.00202804254371082\\
148	0.00201023481509265\\
149	0.00199274252514179\\
150	0.00197555730767936\\
151	0.0019586710866655\\
152	0.00194207606428942\\
153	0.00192576470956709\\
154	0.00190972974743187\\
155	0.00189396414830307\\
156	0.00187846111811499\\
157	0.00186321408878906\\
158	0.00184821670913216\\
159	0.00183346283614256\\
160	0.00181894652670628\\
161	0.00180466202966742\\
162	0.00179060377825436\\
163	0.00177676638284649\\
164	0.00176314462406556\\
165	0.00174973344617591\\
166	0.0017365279507797\\
167	0.00172352339079259\\
168	0.00171071516468654\\
169	0.00169809881098722\\
170	0.00168567000301325\\
171	0.00167342454384613\\
172	0.00166135836151948\\
173	0.00164946750441694\\
174	0.00163774813686889\\
175	0.00162619653493841\\
176	0.00161480908238697\\
177	0.00160358226681213\\
178	0.001592512675948\\
179	0.00158159699412143\\
180	0.00157083199885632\\
181	0.00156021455761888\\
182	0.00154974162469766\\
183	0.00153941023821136\\
184	0.00152921751723897\\
185	0.00151916065906659\\
186	0.00150923693654504\\
187	0.00149944369555362\\
188	0.00148977835256491\\
189	0.00148023839230615\\
190	0.0014708213655126\\
191	0.00146152488676917\\
192	0.00145234663243548\\
193	0.00144328433865201\\
194	0.00143433579942216\\
195	0.0014254988647679\\
196	0.00141677143895562\\
197	0.00140815147878894\\
198	0.00139963699196521\\
199	0\\
200	0\\
};
\addlegendentry{$\mathbf{h_1}$}

\addplot [color=mycolor2]
  table[row sep=crcr]{%
1	0.00495033386861547\\
2	0.00515738368500011\\
3	0.00538309861623286\\
4	0.00563019833310769\\
5	0.00590197136255583\\
6	0.00620243506959928\\
7	0.00653655369620811\\
8	0.00691054090538825\\
9	0.00733228812251618\\
10	0.00781198494389501\\
11	0.00836304134465097\\
12	0.0090034999823859\\
13	0.00975827527656913\\
14	0.0106628508662167\\
15	0.0117696896019869\\
16	0.0131600228416925\\
17	0.0149671880151623\\
18	0.0174273921400842\\
19	0.0210049332363351\\
20	0.0267613442180004\\
21	0.037792597580649\\
22	0.068721841139076\\
23	0.97572931769219\\
24	0.0649085399616321\\
25	0.0262918397391367\\
26	0.0126468169615953\\
27	0.00419508123086451\\
28	0.0214241856295046\\
29	0.0134643328328179\\
30	0.00412679327935559\\
31	0.0112712342656943\\
32	0.0282552508318709\\
33	0.111702725947746\\
34	0.12653020104749\\
35	0.0361926668223949\\
36	0.024130019396178\\
37	0.019518168382204\\
38	0.0163235660243771\\
39	0.0140849625225472\\
40	0.0124312948441269\\
41	0.0111552918846637\\
42	0.0101369616841952\\
43	0.00930266674553233\\
44	0.00860476970863487\\
45	0.00801105372801389\\
46	0.00749890841387189\\
47	0.00705196472677567\\
48	0.00665805661850076\\
49	0.0063079366485928\\
50	0.00599443852440938\\
51	0.00571191453485358\\
52	0.00545584764793091\\
53	0.0052225778141873\\
54	0.00500910486747672\\
55	0.00481294397681212\\
56	0.00463201789166602\\
57	0.00446457542356871\\
58	0.00430912894812168\\
59	0.00416440590497024\\
60	0.00402931074167137\\
61	0.00390289474814389\\
62	0.00378433192171684\\
63	0.00367289949042518\\
64	0.0035679620699816\\
65	0.00346895868109233\\
66	0.00337539203747226\\
67	0.00328681965070268\\
68	0.00320284639950925\\
69	0\\
70	0\\
71	0\\
72	0\\
73	0\\
74	0\\
75	0\\
76	0\\
77	0\\
78	0\\
79	0\\
80	0\\
81	0\\
82	0\\
83	0\\
84	0\\
85	0\\
86	0\\
87	0\\
88	0\\
89	0\\
90	0\\
91	0\\
92	0\\
93	0\\
94	0\\
95	0\\
96	0\\
97	0\\
98	0\\
99	0\\
100	0\\
101	0\\
102	0\\
103	0\\
104	0\\
105	0\\
106	0\\
107	0\\
108	0\\
109	0\\
110	0\\
111	0\\
112	0\\
113	0\\
114	0\\
115	0\\
116	0\\
117	0\\
118	0\\
119	0\\
120	0\\
121	0\\
122	0\\
123	0\\
124	0\\
125	0\\
126	0\\
127	0\\
128	0\\
129	0\\
130	0\\
131	0\\
132	0\\
133	0\\
134	0\\
135	0\\
136	0\\
137	0\\
138	0\\
139	0\\
140	0\\
141	0\\
142	0\\
143	0\\
144	0\\
145	0\\
146	0\\
147	0\\
148	0\\
149	0\\
150	0\\
151	0\\
152	0\\
153	0\\
154	0\\
155	0\\
156	0\\
157	0\\
158	0\\
159	0\\
160	0\\
161	0\\
162	0\\
163	0\\
164	0\\
165	0\\
166	0\\
167	0\\
168	0\\
169	0\\
170	0\\
171	0\\
172	0\\
173	0\\
174	0\\
175	0\\
176	0\\
177	0\\
178	0\\
179	0\\
180	0\\
181	0\\
182	0\\
183	0\\
184	0\\
185	0\\
186	0\\
187	0\\
188	0\\
189	0\\
190	0\\
191	0\\
192	0\\
193	0\\
194	0\\
195	0\\
196	0\\
197	0\\
198	0\\
199	0\\
200	0\\
};
\addlegendentry{$\mathbf{h_{2}}$}

\end{axis}

\begin{axis}[%
width=1.935in,
height=3.2in,
at={(3.327in,0.512in)},
scale only axis,
xmin=0,
xmax=200,
xlabel style={font=\color{white!15!black}, align=center},
xlabel={Sample Index\\[1ex](b) Estimated},
ymin=0,
ymax=1,
axis background/.style={fill=white},
legend style={legend cell align=left, align=left, draw=white!15!black}
]
\addplot [color=mycolor1]
  table[row sep=crcr]{%
0	0.00879297419514508\\
1	0.00510455820708825\\
2	0.0131610203407055\\
3	0.0072967995405925\\
4	0.0298739191571917\\
5	0.0113866548046537\\
6	0.0157526948130153\\
7	0.0111454093426403\\
8	0.0047150376873058\\
9	0.0052191141857981\\
10	0.00774664064085287\\
11	0.016209742765633\\
12	0.023434682533481\\
13	0.0281548625683283\\
14	0.00778575454858959\\
15	0.00862302289082587\\
16	0.0129812325452673\\
17	0.00394866070314696\\
18	0.004414608693127\\
19	0.0231268712238851\\
20	0.0151132931795294\\
21	0.0153840026653338\\
22	0.0261769053060777\\
23	0.0104225093587355\\
24	0.00390862269939987\\
25	0.0140234399858324\\
26	0.0175220968726231\\
27	0.0201011378138377\\
28	0.0147645813983198\\
29	0.0130201349401006\\
30	0.0173824593004229\\
31	0.00790648960809724\\
32	0.00910493668746559\\
33	0.00569112980110586\\
34	0.0124366567401953\\
35	0.0149630572399741\\
36	0.00367870279761698\\
37	0.0193129695292752\\
38	0.0110243875967489\\
39	0.00680675786747128\\
40	0.0120758992941006\\
41	0.0152909086501391\\
42	0.010148688135694\\
43	0.011242770244981\\
44	0.0095151227800128\\
45	0.0226136301357112\\
46	0.01088759051486\\
47	0.0047549772527156\\
48	0.00977243900160974\\
49	0.00859786212522064\\
50	0.00257500350084144\\
51	0.01795320652249\\
52	0.0175632234843384\\
53	0.0102614913445554\\
54	0.00831285350310761\\
55	0.00235890423282728\\
56	0.0131287439556365\\
57	0.0150616408011125\\
58	0.0118826681073172\\
59	0.00820423956336123\\
60	0.00980322272710409\\
61	0.015854640787867\\
62	0.0182155523191911\\
63	0.0116276676476385\\
64	0.00486450647186144\\
65	0.0255050081696712\\
66	0.00978482013093858\\
67	0.0104451863248044\\
68	0.009163170013385\\
69	0.0151425769629343\\
70	0.00328525783133083\\
71	0.0178637726375359\\
72	0.00878432894197679\\
73	0.0111129927192749\\
74	0.0222985622807397\\
75	0.00715251563370456\\
76	0.0192360464155308\\
77	0.0912100894945136\\
78	0.0222562229627992\\
79	0.0353727655673791\\
80	0.0190895679422001\\
81	0.0141778286262842\\
82	0.0409833860704909\\
83	0.0473389296184065\\
84	0.12912802771694\\
85	0.107834590089002\\
86	0.135683587626723\\
87	0.202174186738395\\
88	0.560864421202288\\
89	0.118813024989215\\
90	0.0888518465768744\\
91	0.035158249145985\\
92	0.0578834337651032\\
93	0.0854784798154573\\
94	0.0829725921647914\\
95	0.00911117478871472\\
96	0.0177972907354364\\
97	0.0102332627354131\\
98	0.0327055264152056\\
99	0.0162601178625479\\
100	0.0338683619732403\\
101	0.0139032110191871\\
102	0.0273556768871339\\
103	0.0855901019439736\\
104	0.586550146989959\\
105	0.107909618523165\\
106	0.0326996536321442\\
107	0.0768333571117018\\
108	0.0679120066271113\\
109	0.095146161168432\\
110	0.167018111004572\\
111	0.0183639301368534\\
112	0.0411859388333686\\
113	0.0604597476679724\\
114	0.0268407147151811\\
115	0.00548712352091591\\
116	0.00451299963327017\\
117	0.021685775858827\\
118	0.0324116671780353\\
119	0.0176805100045871\\
120	0.0260867574511663\\
121	0.0568520223664595\\
122	0.0540525725295446\\
123	0.206007471779119\\
124	0.17134398981823\\
125	0.0788766475192419\\
126	0.0426988040620542\\
127	0.0270099245797629\\
128	0.0346490222574524\\
129	0.0313833388390437\\
130	0.00687822578825572\\
131	0.0237629250730782\\
132	0.0217679156741106\\
133	0.00924984444341644\\
134	0.0220433145257625\\
135	0.0156928512038523\\
136	0.00897845644477564\\
137	0.00458842797840697\\
138	0.0211768566848397\\
139	0.00813725044755018\\
140	0.00563564391465508\\
141	0.0199165889402215\\
142	0.00721777467047115\\
143	0.018266593283353\\
144	0.0312749684150462\\
145	0.0145459897799787\\
146	0.0223288638924192\\
147	0.00339115944179411\\
148	0.0222272510429697\\
149	0.00998061850077956\\
150	0.0134060683965738\\
151	0.00924785936572962\\
152	0.0102885747540393\\
153	0.0225305412850114\\
154	0.022769143879542\\
155	0.00662199736613505\\
156	0.0105388889190154\\
157	0.0150398708004452\\
158	0.00328834469599542\\
159	0.00441184612595897\\
160	0.00560263990863229\\
161	0.011648938243229\\
162	0.010513480870703\\
163	0.00668483357867851\\
164	0.0152288911808888\\
165	0.0247465269049507\\
166	0.0152466780530348\\
167	0.015549130695218\\
168	0.0120721076572144\\
169	0.0123852787413225\\
170	0.00605956641705352\\
171	0.00940840588942531\\
172	0.0272179636371276\\
173	0.0298460894263099\\
174	0.00324524939964924\\
175	0.00551651046557756\\
176	0.0139575703084545\\
177	0.0064466991297866\\
178	0.00807909531251822\\
179	0.0200219237178778\\
180	0.00853918044734396\\
181	0.0121249684187118\\
182	0.0132743460453185\\
183	0.00211270484380021\\
184	0.00575999622040185\\
185	0.0143977136342657\\
186	0.00640831049808624\\
187	0.0143102470523799\\
188	0.0100354462450963\\
189	0.0239919666105405\\
190	0.0159835950070183\\
191	0.00917038247866667\\
192	0.00652260176112329\\
193	0.0111291994641869\\
194	0.00414057931705703\\
195	0.00516885155098512\\
196	0.0117702650435116\\
197	0.014401114703011\\
198	0.00401221961677468\\
199	0.00997292515892484\\
};
\addlegendentry{$\mathbf{\hat{h}_{1}}$}

\addplot [color=mycolor2]
  table[row sep=crcr]{%
0	4.85222673025407e-05\\
1	4.9931824028029e-05\\
2	4.72080845804878e-05\\
3	2.13608491341368e-05\\
4	6.15901982334152e-06\\
5	3.3056621700099e-05\\
6	5.28545729135116e-05\\
7	7.49254474123881e-05\\
8	6.92034060822382e-05\\
9	4.30200511812891e-05\\
10	3.98490718634076e-05\\
11	9.29478205316558e-06\\
12	1.04711956204488e-05\\
13	3.80372131100027e-05\\
14	7.11913168795405e-05\\
15	9.64053633946455e-05\\
16	3.28811906986765e-05\\
17	6.24619707763495e-05\\
18	1.95967268813956e-05\\
19	1.03338107580681e-05\\
20	3.69587131987928e-05\\
21	1.54157156238971e-05\\
22	7.66070814929526e-05\\
23	3.51666359176714e-05\\
24	8.12560564260566e-05\\
25	5.65278201114866e-06\\
26	5.95799147774688e-06\\
27	3.98451096049169e-05\\
28	1.46543659596177e-05\\
29	9.32249590466438e-06\\
30	9.34438725668084e-05\\
31	3.25082429741245e-05\\
32	6.816251774942e-05\\
33	4.15581551136407e-05\\
34	7.74463871643422e-05\\
35	2.51825545488439e-05\\
36	5.04654170513365e-05\\
37	3.27999694817125e-05\\
38	6.57192354649187e-05\\
39	6.70041998176389e-05\\
40	2.98523220671369e-05\\
41	7.56961464615323e-05\\
42	3.11407520131103e-05\\
43	9.36648365804181e-05\\
44	4.3639593407749e-05\\
45	3.01768709377134e-05\\
46	7.09676272596104e-05\\
47	2.70119538616625e-05\\
48	2.78812496957461e-05\\
49	3.50364554854956e-05\\
50	2.55528964471281e-05\\
51	3.06701871970848e-05\\
52	6.58597243274761e-05\\
53	5.03020357435542e-05\\
54	4.67493229038934e-05\\
55	5.91605013277579e-05\\
56	5.36291751456877e-05\\
57	3.63861117331856e-06\\
58	5.39589174662336e-05\\
59	0.000115711842667075\\
60	0.00027156978899675\\
61	0.000147482633792022\\
62	8.17910145560519e-05\\
63	0.000418697158930156\\
64	0.000122234462497239\\
65	5.52434546859731e-05\\
66	6.68045707080556e-05\\
67	2.85294364411889e-05\\
68	3.07426074034841e-05\\
69	6.43399020669744e-05\\
70	7.88258057532454e-05\\
71	4.15804225564743e-05\\
72	9.93230415005037e-05\\
73	0.000178646191097463\\
74	5.92703736571728e-05\\
75	4.06936951890334e-05\\
76	0.000201767141148634\\
77	0.000181839381149981\\
78	8.65984355296479e-05\\
79	0.000434587462831072\\
80	0.00049330309606549\\
81	0.000270670768608263\\
82	7.63728396773318e-05\\
83	0.00102159372993503\\
84	0.000104824866424882\\
85	0.000151323912414229\\
86	0.000181741832558632\\
87	7.15872436369187e-05\\
88	0.000155449684237545\\
89	5.36201449527548e-05\\
90	0.000137506513463122\\
91	0.000146764241435977\\
92	0.000106970566166536\\
93	0.000113004197909998\\
94	0.000183415150570007\\
95	4.84415813548424e-05\\
96	0.000457846330045244\\
97	0.000301005949258883\\
98	5.80253543437519e-05\\
99	0.999997325953742\\
100	5.83499100113286e-05\\
101	0.00029932492809638\\
102	0.000462204386962722\\
103	5.14534452218286e-05\\
104	0.000186094502042831\\
105	0.00011366126397815\\
106	0.000106846873824142\\
107	0.000145494333563104\\
108	0.000138738555969068\\
109	5.33157903135982e-05\\
110	0.000157133421384076\\
111	7.3996346549631e-05\\
112	0.000186185135386684\\
113	0.000154532163337435\\
114	0.000103708534276001\\
115	0.00102224453133912\\
116	8.04270913185959e-05\\
117	0.000266775908734148\\
118	0.000498853212350397\\
119	0.000443767834402683\\
120	8.88721632235569e-05\\
121	0.000181322583352506\\
122	0.000200671539518351\\
123	5.11184535151526e-05\\
124	4.76072790821566e-05\\
125	0.000182544390665128\\
126	9.82371955185443e-05\\
127	4.76958565711434e-05\\
128	8.36619909396024e-05\\
129	6.16696918797402e-05\\
130	2.95281773679192e-05\\
131	2.64628879973062e-05\\
132	7.42414437253456e-05\\
133	4.82949155191037e-05\\
134	0.000123930896743056\\
135	0.000431003326481523\\
136	7.97589267748523e-05\\
137	0.000141260419428515\\
138	0.000275308476524653\\
139	0.000107538731177503\\
140	7.11093252424241e-05\\
141	8.50343731891424e-06\\
142	5.09618831051232e-05\\
143	5.54228982578007e-05\\
144	4.80960843557789e-05\\
145	4.85557743593943e-05\\
146	5.90053050997259e-05\\
147	2.97566045225427e-05\\
148	2.1286731956892e-05\\
149	3.92397994449698e-05\\
150	2.1040389397314e-05\\
151	3.80341693250243e-05\\
152	5.73664487563733e-05\\
153	2.51474487915722e-05\\
154	4.91356285234495e-05\\
155	7.33976191589749e-05\\
156	4.41302191134885e-05\\
157	7.91669372866729e-05\\
158	1.30926690026747e-05\\
159	6.90483985983409e-05\\
160	6.1174700059107e-05\\
161	2.91117805035307e-05\\
162	5.76440485155227e-05\\
163	2.50147953157102e-05\\
164	6.46349427314551e-05\\
165	3.88402263858609e-05\\
166	5.69978686364111e-05\\
167	2.91273251250434e-05\\
168	8.81329230105744e-05\\
169	3.74869942653399e-06\\
170	1.17034838556603e-05\\
171	3.92861483600658e-05\\
172	4.82294073764612e-06\\
173	2.79094948030833e-06\\
174	8.36634795589374e-05\\
175	5.7175167454938e-05\\
176	6.94685891397766e-05\\
177	2.06455836423497e-05\\
178	4.21540297436183e-05\\
179	6.07291323141777e-06\\
180	1.03280280694729e-05\\
181	8.10427483365751e-05\\
182	3.13843740518189e-05\\
183	9.56250144601006e-05\\
184	7.52025356380824e-05\\
185	3.00901411788249e-05\\
186	2.77959622446748e-05\\
187	2.03997515987391e-05\\
188	4.10685813495592e-05\\
189	5.91333570400875e-05\\
190	6.62453781400743e-05\\
191	8.73576178185898e-05\\
192	5.10149015593503e-05\\
193	2.43687132965413e-06\\
194	9.56259701100186e-06\\
195	1.20026070170403e-05\\
196	3.54752653085695e-05\\
197	3.1970880910567e-05\\
198	3.70213383893835e-05\\
199	2.5554257661189e-05\\
};
\addlegendentry{$\mathbf{\hat{h}_{2}}$}

\end{axis}
\end{tikzpicture}%