% This file was created by matlab2tikz.
%
%The latest updates can be retrieved from
%  http://www.mathworks.com/matlabcentral/fileexchange/22022-matlab2tikz-matlab2tikz
%where you can also make suggestions and rate matlab2tikz.
%
\definecolor{mycolor1}{rgb}{0.00000,0.44700,0.74100}%
\definecolor{mycolor2}{rgb}{0.85000,0.32500,0.09800}%
%
\begin{tikzpicture}

\begin{axis}[%
width=1.935in,
height=3.2in,
at={(0.758in,0.512in)},
scale only axis,
xmin=0,
xmax=200,
xlabel style={font=\color{white!15!black}, align=center},
xlabel={Sample Index\\[1ex](a) Actual},
ymin=0,
ymax=1,
axis background/.style={fill=white},
legend style={legend cell align=left, align=left, draw=white!15!black}
]
\addplot [color=mycolor1]
  table[row sep=crcr]{%
1	0.0167418731260698\\
2	0.018659722218203\\
3	0.0211495716349754\\
4	0.0245407494314006\\
5	0.029505643974117\\
6	0.0377161636169434\\
7	0.0550750576238134\\
8	0.131028403455825\\
9	0.141533477104454\\
10	0.158175166246243\\
11	0.163761757297189\\
12	0.600100605556833\\
13	0.118033417583129\\
14	0.0610914209628117\\
15	0.0426162246246858\\
16	0.0332715711707656\\
17	0.0321939439283243\\
18	0.0268871008873183\\
19	0.0316920608120786\\
20	0.0286771919664519\\
21	0.00773119825769845\\
22	0.0330073087209196\\
23	0.019415059292473\\
24	0.0177688778425817\\
25	0.0188194600762088\\
26	0.0237714798713867\\
27	0.0430806655948836\\
28	0.586023006720236\\
29	0.0970905103802927\\
30	0.0246981078960262\\
31	0.0780346253424249\\
32	0.0580455436901626\\
33	0.0681836526256362\\
34	0.163824852865525\\
35	0.0446106828365612\\
36	0.06119675966513\\
37	0.00907835157153909\\
38	0.0310093774848825\\
39	0.00125972832884384\\
40	0.005422098150711\\
41	0.0107374596162295\\
42	0.0165479326643041\\
43	0.024789327411243\\
44	0.0446277431282512\\
45	0.058019450740893\\
46	0.074843365423057\\
47	0.199666615467323\\
48	0.216838516027539\\
49	0.0783890355452335\\
50	0.0495529240878659\\
51	0.0370791446049236\\
52	0.0307530810094058\\
53	0.0155757068681131\\
54	0.0198807977432187\\
55	0.0179871495341263\\
56	0.0162887905400521\\
57	0.0148728268904216\\
58	0.0136909847461918\\
59	0.0126943671543235\\
60	0.011846112844806\\
61	0.0111233301448608\\
62	0.0105291449791113\\
63	0.0102108676347222\\
64	0.00751288118280402\\
65	0.00739035992869396\\
66	0.0116365722557393\\
67	0.00899390796280924\\
68	0.00831157148096884\\
69	0.00788086875151191\\
70	0.00754217236777393\\
71	0.00725475830161164\\
72	0.00700327644843893\\
73	0.006780818536885\\
74	0.00658453626015097\\
75	0.00641472878078445\\
76	0.00627599401250467\\
77	0.00618216997550965\\
78	0.00617516728867787\\
79	0.00642745729543014\\
80	0.00873051939586948\\
81	0.00471465923588381\\
82	0.00195996010568866\\
83	0.004980313957114\\
84	0.00475839614864904\\
85	0.00464733241660508\\
86	0.00455444244400457\\
87	0.00446749239384432\\
88	0.00438406292262191\\
89	0.00430366820355207\\
90	0.00422628355118023\\
91	0.00415201532524293\\
92	0.00408104289588831\\
93	0.00401365198230764\\
94	0.00395033763548775\\
95	0.00389203620501121\\
96	0.00384070443755282\\
97	0.00380107128140597\\
98	0.00378779867734327\\
99	0.00387836096292209\\
100	0.00228454900881806\\
101	0.00321909463290553\\
102	0.00328982387499096\\
103	0.00328100374444436\\
104	0.00325253146337885\\
105	0.00321692683031362\\
106	0.00317840637543852\\
107	0.00313876414674543\\
108	0.00309887602618152\\
109	0.00305920797263281\\
110	0.00302002111537278\\
111	0.00298146552488656\\
112	0.00294362726599965\\
113	0.0029065537719176\\
114	0.00287026833389302\\
115	0.00283477876811283\\
116	0.00280008280049957\\
117	0.00276617151884636\\
118	0.00273303164395387\\
119	0.00270064705586787\\
120	0.00266899983729428\\
121	0.00263807099659409\\
122	0.00260784097374635\\
123	0.00257828999668392\\
124	0.00254939833288439\\
125	0.00252114646667125\\
126	0.00249351522323938\\
127	0.00246648585412356\\
128	0.00244004009455901\\
129	0.00241416020024051\\
130	0.00238882896892876\\
131	0.0023640297508985\\
132	0.00233974645117835\\
133	0.00231596352577768\\
134	0.00229266597354371\\
135	0.00226983932488367\\
136	0.00224746962828519\\
137	0.00222554343533969\\
138	0.00220404778480324\\
139	0.00218297018609978\\
140	0.00216229860257188\\
141	0.00214202143470905\\
142	0.00212212750352594\\
143	0.00210260603421662\\
144	0.00208344664017788\\
145	0.00206463930746792\\
146	0.00204617437974413\\
147	0.00202804254371082\\
148	0.00201023481509265\\
149	0.00199274252514179\\
150	0.00197555730767936\\
151	0.0019586710866655\\
152	0.00194207606428942\\
153	0.00192576470956709\\
154	0.00190972974743187\\
155	0.00189396414830307\\
156	0.00187846111811499\\
157	0.00186321408878906\\
158	0.00184821670913216\\
159	0.00183346283614256\\
160	0.00181894652670628\\
161	0.00180466202966742\\
162	0.00179060377825436\\
163	0.00177676638284649\\
164	0.00176314462406556\\
165	0.00174973344617591\\
166	0.0017365279507797\\
167	0.00172352339079259\\
168	0.00171071516468654\\
169	0.00169809881098722\\
170	0.00168567000301325\\
171	0.00167342454384613\\
172	0.00166135836151948\\
173	0.00164946750441694\\
174	0.00163774813686889\\
175	0.00162619653493841\\
176	0.00161480908238697\\
177	0.00160358226681213\\
178	0.001592512675948\\
179	0.00158159699412143\\
180	0.00157083199885632\\
181	0.00156021455761888\\
182	0.00154974162469766\\
183	0.00153941023821136\\
184	0.00152921751723897\\
185	0.00151916065906659\\
186	0.00150923693654504\\
187	0.00149944369555362\\
188	0.00148977835256491\\
189	0.00148023839230615\\
190	0.0014708213655126\\
191	0.00146152488676917\\
192	0.00145234663243548\\
193	0.00144328433865201\\
194	0.00143433579942216\\
195	0.0014254988647679\\
196	0.00141677143895562\\
197	0.00140815147878894\\
198	0.00139963699196521\\
199	0\\
200	0\\
};
\addlegendentry{$\mathbf{h_1}$}

\addplot [color=mycolor2]
  table[row sep=crcr]{%
1	0.00495033386861547\\
2	0.00515738368500011\\
3	0.00538309861623286\\
4	0.00563019833310769\\
5	0.00590197136255583\\
6	0.00620243506959928\\
7	0.00653655369620811\\
8	0.00691054090538825\\
9	0.00733228812251618\\
10	0.00781198494389501\\
11	0.00836304134465097\\
12	0.0090034999823859\\
13	0.00975827527656913\\
14	0.0106628508662167\\
15	0.0117696896019869\\
16	0.0131600228416925\\
17	0.0149671880151623\\
18	0.0174273921400842\\
19	0.0210049332363351\\
20	0.0267613442180004\\
21	0.037792597580649\\
22	0.068721841139076\\
23	0.97572931769219\\
24	0.0649085399616321\\
25	0.0262918397391367\\
26	0.0126468169615953\\
27	0.00419508123086451\\
28	0.0214241856295046\\
29	0.0134643328328179\\
30	0.00412679327935559\\
31	0.0112712342656943\\
32	0.0282552508318709\\
33	0.111702725947746\\
34	0.12653020104749\\
35	0.0361926668223949\\
36	0.024130019396178\\
37	0.019518168382204\\
38	0.0163235660243771\\
39	0.0140849625225472\\
40	0.0124312948441269\\
41	0.0111552918846637\\
42	0.0101369616841952\\
43	0.00930266674553233\\
44	0.00860476970863487\\
45	0.00801105372801389\\
46	0.00749890841387189\\
47	0.00705196472677567\\
48	0.00665805661850076\\
49	0.0063079366485928\\
50	0.00599443852440938\\
51	0.00571191453485358\\
52	0.00545584764793091\\
53	0.0052225778141873\\
54	0.00500910486747672\\
55	0.00481294397681212\\
56	0.00463201789166602\\
57	0.00446457542356871\\
58	0.00430912894812168\\
59	0.00416440590497024\\
60	0.00402931074167137\\
61	0.00390289474814389\\
62	0.00378433192171684\\
63	0.00367289949042518\\
64	0.0035679620699816\\
65	0.00346895868109233\\
66	0.00337539203747226\\
67	0.00328681965070268\\
68	0.00320284639950925\\
69	0\\
70	0\\
71	0\\
72	0\\
73	0\\
74	0\\
75	0\\
76	0\\
77	0\\
78	0\\
79	0\\
80	0\\
81	0\\
82	0\\
83	0\\
84	0\\
85	0\\
86	0\\
87	0\\
88	0\\
89	0\\
90	0\\
91	0\\
92	0\\
93	0\\
94	0\\
95	0\\
96	0\\
97	0\\
98	0\\
99	0\\
100	0\\
101	0\\
102	0\\
103	0\\
104	0\\
105	0\\
106	0\\
107	0\\
108	0\\
109	0\\
110	0\\
111	0\\
112	0\\
113	0\\
114	0\\
115	0\\
116	0\\
117	0\\
118	0\\
119	0\\
120	0\\
121	0\\
122	0\\
123	0\\
124	0\\
125	0\\
126	0\\
127	0\\
128	0\\
129	0\\
130	0\\
131	0\\
132	0\\
133	0\\
134	0\\
135	0\\
136	0\\
137	0\\
138	0\\
139	0\\
140	0\\
141	0\\
142	0\\
143	0\\
144	0\\
145	0\\
146	0\\
147	0\\
148	0\\
149	0\\
150	0\\
151	0\\
152	0\\
153	0\\
154	0\\
155	0\\
156	0\\
157	0\\
158	0\\
159	0\\
160	0\\
161	0\\
162	0\\
163	0\\
164	0\\
165	0\\
166	0\\
167	0\\
168	0\\
169	0\\
170	0\\
171	0\\
172	0\\
173	0\\
174	0\\
175	0\\
176	0\\
177	0\\
178	0\\
179	0\\
180	0\\
181	0\\
182	0\\
183	0\\
184	0\\
185	0\\
186	0\\
187	0\\
188	0\\
189	0\\
190	0\\
191	0\\
192	0\\
193	0\\
194	0\\
195	0\\
196	0\\
197	0\\
198	0\\
199	0\\
200	0\\
};
\addlegendentry{$\mathbf{h_{2}}$}

\end{axis}

\begin{axis}[%
width=1.935in,
height=3.2in,
at={(3.327in,0.512in)},
scale only axis,
xmin=0,
xmax=200,
xlabel style={font=\color{white!15!black}, align=center},
xlabel={Sample Index\\[1ex](b) Estimated},
ymin=0,
ymax=1,
axis background/.style={fill=white},
legend style={legend cell align=left, align=left, draw=white!15!black}
]
\addplot [color=mycolor1]
  table[row sep=crcr]{%
0	0.00198398772085144\\
1	0.00152878982488384\\
2	0.000714057176114752\\
3	0.00123306162293703\\
4	0.00117432516294099\\
5	0.00218868604359861\\
6	0.00158305183899013\\
7	0.000644165570726952\\
8	0.000821176320377667\\
9	0.00047336370384409\\
10	0.00121956067131793\\
11	0.00120801307766477\\
12	0.00174746995222454\\
13	0.000341158030612966\\
14	0.00144885804366248\\
15	0.00162484560238165\\
16	0.00120113686945559\\
17	0.00208224994177594\\
18	0.000778862219588932\\
19	0.0017651616554392\\
20	0.00226358231729136\\
21	0.00171938337623562\\
22	0.00245926151745081\\
23	0.00203341245893415\\
24	0.00231192277770966\\
25	0.0017596074451566\\
26	0.000341825909116797\\
27	0.000538432876267925\\
28	0.000875647037374424\\
29	0.00253785229217092\\
30	0.00160536482050461\\
31	0.000526179033381289\\
32	0.00395946233666873\\
33	0.00190786227530713\\
34	0.000687616878848748\\
35	0.00225267493716116\\
36	0.000779095243808149\\
37	0.00265518723534684\\
38	0.00164041294833371\\
39	0.00161976208300362\\
40	0.00169726621933426\\
41	0.000951173101666452\\
42	0.00431328682729368\\
43	0.00152470425737194\\
44	0.00182280947741201\\
45	0.00212608473469042\\
46	0.00127716324573562\\
47	0.0054047095243312\\
48	0.00107603690518147\\
49	0.010401685418062\\
50	0.00997194934376893\\
51	0.00483603967995669\\
52	0.0142560075507732\\
53	0.00140216901458328\\
54	0.00440748421004126\\
55	0.00399769743973697\\
56	0.000568721794294674\\
57	0.00428856474376281\\
58	0.0040722256881853\\
59	0.00261918836041723\\
60	0.00401041017954476\\
61	0.00151513058323079\\
62	0.0116738398752388\\
63	0.00490198398540683\\
64	0.00367399684986828\\
65	0.0139531771495326\\
66	0.0130784364570267\\
67	0.00578641117986827\\
68	0.0352210844519631\\
69	0.0203433806600884\\
70	0.0268341437095117\\
71	0.0101485626587079\\
72	0.0397839994522713\\
73	0.0139084549784989\\
74	0.0414388405363011\\
75	0.041762281594916\\
76	0.0287753060572472\\
77	0.0981489133658426\\
78	0.0189194798547733\\
79	0.0187237507544527\\
80	0.015503453187845\\
81	0.0169047226910888\\
82	0.0531800738357757\\
83	0.0654459197778385\\
84	0.150884287685777\\
85	0.106442856781261\\
86	0.136058701465242\\
87	0.212902494014167\\
88	0.562107467926683\\
89	0.134672233008009\\
90	0.0687896328206646\\
91	0.0242869473528032\\
92	0.0527585256161024\\
93	0.0706413883196368\\
94	0.0737516233387214\\
95	0.02083713995667\\
96	0.0324911798695116\\
97	0.0141959185511379\\
98	0.0457366663371646\\
99	0.0351624475827067\\
100	0.0389877848556504\\
101	0.0393343943230945\\
102	0.0491412718775571\\
103	0.0840173885777011\\
104	0.571085129852893\\
105	0.130353454282665\\
106	0.0328326130066294\\
107	0.0638179923904145\\
108	0.0612193393032905\\
109	0.0795455617005662\\
110	0.169646105453953\\
111	0.0258411277218106\\
112	0.0464661615832581\\
113	0.0417704141243985\\
114	0.0222886808464424\\
115	0.0151403608680503\\
116	0.00564286672339896\\
117	0.00416815798439664\\
118	0.0231997121315323\\
119	0.0223402828811964\\
120	0.0681081353402555\\
121	0.0685638183498832\\
122	0.0794663526784941\\
123	0.218822546974777\\
124	0.178424989866519\\
125	0.0781325344463564\\
126	0.0523987034969265\\
127	0.0237891102112257\\
128	0.0320873577866899\\
129	0.0239443521643174\\
130	0.00579638788830513\\
131	0.0115309772578319\\
132	0.0183472604926665\\
133	0.0154367568637756\\
134	0.00702555572277745\\
135	0.0167570513033235\\
136	0.014842552594076\\
137	0.00629608595672685\\
138	0.0144001989885487\\
139	0.0270566214661186\\
140	0.0237186023013927\\
141	0.00976153166052379\\
142	0.0159449078888578\\
143	0.00399919339788863\\
144	0.00744278671264355\\
145	0.00656268614613925\\
146	0.00281511394462765\\
147	0.00727983984819214\\
148	0.00529621608085101\\
149	0.00474967114307468\\
150	0.00762139297966394\\
151	0.00579862917103583\\
152	0.0065994889461515\\
153	0.00538703116251306\\
154	0.00397410963902339\\
155	0.00556428598140972\\
156	0.0104352958487101\\
157	0.00472384309256104\\
158	0.00572024080059494\\
159	0.00380272654445439\\
160	0.00348363122333736\\
161	0.000873858609137152\\
162	0.00476020596848607\\
163	0.00455010815522256\\
164	0.00292689308860843\\
165	0.00405021639223063\\
166	0.00366024516351487\\
167	0.0035108858195289\\
168	0.00370775530551205\\
169	0.00443073816380597\\
170	0.00210819097896765\\
171	0.00298837456549772\\
172	0.00314437575578573\\
173	0.0021756409060262\\
174	0.00441603783714133\\
175	0.00282662560325237\\
176	0.00199807797135647\\
177	0.00268432594313731\\
178	0.000775425978229894\\
179	0.00409172304938065\\
180	0.00164434736229972\\
181	0.00175285933191869\\
182	0.00217732500512758\\
183	0.00163861202626708\\
184	0.00270079268978764\\
185	0.00323924276906861\\
186	0.00239009706094644\\
187	0.000377085470738791\\
188	0.00277077793887131\\
189	0.00148433406818751\\
190	0.000299691623477168\\
191	0.0031027206747678\\
192	0.00366632335074188\\
193	0.00272830368185406\\
194	0.00423114261866255\\
195	0.00345085150903152\\
196	0.00275438481020861\\
197	0.00226371025778236\\
198	0.00244154195375517\\
199	0.000696892092089032\\
};
\addlegendentry{$\mathbf{\hat{h}_{1}}$}

\addplot [color=mycolor2]
  table[row sep=crcr]{%
0	0.000294409895685167\\
1	0.000801430592392323\\
2	0.000818803393074867\\
3	0.00106639287299499\\
4	0.000535288714570871\\
5	0.000717430531591569\\
6	0.00104674521009741\\
7	0.000654509363823847\\
8	0.00113339055068035\\
9	0.000653781273543427\\
10	0.00143388793325866\\
11	0.000624181502694275\\
12	0.000916605956244232\\
13	0.000696712377668549\\
14	0.00105130970141921\\
15	0.00100012790596514\\
16	0.000700608701647397\\
17	0.000734318640253548\\
18	0.00121236484517872\\
19	0.00143655373759251\\
20	0.00103781418462289\\
21	0.00116185391003632\\
22	0.00134802029304071\\
23	0.000938420310948538\\
24	0.0015625340073927\\
25	0.00157187168448797\\
26	0.000318646424082129\\
27	0.00027900348531957\\
28	0.000978944431920439\\
29	0.000274492863167672\\
30	0.00107800288495048\\
31	0.000909936440270593\\
32	0.00116673919445093\\
33	0.000884420067462247\\
34	0.00162500364225829\\
35	0.00182827793013977\\
36	0.00156652348414773\\
37	0.00249420794307938\\
38	0.00155823358911734\\
39	0.00105943866154256\\
40	0.00259312134435369\\
41	0.00102131605046304\\
42	0.000731831118582944\\
43	0.00312950978903801\\
44	0.00262601483593517\\
45	0.00169192005668506\\
46	0.00294246252109272\\
47	0.00341920508655128\\
48	0.00262874084245477\\
49	0.00274736624903712\\
50	0.000994576382894404\\
51	0.00143904471584715\\
52	0.00186896331625554\\
53	0.00122173505531914\\
54	0.00235069873275743\\
55	0.00178637502143006\\
56	0.00216912590190597\\
57	0.000310308210856646\\
58	0.0021786908111533\\
59	0.00728990253555213\\
60	0.0203740921443416\\
61	0.0146889410992826\\
62	0.00540908352629792\\
63	0.0359244655479416\\
64	0.0164430795674321\\
65	0.0118348501837498\\
66	0.0126078285440784\\
67	0.00631308321990416\\
68	0.00450834530797251\\
69	0.0041570895724754\\
70	0.00176265922324444\\
71	0.00263387540547243\\
72	0.0052086618686296\\
73	0.0151267312456373\\
74	0.00414205746436341\\
75	0.00471870288115532\\
76	0.0170500280442461\\
77	0.015949590555734\\
78	0.0105698123320688\\
79	0.0343159738045463\\
80	0.0408591218581881\\
81	0.0234661137975785\\
82	0.00896538818371159\\
83	0.0842877007009487\\
84	0.0124738777693068\\
85	0.00600792533479208\\
86	0.0151673810317703\\
87	0.00652235134516994\\
88	0.00768075211156502\\
89	0.00402758689788991\\
90	0.0118729312654784\\
91	0.0145051410630131\\
92	0.00891457041929179\\
93	0.0102285334486628\\
94	0.00774081826309552\\
95	0.00624327976450877\\
96	0.0379701324755892\\
97	0.0196681360015735\\
98	0.00388133222944403\\
99	0.982494242789904\\
100	0.00388153654910015\\
101	0.0196682497195309\\
102	0.0379728716887078\\
103	0.0062416819535478\\
104	0.00773977888079206\\
105	0.0102259311740299\\
106	0.00890930202073783\\
107	0.0145063773537301\\
108	0.011876429440484\\
109	0.004025824918865\\
110	0.00768600723426864\\
111	0.00652796687589065\\
112	0.0151634907668765\\
113	0.00601015677003467\\
114	0.0124753031726976\\
115	0.0842834014735562\\
116	0.00896472057544092\\
117	0.0234745932467488\\
118	0.040865477101138\\
119	0.0343059322183985\\
120	0.0105763665909571\\
121	0.0159377848280622\\
122	0.0170354313292961\\
123	0.00471538084719417\\
124	0.00414362443423826\\
125	0.0151219907360126\\
126	0.00522032189811118\\
127	0.00262022941713237\\
128	0.00177200616069194\\
129	0.00418169862238534\\
130	0.00451226182691192\\
131	0.00629919853952206\\
132	0.0126042897838093\\
133	0.0118372178814087\\
134	0.0164470599168591\\
135	0.0359011876120727\\
136	0.00538561919789467\\
137	0.0146847423051693\\
138	0.0203770727428609\\
139	0.00727258524530871\\
140	0.00216524068459873\\
141	0.000296452284893272\\
142	0.00217904458689964\\
143	0.00179910400468535\\
144	0.00234088481730569\\
145	0.00122967457147058\\
146	0.00186422698860599\\
147	0.00145009764142775\\
148	0.000981704398644218\\
149	0.00272716826750405\\
150	0.00262664520209065\\
151	0.0034425101178636\\
152	0.00296132499001293\\
153	0.00168142242192495\\
154	0.00262331772471641\\
155	0.00313018918371989\\
156	0.000761285542559646\\
157	0.00105420475415442\\
158	0.00259824894269185\\
159	0.00107472862048983\\
160	0.00156498039297055\\
161	0.00249602029283255\\
162	0.00159654468949941\\
163	0.00184654695010855\\
164	0.00160820708616466\\
165	0.000881769444110279\\
166	0.00116753953156128\\
167	0.00088535672916655\\
168	0.0010823385624903\\
169	0.000260046285024998\\
170	0.00098008007245294\\
171	0.000273247816206505\\
172	0.000310166511638562\\
173	0.00160375572137579\\
174	0.0015948004295669\\
175	0.000963174510652372\\
176	0.00135514730688622\\
177	0.00116904870422968\\
178	0.00107490120754815\\
179	0.00142839891497592\\
180	0.00117592502294214\\
181	0.000792089626096054\\
182	0.000694017673734616\\
183	0.000982206691129472\\
184	0.00106087406944572\\
185	0.00069664625756655\\
186	0.000892811524522337\\
187	0.000595663320909238\\
188	0.00151429029843745\\
189	0.000660542902361031\\
190	0.00114320779859073\\
191	0.000749008880535305\\
192	0.00108333557233994\\
193	0.000809554981041822\\
194	0.00050024824962277\\
195	0.00116749721008059\\
196	0.000823940492236929\\
197	0.00089376539691208\\
198	0.000353883026928477\\
199	0.00125463966598563\\
};
\addlegendentry{$\mathbf{\hat{h}_{2}}$}

\end{axis}
\end{tikzpicture}%