% This file was created by matlab2tikz.
%
%The latest updates can be retrieved from
%  http://www.mathworks.com/matlabcentral/fileexchange/22022-matlab2tikz-matlab2tikz
%where you can also make suggestions and rate matlab2tikz.
%
\definecolor{mycolor1}{rgb}{0.00000,0.44700,0.74100}%
\definecolor{mycolor2}{rgb}{0.85000,0.32500,0.09800}%
%
\begin{tikzpicture}

\begin{axis}[%
width=1.952in,
height=3.2in,
at={(0.758in,0.512in)},
scale only axis,
xmin=0,
xmax=20,
xlabel style={font=\color{white!15!black}, align=center},
xlabel={Sample Index\\[1ex](a) Actual},
ymin=0,
ymax=0.9,
axis background/.style={fill=white},
legend style={legend cell align=left, align=left, draw=white!15!black}
]
\addplot [color=mycolor1]
  table[row sep=crcr]{%
1	0.0444337104356374\\
2	0.738127803558165\\
3	0.357839506790865\\
4	0.481268775571525\\
5	0.10955194752004\\
6	0.267783168107473\\
7	0.0769544524124665\\
8	0.0372836026936495\\
9	0.027789744685169\\
10	0.0196434178633453\\
11	0.0212138243269196\\
12	0.0147156812719569\\
13	0.0126517206023441\\
14	0.0111331007215966\\
15	0.00994473974674355\\
16	0.00898571135769806\\
17	0.00819466874468931\\
18	0.00753086667278431\\
19	0.00696589032366256\\
20	0.00647923877975415\\
};
\addlegendentry{$\mathbf{h_1}$}

\addplot [color=mycolor2]
  table[row sep=crcr]{%
1	0.0696363384444256\\
2	0.13399148454392\\
3	0.889181852408627\\
4	0.426869408918664\\
5	0.0527923084371181\\
6	0.0393468637154593\\
7	0\\
8	0\\
9	0\\
10	0\\
11	0\\
12	0\\
13	0\\
14	0\\
15	0\\
16	0\\
17	0\\
18	0\\
19	0\\
20	0\\
};
\addlegendentry{$\mathbf{h_{2}}$}

\end{axis}

\begin{axis}[%
width=1.952in,
height=3.2in,
at={(3.327in,0.512in)},
scale only axis,
xmin=0,
xmax=40,
xlabel style={font=\color{white!15!black}, align=center},
xlabel={Sample Index\\[1ex](b) Estimated},
ymin=0,
ymax=1,
axis background/.style={fill=white},
legend style={legend cell align=left, align=left, draw=white!15!black}
]
\addplot [color=mycolor1]
  table[row sep=crcr]{%
0	4.19706592652066e-05\\
1	2.81208034437195e-05\\
2	4.38796924789972e-06\\
3	7.76587780235793e-06\\
4	2.56737430365987e-05\\
5	1.28873838170887e-05\\
6	1.14886506827226e-05\\
7	2.09920697393102e-05\\
8	1.40500809365471e-05\\
9	3.83690183826636e-06\\
10	1.53596993704991e-05\\
11	0.0042427695793729\\
12	0.0132141615035719\\
13	0.0180952120658685\\
14	0.0296168890504325\\
15	0.0401157748995042\\
16	0.192302335516463\\
17	0.164649811362956\\
18	0.777310779399466\\
19	0.238436480479037\\
20	0.376647010643804\\
21	0.272994682019933\\
22	0.17458535606622\\
23	0.15210327704147\\
24	0.0233063851776316\\
25	0.0223179850708553\\
26	0.0177378836243636\\
27	0.0190661618994928\\
28	0.0104012218298594\\
29	0.00111614602237808\\
30	1.6334070562474e-05\\
31	0.000733148755829664\\
32	0.000199584513753192\\
33	3.6749316838079e-05\\
34	2.27181200560199e-05\\
35	6.43788701094211e-05\\
36	0.00240570823416434\\
37	1.61734347332843e-05\\
38	3.2148637733601e-05\\
39	3.76550558752093e-05\\
};
\addlegendentry{$\mathbf{\hat{h}_{1}}$}

\addplot [color=mycolor2]
  table[row sep=crcr]{%
0	5.55977355784607e-06\\
1	2.06540801633413e-05\\
2	2.25348539293695e-05\\
3	1.18472320116997e-05\\
4	3.08026377841927e-05\\
5	4.10792138628605e-05\\
6	0.000165927589404759\\
7	0.000873629091797478\\
8	0.00184946153449958\\
9	0.00415420562214602\\
10	0.00727949419623258\\
11	0.010316029519351\\
12	0.018060091296417\\
13	0.0142324304818251\\
14	0.0491649622266305\\
15	0.069808376651867\\
16	0.0726338783185043\\
17	0.169085768893655\\
18	0.035664731688846\\
19	0.954820359500784\\
20	0.0348441866904042\\
21	0.171810605467295\\
22	0.0741209581443348\\
23	0.0731216305184547\\
24	0.0502463737677412\\
25	0.0173144616146117\\
26	0.0215660046186109\\
27	0.0119208884379797\\
28	0.0101135648973157\\
29	0.00632119669400658\\
30	0.00403344531737021\\
31	0.00286772179264027\\
32	0.00194577185975813\\
33	0.00179899364986967\\
34	0.00112908160575334\\
35	1.93856865803377e-05\\
36	3.51431743504014e-05\\
37	2.51477182578676e-05\\
38	9.48905034618152e-06\\
39	3.5028424813435e-05\\
};
\addlegendentry{$\mathbf{\hat{h}_{2}}$}

\end{axis}
\end{tikzpicture}%