Var1 Var2 Var3 Var4 Var5 Var6 Var7 Var8 Var9 Var10 Var11 Var12 Var13 Var14 Var15 Var16 Var17
Special_Message & Sample_Rate & Algorithm & Actual_Dist_m & Estimate_m & Min_Est_m & Median_Est_m & Max_Est_m & Error_m
"TF-1: Ideal" & "20 MHz" & AED & 21.7721347305388 & 15 & 0 & 15 & 30 & 6.77213473053879
"TF-1: Ideal" & "20 MHz" & ModAED & 21.7721347305388 & 14.2857142857143 & 0 & 15 & 30 & 7.4864204448245
"TF-1: Ideal" & "20 MHz" & ModAEDS & 21.7721347305388 & 14.2857142857143 & 0 & 15 & 30 & 7.4864204448245
"TF-1: Ideal" & "100 MHz" & AED & 21.7721347305388 & 15.4285714285714 & 6 & 18 & 36 & 6.34356330196736
"TF-1: Ideal" & "100 MHz" & ModAED & 21.7721347305388 & 16.8571428571429 & 6 & 18 & 36 & 4.91499187339593
"TF-1: Ideal" & "100 MHz" & ModAEDS & 21.7721347305388 & 16.8571428571429 & 6 & 18 & 36 & 4.91499187339593
"TF-1: Ideal" & "150 MHz" & AED & 21.7721347305388 & 17.1428571428571 & 8 & 18 & 36 & 4.62927758768165
"TF-1: Ideal" & "150 MHz" & ModAED & 21.7721347305388 & 16.6666666666667 & 8 & 18 & 36 & 5.10546806387212
"TF-1: Ideal" & "150 MHz" & ModAEDS & 21.7721347305388 & 16.6666666666667 & 8 & 18 & 36 & 5.10546806387212
"TF-1: Ideal" & "200 MHz" & AED & 21.7721347305388 & 12.9285714285714 & 7.5 & 15 & 19.5 & 8.84356330196736
"TF-1: Ideal" & "200 MHz" & ModAED & 21.7721347305388 & 13.5 & 7.5 & 15 & 19.5 & 8.27213473053879
"TF-1: Ideal" & "200 MHz" & ModAEDS & 21.7721347305388 & 14.0714285714286 & 7.5 & 16.5 & 19.5 & 7.70070615911022
"TF-1: Narrowband" & "20 MHz" & AED & 21.7721347305388 & 2.85714285714286 & 0 & 0 & 60 & 18.9149918733959
"TF-1: Narrowband" & "20 MHz" & ModAED & 21.7721347305388 & 2.85714285714286 & 0 & 0 & 60 & 18.9149918733959
"TF-1: Narrowband" & "20 MHz" & ModAEDS & 21.7721347305388 & 2.85714285714286 & 0 & 0 & 60 & 18.9149918733959
"TF-1: Narrowband" & "100 MHz" & AED & 21.7721347305388 & 5.71428571428571 & 0 & 0 & 60 & 16.0578490162531
"TF-1: Narrowband" & "100 MHz" & ModAED & 21.7721347305388 & 5.71428571428571 & 0 & 0 & 60 & 16.0578490162531
"TF-1: Narrowband" & "100 MHz" & ModAEDS & 21.7721347305388 & 5.71428571428571 & 0 & 0 & 60 & 16.0578490162531
"TF-1: Narrowband" & "150 MHz" & AED & 21.7721347305388 & 2.85714285714286 & 0 & 0 & 60 & 18.9149918733959
"TF-1: Narrowband" & "150 MHz" & ModAED & 21.7721347305388 & 2.85714285714286 & 0 & 0 & 60 & 18.9149918733959
"TF-1: Narrowband" & "150 MHz" & ModAEDS & 21.7721347305388 & 2.85714285714286 & 0 & 0 & 60 & 18.9149918733959
"TF-1: Narrowband" & "200 MHz" & AED & 21.7721347305388 & 2.85714285714286 & 0 & 0 & 60 & 18.9149918733959
"TF-1: Narrowband" & "200 MHz" & ModAED & 21.7721347305388 & 2.85714285714286 & 0 & 0 & 60 & 18.9149918733959
"TF-1: Narrowband" & "200 MHz" & ModAEDS & 21.7721347305388 & 5.71428571428571 & 0 & 0 & 60 & 16.0578490162531
"TF-1: Noisy" & "20 MHz" & AED & 21.7721347305388 & 15 & 0 & 15 & 30 & 6.77213473053879
"TF-1: Noisy" & "20 MHz" & ModAED & 21.7721347305388 & 14.2857142857143 & 0 & 15 & 30 & 7.4864204448245
"TF-1: Noisy" & "20 MHz" & ModAEDS & 21.7721347305388 & 14.2857142857143 & 0 & 15 & 30 & 7.4864204448245
"TF-1: Noisy" & "100 MHz" & AED & 21.7721347305388 & 15.4285714285714 & 6 & 18 & 36 & 6.34356330196736
"TF-1: Noisy" & "100 MHz" & ModAED & 21.7721347305388 & 16.8571428571429 & 6 & 18 & 36 & 4.91499187339593
"TF-1: Noisy" & "100 MHz" & ModAEDS & 21.7721347305388 & 16.8571428571429 & 6 & 18 & 36 & 4.91499187339593
"TF-1: Noisy" & "150 MHz" & AED & 21.7721347305388 & 17.1428571428571 & 8 & 18 & 36 & 4.62927758768165
"TF-1: Noisy" & "150 MHz" & ModAED & 21.7721347305388 & 16.6666666666667 & 8 & 18 & 36 & 5.10546806387212
"TF-1: Noisy" & "150 MHz" & ModAEDS & 21.7721347305388 & 16.6666666666667 & 8 & 18 & 36 & 5.10546806387212
"TF-1: Noisy" & "200 MHz" & AED & 21.7721347305388 & 12.9285714285714 & 7.5 & 15 & 19.5 & 8.84356330196736
"TF-1: Noisy" & "200 MHz" & ModAED & 21.7721347305388 & 13.5 & 7.5 & 15 & 19.5 & 8.27213473053879
"TF-1: Noisy" & "200 MHz" & ModAEDS & 21.7721347305388 & 14.0714285714286 & 7.5 & 16.5 & 19.5 & 7.70070615911022
"TF-1: Less Samples" & "20 MHz" & AED & 21.7721347305388 & 14.2857142857143 & 0 & 15 & 30 & 7.4864204448245
"TF-1: Less Samples" & "20 MHz" & ModAED & 21.7721347305388 & 14.2857142857143 & 0 & 15 & 30 & 7.4864204448245
"TF-1: Less Samples" & "20 MHz" & ModAEDS & 21.7721347305388 & 14.2857142857143 & 0 & 15 & 30 & 7.4864204448245
"TF-1: Less Samples" & "100 MHz" & AED & 21.7721347305388 & 16.8571428571429 & 6 & 18 & 36 & 4.91499187339593
"TF-1: Less Samples" & "100 MHz" & ModAED & 21.7721347305388 & 17.4285714285714 & 6 & 18 & 36 & 4.34356330196736
"TF-1: Less Samples" & "100 MHz" & ModAEDS & 21.7721347305388 & 17.4285714285714 & 6 & 18 & 36 & 4.34356330196736
"TF-1: Less Samples" & "150 MHz" & AED & 21.7721347305388 & 15.4285714285714 & 8 & 18 & 20 & 6.34356330196736
"TF-1: Less Samples" & "150 MHz" & ModAED & 21.7721347305388 & 16.1904761904762 & 8 & 18 & 36 & 5.5816585400626
"TF-1: Less Samples" & "150 MHz" & ModAEDS & 21.7721347305388 & 15.4285714285714 & 8 & 18 & 20 & 6.34356330196736
"TF-1: Less Samples" & "200 MHz" & AED & 21.7721347305388 & 14.4285714285714 & 7.5 & 16.5 & 19.5 & 7.34356330196736
"TF-1: Less Samples" & "200 MHz" & ModAED & 21.7721347305388 & 14.4285714285714 & 7.5 & 16.5 & 19.5 & 7.34356330196736
"TF-1: Less Samples" & "200 MHz" & ModAEDS & 21.7721347305388 & 14.4285714285714 & 7.5 & 16.5 & 19.5 & 7.34356330196736
"TF-1: L/2" & "20 MHz" & AED & 21.7721347305388 & NaN & 0 & NaN & 30 & NaN
"TF-1: L/2" & "20 MHz" & ModAED & 21.7721347305388 & NaN & 0 & NaN & 30 & NaN
"TF-1: L/2" & "20 MHz" & ModAEDS & 21.7721347305388 & NaN & 0 & NaN & 30 & NaN
"TF-1: L/2" & "100 MHz" & AED & 21.7721347305388 & 15.4285714285714 & 6 & 18 & 36 & 6.34356330196736
"TF-1: L/2" & "100 MHz" & ModAED & 21.7721347305388 & 16.8571428571429 & 6 & 18 & 36 & 4.91499187339593
"TF-1: L/2" & "100 MHz" & ModAEDS & 21.7721347305388 & 16.8571428571429 & 6 & 18 & 36 & 4.91499187339593
"TF-1: L/2" & "150 MHz" & AED & 21.7721347305388 & 17.1428571428571 & 8 & 18 & 36 & 4.62927758768165
"TF-1: L/2" & "150 MHz" & ModAED & 21.7721347305388 & 16.6666666666667 & 8 & 18 & 36 & 5.10546806387212
"TF-1: L/2" & "150 MHz" & ModAEDS & 21.7721347305388 & 16.6666666666667 & 8 & 18 & 36 & 5.10546806387212
"TF-1: L/2" & "200 MHz" & AED & 21.7721347305388 & 12.9285714285714 & 7.5 & 15 & 19.5 & 8.84356330196736
"TF-1: L/2" & "200 MHz" & ModAED & 21.7721347305388 & 13.5 & 7.5 & 15 & 19.5 & 8.27213473053879
"TF-1: L/2" & "200 MHz" & ModAEDS & 21.7721347305388 & 14.0714285714286 & 7.5 & 16.5 & 19.5 & 7.70070615911022
"TF-1: L-10 " & "20 MHz" & AED & 21.7721347305388 & NaN & 0 & NaN & 30 & NaN
"TF-1: L-10 " & "20 MHz" & ModAED & 21.7721347305388 & NaN & 0 & NaN & 30 & NaN
"TF-1: L-10 " & "20 MHz" & ModAEDS & 21.7721347305388 & NaN & 0 & NaN & 30 & NaN
"TF-1: L-10 " & "100 MHz" & AED & 21.7721347305388 & 15.4285714285714 & 6 & 18 & 36 & 6.34356330196736
"TF-1: L-10 " & "100 MHz" & ModAED & 21.7721347305388 & 16.8571428571429 & 6 & 18 & 36 & 4.91499187339593
"TF-1: L-10 " & "100 MHz" & ModAEDS & 21.7721347305388 & 16.8571428571429 & 6 & 18 & 36 & 4.91499187339593
"TF-1: L-10 " & "150 MHz" & AED & 21.7721347305388 & 17.1428571428571 & 8 & 18 & 36 & 4.62927758768165
"TF-1: L-10 " & "150 MHz" & ModAED & 21.7721347305388 & 16.6666666666667 & 8 & 18 & 36 & 5.10546806387212
"TF-1: L-10 " & "150 MHz" & ModAEDS & 21.7721347305388 & 16.6666666666667 & 8 & 18 & 36 & 5.10546806387212
"TF-1: L-10 " & "200 MHz" & AED & 21.7721347305388 & 12.9285714285714 & 7.5 & 15 & 19.5 & 8.84356330196736
"TF-1: L-10 " & "200 MHz" & ModAED & 21.7721347305388 & 14.0714285714286 & 7.5 & 16.5 & 19.5 & 7.70070615911022
"TF-1: L-10 " & "200 MHz" & ModAEDS & 21.7721347305388 & 14.0714285714286 & 7.5 & 16.5 & 19.5 & 7.70070615911022
"TF-1: 2*L" & "20 MHz" & AED & 21.7721347305388 & 15 & 0 & 15 & 30 & 6.77213473053879
"TF-1: 2*L" & "20 MHz" & ModAED & 21.7721347305388 & 14.2857142857143 & 0 & 15 & 30 & 7.4864204448245
"TF-1: 2*L" & "20 MHz" & ModAEDS & 21.7721347305388 & 14.2857142857143 & 0 & 15 & 30 & 7.4864204448245
"TF-1: 2*L" & "100 MHz" & AED & 21.7721347305388 & 15.4285714285714 & 6 & 18 & 36 & 6.34356330196736
"TF-1: 2*L" & "100 MHz" & ModAED & 21.7721347305388 & 16.8571428571429 & 6 & 18 & 36 & 4.91499187339593
"TF-1: 2*L" & "100 MHz" & ModAEDS & 21.7721347305388 & 16.8571428571429 & 6 & 18 & 36 & 4.91499187339593
"TF-1: 2*L" & "150 MHz" & AED & 21.7721347305388 & 17.1428571428571 & 8 & 18 & 36 & 4.62927758768165
"TF-1: 2*L" & "150 MHz" & ModAED & 21.7721347305388 & 16.1904761904762 & 8 & 18 & 36 & 5.5816585400626
"TF-1: 2*L" & "150 MHz" & ModAEDS & 21.7721347305388 & 16.1904761904762 & 8 & 18 & 36 & 5.5816585400626
"TF-1: 2*L" & "200 MHz" & AED & 21.7721347305388 & 12.9285714285714 & 7.5 & 15 & 19.5 & 8.84356330196736
"TF-1: 2*L" & "200 MHz" & ModAED & 21.7721347305388 & 14.0714285714286 & 7.5 & 16.5 & 19.5 & 7.70070615911022
"TF-1: 2*L" & "200 MHz" & ModAEDS & 21.7721347305388 & 14.0714285714286 & 7.5 & 16.5 & 19.5 & 7.70070615911022
"TF-1: L+10" & "20 MHz" & AED & 21.7721347305388 & 15 & 0 & 15 & 30 & 6.77213473053879
"TF-1: L+10" & "20 MHz" & ModAED & 21.7721347305388 & 14.2857142857143 & 0 & 15 & 30 & 7.4864204448245
"TF-1: L+10" & "20 MHz" & ModAEDS & 21.7721347305388 & 14.2857142857143 & 0 & 15 & 30 & 7.4864204448245
"TF-1: L+10" & "100 MHz" & AED & 21.7721347305388 & 15.4285714285714 & 6 & 18 & 36 & 6.34356330196736
"TF-1: L+10" & "100 MHz" & ModAED & 21.7721347305388 & 16.8571428571429 & 6 & 18 & 36 & 4.91499187339593
"TF-1: L+10" & "100 MHz" & ModAEDS & 21.7721347305388 & 16.8571428571429 & 6 & 18 & 36 & 4.91499187339593
"TF-1: L+10" & "150 MHz" & AED & 21.7721347305388 & 17.1428571428571 & 8 & 18 & 36 & 4.62927758768165
"TF-1: L+10" & "150 MHz" & ModAED & 21.7721347305388 & 16.6666666666667 & 8 & 18 & 36 & 5.10546806387212
"TF-1: L+10" & "150 MHz" & ModAEDS & 21.7721347305388 & 16.6666666666667 & 8 & 18 & 36 & 5.10546806387212
"TF-1: L+10" & "200 MHz" & AED & 21.7721347305388 & 12.9285714285714 & 7.5 & 15 & 19.5 & 8.84356330196736
"TF-1: L+10" & "200 MHz" & ModAED & 21.7721347305388 & 13.5 & 7.5 & 15 & 19.5 & 8.27213473053879
"TF-1: L+10" & "200 MHz" & ModAEDS & 21.7721347305388 & 14.0714285714286 & 7.5 & 16.5 & 19.5 & 7.70070615911022
"TF-1: Random Start" & "20 MHz" & AED & 21.7721347305388 & 125.714285714286 & 0 & 135 & 300 & 103.942150983747
"TF-1: Random Start" & "20 MHz" & ModAED & 21.7721347305388 & 189.285714285714 & 15 & 195 & 405 & 167.513579555175
"TF-1: Random Start" & "20 MHz" & ModAEDS & 21.7721347305388 & 189.285714285714 & 15 & 195 & 405 & 167.513579555175
"TF-1: Random Start" & "100 MHz" & AED & 21.7721347305388 & 64.2857142857143 & 6 & 30 & 258 & 42.5135795551755
"TF-1: Random Start" & "100 MHz" & ModAED & 21.7721347305388 & 138.714285714286 & 3 & 135 & 321 & 116.942150983747
"TF-1: Random Start" & "100 MHz" & ModAEDS & 21.7721347305388 & 149.571428571429 & 3 & 147 & 321 & 127.79929384089
"TF-1: Random Start" & "150 MHz" & AED & 21.7721347305388 & 50.6666666666667 & 0 & 18 & 202 & 28.8945319361279
"TF-1: Random Start" & "150 MHz" & ModAED & 21.7721347305388 & 122.952380952381 & 6 & 126 & 258 & 101.180246221842
"TF-1: Random Start" & "150 MHz" & ModAEDS & 21.7721347305388 & 119.333333333333 & 6 & 112 & 258 & 97.5611986027945
"TF-1: Random Start" & "200 MHz" & AED & 21.7721347305388 & 71.1428571428571 & 9 & 66 & 201 & 49.3707224123184
"TF-1: Random Start" & "200 MHz" & ModAED & 21.7721347305388 & 85.7142857142857 & 0 & 69 & 295.5 & 63.9421509837469
"TF-1: Random Start" & "200 MHz" & ModAEDS & 21.7721347305388 & 85.7142857142857 & 0 & 69 & 295.5 & 63.9421509837469
"TF-2: Ideal" & "20 MHz" & AED & 21.7721347305388 & 18.5714285714286 & 0 & 15 & 30 & 3.20070615911022
"TF-2: Ideal" & "20 MHz" & ModAED & 21.7721347305388 & 18.5714285714286 & 0 & 15 & 30 & 3.20070615911022
"TF-2: Ideal" & "20 MHz" & ModAEDS & 21.7721347305388 & 18.5714285714286 & 0 & 15 & 30 & 3.20070615911022
"TF-2: Ideal" & "100 MHz" & AED & 21.7721347305388 & 21.7142857142857 & 6 & 24 & 33 & 0.0578490162530727
"TF-2: Ideal" & "100 MHz" & ModAED & 21.7721347305388 & 21.8571428571429 & 6 & 24 & 33 & 0.0850081266040696
"TF-2: Ideal" & "100 MHz" & ModAEDS & 21.7721347305388 & 21.8571428571429 & 6 & 24 & 33 & 0.0850081266040696
"TF-2: Ideal" & "150 MHz" & AED & 21.7721347305388 & 18.1904761904762 & 4 & 18 & 34 & 3.5816585400626
"TF-2: Ideal" & "150 MHz" & ModAED & 21.7721347305388 & 19.8095238095238 & 4 & 20 & 34 & 1.96261092101498
"TF-2: Ideal" & "150 MHz" & ModAEDS & 21.7721347305388 & 19.8095238095238 & 4 & 20 & 34 & 1.96261092101498
"TF-2: Ideal" & "200 MHz" & AED & 21.7721347305388 & 19.7857142857143 & 4.5 & 22.5 & 34.5 & 1.9864204448245
"TF-2: Ideal" & "200 MHz" & ModAED & 21.7721347305388 & 19.3571428571429 & 4.5 & 19.5 & 34.5 & 2.41499187339593
"TF-2: Ideal" & "200 MHz" & ModAEDS & 21.7721347305388 & 19.3571428571429 & 4.5 & 19.5 & 34.5 & 2.41499187339593
"TF-2: Narrowband" & "20 MHz" & AED & 21.7721347305388 & 17.1428571428571 & 0 & 0 & 60 & 4.62927758768165
"TF-2: Narrowband" & "20 MHz" & ModAED & 21.7721347305388 & 17.1428571428571 & 0 & 0 & 60 & 4.62927758768165
"TF-2: Narrowband" & "20 MHz" & ModAEDS & 21.7721347305388 & 17.1428571428571 & 0 & 0 & 60 & 4.62927758768165
"TF-2: Narrowband" & "100 MHz" & AED & 21.7721347305388 & 17.1428571428571 & 0 & 0 & 60 & 4.62927758768165
"TF-2: Narrowband" & "100 MHz" & ModAED & 21.7721347305388 & 17.1428571428571 & 0 & 0 & 60 & 4.62927758768165
"TF-2: Narrowband" & "100 MHz" & ModAEDS & 21.7721347305388 & 17.1428571428571 & 0 & 0 & 60 & 4.62927758768165
"TF-2: Narrowband" & "150 MHz" & AED & 21.7721347305388 & 14.2857142857143 & 0 & 0 & 60 & 7.4864204448245
"TF-2: Narrowband" & "150 MHz" & ModAED & 21.7721347305388 & 14.2857142857143 & 0 & 0 & 60 & 7.4864204448245
"TF-2: Narrowband" & "150 MHz" & ModAEDS & 21.7721347305388 & 14.2857142857143 & 0 & 0 & 60 & 7.4864204448245
"TF-2: Narrowband" & "200 MHz" & AED & 21.7721347305388 & 14.2857142857143 & 0 & 0 & 60 & 7.4864204448245
"TF-2: Narrowband" & "200 MHz" & ModAED & 21.7721347305388 & 14.2857142857143 & 0 & 0 & 60 & 7.4864204448245
"TF-2: Narrowband" & "200 MHz" & ModAEDS & 21.7721347305388 & 14.2857142857143 & 0 & 0 & 60 & 7.4864204448245
"TF-2: Noisy" & "20 MHz" & AED & 21.7721347305388 & 18.5714285714286 & 0 & 15 & 30 & 3.20070615911022
"TF-2: Noisy" & "20 MHz" & ModAED & 21.7721347305388 & 18.5714285714286 & 0 & 15 & 30 & 3.20070615911022
"TF-2: Noisy" & "20 MHz" & ModAEDS & 21.7721347305388 & 18.5714285714286 & 0 & 15 & 30 & 3.20070615911022
"TF-2: Noisy" & "100 MHz" & AED & 21.7721347305388 & 21.7142857142857 & 6 & 24 & 33 & 0.0578490162530727
"TF-2: Noisy" & "100 MHz" & ModAED & 21.7721347305388 & 21.8571428571429 & 6 & 24 & 33 & 0.0850081266040696
"TF-2: Noisy" & "100 MHz" & ModAEDS & 21.7721347305388 & 21.8571428571429 & 6 & 24 & 33 & 0.0850081266040696
"TF-2: Noisy" & "150 MHz" & AED & 21.7721347305388 & 18.1904761904762 & 4 & 18 & 34 & 3.5816585400626
"TF-2: Noisy" & "150 MHz" & ModAED & 21.7721347305388 & 19.8095238095238 & 4 & 20 & 34 & 1.96261092101498
"TF-2: Noisy" & "150 MHz" & ModAEDS & 21.7721347305388 & 19.8095238095238 & 4 & 20 & 34 & 1.96261092101498
"TF-2: Noisy" & "200 MHz" & AED & 21.7721347305388 & 19.7857142857143 & 4.5 & 22.5 & 34.5 & 1.9864204448245
"TF-2: Noisy" & "200 MHz" & ModAED & 21.7721347305388 & 19.3571428571429 & 4.5 & 19.5 & 34.5 & 2.41499187339593
"TF-2: Noisy" & "200 MHz" & ModAEDS & 21.7721347305388 & 19.3571428571429 & 4.5 & 19.5 & 34.5 & 2.41499187339593
"TF-2: Less Samples" & "20 MHz" & AED & 21.7721347305388 & 19.2857142857143 & 0 & 15 & 30 & 2.4864204448245
"TF-2: Less Samples" & "20 MHz" & ModAED & 21.7721347305388 & 19.2857142857143 & 0 & 15 & 30 & 2.4864204448245
"TF-2: Less Samples" & "20 MHz" & ModAEDS & 21.7721347305388 & 19.2857142857143 & 0 & 15 & 30 & 2.4864204448245
"TF-2: Less Samples" & "100 MHz" & AED & 21.7721347305388 & 20.8571428571429 & 3 & 24 & 33 & 0.91499187339593
"TF-2: Less Samples" & "100 MHz" & ModAED & 21.7721347305388 & 20.8571428571429 & 3 & 24 & 33 & 0.91499187339593
"TF-2: Less Samples" & "100 MHz" & ModAEDS & 21.7721347305388 & 20.8571428571429 & 3 & 24 & 33 & 0.91499187339593
"TF-2: Less Samples" & "150 MHz" & AED & 21.7721347305388 & 18.952380952381 & 4 & 18 & 34 & 2.81975377815784
"TF-2: Less Samples" & "150 MHz" & ModAED & 21.7721347305388 & 18.952380952381 & 4 & 18 & 34 & 2.81975377815784
"TF-2: Less Samples" & "150 MHz" & ModAEDS & 21.7721347305388 & 18.952380952381 & 4 & 18 & 34 & 2.81975377815784
"TF-2: Less Samples" & "200 MHz" & AED & 21.7721347305388 & 19.1428571428571 & 4.5 & 16.5 & 34.5 & 2.62927758768165
"TF-2: Less Samples" & "200 MHz" & ModAED & 21.7721347305388 & 19.1428571428571 & 4.5 & 16.5 & 34.5 & 2.62927758768165
"TF-2: Less Samples" & "200 MHz" & ModAEDS & 21.7721347305388 & 19.1428571428571 & 4.5 & 16.5 & 34.5 & 2.62927758768165
"TF-2: L/2" & "20 MHz" & AED & 21.7721347305388 & 18.5714285714286 & 0 & 15 & 30 & 3.20070615911022
"TF-2: L/2" & "20 MHz" & ModAED & 21.7721347305388 & 18.5714285714286 & 0 & 15 & 30 & 3.20070615911022
"TF-2: L/2" & "20 MHz" & ModAEDS & 21.7721347305388 & 18.5714285714286 & 0 & 15 & 30 & 3.20070615911022
"TF-2: L/2" & "100 MHz" & AED & 21.7721347305388 & 21.7142857142857 & 6 & 24 & 33 & 0.0578490162530727
"TF-2: L/2" & "100 MHz" & ModAED & 21.7721347305388 & 22.2857142857143 & 6 & 24 & 33 & 0.513579555175497
"TF-2: L/2" & "100 MHz" & ModAEDS & 21.7721347305388 & 22.2857142857143 & 6 & 24 & 33 & 0.513579555175497
"TF-2: L/2" & "150 MHz" & AED & 21.7721347305388 & 18.1904761904762 & 4 & 18 & 34 & 3.5816585400626
"TF-2: L/2" & "150 MHz" & ModAED & 21.7721347305388 & 19.8095238095238 & 4 & 20 & 34 & 1.96261092101498
"TF-2: L/2" & "150 MHz" & ModAEDS & 21.7721347305388 & 19.8095238095238 & 4 & 20 & 34 & 1.96261092101498
"TF-2: L/2" & "200 MHz" & AED & 21.7721347305388 & 20 & 4.5 & 22.5 & 34.5 & 1.77213473053879
"TF-2: L/2" & "200 MHz" & ModAED & 21.7721347305388 & 19.6428571428571 & 4.5 & 19.5 & 34.5 & 2.12927758768165
"TF-2: L/2" & "200 MHz" & ModAEDS & 21.7721347305388 & 19.3571428571429 & 4.5 & 19.5 & 34.5 & 2.41499187339593
"TF-2: L-10 " & "20 MHz" & AED & 21.7721347305388 & 18.5714285714286 & 0 & 15 & 30 & 3.20070615911022
"TF-2: L-10 " & "20 MHz" & ModAED & 21.7721347305388 & 18.5714285714286 & 0 & 15 & 30 & 3.20070615911022
"TF-2: L-10 " & "20 MHz" & ModAEDS & 21.7721347305388 & 18.5714285714286 & 0 & 15 & 30 & 3.20070615911022
"TF-2: L-10 " & "100 MHz" & AED & 21.7721347305388 & 21.7142857142857 & 6 & 24 & 33 & 0.0578490162530727
"TF-2: L-10 " & "100 MHz" & ModAED & 21.7721347305388 & 21.8571428571429 & 6 & 24 & 33 & 0.0850081266040696
"TF-2: L-10 " & "100 MHz" & ModAEDS & 21.7721347305388 & 21.8571428571429 & 6 & 24 & 33 & 0.0850081266040696
"TF-2: L-10 " & "150 MHz" & AED & 21.7721347305388 & 18.1904761904762 & 4 & 18 & 34 & 3.5816585400626
"TF-2: L-10 " & "150 MHz" & ModAED & 21.7721347305388 & 19.8095238095238 & 4 & 20 & 34 & 1.96261092101498
"TF-2: L-10 " & "150 MHz" & ModAEDS & 21.7721347305388 & 19.8095238095238 & 4 & 20 & 34 & 1.96261092101498
"TF-2: L-10 " & "200 MHz" & AED & 21.7721347305388 & 19.7857142857143 & 4.5 & 22.5 & 34.5 & 1.9864204448245
"TF-2: L-10 " & "200 MHz" & ModAED & 21.7721347305388 & 19.3571428571429 & 4.5 & 19.5 & 34.5 & 2.41499187339593
"TF-2: L-10 " & "200 MHz" & ModAEDS & 21.7721347305388 & 19.3571428571429 & 4.5 & 19.5 & 34.5 & 2.41499187339593
"TF-2: 2*L" & "20 MHz" & AED & 21.7721347305388 & 18.5714285714286 & 0 & 15 & 30 & 3.20070615911022
"TF-2: 2*L" & "20 MHz" & ModAED & 21.7721347305388 & 18.5714285714286 & 0 & 15 & 30 & 3.20070615911022
"TF-2: 2*L" & "20 MHz" & ModAEDS & 21.7721347305388 & 18.5714285714286 & 0 & 15 & 30 & 3.20070615911022
"TF-2: 2*L" & "100 MHz" & AED & 21.7721347305388 & 21.7142857142857 & 6 & 24 & 33 & 0.0578490162530727
"TF-2: 2*L" & "100 MHz" & ModAED & 21.7721347305388 & 21.8571428571429 & 6 & 24 & 33 & 0.0850081266040696
"TF-2: 2*L" & "100 MHz" & ModAEDS & 21.7721347305388 & 21.8571428571429 & 6 & 24 & 33 & 0.0850081266040696
"TF-2: 2*L" & "150 MHz" & AED & 21.7721347305388 & 18.1904761904762 & 4 & 18 & 34 & 3.5816585400626
"TF-2: 2*L" & "150 MHz" & ModAED & 21.7721347305388 & 19.8095238095238 & 4 & 20 & 34 & 1.96261092101498
"TF-2: 2*L" & "150 MHz" & ModAEDS & 21.7721347305388 & 19.8095238095238 & 4 & 20 & 34 & 1.96261092101498
"TF-2: 2*L" & "200 MHz" & AED & 21.7721347305388 & 19.7857142857143 & 4.5 & 22.5 & 34.5 & 1.9864204448245
"TF-2: 2*L" & "200 MHz" & ModAED & 21.7721347305388 & 19.3571428571429 & 4.5 & 19.5 & 34.5 & 2.41499187339593
"TF-2: 2*L" & "200 MHz" & ModAEDS & 21.7721347305388 & 19.3571428571429 & 4.5 & 19.5 & 34.5 & 2.41499187339593
"TF-2: L+10" & "20 MHz" & AED & 21.7721347305388 & 18.5714285714286 & 0 & 15 & 30 & 3.20070615911022
"TF-2: L+10" & "20 MHz" & ModAED & 21.7721347305388 & 18.5714285714286 & 0 & 15 & 30 & 3.20070615911022
"TF-2: L+10" & "20 MHz" & ModAEDS & 21.7721347305388 & 18.5714285714286 & 0 & 15 & 30 & 3.20070615911022
"TF-2: L+10" & "100 MHz" & AED & 21.7721347305388 & 21.7142857142857 & 6 & 24 & 33 & 0.0578490162530727
"TF-2: L+10" & "100 MHz" & ModAED & 21.7721347305388 & 21.8571428571429 & 6 & 24 & 33 & 0.0850081266040696
"TF-2: L+10" & "100 MHz" & ModAEDS & 21.7721347305388 & 21.8571428571429 & 6 & 24 & 33 & 0.0850081266040696
"TF-2: L+10" & "150 MHz" & AED & 21.7721347305388 & 18.1904761904762 & 4 & 18 & 34 & 3.5816585400626
"TF-2: L+10" & "150 MHz" & ModAED & 21.7721347305388 & 19.8095238095238 & 4 & 20 & 34 & 1.96261092101498
"TF-2: L+10" & "150 MHz" & ModAEDS & 21.7721347305388 & 19.8095238095238 & 4 & 20 & 34 & 1.96261092101498
"TF-2: L+10" & "200 MHz" & AED & 21.7721347305388 & 19.7857142857143 & 4.5 & 22.5 & 34.5 & 1.9864204448245
"TF-2: L+10" & "200 MHz" & ModAED & 21.7721347305388 & 19.3571428571429 & 4.5 & 19.5 & 34.5 & 2.41499187339593
"TF-2: L+10" & "200 MHz" & ModAEDS & 21.7721347305388 & 19.3571428571429 & 4.5 & 19.5 & 34.5 & 2.41499187339593
"TF-2: Random Start" & "20 MHz" & AED & 21.7721347305388 & 90.7142857142857 & 0 & 75 & 285 & 68.9421509837469
"TF-2: Random Start" & "20 MHz" & ModAED & 21.7721347305388 & 172.142857142857 & 15 & 180 & 435 & 150.370722412318
"TF-2: Random Start" & "20 MHz" & ModAEDS & 21.7721347305388 & 172.142857142857 & 15 & 180 & 435 & 150.370722412318
"TF-2: Random Start" & "100 MHz" & AED & 21.7721347305388 & 72.1428571428571 & 6 & 42 & 186 & 50.3707224123184
"TF-2: Random Start" & "100 MHz" & ModAED & 21.7721347305388 & 121 & 12 & 108 & 246 & 99.2278652694612
"TF-2: Random Start" & "100 MHz" & ModAEDS & 21.7721347305388 & 118.857142857143 & 12 & 108 & 246 & 97.0850081266041
"TF-2: Random Start" & "150 MHz" & AED & 21.7721347305388 & 91.3333333333333 & 10 & 94 & 226 & 69.5611986027945
"TF-2: Random Start" & "150 MHz" & ModAED & 21.7721347305388 & 109.714285714286 & 10 & 92 & 228 & 87.9421509837469
"TF-2: Random Start" & "150 MHz" & ModAEDS & 21.7721347305388 & 120.47619047619 & 10 & 92 & 282 & 98.7040557456517
"TF-2: Random Start" & "200 MHz" & AED & 21.7721347305388 & 105.857142857143 & 6 & 115.5 & 234 & 84.0850081266041
"TF-2: Random Start" & "200 MHz" & ModAED & 21.7721347305388 & 117.571428571429 & 9 & 84 & 280.5 & 95.7992938408898
"TF-2: Random Start" & "200 MHz" & ModAEDS & 21.7721347305388 & 114.142857142857 & 9 & 84 & 280.5 & 92.3707224123183y
                
                
                
                
                
                
                
                
                
                
                
                
                
                
                
                
                
                
                
                
                
                
                
                
                
                
                
                
                
                
                
                
                
                
                
                
                
                
                
                
                
                
                
                
                
                
                
                
                
                
                
                
                
                
                
                
                
                
                
                
                
                
                
                
                
                
                
                
                
                
                
                
                
                
                
                
                
                
                
                
                
                
                
                
                
                
                
                
                
                
                
                
                
                
                
                
                
                
                
                
                
                
                
                
                
                
                
                
                
                
                
                
                
                
                
                
                
                
                
                
                
                
                
                
                
                
                
                
                
                
                
                
                
                
                
                
                
                
                
                
                
                
                
                
                
                
                
                
                
                
                
                
                
                
                
                
                
                
                
                
                
                
                
                
                
                
                
                
                
                
                
                
                
                
                
                
                
                
                
                
                
                
                
                
                
                
                
                
                
                
                
                
                
                
                
                
                
                
                
                
                
                
                
                
                
                
                
                
                
                
                
                
                
                
                
                
                
                
                
                
                
                
                
                
                
                
                
                
                
                
                
                
                
                
                
                
                
                
                
                
                
                
                
                
                
                
                
                
                
                
                
                
                
                
                
                
                
                
                
                
                
                
                
                
                
                
                
                
                
                
                
                
                
                
                
                
                
                
                
                
                
                
                
                
                
                
                
                
                
                
                
                
                
                
                
                
                
                
                
                
                
                
                
                
                
                
                
                
                
                
                
                
                
                
                
                
                
                
                
                
                
                
                
                
                
                
                
                
                
                
                
                
                
                
                
                
                
                
                
                
                
                
                
                
                
                
                
                
                
                
                
                
                
                
                
                
                
                
                
                
                
                
                
                
                
                
                
                
                
                
                
                
                
                
                
                
                
                
                
                
                
                
                
                
                
                
                
                
                
                
                
                
                
                
                
                
                
                
                
                
                
                
                
                
                
                
                
                
                
                
                
                
                
                
                
                
                
                
                
                
                
                
                
                
                
                
                
                
                
                
                
                
                
                
                
                
                
                
                
                
                
                
                
                
                
                
                
                
                
                
                
                
                
                
                
                
                
                
                
                
                
                
                
                
                
                
                
                
                
                
                
                
                
                
                
                
                
                
                
                
                
                
                
                
                
                
                
                
                
                
                
                
                
                
                
                
                
                
                
                
                
                
                
                
                
                
                
                
                
                
                
                
                
                
                
                
                
                
                
                
                
                
                
                
                
                
                
                
                
                
                
                
                
                
                
                
                
                
                
                
                
                
                
                
                
                
                
                
                
                
                
                
                
                
                
                
                
                
                
                
                
                
                
                
                
                
                
                
                
                
                
                
                
                
                
                
                
                
                
                
                
                
                
                
                
                
                
                
                
                
                
                
                
                
                
                
                
                
                
                
                
                
                
                
                
                
                
                
                
                
                
                
                
                
                
                
                
                
                
                
                
                
                
                
                
                
                
                
                
                
                
                
                
                
                
                
                
                
                
                
                
                
                
                
                
                
                
                
                
                
                
                
                
                
                
                
                
                
                
                
                
                
                
                
                
                
                
                
                
                
                
                
                
                
                
                
                
                
                
                
                
                
                
                
                
                
                
                
                
                
                
                
                
                
                
                
                
                
                
                
                
                
                
                
                
                
                
                
                
                
                
                
                
                
                
                
                
                
                
                
                
                
                
                
                
                
                
                
                
                
                
                
                
                
                
                
                
                
                
                
                
                
                
                
                
                
                
                
                
                
                
                
                
                
                
                
                
                
                
                
                
                
                
                
                
                
                
                
                
                
                
                
                
                
                
                
                
                
                
                
                
                
                
                
                
                
                
                
                
                
                
                
                
                
                
                
                
                
                
                
                
                
                
                
                
                
                
                
                
                
                
                
                
                
                
                
                
                
                
                
                
                
                
                
                
                
                
                
                
                
                
                
                
                
                
                
                
                
                
                
                
                
                
                
                
                
                
                
                
                
                
                
                
                
                
                
                
                
                
                
                
                
                
                
                
                
                
                
                
                
                
                
                
                
                
                
                
                
                
                
                
                
                
                
                
                
                
                
                
                
                
                
                
                
                
                
                
                
                
                
                
                
                
                
                
                
                
                
                
                
                
                
                
                
                
                
                
                
                
                
                
                
                
                
                
                
                
                
                
                
                
                
                
                
                
                
                
                
                
                
                
                
                
                
                
                
                
                
                
                
                
                
                
                
                
                
                
                
                
                
                
                
                
                
                
                
                
                
                
                
                
                
                
                
                
                
                
                
                
                
                
                
                
                
                
                
                
                
                
                
                
                
                
                
                
                
                
                
                
                
                
                
                
                
                
                
                
                
                
                
                
                
                
                
                
                
                
                
                
                
                
                
                
                
                
                
                
                
                
                
                
                
                
                
                
                
                
                
                
                
                
                
                
                
                
                
                
                
                
                
                
                
                
                
                
                
                
                
                
                
                
                
                
                
                
                
                
                
                
                
                
                
                
                
                
                
                
                
                
                
                
                
                
                
                
                
                
                
                
                
                
                
                
                
                
                
                
                
                
                
                
                
                
                
                
                
                
                
                
                
                
                
                
                
                
                
                
                
                
                
                
                
                
                
                
                
                
                
                
                
                
                
                
                
                
                
                
                
                
                
                
                
                
                
                
                
                
                
                
                
                
                
                
                
                
                
                
                
                
                
                
                
                
                
                
                
                
                
                
                
                
                
                
                
                
                
                
                
                
                
                
                
                
                
                
                
                
                
                
                
                
                
                
                
                
                
                
                
                
                
                
                
                
                
                
                
                
                
                
                
                
                
                
                
                
                
                
                
                
                
                
                
                
                
                
                
                
                
                
                
                
                
                
                
                
                
                
                
                
                
                
                
                
                
                
                
                
                
                
                
                
                
                
                
                
                
                
                
                
                
                
                
                
                
                
                
                
                
                
                
                
                
                
                
                
                
                
                
                
                
                
                
                
                
                
                
                
                
                
                
                
                
                
                
                
                
                
                
                
                
                
                
                
                
                
                
                
                
                
                
                
                
                
                
                
                
                
                
                
                
                
                
                
                
                
                
                
                
                
                
                
                
                
                
                
                
                
                
                
                
                
                
                
                
                
                
                
                
                
                
                
                
                
                
                
                
                
                
                
                
                
                
                
                
                
                
                
                
                
                
                
                
                
                
                
                
                
                
                
                
                
                
                
                
                
                
                
                
                
                
                
                
                
                
                
                
                
                
                
                
                
                
                
                
                
                
                
                
                
                
                
                
                
                
                
                
                
                
                
                
                
                
                
                
                
                
                
                
                
                
                
                
                
                
                
                
                
                
                
                
                
                
                
                
                
                
                
                
                
                
                
                
                
                
                
                
                
                
                
                
                
                
                
                
                
                
                
                
                
                
                
                
                
                
                
                
                
                
                
                
                
                
                
                
                
                
                
                
                
                
                
                
                
                
                
                
                
                
                
                
                
                
                
                
                
                
                
                
                
                
                
                
                
                
                
                
                
                
                
                
                
                
                
                
                
                
                
                
                
                
                
                
                
                
                
                
                
                
                
                
                
                
                
                
                
                
                
                
                
                
                
                
                
                
                
                
                
                
                
                
                
                
                
                
                
                
                
                
                
                
                
                
                
                
                
                
                
                
                
                
                
                
                
                
                
                
                
                
                
                
                
                
                
                
                
                
                
                
                
                
                
                
                
                
                
                
                
                
                
                
                
                
                
                
                
                
                
                
                
                
                
                
                
                
                
                
                
                
                
                
                
                
                
                
                
                
                
                
                
                
                
                
                
                
                
                
                
                
                
                
                
                
                
                
                
                
                
                
                
                
                
                
                
                
                
                
                
                
                
                
                
                
                
                
                
                
                
                
                
                
                
                
                
                
                
                
                
                
                
                
                
                
                
                
                
                
                
                
                
                
                
                
                
                
                
                
                
                
                
                
                
                
                
                
                
                
                
                
                
                
                
                
                
                
                
                
                
                
                
                
                
                
                
                
                
                
                
                
                
                
                
                
                
                
                
                
                
                
                
                
                
                
                
                
                
                
                
                
                
                
                
                
                
                
                
                
                
                
                
                
                
                
                
                
                
                
                
                
                
                
                
                
                
                
                
                
                
                
                
                
                
                
                
                
                
                
                
                
                
                
                
                
                
                
                
                
                
                
                
                
                
                
                
                
                
                
                
                
                
                
                
                
                
                
                
                
                
                
                
                
                
                
                
                
                
                
                
                
                
                
                
                
                
                
                
                
                
                
                
                
                
                
                
                
                
                
                
                
                
                
                
                
                
                
                
                
                
                
                
                
                
                
                
                
                
                
                
                
                
                
                
                
                
                
                
                
                
                
                
                
                
                
                
                
                
                
                
                
                
                
                
                
                
                
                
                
                
                
                
                
                
                
                
                
                
                
                
                
                
                
                
                
                
                
                
                
                
                
                
                
                
                
                
                
                
                
                
                
                
                
                
                
                
                
                
                
                
                
                
                
                
                
                
                
                
                
                
                
                
                
                
                
                
                
                
                
                
                
                
                
                
                
                
                
                
                
                
                
                
                
                
                
                
                
                
                
                
                
                
                
                
                
                
                
                
                
                
                
                
                
                
                
                
                
                
                
                
                
                
                
                
                
                
                
                
                
                
                
                
                
                
                
                
                
                
                
                
                
                
                
                
                
                
                
                
                
                
                
                
                
                
                
                
                
                
                
                
                
                
                
                
                
                
                
                
                
                
                
                
                
                
                
                
                
                
                
                
                
                
                
                
                
                
                
                
                
                
                
                
                
                
                
                
                
                
                
                
                
                
                
                
                
                
                
                
                
                
                
                
                
                
                
                
                
                
                
                
                
                
                
                
                
                
                
                
                
                
                
                
                
                
                
                
                
                
                
                
                
                
                
                
                
                
                
                
                
                
                
                
                
                
                
                
                
                
                
                
                
                
                
                
                
                
                
                
                
                
                
                
                
                
                
                
                
                
                
                
                
                
                
                
                
                
                
                
                
                
                
                
                
                
                
                
                
                
                
                
                
                
                
                
                
                
                
                
                
                
                
                
                
                
                
                
                
                
                
                
                
                
                
                
                
                
                
                
                
                
                
                
                
                
                
                
                
                
                
                
                
                
                
                
                
                
                
                
                
                
                
                
                
                
                
                
                
                
                
                
                
                
                
                
                
                
                
                
                
                
                
                
                
                
                
                
                
                
                
                
                
                
                
                
                
                
                
                
                
                
                
                
                
                
                
                
                
                
                
                
                
                
                
                
                
                
                
                
                
                
                
                
                
                
                
                
                
                
                
                
                
                
                
                
                
                
                
                
                
                
                
                
                
                
                
                
                
                
                
                
                
                
                
                
                
                
                
                
                
                
                
                
                
                
                
                
                
                
                
                
                
                
                
                
                
                
                
                
                
                
                
                
                
                
                
                
                
                
                
                
                
                
                
                
                
                
                
                
                
                
                
                
                
                
                
                
                
                
                
                
                
                
                
                
                
                
                
                
                
                
                
                
                
                
                
                
                
                
                
                
                
                
                
                
                
                
                
                
                
                
                
                
                
                
                
                
                
                
                
                
                
                
                
                
                
                
                
                
                
                
                
                
                
                
                
                
                
                
                
                
                
                
                
                
                
                
                
                
                
                
                
                
                
                
                
                
                
                
                
                
                
                
                
                
                
                
                
                
                
                
                
                
                
                
                
                
                
                
                
                
                
                
                
                
                
                
                
                
                
                
                
                
                
                
                
                
                
                
                
                
                
                
                
                
                
                
                
                
                
                
                
                
                
                
                
                
                
                
                
                
                
                
                
                
                
                
                
                
                
                
                
                
                
                
                
                
                
                
                
                
                
                
                
                
                
                
                
                
                
                
                
                
                
                
                
                
                
                
                
                
                
                
                
                
                
                
                
                
                
                
                
                
                
                
                
                
                
                
                
                
                
                
                
                
                
                
                
                
                
                
                
                
                
                
                
                
                
                
                
                
                
                
                
                
                
                
                
                
                
                
                
                
                
                
                
                
                
                
                
                
                
                
                
                
                
                
                
                
                
                
                
                
                
                
                
                
                
                
                
                
                
                
                
                
                
                
                
                
                
                
                
                
                
                
                
                
                
                
                
                
                
                
                
                
                
                
                
                
                
                
                
                
                
                
                
                
                
                
                
                
                
                
                
                
                
                
                
                
                
                
                
                
                
                
                
                
                
                
                
                
                
                
                
                
                
                
                
                
                
                
                
                
                
                
                
                
                
                
                
                
                
                
                
                
                
                
                
                
                
                
                
                
                
                
                
                
                
                
                
                
                
                
                
                
                
                
                
                
                
                
                
                
                
                
                
                
                
                
                
                
                
                
                
                
                
                
                
                
                
                
                
                
                
                
                
                
                
                
                
                
                
                
                
                
                
                
                
                
                
                
                
                
                
                
                
                
                
                
                
                
                
                
                
                
                
                
                
                
                
                
                
                
                
                
                
                
                
                
                
                
                
                
                
                
                
                
                
                
                
                
                
                
                
                
                
                
                
                
                
                
                
                
                
                
                
                
                
                
                
                
                
                
                
                
                
                
                
                
                
                
                
                
                
                
                
                
                
                
                
                
                
                
                
                
                
                
                
                
                
                
                
                
                
                
                
                
                
                
                
                
                
                
                
                
                
                
                
                
                
                
                
                
                
                
                
                
                
                
                
                
                
                
                
                
                
                
                
                
                
                
                
                
                
                
                
                
                
                
                
                
                
                
                
                
                
                
                
                
                
                
                
                
                
                
                
                
                
                
                
                
                
                
                
                
                
                
                
                
                
                
                
                
                
                
                
                
                
                
                
                
                
                
                
                
                
                
                
                
                
                
                
                
                
                
                
                
                
                
                
                
                
                
                
                
                
                
                
                
                
                
                
                
                
                
                
                
                
                
                
                
                
                
                
                
                
                
                
                
                
                
                
                
                
                
                
                
                
                
                
                
                
                
                
                
                
                
                
                
                
                
                
                
                
                
                
                
                
                
                
                
                
                
                
                
                
                
                
                
                
                
                
                
                
                
                
                
                
                
                
                
                
                
                
                
                
                
                
                
                
                
                
                
                
                
                
                
                
                
                
                
                
                
                
                
                
                
                
                
                
                
                
                
                
                
                
                
                
                
                
                
                
                
                
                
                
                
                
                
                
                
                
                
                
                
                
                
                
                
                
                
                
                
                
                
                
                
                
                
                
                
                
                
                
                
                
                
                
                
                
                
                
                
                
                
                
                
                
                
                
                
                
                
                
                
                
                
                
                
                
                
                
                
                
                
                
                
                
                
                
                
                
                
                
                
                
                
                
                
                
                
                
                
                
                
                
                
                
                
                
                
                
                
                
                
                
                
                
                
                
                
                
                
                
                
                
                
                
                
                
                
                
                
                
                
                
                
                
                
                
                
                
                
                
                
                
                
                
                
                
                
                
                
                
                
                
                
                
                
                
                
                
                
                
                
                
                
                
                
                
                
                
                
                
                
                
                
                
                
                
                
                
                
                
                
                
                
                
                
                
                
                
                
                
                
                
                
                
                
                
                
                
                
                
                
                
                
                
                
                
                
                
                
                
                
                
                
                
                
                
                
                
                
                
                
                
                
                
                
                
                
                
                
                
                
                
                
                
                
                
                
                
                
                
                
                
                
                
                
                
                
                
