%!PS-Adobe-3.0 EPSF-3.0
%%Title: impulse1.pstex
%%Creator: fig2dev Version 3.2.6a
%%CreationDate: 2020-03-19 16:50:38
%%BoundingBox: 0 0 115 18
%Magnification: 1.0000
%%EndComments
%%BeginProlog
/$F2psDict 200 dict def
$F2psDict begin
$F2psDict /mtrx matrix put
/col-1 {0 setgray} bind def
/col0 {0.000 0.000 0.000 srgb} bind def
/col1 {0.000 0.000 1.000 srgb} bind def
/col7 {1.000 1.000 1.000 srgb} bind def

end

/cp {closepath} bind def
/ef {eofill} bind def
/gr {grestore} bind def
/gs {gsave} bind def
/sa {save} bind def
/rs {restore} bind def
/l {lineto} bind def
/m {moveto} bind def
/rm {rmoveto} bind def
/n {newpath} bind def
/s {stroke} bind def
/sh {show} bind def
/slc {setlinecap} bind def
/slj {setlinejoin} bind def
/slw {setlinewidth} bind def
/srgb {setrgbcolor} bind def
/rot {rotate} bind def
/sc {scale} bind def
/sd {setdash} bind def
/ff {findfont} bind def
/sf {setfont} bind def
/scf {scalefont} bind def
/sw {stringwidth} bind def
/tr {translate} bind def
/tnt {dup dup currentrgbcolor
  4 -2 roll dup 1 exch sub 3 -1 roll mul add
  4 -2 roll dup 1 exch sub 3 -1 roll mul add
  4 -2 roll dup 1 exch sub 3 -1 roll mul add srgb}
  bind def
/shd {dup dup currentrgbcolor 4 -2 roll mul 4 -2 roll mul
  4 -2 roll mul srgb} bind def
/$F2psBegin {$F2psDict begin /$F2psEnteredState save def} def
/$F2psEnd {$F2psEnteredState restore end} def

/pageheader {
save
newpath 0 18 moveto 0 0 lineto 115 0 lineto 115 18 lineto closepath clip newpath
-78.6 143.4 translate
1 -1 scale
$F2psBegin
10 setmiterlimit
0 slj 0 slc
 0.06299 0.06299 sc
} bind def
/pagefooter {
$F2psEnd
restore
} bind def
%%EndProlog
pageheader
%
% Fig objects follow
%
% 
% here starts figure with depth 50
% Polyline
0 slj
0 slc
7.500 slw
gs  clippath
2153 2018 m 2167 2018 l 2175 2101 l 2145 2101 l cp
eoclip
n 2160 2250 m
 2160 2025 l gs col1 s gr gr

% arrowhead
n 2175 2101 m 2160 2041 l 2145 2101 l 2175 2101 l  cp gs col1 1.00 shd ef gr  col1 s
% Polyline
gs  clippath
3067 2243 m 3067 2257 l 2983 2265 l 3043 2250 l 2983 2235 l cp
1253 2257 m 1253 2243 l 1337 2235 l 1277 2250 l 1337 2265 l cp
eoclip
n 1260 2250 m
 3060 2250 l gs col0 s gr gr

% arrowhead
n 1337 2265 m 1277 2250 l 1337 2235 l  col0 s
% arrowhead
n 2983 2235 m 3043 2250 l 2983 2265 l  col0 s
% here ends figure;
pagefooter
showpage
%%Trailer
%EOF
