% This file was created by matlab2tikz.
%
%The latest updates can be retrieved from
%  http://www.mathworks.com/matlabcentral/fileexchange/22022-matlab2tikz-matlab2tikz
%where you can also make suggestions and rate matlab2tikz.
%
\definecolor{mycolor1}{rgb}{0.00000,0.44700,0.74100}%
%
\begin{tikzpicture}

\begin{axis}[%
width=4.521in,
height=3.566in,
at={(0.758in,0.481in)},
scale only axis,
xmin=-1,
xmax=1,
ymin=0,
ymax=0.07,
axis background/.style={fill=white},
%legend style={legend cell align=left, align=left, draw=white!15!black}
]
\addplot [color=mycolor1]
  table[row sep=crcr]{%
-0.998046875	0.0300950895165465\\
-0.99609375	0.007173283498308\\
-0.994140625	0.00778483046241859\\
-0.9921875	0.0145212256571311\\
-0.990234375	0.0104477724535949\\
-0.98828125	0.0172883559819323\\
-0.986328125	0.0097907393706023\\
-0.984375	0.0273772328923895\\
-0.982421875	0.0126876878690842\\
-0.98046875	0.0233238869435522\\
-0.978515625	0.0229421379517547\\
-0.9765625	0.0431803378165923\\
-0.974609375	0.0120846968711295\\
-0.97265625	0.0254640812223113\\
-0.970703125	0.0195179615160732\\
-0.96875	0.021292480648476\\
-0.966796875	0.0373460500499804\\
-0.96484375	0.0443485048420711\\
-0.962890625	0.0103368453730342\\
-0.9609375	0.00534228231493481\\
-0.958984375	0.0119959971496389\\
-0.95703125	0.0102524938038665\\
-0.955078125	0.00329788757239886\\
-0.953125	0.0255268052038277\\
-0.951171875	0.0220473724726833\\
-0.94921875	0.0261703641935266\\
-0.947265625	0.0295446107105899\\
-0.9453125	0.0204912918449916\\
-0.943359375	0.0310475165791813\\
-0.94140625	0.0117514042772578\\
-0.939453125	0.0564539028305017\\
-0.9375	0.0319219266451013\\
-0.935546875	0.0123797095784463\\
-0.93359375	0.0330911337799315\\
-0.931640625	0.0083130448280065\\
-0.9296875	0.0177483321267813\\
-0.927734375	0.0596755610038715\\
-0.92578125	0.0214625214895975\\
-0.923828125	0.0514736050498294\\
-0.921875	0.0139344165003822\\
-0.919921875	0.016293460226153\\
-0.91796875	0.0255438715313853\\
-0.916015625	0.0299605467536933\\
-0.9140625	0.0200385667017232\\
-0.912109375	0.0223109513760067\\
-0.91015625	0.0309087931464428\\
-0.908203125	0.0307526959970434\\
-0.90625	0.0639719289985661\\
-0.904296875	0.0266049749199107\\
-0.90234375	0.0407150476115323\\
-0.900390625	0.0253003103347002\\
-0.8984375	0.012847231809852\\
-0.896484375	0.0110952101398453\\
-0.89453125	0.0232407383630526\\
-0.892578125	0.0130331770752483\\
-0.890625	0.0333028748963658\\
-0.888671875	0.0194188606227538\\
-0.88671875	0.0445913248855166\\
-0.884765625	0.00411398143782362\\
-0.8828125	0.0182406241301289\\
-0.880859375	0.0355657127807099\\
-0.87890625	0.0247366373315279\\
-0.876953125	0.0222130927407708\\
-0.875	0.0201266890688749\\
-0.873046875	0.00716288321340281\\
-0.87109375	0.0150777823076151\\
-0.869140625	0.033881615576683\\
-0.8671875	0.0320182300903663\\
-0.865234375	0.0343070359972474\\
-0.86328125	0.025738542774048\\
-0.861328125	0.0135756177562211\\
-0.859375	0.0326282857709868\\
-0.857421875	0.0329789701548996\\
-0.85546875	0.020950803296757\\
-0.853515625	0.0469723657561787\\
-0.8515625	0.0184735637024016\\
-0.849609375	0.0347569433184108\\
-0.84765625	0.0341010847980975\\
-0.845703125	0.0104942046007029\\
-0.84375	0.0463908357113879\\
-0.841796875	0.0147708133838906\\
-0.83984375	0.0218601525352206\\
-0.837890625	0.0226305652448288\\
-0.8359375	0.0350007035816475\\
-0.833984375	0.00572505191576443\\
-0.83203125	0.0248389578202197\\
-0.830078125	0.0222462681133963\\
-0.828125	0.0227697330785145\\
-0.826171875	0.00624223831491963\\
-0.82421875	0.0154797628954051\\
-0.822265625	0.0176527994852539\\
-0.8203125	0.0309003387056792\\
-0.818359375	0.0301371765469231\\
-0.81640625	0.0418583956665224\\
-0.814453125	0.031941911942607\\
-0.8125	0.0277900390641267\\
-0.810546875	0.0373107040828227\\
-0.80859375	0.0208587519473907\\
-0.806640625	0.0502636927900635\\
-0.8046875	0.012987005031078\\
-0.802734375	0.000561294276645617\\
-0.80078125	0.0136403686815442\\
-0.798828125	0.0200586934657255\\
-0.796875	0.0168053056716451\\
-0.794921875	0.0385802746732855\\
-0.79296875	0.00852310697488118\\
-0.791015625	0.0354062494284371\\
-0.7890625	0.0180084166379749\\
-0.787109375	0.02600583531941\\
-0.78515625	0.00709975424907024\\
-0.783203125	0.00496124710848339\\
-0.78125	0.0282650237073065\\
-0.779296875	0.0450967590494509\\
-0.77734375	0.0120145913473032\\
-0.775390625	0.0195625177850325\\
-0.7734375	0.0387941900421143\\
-0.771484375	0.00595266783367496\\
-0.76953125	0.0254628483895885\\
-0.767578125	0.0155663112478605\\
-0.765625	0.0107033010379047\\
-0.763671875	0.00245429296785289\\
-0.76171875	0.0308153336480754\\
-0.759765625	0.015810319965363\\
-0.7578125	0.0426665252596945\\
-0.755859375	0.0256055786280958\\
-0.75390625	0.0354459227610048\\
-0.751953125	0.0392916621019232\\
-0.75	0.0164661231274221\\
-0.748046875	0.0256265948141158\\
-0.74609375	0.0195558663495167\\
-0.744140625	0.00529001686638652\\
-0.7421875	0.0197597653448316\\
-0.740234375	0.0180441400574667\\
-0.73828125	0.0146836337265025\\
-0.736328125	0.0238759260770362\\
-0.734375	0.00463777789966923\\
-0.732421875	0.0149368302739987\\
-0.73046875	0.00121850907817604\\
-0.728515625	0.0152650616531766\\
-0.7265625	0.0199577463945928\\
-0.724609375	0.0359408055643558\\
-0.72265625	0.0109475721481571\\
-0.720703125	0.025955196734042\\
-0.71875	0.0250475953171029\\
-0.716796875	0.0335918639912237\\
-0.71484375	0.0113113238991531\\
-0.712890625	0.0173834139128063\\
-0.7109375	0.012575947063215\\
-0.708984375	0.0232017379663955\\
-0.70703125	0.0289477976252557\\
-0.705078125	0.0488095291497083\\
-0.703125	0.0331017168117096\\
-0.701171875	0.0120307264308489\\
-0.69921875	0.0237289245545\\
-0.697265625	0.0255997820407373\\
-0.6953125	0.0158776901481547\\
-0.693359375	0.0123562910344769\\
-0.69140625	0.0308721544825902\\
-0.689453125	0.0354477136561899\\
-0.6875	0.0540362295996525\\
-0.685546875	0.0204091518789471\\
-0.68359375	0.012448859962324\\
-0.681640625	0.0216259288312642\\
-0.6796875	0.0297971681108064\\
-0.677734375	0.0174321219831979\\
-0.67578125	0.0188365060905451\\
-0.673828125	0.0212167063361258\\
-0.671875	0.0136093376351008\\
-0.669921875	0.0200792570982704\\
-0.66796875	0.028990796474245\\
-0.666015625	0.0195509675494845\\
-0.6640625	0.0341639342262212\\
-0.662109375	0.0412382205433716\\
-0.66015625	0.0238967431793499\\
-0.658203125	0.00761716498481358\\
-0.65625	0.0313973203507888\\
-0.654296875	0.0152410903382196\\
-0.65234375	0.023274653376818\\
-0.650390625	0.0501934849558796\\
-0.6484375	0.013823020850792\\
-0.646484375	0.0101148439354999\\
-0.64453125	0.0272537518682809\\
-0.642578125	0.0143611695133223\\
-0.640625	0.0336986824188623\\
-0.638671875	0.0148900185683685\\
-0.63671875	0.0219377684138441\\
-0.634765625	0.0126419280865982\\
-0.6328125	0.0100690487135423\\
-0.630859375	0.00240958989346506\\
-0.62890625	0.036339139333455\\
-0.626953125	0.0358784054060578\\
-0.625	0.0198835104169223\\
-0.623046875	0.0153533718221301\\
-0.62109375	0.0258832745659337\\
-0.619140625	0.013100832407662\\
-0.6171875	0.0126989990987952\\
-0.615234375	0.0140402322968642\\
-0.61328125	0.0496913677543304\\
-0.611328125	0.0213009116126683\\
-0.609375	0.0162389349398264\\
-0.607421875	0.0220011328009433\\
-0.60546875	0.021599666588849\\
-0.603515625	0.0266032414794206\\
-0.6015625	0.0208943579386785\\
-0.599609375	0.0173615877999395\\
-0.59765625	0.0228328393663179\\
-0.595703125	0.0133425720489816\\
-0.59375	0.0266013472685537\\
-0.591796875	0.0336633326150602\\
-0.58984375	0.0189109428196665\\
-0.587890625	0.0343330508867292\\
-0.5859375	0.0546455628736796\\
-0.583984375	0.025246892968006\\
-0.58203125	0.0291012328449087\\
-0.580078125	0.0198103558767409\\
-0.578125	0.0194282718930268\\
-0.576171875	0.0258483570915381\\
-0.57421875	0.0169484496044388\\
-0.572265625	0.011670530555221\\
-0.5703125	0.0171721245842492\\
-0.568359375	0.00745901847921346\\
-0.56640625	0.0270498952129683\\
-0.564453125	0.0339583754899799\\
-0.5625	0.0105527116864246\\
-0.560546875	0.0295463877637138\\
-0.55859375	0.0267917457945542\\
-0.556640625	0.0242310560781527\\
-0.5546875	0.0237657185113359\\
-0.552734375	0.0204890369840273\\
-0.55078125	0.00809911896154773\\
-0.548828125	0.0384186819249351\\
-0.546875	0.0271189914276602\\
-0.544921875	0.0325149371888739\\
-0.54296875	0.0197837847103488\\
-0.541015625	0.0158216426010834\\
-0.5390625	0.0237514686711638\\
-0.537109375	0.0294605020997451\\
-0.53515625	0.0212166012953586\\
-0.533203125	0.0122395996756195\\
-0.53125	0.00404309792565156\\
-0.529296875	0.0232056911492724\\
-0.52734375	0.0209179696863125\\
-0.525390625	0.0236111317119114\\
-0.5234375	0.0341986256871853\\
-0.521484375	0.0118844277870508\\
-0.51953125	0.0294697992480904\\
-0.517578125	0.0243864541037044\\
-0.515625	0.0163911525595368\\
-0.513671875	0.0358648044506215\\
-0.51171875	0.0377895658839639\\
-0.509765625	0.0128764633620979\\
-0.5078125	0.0163485946032538\\
-0.505859375	0.0145713877252514\\
-0.50390625	0.0322903425038579\\
-0.501953125	0.0540119661268277\\
-0.5	0.0102997738178585\\
-0.498046875	0.017554319280097\\
-0.49609375	0.00995161979675308\\
-0.494140625	0.0219612563397367\\
-0.4921875	0.031056689461619\\
-0.490234375	0.0357606171509495\\
-0.48828125	0.0101222380688752\\
-0.486328125	0.0359155460984167\\
-0.484375	0.0375795288084572\\
-0.482421875	0.00588881049972635\\
-0.48046875	0.0318542876721796\\
-0.478515625	0.0234150008960046\\
-0.4765625	0.00604193675121904\\
-0.474609375	0.0274481965736398\\
-0.47265625	0.0204917779314968\\
-0.470703125	0.0226221039590922\\
-0.46875	0.0482066389975338\\
-0.466796875	0.0349331609674942\\
-0.46484375	0.0103752777456806\\
-0.462890625	0.0297599678238363\\
-0.4609375	0.0230482600227196\\
-0.458984375	0.0324628785249756\\
-0.45703125	0.0250264613937029\\
-0.455078125	0.0242907499311079\\
-0.453125	0.0118048789699176\\
-0.451171875	0.017131226467605\\
-0.44921875	0.0164820707106806\\
-0.447265625	0.0155391917197778\\
-0.4453125	0.0349520574371345\\
-0.443359375	0.0195285462701176\\
-0.44140625	0.0385455288143758\\
-0.439453125	0.025434835866323\\
-0.4375	0.0349118692812525\\
-0.435546875	0.00234683770290325\\
-0.43359375	0.0370443143498128\\
-0.431640625	0.0194848383829924\\
-0.4296875	0.0440531320354077\\
-0.427734375	0.0152470725807608\\
-0.42578125	0.0236511296973107\\
-0.423828125	0.0322640437298263\\
-0.421875	0.00937427379809392\\
-0.419921875	0.0184336437152539\\
-0.41796875	0.0227036744882938\\
-0.416015625	0.0294763616893783\\
-0.4140625	0.0178255750050164\\
-0.412109375	0.034467340327131\\
-0.41015625	0.013906603962588\\
-0.408203125	0.00336680095227374\\
-0.40625	0.0117774178561636\\
-0.404296875	0.00507985346355131\\
-0.40234375	0.0146262979616862\\
-0.400390625	0.0276279243394644\\
-0.3984375	0.0196945270636581\\
-0.396484375	0.0116297087829671\\
-0.39453125	0.00213175149556592\\
-0.392578125	0.0247176431455133\\
-0.390625	0.0245621004056142\\
-0.388671875	0.015238602704096\\
-0.38671875	0.0257566399207041\\
-0.384765625	0.0281018279753829\\
-0.3828125	0.00386183529685496\\
-0.380859375	0.0335401034152561\\
-0.37890625	0.0365883177477186\\
-0.376953125	0.00214186902190766\\
-0.375	0.0220895232288311\\
-0.373046875	0.0308492497811687\\
-0.37109375	0.0408850874941658\\
-0.369140625	0.0208206183069759\\
-0.3671875	0.00940079684662771\\
-0.365234375	0.00518340363556632\\
-0.36328125	0.0125598553634372\\
-0.361328125	0.0198929689391657\\
-0.359375	0.015517016614097\\
-0.357421875	0.0350720516749219\\
-0.35546875	0.0205480830894176\\
-0.353515625	0.0312935777971597\\
-0.3515625	0.00479299005850079\\
-0.349609375	0.0311170056125074\\
-0.34765625	0.0230633957343734\\
-0.345703125	0.00975776839438192\\
-0.34375	0.0197390070018692\\
-0.341796875	0.0440682840395672\\
-0.33984375	0.0265879696501357\\
-0.337890625	0.00375285362068999\\
-0.3359375	0.0192492985141326\\
-0.333984375	0.0285550680645958\\
-0.33203125	0.041655810962405\\
-0.330078125	0.0302823708277788\\
-0.328125	0.013321593630709\\
-0.326171875	0.0527427668128735\\
-0.32421875	0.0233053819285056\\
-0.322265625	0.0281592897737759\\
-0.3203125	0.00641989068476835\\
-0.318359375	0.0139032243710928\\
-0.31640625	0.00720771993319173\\
-0.314453125	0.0285247213605287\\
-0.3125	0.0290337977009797\\
-0.310546875	0.0480383080314769\\
-0.30859375	0.0457900754348151\\
-0.306640625	0.0210496499584155\\
-0.3046875	0.0148795746916853\\
-0.302734375	0.0242462149044634\\
-0.30078125	0.0164056878857485\\
-0.298828125	0.0476797122096602\\
-0.296875	0.0241487774002847\\
-0.294921875	0.0192770383955529\\
-0.29296875	0.0185925148354068\\
-0.291015625	0.0241887143722565\\
-0.2890625	0.0255801072860485\\
-0.287109375	0.0470259598407234\\
-0.28515625	0.00396054264514736\\
-0.283203125	0.0284980076436077\\
-0.28125	0.0162475085110707\\
-0.279296875	0.0401021149731342\\
-0.27734375	0.00786609533734919\\
-0.275390625	0.0640539271820445\\
-0.2734375	0.0280863902610794\\
-0.271484375	0.0198106154386219\\
-0.26953125	0.017102385682021\\
-0.267578125	0.0235736394686605\\
-0.265625	0.0120427309692017\\
-0.263671875	0.0172913259499717\\
-0.26171875	0.0108871376299656\\
-0.259765625	0.0388805029795952\\
-0.2578125	0.00852785339066331\\
-0.255859375	0.0129208094976415\\
-0.25390625	0.0222914319736358\\
-0.251953125	0.0282147310121559\\
-0.25	0.0347327476837945\\
-0.248046875	0.0243838661874886\\
-0.24609375	0.0377568045810358\\
-0.244140625	0.0432575948236373\\
-0.2421875	0.0129586265856118\\
-0.240234375	0.0272447191441333\\
-0.23828125	0.0268601794994574\\
-0.236328125	0.0200272543668035\\
-0.234375	0.00827592896935682\\
-0.232421875	0.0159325470936784\\
-0.23046875	0.00968410915089471\\
-0.228515625	0.00303385413065188\\
-0.2265625	0.0469643934658354\\
-0.224609375	0.023151489893603\\
-0.22265625	0.0337862382399087\\
-0.220703125	0.0283448815438077\\
-0.21875	0.0119849047809107\\
-0.216796875	0.0309023649880077\\
-0.21484375	0.00728933312177047\\
-0.212890625	0.0137735571337513\\
-0.2109375	0.0261364422182954\\
-0.208984375	0.0190210471150784\\
-0.20703125	0.0208588099095929\\
-0.205078125	0.00906997362263162\\
-0.203125	0.0224379238952423\\
-0.201171875	0.0347281099798573\\
-0.19921875	0.00126102531145402\\
-0.197265625	0.0460219346245393\\
-0.1953125	0.0309631934270122\\
-0.193359375	0.0279925303183762\\
-0.19140625	0.0153309775807449\\
-0.189453125	0.0271884743290564\\
-0.1875	0.0122283236502025\\
-0.185546875	0.0306197779694773\\
-0.18359375	0.0246000873562927\\
-0.181640625	0.0397022598139437\\
-0.1796875	0.024718250282935\\
-0.177734375	0.0470863007677144\\
-0.17578125	0.0150578026802045\\
-0.173828125	0.0171983549195875\\
-0.171875	0.0536770681452614\\
-0.169921875	0.0233387885154941\\
-0.16796875	0.0281898559650273\\
-0.166015625	0.0352874565885495\\
-0.1640625	0.0210838019278115\\
-0.162109375	0.0208724655977263\\
-0.16015625	0.0459383366042561\\
-0.158203125	0.0540357357039061\\
-0.15625	0.0148048262506469\\
-0.154296875	0.0126944096451585\\
-0.15234375	0.0479134313096338\\
-0.150390625	0.0183733596131409\\
-0.1484375	0.0130801482838922\\
-0.146484375	0.0405500688303595\\
-0.14453125	0.0255641716474385\\
-0.142578125	0.0292366305885831\\
-0.140625	0.0172060898592756\\
-0.138671875	0.0143847874124572\\
-0.13671875	0.00585564735074023\\
-0.134765625	0.0279507397994509\\
-0.1328125	0.0294818744305825\\
-0.130859375	0.0292570158120466\\
-0.12890625	0.0148529867402895\\
-0.126953125	0.0228350692306353\\
-0.125	0.0313037733678296\\
-0.123046875	0.0399873889802106\\
-0.12109375	0.0453441992977387\\
-0.119140625	0.0247008892062793\\
-0.1171875	0.0196429265073535\\
-0.115234375	0.041138669367034\\
-0.11328125	0.0414998128063501\\
-0.111328125	0.00705926524049873\\
-0.109375	0.0394649170506821\\
-0.107421875	0.032267200189647\\
-0.10546875	0.0420305417363413\\
-0.103515625	0.0197271939816271\\
-0.1015625	0.0180953638910396\\
-0.099609375	0.0334454236553361\\
-0.09765625	0.0167208391309632\\
-0.095703125	0.0240862998785436\\
-0.09375	0.0545241131664707\\
-0.091796875	0.00985214363073573\\
-0.08984375	0.00284738833679393\\
-0.087890625	0.00838186474013417\\
-0.0859375	0.0360700786824365\\
-0.083984375	0.0425151915932989\\
-0.08203125	0.00653754144489475\\
-0.080078125	0.0165878078002861\\
-0.078125	0.0116784284793471\\
-0.076171875	0.0397405553925564\\
-0.07421875	0.0166400878190152\\
-0.072265625	0.0358922937085931\\
-0.0703125	0.0075946288310052\\
-0.068359375	0.0203203504457594\\
-0.06640625	0.0333662735836874\\
-0.064453125	0.0173283767918067\\
-0.0625	0.0203399864561561\\
-0.060546875	0.0218331464735061\\
-0.05859375	0.0155555426524625\\
-0.056640625	0.0265342899395245\\
-0.0546875	0.0198844042189712\\
-0.052734375	0.0106157945485581\\
-0.05078125	0.0115225076753692\\
-0.048828125	0.0316019344553177\\
-0.046875	0.0318858781213919\\
-0.044921875	0.0164609436389572\\
-0.04296875	0.00775594630890668\\
-0.041015625	0.00797956097193747\\
-0.0390625	0.030917507515163\\
-0.037109375	0.0251679943285478\\
-0.03515625	0.022633387374189\\
-0.033203125	0.0183239940863501\\
-0.03125	0.0217168850432236\\
-0.029296875	0.0402627344356185\\
-0.02734375	0.0151740673732629\\
-0.025390625	0.0054800775959426\\
-0.0234375	0.0119219328859886\\
-0.021484375	0.0198510575996748\\
-0.01953125	0.0540803685092256\\
-0.017578125	0.00583166516804265\\
-0.015625	0.0295317190532538\\
-0.013671875	0.0168087296820587\\
-0.01171875	0.0145927624209036\\
-0.009765625	0.0324723850550679\\
-0.0078125	0.0145401027144835\\
-0.005859375	0.0068153547902876\\
-0.00390625	0.0108789761268282\\
-0.001953125	0.0102325212864815\\
0	0.0186267521913119\\
0.001953125	0.0106938556976155\\
0.00390625	0.0182010516792979\\
0.005859375	0.0130954597813302\\
0.0078125	0.0295597358198492\\
0.009765625	0.0172697207239856\\
0.01171875	0.0143378343133117\\
0.013671875	0.0301049178978416\\
0.015625	0.00874317667416646\\
0.017578125	0.0248039837387066\\
0.01953125	0.0310576038638317\\
0.021484375	0.0151558837605113\\
0.0234375	0.0194206642935033\\
0.025390625	0.0233890660482042\\
0.02734375	0.0239059946857898\\
0.029296875	0.0633324184427481\\
0.03125	0.0116655722991345\\
0.033203125	0.0208750366802202\\
0.03515625	0.0237721282269465\\
0.037109375	0.0333577352286709\\
0.0390625	0.0222655765867465\\
0.041015625	0.00147266139982238\\
0.04296875	0.0232818974804544\\
0.044921875	0.00474914432265881\\
0.046875	0.0217067565979793\\
0.048828125	0.0192601829449036\\
0.05078125	0.0209920836405823\\
0.052734375	0.00987444301067471\\
0.0546875	0.0310180006601549\\
0.056640625	0.0337468851139429\\
0.05859375	0.0370626890510241\\
0.060546875	0.0156895517001464\\
0.0625	0.022033587993985\\
0.064453125	0.0251003433619521\\
0.06640625	0.0578678485757353\\
0.068359375	0.0263047760318179\\
0.0703125	0.00715551565963081\\
0.072265625	0.0371984041894205\\
0.07421875	0.0488155697082508\\
0.076171875	0.0329542432618475\\
0.078125	0.00894990820725755\\
0.080078125	0.0303277174183832\\
0.08203125	0.0508855542364593\\
0.083984375	0.00986804879445943\\
0.0859375	0.0230702035138398\\
0.087890625	0.0255067972706716\\
0.08984375	0.016177353826371\\
0.091796875	0.0210076415979166\\
0.09375	0.00891036933118839\\
0.095703125	0.0359626584140888\\
0.09765625	0.00862888816739116\\
0.099609375	0.0312090327752553\\
0.1015625	0.0365924202050937\\
0.103515625	0.0406116035727344\\
0.10546875	0.0455237460735342\\
0.107421875	0.0136602532437922\\
0.109375	0.0160090546441872\\
0.111328125	0.0402729706307506\\
0.11328125	0.0428677715019297\\
0.115234375	0.0233729268416749\\
0.1171875	0.0233003071287255\\
0.119140625	0.0462295532145577\\
0.12109375	0.00701967497791902\\
0.123046875	0.0146757793039565\\
0.125	0.012954458792618\\
0.126953125	0.0216905751067809\\
0.12890625	0.0259698204101389\\
0.130859375	0.0247300311276279\\
0.1328125	0.0165174895931825\\
0.134765625	0.0196443955626664\\
0.13671875	0.00898588079947543\\
0.138671875	0.010461283630972\\
0.140625	0.0211312343488535\\
0.142578125	0.0397279834816842\\
0.14453125	0.0061224605358566\\
0.146484375	0.000199969855011464\\
0.1484375	0.0286744742513286\\
0.150390625	0.0128689749543276\\
0.15234375	0.0146694796365518\\
0.154296875	0.0313846276198666\\
0.15625	0.0379612910531664\\
0.158203125	0.0246045640378942\\
0.16015625	0.0427043008836935\\
0.162109375	0.0113555549927665\\
0.1640625	0.0294097989760835\\
0.166015625	0.0233867087940974\\
0.16796875	0.0234265383380376\\
0.169921875	0.0193357508872703\\
0.171875	0.0161546667654252\\
0.173828125	0.0294133161947573\\
0.17578125	0.0316938808524272\\
0.177734375	0.0595317307745832\\
0.1796875	0.0320998294154274\\
0.181640625	0.0039677025282664\\
0.18359375	0.0247123370498108\\
0.185546875	0.0230825912636426\\
0.1875	0.0515259867467812\\
0.189453125	0.0268929394569412\\
0.19140625	0.0250811464707501\\
0.193359375	0.0224363301942132\\
0.1953125	0.0436138894386418\\
0.197265625	0.0485330041888195\\
0.19921875	0.0396045098684615\\
0.201171875	0.0348683754789581\\
0.203125	0.00949169101164563\\
0.205078125	0.0335331886978023\\
0.20703125	0.0546173525462122\\
0.208984375	0.0092857628390728\\
0.2109375	0.0187171536358968\\
0.212890625	0.0189420944238436\\
0.21484375	0.0259785964604546\\
0.216796875	0.0229660509759367\\
0.21875	0.00249102527475454\\
0.220703125	0.0223601683342214\\
0.22265625	0.00639019022069949\\
0.224609375	0.0172958259098066\\
0.2265625	0.042055748412751\\
0.228515625	0.0244186392881219\\
0.23046875	0.0409736742724813\\
0.232421875	0.0202267302264075\\
0.234375	0.0424410227529145\\
0.236328125	0.0256318617062046\\
0.23828125	0.0271974517759165\\
0.240234375	0.0286786516370465\\
0.2421875	0.02737294731474\\
0.244140625	0.0271140006390343\\
0.24609375	0.019712485303014\\
0.248046875	0.0147460718685535\\
0.25	0.0267225055563161\\
0.251953125	0.0290052728391105\\
0.25390625	0.0285146605233979\\
0.255859375	0.0266922264935747\\
0.2578125	0.0232448565110916\\
0.259765625	0.0186895288463281\\
0.26171875	0.0397386655389004\\
0.263671875	0.0402982281437742\\
0.265625	0.0110578750923796\\
0.267578125	0.0201686533530272\\
0.26953125	0.0274810197864949\\
0.271484375	0.0168028324924098\\
0.2734375	0.0121572576113969\\
0.275390625	0.0221245184525613\\
0.27734375	0.0214035754585008\\
0.279296875	0.0201787713684439\\
0.28125	0.024978291596023\\
0.283203125	0.0215819419335806\\
0.28515625	0.0330953340609834\\
0.287109375	0.00534403770256689\\
0.2890625	0.00923661947388625\\
0.291015625	0.0229894786301166\\
0.29296875	0.0140208563710229\\
0.294921875	0.0273436930998048\\
0.296875	0.0264441260657771\\
0.298828125	0.0198034530806129\\
0.30078125	0.0205404840110996\\
0.302734375	0.0464828866459634\\
0.3046875	0.0183545177602706\\
0.306640625	0.0270784797233851\\
0.30859375	0.0478484098503577\\
0.310546875	0.0104644520466386\\
0.3125	0.00977856149894674\\
0.314453125	0.0263999275315255\\
0.31640625	0.0183002760955437\\
0.318359375	0.0269779005315806\\
0.3203125	0.0244605576770693\\
0.322265625	0.0284803362581807\\
0.32421875	0.0648743664061985\\
0.326171875	0.0238427268698421\\
0.328125	0.0269101157042914\\
0.330078125	0.0200436627862594\\
0.33203125	0.0282405396196115\\
0.333984375	0.0396429783026703\\
0.3359375	0.0351832181331056\\
0.337890625	0.018179245477006\\
0.33984375	0.0335717240627598\\
0.341796875	0.038595357430224\\
0.34375	0.0257790379676362\\
0.345703125	0.0109716697054712\\
0.34765625	0.0372486366462297\\
0.349609375	0.0168544888886838\\
0.3515625	0.0550072422667159\\
0.353515625	0.0242586285668302\\
0.35546875	0.0272164001322461\\
0.357421875	0.0282628293016386\\
0.359375	0.01699320610655\\
0.361328125	0.028627689446064\\
0.36328125	0.00799616558235795\\
0.365234375	0.0237501751112698\\
0.3671875	0.0397413411563084\\
0.369140625	0.0280152268289215\\
0.37109375	0.00251943883452627\\
0.373046875	0.00910666328366445\\
0.375	0.0214187066265347\\
0.376953125	0.0403585088928388\\
0.37890625	0.0193430587493144\\
0.380859375	0.0277868588154221\\
0.3828125	0.034192764057821\\
0.384765625	0.0374234411114734\\
0.38671875	0.0348536816414322\\
0.388671875	0.0110191318103088\\
0.390625	0.0220940209698137\\
0.392578125	0.0224330690989126\\
0.39453125	0.0328069282464594\\
0.396484375	0.0389767807523531\\
0.3984375	0.00115188081929239\\
0.400390625	0.027611275763843\\
0.40234375	0.0137799736091593\\
0.404296875	0.00715025055659954\\
0.40625	0.0525001011433732\\
0.408203125	0.0250003229759541\\
0.41015625	0.0260801421825337\\
0.412109375	0.032330755146926\\
0.4140625	0.0165268813111347\\
0.416015625	0.0185840636588488\\
0.41796875	0.00394866219843371\\
0.419921875	0.00937883245656776\\
0.421875	0.0319541632919831\\
0.423828125	0.0231491650016681\\
0.42578125	0.0274898004821943\\
0.427734375	0.0108583563402451\\
0.4296875	0.0225442985278053\\
0.431640625	0.00689378611644915\\
0.43359375	0.0349403878803383\\
0.435546875	0.0132671927812968\\
0.4375	0.0144382409959881\\
0.439453125	0.0264310381724135\\
0.44140625	0.0119829307544678\\
0.443359375	0.0491081104189444\\
0.4453125	0.0372187483477129\\
0.447265625	0.0462826667791724\\
0.44921875	0.0129639883586687\\
0.451171875	0.00738858870216002\\
0.453125	0.0204311961640009\\
0.455078125	0.0210828445156795\\
0.45703125	0.00291785611460264\\
0.458984375	0.0376925885271885\\
0.4609375	0.0183143082483664\\
0.462890625	0.0165525997123915\\
0.46484375	0.0260094246212544\\
0.466796875	0.014676212699088\\
0.46875	0.0181327572691205\\
0.470703125	0.0253687160501151\\
0.47265625	0.0155234683407901\\
0.474609375	0.0669623894909685\\
0.4765625	0.0173147543003714\\
0.478515625	0.037422432206699\\
0.48046875	0.0677255873011873\\
0.482421875	0.0205801001824016\\
0.484375	0.0173538312614404\\
0.486328125	0.0226067152173943\\
0.48828125	0.0309440781766942\\
0.490234375	0.0153318528702322\\
0.4921875	0.0354596752015955\\
0.494140625	0.0408657867892217\\
0.49609375	0.0375258077872478\\
0.498046875	0.0307811987210495\\
0.5	0.0382925240064281\\
0.501953125	0.022068846097461\\
0.50390625	0.032533651869319\\
0.505859375	0.017237197512809\\
0.5078125	0.0140292578279484\\
0.509765625	0.0282628949236273\\
0.51171875	0.0415659909774108\\
0.513671875	0.0112249454552526\\
0.515625	0.0167713927733886\\
0.517578125	0.038388249413122\\
0.51953125	0.0191775202052527\\
0.521484375	0.0124728797132415\\
0.5234375	0.0247131741347208\\
0.525390625	0.0128673596467346\\
0.52734375	0.0203568833613852\\
0.529296875	0.0200288634837717\\
0.53125	0.0370206602307007\\
0.533203125	0.0606190853449199\\
0.53515625	0.017807639909637\\
0.537109375	0.0204727358610043\\
0.5390625	0.0198350507523658\\
0.541015625	0.0262144215061019\\
0.54296875	0.00913781704803598\\
0.544921875	0.0100149092538416\\
0.546875	0.0150205111398803\\
0.548828125	0.0300950625310608\\
0.55078125	0.0182666031092166\\
0.552734375	0.0218852986203837\\
0.5546875	0.0276318411287149\\
0.556640625	0.00769731771092993\\
0.55859375	0.0221254011729709\\
0.560546875	0.0159858712695284\\
0.5625	0.0115542742439337\\
0.564453125	0.0502291570591687\\
0.56640625	0.0314849441552031\\
0.568359375	0.0280997104915862\\
0.5703125	0.00459324970888166\\
0.572265625	0.023030502595761\\
0.57421875	0.0130001853735625\\
0.576171875	0.0244750421025562\\
0.578125	0.0147197373630098\\
0.580078125	0.0375722830942476\\
0.58203125	0.0316446790166285\\
0.583984375	0.0256730243813273\\
0.5859375	0.0175661461516467\\
0.587890625	0.0357102198499071\\
0.58984375	0.0232140028532756\\
0.591796875	0.0424899419933447\\
0.59375	0.00572238954872402\\
0.595703125	0.0460669157289461\\
0.59765625	0.0434779390661566\\
0.599609375	0.0177076154083553\\
0.6015625	0.0228166713443344\\
0.603515625	0.0362235924009258\\
0.60546875	0.0238453883526281\\
0.607421875	0.0245293292775586\\
0.609375	0.0334304116110677\\
0.611328125	0.0475316469264914\\
0.61328125	0.051334788071448\\
0.615234375	0.0334989505034111\\
0.6171875	0.0240724462118527\\
0.619140625	0.0263906840708663\\
0.62109375	0.00591934460320906\\
0.623046875	0.0446014009543144\\
0.625	0.041828068880631\\
0.626953125	0.0226209693900479\\
0.62890625	0.0222160350644397\\
0.630859375	0.0054552376578308\\
0.6328125	0.0166069536940574\\
0.634765625	0.0347214297167154\\
0.63671875	0.00831412946126466\\
0.638671875	0.0531758872572876\\
0.640625	0.0144991080023315\\
0.642578125	0.00172900915308887\\
0.64453125	0.0143945351715697\\
0.646484375	0.0206004287443779\\
0.6484375	0.0322722083222352\\
0.650390625	0.0210176353518474\\
0.65234375	0.00718078964887789\\
0.654296875	0.00774423510340881\\
0.65625	0.0216651742857875\\
0.658203125	0.031071585233993\\
0.66015625	0.0381256454598848\\
0.662109375	0.034471240816255\\
0.6640625	0.0253655827225933\\
0.666015625	0.0190347757443295\\
0.66796875	0.0207172780748376\\
0.669921875	0.0357073448995306\\
0.671875	0.0145841642725549\\
0.673828125	0.0304467559447985\\
0.67578125	0.0210242421890308\\
0.677734375	0.00485048304315019\\
0.6796875	0.0470567351724746\\
0.681640625	0.0282792522975608\\
0.68359375	0.0279705845115463\\
0.685546875	0.0273340196234817\\
0.6875	0.0151127302731994\\
0.689453125	0.00865311201663876\\
0.69140625	0.0180518990151994\\
0.693359375	0.0231602550962396\\
0.6953125	0.0237815046447224\\
0.697265625	0.0111274400379187\\
0.69921875	0.0246078987169017\\
0.701171875	0.0275416205098624\\
0.703125	0.0146850738715096\\
0.705078125	0.0192313283043554\\
0.70703125	0.0137673575600538\\
0.708984375	0.00525537259759305\\
0.7109375	0.0312682440182073\\
0.712890625	0.0314614027302993\\
0.71484375	0.0152603361943042\\
0.716796875	0.0206352910894673\\
0.71875	0.0184497829384872\\
0.720703125	0.00848751611380517\\
0.72265625	0.0158308310646152\\
0.724609375	0.00948660939118521\\
0.7265625	0.0214614414360432\\
0.728515625	0.0234899894666709\\
0.73046875	0.0397312871644291\\
0.732421875	0.0242447491686886\\
0.734375	0.0418291737920944\\
0.736328125	0.0501137177385925\\
0.73828125	0.0164566048177688\\
0.740234375	0.00929710661765909\\
0.7421875	0.00582810017610197\\
0.744140625	0.028532856794916\\
0.74609375	0.00701203823504935\\
0.748046875	0.0272134903884163\\
0.75	0.0124880639604892\\
0.751953125	0.0192259216386487\\
0.75390625	0.0127243104152843\\
0.755859375	0.0304331469097709\\
0.7578125	0.0198823228555913\\
0.759765625	0.0287698096325099\\
0.76171875	0.0123091535166728\\
0.763671875	0.0494233024929788\\
0.765625	0.0171791399340761\\
0.767578125	0.0520562614556316\\
0.76953125	0.00670141796535933\\
0.771484375	0.0345978788090495\\
0.7734375	0.0161421721967164\\
0.775390625	0.00523880279672488\\
0.77734375	0.0307960396907462\\
0.779296875	0.0237461943588422\\
0.78125	0.0327539016050653\\
0.783203125	0.0193251583633365\\
0.78515625	0.0306893066983358\\
0.787109375	0.017150064021608\\
0.7890625	0.0279223178847681\\
0.791015625	0.0253512469975667\\
0.79296875	0.00349450896172668\\
0.794921875	0.0405505496222659\\
0.796875	0.00887436872195705\\
0.798828125	0.0112149675193817\\
0.80078125	0.00835945142484742\\
0.802734375	0.0164503573757892\\
0.8046875	0.0349322729095812\\
0.806640625	0.0179311580459361\\
0.80859375	0.032817075934265\\
0.810546875	0.0415253124360939\\
0.8125	0.0245111310140641\\
0.814453125	0.0394985813580853\\
0.81640625	0.0424162263331675\\
0.818359375	0.00881268267073071\\
0.8203125	0.0320189241904074\\
0.822265625	0.0155013575953813\\
0.82421875	0.0300670051975114\\
0.826171875	0.00823512046747808\\
0.828125	0.0056766977345994\\
0.830078125	0.00747724969151864\\
0.83203125	0.0260838034650884\\
0.833984375	0.00887289324095268\\
0.8359375	0.0117535342691598\\
0.837890625	0.00419304780374785\\
0.83984375	0.017040662202595\\
0.841796875	0.0317204597795121\\
0.84375	0.014220798013906\\
0.845703125	0.029770523966788\\
0.84765625	0.0218641793748254\\
0.849609375	0.0102173831534106\\
0.8515625	0.0403581224126876\\
0.853515625	0.0101306647212818\\
0.85546875	0.0171428574545145\\
0.857421875	0.0393434170088725\\
0.859375	0.0288157195005309\\
0.861328125	0.021499350218585\\
0.86328125	0.0652053652572086\\
0.865234375	0.0062038442811633\\
0.8671875	0.0316395133309663\\
0.869140625	0.00278212025246324\\
0.87109375	0.0253852787718983\\
0.873046875	0.0295344242348877\\
0.875	0.0119232397317526\\
0.876953125	0.016786259694754\\
0.87890625	0.02301305956182\\
0.880859375	0.0272032455454324\\
0.8828125	0.000911347984952703\\
0.884765625	0.0317530593345968\\
0.88671875	0.0178335720421052\\
0.888671875	0.0354549076721571\\
0.890625	0.0105764556748478\\
0.892578125	0.0404182857430307\\
0.89453125	0.0218635882144179\\
0.896484375	0.00409895932416501\\
0.8984375	0.0407538063940718\\
0.900390625	0.0476693891638557\\
0.90234375	0.00634158676430219\\
0.904296875	0.0123114639497537\\
0.90625	0.00726232543522187\\
0.908203125	0.00944394977493633\\
0.91015625	0.0291550384975403\\
0.912109375	0.0272120788437469\\
0.9140625	0.0252791327750748\\
0.916015625	0.0228499959630132\\
0.91796875	0.00698511828380889\\
0.919921875	0.0259902313566776\\
0.921875	0.0286590584715483\\
0.923828125	0.0224781977627665\\
0.92578125	0.0384475609251064\\
0.927734375	0.04897191068441\\
0.9296875	0.0166531434099997\\
0.931640625	0.014369266442346\\
0.93359375	0.0176131593662064\\
0.935546875	0.0041656816736836\\
0.9375	0.0399385407985281\\
0.939453125	0.00795676721147505\\
0.94140625	0.0291218361430983\\
0.943359375	0.0098121121448852\\
0.9453125	0.0274687315019088\\
0.947265625	0.0322031995980786\\
0.94921875	0.0118170356124495\\
0.951171875	0.0369332400655241\\
0.953125	0.0349558454377209\\
0.955078125	0.0336138820944092\\
0.95703125	0.0119928462928166\\
0.958984375	0.0317406639166097\\
0.9609375	0.00685249629061117\\
0.962890625	0.0349451180849931\\
0.96484375	0.0135666842106931\\
0.966796875	0.0214843967668756\\
0.96875	0.0157388530397854\\
0.970703125	0.0156211861333392\\
0.97265625	0.0129837680994418\\
0.974609375	0.0439861444917543\\
0.9765625	0.0242061485096762\\
0.978515625	0.0209350817929781\\
0.98046875	0.0226633835137666\\
0.982421875	0.010248342453132\\
0.984375	0.0298655086027376\\
0.986328125	0.0239433251684382\\
0.98828125	0.0207746209579969\\
0.990234375	0.0152888320404089\\
0.9921875	0.0124780620015302\\
0.994140625	0.0148431880690671\\
0.99609375	0.00631707547861251\\
0.998046875	0.0157824784289365\\
1	0.0125510701954848\\
};

\end{axis}

\end{tikzpicture}%