#FIG 3.2  Produced by xfig version 3.2.6a
Landscape
Center
Metric
A4
100.00
Single
-2
1200 2
2 1 0 1 1 1 50 -1 -1 0.000 0 0 -1 0 0 2
	 1350 2250 1350 2070
2 1 0 1 0 7 50 -1 -1 0.000 0 0 -1 1 1 2
	0 0 1.00 30.00 60.00
	0 0 1.00 30.00 60.00
	 1260 2250 3060 2250
2 1 0 1 1 1 50 -1 -1 0.000 0 0 -1 0 0 1
	 1440 2250
2 1 0 1 1 1 50 -1 -1 0.000 0 0 -1 0 0 2
	 1440 2295 1440 2250
2 1 0 1 1 1 50 -1 -1 0.000 0 0 -1 0 0 2
	 1530 2250 1530 2025
2 1 0 1 1 1 50 -1 -1 0.000 0 0 -1 0 0 2
	 1620 2250 1620 1710
2 1 0 1 1 1 50 -1 -1 0.000 0 0 -1 0 0 2
	 1710 2250 1710 1575
2 1 0 1 1 1 50 -1 -1 0.000 0 0 -1 0 0 2
	 1800 2250 1800 1755
2 1 0 1 1 1 50 -1 -1 0.000 0 0 -1 0 0 2
	 1890 2250 1890 1980
2 1 0 1 1 1 50 -1 -1 0.000 0 0 -1 0 0 2
	 1980 2250 1980 2160
2 1 0 1 1 1 50 -1 -1 0.000 0 0 -1 0 0 2
	 2070 2250 2070 1800
2 1 0 1 1 1 50 -1 -1 0.000 0 0 -1 0 0 2
	 2160 2250 2160 1665
2 1 0 1 1 1 50 -1 -1 0.000 0 0 -1 0 0 2
	 2250 2250 2250 1800
2 1 0 1 1 1 50 -1 -1 0.000 0 0 -1 0 0 2
	 2340 2250 2340 2115
2 1 0 1 1 1 50 -1 -1 0.000 0 0 -1 0 0 2
	 2430 2250 2430 2205
2 1 0 1 1 1 50 -1 -1 0.000 0 0 -1 0 0 2
	 2520 2250 2520 2115
2 1 0 1 1 1 50 -1 -1 0.000 0 0 -1 0 0 2
	 2610 2250 2610 1980
2 1 0 1 1 1 50 -1 -1 0.000 0 0 -1 0 0 2
	 2700 2250 2700 2340
2 1 0 1 1 1 50 -1 -1 0.000 0 0 -1 0 0 2
	 2790 2250 2790 2340
2 1 0 1 1 1 50 -1 -1 0.000 0 0 -1 0 0 2
	 2880 2250 2880 1890
2 1 0 1 1 1 50 -1 -1 0.000 0 0 -1 0 0 2
	 2970 2250 2970 1710
4 0 0 50 -1 0 8 0.0000 2 105 270 2070 2430 $n$
\001
