%!PS-Adobe-3.0 EPSF-3.0
%%Title: sincDelay.pstex
%%Creator: fig2dev Version 3.2.6a
%%CreationDate: 2020-03-20 09:56:21
%%BoundingBox: 0 0 115 44
%Magnification: 1.0000
%%EndComments
%%BeginProlog
/$F2psDict 200 dict def
$F2psDict begin
$F2psDict /mtrx matrix put
/col-1 {0 setgray} bind def
/col0 {0.000 0.000 0.000 srgb} bind def
/col1 {0.000 0.000 1.000 srgb} bind def
/col7 {1.000 1.000 1.000 srgb} bind def

end

/cp {closepath} bind def
/ef {eofill} bind def
/gr {grestore} bind def
/gs {gsave} bind def
/sa {save} bind def
/rs {restore} bind def
/l {lineto} bind def
/m {moveto} bind def
/rm {rmoveto} bind def
/n {newpath} bind def
/s {stroke} bind def
/sh {show} bind def
/slc {setlinecap} bind def
/slj {setlinejoin} bind def
/slw {setlinewidth} bind def
/srgb {setrgbcolor} bind def
/rot {rotate} bind def
/sc {scale} bind def
/sd {setdash} bind def
/ff {findfont} bind def
/sf {setfont} bind def
/scf {scalefont} bind def
/sw {stringwidth} bind def
/tr {translate} bind def
/tnt {dup dup currentrgbcolor
  4 -2 roll dup 1 exch sub 3 -1 roll mul add
  4 -2 roll dup 1 exch sub 3 -1 roll mul add
  4 -2 roll dup 1 exch sub 3 -1 roll mul add srgb}
  bind def
/shd {dup dup currentrgbcolor 4 -2 roll mul 4 -2 roll mul
  4 -2 roll mul srgb} bind def
/$F2psBegin {$F2psDict begin /$F2psEnteredState save def} def
/$F2psEnd {$F2psEnteredState restore end} def

/pageheader {
save
newpath 0 44 moveto 0 0 lineto 115 0 lineto 115 44 lineto closepath clip newpath
-78.6 156.0 translate
1 -1 scale
$F2psBegin
10 setmiterlimit
0 slj 0 slc
 0.06299 0.06299 sc
} bind def
/pagefooter {
$F2psEnd
restore
} bind def
%%EndProlog
pageheader
%
% Fig objects follow
%
% 
% here starts figure with depth 50
% Polyline
2 slj
0 slc
7.500 slw
n 2160 1800 m 2156 1802 l 2149 1807 l 2137 1814 l 2122 1824 l 2104 1836 l
 2087 1850 l 2070 1863 l 2056 1876 l 2043 1890 l 2033 1903 l
 2024 1918 l 2016 1933 l 2010 1950 l 2005 1966 l 2001 1984 l
 1997 2003 l 1993 2023 l 1990 2044 l 1986 2067 l 1983 2090 l
 1980 2113 l 1977 2136 l 1974 2158 l 1970 2180 l 1967 2200 l
 1963 2219 l 1959 2236 l 1955 2251 l 1950 2265 l 1946 2274 l
 1942 2282 l 1937 2290 l 1932 2296 l 1927 2303 l 1921 2308 l
 1915 2313 l 1909 2316 l 1903 2320 l 1897 2322 l 1890 2323 l
 1883 2324 l 1877 2324 l 1871 2323 l 1865 2322 l 1859 2320 l
 1853 2317 l 1848 2314 l 1843 2310 l 1838 2305 l 1834 2300 l
 1830 2295 l 1824 2284 l 1818 2271 l 1813 2256 l 1808 2240 l
 1804 2223 l 1800 2205 l 1796 2187 l 1792 2170 l 1787 2154 l
 1782 2139 l 1776 2126 l 1770 2115 l 1765 2108 l 1760 2103 l
 1754 2098 l 1748 2093 l 1741 2089 l 1733 2086 l 1726 2084 l
 1718 2083 l 1710 2082 l 1702 2083 l 1694 2084 l 1687 2086 l
 1679 2089 l 1672 2093 l 1666 2098 l 1660 2103 l 1655 2108 l
 1650 2115 l 1644 2126 l 1638 2139 l 1633 2154 l 1628 2170 l
 1624 2187 l 1620 2204 l 1616 2221 l 1612 2238 l 1607 2253 l
 1602 2266 l 1596 2278 l 1590 2288 l 1584 2294 l 1577 2300 l
 1568 2304 l 1560 2307 l 1550 2308 l 1540 2309 l 1530 2308 l
 1520 2306 l 1510 2304 l 1500 2300 l 1492 2296 l 1483 2291 l
 1476 2286 l 1470 2280 l 1462 2271 l 1456 2262 l 1450 2251 l
 1446 2240 l 1441 2229 l 1437 2217 l 1433 2207 l 1428 2197 l
 1423 2189 l 1418 2183 l 1411 2177 l 1402 2172 l 1391 2169 l
 1377 2166 l 1360 2164 l 1341 2162 l 1324 2161 l 1312 2160 l
 1306 2160 l
 1305 2160 l gs col1 s gr 
% Polyline
n 2160 1800 m 2164 1802 l 2171 1807 l 2183 1814 l 2198 1824 l 2216 1836 l
 2233 1850 l 2250 1863 l 2264 1876 l 2277 1890 l 2287 1903 l
 2296 1918 l 2304 1933 l 2310 1950 l 2315 1966 l 2319 1984 l
 2323 2003 l 2327 2023 l 2330 2044 l 2334 2067 l 2337 2090 l
 2340 2113 l 2343 2136 l 2346 2158 l 2350 2180 l 2353 2200 l
 2357 2219 l 2361 2236 l 2365 2251 l 2370 2265 l 2374 2274 l
 2378 2282 l 2383 2290 l 2388 2296 l 2393 2303 l 2399 2308 l
 2405 2313 l 2411 2316 l 2417 2320 l 2423 2322 l 2430 2323 l
 2437 2324 l 2443 2324 l 2449 2323 l 2455 2322 l 2461 2320 l
 2467 2317 l 2472 2314 l 2477 2310 l 2482 2305 l 2486 2300 l
 2490 2295 l 2496 2284 l 2502 2271 l 2507 2256 l 2512 2240 l
 2516 2223 l 2520 2205 l 2524 2187 l 2528 2170 l 2533 2154 l
 2538 2139 l 2544 2126 l 2550 2115 l 2555 2108 l 2560 2103 l
 2566 2098 l 2572 2093 l 2579 2089 l 2587 2086 l 2594 2084 l
 2602 2083 l 2610 2082 l 2618 2083 l 2626 2084 l 2633 2086 l
 2641 2089 l 2648 2093 l 2654 2098 l 2660 2103 l 2665 2108 l
 2670 2115 l 2676 2126 l 2682 2139 l 2687 2154 l 2692 2170 l
 2696 2187 l 2700 2204 l 2704 2221 l 2708 2238 l 2713 2253 l
 2718 2266 l 2724 2278 l 2730 2288 l 2736 2294 l 2743 2300 l
 2752 2304 l 2760 2307 l 2770 2308 l 2780 2309 l 2790 2308 l
 2800 2306 l 2810 2304 l 2820 2300 l 2828 2296 l 2837 2291 l
 2844 2286 l 2850 2280 l 2858 2271 l 2864 2262 l 2870 2251 l
 2874 2240 l 2879 2229 l 2883 2217 l 2887 2207 l 2892 2197 l
 2897 2189 l 2903 2183 l 2909 2177 l 2918 2172 l 2929 2169 l
 2943 2166 l 2960 2164 l 2979 2162 l 2996 2161 l 3008 2160 l
 3014 2160 l
 3015 2160 l gs col1 s gr 
% Polyline
n 1665 1800 m 1661 1802 l 1654 1807 l 1642 1814 l 1627 1824 l 1609 1836 l
 1592 1850 l 1575 1863 l 1561 1876 l 1548 1890 l 1538 1903 l
 1529 1918 l 1521 1933 l 1515 1950 l 1510 1966 l 1506 1984 l
 1502 2003 l 1498 2023 l 1495 2044 l 1491 2067 l 1488 2090 l
 1485 2113 l 1482 2136 l 1479 2158 l 1475 2180 l 1472 2200 l
 1468 2219 l 1464 2236 l 1460 2251 l 1455 2265 l 1451 2274 l
 1447 2282 l 1442 2290 l 1437 2296 l 1432 2303 l 1426 2308 l
 1420 2313 l 1414 2316 l 1408 2320 l 1402 2322 l 1395 2323 l
 1388 2324 l 1382 2324 l 1376 2323 l 1370 2322 l 1364 2320 l
 1358 2317 l 1353 2314 l 1348 2310 l 1343 2305 l 1339 2300 l
 1335 2295 l 1330 2285 l 1325 2274 l 1321 2261 l 1318 2245 l
 1315 2226 l 1312 2205 l 1310 2180 l 1308 2154 l 1307 2127 l
 1306 2104 l 1305 2086 l 1305 2075 l 1305 2071 l
 1305 2070 l gs col1 s gr 
% Polyline
n 1665 1800 m 1669 1802 l 1676 1807 l 1688 1814 l 1703 1824 l 1721 1836 l
 1738 1850 l 1755 1863 l 1769 1876 l 1782 1890 l 1792 1903 l
 1801 1918 l 1809 1933 l 1815 1950 l 1820 1966 l 1824 1984 l
 1828 2003 l 1832 2023 l 1835 2044 l 1839 2067 l 1842 2090 l
 1845 2113 l 1848 2136 l 1851 2158 l 1855 2180 l 1858 2200 l
 1862 2219 l 1866 2236 l 1870 2251 l 1875 2265 l 1879 2274 l
 1883 2282 l 1888 2290 l 1893 2296 l 1898 2303 l 1904 2308 l
 1910 2313 l 1916 2316 l 1922 2320 l 1928 2322 l 1935 2323 l
 1942 2324 l 1948 2324 l 1954 2323 l 1960 2322 l 1966 2320 l
 1972 2317 l 1977 2314 l 1982 2310 l 1987 2305 l 1991 2300 l
 1995 2295 l 2001 2284 l 2007 2271 l 2012 2256 l 2017 2240 l
 2021 2223 l 2025 2205 l 2029 2187 l 2033 2170 l 2038 2154 l
 2043 2139 l 2049 2126 l 2055 2115 l 2060 2108 l 2065 2103 l
 2071 2098 l 2077 2093 l 2084 2089 l 2092 2086 l 2099 2084 l
 2107 2083 l 2115 2082 l 2123 2083 l 2131 2084 l 2138 2086 l
 2146 2089 l 2153 2093 l 2159 2098 l 2165 2103 l 2170 2108 l
 2175 2115 l 2181 2126 l 2187 2139 l 2192 2154 l 2197 2170 l
 2201 2187 l 2205 2204 l 2209 2221 l 2213 2238 l 2218 2253 l
 2223 2266 l 2229 2278 l 2235 2288 l 2241 2294 l 2248 2300 l
 2257 2304 l 2265 2307 l 2275 2308 l 2285 2309 l 2295 2308 l
 2305 2306 l 2315 2304 l 2325 2300 l 2333 2296 l 2342 2291 l
 2349 2286 l 2355 2280 l 2363 2271 l 2369 2262 l 2375 2251 l
 2379 2240 l 2384 2229 l 2388 2217 l 2392 2207 l 2397 2197 l
 2402 2189 l 2408 2183 l 2413 2178 l 2420 2174 l 2427 2171 l
 2435 2168 l 2444 2167 l 2454 2166 l 2463 2167 l 2472 2168 l
 2482 2171 l 2490 2174 l 2498 2178 l 2505 2183 l 2513 2189 l
 2520 2197 l 2528 2206 l 2535 2216 l 2541 2225 l 2548 2235 l
 2554 2243 l 2560 2250 l 2566 2254 l 2573 2258 l 2581 2259 l
 2590 2257 l 2600 2254 l 2610 2249 l 2620 2244 l 2630 2239 l
 2639 2236 l 2648 2235 l 2655 2236 l 2662 2240 l 2669 2245 l
 2676 2251 l 2683 2258 l 2689 2264 l 2695 2269 l 2700 2273 l
 2705 2274 l 2711 2274 l 2719 2273 l 2729 2270 l 2741 2267 l
 2755 2264 l 2771 2260 l 2790 2258 l 2801 2256 l 2813 2255 l
 2827 2254 l 2842 2254 l 2861 2253 l 2881 2252 l 2905 2252 l
 2930 2251 l 2958 2251 l 2985 2251 l 3010 2250 l 3031 2250 l
 3047 2250 l 3056 2250 l 3059 2250 l
 3060 2250 l gs col1 s gr 
% Polyline
n 3015 1845 m 3011 1847 l 3004 1852 l 2992 1859 l 2977 1869 l 2959 1881 l
 2942 1895 l 2925 1908 l 2911 1921 l 2898 1935 l 2888 1948 l
 2879 1963 l 2871 1978 l 2865 1995 l 2860 2011 l 2856 2029 l
 2852 2048 l 2848 2068 l 2845 2089 l 2841 2112 l 2838 2135 l
 2835 2158 l 2832 2181 l 2829 2203 l 2825 2225 l 2822 2245 l
 2818 2264 l 2814 2281 l 2810 2296 l 2805 2310 l 2801 2319 l
 2797 2327 l 2792 2335 l 2787 2341 l 2782 2348 l 2776 2353 l
 2770 2358 l 2764 2361 l 2758 2365 l 2752 2367 l 2745 2368 l
 2738 2369 l 2732 2369 l 2726 2368 l 2720 2367 l 2714 2365 l
 2708 2362 l 2703 2359 l 2698 2355 l 2693 2350 l 2689 2345 l
 2685 2340 l 2679 2329 l 2673 2316 l 2668 2301 l 2663 2285 l
 2659 2268 l 2655 2250 l 2651 2232 l 2647 2215 l 2642 2199 l
 2637 2184 l 2631 2171 l 2625 2160 l 2620 2153 l 2615 2148 l
 2609 2143 l 2603 2138 l 2596 2134 l 2588 2131 l 2581 2129 l
 2573 2128 l 2565 2127 l 2557 2128 l 2549 2129 l 2542 2131 l
 2534 2134 l 2527 2138 l 2521 2143 l 2515 2148 l 2510 2153 l
 2505 2160 l 2499 2171 l 2493 2184 l 2488 2199 l 2483 2215 l
 2479 2232 l 2475 2249 l 2471 2266 l 2467 2283 l 2462 2298 l
 2457 2311 l 2451 2323 l 2445 2333 l 2439 2339 l 2432 2345 l
 2423 2349 l 2415 2352 l 2405 2353 l 2395 2354 l 2385 2353 l
 2375 2351 l 2365 2349 l 2355 2345 l 2347 2341 l 2338 2336 l
 2331 2331 l 2325 2325 l 2317 2316 l 2311 2307 l 2305 2296 l
 2301 2285 l 2296 2274 l 2292 2262 l 2288 2252 l 2283 2242 l
 2278 2234 l 2273 2228 l 2266 2222 l 2258 2217 l 2248 2214 l
 2238 2211 l 2226 2210 l 2215 2210 l 2204 2211 l 2193 2213 l
 2184 2216 l 2175 2220 l 2165 2226 l 2156 2233 l 2147 2240 l
 2138 2248 l 2128 2255 l 2119 2260 l 2110 2264 l 2100 2265 l
 2091 2264 l 2082 2262 l 2071 2259 l 2059 2255 l 2046 2250 l
 2034 2245 l 2021 2241 l 2009 2238 l 1998 2236 l 1988 2235 l
 1975 2236 l 1962 2240 l 1949 2245 l 1937 2251 l 1925 2258 l
 1915 2264 l 1906 2269 l 1898 2273 l 1891 2274 l 1885 2274 l
 1878 2274 l 1869 2272 l 1859 2270 l 1847 2268 l 1833 2265 l
 1817 2262 l 1799 2260 l 1778 2258 l 1764 2256 l 1750 2255 l
 1733 2255 l 1715 2254 l 1693 2253 l 1669 2253 l 1642 2252 l
 1612 2252 l 1579 2251 l 1545 2251 l 1511 2251 l 1478 2250 l
 1449 2250 l 1425 2250 l 1409 2250 l 1399 2250 l 1396 2250 l

 1395 2250 l gs col1 s gr 
% Polyline
n 1800 1800 m 1796 1802 l 1789 1807 l 1777 1814 l 1762 1824 l 1744 1836 l
 1727 1850 l 1710 1863 l 1696 1876 l 1683 1890 l 1673 1903 l
 1664 1918 l 1656 1933 l 1650 1950 l 1645 1966 l 1641 1984 l
 1637 2003 l 1633 2023 l 1630 2044 l 1626 2067 l 1623 2090 l
 1620 2113 l 1617 2136 l 1614 2158 l 1610 2180 l 1607 2200 l
 1603 2219 l 1599 2236 l 1595 2251 l 1590 2265 l 1586 2274 l
 1582 2282 l 1577 2290 l 1572 2296 l 1567 2303 l 1561 2308 l
 1555 2313 l 1549 2316 l 1543 2320 l 1537 2322 l 1530 2323 l
 1523 2324 l 1517 2324 l 1511 2323 l 1505 2322 l 1499 2320 l
 1493 2317 l 1488 2314 l 1483 2310 l 1478 2305 l 1474 2300 l
 1470 2295 l 1464 2284 l 1458 2271 l 1453 2256 l 1448 2240 l
 1444 2223 l 1440 2205 l 1436 2187 l 1432 2170 l 1427 2154 l
 1422 2139 l 1416 2126 l 1410 2115 l 1405 2108 l 1400 2103 l
 1394 2098 l 1388 2093 l 1381 2089 l 1373 2086 l 1366 2084 l
 1358 2083 l 1350 2082 l 1342 2083 l 1334 2084 l 1327 2086 l
 1319 2089 l 1312 2093 l 1306 2098 l 1300 2103 l 1295 2108 l
 1290 2115 l 1285 2125 l 1280 2136 l 1276 2149 l 1273 2165 l
 1270 2184 l 1267 2205 l 1265 2230 l 1263 2256 l 1262 2283 l
 1261 2306 l 1260 2324 l 1260 2335 l 1260 2339 l
 1260 2340 l gs col1 s gr 
% Polyline
n 1800 1800 m 1804 1802 l 1811 1807 l 1823 1814 l 1838 1824 l 1856 1836 l
 1873 1850 l 1890 1863 l 1904 1876 l 1917 1890 l 1927 1903 l
 1936 1918 l 1944 1933 l 1950 1950 l 1955 1966 l 1959 1984 l
 1963 2003 l 1967 2023 l 1970 2044 l 1974 2067 l 1977 2090 l
 1980 2113 l 1983 2136 l 1986 2158 l 1990 2180 l 1993 2200 l
 1997 2219 l 2001 2236 l 2005 2251 l 2010 2265 l 2014 2274 l
 2018 2282 l 2023 2290 l 2028 2296 l 2033 2303 l 2039 2308 l
 2045 2313 l 2051 2316 l 2057 2320 l 2063 2322 l 2070 2323 l
 2077 2324 l 2083 2324 l 2089 2323 l 2095 2322 l 2101 2320 l
 2107 2317 l 2112 2314 l 2117 2310 l 2122 2305 l 2126 2300 l
 2130 2295 l 2136 2284 l 2142 2271 l 2147 2256 l 2152 2240 l
 2156 2223 l 2160 2205 l 2164 2187 l 2168 2170 l 2173 2154 l
 2178 2139 l 2184 2126 l 2190 2115 l 2195 2108 l 2200 2103 l
 2206 2098 l 2212 2093 l 2219 2089 l 2227 2086 l 2234 2084 l
 2242 2083 l 2250 2082 l 2258 2083 l 2266 2084 l 2273 2086 l
 2281 2089 l 2288 2093 l 2294 2098 l 2300 2103 l 2305 2108 l
 2310 2115 l 2316 2126 l 2322 2139 l 2327 2154 l 2332 2170 l
 2336 2187 l 2340 2204 l 2344 2221 l 2348 2238 l 2353 2253 l
 2358 2266 l 2364 2278 l 2370 2288 l 2376 2294 l 2383 2300 l
 2392 2304 l 2400 2307 l 2410 2308 l 2420 2309 l 2430 2308 l
 2440 2306 l 2450 2304 l 2460 2300 l 2468 2296 l 2477 2291 l
 2484 2286 l 2490 2280 l 2498 2271 l 2504 2262 l 2510 2251 l
 2514 2240 l 2519 2229 l 2523 2217 l 2527 2207 l 2532 2197 l
 2537 2189 l 2543 2183 l 2548 2178 l 2555 2174 l 2562 2171 l
 2570 2168 l 2579 2167 l 2589 2166 l 2598 2167 l 2607 2168 l
 2617 2171 l 2625 2174 l 2633 2178 l 2640 2183 l 2648 2189 l
 2655 2197 l 2663 2206 l 2670 2216 l 2676 2226 l 2683 2236 l
 2689 2246 l 2695 2254 l 2701 2260 l 2708 2265 l 2714 2268 l
 2721 2270 l 2730 2271 l 2739 2271 l 2750 2269 l 2762 2267 l
 2775 2265 l 2789 2262 l 2804 2260 l 2820 2258 l 2832 2256 l
 2846 2255 l 2861 2254 l 2879 2253 l 2899 2252 l 2922 2252 l
 2948 2251 l 2975 2251 l 3001 2251 l 3025 2250 l 3043 2250 l
 3055 2250 l 3059 2250 l
 3060 2250 l gs col1 s gr 
% Polyline
0 slj
gs  clippath
3067 2243 m 3067 2257 l 2983 2265 l 3043 2250 l 2983 2235 l cp
1253 2257 m 1253 2243 l 1337 2235 l 1277 2250 l 1337 2265 l cp
eoclip
n 1260 2250 m
 3060 2250 l gs col0 s gr gr

% arrowhead
n 1337 2265 m 1277 2250 l 1337 2235 l  col0 s
% arrowhead
n 2983 2235 m 3043 2250 l 2983 2265 l  col0 s
% here ends figure;
pagefooter
showpage
%%Trailer
%EOF
