%!PS-Adobe-3.0 EPSF-3.0
%%Title: sinc.pstex
%%Creator: fig2dev Version 3.2.6a
%%CreationDate: 2020-03-19 18:33:21
%%BoundingBox: 0 0 115 35
%Magnification: 1.0000
%%EndComments
%%BeginProlog
/$F2psDict 200 dict def
$F2psDict begin
$F2psDict /mtrx matrix put
/col-1 {0 setgray} bind def
/col0 {0.000 0.000 0.000 srgb} bind def
/col1 {0.000 0.000 1.000 srgb} bind def
/col7 {1.000 1.000 1.000 srgb} bind def

end

/cp {closepath} bind def
/ef {eofill} bind def
/gr {grestore} bind def
/gs {gsave} bind def
/sa {save} bind def
/rs {restore} bind def
/l {lineto} bind def
/m {moveto} bind def
/rm {rmoveto} bind def
/n {newpath} bind def
/s {stroke} bind def
/sh {show} bind def
/slc {setlinecap} bind def
/slj {setlinejoin} bind def
/slw {setlinewidth} bind def
/srgb {setrgbcolor} bind def
/rot {rotate} bind def
/sc {scale} bind def
/sd {setdash} bind def
/ff {findfont} bind def
/sf {setfont} bind def
/scf {scalefont} bind def
/sw {stringwidth} bind def
/tr {translate} bind def
/tnt {dup dup currentrgbcolor
  4 -2 roll dup 1 exch sub 3 -1 roll mul add
  4 -2 roll dup 1 exch sub 3 -1 roll mul add
  4 -2 roll dup 1 exch sub 3 -1 roll mul add srgb}
  bind def
/shd {dup dup currentrgbcolor 4 -2 roll mul 4 -2 roll mul
  4 -2 roll mul srgb} bind def
/$F2psBegin {$F2psDict begin /$F2psEnteredState save def} def
/$F2psEnd {$F2psEnteredState restore end} def

/pageheader {
save
newpath 0 35 moveto 0 0 lineto 115 0 lineto 115 35 lineto closepath clip newpath
-78.6 147.1 translate
1 -1 scale
$F2psBegin
10 setmiterlimit
0 slj 0 slc
 0.06299 0.06299 sc
} bind def
/pagefooter {
$F2psEnd
restore
} bind def
%%EndProlog
pageheader
%
% Fig objects follow
%
% 
% here starts figure with depth 50
% Polyline
0 slj
0 slc
7.500 slw
gs  clippath
2153 1793 m 2167 1793 l 2175 1876 l 2145 1876 l cp
eoclip
n 2160 2250 m
 2160 1800 l gs col0 s gr gr

% arrowhead
n 2175 1876 m 2160 1816 l 2145 1876 l 2175 1876 l  cp gs 0.00 setgray ef gr  col0 s
% Polyline
gs  clippath
3067 2243 m 3067 2257 l 2983 2265 l 3043 2250 l 2983 2235 l cp
1253 2257 m 1253 2243 l 1337 2235 l 1277 2250 l 1337 2265 l cp
eoclip
n 1260 2250 m
 3060 2250 l gs col0 s gr gr

% arrowhead
n 1337 2265 m 1277 2250 l 1337 2235 l  col0 s
% arrowhead
n 2983 2235 m 3043 2250 l 2983 2265 l  col0 s
% Polyline
2 slj
n 2160 1800 m 2156 1802 l 2149 1807 l 2137 1814 l 2122 1824 l 2104 1836 l
 2087 1850 l 2070 1863 l 2056 1876 l 2043 1890 l 2033 1903 l
 2024 1918 l 2016 1933 l 2010 1950 l 2005 1966 l 2001 1984 l
 1997 2003 l 1993 2023 l 1990 2044 l 1986 2067 l 1983 2090 l
 1980 2113 l 1977 2136 l 1974 2158 l 1970 2180 l 1967 2200 l
 1963 2219 l 1959 2236 l 1955 2251 l 1950 2265 l 1946 2274 l
 1942 2282 l 1937 2290 l 1932 2296 l 1927 2303 l 1921 2308 l
 1915 2313 l 1909 2316 l 1903 2320 l 1897 2322 l 1890 2323 l
 1883 2324 l 1877 2324 l 1871 2323 l 1865 2322 l 1859 2320 l
 1853 2317 l 1848 2314 l 1843 2310 l 1838 2305 l 1834 2300 l
 1830 2295 l 1824 2284 l 1818 2271 l 1813 2256 l 1808 2240 l
 1804 2223 l 1800 2205 l 1796 2187 l 1792 2170 l 1787 2154 l
 1782 2139 l 1776 2126 l 1770 2115 l 1765 2108 l 1760 2103 l
 1754 2098 l 1748 2093 l 1741 2089 l 1733 2086 l 1726 2084 l
 1718 2083 l 1710 2082 l 1702 2083 l 1694 2084 l 1687 2086 l
 1679 2089 l 1672 2093 l 1666 2098 l 1660 2103 l 1655 2108 l
 1650 2115 l 1644 2126 l 1638 2139 l 1633 2154 l 1628 2170 l
 1624 2187 l 1620 2204 l 1616 2221 l 1612 2238 l 1607 2253 l
 1602 2266 l 1596 2278 l 1590 2288 l 1584 2294 l 1577 2300 l
 1568 2304 l 1560 2307 l 1550 2308 l 1540 2309 l 1530 2308 l
 1520 2306 l 1510 2304 l 1500 2300 l 1492 2296 l 1483 2291 l
 1476 2286 l 1470 2280 l 1462 2271 l 1456 2262 l 1450 2251 l
 1446 2240 l 1441 2229 l 1437 2217 l 1433 2207 l 1428 2197 l
 1423 2189 l 1418 2183 l 1411 2177 l 1402 2172 l 1391 2169 l
 1377 2166 l 1360 2164 l 1341 2162 l 1324 2161 l 1312 2160 l
 1306 2160 l
 1305 2160 l gs col1 s gr 
% Polyline
n 2160 1800 m 2164 1802 l 2171 1807 l 2183 1814 l 2198 1824 l 2216 1836 l
 2233 1850 l 2250 1863 l 2264 1876 l 2277 1890 l 2287 1903 l
 2296 1918 l 2304 1933 l 2310 1950 l 2315 1966 l 2319 1984 l
 2323 2003 l 2327 2023 l 2330 2044 l 2334 2067 l 2337 2090 l
 2340 2113 l 2343 2136 l 2346 2158 l 2350 2180 l 2353 2200 l
 2357 2219 l 2361 2236 l 2365 2251 l 2370 2265 l 2374 2274 l
 2378 2282 l 2383 2290 l 2388 2296 l 2393 2303 l 2399 2308 l
 2405 2313 l 2411 2316 l 2417 2320 l 2423 2322 l 2430 2323 l
 2437 2324 l 2443 2324 l 2449 2323 l 2455 2322 l 2461 2320 l
 2467 2317 l 2472 2314 l 2477 2310 l 2482 2305 l 2486 2300 l
 2490 2295 l 2496 2284 l 2502 2271 l 2507 2256 l 2512 2240 l
 2516 2223 l 2520 2205 l 2524 2187 l 2528 2170 l 2533 2154 l
 2538 2139 l 2544 2126 l 2550 2115 l 2555 2108 l 2560 2103 l
 2566 2098 l 2572 2093 l 2579 2089 l 2587 2086 l 2594 2084 l
 2602 2083 l 2610 2082 l 2618 2083 l 2626 2084 l 2633 2086 l
 2641 2089 l 2648 2093 l 2654 2098 l 2660 2103 l 2665 2108 l
 2670 2115 l 2676 2126 l 2682 2139 l 2687 2154 l 2692 2170 l
 2696 2187 l 2700 2204 l 2704 2221 l 2708 2238 l 2713 2253 l
 2718 2266 l 2724 2278 l 2730 2288 l 2736 2294 l 2743 2300 l
 2752 2304 l 2760 2307 l 2770 2308 l 2780 2309 l 2790 2308 l
 2800 2306 l 2810 2304 l 2820 2300 l 2828 2296 l 2837 2291 l
 2844 2286 l 2850 2280 l 2858 2271 l 2864 2262 l 2870 2251 l
 2874 2240 l 2879 2229 l 2883 2217 l 2887 2207 l 2892 2197 l
 2897 2189 l 2903 2183 l 2909 2177 l 2918 2172 l 2929 2169 l
 2943 2166 l 2960 2164 l 2979 2162 l 2996 2161 l 3008 2160 l
 3014 2160 l
 3015 2160 l gs col1 s gr 
% here ends figure;
pagefooter
showpage
%%Trailer
%EOF
