#FIG 3.2  Produced by xfig version 3.2.6a
Landscape
Center
Metric
A4
100.00
Single
-2
1200 2
0 32 #0072b2
0 33 #d35319
0 34 #e8ae20
0 35 #7e2f88
0 36 #77a730
0 37 #4db9e9
0 38 #9d142f
1 3 0 1 0 32 50 -1 20 0.000 1 0.0000 2925 1575 45 45 2925 1575 2970 1575
1 3 0 1 0 32 50 -1 20 0.000 1 0.0000 2790 855 45 45 2790 855 2835 855
1 3 0 1 0 32 50 -1 20 0.000 1 0.0000 1125 1665 45 45 1125 1665 1170 1665
1 3 0 1 0 32 50 -1 20 0.000 1 0.0000 855 945 45 45 855 945 900 945
2 2 0 1 0 7 51 -1 20 0.000 0 0 -1 0 0 5
	 810 630 2970 630 2970 1890 810 1890 810 630
2 2 0 1 0 7 50 -1 20 0.000 0 0 -1 0 0 5
	 810 450 2520 450 2520 810 810 810 810 450
2 2 0 1 0 7 50 -1 20 0.000 0 0 -1 0 0 5
	 3150 990 2880 990 2880 1530 3150 1530 3150 990
2 2 0 1 0 7 50 -1 20 0.000 0 0 -1 0 0 5
	 630 990 900 990 900 1530 630 1530 630 990
2 2 0 1 0 7 50 -1 20 0.000 0 0 -1 0 0 5
	 2970 2070 1260 2070 1260 1710 2970 1710 2970 2070
2 2 0 1 0 7 50 -1 20 0.000 0 0 -1 0 0 5
	 1125 1035 2655 1035 2655 1485 1125 1485 1125 1035
