%!PS-Adobe-3.0 EPSF-3.0
%%Title: usuLayout_transLab.pstex
%%Creator: fig2dev Version 3.2.6a
%%CreationDate: 2020-04-23 15:07:08
%%BoundingBox: 0 0 161 104
%Magnification: 1.0000
%%EndComments
%%BeginProlog
/$F2psDict 200 dict def
$F2psDict begin
$F2psDict /mtrx matrix put
/col-1 {0 setgray} bind def
/col0 {0.000 0.000 0.000 srgb} bind def
/col7 {1.000 1.000 1.000 srgb} bind def
/col32 {0.000 0.447 0.686 srgb} bind def
/col33 {0.816 0.325 0.098 srgb} bind def
/col34 {0.898 0.671 0.125 srgb} bind def
/col35 {0.494 0.184 0.522 srgb} bind def
/col36 {0.467 0.643 0.188 srgb} bind def
/col37 {0.302 0.714 0.902 srgb} bind def
/col38 {0.616 0.078 0.184 srgb} bind def

end

/cp {closepath} bind def
/ef {eofill} bind def
/gr {grestore} bind def
/gs {gsave} bind def
/sa {save} bind def
/rs {restore} bind def
/l {lineto} bind def
/m {moveto} bind def
/rm {rmoveto} bind def
/n {newpath} bind def
/s {stroke} bind def
/sh {show} bind def
/slc {setlinecap} bind def
/slj {setlinejoin} bind def
/slw {setlinewidth} bind def
/srgb {setrgbcolor} bind def
/rot {rotate} bind def
/sc {scale} bind def
/sd {setdash} bind def
/ff {findfont} bind def
/sf {setfont} bind def
/scf {scalefont} bind def
/sw {stringwidth} bind def
/tr {translate} bind def
/tnt {dup dup currentrgbcolor
  4 -2 roll dup 1 exch sub 3 -1 roll mul add
  4 -2 roll dup 1 exch sub 3 -1 roll mul add
  4 -2 roll dup 1 exch sub 3 -1 roll mul add srgb}
  bind def
/shd {dup dup currentrgbcolor 4 -2 roll mul 4 -2 roll mul
  4 -2 roll mul srgb} bind def
 /DrawEllipse {
	/endangle exch def
	/startangle exch def
	/yrad exch def
	/xrad exch def
	/y exch def
	/x exch def
	/savematrix mtrx currentmatrix def
	x y tr xrad yrad sc 0 0 1 startangle endangle arc
	closepath
	savematrix setmatrix
	} def

/$F2psBegin {$F2psDict begin /$F2psEnteredState save def} def
/$F2psEnd {$F2psEnteredState restore end} def

/pageheader {
save
newpath 0 104 moveto 0 0 lineto 161 0 lineto 161 104 lineto closepath clip newpath
-38.9 131.1 translate
1 -1 scale
$F2psBegin
10 setmiterlimit
0 slj 0 slc
 0.06299 0.06299 sc
} bind def
/pagefooter {
$F2psEnd
restore
} bind def
%%EndProlog
pageheader
%
% Fig objects follow
%
% 
% here starts figure with depth 1001
% Grid
0.5 setgray
gs 450 472 div dup scale
% Vertical
% Horizontal
gr
% here ends figure;
% 
% here starts figure with depth 51
% Polyline
0 slj
0 slc
7.500 slw
n 810 630 m 2970 630 l 2970 1890 l 810 1890 l
 cp gs col7 1.00 shd ef gr gs col0 s gr 
% Polyline
n 810 450 m 2520 450 l 2520 810 l 810 810 l
 cp gs col7 1.00 shd ef gr gs col0 s gr 
% Polyline
n 3150 990 m 2880 990 l 2880 1530 l 3150 1530 l
 cp gs col7 1.00 shd ef gr gs col0 s gr 
% Polyline
n 630 990 m 900 990 l 900 1530 l 630 1530 l
 cp gs col7 1.00 shd ef gr gs col0 s gr 
% Polyline
n 2970 2070 m 1260 2070 l 1260 1710 l 2970 1710 l
 cp gs col7 1.00 shd ef gr gs col0 s gr 
% Polyline
n 1125 1035 m 2655 1035 l 2655 1485 l 1125 1485 l
 cp gs col7 1.00 shd ef gr gs col0 s gr 
% Ellipse
n 1845 1800 32 32 0 360 DrawEllipse gs col35 1.00 shd ef gr gs col0 s gr

% here ends figure;
pagefooter
showpage
%%Trailer
%EOF
