% This file was created by matlab2tikz.
%
%The latest updates can be retrieved from
%  http://www.mathworks.com/matlabcentral/fileexchange/22022-matlab2tikz-matlab2tikz
%where you can also make suggestions and rate matlab2tikz.
%
\begin{tikzpicture}

\begin{axis}[%
width=4.44in,
height=3.566in,
at={(0.745in,0.481in)},
scale only axis,
axis on top,
xmin=-1.07254901960784,
xmax=36.0725490196078,
ymin=-1.05686274509804,
ymax=28.056862745098,
axis background/.style={fill=white},
legend style={legend cell align=left, align=left, draw=white!15!black}
]
\addplot [forget plot] graphics [xmin=-1.07254901960784, xmax=36.0725490196078, ymin=-1.05686274509804, ymax=28.056862745098] {Chapters/Chapter_3/Figures/xcorr250e3visualresults1.png};
\addplot [color=red, draw=none, mark=+, mark options={solid, red}, mark size = 4.5pt]
  table[row sep=crcr]{%
1.19	1.16\\
};
\addlegendentry{transmitter}

\addplot [color=red, draw=none, mark=o, mark options={solid, red}, mark size = 4.5pt]
  table[row sep=crcr]{%
0	12.4285714285714\\
};
\addlegendentry{receivers}

\addplot [color=red, forget plot, draw=none, mark=o, mark options={solid, red}, mark size = 4.5pt]
  table[row sep=crcr]{%
25.5555555555556	23.5714285714286\\
};

\addplot [color=black, forget plot]
  table[row sep=crcr]{%
0	0\\
0	27\\
};
% \addlegendentry{data4}

\addplot [color=black, forget plot]
  table[row sep=crcr]{%
35	0\\
35	27\\
};
% \addlegendentry{data5}

\addplot [color=black, forget plot]
  table[row sep=crcr]{%
0	0\\
35	0\\
};
% \addlegendentry{data6}

\addplot [color=black, forget plot]
  table[row sep=crcr]{%
0	27\\
35	27\\
};
% \addlegendentry{data7}

\addplot [color=black, forget plot]
  table[row sep=crcr]{%
5	10\\
5	17\\
};
% \addlegendentry{data8}

\addplot [color=black, forget plot]
  table[row sep=crcr]{%
29	10\\
29	17\\
};
% \addlegendentry{data9}

\addplot [color=black, forget plot]
  table[row sep=crcr]{%
5	10\\
29	10\\
};
% \addlegendentry{data10}

\addplot [color=black, forget plot]
  table[row sep=crcr]{%
5	17\\
29	17\\
};
% \addlegendentry{data11}

\addplot [color=black, forget plot]
  table[row sep=crcr]{%
5	0\\
5	7\\
};
% \addlegendentry{data12}

\addplot [color=black, forget plot]
  table[row sep=crcr]{%
20	0\\
20	7\\
};
% \addlegendentry{data13}

\addplot [color=black, forget plot]
  table[row sep=crcr]{%
5	20\\
5	27\\
};
% \addlegendentry{data14}

\addplot [color=black, forget plot]
  table[row sep=crcr]{%
20	20\\
20	27\\
};
% \addlegendentry{data15}

\addplot [color=black, forget plot]
  table[row sep=crcr]{%
3	7\\
10	7\\
};
% \addlegendentry{data16}

\addplot [color=black, forget plot]
  table[row sep=crcr]{%
12	20\\
29	20\\
};
% \addlegendentry{data17}

\addplot [color=black, forget plot]
  table[row sep=crcr]{%
3	20\\
8	20\\
};
% \addlegendentry{data18}

\addplot [color=black, forget plot]
  table[row sep=crcr]{%
12	7\\
29	7\\
};
% \addlegendentry{data19}

\end{axis}
\end{tikzpicture}%