% This file was created by matlab2tikz.
%
%The latest updates can be retrieved from
%  http://www.mathworks.com/matlabcentral/fileexchange/22022-matlab2tikz-matlab2tikz
%where you can also make suggestions and rate matlab2tikz.
%
\definecolor{mycolor1}{rgb}{0.00000,0.44700,0.74100}%
\definecolor{mycolor2}{rgb}{0.85000,0.32500,0.09800}%
%
\begin{tikzpicture}

\begin{axis}[%
width=1.972in,
height=3.2in,
at={(0.772in,0.512in)},
scale only axis,
xmin=0,
xmax=100,
xlabel style={font=\color{white!15!black}, align=center},
xlabel={Sample Index\\[1ex](a) Actual},
ymin=0,
ymax=1,
axis background/.style={fill=white},
legend style={legend cell align=left, align=left, draw=white!15!black}
]
\addplot [color=mycolor1]
  table[row sep=crcr]{%
1	0.0216926152020066\\
2	0.0241183965289278\\
3	0.0267807478156139\\
4	0.0354280601095614\\
5	0.221828667704926\\
6	0.648965745595675\\
7	0.241270440438586\\
8	0.0776642628644082\\
9	0.0581044824071981\\
10	0.0611489366831747\\
11	0.0798140419847986\\
12	0.062735544320507\\
13	0.113011040425493\\
14	0.377485382687519\\
15	0.331649248845691\\
16	0.18615433793772\\
17	0.146493252817741\\
18	0.0847190801249442\\
19	0.0628278567269286\\
20	0.0148364296169451\\
21	0.0250471739922352\\
22	0.0344835915107885\\
23	0.116323790948646\\
24	0.279210940275387\\
25	0.101045410677318\\
26	0.0464379665429307\\
27	0.041398863205924\\
28	0.0263226969199998\\
29	0.0221848789960478\\
30	0.0197642774213948\\
31	0.0186496517239344\\
32	0.0219339353832985\\
33	0.018414044189717\\
34	0.00937919788338426\\
35	0.0100670783096178\\
36	0.0098135024549665\\
37	0.00937197330245933\\
38	0.00884810306396591\\
39	0.00821513429074651\\
40	0.00732026654240377\\
41	0.00945021173361951\\
42	0.0127255218727005\\
43	0.00946415089832864\\
44	0.00862800399957479\\
45	0.00816256372793386\\
46	0.00784857678072338\\
47	0.00764005346579914\\
48	0.00755773656417068\\
49	0.00776075567554332\\
50	0.00986938420958768\\
51	0.00319649311885596\\
52	0.00500292172051245\\
53	0.00524752973649041\\
54	0.00526667690567613\\
55	0.00521575322380608\\
56	0.00513704586881206\\
57	0.00504647235310817\\
58	0.00495116794332671\\
59	0.00485468351773321\\
60	0.00475890010347922\\
61	0.00466484578572566\\
62	0.00457308311118313\\
63	0.00448390798586452\\
64	0.0043974582605137\\
65	0.00431377595094964\\
66	0.00423284428954661\\
67	0.00415461047403326\\
68	0.00407899997367922\\
69	0.00400592569101114\\
70	0.00393529390404367\\
71	0.0038670081481966\\
72	0.00380097175500134\\
73	0.00373708950172093\\
74	0.00367526866536834\\
75	0.00361541967416126\\
76	0.00355745648532918\\
77	0.00350129677649243\\
78	0.00344686201027152\\
79	0.00339407741330312\\
80	0.00334287189828014\\
81	0.0032931779490063\\
82	0.00324493148246751\\
83	0.00319807169773062\\
84	0.003152540918526\\
85	0.00310828443427485\\
86	0.00306525034282854\\
87	0.00302338939712195\\
88	0.00298265485717807\\
89	0.00294300234835571\\
90	0.00290438972634362\\
91	0.0028667769491261\\
92	0.00283012595595264\\
93	0.0027944005532083\\
94	0.00275956630699144\\
95	0.0027255904421446\\
96	0.00269244174744817\\
97	0.00266009048666622\\
98	0.00262850831512411\\
99	0\\
100	0\\
};
\addlegendentry{$\mathbf{h_1}$}

\addplot [color=mycolor2]
  table[row sep=crcr]{%
1	0.00108294891904515\\
2	0.00115806441999571\\
3	0.00125656841390277\\
4	0.00139359850086552\\
5	0.00159676508941691\\
6	0.00191784013184518\\
7	0.00245777585368985\\
8	0.00342819163679349\\
9	0.00533730915065768\\
10	0.00974214709050295\\
11	0.0244449264542886\\
12	0.973731186814765\\
13	0.0500739614470277\\
14	0.0426946282907342\\
15	0.00536788790071817\\
16	0.0362080823589407\\
17	0.176144271962331\\
18	0.115663212635922\\
19	0.0234963057121139\\
20	0.0138738178597906\\
21	0.00966054585381422\\
22	0.00731818549393035\\
23	0.00584139575065055\\
24	0.0048330083027894\\
25	0.00410500747522503\\
26	0.00355723928842746\\
27	0.00313167065616096\\
28	0.00279247304593218\\
29	0.00251639833876938\\
30	0.00228774297450139\\
31	0.00209554142652578\\
32	0.00193191967393617\\
33	0.00179108704155738\\
34	0.00166869616651274\\
35	0\\
36	0\\
37	0\\
38	0\\
39	0\\
40	0\\
41	0\\
42	0\\
43	0\\
44	0\\
45	0\\
46	0\\
47	0\\
48	0\\
49	0\\
50	0\\
51	0\\
52	0\\
53	0\\
54	0\\
55	0\\
56	0\\
57	0\\
58	0\\
59	0\\
60	0\\
61	0\\
62	0\\
63	0\\
64	0\\
65	0\\
66	0\\
67	0\\
68	0\\
69	0\\
70	0\\
71	0\\
72	0\\
73	0\\
74	0\\
75	0\\
76	0\\
77	0\\
78	0\\
79	0\\
80	0\\
81	0\\
82	0\\
83	0\\
84	0\\
85	0\\
86	0\\
87	0\\
88	0\\
89	0\\
90	0\\
91	0\\
92	0\\
93	0\\
94	0\\
95	0\\
96	0\\
97	0\\
98	0\\
99	0\\
100	0\\
};
\addlegendentry{$\mathbf{h_{2}}$}

\end{axis}

\begin{axis}[%
width=1.972in,
height=3.2in,
at={(3.386in,0.512in)},
scale only axis,
xmin=0,
xmax=100,
xlabel style={font=\color{white!15!black}, align=center},
xlabel={Sample Index\\[1ex](b) Estimated},
ymin=0,
ymax=1,
axis background/.style={fill=white},
legend style={legend cell align=left, align=left, draw=white!15!black}
]
\addplot [color=mycolor1]
  table[row sep=crcr]{%
0	5.51777810177306e-06\\
1	3.67409645201653e-05\\
2	9.88942194480966e-05\\
3	3.63888181377695e-05\\
4	9.08670504700085e-05\\
5	3.45909027620816e-05\\
6	9.89061466266889e-05\\
7	4.53018014840774e-05\\
8	8.28077896977471e-05\\
9	8.54121871036507e-05\\
10	2.79317805488933e-05\\
11	3.06269439633861e-05\\
12	2.39342398415149e-05\\
13	7.89626731297813e-05\\
14	0.000252747559102109\\
15	0.00281776799141647\\
16	0.00447883300191165\\
17	0.00441281336415846\\
18	0.00102539103375284\\
19	5.93574007491951e-05\\
20	3.74214471604416e-05\\
21	5.47313457020069e-05\\
22	0.00338609481233366\\
23	0.000204985004549874\\
24	0.0133717334415289\\
25	0.039631711471002\\
26	0.000599203987252185\\
27	0.0104853851826931\\
28	0.000328707553891525\\
29	0.0042612094790329\\
30	0.00516234943347688\\
31	0.0101075089628006\\
32	0.0342951521611218\\
33	0.0739339929421785\\
34	0.0452819645340673\\
35	0.0566082188016905\\
36	0.0327427639924886\\
37	0.0202554348660308\\
38	0.0744550581316652\\
39	0.0177143747978049\\
40	0.0354427040224835\\
41	0.00700291478582271\\
42	0.177768732338069\\
43	0.677775405855719\\
44	0.205055853014548\\
45	0.0268204462440984\\
46	0.111443590154875\\
47	0.0809380821540568\\
48	0.122497351763947\\
49	0.0279494157076916\\
50	0.0974470319972427\\
51	0.371950059154741\\
52	0.289511057826953\\
53	0.185185137032617\\
54	0.122575492908932\\
55	0.0779114304803848\\
56	0.0783387582427362\\
57	0.0544857831509311\\
58	0.037266106541625\\
59	0.0662508018953921\\
60	0.139627724835473\\
61	0.267161960558557\\
62	0.0621624098830627\\
63	0.00830886524268115\\
64	0.0113605843081134\\
65	0.012533331658647\\
66	0.0104621586305325\\
67	0.0318802024103741\\
68	0.0464549724718054\\
69	0.0707957294634523\\
70	0.0312016792691605\\
71	0.0180938198918187\\
72	0.00434179657774038\\
73	0.0207506842617353\\
74	0.0155433668180274\\
75	0.01221682530101\\
76	0.00519619779846397\\
77	0.0111841582894221\\
78	0.0213034937370887\\
79	0.0119485322403179\\
80	0.0128868290044421\\
81	0.00379226688379399\\
82	0.003164798348582\\
83	0.00655055224136898\\
84	0.0079875052225047\\
85	0.00741756950567418\\
86	0.0118646501805139\\
87	0.0110431202933853\\
88	0.000106297757532054\\
89	0.00395862469997909\\
90	0.00248367827190301\\
91	0.00223385547574255\\
92	0.00139841904819195\\
93	0.000712849932542738\\
94	0.000710258853920308\\
95	0.000859725843764502\\
96	0.00362124910778566\\
97	0.00340480420836598\\
98	0.00162997016984995\\
99	0.00197707600081996\\
};
\addlegendentry{$\mathbf{\hat{h}_{1}}$}

\addplot [color=mycolor2]
  table[row sep=crcr]{%
0	3.30256999398591e-05\\
1	3.15193287731372e-05\\
2	2.30355082398434e-05\\
3	4.39465981388797e-05\\
4	0.000104174713934883\\
5	0.00147346421189396\\
6	0.00174108744648218\\
7	1.81915702886384e-05\\
8	7.29529921590077e-05\\
9	2.50404958897473e-05\\
10	5.20833462067102e-05\\
11	0.000186342329737655\\
12	0.000652388938336954\\
13	0.00144039980568739\\
14	0.000109372166604267\\
15	0.00580347723709066\\
16	0.0030693510594097\\
17	0.00203085004128737\\
18	0.00202056581725905\\
19	0.000514238692684927\\
20	0.00326506813650821\\
21	0.0127353501785483\\
22	0.00579943864230448\\
23	0.0182018500378819\\
24	0.00959870351971245\\
25	0.000608212394692774\\
26	0.00355221203301206\\
27	0.00130766173949516\\
28	0.00420540852603872\\
29	0.00594616429759279\\
30	0.0161018087513437\\
31	0.0773567723043672\\
32	0.0175564507409409\\
33	0.026865534648486\\
34	0.0132421828661996\\
35	0.00940577941883294\\
36	0.00714730253004538\\
37	2.4295734921304e-05\\
38	0.0563685568728399\\
39	0.0763434457991485\\
40	0.0279591399578372\\
41	0.125742081705003\\
42	0.0054719691986117\\
43	0.0177107197743093\\
44	0.0369644818891325\\
45	0.0231155579875129\\
46	0.0264132302244394\\
47	0.0443512025491031\\
48	0.00935223643358543\\
49	0.959720940753179\\
50	0.00840810322182312\\
51	0.0447385040909966\\
52	0.0288988849241768\\
53	0.0236016374105354\\
54	0.037922189185719\\
55	0.0175654476719124\\
56	0.00473903995235653\\
57	0.126178554133592\\
58	0.0283605739399927\\
59	0.0770429623452705\\
60	0.0580786890865594\\
61	1.72286963397255e-05\\
62	0.0075543528369393\\
63	0.0105786728215136\\
64	0.0144422725744729\\
65	0.0275754416479823\\
66	0.0170159209366003\\
67	0.0791208600969402\\
68	0.0161015111439831\\
69	0.00552153038951977\\
70	0.00405574858857039\\
71	0.00129985979795118\\
72	0.00254824683798213\\
73	0.000968314924948904\\
74	0.0096633574350333\\
75	0.0171893559340106\\
76	0.00626382476756653\\
77	0.0140331036151724\\
78	0.00375818333846384\\
79	0.00101672942412278\\
80	0.00243039917911578\\
81	0.00323004355250878\\
82	0.00390627979462442\\
83	0.00651588551908577\\
84	0.000165526376826417\\
85	0.00142548155914964\\
86	0.000633524373762739\\
87	0.000544880423360739\\
88	1.15107387800797e-05\\
89	2.44943534986596e-05\\
90	0.000122682633380995\\
91	8.8007633455842e-05\\
92	0.00207402403923138\\
93	0.00184781235288351\\
94	0.000453847748089912\\
95	3.08911184266953e-05\\
96	2.01562195446388e-05\\
97	5.6669668228292e-05\\
98	5.68394596665337e-05\\
99	3.67328235659341e-05\\
};
\addlegendentry{$\mathbf{\hat{h}_{2}}$}

\end{axis}
\end{tikzpicture}%