% This file was created by matlab2tikz.
%
%The latest updates can be retrieved from
%  http://www.mathworks.com/matlabcentral/fileexchange/22022-matlab2tikz-matlab2tikz
%where you can also make suggestions and rate matlab2tikz.
%
\definecolor{mycolor1}{rgb}{0.00000,0.44700,0.74100}%
\definecolor{mycolor2}{rgb}{0.85000,0.32500,0.09800}%
%
\begin{tikzpicture}

\begin{axis}[%
width=1.935in,
height=3.2in,
at={(0.758in,0.512in)},
scale only axis,
xmin=0,
xmax=200,
xlabel style={font=\color{white!15!black}, align=center},
xlabel={Sample Index\\[1ex](a) Actual},
ymin=0,
ymax=1,
axis background/.style={fill=white},
legend style={legend cell align=left, align=left, draw=white!15!black}
]
\addplot [color=mycolor1]
  table[row sep=crcr]{%
1	0.0167418731260698\\
2	0.018659722218203\\
3	0.0211495716349754\\
4	0.0245407494314006\\
5	0.029505643974117\\
6	0.0377161636169434\\
7	0.0550750576238134\\
8	0.131028403455825\\
9	0.141533477104454\\
10	0.158175166246243\\
11	0.163761757297189\\
12	0.600100605556833\\
13	0.118033417583129\\
14	0.0610914209628117\\
15	0.0426162246246858\\
16	0.0332715711707656\\
17	0.0321939439283243\\
18	0.0268871008873183\\
19	0.0316920608120786\\
20	0.0286771919664519\\
21	0.00773119825769845\\
22	0.0330073087209196\\
23	0.019415059292473\\
24	0.0177688778425817\\
25	0.0188194600762088\\
26	0.0237714798713867\\
27	0.0430806655948836\\
28	0.586023006720236\\
29	0.0970905103802927\\
30	0.0246981078960262\\
31	0.0780346253424249\\
32	0.0580455436901626\\
33	0.0681836526256362\\
34	0.163824852865525\\
35	0.0446106828365612\\
36	0.06119675966513\\
37	0.00907835157153909\\
38	0.0310093774848825\\
39	0.00125972832884384\\
40	0.005422098150711\\
41	0.0107374596162295\\
42	0.0165479326643041\\
43	0.024789327411243\\
44	0.0446277431282512\\
45	0.058019450740893\\
46	0.074843365423057\\
47	0.199666615467323\\
48	0.216838516027539\\
49	0.0783890355452335\\
50	0.0495529240878659\\
51	0.0370791446049236\\
52	0.0307530810094058\\
53	0.0155757068681131\\
54	0.0198807977432187\\
55	0.0179871495341263\\
56	0.0162887905400521\\
57	0.0148728268904216\\
58	0.0136909847461918\\
59	0.0126943671543235\\
60	0.011846112844806\\
61	0.0111233301448608\\
62	0.0105291449791113\\
63	0.0102108676347222\\
64	0.00751288118280402\\
65	0.00739035992869396\\
66	0.0116365722557393\\
67	0.00899390796280924\\
68	0.00831157148096884\\
69	0.00788086875151191\\
70	0.00754217236777393\\
71	0.00725475830161164\\
72	0.00700327644843893\\
73	0.006780818536885\\
74	0.00658453626015097\\
75	0.00641472878078445\\
76	0.00627599401250467\\
77	0.00618216997550965\\
78	0.00617516728867787\\
79	0.00642745729543014\\
80	0.00873051939586948\\
81	0.00471465923588381\\
82	0.00195996010568866\\
83	0.004980313957114\\
84	0.00475839614864904\\
85	0.00464733241660508\\
86	0.00455444244400457\\
87	0.00446749239384432\\
88	0.00438406292262191\\
89	0.00430366820355207\\
90	0.00422628355118023\\
91	0.00415201532524293\\
92	0.00408104289588831\\
93	0.00401365198230764\\
94	0.00395033763548775\\
95	0.00389203620501121\\
96	0.00384070443755282\\
97	0.00380107128140597\\
98	0.00378779867734327\\
99	0.00387836096292209\\
100	0.00228454900881806\\
101	0.00321909463290553\\
102	0.00328982387499096\\
103	0.00328100374444436\\
104	0.00325253146337885\\
105	0.00321692683031362\\
106	0.00317840637543852\\
107	0.00313876414674543\\
108	0.00309887602618152\\
109	0.00305920797263281\\
110	0.00302002111537278\\
111	0.00298146552488656\\
112	0.00294362726599965\\
113	0.0029065537719176\\
114	0.00287026833389302\\
115	0.00283477876811283\\
116	0.00280008280049957\\
117	0.00276617151884636\\
118	0.00273303164395387\\
119	0.00270064705586787\\
120	0.00266899983729428\\
121	0.00263807099659409\\
122	0.00260784097374635\\
123	0.00257828999668392\\
124	0.00254939833288439\\
125	0.00252114646667125\\
126	0.00249351522323938\\
127	0.00246648585412356\\
128	0.00244004009455901\\
129	0.00241416020024051\\
130	0.00238882896892876\\
131	0.0023640297508985\\
132	0.00233974645117835\\
133	0.00231596352577768\\
134	0.00229266597354371\\
135	0.00226983932488367\\
136	0.00224746962828519\\
137	0.00222554343533969\\
138	0.00220404778480324\\
139	0.00218297018609978\\
140	0.00216229860257188\\
141	0.00214202143470905\\
142	0.00212212750352594\\
143	0.00210260603421662\\
144	0.00208344664017788\\
145	0.00206463930746792\\
146	0.00204617437974413\\
147	0.00202804254371082\\
148	0.00201023481509265\\
149	0.00199274252514179\\
150	0.00197555730767936\\
151	0.0019586710866655\\
152	0.00194207606428942\\
153	0.00192576470956709\\
154	0.00190972974743187\\
155	0.00189396414830307\\
156	0.00187846111811499\\
157	0.00186321408878906\\
158	0.00184821670913216\\
159	0.00183346283614256\\
160	0.00181894652670628\\
161	0.00180466202966742\\
162	0.00179060377825436\\
163	0.00177676638284649\\
164	0.00176314462406556\\
165	0.00174973344617591\\
166	0.0017365279507797\\
167	0.00172352339079259\\
168	0.00171071516468654\\
169	0.00169809881098722\\
170	0.00168567000301325\\
171	0.00167342454384613\\
172	0.00166135836151948\\
173	0.00164946750441694\\
174	0.00163774813686889\\
175	0.00162619653493841\\
176	0.00161480908238697\\
177	0.00160358226681213\\
178	0.001592512675948\\
179	0.00158159699412143\\
180	0.00157083199885632\\
181	0.00156021455761888\\
182	0.00154974162469766\\
183	0.00153941023821136\\
184	0.00152921751723897\\
185	0.00151916065906659\\
186	0.00150923693654504\\
187	0.00149944369555362\\
188	0.00148977835256491\\
189	0.00148023839230615\\
190	0.0014708213655126\\
191	0.00146152488676917\\
192	0.00145234663243548\\
193	0.00144328433865201\\
194	0.00143433579942216\\
195	0.0014254988647679\\
196	0.00141677143895562\\
197	0.00140815147878894\\
198	0.00139963699196521\\
199	0\\
200	0\\
};
\addlegendentry{$\mathbf{h_1}$}

\addplot [color=mycolor2]
  table[row sep=crcr]{%
1	0.00495033386861547\\
2	0.00515738368500011\\
3	0.00538309861623286\\
4	0.00563019833310769\\
5	0.00590197136255583\\
6	0.00620243506959928\\
7	0.00653655369620811\\
8	0.00691054090538825\\
9	0.00733228812251618\\
10	0.00781198494389501\\
11	0.00836304134465097\\
12	0.0090034999823859\\
13	0.00975827527656913\\
14	0.0106628508662167\\
15	0.0117696896019869\\
16	0.0131600228416925\\
17	0.0149671880151623\\
18	0.0174273921400842\\
19	0.0210049332363351\\
20	0.0267613442180004\\
21	0.037792597580649\\
22	0.068721841139076\\
23	0.97572931769219\\
24	0.0649085399616321\\
25	0.0262918397391367\\
26	0.0126468169615953\\
27	0.00419508123086451\\
28	0.0214241856295046\\
29	0.0134643328328179\\
30	0.00412679327935559\\
31	0.0112712342656943\\
32	0.0282552508318709\\
33	0.111702725947746\\
34	0.12653020104749\\
35	0.0361926668223949\\
36	0.024130019396178\\
37	0.019518168382204\\
38	0.0163235660243771\\
39	0.0140849625225472\\
40	0.0124312948441269\\
41	0.0111552918846637\\
42	0.0101369616841952\\
43	0.00930266674553233\\
44	0.00860476970863487\\
45	0.00801105372801389\\
46	0.00749890841387189\\
47	0.00705196472677567\\
48	0.00665805661850076\\
49	0.0063079366485928\\
50	0.00599443852440938\\
51	0.00571191453485358\\
52	0.00545584764793091\\
53	0.0052225778141873\\
54	0.00500910486747672\\
55	0.00481294397681212\\
56	0.00463201789166602\\
57	0.00446457542356871\\
58	0.00430912894812168\\
59	0.00416440590497024\\
60	0.00402931074167137\\
61	0.00390289474814389\\
62	0.00378433192171684\\
63	0.00367289949042518\\
64	0.0035679620699816\\
65	0.00346895868109233\\
66	0.00337539203747226\\
67	0.00328681965070268\\
68	0.00320284639950925\\
69	0\\
70	0\\
71	0\\
72	0\\
73	0\\
74	0\\
75	0\\
76	0\\
77	0\\
78	0\\
79	0\\
80	0\\
81	0\\
82	0\\
83	0\\
84	0\\
85	0\\
86	0\\
87	0\\
88	0\\
89	0\\
90	0\\
91	0\\
92	0\\
93	0\\
94	0\\
95	0\\
96	0\\
97	0\\
98	0\\
99	0\\
100	0\\
101	0\\
102	0\\
103	0\\
104	0\\
105	0\\
106	0\\
107	0\\
108	0\\
109	0\\
110	0\\
111	0\\
112	0\\
113	0\\
114	0\\
115	0\\
116	0\\
117	0\\
118	0\\
119	0\\
120	0\\
121	0\\
122	0\\
123	0\\
124	0\\
125	0\\
126	0\\
127	0\\
128	0\\
129	0\\
130	0\\
131	0\\
132	0\\
133	0\\
134	0\\
135	0\\
136	0\\
137	0\\
138	0\\
139	0\\
140	0\\
141	0\\
142	0\\
143	0\\
144	0\\
145	0\\
146	0\\
147	0\\
148	0\\
149	0\\
150	0\\
151	0\\
152	0\\
153	0\\
154	0\\
155	0\\
156	0\\
157	0\\
158	0\\
159	0\\
160	0\\
161	0\\
162	0\\
163	0\\
164	0\\
165	0\\
166	0\\
167	0\\
168	0\\
169	0\\
170	0\\
171	0\\
172	0\\
173	0\\
174	0\\
175	0\\
176	0\\
177	0\\
178	0\\
179	0\\
180	0\\
181	0\\
182	0\\
183	0\\
184	0\\
185	0\\
186	0\\
187	0\\
188	0\\
189	0\\
190	0\\
191	0\\
192	0\\
193	0\\
194	0\\
195	0\\
196	0\\
197	0\\
198	0\\
199	0\\
200	0\\
};
\addlegendentry{$\mathbf{h_{2}}$}

\end{axis}

\begin{axis}[%
width=1.935in,
height=3.2in,
at={(3.327in,0.512in)},
scale only axis,
xmin=0,
xmax=400,
xlabel style={font=\color{white!15!black}, align=center},
xlabel={Sample Index\\[1ex](b) Estimated},
ymin=0,
ymax=1,
axis background/.style={fill=white},
legend style={legend cell align=left, align=left, draw=white!15!black}
]
\addplot [color=mycolor1]
  table[row sep=crcr]{%
0	4.75536659077401e-05\\
1	3.6440137140492e-05\\
2	9.95865291761543e-05\\
3	8.30273254332374e-05\\
4	5.40653555139021e-05\\
5	1.77036307489995e-05\\
6	9.33276383425671e-05\\
7	0.000112279797996127\\
8	0.000234177524654063\\
9	3.44034857698303e-05\\
10	0.000138318389394542\\
11	5.4176399854984e-05\\
12	7.09204724368306e-05\\
13	6.33408184090623e-05\\
14	0.000121319154459727\\
15	4.97063520165772e-05\\
16	7.0965696742666e-05\\
17	5.54724168318103e-05\\
18	5.93102672892058e-05\\
19	0.000108399706326015\\
20	9.5136822297927e-05\\
21	5.03311069384226e-05\\
22	3.59475305781603e-05\\
23	2.82359439549707e-05\\
24	0.000142052827376493\\
25	8.35906667813718e-06\\
26	0.000109312028443992\\
27	1.3120919316288e-05\\
28	7.73978630329832e-05\\
29	0.000193826492487741\\
30	0.000147284522271289\\
31	1.93982951968672e-05\\
32	9.39642039109617e-05\\
33	4.57512047665064e-05\\
34	9.37750992868858e-05\\
35	0.000173275109148378\\
36	4.09422169645011e-05\\
37	6.26284304230327e-06\\
38	2.59380803422759e-05\\
39	3.10056071578561e-05\\
40	0.000122887542841598\\
41	0.000187516576502106\\
42	0.000103303535795904\\
43	0.000131955717438877\\
44	1.53127328606751e-05\\
45	1.97611421244707e-05\\
46	1.81702278540222e-05\\
47	0.000119233353200322\\
48	8.62042666119384e-05\\
49	8.82212017435414e-05\\
50	0.000129515940189498\\
51	1.04749282414513e-05\\
52	9.09696249539132e-05\\
53	2.90395050150154e-05\\
54	7.49799296819658e-05\\
55	3.20001020436193e-05\\
56	1.1510905138377e-05\\
57	7.80481097313288e-05\\
58	8.71671331774618e-05\\
59	0.000109562112626739\\
60	5.59566414943983e-05\\
61	5.70643407368381e-05\\
62	0.000201238500133449\\
63	6.68997057649298e-05\\
64	1.86726400847338e-05\\
65	2.32223502616262e-05\\
66	0.000109047588411726\\
67	9.64683441330884e-05\\
68	0.000117347777496176\\
69	5.03448747976072e-05\\
70	3.920077223187e-05\\
71	1.25679390634717e-05\\
72	7.09989433260682e-05\\
73	7.95860154404067e-05\\
74	0.000283546375445915\\
75	8.06072933472944e-05\\
76	6.66985861434913e-05\\
77	5.19451865409646e-05\\
78	3.32602275184423e-05\\
79	3.0250931645852e-05\\
80	2.36694891150036e-05\\
81	4.68972725809412e-05\\
82	0.000121130922220407\\
83	0.000158427029232946\\
84	0.000167646671313014\\
85	4.25441823910788e-05\\
86	7.26607852301656e-05\\
87	6.19339956906432e-05\\
88	1.40678084947343e-05\\
89	6.23125689478425e-05\\
90	0.000144872707236006\\
91	3.0345619931181e-05\\
92	5.20793929432786e-05\\
93	2.51741460475678e-05\\
94	6.78633215140953e-05\\
95	0.000147699222200298\\
96	8.40704236307314e-05\\
97	1.95643919649477e-05\\
98	0.000618126043417736\\
99	0.000118896269330813\\
100	7.62640861080135e-05\\
101	0.000118145267728295\\
102	2.8571504308815e-05\\
103	0.000120497743016768\\
104	1.47854892823687e-05\\
105	7.25195311034042e-05\\
106	3.80296672034867e-05\\
107	0.000164318888824781\\
108	9.65677354851013e-06\\
109	1.73319793647807e-05\\
110	2.93012921131281e-05\\
111	7.4093516928526e-05\\
112	5.86260845963462e-05\\
113	3.2331551946488e-05\\
114	2.15013022371566e-05\\
115	3.74173931947468e-05\\
116	0.000165349323184596\\
117	3.46504828674699e-05\\
118	1.13489710403906e-05\\
119	7.88483684226056e-05\\
120	0.000106150823065102\\
121	1.84743713388125e-05\\
122	7.1454021579171e-05\\
123	6.10327466889455e-05\\
124	6.00260302477546e-05\\
125	3.4643099481304e-05\\
126	1.40926036351911e-05\\
127	8.79998748520839e-05\\
128	3.11605840580849e-05\\
129	0.000130433507506939\\
130	6.87132216680182e-05\\
131	0.000348111542434031\\
132	8.46427993027326e-05\\
133	6.90419259179459e-05\\
134	0.000550593841842486\\
135	8.71397888258725e-05\\
136	1.44166483106963e-05\\
137	2.82124551070546e-05\\
138	2.5515163557859e-05\\
139	8.1992076138021e-05\\
140	0.000194326519938301\\
141	5.15212203874401e-05\\
142	4.02589394078766e-05\\
143	2.69318055275523e-05\\
144	2.28346143481e-05\\
145	4.22608128464071e-05\\
146	6.78390982824806e-06\\
147	2.57197654422624e-05\\
148	0.000116409223381108\\
149	0.00615863593238168\\
150	0.00801978407538911\\
151	0.000830332893537195\\
152	0.0114771112317929\\
153	0.000112157600367212\\
154	0.000214140350680741\\
155	0.000481879168373109\\
156	8.82771774427675e-06\\
157	0.000735810211753688\\
158	9.18542706911517e-05\\
159	0.000130696852905988\\
160	0.000116777895868924\\
161	0.000414386528292237\\
162	0.0057788906214157\\
163	0.00203920163213246\\
164	0.000155355266367198\\
165	0.0104593990543284\\
166	0.00478839687013849\\
167	0.00315990664230759\\
168	0.0444973028105224\\
169	0.0184954195704073\\
170	0.0257176768770416\\
171	0.000745752341589677\\
172	0.0495928745302141\\
173	0.0115363269194083\\
174	0.0294529875223192\\
175	0.0354243928926148\\
176	0.0143883573487341\\
177	0.0852361729410756\\
178	0.00182167961276765\\
179	0.00458948278953096\\
180	0.00335462075328849\\
181	0.00928416525681826\\
182	0.0427440195558815\\
183	0.0633271948267883\\
184	0.148971042359218\\
185	0.0978674505856512\\
186	0.131512516328899\\
187	0.213557430041664\\
188	0.575364624440032\\
189	0.130187179085083\\
190	0.061196778861462\\
191	0.00529208491606225\\
192	0.0413484767164589\\
193	0.057900415588675\\
194	0.0638135581469712\\
195	0.0107293457638506\\
196	0.02550574552084\\
197	0.00978372432870707\\
198	0.0416978948979784\\
199	0.0274124544541524\\
200	0.0279497513072569\\
201	0.0389061517811589\\
202	0.047834217346291\\
203	0.0721234128693106\\
204	0.587435419810622\\
205	0.128551154628883\\
206	0.0183688888161851\\
207	0.0528814776490342\\
208	0.0546227005887712\\
209	0.0719539515359968\\
210	0.168227304812915\\
211	0.0174698389199553\\
212	0.0394321928099623\\
213	0.0296902217104285\\
214	0.00205351787545873\\
215	0.00890665763509567\\
216	2.34507120019522e-05\\
217	0.00110555214012522\\
218	0.0125758165681172\\
219	0.0149257091328253\\
220	0.083060817479393\\
221	0.0647971189177604\\
222	0.0775550330574281\\
223	0.21905013114609\\
224	0.169880196828307\\
225	0.0747277643539036\\
226	0.0495260267382735\\
227	0.0112903576297309\\
228	0.0226504236829194\\
229	0.0177077060959587\\
230	0.00013770427064343\\
231	0.00384856466378695\\
232	0.0127438234126395\\
233	0.00935415269636353\\
234	7.36916905164233e-05\\
235	0.00989154947774055\\
236	0.00821801186339857\\
237	0.00131483252608687\\
238	0.0106763877622845\\
239	0.0307841434302867\\
240	0.0258726164379958\\
241	0.00401265335721923\\
242	0.0103613556398319\\
243	0.00589859891870338\\
244	0.00292193233236417\\
245	0.00119764514581903\\
246	0.00283259015472592\\
247	0.000258354440369063\\
248	0.00023434088322672\\
249	2.4721666866974e-05\\
250	0.000746743824851565\\
251	0.000414538290024461\\
252	0.000173402658973991\\
253	1.34311280324792e-05\\
254	7.59093752496666e-05\\
255	3.68435460907512e-05\\
256	0.00601642743366208\\
257	0.00246141407790787\\
258	0.000530365618821534\\
259	0.00198759541981836\\
260	4.51643449769766e-05\\
261	2.14130954975536e-05\\
262	0.000165310017445679\\
263	7.36861213348398e-05\\
264	5.60183790934685e-05\\
265	0.000184069611502441\\
266	1.6499496229253e-05\\
267	3.2674762244043e-05\\
268	0.000174681828101156\\
269	4.90186449955009e-05\\
270	2.74737638974618e-05\\
271	0.000174225337296767\\
272	9.08889503228478e-05\\
273	6.09537584616466e-05\\
274	3.3026771395617e-05\\
275	0.000109193197886354\\
276	6.5477451340012e-05\\
277	3.43281398905937e-05\\
278	4.07612110002739e-05\\
279	8.00647790672657e-05\\
280	9.08768517038225e-05\\
281	0.000126106018652568\\
282	8.649849723602e-05\\
283	0.000173448764551762\\
284	9.16904980695334e-05\\
285	0.000163638247398139\\
286	2.18263854486566e-05\\
287	4.53773758271148e-05\\
288	0.000225540530131728\\
289	0.000112314821632146\\
290	0.000175889959015052\\
291	0.000152849353036473\\
292	0.000261565546988957\\
293	6.70030990202043e-05\\
294	5.03605199301712e-05\\
295	0.000136349184686361\\
296	5.59219517927893e-05\\
297	0.000280548300855283\\
298	0.000160910358925143\\
299	2.91374044460279e-05\\
300	0.000123917630149804\\
301	0.000155737425095864\\
302	9.02055025266501e-05\\
303	3.60632925808469e-05\\
304	1.00017003050979e-05\\
305	5.69802713187537e-05\\
306	8.89508585345044e-05\\
307	0.000189026605969073\\
308	0.000238917954112266\\
309	9.90079637789445e-05\\
310	4.14414406427264e-05\\
311	4.99701630531362e-05\\
312	8.78666327057584e-05\\
313	0.000277970426341885\\
314	6.0562522879444e-05\\
315	4.12192644070688e-05\\
316	3.44152810839041e-05\\
317	7.07633641614453e-05\\
318	1.62293827001652e-05\\
319	0.000228818878713715\\
320	3.23528544384815e-05\\
321	4.89357368268398e-05\\
322	1.15783582314619e-05\\
323	7.33351355910222e-05\\
324	8.97427237719043e-05\\
325	2.06481490360797e-05\\
326	5.16114705552304e-05\\
327	3.06963240414476e-05\\
328	2.08683125855246e-05\\
329	0.000240216743695218\\
330	0.000186553996535119\\
331	3.34207932455519e-05\\
332	0.000134352767544032\\
333	6.89077710976137e-05\\
334	3.97140132944269e-05\\
335	2.04502578910595e-05\\
336	3.52306678076951e-06\\
337	7.01993387022066e-05\\
338	0.000218948496038922\\
339	6.10984524722064e-06\\
340	3.91806567477537e-06\\
341	9.88514605202985e-05\\
342	7.95940037191608e-05\\
343	3.75195340622419e-05\\
344	9.43360536694734e-05\\
345	5.52203287561986e-05\\
346	3.46671275731078e-06\\
347	1.50202843353053e-05\\
348	0.00015668910208906\\
349	3.44296173367402e-05\\
350	0.000193973094743155\\
351	0.000151797338799153\\
352	0.000177699672594541\\
353	9.59231189480354e-05\\
354	4.78494401075966e-05\\
355	4.22788172147984e-05\\
356	0.000117737713854392\\
357	9.10974961283112e-05\\
358	6.30752225943561e-05\\
359	5.96992751644516e-05\\
360	1.65762372036653e-05\\
361	2.19085550243036e-05\\
362	0.000147666277130899\\
363	5.96946582630275e-05\\
364	1.72858470027764e-05\\
365	7.86116126068922e-06\\
366	3.53074659277607e-05\\
367	0.000120290036948989\\
368	9.10245529551411e-05\\
369	0.000106109255775309\\
370	3.51761337283614e-05\\
371	8.17929117322192e-05\\
372	4.91786659456998e-05\\
373	5.51253083236218e-05\\
374	6.7274303367071e-05\\
375	5.37532221998541e-05\\
376	0.000228302909281364\\
377	4.08392722956972e-05\\
378	0.000100154303511404\\
379	9.64234898063527e-05\\
380	3.00885166689589e-05\\
381	5.31210515102969e-05\\
382	4.58669918706576e-05\\
383	3.60109487979231e-05\\
384	4.71329876712482e-05\\
385	5.52495129927659e-05\\
386	6.52421254490603e-05\\
387	6.29257500199754e-05\\
388	0.000106320927327548\\
389	0.000266577489520114\\
390	4.64903099043573e-05\\
391	0.000127960808957452\\
392	4.24476409190139e-05\\
393	0.000187767481660702\\
394	1.98323785154242e-05\\
395	0.000177597357860113\\
396	3.06149988990989e-05\\
397	5.78389078715464e-05\\
398	0.000191536002153806\\
399	5.29852014141333e-05\\
};
\addlegendentry{$\mathbf{\hat{h}_{1}}$}

\addplot [color=mycolor2]
  table[row sep=crcr]{%
0	2.34757118694144e-05\\
1	1.38834771915898e-05\\
2	4.6518858974369e-06\\
3	1.39362921808913e-05\\
4	4.18801474446972e-05\\
5	6.26613144986656e-05\\
6	2.38533652366992e-05\\
7	3.44058131426432e-05\\
8	1.66424559104112e-05\\
9	3.38467660735037e-05\\
10	5.10546600479389e-05\\
11	2.29617366982561e-05\\
12	3.88816659385057e-05\\
13	3.97803176201081e-05\\
14	4.07244570630777e-05\\
15	3.22515942540142e-05\\
16	1.13411630563813e-05\\
17	5.51143254315549e-06\\
18	2.47085640253658e-05\\
19	3.82336992965069e-05\\
20	2.36623237680091e-05\\
21	6.97076903088512e-05\\
22	1.36013122253612e-05\\
23	8.9310372370352e-06\\
24	6.73748406698481e-05\\
25	8.02535984998875e-05\\
26	2.38818745076418e-05\\
27	4.92334828456696e-05\\
28	4.32054705425597e-05\\
29	3.97249654212697e-05\\
30	2.82665033371563e-05\\
31	1.86040096011187e-05\\
32	3.82744769435638e-05\\
33	2.16713183268688e-05\\
34	1.53355166475236e-05\\
35	9.77388126973367e-05\\
36	8.04234780727152e-05\\
37	1.43886271875575e-05\\
38	3.75638711237894e-05\\
39	5.56993988183647e-05\\
40	5.87636288672648e-05\\
41	8.34169879772742e-05\\
42	9.90260621203512e-06\\
43	2.64340880252309e-05\\
44	1.42532644962232e-05\\
45	5.70090549998995e-05\\
46	2.40902927962137e-05\\
47	1.24082786014852e-05\\
48	1.29247914456671e-05\\
49	2.76307268000649e-05\\
50	4.23970039912515e-05\\
51	5.00513798394495e-06\\
52	5.81589809661588e-05\\
53	1.6795835634057e-05\\
54	3.74743117030657e-05\\
55	7.6302114308451e-05\\
56	1.01844287884375e-05\\
57	3.12155928946718e-05\\
58	4.74651796850681e-05\\
59	2.87294999677467e-05\\
60	1.55976828201339e-05\\
61	6.12290870045196e-05\\
62	4.24487462092832e-06\\
63	2.88131074469537e-05\\
64	1.66518914998331e-05\\
65	8.01754042193064e-05\\
66	1.55722184770481e-05\\
67	1.07892927573588e-05\\
68	4.20581551757018e-05\\
69	6.8587360601329e-06\\
70	1.54985994779546e-05\\
71	2.8189655946727e-05\\
72	9.9460384101332e-06\\
73	7.7881782358275e-05\\
74	0.000130257328879983\\
75	2.43203423841358e-05\\
76	2.89176665470075e-05\\
77	6.23234218774483e-05\\
78	3.58083563419375e-05\\
79	6.85767493603816e-05\\
80	6.98620306022028e-05\\
81	5.32108885694047e-05\\
82	5.82765405206826e-06\\
83	1.50815094843932e-05\\
84	1.5430673488836e-05\\
85	0.000130994397294227\\
86	4.40417964391927e-05\\
87	4.98768275708446e-05\\
88	1.49281856835169e-05\\
89	3.5066982061411e-05\\
90	4.64164453830131e-05\\
91	1.01111274943779e-05\\
92	3.92001883741184e-05\\
93	0.000125194715691981\\
94	7.07291013006521e-05\\
95	0.000109948388810253\\
96	2.87600887221914e-05\\
97	3.77814964159415e-05\\
98	4.83273084674397e-06\\
99	4.47374116174202e-05\\
100	1.55988134138494e-05\\
101	1.78002972974876e-05\\
102	4.6997020171129e-05\\
103	2.00317113332682e-05\\
104	9.77116580829602e-06\\
105	4.33595053501147e-05\\
106	4.77573088063226e-05\\
107	5.80611247484187e-06\\
108	3.0370144815727e-05\\
109	0.000122211754023894\\
110	4.42970078901394e-05\\
111	4.94345268769736e-05\\
112	5.1161934737652e-05\\
113	7.7447425058625e-06\\
114	5.3228121921682e-05\\
115	3.31849843130344e-05\\
116	4.64767961344459e-05\\
117	5.13749073149271e-05\\
118	2.33413623296767e-05\\
119	3.51124703839442e-05\\
120	7.59505705450815e-05\\
121	4.24079960644851e-05\\
122	1.75668651745207e-05\\
123	1.26521546005706e-05\\
124	3.13129156719112e-05\\
125	6.32913648943458e-05\\
126	5.83395675283542e-05\\
127	2.0957757935492e-05\\
128	2.91883195175064e-05\\
129	0.000212214072563236\\
130	0.000168464129430835\\
131	0.000244284916891561\\
132	1.17465584672496e-05\\
133	1.39018727517768e-05\\
134	0.000245246180290568\\
135	0.000165708787514295\\
136	3.165840807013e-06\\
137	0.00142925156289496\\
138	3.35979309941142e-05\\
139	7.64314755444116e-05\\
140	0.000888415281548169\\
141	7.00990249163973e-05\\
142	0.000226689217251676\\
143	0.0036931424224296\\
144	0.00429461741492433\\
145	0.000708820112639568\\
146	0.00148429157255498\\
147	0.00336949061086227\\
148	0.000832560469047716\\
149	0.00128182615927705\\
150	0.000300079168418051\\
151	2.09928631292083e-05\\
152	0.000751274173962916\\
153	3.23242094812345e-05\\
154	1.18330689142462e-05\\
155	1.85503877154023e-05\\
156	0.000134594833097324\\
157	0.000789910114637818\\
158	5.67952812302083e-06\\
159	0.00594193175619717\\
160	0.0221966085140249\\
161	0.0168133033083721\\
162	0.00376984629993525\\
163	0.0414596279063345\\
164	0.0168441876781462\\
165	0.0129459934304289\\
166	0.0137043716908764\\
167	0.00868067148923266\\
168	0.00334727981255379\\
169	0.00345535528898327\\
170	0.00119071823734199\\
171	4.44107137765486e-05\\
172	0.00477631589647913\\
173	0.0152495260813034\\
174	0.00176034062237165\\
175	0.00261327886254522\\
176	0.0204711329165932\\
177	0.0179166683499305\\
178	0.011126333562841\\
179	0.039932854828565\\
180	0.0508189055871881\\
181	0.0283341431912798\\
182	0.00828947833444351\\
183	0.111526970486434\\
184	0.0138267170849978\\
185	0.0051873148802764\\
186	0.0183783462745081\\
187	0.00533281632927485\\
188	0.00830924879428087\\
189	0.00575455197881939\\
190	0.0149665423035311\\
191	0.0176936118392572\\
192	0.00749535132989161\\
193	0.00869072482460031\\
194	0.0070008900497185\\
195	0.00629425528921355\\
196	0.0467448569441385\\
197	0.0222123084119245\\
198	0.00166650588562731\\
199	0.973357333451684\\
200	0.00188401410184052\\
201	0.0229623576221399\\
202	0.0475078951809507\\
203	0.00591577936114843\\
204	0.00759336901183431\\
205	0.0102648365693829\\
206	0.00695284369405503\\
207	0.017266524636317\\
208	0.0132212806969016\\
209	0.00745285853365726\\
210	0.00938100088384999\\
211	0.00566103220005106\\
212	0.0184106915678041\\
213	0.00407563772489222\\
214	0.0125827582897924\\
215	0.111429178490295\\
216	0.00767806670512346\\
217	0.0289322997853107\\
218	0.0511156777425401\\
219	0.0408279443130394\\
220	0.0119008163289539\\
221	0.0183882083791603\\
222	0.0210870933165791\\
223	0.00235887827697767\\
224	0.00132454501985887\\
225	0.0159985426637893\\
226	0.00512892471266147\\
227	3.38947481239846e-05\\
228	0.000385179747278092\\
229	0.00393894517326934\\
230	0.00272179680891723\\
231	0.00781751531496595\\
232	0.0144783792247435\\
233	0.0125315037870104\\
234	0.0167348901955777\\
235	0.04230829074168\\
236	0.00281516036497839\\
237	0.0175764854904703\\
238	0.0234098330911619\\
239	0.0066097171735939\\
240	0.000272606722670616\\
241	0.000360453972210677\\
242	0.000717595512632448\\
243	0.000465986331155617\\
244	0.00037930226550952\\
245	0.00024023385121899\\
246	0.001732972555866\\
247	0.000266422563858472\\
248	0.000196399223507911\\
249	0.00157179312165086\\
250	0.00114828100664723\\
251	0.00313470729033274\\
252	0.00153984994122216\\
253	0.000720154588692073\\
254	0.00393363651269644\\
255	0.00463865413394431\\
256	0.000206385808099869\\
257	3.37007053974847e-05\\
258	0.00173867482640778\\
259	0.000123233304751638\\
260	4.25783246150639e-05\\
261	0.00190792329967332\\
262	1.84231255538885e-06\\
263	0.000664788670626263\\
264	0.000736124372609524\\
265	1.79848624564537e-05\\
266	3.29479851026842e-06\\
267	0.000258330852737708\\
268	0.000193932314735319\\
269	0.000217579934808863\\
270	3.60530211347818e-05\\
271	2.68603761124997e-06\\
272	5.90399512376047e-05\\
273	0.00010962659768441\\
274	7.5110985216647e-05\\
275	2.03502572828154e-05\\
276	2.76213860829793e-05\\
277	8.11197396353593e-05\\
278	0.000105107368293933\\
279	4.18196634495672e-05\\
280	1.83452549062073e-05\\
281	6.82998828032486e-05\\
282	5.94802770050938e-05\\
283	4.67230809960679e-05\\
284	5.77270506060277e-05\\
285	1.50625426670503e-05\\
286	4.24404648938154e-05\\
287	6.4354538149861e-05\\
288	5.99725364285087e-05\\
289	0.00011352294015419\\
290	4.38674527586898e-05\\
291	1.43138151556129e-05\\
292	4.19870625702583e-05\\
293	4.92550282015292e-05\\
294	2.09004506396952e-05\\
295	1.8128218372613e-05\\
296	6.20228110052332e-05\\
297	2.64590344233255e-05\\
298	1.47404373917351e-05\\
299	6.07484146540669e-05\\
300	2.81341532447348e-06\\
301	6.70406161830804e-05\\
302	2.52663871716178e-05\\
303	0.000113302948895222\\
304	6.27945709661754e-05\\
305	0.000110276751418536\\
306	3.59818570105079e-05\\
307	5.18931254539952e-06\\
308	2.79600355614807e-05\\
309	3.09824942735893e-05\\
310	3.14505924594993e-05\\
311	4.60702594829011e-05\\
312	2.80037016120332e-05\\
313	0.000135867476126169\\
314	4.28701169079488e-05\\
315	8.42639378573504e-06\\
316	1.1424919982731e-05\\
317	8.09536752710097e-05\\
318	9.3323132779946e-05\\
319	7.66617510959653e-05\\
320	3.61217172370604e-05\\
321	5.54619794818887e-05\\
322	4.11717537785851e-05\\
323	2.57502131207632e-05\\
324	0.000150218772109654\\
325	7.54700650384322e-05\\
326	2.42823033291708e-05\\
327	5.01895691987331e-06\\
328	1.72204639154259e-05\\
329	9.88748851170383e-06\\
330	5.2736860114458e-05\\
331	9.05491963728259e-06\\
332	7.47836177445159e-06\\
333	9.09417341810385e-05\\
334	1.7965261140282e-05\\
335	2.95290897659756e-05\\
336	4.34658569087473e-06\\
337	5.1632091405305e-05\\
338	1.09292440251782e-05\\
339	2.95283560507157e-05\\
340	3.09161250674109e-05\\
341	4.76403074504324e-05\\
342	1.52634443560306e-05\\
343	9.41753836144474e-05\\
344	1.57146970989565e-05\\
345	7.61939956612241e-06\\
346	7.76448132740552e-05\\
347	1.47534839232988e-05\\
348	3.54496554714672e-05\\
349	5.19485366541525e-05\\
350	5.4378139661204e-06\\
351	9.59166791630705e-06\\
352	3.67992695387018e-05\\
353	4.30767842820937e-05\\
354	6.68070276601155e-06\\
355	2.5371775439043e-05\\
356	2.78027780984248e-06\\
357	7.18087509320402e-05\\
358	4.83150833659957e-05\\
359	5.85652025650021e-05\\
360	1.56818869007923e-05\\
361	1.10817522880557e-05\\
362	0.000109192211273931\\
363	0.000107203894097025\\
364	2.31281718437511e-05\\
365	2.02921695055528e-05\\
366	3.56999782810149e-05\\
367	3.78173817576099e-06\\
368	1.71354654953677e-05\\
369	5.10106770576226e-05\\
370	3.33477245259157e-05\\
371	4.50150499465141e-05\\
372	8.59772132235797e-06\\
373	5.25710589624954e-05\\
374	5.12598679299658e-05\\
375	1.44042188364951e-05\\
376	1.34994616733516e-05\\
377	6.07884969161654e-05\\
378	3.16247961641068e-05\\
379	2.34636516009804e-05\\
380	1.34084216372647e-05\\
381	9.42885166624845e-06\\
382	2.35750455847996e-05\\
383	3.57188610694696e-05\\
384	3.80001568607639e-05\\
385	3.93205217506343e-05\\
386	3.04186493551101e-05\\
387	3.25021082742263e-05\\
388	3.84153553025054e-05\\
389	4.03341150699143e-05\\
390	2.00304948780391e-05\\
391	2.18152716236866e-05\\
392	2.17110632320028e-05\\
393	6.38269887474474e-05\\
394	2.2545999045976e-05\\
395	1.34010526164215e-05\\
396	1.95554730514085e-05\\
397	1.83153841760923e-05\\
398	1.18585075734004e-05\\
399	2.07093046442153e-05\\
};
\addlegendentry{$\mathbf{\hat{h}_{2}}$}

\end{axis}
\end{tikzpicture}%