% This file was created by matlab2tikz.
%
%The latest updates can be retrieved from
%  http://www.mathworks.com/matlabcentral/fileexchange/22022-matlab2tikz-matlab2tikz
%where you can also make suggestions and rate matlab2tikz.
%
\definecolor{mycolor1}{rgb}{0.00000,0.44700,0.74100}%
\definecolor{mycolor2}{rgb}{0.85000,0.32500,0.09800}%
%
\begin{tikzpicture}

\begin{axis}[%
width=1.935in,
height=3.2in,
at={(0.758in,0.512in)},
scale only axis,
xmin=0,
xmax=200,
xlabel style={font=\color{white!15!black}, align=center},
xlabel={Sample Index\\[1ex](a) Actual},
ymin=0,
ymax=1,
axis background/.style={fill=white},
legend style={legend cell align=left, align=left, draw=white!15!black}
]
\addplot [color=mycolor1]
  table[row sep=crcr]{%
1	0.0167418731260698\\
2	0.018659722218203\\
3	0.0211495716349754\\
4	0.0245407494314006\\
5	0.029505643974117\\
6	0.0377161636169434\\
7	0.0550750576238134\\
8	0.131028403455825\\
9	0.141533477104454\\
10	0.158175166246243\\
11	0.163761757297189\\
12	0.600100605556833\\
13	0.118033417583129\\
14	0.0610914209628117\\
15	0.0426162246246858\\
16	0.0332715711707656\\
17	0.0321939439283243\\
18	0.0268871008873183\\
19	0.0316920608120786\\
20	0.0286771919664519\\
21	0.00773119825769845\\
22	0.0330073087209196\\
23	0.019415059292473\\
24	0.0177688778425817\\
25	0.0188194600762088\\
26	0.0237714798713867\\
27	0.0430806655948836\\
28	0.586023006720236\\
29	0.0970905103802927\\
30	0.0246981078960262\\
31	0.0780346253424249\\
32	0.0580455436901626\\
33	0.0681836526256362\\
34	0.163824852865525\\
35	0.0446106828365612\\
36	0.06119675966513\\
37	0.00907835157153909\\
38	0.0310093774848825\\
39	0.00125972832884384\\
40	0.005422098150711\\
41	0.0107374596162295\\
42	0.0165479326643041\\
43	0.024789327411243\\
44	0.0446277431282512\\
45	0.058019450740893\\
46	0.074843365423057\\
47	0.199666615467323\\
48	0.216838516027539\\
49	0.0783890355452335\\
50	0.0495529240878659\\
51	0.0370791446049236\\
52	0.0307530810094058\\
53	0.0155757068681131\\
54	0.0198807977432187\\
55	0.0179871495341263\\
56	0.0162887905400521\\
57	0.0148728268904216\\
58	0.0136909847461918\\
59	0.0126943671543235\\
60	0.011846112844806\\
61	0.0111233301448608\\
62	0.0105291449791113\\
63	0.0102108676347222\\
64	0.00751288118280402\\
65	0.00739035992869396\\
66	0.0116365722557393\\
67	0.00899390796280924\\
68	0.00831157148096884\\
69	0.00788086875151191\\
70	0.00754217236777393\\
71	0.00725475830161164\\
72	0.00700327644843893\\
73	0.006780818536885\\
74	0.00658453626015097\\
75	0.00641472878078445\\
76	0.00627599401250467\\
77	0.00618216997550965\\
78	0.00617516728867787\\
79	0.00642745729543014\\
80	0.00873051939586948\\
81	0.00471465923588381\\
82	0.00195996010568866\\
83	0.004980313957114\\
84	0.00475839614864904\\
85	0.00464733241660508\\
86	0.00455444244400457\\
87	0.00446749239384432\\
88	0.00438406292262191\\
89	0.00430366820355207\\
90	0.00422628355118023\\
91	0.00415201532524293\\
92	0.00408104289588831\\
93	0.00401365198230764\\
94	0.00395033763548775\\
95	0.00389203620501121\\
96	0.00384070443755282\\
97	0.00380107128140597\\
98	0.00378779867734327\\
99	0.00387836096292209\\
100	0.00228454900881806\\
101	0.00321909463290553\\
102	0.00328982387499096\\
103	0.00328100374444436\\
104	0.00325253146337885\\
105	0.00321692683031362\\
106	0.00317840637543852\\
107	0.00313876414674543\\
108	0.00309887602618152\\
109	0.00305920797263281\\
110	0.00302002111537278\\
111	0.00298146552488656\\
112	0.00294362726599965\\
113	0.0029065537719176\\
114	0.00287026833389302\\
115	0.00283477876811283\\
116	0.00280008280049957\\
117	0.00276617151884636\\
118	0.00273303164395387\\
119	0.00270064705586787\\
120	0.00266899983729428\\
121	0.00263807099659409\\
122	0.00260784097374635\\
123	0.00257828999668392\\
124	0.00254939833288439\\
125	0.00252114646667125\\
126	0.00249351522323938\\
127	0.00246648585412356\\
128	0.00244004009455901\\
129	0.00241416020024051\\
130	0.00238882896892876\\
131	0.0023640297508985\\
132	0.00233974645117835\\
133	0.00231596352577768\\
134	0.00229266597354371\\
135	0.00226983932488367\\
136	0.00224746962828519\\
137	0.00222554343533969\\
138	0.00220404778480324\\
139	0.00218297018609978\\
140	0.00216229860257188\\
141	0.00214202143470905\\
142	0.00212212750352594\\
143	0.00210260603421662\\
144	0.00208344664017788\\
145	0.00206463930746792\\
146	0.00204617437974413\\
147	0.00202804254371082\\
148	0.00201023481509265\\
149	0.00199274252514179\\
150	0.00197555730767936\\
151	0.0019586710866655\\
152	0.00194207606428942\\
153	0.00192576470956709\\
154	0.00190972974743187\\
155	0.00189396414830307\\
156	0.00187846111811499\\
157	0.00186321408878906\\
158	0.00184821670913216\\
159	0.00183346283614256\\
160	0.00181894652670628\\
161	0.00180466202966742\\
162	0.00179060377825436\\
163	0.00177676638284649\\
164	0.00176314462406556\\
165	0.00174973344617591\\
166	0.0017365279507797\\
167	0.00172352339079259\\
168	0.00171071516468654\\
169	0.00169809881098722\\
170	0.00168567000301325\\
171	0.00167342454384613\\
172	0.00166135836151948\\
173	0.00164946750441694\\
174	0.00163774813686889\\
175	0.00162619653493841\\
176	0.00161480908238697\\
177	0.00160358226681213\\
178	0.001592512675948\\
179	0.00158159699412143\\
180	0.00157083199885632\\
181	0.00156021455761888\\
182	0.00154974162469766\\
183	0.00153941023821136\\
184	0.00152921751723897\\
185	0.00151916065906659\\
186	0.00150923693654504\\
187	0.00149944369555362\\
188	0.00148977835256491\\
189	0.00148023839230615\\
190	0.0014708213655126\\
191	0.00146152488676917\\
192	0.00145234663243548\\
193	0.00144328433865201\\
194	0.00143433579942216\\
195	0.0014254988647679\\
196	0.00141677143895562\\
197	0.00140815147878894\\
198	0.00139963699196521\\
199	0\\
200	0\\
};
\addlegendentry{$\mathbf{h_1}$}

\addplot [color=mycolor2]
  table[row sep=crcr]{%
1	0.00495033386861547\\
2	0.00515738368500011\\
3	0.00538309861623286\\
4	0.00563019833310769\\
5	0.00590197136255583\\
6	0.00620243506959928\\
7	0.00653655369620811\\
8	0.00691054090538825\\
9	0.00733228812251618\\
10	0.00781198494389501\\
11	0.00836304134465097\\
12	0.0090034999823859\\
13	0.00975827527656913\\
14	0.0106628508662167\\
15	0.0117696896019869\\
16	0.0131600228416925\\
17	0.0149671880151623\\
18	0.0174273921400842\\
19	0.0210049332363351\\
20	0.0267613442180004\\
21	0.037792597580649\\
22	0.068721841139076\\
23	0.97572931769219\\
24	0.0649085399616321\\
25	0.0262918397391367\\
26	0.0126468169615953\\
27	0.00419508123086451\\
28	0.0214241856295046\\
29	0.0134643328328179\\
30	0.00412679327935559\\
31	0.0112712342656943\\
32	0.0282552508318709\\
33	0.111702725947746\\
34	0.12653020104749\\
35	0.0361926668223949\\
36	0.024130019396178\\
37	0.019518168382204\\
38	0.0163235660243771\\
39	0.0140849625225472\\
40	0.0124312948441269\\
41	0.0111552918846637\\
42	0.0101369616841952\\
43	0.00930266674553233\\
44	0.00860476970863487\\
45	0.00801105372801389\\
46	0.00749890841387189\\
47	0.00705196472677567\\
48	0.00665805661850076\\
49	0.0063079366485928\\
50	0.00599443852440938\\
51	0.00571191453485358\\
52	0.00545584764793091\\
53	0.0052225778141873\\
54	0.00500910486747672\\
55	0.00481294397681212\\
56	0.00463201789166602\\
57	0.00446457542356871\\
58	0.00430912894812168\\
59	0.00416440590497024\\
60	0.00402931074167137\\
61	0.00390289474814389\\
62	0.00378433192171684\\
63	0.00367289949042518\\
64	0.0035679620699816\\
65	0.00346895868109233\\
66	0.00337539203747226\\
67	0.00328681965070268\\
68	0.00320284639950925\\
69	0\\
70	0\\
71	0\\
72	0\\
73	0\\
74	0\\
75	0\\
76	0\\
77	0\\
78	0\\
79	0\\
80	0\\
81	0\\
82	0\\
83	0\\
84	0\\
85	0\\
86	0\\
87	0\\
88	0\\
89	0\\
90	0\\
91	0\\
92	0\\
93	0\\
94	0\\
95	0\\
96	0\\
97	0\\
98	0\\
99	0\\
100	0\\
101	0\\
102	0\\
103	0\\
104	0\\
105	0\\
106	0\\
107	0\\
108	0\\
109	0\\
110	0\\
111	0\\
112	0\\
113	0\\
114	0\\
115	0\\
116	0\\
117	0\\
118	0\\
119	0\\
120	0\\
121	0\\
122	0\\
123	0\\
124	0\\
125	0\\
126	0\\
127	0\\
128	0\\
129	0\\
130	0\\
131	0\\
132	0\\
133	0\\
134	0\\
135	0\\
136	0\\
137	0\\
138	0\\
139	0\\
140	0\\
141	0\\
142	0\\
143	0\\
144	0\\
145	0\\
146	0\\
147	0\\
148	0\\
149	0\\
150	0\\
151	0\\
152	0\\
153	0\\
154	0\\
155	0\\
156	0\\
157	0\\
158	0\\
159	0\\
160	0\\
161	0\\
162	0\\
163	0\\
164	0\\
165	0\\
166	0\\
167	0\\
168	0\\
169	0\\
170	0\\
171	0\\
172	0\\
173	0\\
174	0\\
175	0\\
176	0\\
177	0\\
178	0\\
179	0\\
180	0\\
181	0\\
182	0\\
183	0\\
184	0\\
185	0\\
186	0\\
187	0\\
188	0\\
189	0\\
190	0\\
191	0\\
192	0\\
193	0\\
194	0\\
195	0\\
196	0\\
197	0\\
198	0\\
199	0\\
200	0\\
};
\addlegendentry{$\mathbf{h_{2}}$}

\end{axis}

\begin{axis}[%
width=1.935in,
height=3.2in,
at={(3.327in,0.512in)},
scale only axis,
xmin=0,
xmax=200,
xlabel style={font=\color{white!15!black}, align=center},
xlabel={Sample Index\\[1ex](b) Estimated},
ymin=0,
ymax=1,
axis background/.style={fill=white},
legend style={legend cell align=left, align=left, draw=white!15!black}
]
\addplot [color=mycolor1]
  table[row sep=crcr]{%
0	0.000650008113089095\\
1	0.0296535103240835\\
2	0.0304560270048046\\
3	0.00606381716621487\\
4	0.0122522966937465\\
5	0.0053574164037784\\
6	0.00644777335871861\\
7	0.0122631653748007\\
8	0.0124703254450764\\
9	0.0229634421239874\\
10	0.00257214674109363\\
11	0.00809150670082154\\
12	0.0104604631353824\\
13	0.000694153317736359\\
14	0.0172281061630082\\
15	0.0303186089466917\\
16	0.0257012823015094\\
17	0.0175415195707912\\
18	0.0367053857296379\\
19	0.0180479695056011\\
20	0.0112406505421297\\
21	0.0174897417602917\\
22	0.00187062824880233\\
23	0.00700450639090904\\
24	0.0135149025301475\\
25	0.00744632311393785\\
26	0.00917305084592682\\
27	0.0154535490793575\\
28	0.0256291498235496\\
29	0.0236401840902881\\
30	0.0233223107791479\\
31	0.00787553380549034\\
32	0.00890386030917379\\
33	0.0289285778734395\\
34	0.00190827240334023\\
35	0.00654758358369257\\
36	0.0211289823009368\\
37	0.0156464752489242\\
38	0.00430159326883161\\
39	0.0102076361414449\\
40	0.0217545161351794\\
41	0.0274068701383056\\
42	0.0189896036945232\\
43	0.0137223418307116\\
44	0.0327203947485579\\
45	0.0158627362340602\\
46	0.0178305701493461\\
47	0.0155455553452555\\
48	0.0172610457316241\\
49	0.0139418361032291\\
50	0.0127805478582963\\
51	0.0149707545336889\\
52	0.0102438929851712\\
53	0.0107324739329058\\
54	0.0165033425383634\\
55	0.0131690934403639\\
56	0.0181191244146504\\
57	0.021454807994124\\
58	0.0156293353476924\\
59	0.0112264095026897\\
60	0.00632371581482651\\
61	0.0243316906687595\\
62	0.0084737774588207\\
63	0.012719608228128\\
64	0.0226309031715252\\
65	0.00655125579967539\\
66	0.0317702340676753\\
67	0.0114955169545164\\
68	0.0124184138715616\\
69	0.0199995951007178\\
70	0.0102460828463485\\
71	0.0111376974953289\\
72	0.0287086797407735\\
73	0.0137211071116495\\
74	0.0599649572593621\\
75	0.0440941802779795\\
76	0.0432030581546614\\
77	0.0855263725828899\\
78	0.0332331678572278\\
79	0.0246737700884198\\
80	0.023882449201154\\
81	0.0284371625771559\\
82	0.0537352239239343\\
83	0.0526534570135074\\
84	0.134853501255557\\
85	0.131821561695741\\
86	0.150958479560359\\
87	0.228470781023911\\
88	0.551820939484764\\
89	0.110613061461826\\
90	0.0677917594345212\\
91	0.0451995184826591\\
92	0.061009137077908\\
93	0.10142701290332\\
94	0.0743962995247992\\
95	0.00374476797807476\\
96	0.0287046787946498\\
97	0.0126367765497031\\
98	0.0420019384888292\\
99	0.0315891604690205\\
100	0.0352105091177052\\
101	0.0138588111177994\\
102	0.035472112588968\\
103	0.112914064627646\\
104	0.542268873202723\\
105	0.100925803771917\\
106	0.0437672181992779\\
107	0.104121511721253\\
108	0.066672646644838\\
109	0.0720834894762858\\
110	0.165454791777762\\
111	0.0293274116078589\\
112	0.0364840605474529\\
113	0.0469395732638551\\
114	0.0287549527741226\\
115	0.020949950765133\\
116	0.0177037419164403\\
117	0.026942498965484\\
118	0.0216559519936299\\
119	0.0170120175724012\\
120	0.0463463778518405\\
121	0.0355565305754725\\
122	0.0407898655619575\\
123	0.201970283019124\\
124	0.203759881771067\\
125	0.0611555214906918\\
126	0.0476221207580732\\
127	0.030457979961742\\
128	0.0145365517689825\\
129	0.0160169471267912\\
130	0.0215301917470375\\
131	0.0260961864670008\\
132	0.0055191066630579\\
133	0.0249480319948307\\
134	0.0245090777318319\\
135	0.0046849640376477\\
136	0.0237197133489033\\
137	0.0190136224274925\\
138	0.0171053146934307\\
139	0.00972805103260537\\
140	0.0147972231858613\\
141	0.0244890650908298\\
142	0.0102673537369317\\
143	0.0231033237448232\\
144	0.0147283429866662\\
145	0.0103345981313632\\
146	0.0124814820873789\\
147	0.0242768635907096\\
148	0.0136866905645384\\
149	0.0086665947215667\\
150	0.0165187474505436\\
151	0.0147810665466145\\
152	0.0362305523165691\\
153	0.0216636058801384\\
154	0.0158583126821992\\
155	0.0173735168323022\\
156	0.0183705359642601\\
157	0.0228044166233922\\
158	0.0098099296458741\\
159	0.0373717924895149\\
160	0.0187454241084734\\
161	0.0212308064780138\\
162	0.0180980972311945\\
163	0.00982375131709101\\
164	0.0211246547756744\\
165	0.0107612358862785\\
166	0.0123495717899913\\
167	0.0180925329591943\\
168	0.00859357287195001\\
169	0.0137368567671819\\
170	0.0230406142278729\\
171	0.0170867251958141\\
172	0.0271555899926762\\
173	0.0128441586007512\\
174	0.0212659458314132\\
175	0.0113708824711143\\
176	0.0209368712896751\\
177	0.0250542837502866\\
178	0.0167114308169825\\
179	0.0154954020909389\\
180	0.013526899450854\\
181	0.00830536441653833\\
182	0.0136262834977502\\
183	0.0327943586337607\\
184	0.00741378723650741\\
185	0.00803791461373558\\
186	0.0191748028636835\\
187	0.00418902079186105\\
188	0.0398044170366937\\
189	0.0150339569670637\\
190	0.0277405192903726\\
191	0.016832583551087\\
192	0.00570583772084277\\
193	0.0304490976928755\\
194	0.0056229459748967\\
195	0.0241040626942521\\
196	0.00726000521706572\\
197	0.0165569257761086\\
198	0.0155883522015873\\
199	0.0121475495817496\\
};
\addlegendentry{$\mathbf{\hat{h}_{1}}$}

\addplot [color=mycolor2]
  table[row sep=crcr]{%
0	0.000115100799050712\\
1	8.12440512776069e-05\\
2	0.000231035433924706\\
3	0.000242247232359451\\
4	0.000195529760438051\\
5	0.000174077321486092\\
6	0.000102237126294329\\
7	7.83496984992707e-05\\
8	0.000204157342861249\\
9	0.000116140699247213\\
10	0.000364697895607593\\
11	9.60900728687399e-05\\
12	0.000222311650450475\\
13	0.000296378687775115\\
14	0.000205053525354078\\
15	0.00030826626961457\\
16	0.000133974772570931\\
17	0.000173920080114649\\
18	0.000120983070792964\\
19	0.000138670265030717\\
20	0.000185243187439153\\
21	8.83829544919518e-05\\
22	3.59971525498678e-05\\
23	0.000274181993084951\\
24	0.000141823403169501\\
25	0.000131226411388336\\
26	0.000297008672945638\\
27	0.000276175388508014\\
28	0.0003279011928529\\
29	0.000172232014215851\\
30	0.000213574545169947\\
31	0.000255672781821158\\
32	0.000266841743366564\\
33	0.000117968808529073\\
34	0.000166221332229613\\
35	0.00031823786037814\\
36	0.000151414779179767\\
37	0.000113022817892092\\
38	0.000123942337470881\\
39	0.000379624763020873\\
40	0.000233204771175715\\
41	0.00031153184999161\\
42	0.00015050064598387\\
43	8.79380806150412e-05\\
44	0.000411550515039195\\
45	3.42369749805479e-05\\
46	0.000231322251261961\\
47	0.000283205610631092\\
48	4.76426137208908e-05\\
49	3.88322405104552e-05\\
50	0.000345017496374351\\
51	0.000411040467642497\\
52	0.000223270253107148\\
53	7.90021088200573e-05\\
54	0.00022531282614468\\
55	0.000160839976561356\\
56	0.000286182113594965\\
57	5.15602102573537e-05\\
58	0.0002759035604381\\
59	2.76916865089054e-05\\
60	0.000635188094690974\\
61	0.00054477750724372\\
62	0.000249078608747392\\
63	0.00150284862626533\\
64	0.000547134258819347\\
65	0.000235268316916609\\
66	0.000440091803078769\\
67	0.000314228028532671\\
68	0.000149161878738676\\
69	0.000206086571497687\\
70	0.000178807614539006\\
71	8.93811879918895e-05\\
72	0.000304691944062092\\
73	0.000366366337880166\\
74	3.39700950283136e-05\\
75	0.000242664539016913\\
76	0.000642483787446113\\
77	0.000406293432184404\\
78	0.000410953318814422\\
79	0.00149255209924074\\
80	0.00171481769941825\\
81	0.000867934783960798\\
82	0.000554508680894001\\
83	0.00289911172378629\\
84	0.000353125771061882\\
85	0.000216622617602869\\
86	0.000474277923704032\\
87	0.00010692896747219\\
88	0.000157308799450168\\
89	8.07240193111349e-05\\
90	0.000192005485449469\\
91	0.000402571311188895\\
92	0.000462934820204047\\
93	0.000363901077482153\\
94	0.000298050279055535\\
95	0.000106199586485342\\
96	0.00162530939011571\\
97	0.000806915528770899\\
98	0.000356687580432282\\
99	0.999973029810072\\
100	0.000358112970401339\\
101	0.000789104792405839\\
102	0.00161099022605284\\
103	0.00011675419052214\\
104	0.000287294662687777\\
105	0.000363641065750502\\
106	0.000466395452271469\\
107	0.00038632650563377\\
108	0.000197877853324761\\
109	0.000333994077409453\\
110	0.000162423291065542\\
111	9.91154915186436e-05\\
112	0.000470672264351027\\
113	0.000187514141361057\\
114	0.000369353541046592\\
115	0.00289168134095534\\
116	0.000567812127139573\\
117	0.000863330694082549\\
118	0.001710034350638\\
119	0.0014770573488936\\
120	0.000408657935998\\
121	0.00043274278910862\\
122	0.000664716432861208\\
123	0.000245302628397357\\
124	5.59806648431067e-05\\
125	0.000365186493885781\\
126	0.000331478333277562\\
127	9.1949298319545e-05\\
128	0.000157731150792846\\
129	0.000203360543570122\\
130	0.000138434913607806\\
131	0.000310154798153014\\
132	0.000405629134965205\\
133	0.000269176336013545\\
134	0.00054355356029489\\
135	0.0015337042997406\\
136	0.000248102162533347\\
137	0.000550553078903151\\
138	0.000622227973669223\\
139	4.6128409332327e-05\\
140	0.000274257864768045\\
141	9.31947486293823e-05\\
142	0.000364602084395589\\
143	0.000174877498612155\\
144	0.000184040781089034\\
145	3.60331768265038e-05\\
146	0.000208136867164378\\
147	0.000436915956593665\\
148	0.000344858217201892\\
149	9.32135728228998e-05\\
150	9.47610538905496e-06\\
151	0.000313107439880669\\
152	0.000190347924755163\\
153	8.72188461471041e-05\\
154	0.000393643028957235\\
155	7.33895278590516e-05\\
156	0.000176873843383711\\
157	0.000280264387312244\\
158	0.000291552410762755\\
159	0.000386475324109692\\
160	9.57372387918645e-05\\
161	8.91870745793473e-05\\
162	0.000154782706516001\\
163	0.000302531118087003\\
164	0.000168042675906475\\
165	0.000163694759436219\\
166	0.000243819937421407\\
167	0.000335097215549931\\
168	0.000160996620831792\\
169	0.000212504070792495\\
170	0.000361023034547663\\
171	0.000331191383105288\\
172	0.000326682240335802\\
173	0.000120218401067975\\
174	0.000127062450625491\\
175	0.000268929904458516\\
176	0.000113988162336\\
177	0.000111962511640173\\
178	0.000175282129306033\\
179	0.000145264372331992\\
180	0.000109075535709793\\
181	0.000195165216348455\\
182	0.00012284174365682\\
183	0.000361511863185886\\
184	0.000180154935157827\\
185	0.000228304569416572\\
186	0.000290224936922278\\
187	0.000190485995042378\\
188	0.000449702339344107\\
189	0.000102225514207038\\
190	0.000209745905531763\\
191	4.88888258155609e-05\\
192	0.000122416556423651\\
193	0.000159503655609704\\
194	0.000187819366851213\\
195	0.000272159315878855\\
196	0.000194732345324468\\
197	6.77985579510006e-05\\
198	0.000142772325361689\\
199	0.000253507506992069\\
};
\addlegendentry{$\mathbf{\hat{h}_{2}}$}

\end{axis}
\end{tikzpicture}%