% This file was created by matlab2tikz.
%
%The latest updates can be retrieved from
%  http://www.mathworks.com/matlabcentral/fileexchange/22022-matlab2tikz-matlab2tikz
%where you can also make suggestions and rate matlab2tikz.
%
\definecolor{mycolor1}{rgb}{0.00000,0.44700,0.74100}%
\definecolor{mycolor2}{rgb}{0.85000,0.32500,0.09800}%
%
\begin{tikzpicture}

\begin{axis}[%
width=1.935in,
height=3.2in,
at={(0.758in,0.512in)},
scale only axis,
xmin=0,
xmax=100,
xlabel style={font=\color{white!15!black}, align=center},
xlabel={Sample Index\\[1ex](a) Actual},
ymin=0,
ymax=0.8,
axis background/.style={fill=white},
legend style={legend cell align=left, align=left, draw=white!15!black}
]
\addplot [color=mycolor1]
  table[row sep=crcr]{%
1	0.0129538532238509\\
2	0.0157278361368032\\
3	0.0191571608138802\\
4	0.0255923724575832\\
5	0.13057228915146\\
6	0.790598288418654\\
7	0.353827376030412\\
8	0.122418300101408\\
9	0.229084031593214\\
10	0.118243319340586\\
11	0.168368944374742\\
12	0.0163735399430034\\
13	0.0206849651924714\\
14	0.0262956791329175\\
15	0.151852199158411\\
16	0.152742171024721\\
17	0.110720168991091\\
18	0.123153341936425\\
19	0.125894992669405\\
20	0.0746063601393855\\
21	0.0186653655418556\\
22	0.0250643995407145\\
23	0.00974111680189212\\
24	0.0779603151980655\\
25	0.0307172164925168\\
26	0.0208261989317089\\
27	0.0752294272267323\\
28	0.0144668561504321\\
29	0.0123363814366294\\
30	0.0122598477519198\\
31	0.0155350862563734\\
32	0.0418132873290243\\
33	0.0573531042253119\\
34	0.0129196281383963\\
35	0.00895205820328393\\
36	0.00773833898796016\\
37	0.00748874666873079\\
38	0.00800183229182001\\
39	0.00975691772335202\\
40	0.0159028691535576\\
41	0.0384196893347397\\
42	0.0314876195631017\\
43	0.010044387559483\\
44	0.00616684731235577\\
45	0.00479175222070565\\
46	0.00437058826387638\\
47	0.00459828758875363\\
48	0.005652668265702\\
49	0.0087419213913912\\
50	0.0260232215344717\\
51	0.0227474232041571\\
52	0.00780973732786325\\
53	0.00473741257906885\\
54	0.00342802499502385\\
55	0.0027071673231627\\
56	0.00225206144341568\\
57	0.001938695300116\\
58	0.0017095024412107\\
59	0.00153423834592061\\
60	0.00139554782547471\\
61	0.00128278764759102\\
62	0.00118908147787501\\
63	0.00110979542168412\\
64	0.0010416958422628\\
65	0.000982458809342531\\
66	0.000930371514391801\\
67	0.000884143640819322\\
68	0.000842784330423255\\
69	0.000805519676312384\\
70	0.000771736027647173\\
71	0.000740940180026644\\
72	0.000712730877370764\\
73	0.000686778053613698\\
74	0.000662807472321918\\
75	0.000640589196550035\\
76	0.000619928819626308\\
77	0.000600660714929267\\
78	0.000582642781753098\\
79	0.000565752313398667\\
80	0.000549882716621264\\
81	0.000534940883763175\\
82	0.000520845070183068\\
83	0.000507523166470246\\
84	0.00049491128175685\\
85	0.000482952574159901\\
86	0.000471596279030148\\
87	0.000460796896662062\\
88	0.000450513509420678\\
89	0.000440709204573525\\
90	0.000431350583981088\\
91	0.000422407345569488\\
92	0.000413851924447944\\
93	0.000405659183842499\\
94	0.000397806147840094\\
95	0.000390271769389961\\
96	0.000383036728166029\\
97	0.00037608325382988\\
98	0.000369394970986201\\
99	0\\
100	0\\
};
\addlegendentry{$\mathbf{h_1}$}

\addplot [color=mycolor2]
  table[row sep=crcr]{%
1	0.0089849246842337\\
2	0.00955586856755047\\
3	0.0102000386246561\\
4	0.0109303448856752\\
5	0.0117611964369887\\
6	0.0127063869488681\\
7	0.013771787577086\\
8	0.0149309370172528\\
9	0.0160361992437888\\
10	0.0164244433772478\\
11	0.0125495760932937\\
12	0.664036312008792\\
13	0.0850193487524877\\
14	0.131745330322907\\
15	0.128609472347745\\
16	0.0491456993245761\\
17	0.382620258465008\\
18	0.593903782219221\\
19	0.0828507132426594\\
20	0.0515719011856109\\
21	0.0378681896084267\\
22	0.030017391607479\\
23	0.0248946679351547\\
24	0.0212776230780299\\
25	0.0185834085331559\\
26	0.0164971010401923\\
27	0.0148330326444681\\
28	0.0134744221797144\\
29	0.0123440432735997\\
30	0.0113887411741417\\
31	0.0105707107326117\\
32	0.00986231811042315\\
33	0.00924289003134423\\
34	0.00869664894813821\\
35	0\\
36	0\\
37	0\\
38	0\\
39	0\\
40	0\\
41	0\\
42	0\\
43	0\\
44	0\\
45	0\\
46	0\\
47	0\\
48	0\\
49	0\\
50	0\\
51	0\\
52	0\\
53	0\\
54	0\\
55	0\\
56	0\\
57	0\\
58	0\\
59	0\\
60	0\\
61	0\\
62	0\\
63	0\\
64	0\\
65	0\\
66	0\\
67	0\\
68	0\\
69	0\\
70	0\\
71	0\\
72	0\\
73	0\\
74	0\\
75	0\\
76	0\\
77	0\\
78	0\\
79	0\\
80	0\\
81	0\\
82	0\\
83	0\\
84	0\\
85	0\\
86	0\\
87	0\\
88	0\\
89	0\\
90	0\\
91	0\\
92	0\\
93	0\\
94	0\\
95	0\\
96	0\\
97	0\\
98	0\\
99	0\\
100	0\\
};
\addlegendentry{$\mathbf{h_{2}}$}

\end{axis}

\begin{axis}[%
width=1.935in,
height=3.2in,
at={(3.327in,0.512in)},
scale only axis,
xmin=0,
xmax=100,
xlabel style={font=\color{white!15!black}, align=center},
xlabel={Sample Index\\[1ex](b) Estimated},
ymin=0,
ymax=1,
axis background/.style={fill=white},
legend style={legend cell align=left, align=left, draw=white!15!black}
]
\addplot [color=mycolor1]
  table[row sep=crcr]{%
0	4.11746765902324e-05\\
1	0.000177036009513657\\
2	0.00150830779247366\\
3	0.00171213815852441\\
4	7.55745645129852e-05\\
5	0.000284845620811916\\
6	0.00430718745182458\\
7	2.98725345008455e-05\\
8	0.0017709467536753\\
9	0.000218051628271434\\
10	0.000184381153518599\\
11	0.0112694604644252\\
12	0.00711690888592799\\
13	0.000141698242545311\\
14	7.31062553488988e-05\\
15	0.000816925892195892\\
16	5.3812697919456e-05\\
17	0.000101982855766806\\
18	0.000535113506458539\\
19	0.00747858162371187\\
20	0.0093943994189766\\
21	0.00678976491038258\\
22	0.00986663613407911\\
23	0.00597067650638011\\
24	0.0221166717221723\\
25	0.012793133151076\\
26	0.031733844585035\\
27	0.0183247308469716\\
28	0.0115841345267501\\
29	0.0130653502305881\\
30	0.02722909688494\\
31	0.0607486671863761\\
32	0.112238223969405\\
33	0.0441842244453871\\
34	0.00884936282923381\\
35	0.0535238895108469\\
36	0.0906846703375201\\
37	0.366973158435933\\
38	0.585351258256002\\
39	0.0646159515680888\\
40	0.0583110337500479\\
41	0.0415432969194868\\
42	0.1121401607056\\
43	0.544469870827981\\
44	0.143629516282973\\
45	0.104376251320563\\
46	0.173636349155249\\
47	0.126843214731784\\
48	0.115992438198731\\
49	0.130721517704781\\
50	0.0705477181300093\\
51	0.0429248325116611\\
52	0.118058886009405\\
53	0.0873677037061475\\
54	0.0366650315610633\\
55	0.100029097322512\\
56	0.0867734594936342\\
57	0.050594058460481\\
58	0.0621674609042057\\
59	0.0129133024772919\\
60	0.00425337390957006\\
61	0.0658068282149106\\
62	0.0258095755586458\\
63	0.0124707648709217\\
64	0.0168080077834138\\
65	0.00810405169498264\\
66	0.0171133736780675\\
67	0.00347880167259324\\
68	0.0256246850839341\\
69	0.0279155845496767\\
70	0.0232306619233642\\
71	0.00275691769543399\\
72	0.0116200505414666\\
73	0.0194265390292673\\
74	0.00422836672395718\\
75	0.00225361610565378\\
76	0.0014444197893428\\
77	0.00471891049197009\\
78	0.0161889974248917\\
79	0.00579204246754788\\
80	0.0021234745652789\\
81	0.000141830135098531\\
82	0.0197825206066325\\
83	0.0015110790270607\\
84	0.00130718000683516\\
85	0.000657925061826388\\
86	0.000684770842748483\\
87	0.0095478271218958\\
88	0.00835779486896042\\
89	0.000669632535088516\\
90	0.000882445511846336\\
91	0.000121117856571777\\
92	0.000123352938403439\\
93	2.61733132617501e-05\\
94	0.000946556577150921\\
95	0.00030110581867045\\
96	2.71383193668651e-05\\
97	0.000104865731806541\\
98	0.000100161602594645\\
99	5.24207754247883e-05\\
};
\addlegendentry{$\mathbf{\hat{h}_{1}}$}

\addplot [color=mycolor2]
  table[row sep=crcr]{%
0	0.000582248500972223\\
1	5.17595396369591e-05\\
2	0.000166101519896951\\
3	5.32432834956099e-05\\
4	4.76905183867898e-05\\
5	0.00897386100951678\\
6	0.000333448501180493\\
7	7.37420621252905e-05\\
8	0.0010426270273098\\
9	0.00145744574680335\\
10	0.000193377485973216\\
11	0.00274534528017552\\
12	0.000756297136263036\\
13	0.00198527330432755\\
14	0.00767605538441127\\
15	0.00707907585887666\\
16	0.00318199434170649\\
17	0.00823946830208242\\
18	0.0012572850390996\\
19	7.46325478205297e-05\\
20	0.000947576828469132\\
21	0.0025587900183724\\
22	0.0142458483869216\\
23	0.0284478784836268\\
24	0.00724863316367474\\
25	0.00641725828410257\\
26	0.00250461274095837\\
27	0.00716784686457647\\
28	0.0166104218227987\\
29	0.016297087856134\\
30	0.0143791785943928\\
31	0.0169592530585964\\
32	0.00665814397021358\\
33	0.00967091829644104\\
34	0.000728306907748241\\
35	0.00457174845803751\\
36	0.0632106266412519\\
37	0.0669471797123819\\
38	0.058253441621842\\
39	0.0516737286513238\\
40	0.0665287518531123\\
41	0.0287636966270937\\
42	0.0101442614657963\\
43	0.0897148402856717\\
44	0.103775176245821\\
45	0.0241095501946698\\
46	0.116710852895528\\
47	0.0187967126394218\\
48	0.0164180804879548\\
49	0.941467349994306\\
50	0.017021857558072\\
51	0.0195685910648073\\
52	0.116537128650423\\
53	0.0237875389126924\\
54	0.104301179481433\\
55	0.0893663324698396\\
56	0.0104856325187247\\
57	0.0287109653008405\\
58	0.067290269323558\\
59	0.0516156941888456\\
60	0.0593408947330962\\
61	0.0678131906768192\\
62	0.0656902255804822\\
63	0.00514381482562621\\
64	0.00107891643629722\\
65	0.00976750239212439\\
66	0.00696280582353766\\
67	0.0177702538411088\\
68	0.0134506332501385\\
69	0.0172578142239279\\
70	0.0181826668447358\\
71	0.0074859191898568\\
72	0.00191036311371056\\
73	0.0080914551082891\\
74	0.00698761950259148\\
75	0.0310187432848704\\
76	0.0162581208163811\\
77	0.00124913063137613\\
78	0.00262413532257804\\
79	0.000683758043904716\\
80	0.00133980212981893\\
81	0.00826813831752483\\
82	0.0038769942534126\\
83	0.00994024228600583\\
84	0.0108999980067427\\
85	0.00387976412692402\\
86	0.00126706177663334\\
87	0.00210069446114492\\
88	0.000303692600987915\\
89	0.00188154668965648\\
90	0.00025321627759616\\
91	0.000124567456315227\\
92	0.000366878818935174\\
93	0.0128823528385262\\
94	0.000705556237627003\\
95	0.000534510519420466\\
96	3.54879481488451e-05\\
97	1.97617144491224e-05\\
98	0.000594529872892409\\
99	0.000129713825754712\\
};
\addlegendentry{$\mathbf{\hat{h}_{2}}$}

\end{axis}
\end{tikzpicture}%