% This file was created by matlab2tikz.
%
%The latest updates can be retrieved from
%  http://www.mathworks.com/matlabcentral/fileexchange/22022-matlab2tikz-matlab2tikz
%where you can also make suggestions and rate matlab2tikz.
%
\definecolor{mycolor1}{rgb}{0.00000,0.44700,0.74100}%
\definecolor{mycolor2}{rgb}{0.85000,0.32500,0.09800}%
%
\begin{tikzpicture}

\begin{axis}[%
width=1.952in,
height=3.2in,
at={(0.758in,0.512in)},
scale only axis,
xmin=0,
xmax=20,
xlabel style={font=\color{white!15!black}, align=center},
xlabel={Sample Index\\[1ex](a) Actual},
ymin=0,
ymax=1,
axis background/.style={fill=white},
legend style={legend cell align=left, align=left, draw=white!15!black}
]
\addplot [color=mycolor1]
  table[row sep=crcr]{%
1	0.113205605745861\\
2	0.919292270364926\\
3	0.256025577129562\\
4	0.221212160951117\\
5	0.110921817870281\\
6	0.0400328712358033\\
7	0.0687168441611535\\
8	0.0506014016738843\\
9	0.0552835931164163\\
10	0.0346525615393867\\
11	0.020191452822011\\
12	0.0185296152559968\\
13	0.0171404774442808\\
14	0.0156211388830756\\
15	0.0142945116316957\\
16	0.0131617720182863\\
17	0.0121914691582677\\
18	0.0113534257007881\\
19	0.0106231383936872\\
20	0.00998136168461187\\
};
\addlegendentry{$\mathbf{h_1}$}

\addplot [color=mycolor2]
  table[row sep=crcr]{%
1	0.0495723015654782\\
2	0.0685334241945042\\
3	0.511321702955238\\
4	0.765196656162612\\
5	0.358164812724738\\
6	0.132619444637821\\
7	0\\
8	0\\
9	0\\
10	0\\
11	0\\
12	0\\
13	0\\
14	0\\
15	0\\
16	0\\
17	0\\
18	0\\
19	0\\
20	0\\
};
\addlegendentry{$\mathbf{h_{2}}$}

\end{axis}

\begin{axis}[%
width=1.952in,
height=3.2in,
at={(3.327in,0.512in)},
scale only axis,
xmin=0,
xmax=20,
xlabel style={font=\color{white!15!black}, align=center},
xlabel={Sample Index\\[1ex](b) Estimated},
ymin=-0.2,
ymax=1,
axis background/.style={fill=white},
legend style={legend cell align=left, align=left, draw=white!15!black}
]
\addplot [color=mycolor1]
  table[row sep=crcr]{%
0	0.020347929169941\\
0.25	0.0227840380578834\\
0.5	0.025333628182951\\
0.75	0.0280662826452564\\
1	0.0309721214486773\\
1.25	0.0340127269807457\\
1.5	0.0368784074112227\\
1.75	0.0392725459967545\\
2	0.0408976987514427\\
2.25	0.0412381950610284\\
2.5	0.0405824595544826\\
2.75	0.0390270002908187\\
3	0.0367115374787693\\
3.25	0.0338025168749948\\
3.5	0.0304196853145592\\
3.75	0.0267194118490645\\
4	0.0229043891510722\\
4.25	0.0182750248931617\\
4.5	0.0147657006398129\\
4.75	0.0133066547984124\\
5	0.0146408648469496\\
5.25	0.0215634781794383\\
5.5	0.0308244045628163\\
5.75	0.0419098659163435\\
6	0.0553641825223683\\
6.25	0.0715389913891146\\
6.5	0.0962441617401444\\
6.75	0.134130971822157\\
7	0.189151785568351\\
7.25	0.258987518490526\\
7.5	0.349012797172764\\
7.75	0.455703878064951\\
8	0.569934710761774\\
8.25	0.691765662057227\\
8.5	0.781154458933818\\
8.75	0.814874499416545\\
9	0.778370252216247\\
9.25	0.64704979358418\\
9.5	0.470767940562003\\
9.75	0.284785869580734\\
10	0.124504390144039\\
10.25	0.0419655820961205\\
10.5	0.0110799289982461\\
10.75	0.0186420445871567\\
11	0.0445460593810725\\
11.25	0.0493979105481256\\
11.5	0.0472016380197311\\
11.75	0.0384970134050935\\
12	0.0277901070507643\\
12.25	0.0308838667421304\\
12.5	0.0373721460997654\\
12.75	0.0456504821176116\\
13	0.0534123673885841\\
13.25	0.0549065151499822\\
13.5	0.0538744063243074\\
13.75	0.0510716025606166\\
14	0.0474792823295926\\
14.25	0.0448044352292002\\
14.5	0.0423813235202129\\
14.75	0.0400445825159404\\
15	0.0374422165965987\\
15.25	0.0335308156698216\\
15.5	0.0291196076777778\\
15.75	0.0244574657140839\\
16	0.0198528683425697\\
16.25	0.0159345760034913\\
16.5	0.0124108610598979\\
16.75	0.0092787762137963\\
17	0.00653327537271405\\
17.25	0.00399024968157425\\
17.5	0.00208609765407936\\
17.75	0.00105647044661228\\
18	0.00109601012592004\\
18.25	0.00242286683735599\\
18.5	0.00479304391331514\\
18.75	0.00794913622694798\\
19	0.0115265454315516\\
19.25	0.0150992865930638\\
19.5	0.0182535241991374\\
19.75	0.0206255559826558\\
};
\addlegendentry{$\mathbf{\hat{h}_{1}}$}

\addplot [color=mycolor2]
  table[row sep=crcr]{%
0	0.00381494351846557\\
0.25	0.00372615758898069\\
0.5	0.00360931264361018\\
0.75	0.00343981845673021\\
1	0.00319948257319618\\
1.25	0.00289501881287313\\
1.5	0.00250662722652042\\
1.75	0.00204852534566858\\
2	0.00155768848816576\\
2.25	0.00107836572764676\\
2.5	0.000716483309781234\\
2.75	0.000569951768338563\\
3	0.00073058985202238\\
3.25	0.00115066903759895\\
3.5	0.00204432124007582\\
3.75	0.00344061027034339\\
4	0.00527513777545134\\
4.25	0.00773741363695531\\
4.5	0.0100590244088912\\
4.75	0.0118666933513335\\
5	0.0129569962293183\\
5.25	0.0083355729923586\\
5.5	0.00597928072800441\\
5.75	0.00807541837957591\\
6	0.0150165873385618\\
6.25	0.0442503511965123\\
6.5	0.0629090948012955\\
6.75	0.0606228892989848\\
7	0.0354794307095102\\
7.25	-0.0463154302346218\\
7.5	-0.0982635992627088\\
7.75	-0.0788649193317051\\
8	0.0373070894878939\\
8.25	0.316258910279841\\
8.5	0.622119616703191\\
8.75	0.873149051265268\\
9	0.996882294594921\\
9.25	0.873108568452729\\
9.5	0.62205287300128\\
9.75	0.316191048667313\\
10	0.0372680264085718\\
10.25	-0.0788409338234578\\
10.5	-0.0981639025490115\\
10.75	-0.0461460443054847\\
11	0.0356938986218336\\
11.25	0.0608374016654791\\
11.5	0.0630825106375436\\
11.75	0.0443474428459463\\
12	0.0150153394253689\\
12.25	0.00796934822512746\\
12.5	0.00578455675201985\\
12.75	0.00808578110800475\\
13	0.0126963171298663\\
13.25	0.0116513461381796\\
13.5	0.00992004567942931\\
13.75	0.00768522345693633\\
14	0.00529854467317229\\
14.25	0.00349821270084496\\
14.5	0.00210553013154822\\
14.75	0.00119058329281916\\
15	0.00073545200525388\\
15.25	0.000551150681783781\\
15.5	0.000679230461850363\\
15.75	0.00103203030838045\\
16	0.0015144721306096\\
16.25	0.00201574786517143\\
16.5	0.00250311192984084\\
16.75	0.00294180094221028\\
17	0.00331573001201652\\
17.25	0.00363584499080408\\
17.5	0.00388523545865796\\
17.75	0.00406505485038132\\
18	0.00417906173588527\\
18.25	0.00422221328244485\\
18.5	0.00421992491370633\\
18.75	0.00418736120614319\\
19	0.0041397629722827\\
19.25	0.00409048820905292\\
19.5	0.00405725838259718\\
19.75	0.00405563613275126\\
};
\addlegendentry{$\mathbf{\hat{h}_{2}}$}

\end{axis}
\end{tikzpicture}%