% This file was created by matlab2tikz.
%
%The latest updates can be retrieved from
%  http://www.mathworks.com/matlabcentral/fileexchange/22022-matlab2tikz-matlab2tikz
%where you can also make suggestions and rate matlab2tikz.
%
\definecolor{mycolor1}{rgb}{0.00000,0.44700,0.74100}%
\definecolor{mycolor2}{rgb}{0.85000,0.32500,0.09800}%
%
\begin{tikzpicture}

\begin{axis}[%
width=1.935in,
height=3.2in,
at={(0.758in,0.512in)},
scale only axis,
xmin=0,
xmax=200,
xlabel style={font=\color{white!15!black}, align=center},
xlabel={Sample Index\\[1ex](a) Actual},
ymin=0,
ymax=0.8,
axis background/.style={fill=white},
legend style={legend cell align=left, align=left, draw=white!15!black}
]
\addplot [color=mycolor1]
  table[row sep=crcr]{%
1	0.0182020814388773\\
2	0.02012510100002\\
3	0.022545111927633\\
4	0.0257092221775269\\
5	0.0300926257860288\\
6	0.0368070113207646\\
7	0.0496139700658591\\
8	0.100781801849891\\
9	0.104249814301154\\
10	0.21590224856942\\
11	0.240903318316862\\
12	0.758685269567618\\
13	0.209267020187496\\
14	0.0771785197863095\\
15	0.0494891771958471\\
16	0.0356405661348903\\
17	0.15523755961894\\
18	0.0271597451025023\\
19	0.145703442549891\\
20	0.0520738574541381\\
21	0.0740609080662357\\
22	0.104935155821669\\
23	0.0417678670288507\\
24	0.0299752622866834\\
25	0.0250001918328842\\
26	0.0229720939063182\\
27	0.0247245078055356\\
28	0.00362513039017358\\
29	0.14722576142865\\
30	0.0387273782761153\\
31	0.131677926596125\\
32	0.0785526041407005\\
33	0.0810464121808255\\
34	0.160588901862689\\
35	0.0744890994278548\\
36	0.134536712627009\\
37	0.0173820440229542\\
38	0.137082339999381\\
39	0.0170525437502556\\
40	0.00749074921495884\\
41	0.00341378303693337\\
42	0.00620877458876847\\
43	0.0141607494626642\\
44	0.0397125400502968\\
45	0.0472710882981607\\
46	0.117933825228246\\
47	0.104860760134015\\
48	0.0231680488862733\\
49	0.0173960896964215\\
50	0.01565840529932\\
51	0.0158238796681408\\
52	0.0214800847634647\\
53	0.069515335423337\\
54	0.00705654101536576\\
55	0.0048265337253162\\
56	0.00444892816390271\\
57	0.00420482397187746\\
58	0.00394665996283891\\
59	0.00367152522573874\\
60	0.00340609944322399\\
61	0.00324100673075721\\
62	0.00352226036423774\\
63	0.00577590294104206\\
64	0.0646039488883014\\
65	0.0152053951030713\\
66	0.025205330150814\\
67	0.0111279282265277\\
68	0.00808273026447386\\
69	0.00668378513225385\\
70	0.0058444881598292\\
71	0.00526118842255355\\
72	0.00481495459253537\\
73	0.00444984685034709\\
74	0.00413772241899909\\
75	0.00386847400652643\\
76	0.00365640479604675\\
77	0.00358022933512563\\
78	0.0039436041841542\\
79	0.00596743145716452\\
80	0.0193053572626292\\
81	0.0244955947722078\\
82	0.0480492514955312\\
83	0.00881743040387132\\
84	0.00673618414357698\\
85	0.00583169570033062\\
86	0.00529290215994122\\
87	0.0049263520005684\\
88	0.00465711125291308\\
89	0.0044495340289191\\
90	0.00428463427284004\\
91	0.00415172046176833\\
92	0.00404487765081529\\
93	0.00396151732265935\\
94	0.00390215289068892\\
95	0.00387150614980524\\
96	0.00388240228065188\\
97	0.00396861770551536\\
98	0.0042393791899913\\
99	0.00529535495453836\\
100	0.0384422656208756\\
101	0.00196598430595653\\
102	0.00227127045262919\\
103	0.0024323424968646\\
104	0.0025024611202\\
105	0.00253048915714305\\
106	0.00253672908189185\\
107	0.00253067827009284\\
108	0.00251728582017171\\
109	0.00249934971595597\\
110	0.00247855194358738\\
111	0.00245595212950105\\
112	0.00243224240902919\\
113	0.0024078877120558\\
114	0.00238320712614353\\
115	0.00235842317784567\\
116	0.00233369278997705\\
117	0.00230912733940947\\
118	0.00228480600224308\\
119	0.00226078483862737\\
120	0.00223710310173484\\
121	0.00221378769593874\\
122	0.00219085637556591\\
123	0.00216832007097849\\
124	0.00214618460011501\\
125	0.00212445194095342\\
126	0.00210312118614787\\
127	0.002082189264892\\
128	0.00206165149248505\\
129	0.00204150199113677\\
130	0.00202173401371152\\
131	0.00200234019373144\\
132	0.00198331273896169\\
133	0.0019646435815544\\
134	0.00194632449455517\\
135	0.00192834718223092\\
136	0.00191070334993457\\
137	0.00189338475791222\\
138	0.00187638326246988\\
139	0.00185969084716353\\
140	0.00184329964609891\\
141	0.00182720196098313\\
142	0.00181139027322501\\
143	0.00179585725211227\\
144	0.00178059575988462\\
145	0.00176559885435432\\
146	0.00175085978959665\\
147	0.00173637201512792\\
148	0.00172212917390737\\
149	0.00170812509943172\\
150	0.00169435381214015\\
151	0.00168080951530347\\
152	0.00166748659053823\\
153	0.00165437959305814\\
154	0.00164148324675288\\
155	0.00162879243916746\\
156	0.00161630221643902\\
157	0.0016040077782369\\
158	0.00159190447274199\\
159	0.00157998779169339\\
160	0.00156825336552436\\
161	0.00155669695860377\\
162	0.00154531446459552\\
163	0.00153410190194422\\
164	0.00152305540949421\\
165	0.00151217124224425\\
166	0.00150144576724133\\
167	0.00149087545961318\\
168	0.00148045689873912\\
169	0.00147018676455811\\
170	0.00146006183401068\\
171	0.00145007897761323\\
172	0.00144023515616105\\
173	0.00143052741755604\\
174	0.0014209528937561\\
175	0.00141150879784194\\
176	0.00140219242119743\\
177	0.0013930011307999\\
178	0.00138393236661579\\
179	0.00137498363909773\\
180	0.0013661525267803\\
181	0.00135743667396858\\
182	0.00134883378851806\\
183	0.00134034163970044\\
184	0.00133195805615281\\
185	0.00132368092390639\\
186	0.00131550818449211\\
187	0.00130743783311859\\
188	0.00129946791692105\\
189	0.00129159653327689\\
190	0.00128382182818601\\
191	0.00127614199471266\\
192	0.00126855527148628\\
193	0.00126105994125928\\
194	0.00125365432951856\\
195	0.00124633680314903\\
196	0.00123910576914731\\
197	0.00123195967338265\\
198	0.00122489699940362\\
199	0\\
200	0\\
};
\addlegendentry{$\mathbf{h_1}$}

\addplot [color=mycolor2]
  table[row sep=crcr]{%
1	0.00774703480118937\\
2	0.00804603929146471\\
3	0.00836973275649019\\
4	0.00872140343539048\\
5	0.00910497030680877\\
6	0.00952514700926037\\
7	0.00998766130776543\\
8	0.0104995540104486\\
9	0.0110695940567668\\
10	0.0117088677650987\\
11	0.0124316367204608\\
12	0.013256623866012\\
13	0.0142090087041013\\
14	0.0153236507623596\\
15	0.0166505577523129\\
16	0.0182647317357061\\
17	0.0202852710510938\\
18	0.0229161572207696\\
19	0.0265452456738114\\
20	0.0320322468033177\\
21	0.0418192089559173\\
22	0.0672236903861102\\
23	0.764800043449489\\
24	0.0299885302146741\\
25	0.0061115763360554\\
26	0.0242678676400095\\
27	0.0514933555988865\\
28	0.195228919998726\\
29	0.085859180908406\\
30	0.0163105896710166\\
31	0.0145786853171939\\
32	0.0559865681218998\\
33	0.251050340252552\\
34	0.336624236311341\\
35	0.408546548232539\\
36	0.036057069833403\\
37	0.032029118563816\\
38	0.0279234399827533\\
39	0.024556464147634\\
40	0.0218789138558169\\
41	0.0197265840855051\\
42	0.0179656432193082\\
43	0.016499807231079\\
44	0.0152607166923053\\
45	0.0141992302040502\\
46	0.0132793478490471\\
47	0.0124741733162898\\
48	0.011763234520885\\
49	0.0111306817804915\\
50	0.0105640541254365\\
51	0.0100534184529814\\
52	0.00959075767384862\\
53	0.00916952821967447\\
54	0.00878433483782754\\
55	0.00843068801165144\\
56	0.00810482052737742\\
57	0.00780354701585278\\
58	0.00752415515294532\\
59	0.00726432048229959\\
60	0.00702203907403127\\
61	0.00679557379902244\\
62	0.00658341110359303\\
63	0.00638422595921995\\
64	0.00619685323339502\\
65	0.00602026414575953\\
66	0.00585354678274153\\
67	0.00569588987471922\\
68	0.00554656921368661\\
69	0\\
70	0\\
71	0\\
72	0\\
73	0\\
74	0\\
75	0\\
76	0\\
77	0\\
78	0\\
79	0\\
80	0\\
81	0\\
82	0\\
83	0\\
84	0\\
85	0\\
86	0\\
87	0\\
88	0\\
89	0\\
90	0\\
91	0\\
92	0\\
93	0\\
94	0\\
95	0\\
96	0\\
97	0\\
98	0\\
99	0\\
100	0\\
101	0\\
102	0\\
103	0\\
104	0\\
105	0\\
106	0\\
107	0\\
108	0\\
109	0\\
110	0\\
111	0\\
112	0\\
113	0\\
114	0\\
115	0\\
116	0\\
117	0\\
118	0\\
119	0\\
120	0\\
121	0\\
122	0\\
123	0\\
124	0\\
125	0\\
126	0\\
127	0\\
128	0\\
129	0\\
130	0\\
131	0\\
132	0\\
133	0\\
134	0\\
135	0\\
136	0\\
137	0\\
138	0\\
139	0\\
140	0\\
141	0\\
142	0\\
143	0\\
144	0\\
145	0\\
146	0\\
147	0\\
148	0\\
149	0\\
150	0\\
151	0\\
152	0\\
153	0\\
154	0\\
155	0\\
156	0\\
157	0\\
158	0\\
159	0\\
160	0\\
161	0\\
162	0\\
163	0\\
164	0\\
165	0\\
166	0\\
167	0\\
168	0\\
169	0\\
170	0\\
171	0\\
172	0\\
173	0\\
174	0\\
175	0\\
176	0\\
177	0\\
178	0\\
179	0\\
180	0\\
181	0\\
182	0\\
183	0\\
184	0\\
185	0\\
186	0\\
187	0\\
188	0\\
189	0\\
190	0\\
191	0\\
192	0\\
193	0\\
194	0\\
195	0\\
196	0\\
197	0\\
198	0\\
199	0\\
200	0\\
};
\addlegendentry{$\mathbf{h_{2}}$}

\end{axis}

\begin{axis}[%
width=1.935in,
height=3.2in,
at={(3.327in,0.512in)},
scale only axis,
xmin=0,
xmax=200,
xlabel style={font=\color{white!15!black}, align=center},
xlabel={Sample Index\\[1ex](b) Estimated},
ymin=0,
ymax=1,
axis background/.style={fill=white},
legend style={legend cell align=left, align=left, draw=white!15!black}
]
\addplot [color=mycolor1]
  table[row sep=crcr]{%
0	5.73794210083478e-05\\
1	4.72710334634324e-05\\
2	3.1039893280185e-05\\
3	5.63819669209117e-05\\
4	5.88650101005386e-05\\
5	0.000327695069994589\\
6	4.2087587144144e-05\\
7	0.000181778077595963\\
8	6.75550107616769e-05\\
9	0.000114590262976958\\
10	7.14542209747044e-05\\
11	3.36794731775271e-05\\
12	5.08481688423164e-05\\
13	4.00838835086585e-06\\
14	2.50533006548229e-05\\
15	7.16340354502843e-05\\
16	3.01427719752008e-05\\
17	5.31878844852661e-05\\
18	6.07816926003672e-05\\
19	0.000964696491560095\\
20	0.000174935544677062\\
21	3.98496102851442e-05\\
22	0.000147234130269112\\
23	0.00151580197504569\\
24	0.0020841799859581\\
25	0.00141926695662092\\
26	4.28197808527383e-05\\
27	9.24922370610588e-05\\
28	3.21232993859678e-05\\
29	7.69198320284982e-06\\
30	6.09790162073031e-05\\
31	2.23050599326821e-05\\
32	3.91494787515875e-05\\
33	7.41516898809203e-05\\
34	9.13727045432018e-05\\
35	0.000109018419940414\\
36	6.13031138081287e-05\\
37	2.80960637606403e-05\\
38	0.000337763104775343\\
39	5.96573494799762e-05\\
40	0.000507483627558618\\
41	0.000572438599670732\\
42	3.92166891557608e-05\\
43	9.53916513787163e-05\\
44	7.13808748831441e-05\\
45	0.00280227317175229\\
46	7.02192023545967e-05\\
47	0.00778990210211762\\
48	0.00268211743034097\\
49	0.00561044380358288\\
50	0.00777073830147889\\
51	0.00170853223574558\\
52	0.000881821003483479\\
53	0.00567911009532878\\
54	0.00704648370127328\\
55	0.0152468798014146\\
56	0.00119053712979294\\
57	0.00821758456497721\\
58	0.00544994881588514\\
59	6.42983735923285e-05\\
60	0.00206517650543427\\
61	0.0147128990725788\\
62	0.0147297759221287\\
63	0.00368058924770036\\
64	0.0477726858634949\\
65	0.0392795342832629\\
66	0.0613887151852239\\
67	0.0060561256869253\\
68	0.0214449359845717\\
69	0.0404585070206675\\
70	0.0222527060809144\\
71	0.0589886438954236\\
72	0.0460415064378017\\
73	0.0325718823244504\\
74	0.00123537896817702\\
75	0.164397439565518\\
76	0.385606808139316\\
77	0.339647090336428\\
78	0.115107194449188\\
79	0.0372543003293995\\
80	0.00297787131949915\\
81	0.0753585820836314\\
82	0.0589556691786218\\
83	0.0401364350330193\\
84	0.0369928315460894\\
85	0.0769458088202496\\
86	0.103570998986666\\
87	0.176924623512687\\
88	0.587189192766447\\
89	0.26172197906356\\
90	0.0945005462618505\\
91	0.0194051846897629\\
92	0.0383485389910259\\
93	0.077972308022678\\
94	0.0484822203117539\\
95	0.139330370097463\\
96	0.0783710415713407\\
97	0.0171915955676895\\
98	0.136881186310764\\
99	0.076500319799463\\
100	0.0183194363186023\\
101	0.0826256037845688\\
102	0.0720205277038476\\
103	0.0654542063814441\\
104	0.0422704163603217\\
105	0.10493497787086\\
106	0.0220464444839947\\
107	0.0339397097500949\\
108	0.0310378584383309\\
109	0.114445446806796\\
110	0.172877767643805\\
111	0.0753584234597884\\
112	0.091204249312029\\
113	0.0221596881496809\\
114	0.11086301367514\\
115	0.00428813136941273\\
116	0.000160798795487161\\
117	0.0189612962965185\\
118	0.0427759241546558\\
119	0.025542661965949\\
120	0.0323849231906447\\
121	0.0331488465664425\\
122	0.099567920932794\\
123	0.0953912421726906\\
124	0.00182160160055779\\
125	0.00172027449290064\\
126	0.00198551543902691\\
127	0.0133766349606522\\
128	0.00265766652032049\\
129	0.00205916239617893\\
130	0.0309420983966167\\
131	0.00354667064458038\\
132	0.00444649788184726\\
133	0.00761756466494045\\
134	0.0108541665977989\\
135	0.0195452346252009\\
136	0.0014735904080578\\
137	0.00878640291139536\\
138	0.0123344155776137\\
139	0.00645520504255635\\
140	0.0509517641167797\\
141	0.00484536620296849\\
142	0.0146093273453579\\
143	0.00591703937182464\\
144	0.000885328769219179\\
145	0.00462236333671726\\
146	0.0104118339047966\\
147	0.0167396042231374\\
148	0.00530179089991187\\
149	0.00523761774550664\\
150	0.00418578607563635\\
151	0.00398729403794423\\
152	5.29013312660732e-05\\
153	0.00162396543602883\\
154	0.000129178055297429\\
155	0.000261872963728419\\
156	0.00370776819336969\\
157	0.0142963908654278\\
158	0.0325997720286676\\
159	0.00497117665411131\\
160	0.00374208514476225\\
161	0.00284805505010123\\
162	0.000507509562117377\\
163	0.000116168763133351\\
164	0.00100381746419642\\
165	0.0102270858076748\\
166	0.00153171626757089\\
167	6.04220765290538e-05\\
168	0.000203123707915679\\
169	0.000189730132697867\\
170	0.00290880267309028\\
171	0.000210712595572622\\
172	0.000501574623111293\\
173	2.75540517740879e-05\\
174	0.000115698988697151\\
175	0.000166618800941758\\
176	0.0257934200511297\\
177	0.00138798187052673\\
178	0.000284835814131835\\
179	0.00111646816102865\\
180	1.645563136216e-05\\
181	0.000132444744820526\\
182	0.000239964612702551\\
183	4.19777838127642e-05\\
184	8.50332797201648e-05\\
185	6.13806238283293e-05\\
186	0.00041232976961167\\
187	5.83622916610541e-05\\
188	2.32859420640003e-05\\
189	0.000527169224752548\\
190	0.000244753394746691\\
191	0.000121145283941788\\
192	4.98329696298511e-05\\
193	0.000111377683941236\\
194	0.000168011805651441\\
195	2.45455008436799e-05\\
196	9.04630879530354e-05\\
197	5.47469160005712e-05\\
198	0.000174994311856791\\
199	6.99880139618559e-05\\
};
\addlegendentry{$\mathbf{\hat{h}_{1}}$}

\addplot [color=mycolor2]
  table[row sep=crcr]{%
0	6.58444624008064e-05\\
1	0.000301989470527698\\
2	2.25977562820487e-05\\
3	1.23743355072305e-05\\
4	2.37311602083368e-05\\
5	5.71920307447434e-06\\
6	6.18625922598684e-05\\
7	8.70445937055121e-05\\
8	3.25776398252673e-05\\
9	5.08164766560121e-05\\
10	0.000565608775467182\\
11	0.005971686256538\\
12	0.000652470968939224\\
13	6.1864163949121e-05\\
14	0.000111537529139731\\
15	0.000213849466599687\\
16	8.58054903342192e-05\\
17	0.000214159553100192\\
18	5.92845363156694e-05\\
19	8.08740413078316e-05\\
20	0.0011720481055142\\
21	4.92913052615882e-05\\
22	9.83882837090169e-05\\
23	0.0015140010162941\\
24	0.000190159063103456\\
25	0.000974445388701138\\
26	0.000261669420253143\\
27	7.4421662774672e-05\\
28	0.00117895681930502\\
29	0.00731674835805581\\
30	0.00967246348148514\\
31	0.000144965889948027\\
32	0.00178341385189377\\
33	0.00113405604921243\\
34	0.000766949912665381\\
35	0.00264682851941309\\
36	0.00100208810299498\\
37	0.00190302461398372\\
38	0.00144829912207364\\
39	4.81049693551569e-05\\
40	0.000351623137535024\\
41	0.00108404596078991\\
42	0.00297704608037226\\
43	8.86295810731564e-05\\
44	0.000862650209381483\\
45	0.00610309727594085\\
46	0.00874975355142958\\
47	0.0176467533344052\\
48	0.00564892258132458\\
49	0.00551731095682675\\
50	0.000113279736186412\\
51	0.00188416893891962\\
52	0.000222296509347718\\
53	0.00491110547533218\\
54	0.00457719008359392\\
55	0.000727183739043925\\
56	0.00347565021099493\\
57	0.0037538376759423\\
58	0.0127539786668659\\
59	0.00658083835260889\\
60	0.00271717838274947\\
61	0.00198945062976632\\
62	0.00531040357033211\\
63	0.00672606773390735\\
64	0.0157895779121722\\
65	0.0240348446388782\\
66	0.0258063709895755\\
67	0.00475714691562866\\
68	0.0120896846679675\\
69	0.0114490389997514\\
70	0.00126075977202427\\
71	4.1022786730169e-05\\
72	0.0209631980676359\\
73	0.0472993512172762\\
74	0.00406661059028738\\
75	0.0469529420265386\\
76	0.0135871929590955\\
77	0.0388991395943872\\
78	0.023871630591405\\
79	0.0206193130908666\\
80	0.0439132866986407\\
81	0.0228477305598483\\
82	0.0375110786631054\\
83	0.0259502256019278\\
84	0.0112613358351195\\
85	0.00329381322067427\\
86	0.00589855693237741\\
87	0.0341359638299266\\
88	0.0454956429529076\\
89	0.0524385235113002\\
90	0.0127602155826046\\
91	0.00600125519833859\\
92	0.0496147401956708\\
93	0.0195552856026346\\
94	0.0793996176275275\\
95	0.0302518713201048\\
96	0.0659980077246597\\
97	0.0654100811323029\\
98	0.0327886796509763\\
99	0.957337578339752\\
100	0.0324485255524097\\
101	0.0659186599421504\\
102	0.0650688639542096\\
103	0.0293359685190305\\
104	0.0798335982373519\\
105	0.0200410370178436\\
106	0.0496305837345168\\
107	0.00496693792891507\\
108	0.0129819241853965\\
109	0.0531042003421754\\
110	0.0451270776825029\\
111	0.0340304330409242\\
112	0.00630085138335281\\
113	0.00345339736750299\\
114	0.0101588082838261\\
115	0.0256165439989668\\
116	0.0389019664339601\\
117	0.023682727364442\\
118	0.0457201960834917\\
119	0.0211048294797306\\
120	0.0245367835833932\\
121	0.0404475269219954\\
122	0.0142547537994563\\
123	0.047857195131613\\
124	0.00451267281275395\\
125	0.0486594594193898\\
126	0.0212800142255067\\
127	1.42756054458926e-05\\
128	0.000805852855151906\\
129	0.0112991924024649\\
130	0.0125366828771503\\
131	0.00474240189719112\\
132	0.0282870253380783\\
133	0.025310651146242\\
134	0.0174133919594653\\
135	0.00708188484913888\\
136	0.00644055997092181\\
137	0.000752727397297163\\
138	0.00266429817695427\\
139	0.00791635585964016\\
140	0.0148643698564234\\
141	0.00549783117159694\\
142	0.00486634287143456\\
143	0.00046477635504242\\
144	0.00463831612652283\\
145	0.0055277636569663\\
146	0.000140250659469057\\
147	0.00240832112933072\\
148	7.57322954282903e-05\\
149	0.00601278330742248\\
150	0.0069783092290661\\
151	0.0190314522290629\\
152	0.00885720558709412\\
153	0.00685404117212472\\
154	0.000900543934748161\\
155	9.47208735655306e-05\\
156	0.00315553793861936\\
157	0.00107183255175722\\
158	0.00111566852715991\\
159	7.22771013673351e-05\\
160	0.00207544051251382\\
161	0.00195355311069979\\
162	0.00148747981582871\\
163	0.00254712546683476\\
164	0.000566976391306609\\
165	0.000811167793548187\\
166	0.00221879485230603\\
167	0.000167045290473261\\
168	0.0120192806173322\\
169	0.00809760571860012\\
170	0.00317908743285136\\
171	6.66065023775059e-05\\
172	0.000720581226302957\\
173	0.00193769628815462\\
174	0.00059433030284139\\
175	0.0016783463503021\\
176	3.81154291448937e-05\\
177	6.8969257436119e-05\\
178	0.0019318998649185\\
179	8.23280903770943e-05\\
180	0.000218681192567221\\
181	0.000182140149209642\\
182	0.000137971473546583\\
183	0.000222676748689275\\
184	9.39416001756669e-05\\
185	7.09969037228855e-05\\
186	0.00133626954958469\\
187	0.0077585284807307\\
188	0.00208863382944406\\
189	6.38119004670949e-05\\
190	5.02328008561915e-05\\
191	0.000419507478244382\\
192	7.70394908471188e-05\\
193	5.60118787874747e-05\\
194	9.69841525877264e-06\\
195	1.93098602973433e-05\\
196	3.79348144585386e-05\\
197	0.000952083302290051\\
198	7.77914916130231e-05\\
199	6.98041880831699e-05\\
};
\addlegendentry{$\mathbf{\hat{h}_{2}}$}

\end{axis}
\end{tikzpicture}%