<?xml version="1.0" encoding="UTF-8"?>
<kml xmlns="http://earth.google.com/kml/2.1">
	<Document>
		<NetworkLink>
			<name>rssi_avg</name>
			<Link>
				<href>rssi_avg.kml</href>
			</Link>
		</NetworkLink>
		<NetworkLink>
			<name>prob_rssi_subset</name>
			<Link>
				<href>prob_rssi_subset.kml</href>
			</Link>
		</NetworkLink>
		<NetworkLink>
			<name>prob_tdoa_cfuse</name>
			<Link>
				<href>prob_tdoa_cfuse.kml</href>
			</Link>
		</NetworkLink>
	</Document>
</kml>
