% This file was created by matlab2tikz.
%
%The latest updates can be retrieved from
%  http://www.mathworks.com/matlabcentral/fileexchange/22022-matlab2tikz-matlab2tikz
%where you can also make suggestions and rate matlab2tikz.
%
\definecolor{mycolor1}{rgb}{0.00000,0.44700,0.74100}%
\definecolor{mycolor2}{rgb}{0.85000,0.32500,0.09800}%
%
\begin{tikzpicture}

\begin{axis}[%
width=1.677in,
height=2.162in,
at={(2.509in,7.109in)},
scale only axis,
xmin=0,
xmax=100,
xlabel style={font=\color{white!15!black}, align=center},
xlabel={Sample Index\\[1ex]0},
ymin=0,
ymax=0.8,
ylabel style={font=\color{white!15!black}},
ylabel={Magnitude},
axis background/.style={fill=white},
legend style={legend cell align=left, align=left, draw=white!15!black}
]
\addplot [color=mycolor1]
  table[row sep=crcr]{%
1	0.0129538532238509\\
2	0.0157278361368032\\
3	0.0191571608138802\\
4	0.0255923724575832\\
5	0.13057228915146\\
6	0.790598288418654\\
7	0.353827376030412\\
8	0.122418300101408\\
9	0.229084031593214\\
10	0.118243319340586\\
11	0.168368944374742\\
12	0.0163735399430034\\
13	0.0206849651924714\\
14	0.0262956791329175\\
15	0.151852199158411\\
16	0.152742171024721\\
17	0.110720168991091\\
18	0.123153341936425\\
19	0.125894992669405\\
20	0.0746063601393855\\
21	0.0186653655418556\\
22	0.0250643995407145\\
23	0.00974111680189212\\
24	0.0779603151980655\\
25	0.0307172164925168\\
26	0.0208261989317089\\
27	0.0752294272267323\\
28	0.0144668561504321\\
29	0.0123363814366294\\
30	0.0122598477519198\\
31	0.0155350862563734\\
32	0.0418132873290243\\
33	0.0573531042253119\\
34	0.0129196281383963\\
35	0.00895205820328393\\
36	0.00773833898796016\\
37	0.00748874666873079\\
38	0.00800183229182001\\
39	0.00975691772335202\\
40	0.0159028691535576\\
41	0.0384196893347397\\
42	0.0314876195631017\\
43	0.010044387559483\\
44	0.00616684731235577\\
45	0.00479175222070565\\
46	0.00437058826387638\\
47	0.00459828758875363\\
48	0.005652668265702\\
49	0.0087419213913912\\
50	0.0260232215344717\\
51	0.0227474232041571\\
52	0.00780973732786325\\
53	0.00473741257906885\\
54	0.00342802499502385\\
55	0.0027071673231627\\
56	0.00225206144341568\\
57	0.001938695300116\\
58	0.0017095024412107\\
59	0.00153423834592061\\
60	0.00139554782547471\\
61	0.00128278764759102\\
62	0.00118908147787501\\
63	0.00110979542168412\\
64	0.0010416958422628\\
65	0.000982458809342531\\
66	0.000930371514391801\\
67	0.000884143640819322\\
68	0.000842784330423255\\
69	0.000805519676312384\\
70	0.000771736027647173\\
71	0.000740940180026644\\
72	0.000712730877370764\\
73	0.000686778053613698\\
74	0.000662807472321918\\
75	0.000640589196550035\\
76	0.000619928819626308\\
77	0.000600660714929267\\
78	0.000582642781753098\\
79	0.000565752313398667\\
80	0.000549882716621264\\
81	0.000534940883763175\\
82	0.000520845070183068\\
83	0.000507523166470246\\
84	0.00049491128175685\\
85	0.000482952574159901\\
86	0.000471596279030148\\
87	0.000460796896662062\\
88	0.000450513509420678\\
89	0.000440709204573525\\
90	0.000431350583981088\\
91	0.000422407345569488\\
92	0.000413851924447944\\
93	0.000405659183842499\\
94	0.000397806147840094\\
95	0.000390271769389961\\
96	0.000383036728166029\\
97	0.00037608325382988\\
98	0.000369394970986201\\
99	0\\
100	0\\
};
\addlegendentry{data1}

\addplot [color=mycolor2]
  table[row sep=crcr]{%
1	0.0089849246842337\\
2	0.00955586856755047\\
3	0.0102000386246561\\
4	0.0109303448856752\\
5	0.0117611964369887\\
6	0.0127063869488681\\
7	0.013771787577086\\
8	0.0149309370172528\\
9	0.0160361992437888\\
10	0.0164244433772478\\
11	0.0125495760932937\\
12	0.664036312008792\\
13	0.0850193487524877\\
14	0.131745330322907\\
15	0.128609472347745\\
16	0.0491456993245761\\
17	0.382620258465008\\
18	0.593903782219221\\
19	0.0828507132426594\\
20	0.0515719011856109\\
21	0.0378681896084267\\
22	0.030017391607479\\
23	0.0248946679351547\\
24	0.0212776230780299\\
25	0.0185834085331559\\
26	0.0164971010401923\\
27	0.0148330326444681\\
28	0.0134744221797144\\
29	0.0123440432735997\\
30	0.0113887411741417\\
31	0.0105707107326117\\
32	0.00986231811042315\\
33	0.00924289003134423\\
34	0.00869664894813821\\
35	0\\
36	0\\
37	0\\
38	0\\
39	0\\
40	0\\
41	0\\
42	0\\
43	0\\
44	0\\
45	0\\
46	0\\
47	0\\
48	0\\
49	0\\
50	0\\
51	0\\
52	0\\
53	0\\
54	0\\
55	0\\
56	0\\
57	0\\
58	0\\
59	0\\
60	0\\
61	0\\
62	0\\
63	0\\
64	0\\
65	0\\
66	0\\
67	0\\
68	0\\
69	0\\
70	0\\
71	0\\
72	0\\
73	0\\
74	0\\
75	0\\
76	0\\
77	0\\
78	0\\
79	0\\
80	0\\
81	0\\
82	0\\
83	0\\
84	0\\
85	0\\
86	0\\
87	0\\
88	0\\
89	0\\
90	0\\
91	0\\
92	0\\
93	0\\
94	0\\
95	0\\
96	0\\
97	0\\
98	0\\
99	0\\
100	0\\
};
\addlegendentry{data2}

\end{axis}

\begin{axis}[%
width=1.677in,
height=2.162in,
at={(4.722in,7.109in)},
scale only axis,
xmin=0,
xmax=100,
xlabel style={font=\color{white!15!black}, align=center},
xlabel={Sample Index\\[1ex]1},
ymin=0,
ymax=0.8,
ylabel style={font=\color{white!15!black}},
ylabel={Magnitude},
axis background/.style={fill=white},
legend style={legend cell align=left, align=left, draw=white!15!black}
]
\addplot [color=mycolor1]
  table[row sep=crcr]{%
1	0.0140965366765319\\
2	0.0157047907932036\\
3	0.016419225069997\\
4	0.0112248916602838\\
5	0.159562194845736\\
6	0.745193420081216\\
7	0.345249263428572\\
8	0.0578660467234888\\
9	0.116860541404952\\
10	0.18246816766665\\
11	0.327248448271267\\
12	0.10076188970414\\
13	0.0802520202489823\\
14	0.108807914296371\\
15	0.138187942472245\\
16	0.140736556835873\\
17	0.0652972876086686\\
18	0.0256329458600438\\
19	0.0571252147481218\\
20	0.0564456833542506\\
21	0.0238749790250404\\
22	0.0313673889825396\\
23	0.167651450177663\\
24	0.113277934854441\\
25	0.0162985139344127\\
26	0.00632014699004924\\
27	0.0718842879907069\\
28	0.00616198375699242\\
29	0.00129682743632851\\
30	0.00361567778513017\\
31	0.0114247834201035\\
32	0.0495351571301372\\
33	0.0826951598559227\\
34	0.0166314471769264\\
35	0.0113863021595388\\
36	0.00882587044650195\\
37	0.00725181042001847\\
38	0.00613051884988458\\
39	0.00512608652876103\\
40	0.00267842672918846\\
41	0.0520719137001606\\
42	0.0261418496600257\\
43	0.00905613704567416\\
44	0.00658996434796057\\
45	0.00577431752753177\\
46	0.00552598169922843\\
47	0.00570211740698132\\
48	0.006534491639271\\
49	0.009197870229328\\
50	0.0251934956467\\
51	0.0211540751186774\\
52	0.00736759368374559\\
53	0.00472614598165476\\
54	0.0036906948521846\\
55	0.00315988821754327\\
56	0.00283997628801661\\
57	0.00262393911078056\\
58	0.00246531019782579\\
59	0.00234135566768886\\
60	0.00223990275242594\\
61	0.00215394471513844\\
62	0.00207919858118083\\
63	0.00201290899784444\\
64	0.00195322335536297\\
65	0.00189884711291363\\
66	0.00184884459987839\\
67	0.00180251911174006\\
68	0.00175933809703858\\
69	0.00171888495976034\\
70	0.00168082710170432\\
71	0.00164489417348055\\
72	0.00161086291785987\\
73	0.00157854637578123\\
74	0.00154778604489886\\
75	0.00151844607793774\\
76	0.00149040891733691\\
77	0.00146357195919288\\
78	0.00143784496699612\\
79	0.00141314803992575\\
80	0.00138940999715728\\
81	0.00136656707840548\\
82	0.00134456188784083\\
83	0.00132334252748048\\
84	0.00130286187968941\\
85	0.00128307700821706\\
86	0.00126394865435638\\
87	0.00124544081011361\\
88	0.00122752035424299\\
89	0.0012101567399969\\
90	0.00119332172572801\\
91	0.00117698914124182\\
92	0.00116113468416328\\
93	0.00114573574165374\\
94	0.00113077123365802\\
95	0.00111622147453319\\
96	0.00110206805044997\\
97	0.00108829371038841\\
98	0.00107488226890407\\
99	0\\
100	0\\
};
\addlegendentry{data1}

\addplot [color=mycolor2]
  table[row sep=crcr]{%
1	0.0116665193322144\\
2	0.0125278731311778\\
3	0.0135314319176029\\
4	0.0147174000416195\\
5	0.0161437363897936\\
6	0.0178979925055877\\
7	0.020121004984186\\
8	0.0230605373958691\\
9	0.0272168063561658\\
10	0.0338706865691351\\
11	0.0484589297348426\\
12	0.661517641893539\\
13	0.0329708539017227\\
14	0.0900336629122209\\
15	0.142815536832816\\
16	0.0770905336463782\\
17	0.429062528940983\\
18	0.565355961166262\\
19	0.0871963098652998\\
20	0.0549175005639859\\
21	0.0406952265754117\\
22	0.0325134486759312\\
23	0.0271495974869702\\
24	0.0233431818126043\\
25	0.0204934627435155\\
26	0.0182757809282078\\
27	0.0164985430723523\\
28	0.0150410493974395\\
29	0.0138233182984384\\
30	0.0127901678530286\\
31	0.0119022496734436\\
32	0.0111307239262983\\
33	0.0104539552859532\\
34	0.00985538592203102\\
35	0\\
36	0\\
37	0\\
38	0\\
39	0\\
40	0\\
41	0\\
42	0\\
43	0\\
44	0\\
45	0\\
46	0\\
47	0\\
48	0\\
49	0\\
50	0\\
51	0\\
52	0\\
53	0\\
54	0\\
55	0\\
56	0\\
57	0\\
58	0\\
59	0\\
60	0\\
61	0\\
62	0\\
63	0\\
64	0\\
65	0\\
66	0\\
67	0\\
68	0\\
69	0\\
70	0\\
71	0\\
72	0\\
73	0\\
74	0\\
75	0\\
76	0\\
77	0\\
78	0\\
79	0\\
80	0\\
81	0\\
82	0\\
83	0\\
84	0\\
85	0\\
86	0\\
87	0\\
88	0\\
89	0\\
90	0\\
91	0\\
92	0\\
93	0\\
94	0\\
95	0\\
96	0\\
97	0\\
98	0\\
99	0\\
100	0\\
};
\addlegendentry{data2}

\end{axis}

\begin{axis}[%
width=1.677in,
height=2.162in,
at={(6.935in,7.109in)},
scale only axis,
xmin=0,
xmax=100,
xlabel style={font=\color{white!15!black}, align=center},
xlabel={Sample Index\\[1ex]2},
ymin=0,
ymax=0.7,
ylabel style={font=\color{white!15!black}},
ylabel={Magnitude},
axis background/.style={fill=white},
legend style={legend cell align=left, align=left, draw=white!15!black}
]
\addplot [color=mycolor1]
  table[row sep=crcr]{%
1	0.0106251055511962\\
2	0.0145620479459412\\
3	0.023056200041337\\
4	0.0515650690613872\\
5	0.179281035927992\\
6	0.410772790962272\\
7	0.566569138466872\\
8	0.0487149977613188\\
9	0.154934989789314\\
10	0.420554817103728\\
11	0.268073508586258\\
12	0.0441302206400846\\
13	0.0474523888695729\\
14	0.078561572664361\\
15	0.243080813367557\\
16	0.200874276368371\\
17	0.0808265361601574\\
18	0.104081706685069\\
19	0.123573332186016\\
20	0.0806281142557855\\
21	0.0372967057170238\\
22	0.0413901723449737\\
23	0.0863464700870477\\
24	0.0413876931748998\\
25	0.0323351210058805\\
26	0.0179692190717443\\
27	0.0844714678263927\\
28	0.0170223523611196\\
29	0.0152814698316937\\
30	0.0164168082830512\\
31	0.0213370782228323\\
32	0.0466136311523715\\
33	0.130871917098498\\
34	0.0391487438845719\\
35	0.0171358091425129\\
36	0.0114744539622075\\
37	0.0093095069293258\\
38	0.00878390275115178\\
39	0.00992261357447743\\
40	0.0164364447413189\\
41	0.0633988682156982\\
42	0.0301890970407785\\
43	0.00936862806548183\\
44	0.00585482130281767\\
45	0.00466492163840894\\
46	0.00435042092168356\\
47	0.00465383518415773\\
48	0.00579323556787633\\
49	0.00906052170960231\\
50	0.0272948480523102\\
51	0.0241790851654521\\
52	0.00842352715520092\\
53	0.00518935437747428\\
54	0.00381497683506048\\
55	0.00306085207060631\\
56	0.00258633344754619\\
57	0.00226060465219706\\
58	0.00202299360815069\\
59	0.00184166369628875\\
60	0.00169837441429697\\
61	0.00158195972621566\\
62	0.00148522003535551\\
63	0.00140331428845335\\
64	0.00133287234667771\\
65	0.00127147839748827\\
66	0.00121735680952155\\
67	0.00116917386251773\\
68	0.00112590855285807\\
69	0.00108676604151774\\
70	0.00105111823990253\\
71	0.00101846213486766\\
72	0.000988389987870787\\
73	0.000960567652815152\\
74	0.000934718551875734\\
75	0.00091061166313918\\
76	0.000888052397896101\\
77	0.000866875589425081\\
78	0.000846940045129431\\
79	0.000828124270330153\\
80	0.00081032308007002\\
81	0.000793444890993043\\
82	0.000777409539123714\\
83	0.000762146508009134\\
84	0.000747593479784615\\
85	0.000733695142374791\\
86	0.000720402201366097\\
87	0.000707670556577939\\
88	0.00069546061204065\\
89	0.00068373669470693\\
90	0.000672466562312861\\
91	0.000661620984737253\\
92	0.000651173386279024\\
93	0.000641099538679487\\
94	0.000631377296617684\\
95	0.000621986368917905\\
96	0.000612908119914582\\
97	0.000604125396391104\\
98	0.000595622376289155\\
99	0\\
100	0\\
};
\addlegendentry{data1}

\addplot [color=mycolor2]
  table[row sep=crcr]{%
1	0.0114821628524097\\
2	0.0123976424084396\\
3	0.0134718185505224\\
4	0.0147499364531817\\
5	0.0162963169156856\\
6	0.0182056924552049\\
7	0.0206239097655777\\
8	0.0237890084723602\\
9	0.0281238017359062\\
10	0.0345024095095377\\
11	0.0457497780440968\\
12	0.604339529031449\\
13	0.104389237934341\\
14	0.252711444640919\\
15	0.550209135720584\\
16	0.161196393609168\\
17	0.351976998448991\\
18	0.310381394000491\\
19	0.0331654256533357\\
20	0.0282543997558645\\
21	0.0240022158730859\\
22	0.0208106961660895\\
23	0.0183595337210788\\
24	0.0164228055411952\\
25	0.014855018626005\\
26	0.0135602169454741\\
27	0.0124729119959547\\
28	0.0115469649123258\\
29	0.0107489557323619\\
30	0.0100540911061956\\
31	0.00944359243081622\\
32	0.00890297735890196\\
33	0.00842089813054701\\
34	0.00798833727902398\\
35	0\\
36	0\\
37	0\\
38	0\\
39	0\\
40	0\\
41	0\\
42	0\\
43	0\\
44	0\\
45	0\\
46	0\\
47	0\\
48	0\\
49	0\\
50	0\\
51	0\\
52	0\\
53	0\\
54	0\\
55	0\\
56	0\\
57	0\\
58	0\\
59	0\\
60	0\\
61	0\\
62	0\\
63	0\\
64	0\\
65	0\\
66	0\\
67	0\\
68	0\\
69	0\\
70	0\\
71	0\\
72	0\\
73	0\\
74	0\\
75	0\\
76	0\\
77	0\\
78	0\\
79	0\\
80	0\\
81	0\\
82	0\\
83	0\\
84	0\\
85	0\\
86	0\\
87	0\\
88	0\\
89	0\\
90	0\\
91	0\\
92	0\\
93	0\\
94	0\\
95	0\\
96	0\\
97	0\\
98	0\\
99	0\\
100	0\\
};
\addlegendentry{data2}

\end{axis}

\begin{axis}[%
width=1.677in,
height=2.162in,
at={(9.148in,7.109in)},
scale only axis,
xmin=0,
xmax=100,
xlabel style={font=\color{white!15!black}, align=center},
xlabel={Sample Index\\[1ex]3},
ymin=0,
ymax=0.6,
ylabel style={font=\color{white!15!black}},
ylabel={Magnitude},
axis background/.style={fill=white},
legend style={legend cell align=left, align=left, draw=white!15!black}
]
\addplot [color=mycolor1]
  table[row sep=crcr]{%
1	0.0117863745781868\\
2	0.0152938484870147\\
3	0.0212678781920521\\
4	0.0311259647686496\\
5	0.237177914705919\\
6	0.479660794480372\\
7	0.546396379298521\\
8	0.122755202300948\\
9	0.147182644884983\\
10	0.41037275243979\\
11	0.126327081515952\\
12	0.0820990108073777\\
13	0.0291886770370472\\
14	0.0302660425980923\\
15	0.251074520112377\\
16	0.185946373044842\\
17	0.0845291201762473\\
18	0.090833414994814\\
19	0.0621955160158022\\
20	0.087407989117746\\
21	0.0514788290248365\\
22	0.0722948176286383\\
23	0.135121282129372\\
24	0.038498606758239\\
25	0.0471059884614302\\
26	0.0287167331241209\\
27	0.0628862726142555\\
28	0.00644228029684951\\
29	0.00457080973846429\\
30	0.004733478699979\\
31	0.0121616431942242\\
32	0.0548270915000057\\
33	0.092004293817374\\
34	0.0341872721885602\\
35	0.0225440140253598\\
36	0.0190617563545858\\
37	0.0181077708814633\\
38	0.0191012160291829\\
39	0.0234016859953958\\
40	0.0409892669892656\\
41	0.0614554717074773\\
42	0.0439534660835271\\
43	0.0166428273013697\\
44	0.0109531780147715\\
45	0.00883752730216629\\
46	0.00807322637455173\\
47	0.00812628710993781\\
48	0.00909135024863814\\
49	0.0121735603231627\\
50	0.0298528308492927\\
51	0.0203508244676617\\
52	0.00507347563850345\\
53	0.00199017172400365\\
54	0.000720277533540214\\
55	0.000113887896126056\\
56	0.000375966565268138\\
57	0.000627054812431531\\
58	0.000798137948344994\\
59	0.00091704385900399\\
60	0.00100096740184191\\
61	0.00106060729781806\\
62	0.00110289305947177\\
63	0.00113248179342318\\
64	0.00115260305541392\\
65	0.00116555630076663\\
66	0.00117301565941573\\
67	0.00117622333128491\\
68	0.00117611612170064\\
69	0.00117341047691721\\
70	0.00116866098921526\\
71	0.00116230149272721\\
72	0.00115467446713726\\
73	0.00114605242451405\\
74	0.00113665369611248\\
75	0.00112665424126222\\
76	0.00111619658739498\\
77	0.00110539667232881\\
78	0.00109434913324564\\
79	0.00108313143218758\\
80	0.00107180710080931\\
81	0.0010604283119047\\
82	0.00104903793169436\\
83	0.00103767116830357\\
84	0.0010263569037756\\
85	0.00101511877629641\\
86	0.00100397606394301\\
87	0.000992944409750006\\
88	0.00098203641917339\\
89	0.000971262154388845\\
90	0.00096062954475913\\
91	0.000950144728859732\\
92	0.000939812340376125\\
93	0.000929635747781484\\
94	0.000919617255803687\\
95	0.000909758275187045\\
96	0.000900059466056455\\
97	0.00089052085923065\\
98	0.000881141959060543\\
99	0\\
100	0\\
};
\addlegendentry{data1}

\addplot [color=mycolor2]
  table[row sep=crcr]{%
1	0.0172377355669111\\
2	0.0185481129261742\\
3	0.0200768910414959\\
4	0.0218845863107006\\
5	0.024056862802441\\
6	0.0267195382952211\\
7	0.030066341974783\\
8	0.0344152538249667\\
9	0.0403401315805459\\
10	0.0490654208134912\\
11	0.0645746868762179\\
12	0.580536858798175\\
13	0.112165367936174\\
14	0.266898308474283\\
15	0.497458812764903\\
16	0.100446156946783\\
17	0.351615560592516\\
18	0.405277790895178\\
19	0.0863252963041412\\
20	0.0607718734989712\\
21	0.0477118835126205\\
22	0.0395213982596737\\
23	0.0338296446060493\\
24	0.0296166254032837\\
25	0.0263603307063946\\
26	0.0237623517438351\\
27	0.0216383880953408\\
28	0.0198678910615002\\
29	0.0183684272311211\\
30	0.0170815867616131\\
31	0.0159647575441593\\
32	0.0149860848031593\\
33	0.0141212563697586\\
34	0.013351382123922\\
35	0\\
36	0\\
37	0\\
38	0\\
39	0\\
40	0\\
41	0\\
42	0\\
43	0\\
44	0\\
45	0\\
46	0\\
47	0\\
48	0\\
49	0\\
50	0\\
51	0\\
52	0\\
53	0\\
54	0\\
55	0\\
56	0\\
57	0\\
58	0\\
59	0\\
60	0\\
61	0\\
62	0\\
63	0\\
64	0\\
65	0\\
66	0\\
67	0\\
68	0\\
69	0\\
70	0\\
71	0\\
72	0\\
73	0\\
74	0\\
75	0\\
76	0\\
77	0\\
78	0\\
79	0\\
80	0\\
81	0\\
82	0\\
83	0\\
84	0\\
85	0\\
86	0\\
87	0\\
88	0\\
89	0\\
90	0\\
91	0\\
92	0\\
93	0\\
94	0\\
95	0\\
96	0\\
97	0\\
98	0\\
99	0\\
100	0\\
};
\addlegendentry{data2}

\end{axis}

\begin{axis}[%
width=1.677in,
height=2.162in,
at={(11.361in,7.109in)},
scale only axis,
xmin=0,
xmax=100,
xlabel style={font=\color{white!15!black}, align=center},
xlabel={Sample Index\\[1ex]4},
ymin=0,
ymax=0.8,
ylabel style={font=\color{white!15!black}},
ylabel={Magnitude},
axis background/.style={fill=white},
legend style={legend cell align=left, align=left, draw=white!15!black}
]
\addplot [color=mycolor1]
  table[row sep=crcr]{%
1	0.0298485030501482\\
2	0.036042247442984\\
3	0.046113459997781\\
4	0.0681624215321859\\
5	0.184118681574236\\
6	0.330125396057695\\
7	0.0956014530895668\\
8	0.0329244238791845\\
9	0.143140755633236\\
10	0.70757013451774\\
11	0.257325665251267\\
12	0.16406094612066\\
13	0.118404131056856\\
14	0.148324051310622\\
15	0.111839399899421\\
16	0.240544973309682\\
17	0.0706236555270721\\
18	0.170166751663988\\
19	0.075639175935159\\
20	0.117601118824067\\
21	0.0664880415494214\\
22	0.0594102812854989\\
23	0.145472400946006\\
24	0.0700375125766283\\
25	0.0153512272326887\\
26	0.00936316781639438\\
27	0.0862243154815218\\
28	0.0194660901562765\\
29	0.0166736335614302\\
30	0.0156678554971893\\
31	0.0155737761586457\\
32	0.0200845229766387\\
33	0.103320309235121\\
34	0.0286494249241411\\
35	0.0175066478332216\\
36	0.0159412535747475\\
37	0.0161841632944391\\
38	0.0177289745206235\\
39	0.0217372674846909\\
40	0.03613536491398\\
41	0.0548057064458737\\
42	0.0335900476566579\\
43	0.00908159298468663\\
44	0.00417820054270457\\
45	0.00283784704072037\\
46	0.00298926337999609\\
47	0.00372838561874865\\
48	0.00504415065631815\\
49	0.00814386742620438\\
50	0.0251082897141458\\
51	0.0233633594783313\\
52	0.00884903935990907\\
53	0.00605312022389129\\
54	0.00496265222455979\\
55	0.00441371083988428\\
56	0.00409197741959946\\
57	0.00388128178808267\\
58	0.00373061508810672\\
59	0.00361491769790365\\
60	0.00352084360477738\\
61	0.00344083373934372\\
62	0.00337039188825699\\
63	0.00330673391475685\\
64	0.00324807620133623\\
65	0.00319324180705359\\
66	0.00314143329637984\\
67	0.00309209705095964\\
68	0.00304483976589246\\
69	0.00299937571660476\\
70	0.00295549269947549\\
71	0.00291302959419671\\
72	0.00287186132139184\\
73	0.00283188859956937\\
74	0.00279303087179801\\
75	0.0027552213589118\\
76	0.00271840355962401\\
77	0.00268252874772572\\
78	0.00264755416433956\\
79	0.0026134416997846\\
80	0.00258015692364239\\
81	0.00254766836463185\\
82	0.00251594697115753\\
83	0.00248496570351009\\
84	0.00245469922267065\\
85	0.00242512365047337\\
86	0.00239621638280821\\
87	0.00236795594249137\\
88	0.00234032186198071\\
89	0.00231329458867989\\
90	0.00228685540744594\\
91	0.00226098637628238\\
92	0.00223567027220657\\
93	0.00221089054502537\\
94	0.0021866312773075\\
95	0.00216287714925331\\
96	0.00213961340747118\\
97	0.00211682583690507\\
98	0.00209450073533121\\
99	0\\
100	0\\
};
\addlegendentry{data1}

\addplot [color=mycolor2]
  table[row sep=crcr]{%
1	0.00972070481959802\\
2	0.0105048247617866\\
3	0.0114299910311871\\
4	0.0125392851101286\\
5	0.0138960417421809\\
6	0.0155979422123375\\
7	0.0178055227095509\\
8	0.0208071710345674\\
9	0.0251957735509155\\
10	0.0325073474611643\\
11	0.0492734611379319\\
12	0.783897684753746\\
13	0.0372550791935544\\
14	0.11971731313537\\
15	0.254038525632036\\
16	0.0540491028583386\\
17	0.019069598622714\\
18	0.538770480202283\\
19	0.0484314056962294\\
20	0.0317594655030886\\
21	0.0246033071710978\\
22	0.0203424042779666\\
23	0.0174359276844408\\
24	0.0152987746138866\\
25	0.013649700018946\\
26	0.0123332940763194\\
27	0.0112553905103128\\
28	0.0103550633296818\\
29	0.00959090349684546\\
30	0.00893366349178988\\
31	0.00836203593057654\\
32	0.0078600964791169\\
33	0.00741568561301612\\
34	0.00701934671329206\\
35	0\\
36	0\\
37	0\\
38	0\\
39	0\\
40	0\\
41	0\\
42	0\\
43	0\\
44	0\\
45	0\\
46	0\\
47	0\\
48	0\\
49	0\\
50	0\\
51	0\\
52	0\\
53	0\\
54	0\\
55	0\\
56	0\\
57	0\\
58	0\\
59	0\\
60	0\\
61	0\\
62	0\\
63	0\\
64	0\\
65	0\\
66	0\\
67	0\\
68	0\\
69	0\\
70	0\\
71	0\\
72	0\\
73	0\\
74	0\\
75	0\\
76	0\\
77	0\\
78	0\\
79	0\\
80	0\\
81	0\\
82	0\\
83	0\\
84	0\\
85	0\\
86	0\\
87	0\\
88	0\\
89	0\\
90	0\\
91	0\\
92	0\\
93	0\\
94	0\\
95	0\\
96	0\\
97	0\\
98	0\\
99	0\\
100	0\\
};
\addlegendentry{data2}

\end{axis}

\begin{axis}[%
width=1.677in,
height=2.162in,
at={(13.574in,7.109in)},
scale only axis,
xmin=0,
xmax=100,
xlabel style={font=\color{white!15!black}, align=center},
xlabel={Sample Index\\[1ex]5},
ymin=0,
ymax=0.8,
ylabel style={font=\color{white!15!black}},
ylabel={Magnitude},
axis background/.style={fill=white},
legend style={legend cell align=left, align=left, draw=white!15!black}
]
\addplot [color=mycolor1]
  table[row sep=crcr]{%
1	0.0209879459425878\\
2	0.0238839800905922\\
3	0.0268070807331561\\
4	0.0259253843508517\\
5	0.289228939659263\\
6	0.370145640029291\\
7	0.788555099411638\\
8	0.0943096274053657\\
9	0.106430798197857\\
10	0.100301321219433\\
11	0.0857151804234957\\
12	0.0596867712327147\\
13	0.0370812122394152\\
14	0.0527835021981206\\
15	0.0434418367655749\\
16	0.0990652151898726\\
17	0.0241443832223046\\
18	0.0899932532213624\\
19	0.13535954817861\\
20	0.0922165846911473\\
21	0.0452401997494544\\
22	0.0399185164419546\\
23	0.158991207740977\\
24	0.0998557517352334\\
25	0.0115444452168789\\
26	0.0175907983586345\\
27	0.052358376974661\\
28	0.010283398776399\\
29	0.01362087327913\\
30	0.0171406090900445\\
31	0.0246206505151159\\
32	0.0622602876291886\\
33	0.0833124220880336\\
34	0.0280654946990445\\
35	0.0131558639902246\\
36	0.00909869769640155\\
37	0.00789522123266429\\
38	0.00857337976538619\\
39	0.0120732300540374\\
40	0.0260138812176342\\
41	0.0470985710904307\\
42	0.0423429052957112\\
43	0.0186055045503361\\
44	0.0133244084091032\\
45	0.0110678528446687\\
46	0.00997928577301361\\
47	0.00961018072477897\\
48	0.010028231833982\\
49	0.0122410666904025\\
50	0.0270209650230767\\
51	0.0174852663061392\\
52	0.00536820452347319\\
53	0.00381532937508188\\
54	0.00349473507874093\\
55	0.00339946069525022\\
56	0.00334772656538948\\
57	0.00330201414783949\\
58	0.00325469700067631\\
59	0.00320498198125038\\
60	0.0031535594779011\\
61	0.00310127782308863\\
62	0.00304883762820038\\
63	0.00299675510996216\\
64	0.00294539077411651\\
65	0.00289498703602807\\
66	0.00284570043454931\\
67	0.00279762622973508\\
68	0.00275081638428224\\
69	0.00270529247679377\\
70	0.00266105491442132\\
71	0.00261808949583123\\
72	0.00257637209019826\\
73	0.00253587197780071\\
74	0.00249655423768531\\
75	0.00245838145434812\\
76	0.00242131493569815\\
77	0.00238531557879495\\
78	0.00235034448074373\\
79	0.00231636336460476\\
80	0.00228333487070539\\
81	0.00225122274988845\\
82	0.00221999198531702\\
83	0.00218960886231999\\
84	0.00216004100059168\\
85	0.00213125735929725\\
86	0.00210322822288082\\
87	0.00207592517334477\\
88	0.0020493210532748\\
89	0.00202338992277243\\
90	0.00199810701263009\\
91	0.00197344867546953\\
92	0.00194939233609848\\
93	0.00192591644199802\\
94	0.00190300041459142\\
95	0.00188062460175152\\
96	0.00185877023185641\\
97	0.00183741936959587\\
98	0.00181655487364774\\
99	0\\
100	0\\
};
\addlegendentry{data1}

\addplot [color=mycolor2]
  table[row sep=crcr]{%
1	0.00503014181397827\\
2	0.00541626101637576\\
3	0.00587105910543839\\
4	0.00641625778363244\\
5	0.00708463963906023\\
6	0.00792867449059429\\
7	0.00903920335241172\\
8	0.0105917100109511\\
9	0.0129848986929229\\
10	0.0173983844967709\\
11	0.0297123350443675\\
12	0.768557962495422\\
13	0.0339490748591115\\
14	0.0565457231406723\\
15	0.143633415449856\\
16	0.0696395255537848\\
17	0.226946167530284\\
18	0.567312669079766\\
19	0.0481627515529107\\
20	0.0274903095872738\\
21	0.0194387482303693\\
22	0.0151082309555552\\
23	0.0123910511414124\\
24	0.0105214980349015\\
25	0.00915338941357765\\
26	0.0081070668202907\\
27	0.00727987886919436\\
28	0.00660884025648531\\
29	0.00605311652286557\\
30	0.00558504720820847\\
31	0.00518521347740403\\
32	0.00483957117509383\\
33	0.00453770512779439\\
34	0.00427172381442514\\
35	0\\
36	0\\
37	0\\
38	0\\
39	0\\
40	0\\
41	0\\
42	0\\
43	0\\
44	0\\
45	0\\
46	0\\
47	0\\
48	0\\
49	0\\
50	0\\
51	0\\
52	0\\
53	0\\
54	0\\
55	0\\
56	0\\
57	0\\
58	0\\
59	0\\
60	0\\
61	0\\
62	0\\
63	0\\
64	0\\
65	0\\
66	0\\
67	0\\
68	0\\
69	0\\
70	0\\
71	0\\
72	0\\
73	0\\
74	0\\
75	0\\
76	0\\
77	0\\
78	0\\
79	0\\
80	0\\
81	0\\
82	0\\
83	0\\
84	0\\
85	0\\
86	0\\
87	0\\
88	0\\
89	0\\
90	0\\
91	0\\
92	0\\
93	0\\
94	0\\
95	0\\
96	0\\
97	0\\
98	0\\
99	0\\
100	0\\
};
\addlegendentry{data2}

\end{axis}

\begin{axis}[%
width=1.677in,
height=2.162in,
at={(15.787in,7.109in)},
scale only axis,
xmin=0,
xmax=100,
xlabel style={font=\color{white!15!black}, align=center},
xlabel={Sample Index\\[1ex]6},
ymin=0,
ymax=0.8,
ylabel style={font=\color{white!15!black}},
ylabel={Magnitude},
axis background/.style={fill=white},
legend style={legend cell align=left, align=left, draw=white!15!black}
]
\addplot [color=mycolor1]
  table[row sep=crcr]{%
1	0.0458889981925813\\
2	0.0576913657912115\\
3	0.0785078545365205\\
4	0.126992602277358\\
5	0.279375573869138\\
6	0.567222928788636\\
7	0.555179103683587\\
8	0.0269578033369254\\
9	0.135438066714106\\
10	0.337034991062002\\
11	0.175338372371813\\
12	0.104595145632575\\
13	0.0664852827230261\\
14	0.0615892656663186\\
15	0.0846236068382182\\
16	0.0131800767735205\\
17	0.0532034089024341\\
18	0.109119129058023\\
19	0.097804559991324\\
20	0.0164103724828905\\
21	0.0265233354516613\\
22	0.0378387021221075\\
23	0.148407247087403\\
24	0.0582483207862621\\
25	0.0206272731099057\\
26	0.0136842165102917\\
27	0.0617606532047313\\
28	0.000285935329822474\\
29	0.00332640985701304\\
30	0.0074974680709018\\
31	0.0163815782816523\\
32	0.0590763787531473\\
33	0.0494936030882978\\
34	0.0362676983022592\\
35	0.0217017926157989\\
36	0.0166509608001123\\
37	0.014116288587528\\
38	0.0128950955732319\\
39	0.0132803399858382\\
40	0.0205972754347797\\
41	0.0683774750100282\\
42	0.0308987655582442\\
43	0.0132008910870359\\
44	0.00987593885009984\\
45	0.00829579389582989\\
46	0.00721528399560816\\
47	0.00629962967418562\\
48	0.00547115963134813\\
49	0.00556717213995647\\
50	0.0192136880973372\\
51	0.0265944970203882\\
52	0.0129346739916541\\
53	0.0100610377560733\\
54	0.00875518119576918\\
55	0.00797134619164245\\
56	0.0074267286310508\\
57	0.00701334120205371\\
58	0.00668090570392452\\
59	0.0064027208879948\\
60	0.00616319948010147\\
61	0.00595256631996867\\
62	0.00576433634466689\\
63	0.00559400742645628\\
64	0.00543833502055716\\
65	0.00529490659657055\\
66	0.00516188008434195\\
67	0.00503781667011551\\
68	0.00492157023279661\\
69	0.00481221205447785\\
70	0.004708978213331\\
71	0.00461123197816393\\
72	0.00451843637544031\\
73	0.0044301338095502\\
74	0.00434593067247798\\
75	0.00426548554736137\\
76	0.0041885000436398\\
77	0.00411471158825743\\
78	0.00404388769089519\\
79	0.00397582133409695\\
80	0.00391032723189803\\
81	0.00384723876626102\\
82	0.00378640545780257\\
83	0.00372769086161073\\
84	0.0036709708042125\\
85	0.00361613189654758\\
86	0.00356307027194079\\
87	0.00351169050879785\\
88	0.00346190470597249\\
89	0.00341363168510845\\
90	0.00336679629921076\\
91	0.00332132883058528\\
92	0.00327716446436199\\
93	0.00323424282625935\\
94	0.00319250757520979\\
95	0.00315190604304482\\
96	0.0031123889147206\\
97	0.00307390994360685\\
98	0.00303642569722131\\
99	0\\
100	0\\
};
\addlegendentry{data1}

\addplot [color=mycolor2]
  table[row sep=crcr]{%
1	0.0064350298062439\\
2	0.00686523818985333\\
3	0.00735937250381164\\
4	0.00793398901075033\\
5	0.0086127539143157\\
6	0.0094315438676398\\
7	0.0104496322182792\\
8	0.0117786761726517\\
9	0.0136771427558338\\
10	0.0169792174988505\\
11	0.0265454121114905\\
12	0.714812658430008\\
13	0.0374492620830143\\
14	0.0312181572016463\\
15	0.0674770752291009\\
16	0.093519729234558\\
17	0.45691734936251\\
18	0.50424314496392\\
19	0.0643694808291521\\
20	0.0396971287926579\\
21	0.0287606232408529\\
22	0.0225489430008993\\
23	0.0185419357993433\\
24	0.0157429914228142\\
25	0.0136776399795113\\
26	0.0120910668328401\\
27	0.0108341813043086\\
28	0.00981394657519635\\
29	0.00896930671169307\\
30	0.0082585369000069\\
31	0.00765215653831305\\
32	0.00712874633816806\\
33	0.00667237009097212\\
34	0.00627092620095472\\
35	0\\
36	0\\
37	0\\
38	0\\
39	0\\
40	0\\
41	0\\
42	0\\
43	0\\
44	0\\
45	0\\
46	0\\
47	0\\
48	0\\
49	0\\
50	0\\
51	0\\
52	0\\
53	0\\
54	0\\
55	0\\
56	0\\
57	0\\
58	0\\
59	0\\
60	0\\
61	0\\
62	0\\
63	0\\
64	0\\
65	0\\
66	0\\
67	0\\
68	0\\
69	0\\
70	0\\
71	0\\
72	0\\
73	0\\
74	0\\
75	0\\
76	0\\
77	0\\
78	0\\
79	0\\
80	0\\
81	0\\
82	0\\
83	0\\
84	0\\
85	0\\
86	0\\
87	0\\
88	0\\
89	0\\
90	0\\
91	0\\
92	0\\
93	0\\
94	0\\
95	0\\
96	0\\
97	0\\
98	0\\
99	0\\
100	0\\
};
\addlegendentry{data2}

\end{axis}

\begin{axis}[%
width=1.677in,
height=2.162in,
at={(2.509in,4.106in)},
scale only axis,
xmin=0,
xmax=100,
xlabel style={font=\color{white!15!black}, align=center},
xlabel={Sample Index\\[1ex]7},
ymin=0,
ymax=0.7,
ylabel style={font=\color{white!15!black}},
ylabel={Magnitude},
axis background/.style={fill=white},
legend style={legend cell align=left, align=left, draw=white!15!black}
]
\addplot [color=mycolor1]
  table[row sep=crcr]{%
1	0.0206001937544699\\
2	0.024432243518919\\
3	0.0309663685464854\\
4	0.0489638788795378\\
5	0.200866571764196\\
6	0.641408196365429\\
7	0.495906180463432\\
8	0.0241313260484939\\
9	0.119558780294222\\
10	0.307969958847319\\
11	0.283811863276477\\
12	0.0350990899149249\\
13	0.0130738332743405\\
14	0.0250083933674094\\
15	0.124470234749203\\
16	0.0852980752381638\\
17	0.0209763775726266\\
18	0.0732458578905589\\
19	0.104560654853457\\
20	0.0855809371616841\\
21	0.0476100588547384\\
22	0.0483505510876622\\
23	0.08551182837984\\
24	0.123177212592454\\
25	0.0209929695824654\\
26	0.0220255341334392\\
27	0.0654542999021416\\
28	0.0178180743746164\\
29	0.019851316670567\\
30	0.0232235908472593\\
31	0.0310651708806831\\
32	0.0692203584215523\\
33	0.10231332118558\\
34	0.0341939328737048\\
35	0.0142954494460326\\
36	0.00953393708469409\\
37	0.0084389305818824\\
38	0.00908701263200428\\
39	0.011562264801126\\
40	0.0207038790427571\\
41	0.0668047281895617\\
42	0.0273386226444547\\
43	0.00694601089976978\\
44	0.00288203629831231\\
45	0.000992863360618656\\
46	0.000379776296587199\\
47	0.00153390919875867\\
48	0.00315710079886288\\
49	0.00656249107267517\\
50	0.0238346110648896\\
51	0.0241714467144876\\
52	0.00935399098389702\\
53	0.00628018631193214\\
54	0.00496599329980168\\
55	0.00424399854233517\\
56	0.00379050368409003\\
57	0.00347998911694892\\
58	0.00325376305981008\\
59	0.00308087301522418\\
60	0.00294356527904783\\
61	0.00283100416480909\\
62	0.00273625105518332\\
63	0.00265468868864032\\
64	0.00258314560685818\\
65	0.00251938433151085\\
66	0.00246178945056527\\
67	0.00240917079915334\\
68	0.00236063553521189\\
69	0.00231550284486839\\
70	0.00227324579065787\\
71	0.00223345087833711\\
72	0.00219578944726026\\
73	0.00215999710624177\\
74	0.00212585874073772\\
75	0.0020931974394444\\
76	0.00206186621801228\\
77	0.00203174176522891\\
78	0.0020027196692253\\
79	0.0019747107388044\\
80	0.00194763814343895\\
81	0.00192143517113647\\
82	0.00189604345678761\\
83	0.00187141157177134\\
84	0.00184749389312993\\
85	0.00182424969070401\\
86	0.00180164238538879\\
87	0.00177963894263352\\
88	0.00175820937350746\\
89	0.00173732632183848\\
90	0.00171696472062488\\
91	0.00169710150451117\\
92	0.00167771536788119\\
93	0.00165878656026033\\
94	0.00164029671238587\\
95	0.00162222868760746\\
96	0.00160456645431031\\
97	0.00158729497586422\\
98	0.00157040011524906\\
99	0\\
100	0\\
};
\addlegendentry{data1}

\addplot [color=mycolor2]
  table[row sep=crcr]{%
1	0.00492255476179309\\
2	0.00522608257545487\\
3	0.00556637577204422\\
4	0.0059488800713906\\
5	0.00637874284349317\\
6	0.00685858714190332\\
7	0.00738208610975229\\
8	0.00791470156833635\\
9	0.00833111515634773\\
10	0.00820771072055922\\
11	0.00821065187095902\\
12	0.675561566017177\\
13	0.0721703847996142\\
14	0.131958075216249\\
15	0.279959439545886\\
16	0.110463187631067\\
17	0.337529645178162\\
18	0.556516239180266\\
19	0.0575772498572442\\
20	0.0332767819970246\\
21	0.0235289234381002\\
22	0.0182327965698378\\
23	0.0148969590057302\\
24	0.0125995794983347\\
25	0.0109194490420947\\
26	0.00963645647524184\\
27	0.00862424375914283\\
28	0.00780503091576156\\
29	0.00712828591151245\\
30	0.00655973623620548\\
31	0.00607530649192755\\
32	0.00565758306476388\\
33	0.00529365584132801\\
34	0.00497374885614534\\
35	0\\
36	0\\
37	0\\
38	0\\
39	0\\
40	0\\
41	0\\
42	0\\
43	0\\
44	0\\
45	0\\
46	0\\
47	0\\
48	0\\
49	0\\
50	0\\
51	0\\
52	0\\
53	0\\
54	0\\
55	0\\
56	0\\
57	0\\
58	0\\
59	0\\
60	0\\
61	0\\
62	0\\
63	0\\
64	0\\
65	0\\
66	0\\
67	0\\
68	0\\
69	0\\
70	0\\
71	0\\
72	0\\
73	0\\
74	0\\
75	0\\
76	0\\
77	0\\
78	0\\
79	0\\
80	0\\
81	0\\
82	0\\
83	0\\
84	0\\
85	0\\
86	0\\
87	0\\
88	0\\
89	0\\
90	0\\
91	0\\
92	0\\
93	0\\
94	0\\
95	0\\
96	0\\
97	0\\
98	0\\
99	0\\
100	0\\
};
\addlegendentry{data2}

\end{axis}

\begin{axis}[%
width=1.677in,
height=2.162in,
at={(4.722in,4.106in)},
scale only axis,
xmin=0,
xmax=100,
xlabel style={font=\color{white!15!black}, align=center},
xlabel={Sample Index\\[1ex]8},
ymin=0,
ymax=0.7,
ylabel style={font=\color{white!15!black}},
ylabel={Magnitude},
axis background/.style={fill=white},
legend style={legend cell align=left, align=left, draw=white!15!black}
]
\addplot [color=mycolor1]
  table[row sep=crcr]{%
1	0.0410236093342769\\
2	0.0493096706320722\\
3	0.06325568649875\\
4	0.0948211503934182\\
5	0.217358853866359\\
6	0.373797385602756\\
7	0.182560393684494\\
8	0.0402617751436971\\
9	0.261619680134599\\
10	0.397557234749107\\
11	0.582281538443947\\
12	0.0800537920421301\\
13	0.0491238241586128\\
14	0.0920279650599723\\
15	0.162914747676425\\
16	0.0812222586087947\\
17	0.0404809267537726\\
18	0.160059142269166\\
19	0.108789503996473\\
20	0.095377150821205\\
21	0.0554993002646685\\
22	0.0510035391109873\\
23	0.12736229346184\\
24	0.0703994899382649\\
25	0.028753697683047\\
26	0.0306959965735963\\
27	0.063877051619127\\
28	0.019879369789228\\
29	0.0226131991462072\\
30	0.0256311120243357\\
31	0.0322834593942219\\
32	0.0612115559008571\\
33	0.15523229951972\\
34	0.0469925122736425\\
35	0.018563266755369\\
36	0.0108922068833694\\
37	0.00699975188889698\\
38	0.00369040076854802\\
39	0.00164508365293704\\
40	0.0203626583118503\\
41	0.162970324123955\\
42	0.00499822200289822\\
43	0.00897041015776362\\
44	0.00898123637027139\\
45	0.00827061588740153\\
46	0.00745389175208128\\
47	0.00656700816917303\\
48	0.0056484548207371\\
49	0.0059272712693604\\
50	0.0232120494197887\\
51	0.0325237685525061\\
52	0.0157173260397736\\
53	0.012172304439471\\
54	0.01056880217957\\
55	0.00961339494233224\\
56	0.00895458125076351\\
57	0.00845782203798777\\
58	0.00806046406309931\\
59	0.00772928652700844\\
60	0.00744495423594332\\
61	0.00719539102229941\\
62	0.00697262428472746\\
63	0.00677114911007496\\
64	0.00658702094390821\\
65	0.00641732385172418\\
66	0.00625984427059455\\
67	0.00611286291418083\\
68	0.00597501754180844\\
69	0.00584520980108572\\
70	0.00572254036214757\\
71	0.00560626272438598\\
72	0.00549574965419067\\
73	0.00539046835680924\\
74	0.00528996180817083\\
75	0.00519383450944143\\
76	0.00510174146895481\\
77	0.00501337957438672\\
78	0.00492848075939521\\
79	0.00484680653440907\\
80	0.00476814356649669\\
81	0.0046923000747088\\
82	0.00461910286566112\\
83	0.0045483948764699\\
84	0.00448003312324778\\
85	0.00441388697643986\\
86	0.00434983670158324\\
87	0.00428777221717052\\
88	0.00422759203130342\\
89	0.00416920232652919\\
90	0.00411251616823919\\
91	0.00405745281668988\\
92	0.00400393712640054\\
93	0.00395189901960617\\
94	0.00390127302278577\\
95	0.00385199785716295\\
96	0.00380401607559426\\
97	0.00375727373949711\\
98	0.00371172013047348\\
99	0\\
100	0\\
};
\addlegendentry{data1}

\addplot [color=mycolor2]
  table[row sep=crcr]{%
1	0.0141971434149239\\
2	0.0153341632268519\\
3	0.0166720056037636\\
4	0.0182701031057558\\
5	0.0202145479897667\\
6	0.0226355053787984\\
7	0.0257410917003696\\
8	0.0298907891403208\\
9	0.0357822205395235\\
10	0.0450725424111839\\
11	0.0639685559112165\\
12	0.683415393312679\\
13	0.0763492390043846\\
14	0.221809864603556\\
15	0.470215719017621\\
16	0.109426944053896\\
17	0.0478662328217477\\
18	0.470632336587414\\
19	0.0586245924469963\\
20	0.0415847647809463\\
21	0.0333344223627311\\
22	0.0280821523979572\\
23	0.0243516322500642\\
24	0.0215352345265742\\
25	0.0193219745915368\\
26	0.0175316336531607\\
27	0.0160509818949429\\
28	0.0148046778591453\\
29	0.0137403750287369\\
30	0.0128204444361753\\
31	0.0120170784025297\\
32	0.0113092488003675\\
33	0.0106807408316385\\
34	0.0101188394129427\\
35	0\\
36	0\\
37	0\\
38	0\\
39	0\\
40	0\\
41	0\\
42	0\\
43	0\\
44	0\\
45	0\\
46	0\\
47	0\\
48	0\\
49	0\\
50	0\\
51	0\\
52	0\\
53	0\\
54	0\\
55	0\\
56	0\\
57	0\\
58	0\\
59	0\\
60	0\\
61	0\\
62	0\\
63	0\\
64	0\\
65	0\\
66	0\\
67	0\\
68	0\\
69	0\\
70	0\\
71	0\\
72	0\\
73	0\\
74	0\\
75	0\\
76	0\\
77	0\\
78	0\\
79	0\\
80	0\\
81	0\\
82	0\\
83	0\\
84	0\\
85	0\\
86	0\\
87	0\\
88	0\\
89	0\\
90	0\\
91	0\\
92	0\\
93	0\\
94	0\\
95	0\\
96	0\\
97	0\\
98	0\\
99	0\\
100	0\\
};
\addlegendentry{data2}

\end{axis}

\begin{axis}[%
width=1.677in,
height=2.162in,
at={(6.935in,4.106in)},
scale only axis,
xmin=0,
xmax=100,
xlabel style={font=\color{white!15!black}, align=center},
xlabel={Sample Index\\[1ex]9},
ymin=0,
ymax=0.8,
ylabel style={font=\color{white!15!black}},
ylabel={Magnitude},
axis background/.style={fill=white},
legend style={legend cell align=left, align=left, draw=white!15!black}
]
\addplot [color=mycolor1]
  table[row sep=crcr]{%
1	0.0617362025431649\\
2	0.0780836805616688\\
3	0.106617097150519\\
4	0.172776314548592\\
5	0.250897682153839\\
6	0.098856957379033\\
7	0.729406751755634\\
8	0.195765203716605\\
9	0.0926282907211353\\
10	0.290627279536066\\
11	0.287941988713042\\
12	0.0544052195033082\\
13	0.0516684238472385\\
14	0.043702726064407\\
15	0.194438074279053\\
16	0.103912402911556\\
17	0.0373556007976564\\
18	0.0826452378042319\\
19	0.0587228268705676\\
20	0.0248879091246701\\
21	0.0107804731834684\\
22	0.0394050712675061\\
23	0.13083422319195\\
24	0.171356829419772\\
25	0.0499680145627686\\
26	0.0360992594776384\\
27	0.0428100198109715\\
28	0.0203622327005949\\
29	0.0183245387760285\\
30	0.0166192530238009\\
31	0.0154323796778954\\
32	0.0166269041864863\\
33	0.0244554757879323\\
34	0.0130389955630226\\
35	0.0107839505407809\\
36	0.00961289435450412\\
37	0.00844898332584271\\
38	0.00700303928728466\\
39	0.00470944891065453\\
40	0.00123968634070568\\
41	0.0241764279992194\\
42	0.0335585511246252\\
43	0.017645253698027\\
44	0.0142840085588452\\
45	0.0127577849084554\\
46	0.0119181742259439\\
47	0.0115012267500463\\
48	0.0115579113998572\\
49	0.0127698846682041\\
50	0.0231943348596265\\
51	0.014882163171352\\
52	0.00780027278190454\\
53	0.00722866731128612\\
54	0.00704108335084784\\
55	0.00689793227863186\\
56	0.00676043860998998\\
57	0.00662422661032449\\
58	0.00648985831066634\\
59	0.0063583146349623\\
60	0.0062302985497824\\
61	0.0061062137002302\\
62	0.00598624516442695\\
63	0.00587043391862515\\
64	0.00575873024389125\\
65	0.00565102939807767\\
66	0.00554719484202869\\
67	0.00544707320092641\\
68	0.00535050383432483\\
69	0.00525732490332703\\
70	0.00516737715905778\\
71	0.00508050624496951\\
72	0.004996564028154\\
73	0.00491540929657052\\
74	0.00483690804393218\\
75	0.0047609334890394\\
76	0.00468736592717032\\
77	0.00461609247861165\\
78	0.00454700677773898\\
79	0.00448000863151891\\
80	0.00441500366650142\\
81	0.00435190297673284\\
82	0.00429062278051516\\
83	0.00423108409087752\\
84	0.00417321240255439\\
85	0.00411693739686727\\
86	0.00406219266497488\\
87	0.00400891544934503\\
88	0.00395704640290909\\
89	0.00390652936512061\\
90	0.00385731115400303\\
91	0.00380934137320623\\
92	0.00376257223307429\\
93	0.00371695838473858\\
94	0.00367245676628592\\
95	0.00362902646009485\\
96	0.00358662856048689\\
97	0.00354522605089459\\
98	0.003504783689804\\
99	0\\
100	0\\
};
\addlegendentry{data1}

\addplot [color=mycolor2]
  table[row sep=crcr]{%
1	0.0112946267706926\\
2	0.0121581903440154\\
3	0.0131687197474434\\
4	0.0143686876970517\\
5	0.0158195112047617\\
6	0.0176141386134459\\
7	0.0199020605959072\\
8	0.0229453757907654\\
9	0.0272692025744498\\
10	0.0342041478951444\\
11	0.0494073551693348\\
12	0.74601298916153\\
13	0.0526985096031264\\
14	0.129109296204826\\
15	0.218621603541736\\
16	0.0209733606326276\\
17	0.179686837188134\\
18	0.570654056010192\\
19	0.0694740128801503\\
20	0.0448493502040433\\
21	0.0339983439152911\\
22	0.0276283881428892\\
23	0.0233667592229992\\
24	0.0202892116291908\\
25	0.0179512494779561\\
26	0.0161094882532263\\
27	0.014618298461888\\
28	0.0133847072226487\\
29	0.0123463409031448\\
30	0.0114596785966366\\
31	0.0106933688817287\\
32	0.0100242204413692\\
33	0.00943468988313732\\
34	0.00891124936974418\\
35	0\\
36	0\\
37	0\\
38	0\\
39	0\\
40	0\\
41	0\\
42	0\\
43	0\\
44	0\\
45	0\\
46	0\\
47	0\\
48	0\\
49	0\\
50	0\\
51	0\\
52	0\\
53	0\\
54	0\\
55	0\\
56	0\\
57	0\\
58	0\\
59	0\\
60	0\\
61	0\\
62	0\\
63	0\\
64	0\\
65	0\\
66	0\\
67	0\\
68	0\\
69	0\\
70	0\\
71	0\\
72	0\\
73	0\\
74	0\\
75	0\\
76	0\\
77	0\\
78	0\\
79	0\\
80	0\\
81	0\\
82	0\\
83	0\\
84	0\\
85	0\\
86	0\\
87	0\\
88	0\\
89	0\\
90	0\\
91	0\\
92	0\\
93	0\\
94	0\\
95	0\\
96	0\\
97	0\\
98	0\\
99	0\\
100	0\\
};
\addlegendentry{data2}

\end{axis}

\begin{axis}[%
width=1.677in,
height=2.162in,
at={(9.148in,4.106in)},
scale only axis,
xmin=0,
xmax=100,
xlabel style={font=\color{white!15!black}, align=center},
xlabel={Sample Index\\[1ex]10},
ymin=0,
ymax=0.7,
ylabel style={font=\color{white!15!black}},
ylabel={Magnitude},
axis background/.style={fill=white},
legend style={legend cell align=left, align=left, draw=white!15!black}
]
\addplot [color=mycolor1]
  table[row sep=crcr]{%
1	0.0499333576975404\\
2	0.0613151786897947\\
3	0.0809211469993126\\
4	0.127271955622263\\
5	0.08385264043002\\
6	0.092277055211443\\
7	0.627362147435731\\
8	0.144306083787922\\
9	0.0749530270843479\\
10	0.363958046811816\\
11	0.298121110529378\\
12	0.0317991776813546\\
13	0.0285250733198951\\
14	0.0794863131943892\\
15	0.223016478729191\\
16	0.231260244683617\\
17	0.0875758101460562\\
18	0.129907173979379\\
19	0.166294955809127\\
20	0.104938798005109\\
21	0.0258694805565265\\
22	0.0235718566787777\\
23	0.150311139672148\\
24	0.210743011291565\\
25	0.0698635464431153\\
26	0.0541590310017127\\
27	0.11057113754111\\
28	0.0469193664229896\\
29	0.0446060838596829\\
30	0.0460307974263882\\
31	0.0543062464571221\\
32	0.105116536670343\\
33	0.0577262530452533\\
34	0.0285788351336696\\
35	0.0153325100649128\\
36	0.0149987155507821\\
37	0.016461399151287\\
38	0.0189431498063478\\
39	0.0240998218493065\\
40	0.0436387259816725\\
41	0.136857192817371\\
42	0.027731322847572\\
43	0.00635410187687044\\
44	0.00364683828568218\\
45	0.00359394756686383\\
46	0.00384570010037361\\
47	0.0040482836840669\\
48	0.00450711619420386\\
49	0.00697971461606218\\
50	0.0267170290921221\\
51	0.0323459816816728\\
52	0.0146992063794006\\
53	0.0111492111218586\\
54	0.00963926012109549\\
55	0.00879163802307032\\
56	0.00823564279629334\\
57	0.00783196315966184\\
58	0.00751732784581078\\
59	0.00725919158834427\\
60	0.00703925363800447\\
61	0.0068465031001261\\
62	0.00667395002313427\\
63	0.00651695712527599\\
64	0.00637233119415671\\
65	0.00623780140091994\\
66	0.00611170635234391\\
67	0.00599279928046287\\
68	0.00588012285821541\\
69	0.00577292650174637\\
70	0.00567061039313989\\
71	0.00557268675918643\\
72	0.00547875255881192\\
73	0.00538846987320039\\
74	0.00530155159575956\\
75	0.00521775083177741\\
76	0.00513685293579268\\
77	0.0050586694517367\\
78	0.00498303344414769\\
79	0.00490979585910135\\
80	0.00483882265629826\\
81	0.00476999252503679\\
82	0.00470319504688226\\
83	0.00463832920345001\\
84	0.00457530215333285\\
85	0.0045140282208126\\
86	0.00445442805265568\\
87	0.00439642790941708\\
88	0.00433995906523905\\
89	0.00428495729583584\\
90	0.00423136243868759\\
91	0.00417911801278489\\
92	0.00412817088782198\\
93	0.00407847099472539\\
94	0.00402997107095737\\
95	0.003982626435254\\
96	0.00393639478742964\\
97	0.00389123602964647\\
98	0.00384711210616748\\
99	0\\
100	0\\
};
\addlegendentry{data1}

\addplot [color=mycolor2]
  table[row sep=crcr]{%
1	0.00798458886924431\\
2	0.00861993464859532\\
3	0.00936484747765914\\
4	0.010250220139244\\
5	0.0113197032519571\\
6	0.012637026453074\\
7	0.014299054059906\\
8	0.0164608933561266\\
9	0.0193907575657116\\
10	0.0236325911767955\\
11	0.0312535229744447\\
12	0.635627628495339\\
13	0.0906996309127744\\
14	0.208499399000922\\
15	0.465387501071516\\
16	0.147056413803172\\
17	0.299870218976614\\
18	0.457976800925098\\
19	0.0369144346443817\\
20	0.0235058435095977\\
21	0.0182951163256717\\
22	0.0152925125730259\\
23	0.0132460552496486\\
24	0.0117264137979946\\
25	0.0105392906887653\\
26	0.00958022498999659\\
27	0.00878640464723227\\
28	0.0081170724986624\\
29	0.00754430429744225\\
30	0.00704817475748924\\
31	0.00661401012768442\\
32	0.00623072656795529\\
33	0.0058897749475673\\
34	0.00558444394797541\\
35	0\\
36	0\\
37	0\\
38	0\\
39	0\\
40	0\\
41	0\\
42	0\\
43	0\\
44	0\\
45	0\\
46	0\\
47	0\\
48	0\\
49	0\\
50	0\\
51	0\\
52	0\\
53	0\\
54	0\\
55	0\\
56	0\\
57	0\\
58	0\\
59	0\\
60	0\\
61	0\\
62	0\\
63	0\\
64	0\\
65	0\\
66	0\\
67	0\\
68	0\\
69	0\\
70	0\\
71	0\\
72	0\\
73	0\\
74	0\\
75	0\\
76	0\\
77	0\\
78	0\\
79	0\\
80	0\\
81	0\\
82	0\\
83	0\\
84	0\\
85	0\\
86	0\\
87	0\\
88	0\\
89	0\\
90	0\\
91	0\\
92	0\\
93	0\\
94	0\\
95	0\\
96	0\\
97	0\\
98	0\\
99	0\\
100	0\\
};
\addlegendentry{data2}

\end{axis}

\begin{axis}[%
width=1.677in,
height=2.162in,
at={(11.361in,4.106in)},
scale only axis,
xmin=0,
xmax=100,
xlabel style={font=\color{white!15!black}, align=center},
xlabel={Sample Index\\[1ex]11},
ymin=0,
ymax=0.7,
ylabel style={font=\color{white!15!black}},
ylabel={Magnitude},
axis background/.style={fill=white},
legend style={legend cell align=left, align=left, draw=white!15!black}
]
\addplot [color=mycolor1]
  table[row sep=crcr]{%
1	0.0583677673254921\\
2	0.0741169796949294\\
3	0.102133563306773\\
4	0.167804629680842\\
5	0.350447446105639\\
6	0.44683715283646\\
7	0.100010223243626\\
8	0.150043678363512\\
9	0.293219396865531\\
10	0.298412973067595\\
11	0.251287945792895\\
12	0.0448329682006864\\
13	0.0298084002911878\\
14	0.0803002010240054\\
15	0.0901862907492476\\
16	0.0828077717476099\\
17	0.0814411106225271\\
18	0.144506475713745\\
19	0.240809818055108\\
20	0.113404518606845\\
21	0.0523362498820979\\
22	0.0465431828906618\\
23	0.328823791932489\\
24	0.177961856649626\\
25	0.0435498587591733\\
26	0.0362209628502647\\
27	0.0955170109055715\\
28	0.0114974376813443\\
29	0.0163579159806709\\
30	0.0226601053423386\\
31	0.0383849362942998\\
32	0.116913868632476\\
33	0.11731458487966\\
34	0.0825270175127532\\
35	0.0469697423031971\\
36	0.0364418478320003\\
37	0.0323745104165296\\
38	0.03215267414357\\
39	0.037331268478999\\
40	0.0637967646234806\\
41	0.146695057908705\\
42	0.0590420854249416\\
43	0.0218999842734672\\
44	0.0141585570566205\\
45	0.0107336069239616\\
46	0.00860344191169431\\
47	0.00690187177261998\\
48	0.00554058344209642\\
49	0.00728412198820057\\
50	0.0341187674119641\\
51	0.0450441395329802\\
52	0.0206788369105321\\
53	0.0154830193379737\\
54	0.013134543554194\\
55	0.0117463545113094\\
56	0.010800359820891\\
57	0.0100966456938118\\
58	0.00954154514548758\\
59	0.00908517697582859\\
60	0.008698427525882\\
61	0.00836308587834871\\
62	0.00806712453135568\\
63	0.00780224324028585\\
64	0.00756250238418015\\
65	0.00734352001673955\\
66	0.00714197824868807\\
67	0.00695530793860385\\
68	0.00678148054676358\\
69	0.00661886674777699\\
70	0.00646613795122602\\
71	0.00632219616824391\\
72	0.006186123065326\\
73	0.00605714229129991\\
74	0.00593459116750535\\
75	0.00581789910083758\\
76	0.00570657090210382\\
77	0.00560017373649333\\
78	0.00549832679993375\\
79	0.00540069306677786\\
80	0.00530697262961058\\
81	0.00521689727593716\\
82	0.00513022603532718\\
83	0.00504674149504377\\
84	0.00496624672949073\\
85	0.00488856272391326\\
86	0.00481352619911058\\
87	0.00474098776383194\\
88	0.00467081033673778\\
89	0.00460286779152956\\
90	0.00453704378793414\\
91	0.004473230758356\\
92	0.00441132902560213\\
93	0.00435124603153853\\
94	0.00429289566008069\\
95	0.00423619764077237\\
96	0.00418107702150906\\
97	0.00412746370083258\\
98	0.00407529201175079\\
99	0\\
100	0\\
};
\addlegendentry{data1}

\addplot [color=mycolor2]
  table[row sep=crcr]{%
1	0.017195540599241\\
2	0.0184963207980226\\
3	0.0200096003354881\\
4	0.0217917243930374\\
5	0.0239205610358473\\
6	0.026506469309991\\
7	0.029710074571699\\
8	0.0337706829661139\\
9	0.0390448378208122\\
10	0.0459927096574764\\
11	0.0542446625575994\\
12	0.43237777965794\\
13	0.153152890502795\\
14	0.34275951389211\\
15	0.660450656351358\\
16	0.14052605694511\\
17	0.0982408567276138\\
18	0.421253060893144\\
19	0.0772616256389828\\
20	0.0555756284669158\\
21	0.0444495233621464\\
22	0.037289759447829\\
23	0.0322042964846238\\
24	0.0283763953427606\\
25	0.0253795692672942\\
26	0.0229646547450128\\
27	0.0209747137511703\\
28	0.019305349250488\\
29	0.0178841462729612\\
30	0.0166591707496029\\
31	0.0155921447499537\\
32	0.0146542020408451\\
33	0.0138231449375015\\
34	0.0130816134454506\\
35	0\\
36	0\\
37	0\\
38	0\\
39	0\\
40	0\\
41	0\\
42	0\\
43	0\\
44	0\\
45	0\\
46	0\\
47	0\\
48	0\\
49	0\\
50	0\\
51	0\\
52	0\\
53	0\\
54	0\\
55	0\\
56	0\\
57	0\\
58	0\\
59	0\\
60	0\\
61	0\\
62	0\\
63	0\\
64	0\\
65	0\\
66	0\\
67	0\\
68	0\\
69	0\\
70	0\\
71	0\\
72	0\\
73	0\\
74	0\\
75	0\\
76	0\\
77	0\\
78	0\\
79	0\\
80	0\\
81	0\\
82	0\\
83	0\\
84	0\\
85	0\\
86	0\\
87	0\\
88	0\\
89	0\\
90	0\\
91	0\\
92	0\\
93	0\\
94	0\\
95	0\\
96	0\\
97	0\\
98	0\\
99	0\\
100	0\\
};
\addlegendentry{data2}

\end{axis}

\begin{axis}[%
width=1.677in,
height=2.162in,
at={(13.574in,4.106in)},
scale only axis,
xmin=0,
xmax=100,
xlabel style={font=\color{white!15!black}, align=center},
xlabel={Sample Index\\[1ex]12},
ymin=0,
ymax=0.7,
ylabel style={font=\color{white!15!black}},
ylabel={Magnitude},
axis background/.style={fill=white},
legend style={legend cell align=left, align=left, draw=white!15!black}
]
\addplot [color=mycolor1]
  table[row sep=crcr]{%
1	0.0122491273072667\\
2	0.0160540504672793\\
3	0.0256454057294457\\
4	0.062736544995232\\
5	0.272054066754953\\
6	0.268176776709667\\
7	0.476809520379604\\
8	0.0756852432347368\\
9	0.166929857904786\\
10	0.104431838943611\\
11	0.527593830175765\\
12	0.0843414194801947\\
13	0.0421575883028093\\
14	0.00315657761512555\\
15	0.288330458539633\\
16	0.156028670567049\\
17	0.0954420507020861\\
18	0.152994134686225\\
19	0.0472808101637746\\
20	0.0585948318348254\\
21	0.0146238892129812\\
22	0.0206402660577708\\
23	0.242971484129303\\
24	0.0749843655078884\\
25	0.0185708342108207\\
26	0.0140096375192605\\
27	0.089272296434053\\
28	0.00972307675733048\\
29	0.00693328965934308\\
30	0.00669016430071546\\
31	0.0112130774327475\\
32	0.0520693178327086\\
33	0.222137909843193\\
34	0.0340460723544615\\
35	0.0142960281759909\\
36	0.0104252520498637\\
37	0.00974731222732587\\
38	0.0113908784232698\\
39	0.0169859926963829\\
40	0.0380253954137221\\
41	0.0846888541414065\\
42	0.0568020392004473\\
43	0.0244295489531109\\
44	0.0168617142847951\\
45	0.0133624268248173\\
46	0.0113916754101973\\
47	0.0102924270234359\\
48	0.0100935406463134\\
49	0.012142889478509\\
50	0.031443267590681\\
51	0.0297745331812724\\
52	0.0123459234169329\\
53	0.00901460878645595\\
54	0.00760677046111244\\
55	0.00679589347730926\\
56	0.0062440190466637\\
57	0.00582927285000092\\
58	0.00549748854010459\\
59	0.00522086186566658\\
60	0.0049835211933732\\
61	0.00477563826825896\\
62	0.00459072560837544\\
63	0.00442427685298728\\
64	0.00427302993592181\\
65	0.00413454245742987\\
66	0.00400693399329794\\
67	0.00388872268104479\\
68	0.00377871760188149\\
69	0.00367594555158858\\
70	0.00357959977129862\\
71	0.00348900314545829\\
72	0.00340358119733379\\
73	0.00332284188439992\\
74	0.00324636021761891\\
75	0.00317376637068119\\
76	0.0031047363591543\\
77	0.00303898464248012\\
78	0.00297625818562914\\
79	0.00291633164345481\\
80	0.00285900341899021\\
81	0.00280409240953773\\
82	0.00275143529952633\\
83	0.00270088429206104\\
84	0.0026523051954671\\
85	0.00260557579937475\\
86	0.00256058448869228\\
87	0.00251722905435936\\
88	0.00247541566791454\\
89	0.00243505799323631\\
90	0.00239607641379084\\
91	0.00235839735764393\\
92	0.00232195270562581\\
93	0.00228667927054493\\
94	0.00225251833737112\\
95	0.0022194152559536\\
96	0.00218731907917846\\
97	0.00215618224057515\\
98	0.00212596026628836\\
99	0\\
100	0\\
};
\addlegendentry{data1}

\addplot [color=mycolor2]
  table[row sep=crcr]{%
1	0.0100640530663183\\
2	0.0109137017684937\\
3	0.0119168392112434\\
4	0.0131183596595244\\
5	0.0145822312317729\\
6	0.0164026416505839\\
7	0.0187238388917693\\
8	0.0217775897756571\\
9	0.0259592954717503\\
10	0.0320005766642906\\
11	0.0415551140233772\\
12	0.435483971914311\\
13	0.111647964863623\\
14	0.28379249048986\\
15	0.661471125043854\\
16	0.209541053389162\\
17	0.357753893293942\\
18	0.31841483034864\\
19	0.00748175953021245\\
20	0.0100838911014189\\
21	0.0115998141286133\\
22	0.0115853560411888\\
23	0.0110872823430803\\
24	0.0104552798109492\\
25	0.00981340588840603\\
26	0.00920618668426504\\
27	0.00864774780431565\\
28	0.00814012743505737\\
29	0.00768062643720761\\
30	0.00726489523062203\\
31	0.00688825039624087\\
32	0.00654622210826517\\
33	0.00623475862346344\\
34	0.00595027734105399\\
35	0\\
36	0\\
37	0\\
38	0\\
39	0\\
40	0\\
41	0\\
42	0\\
43	0\\
44	0\\
45	0\\
46	0\\
47	0\\
48	0\\
49	0\\
50	0\\
51	0\\
52	0\\
53	0\\
54	0\\
55	0\\
56	0\\
57	0\\
58	0\\
59	0\\
60	0\\
61	0\\
62	0\\
63	0\\
64	0\\
65	0\\
66	0\\
67	0\\
68	0\\
69	0\\
70	0\\
71	0\\
72	0\\
73	0\\
74	0\\
75	0\\
76	0\\
77	0\\
78	0\\
79	0\\
80	0\\
81	0\\
82	0\\
83	0\\
84	0\\
85	0\\
86	0\\
87	0\\
88	0\\
89	0\\
90	0\\
91	0\\
92	0\\
93	0\\
94	0\\
95	0\\
96	0\\
97	0\\
98	0\\
99	0\\
100	0\\
};
\addlegendentry{data2}

\end{axis}

\begin{axis}[%
width=1.677in,
height=2.162in,
at={(15.787in,4.106in)},
scale only axis,
xmin=0,
xmax=100,
xlabel style={font=\color{white!15!black}, align=center},
xlabel={Sample Index\\[1ex]13},
ymin=0,
ymax=0.7,
ylabel style={font=\color{white!15!black}},
ylabel={Magnitude},
axis background/.style={fill=white},
legend style={legend cell align=left, align=left, draw=white!15!black}
]
\addplot [color=mycolor1]
  table[row sep=crcr]{%
1	0.00906461047231236\\
2	0.0112042212875124\\
3	0.015912080608211\\
4	0.03444875745269\\
5	0.246465533921572\\
6	0.63618826892331\\
7	0.422829325128552\\
8	0.0566711623233828\\
9	0.130113586539815\\
10	0.355609708504815\\
11	0.236327296666287\\
12	0.0776113341061504\\
13	0.0579985299358701\\
14	0.0736170270896908\\
15	0.172974374017807\\
16	0.116456214544887\\
17	0.0107054534910148\\
18	0.18493234889382\\
19	0.0302981825728753\\
20	0.0362195541855832\\
21	0.021893433436979\\
22	0.0130090318022107\\
23	0.0320118354123385\\
24	0.125034144541532\\
25	0.00885074253795178\\
26	0.000975569591412131\\
27	0.0843910806602404\\
28	0.00836744125501237\\
29	0.00739796087179717\\
30	0.0114282043285145\\
31	0.0213358247068672\\
32	0.0633513493740934\\
33	0.0568591527220257\\
34	0.0490678158967533\\
35	0.0246427377449576\\
36	0.016523645574068\\
37	0.0121652392270419\\
38	0.00977915026358621\\
39	0.0111618330408218\\
40	0.0286967901610915\\
41	0.115907104156618\\
42	0.0480112568486851\\
43	0.0237719302659143\\
44	0.0181571773415479\\
45	0.0155914195439201\\
46	0.0142820860052278\\
47	0.0138165357195326\\
48	0.0143418836827298\\
49	0.0171621131406119\\
50	0.0358245395157214\\
51	0.0198074649252685\\
52	0.00477182872766102\\
53	0.00356855049091908\\
54	0.00369461812331221\\
55	0.00383742819674012\\
56	0.00390274549725389\\
57	0.00391078806626631\\
58	0.00388278788938877\\
59	0.00383286962931326\\
60	0.00376990796976373\\
61	0.00369948066917263\\
62	0.00362513407228014\\
63	0.00354914844313042\\
64	0.00347300024230987\\
65	0.00339764597947454\\
66	0.00332370016967741\\
67	0.00325154924328232\\
68	0.0031814258765779\\
69	0.00311345833645273\\
70	0.0030477037335987\\
71	0.00298417072155039\\
72	0.00292283515849149\\
73	0.0028636510072632\\
74	0.00280655797091977\\
75	0.00275148686447846\\
76	0.00269836340100639\\
77	0.00264711085747578\\
78	0.00259765194350152\\
79	0.00254991009958629\\
80	0.00250381038528474\\
81	0.00245928007176244\\
82	0.00241624902102398\\
83	0.00237464991130906\\
84	0.00233441835191069\\
85	0.00229549291898801\\
86	0.00225781513549827\\
87	0.00222132941221693\\
88	0.00218598296230815\\
89	0.00215172569859788\\
90	0.00211851012024879\\
91	0.00208629119372763\\
92	0.0020550262316054\\
93	0.00202467477173006\\
94	0.001995198458565\\
95	0.00196656092792961\\
96	0.00193872769596733\\
97	0.00191166605285993\\
98	0.00188534496157991\\
99	0\\
100	0\\
};
\addlegendentry{data1}

\addplot [color=mycolor2]
  table[row sep=crcr]{%
1	0.0116233306891914\\
2	0.0124791562967851\\
3	0.0134680026409234\\
4	0.0146220343912083\\
5	0.0159835842600474\\
6	0.0176082091873594\\
7	0.0195664322261772\\
8	0.0219354897682264\\
9	0.0247376691335509\\
10	0.0275598263534884\\
11	0.0261946477459633\\
12	0.657704806636718\\
13	0.1346072934031\\
14	0.276216556458556\\
15	0.515647179390666\\
16	0.104571931642645\\
17	0.0716960040779606\\
18	0.424198694324837\\
19	0.043157643592245\\
20	0.0348035197375144\\
21	0.0289266221164717\\
22	0.0247092850098756\\
23	0.0215551518912572\\
24	0.0191113327810914\\
25	0.0171633860554183\\
26	0.0155747498792596\\
27	0.0142546174086164\\
28	0.0131403365469276\\
29	0.012187310572468\\
30	0.0113629418488472\\
31	0.0106428553735597\\
32	0.010008462287609\\
33	0.00944534046112977\\
34	0.00894212973720792\\
35	0\\
36	0\\
37	0\\
38	0\\
39	0\\
40	0\\
41	0\\
42	0\\
43	0\\
44	0\\
45	0\\
46	0\\
47	0\\
48	0\\
49	0\\
50	0\\
51	0\\
52	0\\
53	0\\
54	0\\
55	0\\
56	0\\
57	0\\
58	0\\
59	0\\
60	0\\
61	0\\
62	0\\
63	0\\
64	0\\
65	0\\
66	0\\
67	0\\
68	0\\
69	0\\
70	0\\
71	0\\
72	0\\
73	0\\
74	0\\
75	0\\
76	0\\
77	0\\
78	0\\
79	0\\
80	0\\
81	0\\
82	0\\
83	0\\
84	0\\
85	0\\
86	0\\
87	0\\
88	0\\
89	0\\
90	0\\
91	0\\
92	0\\
93	0\\
94	0\\
95	0\\
96	0\\
97	0\\
98	0\\
99	0\\
100	0\\
};
\addlegendentry{data2}

\end{axis}

\begin{axis}[%
width=1.677in,
height=2.162in,
at={(2.509in,1.103in)},
scale only axis,
xmin=0,
xmax=100,
xlabel style={font=\color{white!15!black}, align=center},
xlabel={Sample Index\\[1ex]14},
ymin=0,
ymax=0.7,
ylabel style={font=\color{white!15!black}},
ylabel={Magnitude},
axis background/.style={fill=white},
legend style={legend cell align=left, align=left, draw=white!15!black}
]
\addplot [color=mycolor1]
  table[row sep=crcr]{%
1	0.038738356250065\\
2	0.0490027364730104\\
3	0.0672838890664203\\
4	0.111476137851937\\
5	0.209427982306633\\
6	0.21308519954525\\
7	0.340257744691381\\
8	0.0912896292583629\\
9	0.284473062122882\\
10	0.556699185195175\\
11	0.314860960991938\\
12	0.0944712948625479\\
13	0.0446174499081936\\
14	0.0238207701177637\\
15	0.0888750073151646\\
16	0.205586237514827\\
17	0.0823652712718936\\
18	0.30475988709771\\
19	0.244279314159249\\
20	0.056199471607887\\
21	0.0130256422329028\\
22	0.0273824290269694\\
23	0.0480396184776541\\
24	0.162986900786578\\
25	0.0152892598797476\\
26	0.016335170101275\\
27	0.0834416042733974\\
28	0.00256704163969672\\
29	0.00656135026076903\\
30	0.00932716783120605\\
31	0.0141226380168522\\
32	0.0385757832883971\\
33	0.0637128141631226\\
34	0.015568466040149\\
35	0.0082333846530944\\
36	0.00652646554860529\\
37	0.00620318368204479\\
38	0.00680974385388662\\
39	0.00901221139683748\\
40	0.0172647857093337\\
41	0.0462254835828577\\
42	0.045144145881701\\
43	0.017666556895539\\
44	0.012610976057047\\
45	0.0107314367046586\\
46	0.0100376498883185\\
47	0.0101321732516441\\
48	0.0112322365933798\\
49	0.0148621385358206\\
50	0.0364818466998298\\
51	0.0261456136122206\\
52	0.0077693588298849\\
53	0.00459263117066983\\
54	0.00362424848983742\\
55	0.00328138642583722\\
56	0.00314311384056951\\
57	0.00307592294083143\\
58	0.00303403375994271\\
59	0.00300080364067381\\
60	0.00296999132819757\\
61	0.00293929879202418\\
62	0.00290798202571894\\
63	0.00287591403818103\\
64	0.00284320186517765\\
65	0.00281002685203709\\
66	0.00277657869158329\\
67	0.00274302985769369\\
68	0.00270952756066105\\
69	0.00267619314057508\\
70	0.00264312438761211\\
71	0.00261039877660866\\
72	0.00257807674458635\\
73	0.00254620466479772\\
74	0.00251481740997762\\
75	0.0024839405024987\\
76	0.00245359189116738\\
77	0.00242378340728916\\
78	0.00239452195257698\\
79	0.00236581046623376\\
80	0.002337648711711\\
81	0.0023100339168709\\
82	0.00228296129520328\\
83	0.0022564244705676\\
84	0.00223041582363192\\
85	0.00220492677467874\\
86	0.00217994801460536\\
87	0.0021554696936714\\
88	0.00213148157571082\\
89	0.00210797316405998\\
90	0.00208493380427458\\
91	0.00206235276776272\\
92	0.00204021931969953\\
93	0.00201852277397522\\
94	0.00199725253743138\\
95	0.00197639814523975\\
96	0.00195594928894744\\
97	0.00193589583845132\\
98	0.00191622785894021\\
99	0\\
100	0\\
};
\addlegendentry{data1}

\addplot [color=mycolor2]
  table[row sep=crcr]{%
1	0.00983271561650527\\
2	0.0106190421544501\\
3	0.0115395934550238\\
4	0.0126309755801859\\
5	0.0139438185472434\\
6	0.0155495782623102\\
7	0.0175507154980872\\
8	0.0200936797049969\\
9	0.023370202963582\\
10	0.0274807157158266\\
11	0.0306949982471624\\
12	0.386667178657415\\
13	0.121923370402322\\
14	0.288022490500424\\
15	0.650558257070402\\
16	0.206811615623258\\
17	0.405860959411448\\
18	0.338327383813887\\
19	0.0347730052513642\\
20	0.023444831453655\\
21	0.0191338350073652\\
22	0.0165167700672229\\
23	0.0146225065114499\\
24	0.0131458791550258\\
25	0.0119492618376305\\
26	0.0109554007032415\\
27	0.0101151352824762\\
28	0.00939477590946856\\
29	0.00877011530643261\\
30	0.00822317553262405\\
31	0.00774026927310299\\
32	0.00731076782508737\\
33	0.00692628122868433\\
34	0.00658009342636755\\
35	0\\
36	0\\
37	0\\
38	0\\
39	0\\
40	0\\
41	0\\
42	0\\
43	0\\
44	0\\
45	0\\
46	0\\
47	0\\
48	0\\
49	0\\
50	0\\
51	0\\
52	0\\
53	0\\
54	0\\
55	0\\
56	0\\
57	0\\
58	0\\
59	0\\
60	0\\
61	0\\
62	0\\
63	0\\
64	0\\
65	0\\
66	0\\
67	0\\
68	0\\
69	0\\
70	0\\
71	0\\
72	0\\
73	0\\
74	0\\
75	0\\
76	0\\
77	0\\
78	0\\
79	0\\
80	0\\
81	0\\
82	0\\
83	0\\
84	0\\
85	0\\
86	0\\
87	0\\
88	0\\
89	0\\
90	0\\
91	0\\
92	0\\
93	0\\
94	0\\
95	0\\
96	0\\
97	0\\
98	0\\
99	0\\
100	0\\
};
\addlegendentry{data2}

\end{axis}

\begin{axis}[%
width=1.677in,
height=2.162in,
at={(4.722in,1.103in)},
scale only axis,
xmin=0,
xmax=100,
xlabel style={font=\color{white!15!black}, align=center},
xlabel={Sample Index\\[1ex]15},
ymin=0,
ymax=0.6,
ylabel style={font=\color{white!15!black}},
ylabel={Magnitude},
axis background/.style={fill=white},
legend style={legend cell align=left, align=left, draw=white!15!black}
]
\addplot [color=mycolor1]
  table[row sep=crcr]{%
1	0.0257772379056076\\
2	0.0342142582753577\\
3	0.0488731052505868\\
4	0.077438308356815\\
5	0.334828500932416\\
6	0.441587399074979\\
7	0.257667215369524\\
8	0.17353674008519\\
9	0.0181457164471462\\
10	0.466425362326325\\
11	0.483938318938496\\
12	0.0413857576456681\\
13	0.0432645463509037\\
14	0.107445119023157\\
15	0.159743132294513\\
16	0.115854486467547\\
17	0.0151274944252584\\
18	0.0802865660988932\\
19	0.0156434634059376\\
20	0.0949917256740646\\
21	0.0656555049502299\\
22	0.0964035102241019\\
23	0.116650593761582\\
24	0.090761271613346\\
25	0.0574339878983278\\
26	0.0299545729657754\\
27	0.096738412875493\\
28	0.0229104247843084\\
29	0.0157295801374228\\
30	0.0104278283996455\\
31	0.00468361107471376\\
32	0.0274726656530667\\
33	0.0752997863665062\\
34	0.0226367461709555\\
35	0.0165862900672791\\
36	0.0139399725887643\\
37	0.0123145127756839\\
38	0.0112212603475588\\
39	0.0105294965245803\\
40	0.0104533822081677\\
41	0.0551946015061464\\
42	0.0289931556430426\\
43	0.0111888296191247\\
44	0.00887427592030924\\
45	0.00810802349717742\\
46	0.00783376926305693\\
47	0.0079357748809864\\
48	0.00866239179795211\\
49	0.0112550296787392\\
50	0.0281546442915675\\
51	0.0227563173313181\\
52	0.00835811683765177\\
53	0.00588976033762981\\
54	0.00500361406299264\\
55	0.00455943250033161\\
56	0.00428162013767263\\
57	0.00407996169493565\\
58	0.00391879725870898\\
59	0.00378195490558231\\
60	0.00366126174789901\\
61	0.00355219853579424\\
62	0.00345206481462003\\
63	0.00335913300481029\\
64	0.00327222918161592\\
65	0.00319051225701592\\
66	0.00311335137870722\\
67	0.00304025462459491\\
68	0.00297082576322345\\
69	0.00290473701442814\\
70	0.00284171127388951\\
71	0.00278151012605988\\
72	0.00272392550821667\\
73	0.00266877374452442\\
74	0.00261589116045903\\
75	0.0025651307781521\\
76	0.00251635976905103\\
77	0.00246945744940699\\
78	0.00242431367333171\\
79	0.00238082752301729\\
80	0.00233890622534102\\
81	0.00229846424402445\\
82	0.00225942251018249\\
83	0.00222170776362273\\
84	0.00218525198400497\\
85	0.00214999189582763\\
86	0.00211586853475537\\
87	0.002082826865436\\
88	0.0020508154429299\\
89	0.00201978611138473\\
90	0.00198969373474938\\
91	0.00196049595523012\\
92	0.0019321529759095\\
93	0.0019046273645207\\
94	0.00187788387583327\\
95	0.00185188929048049\\
96	0.00182661226837027\\
97	0.00180202321507535\\
98	0.00177809415981216\\
99	0\\
100	0\\
};
\addlegendentry{data1}

\addplot [color=mycolor2]
  table[row sep=crcr]{%
1	0.0185308513602857\\
2	0.0198944234602092\\
3	0.0214743900182898\\
4	0.0233263167136267\\
5	0.0255261698022343\\
6	0.0281801093145384\\
7	0.0314396181387824\\
8	0.0355233019863566\\
9	0.0407360111533792\\
10	0.0473796348489991\\
11	0.0542783289807536\\
12	0.406815262855476\\
13	0.155289136096848\\
14	0.33247340232774\\
15	0.59143072558682\\
16	0.102475445006038\\
17	0.285422091940406\\
18	0.468189712599329\\
19	0.0996598959363846\\
20	0.0689964577601492\\
21	0.053852993941484\\
22	0.0444590585494628\\
23	0.0379662434965152\\
24	0.033176960313328\\
25	0.029484831059458\\
26	0.0265452790186073\\
27	0.0241463071834039\\
28	0.022149636191408\\
29	0.0204609150549032\\
30	0.0190134118112389\\
31	0.0177585205530579\\
32	0.0166599574951784\\
33	0.0156900659650173\\
34	0.014827382779402\\
35	0\\
36	0\\
37	0\\
38	0\\
39	0\\
40	0\\
41	0\\
42	0\\
43	0\\
44	0\\
45	0\\
46	0\\
47	0\\
48	0\\
49	0\\
50	0\\
51	0\\
52	0\\
53	0\\
54	0\\
55	0\\
56	0\\
57	0\\
58	0\\
59	0\\
60	0\\
61	0\\
62	0\\
63	0\\
64	0\\
65	0\\
66	0\\
67	0\\
68	0\\
69	0\\
70	0\\
71	0\\
72	0\\
73	0\\
74	0\\
75	0\\
76	0\\
77	0\\
78	0\\
79	0\\
80	0\\
81	0\\
82	0\\
83	0\\
84	0\\
85	0\\
86	0\\
87	0\\
88	0\\
89	0\\
90	0\\
91	0\\
92	0\\
93	0\\
94	0\\
95	0\\
96	0\\
97	0\\
98	0\\
99	0\\
100	0\\
};
\addlegendentry{data2}

\end{axis}

\begin{axis}[%
width=1.677in,
height=2.162in,
at={(6.935in,1.103in)},
scale only axis,
xmin=0,
xmax=100,
xlabel style={font=\color{white!15!black}, align=center},
xlabel={Sample Index\\[1ex]16},
ymin=0,
ymax=0.6,
ylabel style={font=\color{white!15!black}},
ylabel={Magnitude},
axis background/.style={fill=white},
legend style={legend cell align=left, align=left, draw=white!15!black}
]
\addplot [color=mycolor1]
  table[row sep=crcr]{%
1	0.0274733332135776\\
2	0.0379595569008817\\
3	0.0577107600074378\\
4	0.110670013641153\\
5	0.17294158313808\\
6	0.309778022788754\\
7	0.517147547919653\\
8	0.188744409410341\\
9	0.178808517780809\\
10	0.368794114734324\\
11	0.396409806610496\\
12	0.038099229205087\\
13	0.0291735268414065\\
14	0.109671853364738\\
15	0.0686944816362172\\
16	0.170071983931623\\
17	0.055993395546756\\
18	0.14076034574926\\
19	0.0812006552884785\\
20	0.0281916500986334\\
21	0.0421371127835183\\
22	0.0715621775710678\\
23	0.227276437849779\\
24	0.190410206630526\\
25	0.0311526090280459\\
26	0.0197135732745596\\
27	0.104234442034576\\
28	0.0118151599888381\\
29	0.00871590679934895\\
30	0.00855781794001065\\
31	0.0117019385750683\\
32	0.0368889157913767\\
33	0.139392954478644\\
34	0.0223484108030835\\
35	0.00836236575649506\\
36	0.00631408408770332\\
37	0.00734169461505394\\
38	0.0103517336965791\\
39	0.016742203551556\\
40	0.0379719648805595\\
41	0.111490842689264\\
42	0.0525061276551039\\
43	0.019655871359088\\
44	0.0120790186848975\\
45	0.00830897206125129\\
46	0.00583510353689316\\
47	0.00400501218534043\\
48	0.00341492806955048\\
49	0.00722143277927577\\
50	0.0322028832879672\\
51	0.0370961014190801\\
52	0.0153469024030271\\
53	0.0106048049677024\\
54	0.00842861695187108\\
55	0.0071337922026892\\
56	0.00625267042709457\\
57	0.00560245702899205\\
58	0.0050962677058294\\
59	0.00468711718392839\\
60	0.00434714519334382\\
61	0.00405864932174192\\
62	0.00380976051967653\\
63	0.00359217230742098\\
64	0.00339986495153952\\
65	0.00322834802665104\\
66	0.00307418964233081\\
67	0.0029347122917967\\
68	0.00280778973261316\\
69	0.00269170739824476\\
70	0.00258506404228459\\
71	0.00248670089584628\\
72	0.00239564963900793\\
73	0.00231109352128599\\
74	0.00223233785300777\\
75	0.00215878729334821\\
76	0.00208992814685385\\
77	0.00202531440434389\\
78	0.00196455662017432\\
79	0.00190731296404556\\
80	0.00185328195847297\\
81	0.00180219653630689\\
82	0.00175381914174612\\
83	0.00170793766343728\\
84	0.00166436203646324\\
85	0.00162292138609136\\
86	0.00158346161340162\\
87	0.00154584334370023\\
88	0.00150994017461694\\
89	0.00147563717318995\\
90	0.00144282958094326\\
91	0.0014114216935994\\
92	0.00138132588812762\\
93	0.00135246177466196\\
94	0.00132475545470541\\
95	0.00129813887017202\\
96	0.00127254923036391\\
97	0.00124792850606012\\
98	0.00122422298159928\\
99	0\\
100	0\\
};
\addlegendentry{data1}

\addplot [color=mycolor2]
  table[row sep=crcr]{%
1	0.00945911446389728\\
2	0.0102053133705797\\
3	0.0110800193159645\\
4	0.0121197495833311\\
5	0.013376404736822\\
6	0.0149264220409998\\
7	0.0168875242760107\\
8	0.0194521018687506\\
9	0.0229633565027286\\
10	0.0281427698661523\\
11	0.0375141850677729\\
12	0.589412956714636\\
13	0.0908884854124965\\
14	0.21829819830404\\
15	0.496331282091037\\
16	0.167072925468815\\
17	0.452967577816716\\
18	0.328841783405465\\
19	0.0410332728037687\\
20	0.029168503957129\\
21	0.0230832865371311\\
22	0.0192836657685242\\
23	0.0166354725380029\\
24	0.0146624992334424\\
25	0.0131259324557762\\
26	0.0118906932870619\\
27	0.0108736409298006\\
28	0.0100203389059257\\
29	0.00929343029952993\\
30	0.00866631540552779\\
31	0.00811948149065063\\
32	0.00763825816128015\\
33	0.00721138498215505\\
34	0.00683006456823808\\
35	0\\
36	0\\
37	0\\
38	0\\
39	0\\
40	0\\
41	0\\
42	0\\
43	0\\
44	0\\
45	0\\
46	0\\
47	0\\
48	0\\
49	0\\
50	0\\
51	0\\
52	0\\
53	0\\
54	0\\
55	0\\
56	0\\
57	0\\
58	0\\
59	0\\
60	0\\
61	0\\
62	0\\
63	0\\
64	0\\
65	0\\
66	0\\
67	0\\
68	0\\
69	0\\
70	0\\
71	0\\
72	0\\
73	0\\
74	0\\
75	0\\
76	0\\
77	0\\
78	0\\
79	0\\
80	0\\
81	0\\
82	0\\
83	0\\
84	0\\
85	0\\
86	0\\
87	0\\
88	0\\
89	0\\
90	0\\
91	0\\
92	0\\
93	0\\
94	0\\
95	0\\
96	0\\
97	0\\
98	0\\
99	0\\
100	0\\
};
\addlegendentry{data2}

\end{axis}

\begin{axis}[%
width=1.677in,
height=2.162in,
at={(9.148in,1.103in)},
scale only axis,
xmin=0,
xmax=100,
xlabel style={font=\color{white!15!black}, align=center},
xlabel={Sample Index\\[1ex]17},
ymin=0,
ymax=0.6,
ylabel style={font=\color{white!15!black}},
ylabel={Magnitude},
axis background/.style={fill=white},
legend style={legend cell align=left, align=left, draw=white!15!black}
]
\addplot [color=mycolor1]
  table[row sep=crcr]{%
1	0.0642132303021718\\
2	0.0795810936271962\\
3	0.105325125695539\\
4	0.16046632510206\\
5	0.305928689649245\\
6	0.516375214138866\\
7	0.48896446170118\\
8	0.173544239496097\\
9	0.274338771973486\\
10	0.0806806224350677\\
11	0.279329917632215\\
12	0.0275319284004587\\
13	0.0347229342578465\\
14	0.0604283527909284\\
15	0.0723043519307684\\
16	0.223873250193607\\
17	0.0601162979758963\\
18	0.0064153227085959\\
19	0.147900560169677\\
20	0.0553804084371792\\
21	0.0184362924807958\\
22	0.0404607058492991\\
23	0.0708071670058345\\
24	0.172985458057998\\
25	0.0527700798954876\\
26	0.0356291168048047\\
27	0.11491935932182\\
28	0.0369314976304095\\
29	0.0321074828223057\\
30	0.030064630054482\\
31	0.0299508426114514\\
32	0.0376460862750886\\
33	0.0670293089340487\\
34	0.0206681841920454\\
35	0.0193282761246391\\
36	0.0198842507153865\\
37	0.0207272601024576\\
38	0.0222495190303312\\
39	0.025555359512609\\
40	0.0363481471281201\\
41	0.0381817809629448\\
42	0.0290476218436884\\
43	0.00384428649812976\\
44	0.00489205033981386\\
45	0.00702951367853526\\
46	0.00856634473168719\\
47	0.0100036796005882\\
48	0.011916512135946\\
49	0.0158581513760957\\
50	0.0357679815691123\\
51	0.0198549321693427\\
52	0.00343915499481156\\
53	0.00245354749621757\\
54	0.0033386777763668\\
55	0.00396658609192786\\
56	0.00436866137747016\\
57	0.00463010799688494\\
58	0.00480178431430694\\
59	0.00491354743322428\\
60	0.00498375490906908\\
61	0.00502424590761166\\
62	0.00504297696812369\\
63	0.00504548208053615\\
64	0.00503572138211159\\
65	0.00501659658702768\\
66	0.0049902763102005\\
67	0.00495840840667657\\
68	0.00492226267365511\\
69	0.00488282923122252\\
70	0.00484088788271542\\
71	0.00479705798962218\\
72	0.00475183496731915\\
73	0.00470561740907124\\
74	0.00465872752678643\\
75	0.0046114267483165\\
76	0.00456392775313768\\
77	0.00451640385419901\\
78	0.00446899637845977\\
79	0.00442182052157122\\
80	0.00437497002748764\\
81	0.00432852095478913\\
82	0.00428253472715579\\
83	0.00423706061836198\\
84	0.00419213778734766\\
85	0.00414779695292213\\
86	0.0041040617780428\\
87	0.0040609500186938\\
88	0.00401847448094733\\
89	0.00397664382094476\\
90	0.00393546321564995\\
91	0.003894934926832\\
92	0.00385505877647456\\
93	0.0038158325484364\\
94	0.00377725232848783\\
95	0.00373931279268886\\
96	0.00370200745233108\\
97	0.00366532886225105\\
98	0.00362926879817811\\
99	0\\
100	0\\
};
\addlegendentry{data1}

\addplot [color=mycolor2]
  table[row sep=crcr]{%
1	0.0148636901986741\\
2	0.0159711963995977\\
3	0.0172576298598921\\
4	0.0187701559049043\\
5	0.0205739887981569\\
6	0.0227617361475922\\
7	0.0254688502745873\\
8	0.0288994922985749\\
9	0.0333674122194385\\
10	0.0393311068960339\\
11	0.047077991419718\\
12	0.454628979828906\\
13	0.126023433791551\\
14	0.280673853948037\\
15	0.548974990894167\\
16	0.142997993465127\\
17	0.371173379311626\\
18	0.461589650480522\\
19	0.0831178823731449\\
20	0.0558599664379921\\
21	0.0431257027105912\\
22	0.0354274623085929\\
23	0.0301781188681134\\
24	0.0263357604355551\\
25	0.0233873969118903\\
26	0.0210469092502033\\
27	0.0191405020568881\\
28	0.0175558280260559\\
29	0.01621672419978\\
30	0.0150695775487601\\
31	0.014075475794949\\
32	0.0132054492230568\\
33	0.0124374616091756\\
34	0.0117544388377792\\
35	0\\
36	0\\
37	0\\
38	0\\
39	0\\
40	0\\
41	0\\
42	0\\
43	0\\
44	0\\
45	0\\
46	0\\
47	0\\
48	0\\
49	0\\
50	0\\
51	0\\
52	0\\
53	0\\
54	0\\
55	0\\
56	0\\
57	0\\
58	0\\
59	0\\
60	0\\
61	0\\
62	0\\
63	0\\
64	0\\
65	0\\
66	0\\
67	0\\
68	0\\
69	0\\
70	0\\
71	0\\
72	0\\
73	0\\
74	0\\
75	0\\
76	0\\
77	0\\
78	0\\
79	0\\
80	0\\
81	0\\
82	0\\
83	0\\
84	0\\
85	0\\
86	0\\
87	0\\
88	0\\
89	0\\
90	0\\
91	0\\
92	0\\
93	0\\
94	0\\
95	0\\
96	0\\
97	0\\
98	0\\
99	0\\
100	0\\
};
\addlegendentry{data2}

\end{axis}

\begin{axis}[%
width=1.677in,
height=2.162in,
at={(11.361in,1.103in)},
scale only axis,
xmin=0,
xmax=100,
xlabel style={font=\color{white!15!black}, align=center},
xlabel={Sample Index\\[1ex]18},
ymin=0,
ymax=0.7,
ylabel style={font=\color{white!15!black}},
ylabel={Magnitude},
axis background/.style={fill=white},
legend style={legend cell align=left, align=left, draw=white!15!black}
]
\addplot [color=mycolor1]
  table[row sep=crcr]{%
1	0.0145059298109373\\
2	0.0194058546391597\\
3	0.0278110834610674\\
4	0.0421632444284734\\
5	0.278424288661215\\
6	0.37005437030015\\
7	0.309284786720059\\
8	0.114158263780367\\
9	0.129460689384424\\
10	0.538245779880785\\
11	0.339121345690766\\
12	0.0391015054852408\\
13	0.017401084434009\\
14	0.0245824566207291\\
15	0.221796939390217\\
16	0.277042148124878\\
17	0.0715219306886531\\
18	0.108496140837682\\
19	0.140497981294501\\
20	0.127930480026415\\
21	0.0692582744447764\\
22	0.0809244146166105\\
23	0.10146681296821\\
24	0.149632019092294\\
25	0.0320095593687436\\
26	0.0212509999082276\\
27	0.0678495829959603\\
28	0.000724587645770375\\
29	0.00162950522467606\\
30	0.00210435463552768\\
31	0.00462478983867636\\
32	0.0251996639421512\\
33	0.112167721575956\\
34	0.011266963190432\\
35	0.00171683870651818\\
36	0.00226052457380732\\
37	0.0043348062339784\\
38	0.00713014168313949\\
39	0.0121449559686268\\
40	0.0272213796090581\\
41	0.0424968906120625\\
42	0.0451716298731595\\
43	0.017455098160598\\
44	0.0109708872229528\\
45	0.00776865327669821\\
46	0.00565368622335589\\
47	0.00395763310668462\\
48	0.00264436211650562\\
49	0.00441311485158188\\
50	0.0228729253401822\\
51	0.0287802702590681\\
52	0.0125353579973988\\
53	0.00896830648346807\\
54	0.00731640916438003\\
55	0.00632417129472369\\
56	0.00564269507067849\\
57	0.00513536417157723\\
58	0.00473709514008535\\
59	0.0044126022341586\\
60	0.00414090696813378\\
61	0.00390864447082039\\
62	0.00370683109225522\\
63	0.00352916447063468\\
64	0.00337106685320384\\
65	0.00322911614492373\\
66	0.00310069166570132\\
67	0.00298374488818941\\
68	0.0028766460729305\\
69	0.00277807870219684\\
70	0.00268696498318268\\
71	0.00260241211354045\\
72	0.00252367276502162\\
73	0.00245011551771504\\
74	0.00238120239498429\\
75	0.0023164715547987\\
76	0.00225552378515808\\
77	0.00219801184648637\\
78	0.00214363197270351\\
79	0.00209211702876236\\
80	0.0020432309532961\\
81	0.00199676420839336\\
82	0.0019525300260471\\
83	0.0019103612902693\\
84	0.00187010793048999\\
85	0.00183163472928085\\
86	0.00179481946818141\\
87	0.00175955135123176\\
88	0.00172572965800426\\
89	0.00169326258738631\\
90	0.00166206626076637\\
91	0.00163206385910851\\
92	0.00160318487302414\\
93	0.00157536444864539\\
94	0.00154854281507095\\
95	0.00152266478155287\\
96	0.00149767929453979\\
97	0.00147353904628319\\
98	0.00145020012801883\\
99	0\\
100	0\\
};
\addlegendentry{data1}

\addplot [color=mycolor2]
  table[row sep=crcr]{%
1	0.0150255015885187\\
2	0.0162357627769204\\
3	0.0176605985235503\\
4	0.0193636042391025\\
5	0.0214368609953453\\
6	0.0240194473851616\\
7	0.0273332917308377\\
8	0.0317603190051032\\
9	0.0380365698679261\\
10	0.0478868079538641\\
11	0.0675883422998187\\
12	0.647519693708253\\
13	0.0832370380937522\\
14	0.244976189465164\\
15	0.528707747306301\\
16	0.129195498114266\\
17	0.0830388635250721\\
18	0.433765044825667\\
19	0.0571184829151321\\
20	0.041614364198541\\
21	0.0337949226463061\\
22	0.0286874167600908\\
23	0.025000400281342\\
24	0.0221863395225753\\
25	0.0199577235083222\\
26	0.0181445617955856\\
27	0.0166383873157634\\
28	0.015366154068967\\
29	0.0142766249102337\\
30	0.0133326849452579\\
31	0.0125067338140817\\
32	0.0117777911490698\\
33	0.0111296078924106\\
34	0.0105493944319233\\
35	0\\
36	0\\
37	0\\
38	0\\
39	0\\
40	0\\
41	0\\
42	0\\
43	0\\
44	0\\
45	0\\
46	0\\
47	0\\
48	0\\
49	0\\
50	0\\
51	0\\
52	0\\
53	0\\
54	0\\
55	0\\
56	0\\
57	0\\
58	0\\
59	0\\
60	0\\
61	0\\
62	0\\
63	0\\
64	0\\
65	0\\
66	0\\
67	0\\
68	0\\
69	0\\
70	0\\
71	0\\
72	0\\
73	0\\
74	0\\
75	0\\
76	0\\
77	0\\
78	0\\
79	0\\
80	0\\
81	0\\
82	0\\
83	0\\
84	0\\
85	0\\
86	0\\
87	0\\
88	0\\
89	0\\
90	0\\
91	0\\
92	0\\
93	0\\
94	0\\
95	0\\
96	0\\
97	0\\
98	0\\
99	0\\
100	0\\
};
\addlegendentry{data2}

\end{axis}

\begin{axis}[%
width=1.677in,
height=2.162in,
at={(13.574in,1.103in)},
scale only axis,
xmin=0,
xmax=100,
xlabel style={font=\color{white!15!black}, align=center},
xlabel={Sample Index\\[1ex]19},
ymin=0,
ymax=0.7,
ylabel style={font=\color{white!15!black}},
ylabel={Magnitude},
axis background/.style={fill=white},
legend style={legend cell align=left, align=left, draw=white!15!black}
]
\addplot [color=mycolor1]
  table[row sep=crcr]{%
1	0.0211827706484086\\
2	0.0249636039318612\\
3	0.0298220345156761\\
4	0.0301974722450815\\
5	0.363878990923576\\
6	0.12005975076387\\
7	0.578224443999484\\
8	0.0470478225595102\\
9	0.156967597409001\\
10	0.416256549151727\\
11	0.0832732710172736\\
12	0.140650257561299\\
13	0.0882996050430647\\
14	0.0770208346550768\\
15	0.298911280499317\\
16	0.269761324010146\\
17	0.14105081045611\\
18	0.1028290971061\\
19	0.158947521321116\\
20	0.122055336439344\\
21	0.0370387385622777\\
22	0.0291353670572982\\
23	0.0567758331755847\\
24	0.0744590602302228\\
25	0.0405977699862628\\
26	0.0287022927667798\\
27	0.0777266599043193\\
28	0.0133438034263237\\
29	0.0133145581866858\\
30	0.0142784168992304\\
31	0.0178744979021184\\
32	0.0354243677402387\\
33	0.10193203382451\\
34	0.0348643102052647\\
35	0.0158521018397052\\
36	0.0107708985717604\\
37	0.0084652164419301\\
38	0.00719662747733498\\
39	0.00668280853365468\\
40	0.00933429737226699\\
41	0.0675846519362381\\
42	0.0365191896891094\\
43	0.0141751102160744\\
44	0.0107115802194058\\
45	0.00957321862481015\\
46	0.00929225111209168\\
47	0.00964446297576296\\
48	0.0109065032370249\\
49	0.0145620980095322\\
50	0.035245182941349\\
51	0.0235398071328411\\
52	0.00576610064113327\\
53	0.00237166538224237\\
54	0.00133629104545367\\
55	0.00123211475727994\\
56	0.00138440886034539\\
57	0.00154225461831415\\
58	0.00166417978197069\\
59	0.00175208148303448\\
60	0.00181351360577938\\
61	0.00185515598479988\\
62	0.00188206935375254\\
63	0.00189796075757124\\
64	0.00190553937866846\\
65	0.00190680059855914\\
66	0.00190323025917115\\
67	0.00189594762986768\\
68	0.00188580525871506\\
69	0.0018734592221458\\
70	0.00185941909556826\\
71	0.00184408393741462\\
72	0.00182776852485222\\
73	0.00181072271360509\\
74	0.0017931458881115\\
75	0.00177519786346544\\
76	0.00175700719317346\\
77	0.00173867755925764\\
78	0.00172029273002282\\
79	0.00170192043750745\\
80	0.00168361543264736\\
81	0.00166542190917935\\
82	0.00164737543903774\\
83	0.00162950452687325\\
84	0.00161183186551927\\
85	0.00159437535510286\\
86	0.00157714893419935\\
87	0.00156016326065212\\
88	0.00154342627149474\\
89	0.00152694364515302\\
90	0.00151071918428246\\
91	0.00149475513385727\\
92	0.00147905244621546\\
93	0.00146361100247237\\
94	0.00144842979791367\\
95	0.00143350709754612\\
96	0.0014188405668444\\
97	0.00140442738181687\\
98	0.00139026432178071\\
99	0\\
100	0\\
};
\addlegendentry{data1}

\addplot [color=mycolor2]
  table[row sep=crcr]{%
1	0.0144368823532938\\
2	0.0156115484421508\\
3	0.016995178518276\\
4	0.0186494050028721\\
5	0.0206630556969507\\
6	0.0231693485620635\\
7	0.0263785309308715\\
8	0.0306461265085226\\
9	0.0366377503804502\\
10	0.0458383963271251\\
11	0.0632452738203164\\
12	0.544644048262016\\
13	0.101689747778646\\
14	0.280277982755495\\
15	0.624222862702004\\
16	0.17306567408027\\
17	0.227089983235489\\
18	0.353148373038808\\
19	0.0451529840263088\\
20	0.0348236118624783\\
21	0.0291914795595331\\
22	0.025261460738554\\
23	0.0222973651608445\\
24	0.0199667065450448\\
25	0.0180814555026448\\
26	0.0165234312929113\\
27	0.0152135725432351\\
28	0.0140966568354985\\
29	0.013132827450444\\
30	0.0122925499216197\\
31	0.011553453534078\\
32	0.0108982741980825\\
33	0.0103134714099276\\
34	0.00978827334016182\\
35	0\\
36	0\\
37	0\\
38	0\\
39	0\\
40	0\\
41	0\\
42	0\\
43	0\\
44	0\\
45	0\\
46	0\\
47	0\\
48	0\\
49	0\\
50	0\\
51	0\\
52	0\\
53	0\\
54	0\\
55	0\\
56	0\\
57	0\\
58	0\\
59	0\\
60	0\\
61	0\\
62	0\\
63	0\\
64	0\\
65	0\\
66	0\\
67	0\\
68	0\\
69	0\\
70	0\\
71	0\\
72	0\\
73	0\\
74	0\\
75	0\\
76	0\\
77	0\\
78	0\\
79	0\\
80	0\\
81	0\\
82	0\\
83	0\\
84	0\\
85	0\\
86	0\\
87	0\\
88	0\\
89	0\\
90	0\\
91	0\\
92	0\\
93	0\\
94	0\\
95	0\\
96	0\\
97	0\\
98	0\\
99	0\\
100	0\\
};
\addlegendentry{data2}

\end{axis}

\begin{axis}[%
width=1.677in,
height=2.162in,
at={(15.787in,1.103in)},
scale only axis,
xmin=0,
xmax=100,
xlabel style={font=\color{white!15!black}, align=center},
xlabel={Sample Index\\[1ex]20},
ymin=0,
ymax=0.7,
ylabel style={font=\color{white!15!black}},
ylabel={Magnitude},
axis background/.style={fill=white},
legend style={legend cell align=left, align=left, draw=white!15!black}
]
\addplot [color=mycolor1]
  table[row sep=crcr]{%
1	0.0320545897981778\\
2	0.0369922624367793\\
3	0.0438450510483696\\
4	0.0523691098855217\\
5	0.138916732202459\\
6	0.414312493059303\\
7	0.681494107721844\\
8	0.122411082464652\\
9	0.261056084134781\\
10	0.177075682438594\\
11	0.358933162060096\\
12	0.0985233486032356\\
13	0.0483108351065497\\
14	0.0487452224905143\\
15	0.0875435802117455\\
16	0.127843414227684\\
17	0.0325964719913679\\
18	0.0710654058982273\\
19	0.110089497540409\\
20	0.0212082848430999\\
21	0.0211470657191632\\
22	0.0236783066699733\\
23	0.0216467254301895\\
24	0.0348163273896362\\
25	0.0329329038773937\\
26	0.0205268443841374\\
27	0.0864966731297026\\
28	0.0238412278111316\\
29	0.0198181224799837\\
30	0.0177256594086227\\
31	0.0165566078626803\\
32	0.0209612618881417\\
33	0.0732419777212206\\
34	0.00905161562397599\\
35	0.00750792430794597\\
36	0.00689475486476847\\
37	0.0058481026299128\\
38	0.00482811694905998\\
39	0.00675445888289762\\
40	0.0235108112724147\\
41	0.10402868095157\\
42	0.0437140462931724\\
43	0.0235226119493291\\
44	0.0186300245215444\\
45	0.0163440441431917\\
46	0.0151214865421804\\
47	0.0145833821378556\\
48	0.0148086167476101\\
49	0.0167740724748808\\
50	0.0311193627217412\\
51	0.0152244351391978\\
52	0.00640316166150526\\
53	0.00646794378929003\\
54	0.0066440096694248\\
55	0.00669678997979017\\
56	0.0066716582648717\\
57	0.00660295214751746\\
58	0.00651019088212561\\
59	0.00640443810858493\\
60	0.00629214142817407\\
61	0.00617716114568612\\
62	0.00606185439427875\\
63	0.0059476751991118\\
64	0.00583551923762741\\
65	0.00572592882475817\\
66	0.00561921851892654\\
67	0.00551555411508992\\
68	0.00541500343817066\\
69	0.00531756962211089\\
70	0.00522321325676252\\
71	0.0051318673143081\\
72	0.00504344730859845\\
73	0.00495785825813545\\
74	0.00487499947699129\\
75	0.00479476787268348\\
76	0.00471706020779776\\
77	0.00464177463670846\\
78	0.00456881173209908\\
79	0.00449807515087393\\
80	0.00442947204463474\\
81	0.00436291328924601\\
82	0.00429831358664987\\
83	0.00423559147705701\\
84	0.0041746692889739\\
85	0.00411547304690117\\
86	0.00405793235105121\\
87	0.00400198023946081\\
88	0.00394755303998717\\
89	0.00389459021756447\\
90	0.00384303422055384\\
91	0.00379283032888423\\
92	0.00374392650584829\\
93	0.0036962732548031\\
94	0.00364982348157774\\
95	0.00360453236305921\\
96	0.00356035722219004\\
97	0.00351725740943775\\
98	0.0034751941906742\\
99	0\\
100	0\\
};
\addlegendentry{data1}

\addplot [color=mycolor2]
  table[row sep=crcr]{%
1	0.0143242409570642\\
2	0.015502703461893\\
3	0.0168929033557171\\
4	0.0185579071563964\\
5	0.0205889121943173\\
6	0.0231232689978018\\
7	0.0263789706015769\\
8	0.0307275893644707\\
9	0.0368733174340835\\
10	0.0464194365364065\\
11	0.0649544576600814\\
12	0.608493775598135\\
13	0.0976589670970266\\
14	0.275325486973371\\
15	0.613401069260518\\
16	0.163884927802855\\
17	0.139875472826131\\
18	0.323938425518664\\
19	0.029947109011395\\
20	0.0289561700401429\\
21	0.0259011351761165\\
22	0.0230758152612899\\
23	0.0206999819054736\\
24	0.0187259692373818\\
25	0.0170764346412841\\
26	0.0156840851725774\\
27	0.0144961541234136\\
28	0.0134722292657392\\
29	0.0125813676576128\\
30	0.0117996898367916\\
31	0.011108569700213\\
32	0.0104933124353078\\
33	0.00994219398004305\\
34	0.00944575998504443\\
35	0\\
36	0\\
37	0\\
38	0\\
39	0\\
40	0\\
41	0\\
42	0\\
43	0\\
44	0\\
45	0\\
46	0\\
47	0\\
48	0\\
49	0\\
50	0\\
51	0\\
52	0\\
53	0\\
54	0\\
55	0\\
56	0\\
57	0\\
58	0\\
59	0\\
60	0\\
61	0\\
62	0\\
63	0\\
64	0\\
65	0\\
66	0\\
67	0\\
68	0\\
69	0\\
70	0\\
71	0\\
72	0\\
73	0\\
74	0\\
75	0\\
76	0\\
77	0\\
78	0\\
79	0\\
80	0\\
81	0\\
82	0\\
83	0\\
84	0\\
85	0\\
86	0\\
87	0\\
88	0\\
89	0\\
90	0\\
91	0\\
92	0\\
93	0\\
94	0\\
95	0\\
96	0\\
97	0\\
98	0\\
99	0\\
100	0\\
};
\addlegendentry{data2}

\end{axis}
\end{tikzpicture}%