% This file was created by matlab2tikz.
%
%The latest updates can be retrieved from
%  http://www.mathworks.com/matlabcentral/fileexchange/22022-matlab2tikz-matlab2tikz
%where you can also make suggestions and rate matlab2tikz.
%
\definecolor{mycolor1}{rgb}{0.00000,0.44700,0.74100}%
\definecolor{mycolor2}{rgb}{0.85000,0.32500,0.09800}%
%
\begin{tikzpicture}

\begin{axis}[%
width=1.682in,
height=2.162in,
at={(2.509in,7.109in)},
scale only axis,
xmin=0,
xmax=20,
xlabel style={font=\color{white!15!black}, align=center},
xlabel={Sample Index\\[1ex]0},
ymin=0,
ymax=1,
ylabel style={font=\color{white!15!black}},
ylabel={Magnitude},
axis background/.style={fill=white},
legend style={legend cell align=left, align=left, draw=white!15!black}
]
\addplot [color=mycolor1]
  table[row sep=crcr]{%
1	0.0444337104356374\\
2	0.738127803558165\\
3	0.357839506790865\\
4	0.481268775571525\\
5	0.10955194752004\\
6	0.267783168107473\\
7	0.0769544524124665\\
8	0.0372836026936495\\
9	0.027789744685169\\
10	0.0196434178633453\\
11	0.0212138243269196\\
12	0.0147156812719569\\
13	0.0126517206023441\\
14	0.0111331007215966\\
15	0.00994473974674355\\
16	0.00898571135769806\\
17	0.00819466874468931\\
18	0.00753086667278431\\
19	0.00696589032366256\\
20	0.00647923877975415\\
};
\addlegendentry{data1}

\addplot [color=mycolor2]
  table[row sep=crcr]{%
1	0.0696363384444256\\
2	0.13399148454392\\
3	0.889181852408627\\
4	0.426869408918664\\
5	0.0527923084371181\\
6	0.0393468637154593\\
7	0\\
8	0\\
9	0\\
10	0\\
11	0\\
12	0\\
13	0\\
14	0\\
15	0\\
16	0\\
17	0\\
18	0\\
19	0\\
20	0\\
};
\addlegendentry{data2}

\end{axis}

\begin{axis}[%
width=1.682in,
height=2.162in,
at={(4.722in,7.109in)},
scale only axis,
xmin=0,
xmax=20,
xlabel style={font=\color{white!15!black}, align=center},
xlabel={Sample Index\\[1ex]1},
ymin=0,
ymax=1,
ylabel style={font=\color{white!15!black}},
ylabel={Magnitude},
axis background/.style={fill=white},
legend style={legend cell align=left, align=left, draw=white!15!black}
]
\addplot [color=mycolor1]
  table[row sep=crcr]{%
1	0.0796413982596424\\
2	0.968283477052618\\
3	0.0549030309691562\\
4	0.197681116876771\\
5	0.0536539011333833\\
6	0.0734200095236891\\
7	0.0548306794124124\\
8	0.0249859396858446\\
9	0.0169478225714248\\
10	0.0193113941786731\\
11	0.0191754650282847\\
12	0.0150043655858633\\
13	0.0133557453344613\\
14	0.0120691471385867\\
15	0.0110180127643395\\
16	0.0101391194261346\\
17	0.00939201166859225\\
18	0.00874855465685706\\
19	0.00818830004387259\\
20	0.00769593753809926\\
};
\addlegendentry{data1}

\addplot [color=mycolor2]
  table[row sep=crcr]{%
1	0.105949124478854\\
2	0.185095594010249\\
3	0.948677979212428\\
4	0.0311520801089303\\
5	0.204490444875883\\
6	0.108340674342238\\
7	0\\
8	0\\
9	0\\
10	0\\
11	0\\
12	0\\
13	0\\
14	0\\
15	0\\
16	0\\
17	0\\
18	0\\
19	0\\
20	0\\
};
\addlegendentry{data2}

\end{axis}

\begin{axis}[%
width=1.682in,
height=2.162in,
at={(6.935in,7.109in)},
scale only axis,
xmin=0,
xmax=20,
xlabel style={font=\color{white!15!black}, align=center},
xlabel={Sample Index\\[1ex]2},
ymin=0,
ymax=1,
ylabel style={font=\color{white!15!black}},
ylabel={Magnitude},
axis background/.style={fill=white},
legend style={legend cell align=left, align=left, draw=white!15!black}
]
\addplot [color=mycolor1]
  table[row sep=crcr]{%
1	0.0309173585457062\\
2	0.849123007967567\\
3	0.258178816841219\\
4	0.356196913519917\\
5	0.183356992248602\\
6	0.21112345040253\\
7	0.0762497632516437\\
8	0.00548460885810958\\
9	0.0145043239428099\\
10	0.00659102228768233\\
11	0.0110970748855197\\
12	0.00491306002199184\\
13	0.00401650388269977\\
14	0.00344657933856991\\
15	0.00303123505536653\\
16	0.00271082875887774\\
17	0.00245481517030744\\
18	0.00224498870549502\\
19	0.00206958548330799\\
20	0.00192059439537831\\
};
\addlegendentry{data1}

\addplot [color=mycolor2]
  table[row sep=crcr]{%
1	0.0795928966591007\\
2	0.147927119201503\\
3	0.900460564771271\\
4	0.388137632850084\\
5	0.0839311766656609\\
6	0.0570792873730299\\
7	0\\
8	0\\
9	0\\
10	0\\
11	0\\
12	0\\
13	0\\
14	0\\
15	0\\
16	0\\
17	0\\
18	0\\
19	0\\
20	0\\
};
\addlegendentry{data2}

\end{axis}

\begin{axis}[%
width=1.682in,
height=2.162in,
at={(9.148in,7.109in)},
scale only axis,
xmin=0,
xmax=20,
xlabel style={font=\color{white!15!black}, align=center},
xlabel={Sample Index\\[1ex]3},
ymin=0,
ymax=1,
ylabel style={font=\color{white!15!black}},
ylabel={Magnitude},
axis background/.style={fill=white},
legend style={legend cell align=left, align=left, draw=white!15!black}
]
\addplot [color=mycolor1]
  table[row sep=crcr]{%
1	0.160852635977661\\
2	0.720830118452871\\
3	0.252884814155149\\
4	0.360758240961102\\
5	0.127237055060377\\
6	0.434849033809232\\
7	0.156039256721353\\
8	0.101226810025203\\
9	0.0662503203820005\\
10	0.0606812703827139\\
11	0.0566598718076603\\
12	0.0454360509338393\\
13	0.0399625901017963\\
14	0.0357427980571225\\
15	0.0323524455962959\\
16	0.0295605998616014\\
17	0.0272185859300591\\
18	0.0252243415895887\\
19	0.0235049628058449\\
20	0.0220068088925583\\
};
\addlegendentry{data1}

\addplot [color=mycolor2]
  table[row sep=crcr]{%
1	0.101216529056764\\
2	0.179092823903281\\
3	0.954979101415417\\
4	0.0816258296907912\\
5	0.172383411594021\\
6	0.0965249908901806\\
7	0\\
8	0\\
9	0\\
10	0\\
11	0\\
12	0\\
13	0\\
14	0\\
15	0\\
16	0\\
17	0\\
18	0\\
19	0\\
20	0\\
};
\addlegendentry{data2}

\end{axis}

\begin{axis}[%
width=1.682in,
height=2.162in,
at={(11.361in,7.109in)},
scale only axis,
xmin=0,
xmax=20,
xlabel style={font=\color{white!15!black}, align=center},
xlabel={Sample Index\\[1ex]4},
ymin=0,
ymax=1,
ylabel style={font=\color{white!15!black}},
ylabel={Magnitude},
axis background/.style={fill=white},
legend style={legend cell align=left, align=left, draw=white!15!black}
]
\addplot [color=mycolor1]
  table[row sep=crcr]{%
1	0.104089439640257\\
2	0.768307468409755\\
3	0.529610166835151\\
4	0.20682937519991\\
5	0.158836368614424\\
6	0.193645590603542\\
7	0.0834688239417365\\
8	0.0315315936510698\\
9	0.0431242094433832\\
10	0.0237339719593407\\
11	0.0292501281404484\\
12	0.019186362221495\\
13	0.0167520385180851\\
14	0.0149714965936431\\
15	0.0135575833124289\\
16	0.0123965899284724\\
17	0.0114228604678124\\
18	0.0105931596492759\\
19	0.0098771318360564\\
20	0.00925260410861269\\
};
\addlegendentry{data1}

\addplot [color=mycolor2]
  table[row sep=crcr]{%
1	0.0936699248546178\\
2	0.168564558686502\\
3	0.93969122192411\\
4	0.231219533551857\\
5	0.140134010213709\\
6	0.0818066541108626\\
7	0\\
8	0\\
9	0\\
10	0\\
11	0\\
12	0\\
13	0\\
14	0\\
15	0\\
16	0\\
17	0\\
18	0\\
19	0\\
20	0\\
};
\addlegendentry{data2}

\end{axis}

\begin{axis}[%
width=1.682in,
height=2.162in,
at={(13.574in,7.109in)},
scale only axis,
xmin=0,
xmax=20,
xlabel style={font=\color{white!15!black}, align=center},
xlabel={Sample Index\\[1ex]5},
ymin=0,
ymax=1,
ylabel style={font=\color{white!15!black}},
ylabel={Magnitude},
axis background/.style={fill=white},
legend style={legend cell align=left, align=left, draw=white!15!black}
]
\addplot [color=mycolor1]
  table[row sep=crcr]{%
1	0.132488199874211\\
2	0.854133642891844\\
3	0.301973936514706\\
4	0.373715277758326\\
5	0.136040665256458\\
6	0.0453673528856031\\
7	0.0343859831390901\\
8	0.0087944428562726\\
9	0.00997025611428834\\
10	0.00315613159522654\\
11	0.00670275013125841\\
12	0.00329765196918771\\
13	0.00316211957577538\\
14	0.00304145543867956\\
15	0.00291913824744565\\
16	0.00279814289914617\\
17	0.00268118615435138\\
18	0.00256977858351034\\
19	0.00246458265952213\\
20	0.00236575228396137\\
};
\addlegendentry{data1}

\addplot [color=mycolor2]
  table[row sep=crcr]{%
1	0.0808371339648825\\
2	0.150242284495819\\
3	0.912603882160575\\
4	0.357049927577067\\
5	0.0850306827809686\\
6	0.0577226142017381\\
7	0\\
8	0\\
9	0\\
10	0\\
11	0\\
12	0\\
13	0\\
14	0\\
15	0\\
16	0\\
17	0\\
18	0\\
19	0\\
20	0\\
};
\addlegendentry{data2}

\end{axis}

\begin{axis}[%
width=1.682in,
height=2.162in,
at={(15.787in,7.109in)},
scale only axis,
xmin=0,
xmax=20,
xlabel style={font=\color{white!15!black}, align=center},
xlabel={Sample Index\\[1ex]6},
ymin=0,
ymax=1,
ylabel style={font=\color{white!15!black}},
ylabel={Magnitude},
axis background/.style={fill=white},
legend style={legend cell align=left, align=left, draw=white!15!black}
]
\addplot [color=mycolor1]
  table[row sep=crcr]{%
1	0.224842189237484\\
2	0.466848319745321\\
3	0.140159437598591\\
4	0.706335917704877\\
5	0.242473802769223\\
6	0.30049145116018\\
7	0.157470999797749\\
8	0.100682234275777\\
9	0.0867760292739281\\
10	0.0703099807210802\\
11	0.0577232291449041\\
12	0.0526135280875822\\
13	0.0470184833850629\\
14	0.0424734252050361\\
15	0.0387280517320704\\
16	0.035591028543641\\
17	0.0329256421060502\\
18	0.0306329123469936\\
19	0.028639668517443\\
20	0.0268907128554168\\
};
\addlegendentry{data1}

\addplot [color=mycolor2]
  table[row sep=crcr]{%
1	0.0871383952915511\\
2	0.158151156131021\\
3	0.913030517974639\\
4	0.332080193509298\\
5	0.133423055862288\\
6	0.075441489716162\\
7	0\\
8	0\\
9	0\\
10	0\\
11	0\\
12	0\\
13	0\\
14	0\\
15	0\\
16	0\\
17	0\\
18	0\\
19	0\\
20	0\\
};
\addlegendentry{data2}

\end{axis}

\begin{axis}[%
width=1.682in,
height=2.162in,
at={(2.509in,4.106in)},
scale only axis,
xmin=0,
xmax=20,
xlabel style={font=\color{white!15!black}, align=center},
xlabel={Sample Index\\[1ex]7},
ymin=0,
ymax=1,
ylabel style={font=\color{white!15!black}},
ylabel={Magnitude},
axis background/.style={fill=white},
legend style={legend cell align=left, align=left, draw=white!15!black}
]
\addplot [color=mycolor1]
  table[row sep=crcr]{%
1	0.0817311630725357\\
2	0.964551121248807\\
3	0.1972955137292\\
4	0.119354260032229\\
5	0.0172390005211851\\
6	0.0797426860133242\\
7	0.0322584321576687\\
8	0.0238998980810605\\
9	0.0287251485526853\\
10	0.0135117861229362\\
11	0.00893761020670735\\
12	0.00946669623290335\\
13	0.00852838683270298\\
14	0.0077304889735039\\
15	0.0070666788339597\\
16	0.00650865144092643\\
17	0.00603341451420045\\
18	0.00562379657391983\\
19	0.00526698928731485\\
20	0.00495330623196589\\
};
\addlegendentry{data1}

\addplot [color=mycolor2]
  table[row sep=crcr]{%
1	0.0873936152890865\\
2	0.159286965280024\\
3	0.933848381858727\\
4	0.269273707551465\\
5	0.129991247537972\\
6	0.0742372169698663\\
7	0\\
8	0\\
9	0\\
10	0\\
11	0\\
12	0\\
13	0\\
14	0\\
15	0\\
16	0\\
17	0\\
18	0\\
19	0\\
20	0\\
};
\addlegendentry{data2}

\end{axis}

\begin{axis}[%
width=1.682in,
height=2.162in,
at={(4.722in,4.106in)},
scale only axis,
xmin=0,
xmax=20,
xlabel style={font=\color{white!15!black}, align=center},
xlabel={Sample Index\\[1ex]8},
ymin=0,
ymax=1,
ylabel style={font=\color{white!15!black}},
ylabel={Magnitude},
axis background/.style={fill=white},
legend style={legend cell align=left, align=left, draw=white!15!black}
]
\addplot [color=mycolor1]
  table[row sep=crcr]{%
1	0.13995386059165\\
2	0.625792877257562\\
3	0.210695590866439\\
4	0.608317035726254\\
5	0.0805158214900697\\
6	0.355552088897863\\
7	0.123666384662862\\
8	0.0821837765069171\\
9	0.0900572960133764\\
10	0.0499325485175255\\
11	0.0490478420914203\\
12	0.0377408438484736\\
13	0.0331511843727762\\
14	0.0296572983272361\\
15	0.0268586116548262\\
16	0.0245553857277926\\
17	0.0226228391089528\\
18	0.0209763808799678\\
19	0.0195559359563314\\
20	0.0183174233890853\\
};
\addlegendentry{data1}

\addplot [color=mycolor2]
  table[row sep=crcr]{%
1	0.0948973731299552\\
2	0.16997632823753\\
3	0.928829581064331\\
4	0.267796700953032\\
5	0.143605838571763\\
6	0.0839073050368944\\
7	0\\
8	0\\
9	0\\
10	0\\
11	0\\
12	0\\
13	0\\
14	0\\
15	0\\
16	0\\
17	0\\
18	0\\
19	0\\
20	0\\
};
\addlegendentry{data2}

\end{axis}

\begin{axis}[%
width=1.682in,
height=2.162in,
at={(6.935in,4.106in)},
scale only axis,
xmin=0,
xmax=20,
xlabel style={font=\color{white!15!black}, align=center},
xlabel={Sample Index\\[1ex]9},
ymin=0,
ymax=1,
ylabel style={font=\color{white!15!black}},
ylabel={Magnitude},
axis background/.style={fill=white},
legend style={legend cell align=left, align=left, draw=white!15!black}
]
\addplot [color=mycolor1]
  table[row sep=crcr]{%
1	0.0556687717758077\\
2	0.634942738218918\\
3	0.311673680727582\\
4	0.611721233898754\\
5	0.314028047054838\\
6	0.150510949668666\\
7	0.0262433111146423\\
8	0.00821450208720453\\
9	0.0145528786594668\\
10	0.0066175506453364\\
11	0.00326565086599538\\
12	0.00450691709231238\\
13	0.00429736022725589\\
14	0.00400485519369658\\
15	0.00372300393323293\\
16	0.00346701365183312\\
17	0.00323816260481276\\
18	0.00303428227454442\\
19	0.00285244426812119\\
20	0.00268977578115436\\
};
\addlegendentry{data1}

\addplot [color=mycolor2]
  table[row sep=crcr]{%
1	0.094354527674152\\
2	0.169288109882772\\
3	0.939458383170425\\
4	0.224652969576\\
5	0.149056662245805\\
6	0.0846750255467419\\
7	0\\
8	0\\
9	0\\
10	0\\
11	0\\
12	0\\
13	0\\
14	0\\
15	0\\
16	0\\
17	0\\
18	0\\
19	0\\
20	0\\
};
\addlegendentry{data2}

\end{axis}

\begin{axis}[%
width=1.682in,
height=2.162in,
at={(9.148in,4.106in)},
scale only axis,
xmin=0,
xmax=20,
xlabel style={font=\color{white!15!black}, align=center},
xlabel={Sample Index\\[1ex]10},
ymin=0,
ymax=1,
ylabel style={font=\color{white!15!black}},
ylabel={Magnitude},
axis background/.style={fill=white},
legend style={legend cell align=left, align=left, draw=white!15!black}
]
\addplot [color=mycolor1]
  table[row sep=crcr]{%
1	0.108536976624728\\
2	0.540996414955006\\
3	0.201185434073082\\
4	0.655592376472711\\
5	0.288419968762885\\
6	0.323874452272122\\
7	0.127672920864181\\
8	0.0781477961355407\\
9	0.0900033073504527\\
10	0.0437790542676029\\
11	0.0263712883165509\\
12	0.0298675105335383\\
13	0.0265473390131041\\
14	0.0237702075214464\\
15	0.0214971306628264\\
16	0.0196153566026621\\
17	0.0180351613151598\\
18	0.0166904505649327\\
19	0.0155325789135082\\
20	0.0145252467608776\\
};
\addlegendentry{data1}

\addplot [color=mycolor2]
  table[row sep=crcr]{%
1	0.0782077525038228\\
2	0.146887841078516\\
3	0.916374755138382\\
4	0.355193608454402\\
5	0.0619569823446896\\
6	0.0506325052564435\\
7	0\\
8	0\\
9	0\\
10	0\\
11	0\\
12	0\\
13	0\\
14	0\\
15	0\\
16	0\\
17	0\\
18	0\\
19	0\\
20	0\\
};
\addlegendentry{data2}

\end{axis}

\begin{axis}[%
width=1.682in,
height=2.162in,
at={(11.361in,4.106in)},
scale only axis,
xmin=0,
xmax=20,
xlabel style={font=\color{white!15!black}, align=center},
xlabel={Sample Index\\[1ex]11},
ymin=0,
ymax=1,
ylabel style={font=\color{white!15!black}},
ylabel={Magnitude},
axis background/.style={fill=white},
legend style={legend cell align=left, align=left, draw=white!15!black}
]
\addplot [color=mycolor1]
  table[row sep=crcr]{%
1	0.143620772024308\\
2	0.412087458665185\\
3	0.459380973289379\\
4	0.655957418955999\\
5	0.218677508433148\\
6	0.258710831227786\\
7	0.126351060420303\\
8	0.104984714026103\\
9	0.0947531965467198\\
10	0.0607595332442328\\
11	0.0620038712709039\\
12	0.0469778646146139\\
13	0.0413517488788142\\
14	0.0370601809732454\\
15	0.033608855005883\\
16	0.030758798475414\\
17	0.0283608550930216\\
18	0.0263134185367836\\
19	0.0245439288415964\\
20	0.0229988728695128\\
};
\addlegendentry{data1}

\addplot [color=mycolor2]
  table[row sep=crcr]{%
1	0.0713297253821089\\
2	0.137900750538159\\
3	0.93555678341148\\
4	0.312417876535452\\
5	0.0394210904624005\\
6	0.0383406616860762\\
7	0\\
8	0\\
9	0\\
10	0\\
11	0\\
12	0\\
13	0\\
14	0\\
15	0\\
16	0\\
17	0\\
18	0\\
19	0\\
20	0\\
};
\addlegendentry{data2}

\end{axis}

\begin{axis}[%
width=1.682in,
height=2.162in,
at={(13.574in,4.106in)},
scale only axis,
xmin=0,
xmax=20,
xlabel style={font=\color{white!15!black}, align=center},
xlabel={Sample Index\\[1ex]12},
ymin=0,
ymax=1,
ylabel style={font=\color{white!15!black}},
ylabel={Magnitude},
axis background/.style={fill=white},
legend style={legend cell align=left, align=left, draw=white!15!black}
]
\addplot [color=mycolor1]
  table[row sep=crcr]{%
1	0.200869099479608\\
2	0.680107038835727\\
3	0.433284830462779\\
4	0.273843245172741\\
5	0.218412205179973\\
6	0.372259325546061\\
7	0.208488367529196\\
8	0.0193823222376357\\
9	0.048670622797835\\
10	0.0255953807628737\\
11	0.0116991089909281\\
12	0.0156709523590955\\
13	0.0139369355431355\\
14	0.0124103444771024\\
15	0.0111539962295212\\
16	0.0101176622555472\\
17	0.00925289627977005\\
18	0.00852219251677325\\
19	0.00789745816041239\\
20	0.00735761806386293\\
};
\addlegendentry{data1}

\addplot [color=mycolor2]
  table[row sep=crcr]{%
1	0.0878032468545949\\
2	0.158456306807859\\
3	0.903241296089102\\
4	0.353458517972826\\
5	0.142207453566267\\
6	0.0786222992320548\\
7	0\\
8	0\\
9	0\\
10	0\\
11	0\\
12	0\\
13	0\\
14	0\\
15	0\\
16	0\\
17	0\\
18	0\\
19	0\\
20	0\\
};
\addlegendentry{data2}

\end{axis}

\begin{axis}[%
width=1.682in,
height=2.162in,
at={(15.787in,4.106in)},
scale only axis,
xmin=0,
xmax=20,
xlabel style={font=\color{white!15!black}, align=center},
xlabel={Sample Index\\[1ex]13},
ymin=0,
ymax=1,
ylabel style={font=\color{white!15!black}},
ylabel={Magnitude},
axis background/.style={fill=white},
legend style={legend cell align=left, align=left, draw=white!15!black}
]
\addplot [color=mycolor1]
  table[row sep=crcr]{%
1	0.0850623990282247\\
2	0.869532294370616\\
3	0.205256859216795\\
4	0.341048079458477\\
5	0.158354255223969\\
6	0.217599298024209\\
7	0.045501546921623\\
8	0.0285510019747758\\
9	0.0402921841595661\\
10	0.0159526592599757\\
11	0.0189562060638631\\
12	0.01248257495542\\
13	0.0108542019102439\\
14	0.00967707251786781\\
15	0.00875273663234442\\
16	0.00799981528515225\\
17	0.00737178067874851\\
18	0.0068385849600046\\
19	0.00637952414808339\\
20	0.00597971242248665\\
};
\addlegendentry{data1}

\addplot [color=mycolor2]
  table[row sep=crcr]{%
1	0.0833044767346145\\
2	0.154692848951792\\
3	0.953933806450536\\
4	0.212999192180486\\
5	0.0992024296016496\\
6	0.0626977004485159\\
7	0\\
8	0\\
9	0\\
10	0\\
11	0\\
12	0\\
13	0\\
14	0\\
15	0\\
16	0\\
17	0\\
18	0\\
19	0\\
20	0\\
};
\addlegendentry{data2}

\end{axis}

\begin{axis}[%
width=1.682in,
height=2.162in,
at={(2.509in,1.103in)},
scale only axis,
xmin=0,
xmax=20,
xlabel style={font=\color{white!15!black}, align=center},
xlabel={Sample Index\\[1ex]14},
ymin=0,
ymax=1,
ylabel style={font=\color{white!15!black}},
ylabel={Magnitude},
axis background/.style={fill=white},
legend style={legend cell align=left, align=left, draw=white!15!black}
]
\addplot [color=mycolor1]
  table[row sep=crcr]{%
1	0.152711986577686\\
2	0.12509161376053\\
3	0.043432529295633\\
4	0.731331427303306\\
5	0.25244770055398\\
6	0.543081646158766\\
7	0.199779304924294\\
8	0.093092008008697\\
9	0.0566368246701762\\
10	0.0585627545350386\\
11	0.0495003882422957\\
12	0.0422753061202834\\
13	0.037177944268067\\
14	0.0331855044052447\\
15	0.0299745813557745\\
16	0.0273354062339763\\
17	0.0251270361525077\\
18	0.0232514154939755\\
19	0.021638230385454\\
20	0.0202357372347416\\
};
\addlegendentry{data1}

\addplot [color=mycolor2]
  table[row sep=crcr]{%
1	0.0855700611995266\\
2	0.156077417786877\\
3	0.93257002268818\\
4	0.27364519222324\\
5	0.134711335197843\\
6	0.0748459885964363\\
7	0\\
8	0\\
9	0\\
10	0\\
11	0\\
12	0\\
13	0\\
14	0\\
15	0\\
16	0\\
17	0\\
18	0\\
19	0\\
20	0\\
};
\addlegendentry{data2}

\end{axis}

\begin{axis}[%
width=1.682in,
height=2.162in,
at={(4.722in,1.103in)},
scale only axis,
xmin=0,
xmax=20,
xlabel style={font=\color{white!15!black}, align=center},
xlabel={Sample Index\\[1ex]15},
ymin=0,
ymax=1,
ylabel style={font=\color{white!15!black}},
ylabel={Magnitude},
axis background/.style={fill=white},
legend style={legend cell align=left, align=left, draw=white!15!black}
]
\addplot [color=mycolor1]
  table[row sep=crcr]{%
1	0.0970977698196476\\
2	0.802324651373833\\
3	0.353762387428637\\
4	0.450361934469484\\
5	0.0974829058321744\\
6	0.0845588603585076\\
7	0.00846947650467189\\
8	0.0243434182304374\\
9	0.0198824876958636\\
10	0.0135381689483058\\
11	0.0180114754500831\\
12	0.0116095607709055\\
13	0.0103286106833969\\
14	0.00938948447370018\\
15	0.00862876219228428\\
16	0.00799018446931398\\
17	0.00744326344215403\\
18	0.00696826605428676\\
19	0.00655126985855037\\
20	0.00618195370132286\\
};
\addlegendentry{data1}

\addplot [color=mycolor2]
  table[row sep=crcr]{%
1	0.0710546438509426\\
2	0.135928685943841\\
3	0.925027936705207\\
4	0.329450137482504\\
5	0.0977760816652792\\
6	0.0519652865540743\\
7	0\\
8	0\\
9	0\\
10	0\\
11	0\\
12	0\\
13	0\\
14	0\\
15	0\\
16	0\\
17	0\\
18	0\\
19	0\\
20	0\\
};
\addlegendentry{data2}

\end{axis}

\begin{axis}[%
width=1.682in,
height=2.162in,
at={(6.935in,1.103in)},
scale only axis,
xmin=0,
xmax=20,
xlabel style={font=\color{white!15!black}, align=center},
xlabel={Sample Index\\[1ex]16},
ymin=0,
ymax=1,
ylabel style={font=\color{white!15!black}},
ylabel={Magnitude},
axis background/.style={fill=white},
legend style={legend cell align=left, align=left, draw=white!15!black}
]
\addplot [color=mycolor1]
  table[row sep=crcr]{%
1	0.130691796920449\\
2	0.702073167789248\\
3	0.277711548736196\\
4	0.516238267800687\\
5	0.333361320816163\\
6	0.124591651961052\\
7	0.0809374375856663\\
8	0.0548004872170802\\
9	0.0610951426988446\\
10	0.0385512454204547\\
11	0.0294061819092873\\
12	0.0289537792366183\\
13	0.0261240319208569\\
14	0.0237317601292864\\
15	0.0217255036185488\\
16	0.0200265579636125\\
17	0.0185716644914793\\
18	0.0173126548907667\\
19	0.0162128643559351\\
20	0.0152440844439518\\
};
\addlegendentry{data1}

\addplot [color=mycolor2]
  table[row sep=crcr]{%
1	0.0747425871222091\\
2	0.140740666661159\\
3	0.883303713063102\\
4	0.43375723273371\\
5	0.0624934844689843\\
6	0.0482637374962624\\
7	0\\
8	0\\
9	0\\
10	0\\
11	0\\
12	0\\
13	0\\
14	0\\
15	0\\
16	0\\
17	0\\
18	0\\
19	0\\
20	0\\
};
\addlegendentry{data2}

\end{axis}

\begin{axis}[%
width=1.682in,
height=2.162in,
at={(9.148in,1.103in)},
scale only axis,
xmin=0,
xmax=20,
xlabel style={font=\color{white!15!black}, align=center},
xlabel={Sample Index\\[1ex]17},
ymin=0,
ymax=1,
ylabel style={font=\color{white!15!black}},
ylabel={Magnitude},
axis background/.style={fill=white},
legend style={legend cell align=left, align=left, draw=white!15!black}
]
\addplot [color=mycolor1]
  table[row sep=crcr]{%
1	0.0758071301117089\\
2	0.775026544053596\\
3	0.385755448469781\\
4	0.460776101571994\\
5	0.0630761541730417\\
6	0.151320431203075\\
7	0.0641590564598271\\
8	0.0206575870296546\\
9	0.0123283160157029\\
10	0.0146036602996922\\
11	0.0160763697804336\\
12	0.0103583959775008\\
13	0.00879121346856722\\
14	0.00765985748876746\\
15	0.00678499169854576\\
16	0.00608555310136157\\
17	0.00551331297395463\\
18	0.00503664809573093\\
19	0.00463369938486283\\
20	0.00428880446733504\\
};
\addlegendentry{data1}

\addplot [color=mycolor2]
  table[row sep=crcr]{%
1	0.0949118844491651\\
2	0.16895584208531\\
3	0.945250893975904\\
4	0.167508560550075\\
5	0.179170921470261\\
6	0.0937286940869535\\
7	0\\
8	0\\
9	0\\
10	0\\
11	0\\
12	0\\
13	0\\
14	0\\
15	0\\
16	0\\
17	0\\
18	0\\
19	0\\
20	0\\
};
\addlegendentry{data2}

\end{axis}

\begin{axis}[%
width=1.682in,
height=2.162in,
at={(11.361in,1.103in)},
scale only axis,
xmin=0,
xmax=20,
xlabel style={font=\color{white!15!black}, align=center},
xlabel={Sample Index\\[1ex]18},
ymin=0,
ymax=1,
ylabel style={font=\color{white!15!black}},
ylabel={Magnitude},
axis background/.style={fill=white},
legend style={legend cell align=left, align=left, draw=white!15!black}
]
\addplot [color=mycolor1]
  table[row sep=crcr]{%
1	0.141447079488717\\
2	0.606062408278887\\
3	0.365638087784164\\
4	0.417837342216296\\
5	0.388246283547376\\
6	0.366340770669545\\
7	0.1046698121153\\
8	0.0571387349899267\\
9	0.040421912596078\\
10	0.0313236081916325\\
11	0.0186618071095158\\
12	0.0219163862718211\\
13	0.0196585571587266\\
14	0.0177355533977515\\
15	0.0161448631393882\\
16	0.0148165222525326\\
17	0.0136923960207609\\
18	0.0127290084781657\\
19	0.011894075231494\\
20	0.0111633376017596\\
};
\addlegendentry{data1}

\addplot [color=mycolor2]
  table[row sep=crcr]{%
1	0.094927303852252\\
2	0.169769993579086\\
3	0.919702615607124\\
4	0.297853379740718\\
5	0.143312266021601\\
6	0.0840179367379357\\
7	0\\
8	0\\
9	0\\
10	0\\
11	0\\
12	0\\
13	0\\
14	0\\
15	0\\
16	0\\
17	0\\
18	0\\
19	0\\
20	0\\
};
\addlegendentry{data2}

\end{axis}

\begin{axis}[%
width=1.682in,
height=2.162in,
at={(13.574in,1.103in)},
scale only axis,
xmin=0,
xmax=20,
xlabel style={font=\color{white!15!black}, align=center},
xlabel={Sample Index\\[1ex]19},
ymin=0,
ymax=1,
ylabel style={font=\color{white!15!black}},
ylabel={Magnitude},
axis background/.style={fill=white},
legend style={legend cell align=left, align=left, draw=white!15!black}
]
\addplot [color=mycolor1]
  table[row sep=crcr]{%
1	0.143957749090843\\
2	0.553820300589051\\
3	0.369873601822566\\
4	0.637378492333841\\
5	0.177238077065213\\
6	0.280277120929121\\
7	0.0788233002459594\\
8	0.0670622235401808\\
9	0.0653727241516117\\
10	0.0349636881707987\\
11	0.024904464040134\\
12	0.0243565702364465\\
13	0.0215886387684212\\
14	0.0193433541789675\\
15	0.0175197440199854\\
16	0.0160134384663872\\
17	0.0147487049004721\\
18	0.0136715506728911\\
19	0.0127428562976431\\
20	0.0119336774504751\\
};
\addlegendentry{data1}

\addplot [color=mycolor2]
  table[row sep=crcr]{%
1	0.092251538266482\\
2	0.165571287628429\\
3	0.906750922755772\\
4	0.342549404815141\\
5	0.134643145143743\\
6	0.0800605721231189\\
7	0\\
8	0\\
9	0\\
10	0\\
11	0\\
12	0\\
13	0\\
14	0\\
15	0\\
16	0\\
17	0\\
18	0\\
19	0\\
20	0\\
};
\addlegendentry{data2}

\end{axis}

\begin{axis}[%
width=1.682in,
height=2.162in,
at={(15.787in,1.103in)},
scale only axis,
xmin=0,
xmax=20,
xlabel style={font=\color{white!15!black}, align=center},
xlabel={Sample Index\\[1ex]20},
ymin=0,
ymax=1,
ylabel style={font=\color{white!15!black}},
ylabel={Magnitude},
axis background/.style={fill=white},
legend style={legend cell align=left, align=left, draw=white!15!black}
]
\addplot [color=mycolor1]
  table[row sep=crcr]{%
1	0.243249400754435\\
2	0.846600299697089\\
3	0.371960204599853\\
4	0.107326328249834\\
5	0.0878162640022432\\
6	0.202677868179941\\
7	0.0854508634233676\\
8	0.0764656214584257\\
9	0.0502879489545182\\
10	0.0419837808770888\\
11	0.0481476954213153\\
12	0.034697879103738\\
13	0.0307926691095399\\
14	0.0278233958184437\\
15	0.0254135535420279\\
16	0.0234030682895454\\
17	0.0216951521555777\\
18	0.0202240997350155\\
19	0.0189427349173953\\
20	0.0178159763198339\\
};
\addlegendentry{data1}

\addplot [color=mycolor2]
  table[row sep=crcr]{%
1	0.0886176238660754\\
2	0.16093020949489\\
3	0.907460357092308\\
4	0.355180484927471\\
5	0.107887908992211\\
6	0.0705060773135029\\
7	0\\
8	0\\
9	0\\
10	0\\
11	0\\
12	0\\
13	0\\
14	0\\
15	0\\
16	0\\
17	0\\
18	0\\
19	0\\
20	0\\
};
\addlegendentry{data2}

\end{axis}

\end{tikzpicture}%