% This file was created by matlab2tikz.
%
%The latest updates can be retrieved from
%  http://www.mathworks.com/matlabcentral/fileexchange/22022-matlab2tikz-matlab2tikz
%where you can also make suggestions and rate matlab2tikz.
%
\definecolor{mycolor1}{rgb}{0.00000,0.44700,0.74100}%
\definecolor{mycolor2}{rgb}{0.85000,0.32500,0.09800}%
%
\begin{tikzpicture}

\begin{axis}[%
width=1.682in,
height=2.162in,
at={(2.509in,7.109in)},
scale only axis,
xmin=0,
xmax=80,
xlabel style={font=\color{white!15!black}, align=center},
xlabel={Sample Index\\[1ex]0},
ymin=0,
ymax=1,
ylabel style={font=\color{white!15!black}},
ylabel={Magnitude},
axis background/.style={fill=white},
legend style={legend cell align=left, align=left, draw=white!15!black}
]
\addplot [color=mycolor1]
  table[row sep=crcr]{%
1	0.03779787543227\\
2	0.0462475539354079\\
3	0.0592576940785091\\
4	0.187400298877511\\
5	0.85558794174955\\
6	0.226596851017175\\
7	0.0515812735035188\\
8	0.218099051710185\\
9	0.125576456653208\\
10	0.0610553902205734\\
11	0.0508975489661783\\
12	0.137838892439231\\
13	0.122388455590278\\
14	0.093032670025101\\
15	0.11491752724963\\
16	0.149229416497687\\
17	0.0419476001154004\\
18	0.00901066528097305\\
19	0.0411922538265517\\
20	0.0419793385982133\\
21	0.0381661044989304\\
22	0.0629301624733476\\
23	0.0238926868419019\\
24	0.0217831908499106\\
25	0.0234142237516539\\
26	0.0686303736143729\\
27	0.0294901486667897\\
28	0.0131184325022556\\
29	0.0130424355198162\\
30	0.0135849633248382\\
31	0.0150237088088255\\
32	0.0197628712863086\\
33	0.0471837725291402\\
34	0.0182561044123485\\
35	0.00409578481616023\\
36	0.00244421020651849\\
37	0.00220122092297076\\
38	0.00186931345082889\\
39	0.00293741399442254\\
40	0.0147434760471382\\
41	0.0318766560040193\\
42	0.0130833997382145\\
43	0.00979458472949253\\
44	0.0083942368356842\\
45	0.00759247640106614\\
46	0.00705489997126561\\
47	0.00665711888819628\\
48	0.00634261765233824\\
49	0.00608214373932278\\
50	0.00585907752643397\\
51	0.00566328351222478\\
52	0.00548822243263574\\
53	0.00532947540073289\\
54	0.00518393764847662\\
55	0.00504935352197398\\
56	0.00492403590480181\\
57	0.00480669030675849\\
58	0.00469630086476341\\
59	0.00459205429613708\\
60	0.00449328785182296\\
61	0.00439945286853445\\
62	0.00431008871032111\\
63	0.00422480378347938\\
64	0.00414326146389958\\
65	0.00406516949856102\\
66	0.00399027190525634\\
67	0.00391834269659367\\
68	0.00384918095526274\\
69	0.00378260692357419\\
70	0.00371845886382931\\
71	0.00365659051136347\\
72	0.00359686898829608\\
73	0.00353917307911131\\
74	0.00348339179319234\\
75	0.00342942315702722\\
76	0.00337717319184291\\
77	0.00332655504218306\\
78	0.00327748822831923\\
79	0.00322989800100494\\
80	0.00318371478140558\\
};
\addlegendentry{data1}

\addplot [color=mycolor2]
  table[row sep=crcr]{%
1	0.00888048277411883\\
2	0.0098901131430276\\
3	0.0112077415611836\\
4	0.0130121122972716\\
5	0.0156495023292571\\
6	0.0198726220995943\\
7	0.0276097703988245\\
8	0.0453276450198285\\
9	0.112093908178035\\
10	0.654721400123978\\
11	0.133665653631909\\
12	0.117260491258005\\
13	0.102188583203914\\
14	0.639186722173445\\
15	0.301764987012919\\
16	0.086481166867793\\
17	0.0488200645653094\\
18	0.0335575316840385\\
19	0.025413277095659\\
20	0.0203929921005621\\
21	0.0170061150177769\\
22	0.0145746616647993\\
23	0.0127478365303586\\
24	0.0113267288050581\\
25	0.0101905114934534\\
26	0.00926172842629928\\
27	0.00848852577763809\\
28	0.00783492727744745\\
29	0\\
30	0\\
31	0\\
32	0\\
33	0\\
34	0\\
35	0\\
36	0\\
37	0\\
38	0\\
39	0\\
40	0\\
41	0\\
42	0\\
43	0\\
44	0\\
45	0\\
46	0\\
47	0\\
48	0\\
49	0\\
50	0\\
51	0\\
52	0\\
53	0\\
54	0\\
55	0\\
56	0\\
57	0\\
58	0\\
59	0\\
60	0\\
61	0\\
62	0\\
63	0\\
64	0\\
65	0\\
66	0\\
67	0\\
68	0\\
69	0\\
70	0\\
71	0\\
72	0\\
73	0\\
74	0\\
75	0\\
76	0\\
77	0\\
78	0\\
79	0\\
80	0\\
};
\addlegendentry{data2}

\end{axis}

\begin{axis}[%
width=1.682in,
height=2.162in,
at={(4.722in,7.109in)},
scale only axis,
xmin=0,
xmax=80,
xlabel style={font=\color{white!15!black}, align=center},
xlabel={Sample Index\\[1ex]1},
ymin=0,
ymax=0.8,
ylabel style={font=\color{white!15!black}},
ylabel={Magnitude},
axis background/.style={fill=white},
legend style={legend cell align=left, align=left, draw=white!15!black}
]
\addplot [color=mycolor1]
  table[row sep=crcr]{%
1	0.0144566617718523\\
2	0.0198743186696604\\
3	0.029931994067658\\
4	0.168124095878963\\
5	0.764755969595057\\
6	0.335628576047186\\
7	0.173491885396026\\
8	0.234913211504822\\
9	0.295331394258943\\
10	0.0143511434193669\\
11	0.0359627113719959\\
12	0.100663968801286\\
13	0.098536268858331\\
14	0.0341011017324478\\
15	0.0493548636141169\\
16	0.0725854248160324\\
17	0.00341419033107846\\
18	0.0397984397946057\\
19	0.210806979205688\\
20	0.0333171508560295\\
21	0.0143198819370455\\
22	0.0718160828920331\\
23	0.0243996875311462\\
24	0.0207118286965427\\
25	0.0246794374657637\\
26	0.0950574778988473\\
27	0.0424928040564843\\
28	0.00635237687324011\\
29	0.00193139705610363\\
30	0.0016173885434512\\
31	0.00294303359288474\\
32	0.00475458562379513\\
33	0.0569341031728711\\
34	0.0189840271525954\\
35	0.00561899166211037\\
36	0.00279444131069782\\
37	0.00192650909211861\\
38	0.00264464062692243\\
39	0.00536701643959787\\
40	0.0175610892094491\\
41	0.0274584597232076\\
42	0.00903422984788519\\
43	0.00575511074701161\\
44	0.00435608736874246\\
45	0.00356794807143658\\
46	0.00305635207074574\\
47	0.00269435050985792\\
48	0.00242290082504962\\
49	0.00221068896990649\\
50	0.00203949746513876\\
51	0.00189797311378781\\
52	0.00177865397642384\\
53	0.00167642342010654\\
54	0.00158764968178403\\
55	0.0015096798735918\\
56	0.00144052857609675\\
57	0.00137867872039927\\
58	0.00132295005459713\\
59	0.00127240978095058\\
60	0.00122631034034426\\
61	0.00118404515589384\\
62	0.00114511654634212\\
63	0.00110911206405957\\
64	0.00107568677736043\\
65	0.00104454981965729\\
66	0.0010154540492558\\
67	0.000988188009094828\\
68	0.000962569609061892\\
69	0.000938441113774162\\
70	0.000915665130527274\\
71	0.000894121371242731\\
72	0.000873704018986407\\
73	0.000854319570822299\\
74	0.000835885059003921\\
75	0.000818326574940436\\
76	0.00080157803718529\\
77	0.000785580157403899\\
78	0.000770279567970895\\
79	0.00075562808230124\\
80	0.000741582064792837\\
};
\addlegendentry{data1}

\addplot [color=mycolor2]
  table[row sep=crcr]{%
1	0.0218460520469274\\
2	0.0241629736501711\\
3	0.0270639662998934\\
4	0.030817895872105\\
5	0.0359000793262411\\
6	0.0432496265107303\\
7	0.0550589592628636\\
8	0.0781088325784058\\
9	0.151027832163875\\
10	0.574456972723894\\
11	0.0476998912144863\\
12	0.192502202205708\\
13	0.0471494126298517\\
14	0.679040236012758\\
15	0.321470183888807\\
16	0.109126366413704\\
17	0.0690844754244422\\
18	0.0515192694560917\\
19	0.0414423844395559\\
20	0.0348253055208754\\
21	0.0301116788316089\\
22	0.0265662811495077\\
23	0.0237937222558591\\
24	0.0215611466083207\\
25	0.0197218766419407\\
26	0.0181786034495541\\
27	0.0168640571109794\\
28	0.0157301498470435\\
29	0\\
30	0\\
31	0\\
32	0\\
33	0\\
34	0\\
35	0\\
36	0\\
37	0\\
38	0\\
39	0\\
40	0\\
41	0\\
42	0\\
43	0\\
44	0\\
45	0\\
46	0\\
47	0\\
48	0\\
49	0\\
50	0\\
51	0\\
52	0\\
53	0\\
54	0\\
55	0\\
56	0\\
57	0\\
58	0\\
59	0\\
60	0\\
61	0\\
62	0\\
63	0\\
64	0\\
65	0\\
66	0\\
67	0\\
68	0\\
69	0\\
70	0\\
71	0\\
72	0\\
73	0\\
74	0\\
75	0\\
76	0\\
77	0\\
78	0\\
79	0\\
80	0\\
};
\addlegendentry{data2}

\end{axis}

\begin{axis}[%
width=1.682in,
height=2.162in,
at={(6.935in,7.109in)},
scale only axis,
xmin=0,
xmax=80,
xlabel style={font=\color{white!15!black}, align=center},
xlabel={Sample Index\\[1ex]2},
ymin=0,
ymax=0.7,
ylabel style={font=\color{white!15!black}},
ylabel={Magnitude},
axis background/.style={fill=white},
legend style={legend cell align=left, align=left, draw=white!15!black}
]
\addplot [color=mycolor1]
  table[row sep=crcr]{%
1	0.0157594780657483\\
2	0.0202685846353714\\
3	0.0290940254355335\\
4	0.120282845991644\\
5	0.555139694969053\\
6	0.500778769346919\\
7	0.176723822620923\\
8	0.400137583293113\\
9	0.14302071483643\\
10	0.0826720756229756\\
11	0.0862663311744508\\
12	0.208129316196849\\
13	0.240665585899093\\
14	0.0908762885157286\\
15	0.185799611532505\\
16	0.0988038333312509\\
17	0.02519033565809\\
18	0.0308286851188688\\
19	0.0775443690234989\\
20	0.0440877246394034\\
21	0.0102148759391793\\
22	0.0821664013876835\\
23	0.0287308615856767\\
24	0.0248989650037533\\
25	0.0289457061034669\\
26	0.0759018627231344\\
27	0.117841556272086\\
28	0.0134385754893944\\
29	0.00404849890271622\\
30	0.0035605362131766\\
31	0.00677966909982391\\
32	0.0142412845455134\\
33	0.0650851159634884\\
34	0.0242719119097958\\
35	0.00775982736318645\\
36	0.00396691502172356\\
37	0.00282648964418397\\
38	0.00366788425235393\\
39	0.00680056800008567\\
40	0.020545261705106\\
41	0.0297810844650224\\
42	0.00908472990364832\\
43	0.00535902215959275\\
44	0.00374961646597231\\
45	0.00283356363756214\\
46	0.00223489469457576\\
47	0.00181011669461029\\
48	0.001492009068993\\
49	0.00124459926302268\\
50	0.00104674295342016\\
51	0.000885114604403677\\
52	0.000750853114978725\\
53	0.000637810389077133\\
54	0.000541571608790248\\
55	0.000458875676852042\\
56	0.000387256146695188\\
57	0.000324809937372213\\
58	0.000270043347122991\\
59	0.000221766580340628\\
60	0.000179019723696935\\
61	0.000141019731492159\\
62	0.000107121933518796\\
63	7.67922990816724e-05\\
64	4.95901940046684e-05\\
65	2.51804271203739e-05\\
66	4.28278140294851e-06\\
67	1.73905923318298e-05\\
68	3.53260860836195e-05\\
69	5.16810880240551e-05\\
70	6.65540754860294e-05\\
71	8.00865786309811e-05\\
72	9.24105870276978e-05\\
73	0.000103644237629709\\
74	0.000113892476812458\\
75	0.000123248483060244\\
76	0.000131795106485263\\
77	0.000139606167572067\\
78	0.000146747591165722\\
79	0.00015327838623822\\
80	0.000159251490111353\\
};
\addlegendentry{data1}

\addplot [color=mycolor2]
  table[row sep=crcr]{%
1	0.0219494435184605\\
2	0.0242696461416291\\
3	0.0271726698998167\\
4	0.0309258945626773\\
5	0.0360014339436296\\
6	0.0433308592576923\\
7	0.0550862962075668\\
8	0.0779802045388006\\
9	0.15026998305283\\
10	0.570918899530482\\
11	0.0608099868168586\\
12	0.668858419039145\\
13	0.0738364499552257\\
14	0.219427601239228\\
15	0.324012853963745\\
16	0.110438391539039\\
17	0.0698999559252422\\
18	0.0521020086218644\\
19	0.0418930799846149\\
20	0.035191623876303\\
21	0.0304196566144354\\
22	0.026831615976814\\
23	0.024026579542584\\
24	0.0217684738718787\\
25	0.019908625970432\\
26	0.0183484254647542\\
27	0.0170197182126089\\
28	0.0158737951142035\\
29	0\\
30	0\\
31	0\\
32	0\\
33	0\\
34	0\\
35	0\\
36	0\\
37	0\\
38	0\\
39	0\\
40	0\\
41	0\\
42	0\\
43	0\\
44	0\\
45	0\\
46	0\\
47	0\\
48	0\\
49	0\\
50	0\\
51	0\\
52	0\\
53	0\\
54	0\\
55	0\\
56	0\\
57	0\\
58	0\\
59	0\\
60	0\\
61	0\\
62	0\\
63	0\\
64	0\\
65	0\\
66	0\\
67	0\\
68	0\\
69	0\\
70	0\\
71	0\\
72	0\\
73	0\\
74	0\\
75	0\\
76	0\\
77	0\\
78	0\\
79	0\\
80	0\\
};
\addlegendentry{data2}

\end{axis}

\begin{axis}[%
width=1.682in,
height=2.162in,
at={(9.148in,7.109in)},
scale only axis,
xmin=0,
xmax=80,
xlabel style={font=\color{white!15!black}, align=center},
xlabel={Sample Index\\[1ex]3},
ymin=0,
ymax=0.7,
ylabel style={font=\color{white!15!black}},
ylabel={Magnitude},
axis background/.style={fill=white},
legend style={legend cell align=left, align=left, draw=white!15!black}
]
\addplot [color=mycolor1]
  table[row sep=crcr]{%
1	0.043871902716372\\
2	0.0566758926954945\\
3	0.0811394379041804\\
4	0.228684140422123\\
5	0.598417654440511\\
6	0.432032120380167\\
7	0.126124613259899\\
8	0.391656081127626\\
9	0.248732540929865\\
10	0.145089079593284\\
11	0.0956154116809543\\
12	0.249338236219773\\
13	0.0716609727965845\\
14	0.0691064902886082\\
15	0.00515530809464546\\
16	0.0906318204595097\\
17	0.0209985462768758\\
18	0.0493372666743971\\
19	0.112517163410399\\
20	0.0782407742297081\\
21	0.0420836437852349\\
22	0.0598936800321255\\
23	0.0098157519355897\\
24	0.00559409261199177\\
25	0.00789590002719382\\
26	0.0831964332601159\\
27	0.0730924786953976\\
28	0.0243880695464944\\
29	0.0205459926362635\\
30	0.0207372365116852\\
31	0.0243644010207535\\
32	0.0390893266597385\\
33	0.0580735326033163\\
34	0.033757952499399\\
35	0.0126187499648744\\
36	0.00847580574702742\\
37	0.00776874598759359\\
38	0.00861670772292248\\
39	0.0114741468430662\\
40	0.0249570586012283\\
41	0.0258484344901499\\
42	0.00539741413063069\\
43	0.00210327925363351\\
44	0.00128066045775239\\
45	0.00137982539182245\\
46	0.00163153764928765\\
47	0.0018447267072095\\
48	0.00200533957758452\\
49	0.00212346441857549\\
50	0.00220956314465177\\
51	0.00227165151722923\\
52	0.00231557274603981\\
53	0.00234558061820058\\
54	0.00236480806621605\\
55	0.00237559703107934\\
56	0.00237972442877099\\
57	0.00237855727427629\\
58	0.00237316046665931\\
59	0.00236437283884059\\
60	0.00235286167937041\\
61	0.00233916243090427\\
62	0.0023237080205268\\
63	0.00230685082525427\\
64	0.00228887932846456\\
65	0.00227003089587766\\
66	0.0022505016784945\\
67	0.00223045436278117\\
68	0.00221002428984696\\
69	0.00218932432618144\\
70	0.00216844876967225\\
71	0.00214747650356366\\
72	0.00212647355933682\\
73	0.00210549521150294\\
74	0.00208458769908856\\
75	0.00206378964744285\\
76	0.00204313324799738\\
77	0.00202264524140804\\
78	0.00200234774012621\\
79	0.00198225891918086\\
80	0.00196239359828736\\
};
\addlegendentry{data1}

\addplot [color=mycolor2]
  table[row sep=crcr]{%
1	0.0116510966098791\\
2	0.0128854376665064\\
3	0.0144483065335697\\
4	0.0165066192031747\\
5	0.0193712348130175\\
6	0.0236966029532119\\
7	0.0311279467051891\\
8	0.0471731870615581\\
9	0.105526937628004\\
10	0.564900709332578\\
11	0.118863851641622\\
12	0.619867684387906\\
13	0.0896696072945163\\
14	0.411572465319337\\
15	0.274842657262797\\
16	0.083945580667141\\
17	0.049605469617902\\
18	0.0353058797505181\\
19	0.0274729053063603\\
20	0.0225256090953731\\
21	0.0191135895151695\\
22	0.0166153229975684\\
23	0.0147051270728585\\
24	0.0131958984585435\\
25	0.0119724799769693\\
26	0.0109600903180787\\
27	0.0101080355334898\\
28	0.00938071896355204\\
29	0\\
30	0\\
31	0\\
32	0\\
33	0\\
34	0\\
35	0\\
36	0\\
37	0\\
38	0\\
39	0\\
40	0\\
41	0\\
42	0\\
43	0\\
44	0\\
45	0\\
46	0\\
47	0\\
48	0\\
49	0\\
50	0\\
51	0\\
52	0\\
53	0\\
54	0\\
55	0\\
56	0\\
57	0\\
58	0\\
59	0\\
60	0\\
61	0\\
62	0\\
63	0\\
64	0\\
65	0\\
66	0\\
67	0\\
68	0\\
69	0\\
70	0\\
71	0\\
72	0\\
73	0\\
74	0\\
75	0\\
76	0\\
77	0\\
78	0\\
79	0\\
80	0\\
};
\addlegendentry{data2}

\end{axis}

\begin{axis}[%
width=1.682in,
height=2.162in,
at={(11.361in,7.109in)},
scale only axis,
xmin=0,
xmax=80,
xlabel style={font=\color{white!15!black}, align=center},
xlabel={Sample Index\\[1ex]4},
ymin=0,
ymax=0.8,
ylabel style={font=\color{white!15!black}},
ylabel={Magnitude},
axis background/.style={fill=white},
legend style={legend cell align=left, align=left, draw=white!15!black}
]
\addplot [color=mycolor1]
  table[row sep=crcr]{%
1	0.0196983579879299\\
2	0.0218352816861851\\
3	0.0273350785976603\\
4	0.170494563361433\\
5	0.298558982369747\\
6	0.143369064583149\\
7	0.123886735561688\\
8	0.748569476732284\\
9	0.274743566692902\\
10	0.0881021542038241\\
11	0.034508462874644\\
12	0.0452838921261844\\
13	0.281954764488789\\
14	0.0572536344224957\\
15	0.189851055058577\\
16	0.135673329981941\\
17	0.0457358740248632\\
18	0.0672216595291429\\
19	0.127159063852329\\
20	0.0761608625011048\\
21	0.0488040372876075\\
22	0.0611451103359251\\
23	0.0235066236646955\\
24	0.0178125683323024\\
25	0.0131637071587114\\
26	0.0335917682244421\\
27	0.104358631351567\\
28	0.0311862444647869\\
29	0.0237748130230168\\
30	0.021138314825164\\
31	0.0210608846688142\\
32	0.0278551286387473\\
33	0.0690713888168809\\
34	0.027371027885234\\
35	0.0134613869809613\\
36	0.0103952055136512\\
37	0.00857584541618916\\
38	0.00671571463483606\\
39	0.00388115245604085\\
40	0.0100756054187436\\
41	0.0351488028806436\\
42	0.0165071539551475\\
43	0.0130080310435442\\
44	0.0113909250132722\\
45	0.0103917351759204\\
46	0.00967790475770139\\
47	0.00912299659746878\\
48	0.00866793741243898\\
49	0.00828113142333511\\
50	0.00794396147414402\\
51	0.00764462379051521\\
52	0.00737519088741339\\
53	0.00713008546172674\\
54	0.00690523090564169\\
55	0.0066975511199489\\
56	0.00650466186015689\\
57	0.00632467253378822\\
58	0.0061560544793\\
59	0.00599755076711897\\
60	0.00584811278411581\\
61	0.00570685459306872\\
62	0.00557301939101678\\
63	0.00544595439193777\\
64	0.00532509169647364\\
65	0.00520993349626892\\
66	0.00510004047007879\\
67	0.00499502256675213\\
68	0.00489453159868405\\
69	0.00479825522658809\\
70	0.00470591202644136\\
71	0.00461724740757862\\
72	0.00453203020718127\\
73	0.00445004982745681\\
74	0.00437111381212958\\
75	0.00429504578151618\\
76	0.00422168366255716\\
77	0.00415087816322395\\
78	0.00408249145075816\\
79	0.00401639600099869\\
80	0.00395247359216105\\
};
\addlegendentry{data1}

\addplot [color=mycolor2]
  table[row sep=crcr]{%
1	0.027669609314815\\
2	0.0305918601206414\\
3	0.0342485451193557\\
4	0.0389773003580652\\
5	0.045375153489521\\
6	0.0546225144445752\\
7	0.0694791506812604\\
8	0.0985025336949519\\
9	0.19063942875807\\
10	0.73415050184244\\
11	0.0734888649312066\\
12	0.311997554622219\\
13	0.066287960883267\\
14	0.28232432757863\\
15	0.41311773916729\\
16	0.140521156051731\\
17	0.0888383672980367\\
18	0.0661571679618284\\
19	0.0531553351091448\\
20	0.044626446538319\\
21	0.0385572523590238\\
22	0.0339965870523094\\
23	0.0304330861771111\\
24	0.0275657488353975\\
25	0.0252050881051103\\
26	0.0232254756854851\\
27	0.0215401204496266\\
28	0.020087018769315\\
29	0\\
30	0\\
31	0\\
32	0\\
33	0\\
34	0\\
35	0\\
36	0\\
37	0\\
38	0\\
39	0\\
40	0\\
41	0\\
42	0\\
43	0\\
44	0\\
45	0\\
46	0\\
47	0\\
48	0\\
49	0\\
50	0\\
51	0\\
52	0\\
53	0\\
54	0\\
55	0\\
56	0\\
57	0\\
58	0\\
59	0\\
60	0\\
61	0\\
62	0\\
63	0\\
64	0\\
65	0\\
66	0\\
67	0\\
68	0\\
69	0\\
70	0\\
71	0\\
72	0\\
73	0\\
74	0\\
75	0\\
76	0\\
77	0\\
78	0\\
79	0\\
80	0\\
};
\addlegendentry{data2}

\end{axis}

\begin{axis}[%
width=1.682in,
height=2.162in,
at={(13.574in,7.109in)},
scale only axis,
xmin=0,
xmax=80,
xlabel style={font=\color{white!15!black}, align=center},
xlabel={Sample Index\\[1ex]5},
ymin=0,
ymax=0.8,
ylabel style={font=\color{white!15!black}},
ylabel={Magnitude},
axis background/.style={fill=white},
legend style={legend cell align=left, align=left, draw=white!15!black}
]
\addplot [color=mycolor1]
  table[row sep=crcr]{%
1	0.0376721775363276\\
2	0.0503614245434032\\
3	0.0746984098077414\\
4	0.304415647099738\\
5	0.456731180099214\\
6	0.701231121666207\\
7	0.277206869580607\\
8	0.169007223518286\\
9	0.119893750765667\\
10	0.0136756682233342\\
11	0.0257107061184903\\
12	0.0482864012512595\\
13	0.0976624272946047\\
14	0.0448724304336398\\
15	0.141424726561564\\
16	0.0854102892357032\\
17	0.0445661307628971\\
18	0.0867100708817877\\
19	0.0585726733899692\\
20	0.0495568982411584\\
21	0.00243749496757597\\
22	0.0663019495962958\\
23	0.0212600903344105\\
24	0.0172955874115245\\
25	0.0205163241253005\\
26	0.0781345062997435\\
27	0.0638678463573918\\
28	0.00595946651706625\\
29	0.002447358023868\\
30	0.00548343144536688\\
31	0.0100427887004165\\
32	0.0219425105054251\\
33	0.0395351126242921\\
34	0.0306183972611339\\
35	0.013241258041864\\
36	0.00895515784640979\\
37	0.00734747012248206\\
38	0.00713937973057242\\
39	0.00874696085318315\\
40	0.018999267140663\\
41	0.0217388490163043\\
42	0.00565238789314005\\
43	0.00303382941450921\\
44	0.0020498206870024\\
45	0.00158003991557714\\
46	0.00133242140421815\\
47	0.00119627497959708\\
48	0.00112027140485122\\
49	0.00107786760124758\\
50	0.00105453808793271\\
51	0.00104207628525335\\
52	0.0010357455677905\\
53	0.0010327686700217\\
54	0.00103149968774897\\
55	0.001030959009362\\
56	0.00103056630637922\\
57	0.00102998400439094\\
58	0.00102902370253732\\
59	0.00102758921735396\\
60	0.00102564137042678\\
61	0.0010231759333434\\
62	0.00102020967447427\\
63	0.00101677147321635\\
64	0.00101289664727702\\
65	0.00100862334069076\\
66	0.00100399024566363\\
67	0.000999035193478501\\
68	0.000993794313770343\\
69	0.000988301565656786\\
70	0.000982588511224753\\
71	0.000976684245480643\\
72	0.000970615425549958\\
73	0.0009644063609357\\
74	0.000958079139364086\\
75	0.000951653771301053\\
76	0.000945148342004895\\
77	0.000938579163895935\\
78	0.000931960924685398\\
79	0.000925306828502499\\
80	0.000918628728476169\\
};
\addlegendentry{data1}

\addplot [color=mycolor2]
  table[row sep=crcr]{%
1	0.0144684103894435\\
2	0.0160822992998178\\
3	0.0181453195006532\\
4	0.0208909530824006\\
5	0.0247538757942323\\
6	0.0306443141092859\\
7	0.0408234387263301\\
8	0.0627199764621574\\
9	0.140755349630168\\
10	0.724027259280276\\
11	0.125496085250163\\
12	0.198701454453815\\
13	0.121905388502376\\
14	0.486955783442583\\
15	0.34727509281037\\
16	0.1028056439713\\
17	0.0597863521119239\\
18	0.0421696147393916\\
19	0.0326401801920954\\
20	0.0266771708420579\\
21	0.0225926989332741\\
22	0.0196170660226511\\
23	0.0173502653708766\\
24	0.0155641484756586\\
25	0.0141191666361399\\
26	0.0129251788394886\\
27	0.0119213534802733\\
28	0.0110651377282358\\
29	0\\
30	0\\
31	0\\
32	0\\
33	0\\
34	0\\
35	0\\
36	0\\
37	0\\
38	0\\
39	0\\
40	0\\
41	0\\
42	0\\
43	0\\
44	0\\
45	0\\
46	0\\
47	0\\
48	0\\
49	0\\
50	0\\
51	0\\
52	0\\
53	0\\
54	0\\
55	0\\
56	0\\
57	0\\
58	0\\
59	0\\
60	0\\
61	0\\
62	0\\
63	0\\
64	0\\
65	0\\
66	0\\
67	0\\
68	0\\
69	0\\
70	0\\
71	0\\
72	0\\
73	0\\
74	0\\
75	0\\
76	0\\
77	0\\
78	0\\
79	0\\
80	0\\
};
\addlegendentry{data2}

\end{axis}

\begin{axis}[%
width=1.682in,
height=2.162in,
at={(15.787in,7.109in)},
scale only axis,
xmin=0,
xmax=80,
xlabel style={font=\color{white!15!black}, align=center},
xlabel={Sample Index\\[1ex]6},
ymin=0,
ymax=0.7,
ylabel style={font=\color{white!15!black}},
ylabel={Magnitude},
axis background/.style={fill=white},
legend style={legend cell align=left, align=left, draw=white!15!black}
]
\addplot [color=mycolor1]
  table[row sep=crcr]{%
1	0.0308991626227848\\
2	0.0445605095027884\\
3	0.0755740960482431\\
4	0.203424725671248\\
5	0.598401663594888\\
6	0.544888410456215\\
7	0.140034205540306\\
8	0.415670223255232\\
9	0.10056688190429\\
10	0.0424421341526825\\
11	0.0107664570329858\\
12	0.120234498795169\\
13	0.00987229519725504\\
14	0.0786399788082917\\
15	0.142861175964788\\
16	0.0397929116567833\\
17	0.0167207098685287\\
18	0.0540977952585446\\
19	0.143300299982624\\
20	0.0495123366905323\\
21	0.0352440622915723\\
22	0.0556162290460371\\
23	0.013312371987197\\
24	0.0116202434275209\\
25	0.0150423791730015\\
26	0.0793684675956981\\
27	0.0399105127645006\\
28	0.00262393371885476\\
29	0.00151561256997492\\
30	0.00322902544028617\\
31	0.00548529692334329\\
32	0.0117699682357395\\
33	0.0838218932251879\\
34	0.0181660203893694\\
35	0.00585604463925069\\
36	0.00349084580838794\\
37	0.0030260489082911\\
38	0.00379257961663713\\
39	0.00637973022813282\\
40	0.0184375987879465\\
41	0.0265998147752624\\
42	0.00827175209887484\\
43	0.00505304939995793\\
44	0.00370374479371335\\
45	0.00295914720190699\\
46	0.00248689035232124\\
47	0.002161067681392\\
48	0.00192323205815331\\
49	0.00174243020875879\\
50	0.00160067788622898\\
51	0.00148678507429199\\
52	0.00139341456769554\\
53	0.00131555342851971\\
54	0.00124966198188665\\
55	0.00119317274866177\\
56	0.00114418144604472\\
57	0.00110124890402348\\
58	0.00106326985467\\
59	0.00102938355668615\\
60	0.000998911439544648\\
61	0.000971312688150673\\
62	0.000946152030816246\\
63	0.000923076005555929\\
64	0.000901795227490215\\
65	0.000882070974510381\\
66	0.00086370492612138\\
67	0.000846531235076043\\
68	0.000830410345306214\\
69	0.000815224131099505\\
70	0.000800872045659662\\
71	0.000787268047659385\\
72	0.000774338132342182\\
73	0.000762018335946976\\
74	0.000750253113313422\\
75	0.000738994011637105\\
76	0.000728198580686261\\
77	0.000717829472905032\\
78	0.000707853696833414\\
79	0.000698241994951227\\
80	0.000688968322990363\\
};
\addlegendentry{data1}

\addplot [color=mycolor2]
  table[row sep=crcr]{%
1	0.0246821877382955\\
2	0.0272952098975534\\
3	0.0305670278450976\\
4	0.0348015415254711\\
5	0.0405368422679954\\
6	0.0488383837454978\\
7	0.0622009376478106\\
8	0.0883702492783525\\
9	0.171672736741692\\
10	0.664995188209355\\
11	0.0624915520343624\\
12	0.0391944848156364\\
13	0.0653182865452783\\
14	0.57131439570883\\
15	0.372104101588319\\
16	0.125899190831452\\
17	0.079404742926151\\
18	0.0590583650378471\\
19	0.0474174125264487\\
20	0.0397912920327994\\
21	0.0343695189787484\\
22	0.0302980537088728\\
23	0.0271183406088326\\
24	0.0245607492779752\\
25	0.0224556887287786\\
26	0.0206908018150404\\
27	0.0191885116558594\\
28	0.0178934244297148\\
29	0\\
30	0\\
31	0\\
32	0\\
33	0\\
34	0\\
35	0\\
36	0\\
37	0\\
38	0\\
39	0\\
40	0\\
41	0\\
42	0\\
43	0\\
44	0\\
45	0\\
46	0\\
47	0\\
48	0\\
49	0\\
50	0\\
51	0\\
52	0\\
53	0\\
54	0\\
55	0\\
56	0\\
57	0\\
58	0\\
59	0\\
60	0\\
61	0\\
62	0\\
63	0\\
64	0\\
65	0\\
66	0\\
67	0\\
68	0\\
69	0\\
70	0\\
71	0\\
72	0\\
73	0\\
74	0\\
75	0\\
76	0\\
77	0\\
78	0\\
79	0\\
80	0\\
};
\addlegendentry{data2}

\end{axis}

\begin{axis}[%
width=1.682in,
height=2.162in,
at={(2.509in,4.106in)},
scale only axis,
xmin=0,
xmax=80,
xlabel style={font=\color{white!15!black}, align=center},
xlabel={Sample Index\\[1ex]7},
ymin=0,
ymax=0.8,
ylabel style={font=\color{white!15!black}},
ylabel={Magnitude},
axis background/.style={fill=white},
legend style={legend cell align=left, align=left, draw=white!15!black}
]
\addplot [color=mycolor1]
  table[row sep=crcr]{%
1	0.0192880851716592\\
2	0.0214120807017258\\
3	0.0205918936619223\\
4	0.145971841880021\\
5	0.792861873666261\\
6	0.39596970528273\\
7	0.0658908446204683\\
8	0.246238295818774\\
9	0.189407273313131\\
10	0.0351564194626077\\
11	0.0140423724302437\\
12	0.122755248634859\\
13	0.06227678278467\\
14	0.0248774525268686\\
15	0.105655759016672\\
16	0.0860695099460795\\
17	0.0226683561815732\\
18	0.0341636026535061\\
19	0.149692577461643\\
20	0.0345326754391815\\
21	0.0355783563781091\\
22	0.0501464446761009\\
23	0.0026716265264277\\
24	0.0078646058814494\\
25	0.0144477957968816\\
26	0.0710881151466394\\
27	0.0950675794516722\\
28	0.0145148184050231\\
29	0.00793449933819823\\
30	0.00645788564337202\\
31	0.00756848548272201\\
32	0.0142937119181655\\
33	0.0711687707430742\\
34	0.0244098431162972\\
35	0.00973762716682223\\
36	0.00633865716294219\\
37	0.00480799876233841\\
38	0.00423228768910242\\
39	0.00556969696194429\\
40	0.0172833461556139\\
41	0.0298250965470981\\
42	0.0109251637123203\\
43	0.0076225908125629\\
44	0.0062178303418091\\
45	0.00541866462697149\\
46	0.00489013580501959\\
47	0.00450691463044716\\
48	0.00421141777268603\\
49	0.0039733945356562\\
50	0.00377536892082629\\
51	0.00360650107472059\\
52	0.00345968533766547\\
53	0.00333005322585531\\
54	0.00321414598999303\\
55	0.00310943092612618\\
56	0.00301400521281437\\
57	0.00292640735412588\\
58	0.00284549306631384\\
59	0.0027703511993439\\
60	0.00270024533185518\\
61	0.00263457229356086\\
62	0.00257283212537179\\
63	0.00251460593806135\\
64	0.00245953933279087\\
65	0.00240732980744823\\
66	0.00235771706512619\\
67	0.00231047546650416\\
68	0.00226540808710265\\
69	0.00222234199060717\\
70	0.00218112443404276\\
71	0.00214161979446264\\
72	0.00210370705970674\\
73	0.00206727776412309\\
74	0.00203223427825657\\
75	0.00199848838234399\\
76	0.00196596006904801\\
77	0.00193457653264963\\
78	0.0019042713108988\\
79	0.00187498355262974\\
80	0.00184665738959419\\
};
\addlegendentry{data1}

\addplot [color=mycolor2]
  table[row sep=crcr]{%
1	0.0138560121439271\\
2	0.0153609947189518\\
3	0.0172737653433643\\
4	0.0198025442766741\\
5	0.0233338737825823\\
6	0.0286765928124673\\
7	0.0378447017638094\\
8	0.0574948226154385\\
9	0.127783803650074\\
10	0.661051597713463\\
11	0.123451673780997\\
12	0.276767122552483\\
13	0.0985921621588026\\
14	0.563971253171821\\
15	0.31948274494717\\
16	0.0964607248677797\\
17	0.0567973301773099\\
18	0.0403805534711877\\
19	0.0314198065436926\\
20	0.0257718805335218\\
21	0.0218809907100898\\
22	0.0190335331170905\\
23	0.0168565881181199\\
24	0.0151363673449403\\
25	0.0137415020226315\\
26	0.0125867861988809\\
27	0.0116145097569266\\
28	0.01078417421005\\
29	0\\
30	0\\
31	0\\
32	0\\
33	0\\
34	0\\
35	0\\
36	0\\
37	0\\
38	0\\
39	0\\
40	0\\
41	0\\
42	0\\
43	0\\
44	0\\
45	0\\
46	0\\
47	0\\
48	0\\
49	0\\
50	0\\
51	0\\
52	0\\
53	0\\
54	0\\
55	0\\
56	0\\
57	0\\
58	0\\
59	0\\
60	0\\
61	0\\
62	0\\
63	0\\
64	0\\
65	0\\
66	0\\
67	0\\
68	0\\
69	0\\
70	0\\
71	0\\
72	0\\
73	0\\
74	0\\
75	0\\
76	0\\
77	0\\
78	0\\
79	0\\
80	0\\
};
\addlegendentry{data2}

\end{axis}

\begin{axis}[%
width=1.682in,
height=2.162in,
at={(4.722in,4.106in)},
scale only axis,
xmin=0,
xmax=80,
xlabel style={font=\color{white!15!black}, align=center},
xlabel={Sample Index\\[1ex]8},
ymin=0,
ymax=0.7,
ylabel style={font=\color{white!15!black}},
ylabel={Magnitude},
axis background/.style={fill=white},
legend style={legend cell align=left, align=left, draw=white!15!black}
]
\addplot [color=mycolor1]
  table[row sep=crcr]{%
1	0.0201458909280249\\
2	0.0260856036378515\\
3	0.0408488058155427\\
4	0.111687189368463\\
5	0.430859207885181\\
6	0.261226220557151\\
7	0.260650522798442\\
8	0.261728873135374\\
9	0.63971834155034\\
10	0.109270863604302\\
11	0.0930360474519425\\
12	0.199971916777347\\
13	0.0630943753217011\\
14	0.0497077237758307\\
15	0.0800348693446841\\
16	0.162500774139986\\
17	0.0594460227747789\\
18	0.0850435380750381\\
19	0.121940753677733\\
20	0.0448617277608163\\
21	0.0354613446710136\\
22	0.0654199801928987\\
23	0.0167833428325494\\
24	0.0144033835491791\\
25	0.0171710445179066\\
26	0.0457747966740399\\
27	0.140430732695703\\
28	0.0223607910615196\\
29	0.0118119874052229\\
30	0.00714234885121957\\
31	0.00324253287832713\\
32	0.0112598441515025\\
33	0.161564857376543\\
34	0.00321846694166808\\
35	0.00572661540877902\\
36	0.00526379836896196\\
37	0.00414902165706168\\
38	0.002617227021269\\
39	0.00224624098409892\\
40	0.0155802838652797\\
41	0.0352826438919372\\
42	0.0143400587940515\\
43	0.0105134029273364\\
44	0.00881177501741892\\
45	0.00780362474190682\\
46	0.00711242332974996\\
47	0.00659524774606026\\
48	0.00618552118081005\\
49	0.00584779419357187\\
50	0.00556130745383043\\
51	0.00531300313722682\\
52	0.00509419624606861\\
53	0.00489884555601318\\
54	0.00472259163605006\\
55	0.00456219087602779\\
56	0.0044151666655429\\
57	0.00427958579369502\\
58	0.00415391020736142\\
59	0.00403689581674076\\
60	0.00392752162642932\\
61	0.00382493896979235\\
62	0.00372843440546716\\
63	0.00363740210675259\\
64	0.00355132297957183\\
65	0.0034697486361486\\
66	0.00339228893045198\\
67	0.00331860214539703\\
68	0.00324838718132931\\
69	0.00318137727386616\\
70	0.00311733489398362\\
71	0.0030560475717931\\
72	0.00299732444914635\\
73	0.00294099341260463\\
74	0.00288689869250713\\
75	0.00283489883936061\\
76	0.00278486500796112\\
77	0.00273667949424694\\
78	0.00269023448107276\\
79	0.0026454309577532\\
80	0.00260217778497478\\
};
\addlegendentry{data1}

\addplot [color=mycolor2]
  table[row sep=crcr]{%
1	0.0247172215469925\\
2	0.0273207311580027\\
3	0.0305745895767417\\
4	0.0347751169412646\\
5	0.0404439345944009\\
6	0.048606542724344\\
7	0.0616438372871554\\
8	0.0868783167792864\\
9	0.165846845703781\\
10	0.613523306369289\\
11	0.0585776703132583\\
12	0.601380693208266\\
13	0.0526146347848591\\
14	0.226451924655858\\
15	0.353469359076768\\
16	0.122152734287983\\
17	0.0778465620017132\\
18	0.0582423216604857\\
19	0.0469354324483741\\
20	0.0394847001936328\\
21	0.0341646096210026\\
22	0.0301563673903138\\
23	0.027018070247943\\
24	0.0244887287452966\\
25	0.0224035673685916\\
26	0.0206530682547384\\
27	0.0191614071074114\\
28	0.0178743138495342\\
29	0\\
30	0\\
31	0\\
32	0\\
33	0\\
34	0\\
35	0\\
36	0\\
37	0\\
38	0\\
39	0\\
40	0\\
41	0\\
42	0\\
43	0\\
44	0\\
45	0\\
46	0\\
47	0\\
48	0\\
49	0\\
50	0\\
51	0\\
52	0\\
53	0\\
54	0\\
55	0\\
56	0\\
57	0\\
58	0\\
59	0\\
60	0\\
61	0\\
62	0\\
63	0\\
64	0\\
65	0\\
66	0\\
67	0\\
68	0\\
69	0\\
70	0\\
71	0\\
72	0\\
73	0\\
74	0\\
75	0\\
76	0\\
77	0\\
78	0\\
79	0\\
80	0\\
};
\addlegendentry{data2}

\end{axis}

\begin{axis}[%
width=1.682in,
height=2.162in,
at={(6.935in,4.106in)},
scale only axis,
xmin=0,
xmax=80,
xlabel style={font=\color{white!15!black}, align=center},
xlabel={Sample Index\\[1ex]9},
ymin=0,
ymax=0.7,
ylabel style={font=\color{white!15!black}},
ylabel={Magnitude},
axis background/.style={fill=white},
legend style={legend cell align=left, align=left, draw=white!15!black}
]
\addplot [color=mycolor1]
  table[row sep=crcr]{%
1	0.0874388651550585\\
2	0.1147719204648\\
3	0.1686306277257\\
4	0.275168423871508\\
5	0.148824929084922\\
6	0.665180133300191\\
7	0.243589577354784\\
8	0.278177311999171\\
9	0.301907148095013\\
10	0.111114863354978\\
11	0.0843918778304866\\
12	0.202812575889863\\
13	0.138458114681186\\
14	0.0296346754314369\\
15	0.103586315832745\\
16	0.093016136362258\\
17	0.0321527591000117\\
18	0.0119795133123045\\
19	0.240060199851218\\
20	0.0508954455597938\\
21	0.020982963083503\\
22	0.0783165722715342\\
23	0.0360115560907373\\
24	0.0286791833712719\\
25	0.0236803254151147\\
26	0.0110992801286268\\
27	0.0480628549242793\\
28	0.0273195407975181\\
29	0.0243928813773641\\
30	0.0230895857639746\\
31	0.0228029865632262\\
32	0.0247830818056393\\
33	0.0441181865077006\\
34	0.0183493142327427\\
35	0.0144760820462835\\
36	0.0146374285501497\\
37	0.0148823367018236\\
38	0.0154117854779337\\
39	0.016999769654629\\
40	0.0258026967314629\\
41	0.0150962928298026\\
42	0.00800114807485225\\
43	0.00873295424359034\\
44	0.00904667525459575\\
45	0.00913398497411689\\
46	0.00910998731040664\\
47	0.00902731758220161\\
48	0.00891226634841599\\
49	0.00877911264735037\\
50	0.00863612212421617\\
51	0.00848830788827212\\
52	0.00833881246718714\\
53	0.00818964900159407\\
54	0.00804212188087569\\
55	0.00789707681792595\\
56	0.00775505536631639\\
57	0.00761639351781224\\
58	0.00748128634108224\\
59	0.00734983133281619\\
60	0.0072220580540835\\
61	0.00709794871868971\\
62	0.00697745268782369\\
63	0.00686049678610881\\
64	0.00674699270688246\\
65	0.00663684236184184\\
66	0.00652994176152695\\
67	0.0064261838348837\\
68	0.00632546047589493\\
69	0.00622766402287266\\
70	0.00613268831875433\\
71	0.00604042946046562\\
72	0.00595078631673652\\
73	0.00586366087313145\\
74	0.00577895844807438\\
75	0.00569658781267587\\
76	0.00561646123906185\\
77	0.00553849449588105\\
78	0.00546260680514988\\
79	0.00538872077119836\\
80	0.00531676228990823\\
};
\addlegendentry{data1}

\addplot [color=mycolor2]
  table[row sep=crcr]{%
1	0.0229662796284066\\
2	0.0254014738160654\\
3	0.0284549887339699\\
4	0.032415494564063\\
5	0.0377974775299934\\
6	0.0456283647081958\\
7	0.0583403344181422\\
8	0.0835879673154856\\
9	0.165855686650092\\
10	0.688099677418609\\
11	0.0914459172419318\\
12	0.273936876747225\\
13	0.0751860910496685\\
14	0.473123002792302\\
15	0.370380824233941\\
16	0.122532716873237\\
17	0.0763991164684786\\
18	0.0564331492541371\\
19	0.0451053337027637\\
20	0.0377315901433172\\
21	0.032515018668429\\
22	0.0286127847850194\\
23	0.0255746519040303\\
24	0.023137074489837\\
25	0.0211349459803834\\
26	0.0194592607988612\\
27	0.0180349860250192\\
28	0.0168086883227978\\
29	0\\
30	0\\
31	0\\
32	0\\
33	0\\
34	0\\
35	0\\
36	0\\
37	0\\
38	0\\
39	0\\
40	0\\
41	0\\
42	0\\
43	0\\
44	0\\
45	0\\
46	0\\
47	0\\
48	0\\
49	0\\
50	0\\
51	0\\
52	0\\
53	0\\
54	0\\
55	0\\
56	0\\
57	0\\
58	0\\
59	0\\
60	0\\
61	0\\
62	0\\
63	0\\
64	0\\
65	0\\
66	0\\
67	0\\
68	0\\
69	0\\
70	0\\
71	0\\
72	0\\
73	0\\
74	0\\
75	0\\
76	0\\
77	0\\
78	0\\
79	0\\
80	0\\
};
\addlegendentry{data2}

\end{axis}

\begin{axis}[%
width=1.682in,
height=2.162in,
at={(9.148in,4.106in)},
scale only axis,
xmin=0,
xmax=80,
xlabel style={font=\color{white!15!black}, align=center},
xlabel={Sample Index\\[1ex]10},
ymin=0,
ymax=0.7,
ylabel style={font=\color{white!15!black}},
ylabel={Magnitude},
axis background/.style={fill=white},
legend style={legend cell align=left, align=left, draw=white!15!black}
]
\addplot [color=mycolor1]
  table[row sep=crcr]{%
1	0.0512709030698163\\
2	0.0659435950997865\\
3	0.0935763063443765\\
4	0.0374597728356994\\
5	0.110028975223237\\
6	0.567506132841233\\
7	0.28761516162171\\
8	0.384304958496228\\
9	0.309773014787371\\
10	0.0866188352403884\\
11	0.0911921618533047\\
12	0.196336110147983\\
13	0.277876485000876\\
14	0.0995123057348049\\
15	0.134649353987356\\
16	0.184104022648535\\
17	0.0802449764185786\\
18	0.142489741518901\\
19	0.189253655877503\\
20	0.103370330252978\\
21	0.0738266397531273\\
22	0.0464609836871119\\
23	0.0151316458789596\\
24	0.0204764966627212\\
25	0.0248204291600086\\
26	0.0984331390873535\\
27	0.0527160677664153\\
28	0.00939829321644651\\
29	0.0117886233532615\\
30	0.0131448257937495\\
31	0.0152474876820809\\
32	0.0256760423839884\\
33	0.17048746411453\\
34	0.0193819194921489\\
35	0.0126136389437465\\
36	0.0124074302083742\\
37	0.012912330476753\\
38	0.0142074368811552\\
39	0.0175633365725039\\
40	0.0334910449678056\\
41	0.0272526280697245\\
42	0.00315975755128049\\
43	0.00176172225288142\\
44	0.00306869459023928\\
45	0.0038003744520129\\
46	0.00421619331819294\\
47	0.00446007567931715\\
48	0.00460249745000894\\
49	0.00468118734295843\\
50	0.00471797958762491\\
51	0.00472630518450579\\
52	0.00471483053663629\\
53	0.00468936374748167\\
54	0.0046539176287414\\
55	0.00461133385836128\\
56	0.00456366562160627\\
57	0.00451242090627873\\
58	0.00445872209519221\\
59	0.00440341350406778\\
60	0.00434713555543871\\
61	0.00429037699562577\\
62	0.00423351232112953\\
63	0.00417682903365398\\
64	0.00412054777013437\\
65	0.00406483735853856\\
66	0.00400982620576503\\
67	0.00395561099832431\\
68	0.00390226341015963\\
69	0.00384983531609313\\
70	0.00379836287334509\\
71	0.00374786973773303\\
72	0.00369836961277358\\
73	0.00364986828052508\\
74	0.00360236522694488\\
75	0.00355585494793515\\
76	0.0035103280024407\\
77	0.00346577186407061\\
78	0.00342217161144348\\
79	0.00337951048884185\\
80	0.00333777036213982\\
};
\addlegendentry{data1}

\addplot [color=mycolor2]
  table[row sep=crcr]{%
1	0.00771361953254377\\
2	0.00857201561205201\\
3	0.00970393895227171\\
4	0.0112786535792299\\
5	0.0136315098808963\\
6	0.0175051492604266\\
7	0.0248260383022584\\
8	0.0420954802276698\\
9	0.108715934021944\\
10	0.668359690330157\\
11	0.146852976739873\\
12	0.502918202341591\\
13	0.109019105781629\\
14	0.379070999419503\\
15	0.307610472655695\\
16	0.0882225703221468\\
17	0.0495916163527412\\
18	0.0339053159749049\\
19	0.0255365069667591\\
20	0.0203854051831179\\
21	0.0169181389670984\\
22	0.01443576758163\\
23	0.0125762432108839\\
24	0.0111341621391265\\
25	0.00998474715243999\\
26	0.00904803924532333\\
27	0.00827054706501698\\
28	0.00761519478681193\\
29	0\\
30	0\\
31	0\\
32	0\\
33	0\\
34	0\\
35	0\\
36	0\\
37	0\\
38	0\\
39	0\\
40	0\\
41	0\\
42	0\\
43	0\\
44	0\\
45	0\\
46	0\\
47	0\\
48	0\\
49	0\\
50	0\\
51	0\\
52	0\\
53	0\\
54	0\\
55	0\\
56	0\\
57	0\\
58	0\\
59	0\\
60	0\\
61	0\\
62	0\\
63	0\\
64	0\\
65	0\\
66	0\\
67	0\\
68	0\\
69	0\\
70	0\\
71	0\\
72	0\\
73	0\\
74	0\\
75	0\\
76	0\\
77	0\\
78	0\\
79	0\\
80	0\\
};
\addlegendentry{data2}

\end{axis}

\begin{axis}[%
width=1.682in,
height=2.162in,
at={(11.361in,4.106in)},
scale only axis,
xmin=0,
xmax=80,
xlabel style={font=\color{white!15!black}, align=center},
xlabel={Sample Index\\[1ex]11},
ymin=0,
ymax=0.8,
ylabel style={font=\color{white!15!black}},
ylabel={Magnitude},
axis background/.style={fill=white},
legend style={legend cell align=left, align=left, draw=white!15!black}
]
\addplot [color=mycolor1]
  table[row sep=crcr]{%
1	0.064542361630344\\
2	0.086456715772625\\
3	0.133649021702235\\
4	0.26219140971107\\
5	0.487271043180331\\
6	0.143564125027096\\
7	0.258602085662039\\
8	0.273136008232017\\
9	0.274064074953318\\
10	0.0969281094899472\\
11	0.0769760452639885\\
12	0.0889011171683991\\
13	0.0698735550770857\\
14	0.135985726486114\\
15	0.275230271649107\\
16	0.170984249345059\\
17	0.00792367230951659\\
18	0.0743711499307242\\
19	0.410200323902997\\
20	0.0533769199602822\\
21	0.0547373141707675\\
22	0.103245793179514\\
23	0.0274681524926299\\
24	0.0224503140670573\\
25	0.0268591680590328\\
26	0.141881948481745\\
27	0.151659443717025\\
28	0.030935124308141\\
29	0.0205684342224628\\
30	0.0175375480538477\\
31	0.020090181021234\\
32	0.0417820015843036\\
33	0.148762554939376\\
34	0.0692238252147204\\
35	0.0366596771360304\\
36	0.028445024061431\\
37	0.0251264083493686\\
38	0.0243028014625693\\
39	0.0267587068228625\\
40	0.0457254457227265\\
41	0.0370461525022311\\
42	0.0100260494414281\\
43	0.0087084385229894\\
44	0.00871343495316191\\
45	0.00870583686187172\\
46	0.00862300310692723\\
47	0.00849071264093501\\
48	0.00833106314577392\\
49	0.00815788886063384\\
50	0.0079794423191682\\
51	0.00780060937357998\\
52	0.00762426936863654\\
53	0.00745209343685024\\
54	0.007285014791336\\
55	0.00712351042969851\\
56	0.00696777314094856\\
57	0.00681781845806584\\
58	0.00667355221890238\\
59	0.00653481379335627\\
60	0.00640140400222748\\
61	0.00627310324907827\\
62	0.0061496833074039\\
63	0.00603091494660656\\
64	0.00591657280341249\\
65	0.0058064384174599\\
66	0.0057003020384061\\
67	0.00559796361023292\\
68	0.00549923320609914\\
69	0.00540393109922308\\
70	0.00531188759629733\\
71	0.00522294271999998\\
72	0.00513694579989136\\
73	0.00505375501222362\\
74	0.00497323689623735\\
75	0.00489526586550674\\
76	0.004819723726636\\
77	0.0047464992132416\\
78	0.00467548754011125\\
79	0.00460658998032676\\
80	0.00453971346668059\\
};
\addlegendentry{data1}

\addplot [color=mycolor2]
  table[row sep=crcr]{%
1	0.00382257678894596\\
2	0.00405900874327419\\
3	0.00436505146665165\\
4	0.00481621899638242\\
5	0.00560531494713885\\
6	0.00724245251983995\\
7	0.0111401996125659\\
8	0.0220094846087171\\
9	0.0683196311496763\\
10	0.504905143678592\\
11	0.1375121485755\\
12	0.742673964840958\\
13	0.0652748112292666\\
14	0.323393312307768\\
15	0.228739867766011\\
16	0.0673014113518832\\
17	0.0383396498560039\\
18	0.0263822701284105\\
19	0.0199209814280665\\
20	0.0159067956332344\\
21	0.013186997914429\\
22	0.0112310668903004\\
23	0.00976169867105737\\
24	0.00862030863149479\\
25	0.00770989381388697\\
26	0.00696792610577108\\
27	0.00635236672573504\\
28	0.00583395671587389\\
29	0\\
30	0\\
31	0\\
32	0\\
33	0\\
34	0\\
35	0\\
36	0\\
37	0\\
38	0\\
39	0\\
40	0\\
41	0\\
42	0\\
43	0\\
44	0\\
45	0\\
46	0\\
47	0\\
48	0\\
49	0\\
50	0\\
51	0\\
52	0\\
53	0\\
54	0\\
55	0\\
56	0\\
57	0\\
58	0\\
59	0\\
60	0\\
61	0\\
62	0\\
63	0\\
64	0\\
65	0\\
66	0\\
67	0\\
68	0\\
69	0\\
70	0\\
71	0\\
72	0\\
73	0\\
74	0\\
75	0\\
76	0\\
77	0\\
78	0\\
79	0\\
80	0\\
};
\addlegendentry{data2}

\end{axis}

\begin{axis}[%
width=1.682in,
height=2.162in,
at={(13.574in,4.106in)},
scale only axis,
xmin=0,
xmax=80,
xlabel style={font=\color{white!15!black}, align=center},
xlabel={Sample Index\\[1ex]12},
ymin=0,
ymax=0.8,
ylabel style={font=\color{white!15!black}},
ylabel={Magnitude},
axis background/.style={fill=white},
legend style={legend cell align=left, align=left, draw=white!15!black}
]
\addplot [color=mycolor1]
  table[row sep=crcr]{%
1	0.0128980718265249\\
2	0.0155739903193101\\
3	0.0220105996697024\\
4	0.289206501538867\\
5	0.176444601520564\\
6	0.492334305603626\\
7	0.130352017946417\\
8	0.144531252427736\\
9	0.505119728089139\\
10	0.054391925017515\\
11	0.0629436048789651\\
12	0.273483107741707\\
13	0.185464791697496\\
14	0.118439220508261\\
15	0.194603747347708\\
16	0.108975992910654\\
17	0.067823793035697\\
18	0.15298007302017\\
19	0.197023812746704\\
20	0.0546866071732858\\
21	0.00409810570068459\\
22	0.108740558301207\\
23	0.0419767738098981\\
24	0.0382500302409776\\
25	0.0488467968001368\\
26	0.169029033672328\\
27	0.186376920568146\\
28	0.0324403658602316\\
29	0.0163014876928233\\
30	0.0113018163065006\\
31	0.0131536212402536\\
32	0.0296086359046349\\
33	0.0984076249984278\\
34	0.0488149872478446\\
35	0.0238062103601018\\
36	0.0175063963299443\\
37	0.0149785732643473\\
38	0.0144120975474084\\
39	0.0164673130277355\\
40	0.0315958694408117\\
41	0.0317627841121422\\
42	0.00811390469602077\\
43	0.00504599271539406\\
44	0.00417751425331386\\
45	0.00380932845925266\\
46	0.00358872228700643\\
47	0.00342303246426009\\
48	0.00328334282850891\\
49	0.00315913407586466\\
50	0.00304594551922613\\
51	0.00294154571337728\\
52	0.00284461214766594\\
53	0.0027542353284851\\
54	0.00266971809627746\\
55	0.00259048827980878\\
56	0.00251605746533061\\
57	0.00244599954163936\\
58	0.00237993819314476\\
59	0.00231753870345341\\
60	0.00225850200672384\\
61	0.00220256003208358\\
62	0.00214947187728987\\
63	0.00209902057118048\\
64	0.00205101028902921\\
65	0.00200526393568866\\
66	0.00196162103736182\\
67	0.00191993589716519\\
68	0.00188007597837072\\
69	0.00184192048513058\\
70	0.00180535911492141\\
71	0.00177029096049733\\
72	0.00173662354211563\\
73	0.00170427195334782\\
74	0.00167315810599808\\
75	0.00164321006156335\\
76	0.00161436143833958\\
77	0.00158655088472218\\
78	0.00155972161049949\\
79	0.00153382096902923\\
80	0.00150880008411721\\
};
\addlegendentry{data1}

\addplot [color=mycolor2]
  table[row sep=crcr]{%
1	0.0123945145929522\\
2	0.013747884717794\\
3	0.0154549458628685\\
4	0.0176847044857263\\
5	0.0207403240348808\\
6	0.0252307510605835\\
7	0.0326037929994326\\
8	0.0474245341734289\\
9	0.0961982656835492\\
10	0.412497625363326\\
11	0.0635787895665403\\
12	0.751299336830971\\
13	0.0816213686427552\\
14	0.432549100386512\\
15	0.209908168373678\\
16	0.0659512657160371\\
17	0.0403178691517952\\
18	0.0295309616352031\\
19	0.0235135753964059\\
20	0.0196363657008752\\
21	0.0169104068639022\\
22	0.0148789984647541\\
23	0.0133010712970657\\
24	0.0120367931078962\\
25	0.0109991636834194\\
26	0.0101310437827826\\
27	0.00939325762256428\\
28	0.00875799037939573\\
29	0\\
30	0\\
31	0\\
32	0\\
33	0\\
34	0\\
35	0\\
36	0\\
37	0\\
38	0\\
39	0\\
40	0\\
41	0\\
42	0\\
43	0\\
44	0\\
45	0\\
46	0\\
47	0\\
48	0\\
49	0\\
50	0\\
51	0\\
52	0\\
53	0\\
54	0\\
55	0\\
56	0\\
57	0\\
58	0\\
59	0\\
60	0\\
61	0\\
62	0\\
63	0\\
64	0\\
65	0\\
66	0\\
67	0\\
68	0\\
69	0\\
70	0\\
71	0\\
72	0\\
73	0\\
74	0\\
75	0\\
76	0\\
77	0\\
78	0\\
79	0\\
80	0\\
};
\addlegendentry{data2}

\end{axis}

\begin{axis}[%
width=1.682in,
height=2.162in,
at={(15.787in,4.106in)},
scale only axis,
xmin=0,
xmax=80,
xlabel style={font=\color{white!15!black}, align=center},
xlabel={Sample Index\\[1ex]13},
ymin=0,
ymax=0.7,
ylabel style={font=\color{white!15!black}},
ylabel={Magnitude},
axis background/.style={fill=white},
legend style={legend cell align=left, align=left, draw=white!15!black}
]
\addplot [color=mycolor1]
  table[row sep=crcr]{%
1	0.0132370656017101\\
2	0.0151305491698073\\
3	0.0185079235876837\\
4	0.212422405129723\\
5	0.680006437729876\\
6	0.360259460612766\\
7	0.166099196306924\\
8	0.313530997059323\\
9	0.32481482196605\\
10	0.0465610132187058\\
11	0.0504997060452181\\
12	0.128897607126242\\
13	0.168279175443674\\
14	0.104898559424205\\
15	0.118666144721758\\
16	0.0707534771754374\\
17	0.0283384174025387\\
18	0.0304899425821516\\
19	0.0836154160452002\\
20	0.0699876822991048\\
21	0.0328119886693527\\
22	0.076753606280265\\
23	0.0209135211179313\\
24	0.0131232290479117\\
25	0.00786059759000283\\
26	0.0403111062061403\\
27	0.0847721021204371\\
28	0.0123302963800578\\
29	0.00702768937746583\\
30	0.00488793772642329\\
31	0.00623079941240222\\
32	0.0195607480372814\\
33	0.12515449555545\\
34	0.0355665244390396\\
35	0.0188633317784729\\
36	0.0146535119215066\\
37	0.0129078990775464\\
38	0.0125121939172214\\
39	0.0141241120163285\\
40	0.0267026804970207\\
41	0.0285315420933443\\
42	0.00879993527855671\\
43	0.00634839086333374\\
44	0.00556433548376432\\
45	0.00516004522649384\\
46	0.00488266208819163\\
47	0.0046618799921209\\
48	0.00447283227963081\\
49	0.00430486084318806\\
50	0.0041525823842733\\
51	0.0040128666820128\\
52	0.00388367085092417\\
53	0.00376353758885464\\
54	0.00365135748571525\\
55	0.00354624617719448\\
56	0.00344747554002404\\
57	0.00335443220616236\\
58	0.00326659083878115\\
59	0.00318349589900022\\
60	0.00310474858913719\\
61	0.00302999712483993\\
62	0.00295892925265382\\
63	0.00289126634670455\\
64	0.00282675865615489\\
65	0.00276518141671029\\
66	0.00270633162716243\\
67	0.00265002534836646\\
68	0.00259609541960856\\
69	0.00254438951314116\\
70	0.00249476846592419\\
71	0.00244710484085867\\
72	0.00240128167962756\\
73	0.0023571914166873\\
74	0.00231473492967063\\
75	0.00227382070591753\\
76	0.0022343641083744\\
77	0.00219628672691511\\
78	0.00215951580340565\\
79	0.00212398372067927\\
80	0.00208962754710079\\
};
\addlegendentry{data1}

\addplot [color=mycolor2]
  table[row sep=crcr]{%
1	0.0184721579723874\\
2	0.0204384847662177\\
3	0.0229116646614498\\
4	0.0261340463416632\\
5	0.0305428677029564\\
6	0.0370246028166349\\
7	0.0477162495430368\\
8	0.0694824620536839\\
9	0.143016921709124\\
10	0.651577863975848\\
11	0.109685899542769\\
12	0.593069724851965\\
13	0.0956863124400321\\
14	0.184548756017487\\
15	0.336120263628552\\
16	0.107488096839504\\
17	0.0656631302336682\\
18	0.0478772230825374\\
19	0.0379321911136168\\
20	0.0315332852088612\\
21	0.0270479413200995\\
22	0.0237174138621723\\
23	0.0211398889538076\\
24	0.0190820261992125\\
25	0.0173986841374098\\
26	0.0159946490733871\\
27	0.0148047537226664\\
28	0.0137828250276307\\
29	0\\
30	0\\
31	0\\
32	0\\
33	0\\
34	0\\
35	0\\
36	0\\
37	0\\
38	0\\
39	0\\
40	0\\
41	0\\
42	0\\
43	0\\
44	0\\
45	0\\
46	0\\
47	0\\
48	0\\
49	0\\
50	0\\
51	0\\
52	0\\
53	0\\
54	0\\
55	0\\
56	0\\
57	0\\
58	0\\
59	0\\
60	0\\
61	0\\
62	0\\
63	0\\
64	0\\
65	0\\
66	0\\
67	0\\
68	0\\
69	0\\
70	0\\
71	0\\
72	0\\
73	0\\
74	0\\
75	0\\
76	0\\
77	0\\
78	0\\
79	0\\
80	0\\
};
\addlegendentry{data2}

\end{axis}

\begin{axis}[%
width=1.682in,
height=2.162in,
at={(2.509in,1.103in)},
scale only axis,
xmin=0,
xmax=80,
xlabel style={font=\color{white!15!black}, align=center},
xlabel={Sample Index\\[1ex]14},
ymin=0,
ymax=0.8,
ylabel style={font=\color{white!15!black}},
ylabel={Magnitude},
axis background/.style={fill=white},
legend style={legend cell align=left, align=left, draw=white!15!black}
]
\addplot [color=mycolor1]
  table[row sep=crcr]{%
1	0.0530865417885459\\
2	0.0682826571605452\\
3	0.098358976153789\\
4	0.204807629292399\\
5	0.347293810817727\\
6	0.231712729722235\\
7	0.141553560515598\\
8	0.445254672523376\\
9	0.500144812547369\\
10	0.127813229618202\\
11	0.103567923798506\\
12	0.174721018041115\\
13	0.128521283201969\\
14	0.0776299011638831\\
15	0.3768974846839\\
16	0.14271324311666\\
17	0.0190152412963323\\
18	0.0125638598311725\\
19	0.137590266864329\\
20	0.0986937653012052\\
21	0.0621295290774858\\
22	0.0753947867520203\\
23	0.0253117592582261\\
24	0.0225692977533892\\
25	0.0229012778921252\\
26	0.0598058709568644\\
27	0.0482682865950164\\
28	0.0180559734837829\\
29	0.0172110173695089\\
30	0.0178517062116888\\
31	0.0201323678685942\\
32	0.0279488187976406\\
33	0.0518457796025975\\
34	0.0272325795413842\\
35	0.00640496937730803\\
36	0.00244953783189666\\
37	0.00156134257909351\\
38	0.00205968770418037\\
39	0.00507738464831223\\
40	0.0213671772821621\\
41	0.0411212126001434\\
42	0.0159401915909699\\
43	0.0115769734167396\\
44	0.00975093693759405\\
45	0.00872706486098263\\
46	0.00805524616232\\
47	0.00756819062100882\\
48	0.00719006443826766\\
49	0.0068817588457221\\
50	0.0066211631598917\\
51	0.00639487464968863\\
52	0.00619430743099828\\
53	0.00601370619598253\\
54	0.00584906288052877\\
55	0.00569749315119649\\
56	0.00555686112624254\\
57	0.00542554477470876\\
58	0.00530228438843541\\
59	0.00518608187699586\\
60	0.00507613212879301\\
61	0.00497177516089173\\
62	0.00487246207593725\\
63	0.00477773039023146\\
64	0.00468718584820186\\
65	0.00460048880746059\\
66	0.00451734389768632\\
67	0.00443749206015024\\
68	0.00436070434277966\\
69	0.00428677700675805\\
70	0.00421552762495048\\
71	0.00414679193898502\\
72	0.0040804213029009\\
73	0.00401628058491824\\
74	0.00395424643045743\\
75	0.00389420581260407\\
76	0.0038360548132716\\
77	0.00377969759103055\\
78	0.00372504550115117\\
79	0.00367201634068286\\
80	0.00362053369696854\\
};
\addlegendentry{data1}

\addplot [color=mycolor2]
  table[row sep=crcr]{%
1	0.00405416874624309\\
2	0.00436781402605122\\
3	0.00477608871354981\\
4	0.00535790008358855\\
5	0.00629579443443131\\
6	0.00804827128337936\\
7	0.0118912985345184\\
8	0.0222063732536309\\
9	0.0657012329085881\\
10	0.470995520653766\\
11	0.126361372455524\\
12	0.713517522800746\\
13	0.066134180547509\\
14	0.436830961773785\\
15	0.213961989294054\\
16	0.0628125770803526\\
17	0.0357642869807047\\
18	0.0246191455072307\\
19	0.0186041849319586\\
20	0.0148697231520154\\
21	0.0123400553485638\\
22	0.0105207649235903\\
23	0.00915370444612447\\
24	0.00809137375241856\\
25	0.00724361094063999\\
26	0.00655232682418315\\
27	0.00597848084540371\\
28	0.00549490706477779\\
29	0\\
30	0\\
31	0\\
32	0\\
33	0\\
34	0\\
35	0\\
36	0\\
37	0\\
38	0\\
39	0\\
40	0\\
41	0\\
42	0\\
43	0\\
44	0\\
45	0\\
46	0\\
47	0\\
48	0\\
49	0\\
50	0\\
51	0\\
52	0\\
53	0\\
54	0\\
55	0\\
56	0\\
57	0\\
58	0\\
59	0\\
60	0\\
61	0\\
62	0\\
63	0\\
64	0\\
65	0\\
66	0\\
67	0\\
68	0\\
69	0\\
70	0\\
71	0\\
72	0\\
73	0\\
74	0\\
75	0\\
76	0\\
77	0\\
78	0\\
79	0\\
80	0\\
};
\addlegendentry{data2}

\end{axis}

\begin{axis}[%
width=1.682in,
height=2.162in,
at={(4.722in,1.103in)},
scale only axis,
xmin=0,
xmax=80,
xlabel style={font=\color{white!15!black}, align=center},
xlabel={Sample Index\\[1ex]15},
ymin=0,
ymax=0.7,
ylabel style={font=\color{white!15!black}},
ylabel={Magnitude},
axis background/.style={fill=white},
legend style={legend cell align=left, align=left, draw=white!15!black}
]
\addplot [color=mycolor1]
  table[row sep=crcr]{%
1	0.0452869071254057\\
2	0.060137088738988\\
3	0.09133381166557\\
4	0.269857205711651\\
5	0.531432967244043\\
6	0.148341025385676\\
7	0.154952713570828\\
8	0.36209184877405\\
9	0.587170848389832\\
10	0.124788981454721\\
11	0.119127975461454\\
12	0.106967703922452\\
13	0.109962295477705\\
14	0.0470394868757378\\
15	0.0804483092236829\\
16	0.0834511491895155\\
17	0.0164146761085138\\
18	0.0299729248100277\\
19	0.133738165835165\\
20	0.0407065109480624\\
21	0.0251686888595127\\
22	0.0668749509085103\\
23	0.0178443093223051\\
24	0.0113287949840132\\
25	0.00869584297476786\\
26	0.0552126618541162\\
27	0.0555709085068391\\
28	0.0191206473381475\\
29	0.0142550621397393\\
30	0.0118800269058349\\
31	0.0103192417671178\\
32	0.0096743085541651\\
33	0.0530620814415665\\
34	0.0272253881930295\\
35	0.0140681226332512\\
36	0.0113692615119726\\
37	0.0102181910936035\\
38	0.00980320119082998\\
39	0.0106688506602648\\
40	0.0206449274260428\\
41	0.0289528447553222\\
42	0.0114637399866411\\
43	0.00889890626452117\\
44	0.00787904994125601\\
45	0.00728915573855183\\
46	0.00687548046168809\\
47	0.00655261239709891\\
48	0.00628427052021877\\
49	0.00605238646167345\\
50	0.00584684530130622\\
51	0.00566145250645879\\
52	0.00549213625158281\\
53	0.00533606392178284\\
54	0.00519117242481732\\
55	0.00505590178335226\\
56	0.00492903557191818\\
57	0.00480960080395187\\
58	0.00469680255050603\\
59	0.00458997972533271\\
60	0.004488574255281\\
61	0.00439210899626666\\
62	0.00430017153156146\\
63	0.00421240203051475\\
64	0.00412848397615533\\
65	0.00404813696280747\\
66	0.00397111101596511\\
67	0.00389718205108319\\
68	0.00382614819795224\\
69	0.00375782679240137\\
70	0.00369205188925253\\
71	0.00362867218732486\\
72	0.00356754928376381\\
73	0.00350855619424315\\
74	0.00345157608981651\\
75	0.00339650121182567\\
76	0.00334323193430682\\
77	0.0032916759494789\\
78	0.003241747556637\\
79	0.00319336703846501\\
80	0.00314646011169028\\
};
\addlegendentry{data1}

\addplot [color=mycolor2]
  table[row sep=crcr]{%
1	0.00436529031526411\\
2	0.00462651778950254\\
3	0.00494209258071564\\
4	0.00536419686689669\\
5	0.00603618892617245\\
6	0.00738087256504495\\
7	0.0107066548556711\\
8	0.0205934585425042\\
9	0.0645722633570222\\
10	0.489894099515979\\
11	0.136771741243049\\
12	0.655739497623369\\
13	0.044701220587284\\
14	0.49629132968436\\
15	0.223522652403312\\
16	0.0671475499843273\\
17	0.0387748673657656\\
18	0.0269416163055047\\
19	0.0204938812328119\\
20	0.0164602422013645\\
21	0.0137111652365923\\
22	0.01172415765846\\
23	0.0102248456721854\\
24	0.00905565722785812\\
25	0.00811983658350479\\
26	0.00735479405261995\\
27	0.00671831212101962\\
28	0.00618091872176527\\
29	0\\
30	0\\
31	0\\
32	0\\
33	0\\
34	0\\
35	0\\
36	0\\
37	0\\
38	0\\
39	0\\
40	0\\
41	0\\
42	0\\
43	0\\
44	0\\
45	0\\
46	0\\
47	0\\
48	0\\
49	0\\
50	0\\
51	0\\
52	0\\
53	0\\
54	0\\
55	0\\
56	0\\
57	0\\
58	0\\
59	0\\
60	0\\
61	0\\
62	0\\
63	0\\
64	0\\
65	0\\
66	0\\
67	0\\
68	0\\
69	0\\
70	0\\
71	0\\
72	0\\
73	0\\
74	0\\
75	0\\
76	0\\
77	0\\
78	0\\
79	0\\
80	0\\
};
\addlegendentry{data2}

\end{axis}

\begin{axis}[%
width=1.682in,
height=2.162in,
at={(6.935in,1.103in)},
scale only axis,
xmin=0,
xmax=80,
xlabel style={font=\color{white!15!black}, align=center},
xlabel={Sample Index\\[1ex]16},
ymin=0,
ymax=0.7,
ylabel style={font=\color{white!15!black}},
ylabel={Magnitude},
axis background/.style={fill=white},
legend style={legend cell align=left, align=left, draw=white!15!black}
]
\addplot [color=mycolor1]
  table[row sep=crcr]{%
1	0.0396001939422937\\
2	0.0540565276658861\\
3	0.0826852527843532\\
4	0.185334608435615\\
5	0.354771240236296\\
6	0.399401581050407\\
7	0.210480602118198\\
8	0.407905401628749\\
9	0.503511748058212\\
10	0.137204430514907\\
11	0.136236583417717\\
12	0.0629741598382411\\
13	0.105529814437101\\
14	0.0396697731838348\\
15	0.126233075604605\\
16	0.0838471889974027\\
17	0.0853482290989171\\
18	0.19361413329995\\
19	0.10900738886321\\
20	0.102304422994128\\
21	0.0211419189987825\\
22	0.114154729614725\\
23	0.0350901602430048\\
24	0.0216716922049872\\
25	0.018008278358005\\
26	0.0810773748903203\\
27	0.126186659643943\\
28	0.0352190165281859\\
29	0.0258910432016717\\
30	0.0234189518697163\\
31	0.0250960697787114\\
32	0.0377709654257292\\
33	0.11799851861601\\
34	0.0325351684881743\\
35	0.0113755907694572\\
36	0.00754576436573839\\
37	0.00687197087740296\\
38	0.00779418412884808\\
39	0.0112398931614974\\
40	0.0286468438401496\\
41	0.0382952385693768\\
42	0.0115392692513172\\
43	0.00705296123465938\\
44	0.00527338290040448\\
45	0.00433944411517947\\
46	0.00376879282715711\\
47	0.0033834550937541\\
48	0.00310384654012625\\
49	0.00288967382372389\\
50	0.00271863829237996\\
51	0.00257752753521789\\
52	0.00245807068579237\\
53	0.00235484819555183\\
54	0.00226416812673825\\
55	0.00218342952232898\\
56	0.00211074544129057\\
57	0.00204471111306006\\
58	0.00198425653866134\\
59	0.00192854999072057\\
60	0.00187693315801299\\
61	0.00182887651520753\\
62	0.00178394794479246\\
63	0.00174179024026182\\
64	0.00170210468502728\\
65	0.00166463886699112\\
66	0.00162917749782382\\
67	0.00159553539831696\\
68	0.00156355206875568\\
69	0.00153308743535492\\
70	0.00150401848070107\\
71	0.00147623654675823\\
72	0.00144964515538893\\
73	0.00142415823132433\\
74	0.00139969864121843\\
75	0.00137619698327524\\
76	0.00135359057725037\\
77	0.00133182261600499\\
78	0.00131084144831165\\
79	0.00129059996906804\\
80	0.0012710550980053\\
};
\addlegendentry{data1}

\addplot [color=mycolor2]
  table[row sep=crcr]{%
1	0.0221523077347807\\
2	0.0244562140834388\\
3	0.0273314599144581\\
4	0.0310384763491324\\
5	0.0360374127634167\\
6	0.0432388466541453\\
7	0.0547799017593275\\
8	0.0773465066061344\\
9	0.14980957841564\\
10	0.604100574896964\\
11	0.0958165030421885\\
12	0.573429395262286\\
13	0.044726464058067\\
14	0.335218730887747\\
15	0.340081382973454\\
16	0.116621558283334\\
17	0.073714584669955\\
18	0.0548079163277091\\
19	0.043960817817273\\
20	0.0368490171868833\\
21	0.0317935594635682\\
22	0.0279993793220588\\
23	0.025038540178986\\
24	0.0226590480578746\\
25	0.0207022811667625\\
26	0.0190631165822099\\
27	0.0176689724647205\\
28	0.0164680329417387\\
29	0\\
30	0\\
31	0\\
32	0\\
33	0\\
34	0\\
35	0\\
36	0\\
37	0\\
38	0\\
39	0\\
40	0\\
41	0\\
42	0\\
43	0\\
44	0\\
45	0\\
46	0\\
47	0\\
48	0\\
49	0\\
50	0\\
51	0\\
52	0\\
53	0\\
54	0\\
55	0\\
56	0\\
57	0\\
58	0\\
59	0\\
60	0\\
61	0\\
62	0\\
63	0\\
64	0\\
65	0\\
66	0\\
67	0\\
68	0\\
69	0\\
70	0\\
71	0\\
72	0\\
73	0\\
74	0\\
75	0\\
76	0\\
77	0\\
78	0\\
79	0\\
80	0\\
};
\addlegendentry{data2}

\end{axis}

\begin{axis}[%
width=1.682in,
height=2.162in,
at={(9.148in,1.103in)},
scale only axis,
xmin=0,
xmax=80,
xlabel style={font=\color{white!15!black}, align=center},
xlabel={Sample Index\\[1ex]17},
ymin=0,
ymax=0.7,
ylabel style={font=\color{white!15!black}},
ylabel={Magnitude},
axis background/.style={fill=white},
legend style={legend cell align=left, align=left, draw=white!15!black}
]
\addplot [color=mycolor1]
  table[row sep=crcr]{%
1	0.0812092632138806\\
2	0.105073513491958\\
3	0.151097920630452\\
4	0.319186785996518\\
5	0.593467738228024\\
6	0.433427654389892\\
7	0.144587204016926\\
8	0.23009993057521\\
9	0.175425285697621\\
10	0.0724908524762789\\
11	0.0302015020452474\\
12	0.137126558306324\\
13	0.249994568237547\\
14	0.0687877778885773\\
15	0.0591166445866414\\
16	0.17800616275105\\
17	0.0764828564968887\\
18	0.124620348862772\\
19	0.166738206325199\\
20	0.0619946498077153\\
21	0.0194812018794711\\
22	0.102151116983708\\
23	0.0380356026483017\\
24	0.0295708666790375\\
25	0.0269842814159224\\
26	0.044852422840671\\
27	0.0555485388771459\\
28	0.0149830654084661\\
29	0.0117239423912451\\
30	0.00881358580925741\\
31	0.00451173941358474\\
32	0.00706179318350171\\
33	0.0511133464640781\\
34	0.0473032117765072\\
35	0.0253074523329841\\
36	0.0192094756680971\\
37	0.0156252695219033\\
38	0.012473620937389\\
39	0.00832039624010341\\
40	0.0116017236339146\\
41	0.0478086829787872\\
42	0.0235335255852427\\
43	0.0188840284632324\\
44	0.0166866961245503\\
45	0.0153050357431858\\
46	0.0143060702500071\\
47	0.0135235595047808\\
48	0.0128788792988427\\
49	0.012329421747101\\
50	0.011849756302506\\
51	0.011423568317735\\
52	0.011039788358913\\
53	0.0106905629015617\\
54	0.0103701137903928\\
55	0.0100740599597146\\
56	0.00979899471375056\\
57	0.00954221166304856\\
58	0.00930152093705282\\
59	0.00907512228347759\\
60	0.00886151518268722\\
61	0.00865943373341474\\
62	0.00846779853292092\\
63	0.00828568047688739\\
64	0.0081122730869777\\
65	0.00794687104921684\\
66	0.00778885334956665\\
67	0.00763766986278169\\
68	0.00749283057041255\\
69	0.00735389680537583\\
70	0.00722047407646809\\
71	0.00709220613762973\\
72	0.00696877004745107\\
73	0.00684987202359228\\
74	0.00673524394069633\\
75	0.00662464035331066\\
76	0.00651783595029368\\
77	0.00641462336627838\\
78	0.00631481129050289\\
79	0.0062182228247965\\
80	0.00612469405150812\\
};
\addlegendentry{data1}

\addplot [color=mycolor2]
  table[row sep=crcr]{%
1	0.0120184605139039\\
2	0.0132430893213548\\
3	0.0147737390151157\\
4	0.0167557276641604\\
5	0.0194535507064148\\
6	0.0234125524643017\\
7	0.0299844874049649\\
8	0.0436912623724756\\
9	0.0926624067022281\\
10	0.480662430269865\\
11	0.111620185805952\\
12	0.608845135085447\\
13	0.040751092021549\\
14	0.548941465227683\\
15	0.239945199832753\\
16	0.0771817768737237\\
17	0.0471134192879676\\
18	0.0342430325598986\\
19	0.027029373830005\\
20	0.02238871045508\\
21	0.0191408478348043\\
22	0.0167345586343835\\
23	0.014876985049941\\
24	0.0133977508928474\\
25	0.0121908001193325\\
26	0.0111865613416384\\
27	0.0103374454520827\\
28	0.0096097667459583\\
29	0\\
30	0\\
31	0\\
32	0\\
33	0\\
34	0\\
35	0\\
36	0\\
37	0\\
38	0\\
39	0\\
40	0\\
41	0\\
42	0\\
43	0\\
44	0\\
45	0\\
46	0\\
47	0\\
48	0\\
49	0\\
50	0\\
51	0\\
52	0\\
53	0\\
54	0\\
55	0\\
56	0\\
57	0\\
58	0\\
59	0\\
60	0\\
61	0\\
62	0\\
63	0\\
64	0\\
65	0\\
66	0\\
67	0\\
68	0\\
69	0\\
70	0\\
71	0\\
72	0\\
73	0\\
74	0\\
75	0\\
76	0\\
77	0\\
78	0\\
79	0\\
80	0\\
};
\addlegendentry{data2}

\end{axis}

\begin{axis}[%
width=1.682in,
height=2.162in,
at={(11.361in,1.103in)},
scale only axis,
xmin=0,
xmax=80,
xlabel style={font=\color{white!15!black}, align=center},
xlabel={Sample Index\\[1ex]18},
ymin=0,
ymax=0.7,
ylabel style={font=\color{white!15!black}},
ylabel={Magnitude},
axis background/.style={fill=white},
legend style={legend cell align=left, align=left, draw=white!15!black}
]
\addplot [color=mycolor1]
  table[row sep=crcr]{%
1	0.0393313604920601\\
2	0.0523215143087752\\
3	0.0792474656865814\\
4	0.256782727318348\\
5	0.386457909900008\\
6	0.22861195836163\\
7	0.110094949879863\\
8	0.503272907629298\\
9	0.424837469187715\\
10	0.115581708861901\\
11	0.0916763781750308\\
12	0.205178966425518\\
13	0.29172050428306\\
14	0.129046584942597\\
15	0.104371272165655\\
16	0.174414396894973\\
17	0.0539688249238022\\
18	0.0822029162303578\\
19	0.180677025506994\\
20	0.0496884452918381\\
21	0.0302066567788558\\
22	0.0627121259032454\\
23	0.0138604834195496\\
24	0.0108968217992495\\
25	0.0152587501241\\
26	0.0692910744081125\\
27	0.087567850998716\\
28	0.0215687999027762\\
29	0.0152567859704442\\
30	0.014057929812961\\
31	0.016095726211445\\
32	0.0266483770312608\\
33	0.0320987422649801\\
34	0.032630168785492\\
35	0.0130033654628671\\
36	0.00793406691135869\\
37	0.00524798112971855\\
38	0.00311627669061304\\
39	0.00240706650273751\\
40	0.0148815903603488\\
41	0.0330149305586969\\
42	0.0132290012498189\\
43	0.00959972052970974\\
44	0.00798766823343667\\
45	0.0070383378617093\\
46	0.00639345064899656\\
47	0.0059160952593486\\
48	0.0055420834509488\\
49	0.00523705906169691\\
50	0.00498083363837534\\
51	0.00476068997386571\\
52	0.00456817408375543\\
53	0.0043974193052532\\
54	0.00424420894536776\\
55	0.00410542223652643\\
56	0.00397869156259904\\
57	0.00386218209944225\\
58	0.00375444544191895\\
59	0.00365431959217988\\
60	0.00356085892133971\\
61	0.00347328404654525\\
62	0.0033909452634881\\
63	0.00331329540534231\\
64	0.00323986938378542\\
65	0.00317026854928132\\
66	0.00310414858193572\\
67	0.00304121000594721\\
68	0.00298119067923835\\
69	0.00292385978800493\\
70	0.00286901300060792\\
71	0.00281646852374851\\
72	0.00276606386755168\\
73	0.00271765317256373\\
74	0.00267110498583182\\
75	0.00262630039867019\\
76	0.002583131477838\\
77	0.00254149993636765\\
78	0.00250131600139092\\
79	0.00246249744488251\\
80	0.00242496874990945\\
};
\addlegendentry{data1}

\addplot [color=mycolor2]
  table[row sep=crcr]{%
1	0.0229237048721265\\
2	0.0253513129706532\\
3	0.0283875538323144\\
4	0.0323100473039908\\
5	0.0376071320474925\\
6	0.0452373293271847\\
7	0.0574193871757124\\
8	0.0809424528096706\\
9	0.154014447442714\\
10	0.554284568400456\\
11	0.0346531412613705\\
12	0.681912367605883\\
13	0.0634623456580023\\
14	0.227727590109905\\
15	0.321164492938354\\
16	0.110925501419341\\
17	0.0708113203829956\\
18	0.053068959233537\\
19	0.0428273122840509\\
20	0.0360704096363479\\
21	0.0312397649871245\\
22	0.027596062110335\\
23	0.024740200911778\\
24	0.0224363483159249\\
25	0.0205355102420742\\
26	0.0189385837729883\\
27	0.017576902607072\\
28	0.0164012825662968\\
29	0\\
30	0\\
31	0\\
32	0\\
33	0\\
34	0\\
35	0\\
36	0\\
37	0\\
38	0\\
39	0\\
40	0\\
41	0\\
42	0\\
43	0\\
44	0\\
45	0\\
46	0\\
47	0\\
48	0\\
49	0\\
50	0\\
51	0\\
52	0\\
53	0\\
54	0\\
55	0\\
56	0\\
57	0\\
58	0\\
59	0\\
60	0\\
61	0\\
62	0\\
63	0\\
64	0\\
65	0\\
66	0\\
67	0\\
68	0\\
69	0\\
70	0\\
71	0\\
72	0\\
73	0\\
74	0\\
75	0\\
76	0\\
77	0\\
78	0\\
79	0\\
80	0\\
};
\addlegendentry{data2}

\end{axis}

\begin{axis}[%
width=1.682in,
height=2.162in,
at={(13.574in,1.103in)},
scale only axis,
xmin=0,
xmax=80,
xlabel style={font=\color{white!15!black}, align=center},
xlabel={Sample Index\\[1ex]19},
ymin=0,
ymax=0.8,
ylabel style={font=\color{white!15!black}},
ylabel={Magnitude},
axis background/.style={fill=white},
legend style={legend cell align=left, align=left, draw=white!15!black}
]
\addplot [color=mycolor1]
  table[row sep=crcr]{%
1	0.0180105698669159\\
2	0.0243685893621148\\
3	0.0399837122309087\\
4	0.301064098304339\\
5	0.0860809113265265\\
6	0.563838212881333\\
7	0.221611739649067\\
8	0.417158529843165\\
9	0.0852997459558389\\
10	0.0864966851402266\\
11	0.0857839225588108\\
12	0.380936546293827\\
13	0.254684716442005\\
14	0.0987221033843097\\
15	0.0618391003260502\\
16	0.241959958054683\\
17	0.064266991224933\\
18	0.0545654793096169\\
19	0.0966491021675189\\
20	0.0625365073662699\\
21	0.036844170902944\\
22	0.0831615472674846\\
23	0.0208470525088652\\
24	0.0156015709981922\\
25	0.0170713156236737\\
26	0.0453181918976418\\
27	0.111626716120577\\
28	0.0197687807933141\\
29	0.0116016678699159\\
30	0.00880897231751668\\
31	0.00844456507381553\\
32	0.0134054835006193\\
33	0.0679744541281582\\
34	0.0341537674967141\\
35	0.0145995368931542\\
36	0.0101717434408346\\
37	0.00823173533590922\\
38	0.00752917801715141\\
39	0.00906939841425053\\
40	0.0238874530373338\\
41	0.0385449781156135\\
42	0.0139633618262983\\
43	0.00976001786727479\\
44	0.007983650353639\\
45	0.00696719437857088\\
46	0.00628654096827234\\
47	0.00578560320847927\\
48	0.00539353931686625\\
49	0.00507341067442927\\
50	0.00480393917706983\\
51	0.0045719107833826\\
52	0.00436862305157613\\
53	0.00418806876158567\\
54	0.00402593880328593\\
55	0.00387904209312567\\
56	0.00374495138302826\\
57	0.00362177796325557\\
58	0.00350802323812197\\
59	0.00340247792862676\\
60	0.00330415177679003\\
61	0.00321222336095998\\
62	0.00312600351694788\\
63	0.00304490817763942\\
64	0.00296843786789163\\
65	0.00289616199013578\\
66	0.00282770661684106\\
67	0.00276274488950093\\
68	0.00270098938211952\\
69	0.00264218596432123\\
70	0.00258610882271049\\
71	0.00253255638653997\\
72	0.00248134796650563\\
73	0.00243232096113463\\
74	0.00238532851883325\\
75	0.00234023756867304\\
76	0.00229692715181147\\
77	0.00225528699973744\\
78	0.00221521631649078\\
79	0.00217662273047997\\
80	0.00213942138813051\\
};
\addlegendentry{data1}

\addplot [color=mycolor2]
  table[row sep=crcr]{%
1	0.0217775858560645\\
2	0.0240494495734538\\
3	0.0268804469559635\\
4	0.0305206504615066\\
5	0.0354065727789335\\
6	0.04238762615582\\
7	0.0534119896402901\\
8	0.0743907396562694\\
9	0.138441169254256\\
10	0.478575988051938\\
11	0.054469530059919\\
12	0.780661363282432\\
13	0.00919776501351781\\
14	0.12680017483916\\
15	0.290543956229666\\
16	0.103973643480117\\
17	0.0672401019062563\\
18	0.0506919107146913\\
19	0.0410344505893513\\
20	0.0346195586893962\\
21	0.0300133126429242\\
22	0.0265287320752128\\
23	0.0237921393447162\\
24	0.0215814262652874\\
25	0.0197556307955959\\
26	0.0182206589722839\\
27	0.0169111324312671\\
28	0.015780117900355\\
29	0\\
30	0\\
31	0\\
32	0\\
33	0\\
34	0\\
35	0\\
36	0\\
37	0\\
38	0\\
39	0\\
40	0\\
41	0\\
42	0\\
43	0\\
44	0\\
45	0\\
46	0\\
47	0\\
48	0\\
49	0\\
50	0\\
51	0\\
52	0\\
53	0\\
54	0\\
55	0\\
56	0\\
57	0\\
58	0\\
59	0\\
60	0\\
61	0\\
62	0\\
63	0\\
64	0\\
65	0\\
66	0\\
67	0\\
68	0\\
69	0\\
70	0\\
71	0\\
72	0\\
73	0\\
74	0\\
75	0\\
76	0\\
77	0\\
78	0\\
79	0\\
80	0\\
};
\addlegendentry{data2}

\end{axis}

\begin{axis}[%
width=1.682in,
height=2.162in,
at={(15.787in,1.103in)},
scale only axis,
xmin=0,
xmax=80,
xlabel style={font=\color{white!15!black}, align=center},
xlabel={Sample Index\\[1ex]20},
ymin=0,
ymax=0.8,
ylabel style={font=\color{white!15!black}},
ylabel={Magnitude},
axis background/.style={fill=white},
legend style={legend cell align=left, align=left, draw=white!15!black}
]
\addplot [color=mycolor1]
  table[row sep=crcr]{%
1	0.0536442754868387\\
2	0.0682572371004999\\
3	0.0943447328053289\\
4	0.217849010045737\\
5	0.392817888685373\\
6	0.596153348463006\\
7	0.173950924008642\\
8	0.211148460077534\\
9	0.510517833362318\\
10	0.144188406447772\\
11	0.11439555081208\\
12	0.0586953542210044\\
13	0.0616310058594445\\
14	0.0530952121919833\\
15	0.112193416064081\\
16	0.0338881323641797\\
17	0.0146491969648297\\
18	0.0210724223800811\\
19	0.0416429013611981\\
20	0.0385877081953185\\
21	0.0255845906694196\\
22	0.0658533985951485\\
23	0.0205641058702796\\
24	0.017517193042528\\
25	0.019360250109025\\
26	0.052257682279582\\
27	0.0552200215261877\\
28	0.00993159154709793\\
29	0.00656272922361858\\
30	0.00596129842039872\\
31	0.00841210402558208\\
32	0.0227580324097567\\
33	0.106379583361752\\
34	0.0414024996515568\\
35	0.0230861604342347\\
36	0.018429100199678\\
37	0.0166077866346024\\
38	0.0162901042360874\\
39	0.0179927194804862\\
40	0.0295730370743614\\
41	0.0175338440952568\\
42	0.00183787144156464\\
43	0.00403042888303467\\
44	0.00494519774689081\\
45	0.00533553022168948\\
46	0.00549961127935771\\
47	0.00555150362929439\\
48	0.00554272208915513\\
49	0.00549936012203014\\
50	0.00543574733545168\\
51	0.00536023013404325\\
52	0.00527788701017928\\
53	0.00519190993591004\\
54	0.00510435282044925\\
55	0.0050165582044147\\
56	0.0049294109261037\\
57	0.00484349429727601\\
58	0.00475918914407069\\
59	0.00467673821888175\\
60	0.00459628900590478\\
61	0.00451792270090007\\
62	0.00444167414593386\\
63	0.00436754573024311\\
64	0.00429551719595478\\
65	0.00422555262167646\\
66	0.0041576054347078\\
67	0.00409162202952973\\
68	0.00402754439045526\\
69	0.00396531199607755\\
70	0.00390486320154122\\
71	0.00384613623851269\\
72	0.00378906993363451\\
73	0.00373360421871338\\
74	0.00367968048629686\\
75	0.00362724183022081\\
76	0.00357623320050837\\
77	0.0035266014945464\\
78	0.00347829560098354\\
79	0.00343126640872677\\
80	0.00338546679038365\\
};
\addlegendentry{data1}

\addplot [color=mycolor2]
  table[row sep=crcr]{%
1	0.00863677737593078\\
2	0.00977387644198541\\
3	0.0112618624276168\\
4	0.0132897631748107\\
5	0.0162075947211764\\
6	0.0207386025578617\\
7	0.0286401568249939\\
8	0.0455152809498273\\
9	0.103779092237483\\
10	0.507917201280311\\
11	0.0627356702743733\\
12	0.758539966308889\\
13	0.129891955167338\\
14	0.266114687577806\\
15	0.232322153356158\\
16	0.0611791339569566\\
17	0.0328297040065848\\
18	0.0219397028058212\\
19	0.0163847916830589\\
20	0.0130791620885692\\
21	0.0109064317966143\\
22	0.00937494615287\\
23	0.00823819368230305\\
24	0.00736042023359967\\
25	0.00666129568107714\\
26	0.00609048855678551\\
27	0.00561495498326014\\
28	0.00521214025239416\\
29	0\\
30	0\\
31	0\\
32	0\\
33	0\\
34	0\\
35	0\\
36	0\\
37	0\\
38	0\\
39	0\\
40	0\\
41	0\\
42	0\\
43	0\\
44	0\\
45	0\\
46	0\\
47	0\\
48	0\\
49	0\\
50	0\\
51	0\\
52	0\\
53	0\\
54	0\\
55	0\\
56	0\\
57	0\\
58	0\\
59	0\\
60	0\\
61	0\\
62	0\\
63	0\\
64	0\\
65	0\\
66	0\\
67	0\\
68	0\\
69	0\\
70	0\\
71	0\\
72	0\\
73	0\\
74	0\\
75	0\\
76	0\\
77	0\\
78	0\\
79	0\\
80	0\\
};
\addlegendentry{data2}

\end{axis}
\end{tikzpicture}%