% This file was created by matlab2tikz.
%
%The latest updates can be retrieved from
%  http://www.mathworks.com/matlabcentral/fileexchange/22022-matlab2tikz-matlab2tikz
%where you can also make suggestions and rate matlab2tikz.
%
\definecolor{mycolor1}{rgb}{0.00000,0.44700,0.74100}%
\definecolor{mycolor2}{rgb}{0.85000,0.32500,0.09800}%
%
\begin{tikzpicture}

\begin{axis}[%
width=1.935in,
height=3.2in,
at={(0.758in,0.512in)},
scale only axis,
xmin=0,
xmax=100,
xlabel style={font=\color{white!15!black}, align=center},
xlabel={Sample Index\\[1ex](a) Actual},
ymin=0,
ymax=1,
axis background/.style={fill=white},
legend style={legend cell align=left, align=left, draw=white!15!black}
]
\addplot [color=mycolor1]
  table[row sep=crcr]{%
1	0.0216926152020066\\
2	0.0241183965289278\\
3	0.0267807478156139\\
4	0.0354280601095614\\
5	0.221828667704926\\
6	0.648965745595675\\
7	0.241270440438586\\
8	0.0776642628644082\\
9	0.0581044824071981\\
10	0.0611489366831747\\
11	0.0798140419847986\\
12	0.062735544320507\\
13	0.113011040425493\\
14	0.377485382687519\\
15	0.331649248845691\\
16	0.18615433793772\\
17	0.146493252817741\\
18	0.0847190801249442\\
19	0.0628278567269286\\
20	0.0148364296169451\\
21	0.0250471739922352\\
22	0.0344835915107885\\
23	0.116323790948646\\
24	0.279210940275387\\
25	0.101045410677318\\
26	0.0464379665429307\\
27	0.041398863205924\\
28	0.0263226969199998\\
29	0.0221848789960478\\
30	0.0197642774213948\\
31	0.0186496517239344\\
32	0.0219339353832985\\
33	0.018414044189717\\
34	0.00937919788338426\\
35	0.0100670783096178\\
36	0.0098135024549665\\
37	0.00937197330245933\\
38	0.00884810306396591\\
39	0.00821513429074651\\
40	0.00732026654240377\\
41	0.00945021173361951\\
42	0.0127255218727005\\
43	0.00946415089832864\\
44	0.00862800399957479\\
45	0.00816256372793386\\
46	0.00784857678072338\\
47	0.00764005346579914\\
48	0.00755773656417068\\
49	0.00776075567554332\\
50	0.00986938420958768\\
51	0.00319649311885596\\
52	0.00500292172051245\\
53	0.00524752973649041\\
54	0.00526667690567613\\
55	0.00521575322380608\\
56	0.00513704586881206\\
57	0.00504647235310817\\
58	0.00495116794332671\\
59	0.00485468351773321\\
60	0.00475890010347922\\
61	0.00466484578572566\\
62	0.00457308311118313\\
63	0.00448390798586452\\
64	0.0043974582605137\\
65	0.00431377595094964\\
66	0.00423284428954661\\
67	0.00415461047403326\\
68	0.00407899997367922\\
69	0.00400592569101114\\
70	0.00393529390404367\\
71	0.0038670081481966\\
72	0.00380097175500134\\
73	0.00373708950172093\\
74	0.00367526866536834\\
75	0.00361541967416126\\
76	0.00355745648532918\\
77	0.00350129677649243\\
78	0.00344686201027152\\
79	0.00339407741330312\\
80	0.00334287189828014\\
81	0.0032931779490063\\
82	0.00324493148246751\\
83	0.00319807169773062\\
84	0.003152540918526\\
85	0.00310828443427485\\
86	0.00306525034282854\\
87	0.00302338939712195\\
88	0.00298265485717807\\
89	0.00294300234835571\\
90	0.00290438972634362\\
91	0.0028667769491261\\
92	0.00283012595595264\\
93	0.0027944005532083\\
94	0.00275956630699144\\
95	0.0027255904421446\\
96	0.00269244174744817\\
97	0.00266009048666622\\
98	0.00262850831512411\\
99	0\\
100	0\\
};
\addlegendentry{$\mathbf{h_1}$}

\addplot [color=mycolor2]
  table[row sep=crcr]{%
1	0.00108294891904515\\
2	0.00115806441999571\\
3	0.00125656841390277\\
4	0.00139359850086552\\
5	0.00159676508941691\\
6	0.00191784013184518\\
7	0.00245777585368985\\
8	0.00342819163679349\\
9	0.00533730915065768\\
10	0.00974214709050295\\
11	0.0244449264542886\\
12	0.973731186814765\\
13	0.0500739614470277\\
14	0.0426946282907342\\
15	0.00536788790071817\\
16	0.0362080823589407\\
17	0.176144271962331\\
18	0.115663212635922\\
19	0.0234963057121139\\
20	0.0138738178597906\\
21	0.00966054585381422\\
22	0.00731818549393035\\
23	0.00584139575065055\\
24	0.0048330083027894\\
25	0.00410500747522503\\
26	0.00355723928842746\\
27	0.00313167065616096\\
28	0.00279247304593218\\
29	0.00251639833876938\\
30	0.00228774297450139\\
31	0.00209554142652578\\
32	0.00193191967393617\\
33	0.00179108704155738\\
34	0.00166869616651274\\
35	0\\
36	0\\
37	0\\
38	0\\
39	0\\
40	0\\
41	0\\
42	0\\
43	0\\
44	0\\
45	0\\
46	0\\
47	0\\
48	0\\
49	0\\
50	0\\
51	0\\
52	0\\
53	0\\
54	0\\
55	0\\
56	0\\
57	0\\
58	0\\
59	0\\
60	0\\
61	0\\
62	0\\
63	0\\
64	0\\
65	0\\
66	0\\
67	0\\
68	0\\
69	0\\
70	0\\
71	0\\
72	0\\
73	0\\
74	0\\
75	0\\
76	0\\
77	0\\
78	0\\
79	0\\
80	0\\
81	0\\
82	0\\
83	0\\
84	0\\
85	0\\
86	0\\
87	0\\
88	0\\
89	0\\
90	0\\
91	0\\
92	0\\
93	0\\
94	0\\
95	0\\
96	0\\
97	0\\
98	0\\
99	0\\
100	0\\
};
\addlegendentry{$\mathbf{h_{2}}$}

\end{axis}

\begin{axis}[%
width=1.935in,
height=3.2in,
at={(3.327in,0.512in)},
scale only axis,
xmin=0,
xmax=100,
xlabel style={font=\color{white!15!black}, align=center},
xlabel={Sample Index\\[1ex](b) Estimated},
ymin=0,
ymax=0.3,
axis background/.style={fill=white},
legend style={legend cell align=left, align=left, draw=white!15!black}
]
\addplot [color=mycolor1]
  table[row sep=crcr]{%
0	0.0901273430546714\\
1	0.0564364872380126\\
2	0.0052148397962282\\
3	7.02454363249112e-05\\
4	0.0510583673957369\\
5	0.0825513852544401\\
6	0.0576668702275639\\
7	0.047169185141073\\
8	0.0302396819810515\\
9	0.0521672732775536\\
10	0.120252482490523\\
11	0.0104581843339872\\
12	0.0246903484768186\\
13	0.0615840553881797\\
14	0.055709197980537\\
15	0.0228959431508433\\
16	0.0631334968153828\\
17	0.045904991785295\\
18	0.162466008109207\\
19	0.0380735597544059\\
20	0.106053330707031\\
21	0.00302768525173242\\
22	0.0918313454108044\\
23	0.0316499389869093\\
24	0.0213637233506789\\
25	0.0413740137494438\\
26	0.123086589956819\\
27	0.0992141510604817\\
28	0.212188229375818\\
29	0.0155938617526887\\
30	0.0963444469710674\\
31	0.137053706812837\\
32	0.108839648437132\\
33	0.1152155941882\\
34	0.0382375836418336\\
35	0.0444295386722358\\
36	0.143969143254743\\
37	0.0406816789153773\\
38	0.0341678111155417\\
39	0.109836097720577\\
40	0.103795824549362\\
41	0.0828645480165781\\
42	0.0870471170265932\\
43	0.0136565412139208\\
44	0.0171329348613378\\
45	0.181739206180547\\
46	0.0610941588616878\\
47	0.220292335472071\\
48	0.0816897862449022\\
49	0.163673980564446\\
50	0.0781514209033379\\
51	0.0547421788136562\\
52	0.0147492917249257\\
53	0.104653814228455\\
54	0.0568965449562316\\
55	0.0918222995513698\\
56	0.0456009054520441\\
57	0.184577266723697\\
58	0.109108156752342\\
59	0.15275278674224\\
60	0.193475795107077\\
61	0.126479588964134\\
62	0.05697501257766\\
63	0.113435756409132\\
64	0.20275274718771\\
65	0.0677878127819281\\
66	0.183409490104859\\
67	0.0579772267670396\\
68	0.0558577854088686\\
69	0.106154606708641\\
70	0.087400417490462\\
71	0.100387105171425\\
72	0.263573198530619\\
73	0.0197322639421455\\
74	0.0964291709584491\\
75	0.119388663098037\\
76	0.0214496735814349\\
77	0.051512734284467\\
78	0.171732595700112\\
79	0.0393079992036423\\
80	0.0361012906941681\\
81	0.0412662795946485\\
82	0.0494351059367951\\
83	0.0317429847836028\\
84	0.0410013621789496\\
85	0.175943219342925\\
86	0.0498235005604278\\
87	0.0347035329456179\\
88	0.0988072390798506\\
89	0.0374348371346027\\
90	0.0376278554998\\
91	0.12625484291333\\
92	0.0844767449524783\\
93	0.0279267813219811\\
94	0.242126301354376\\
95	0.0392444611858029\\
96	0.0677772785757032\\
97	0.10417588279988\\
98	0.0857796941575904\\
99	0.0792386725633511\\
};
\addlegendentry{$\mathbf{\hat{h}_{1}}$}

\addplot [color=mycolor2]
  table[row sep=crcr]{%
0	0.0219413805378527\\
1	0.0159169923009576\\
2	0.0273860873706769\\
3	0.0984065876521825\\
4	0.0416737333923241\\
5	0.0366220472475163\\
6	0.136584559970963\\
7	0.0500937429619172\\
8	0.0311049710780101\\
9	0.00376308687917276\\
10	0.0275428732077666\\
11	0.0656224768623499\\
12	0.171534504259538\\
13	0.0510454865396893\\
14	0.00232855277495025\\
15	0.226325027770285\\
16	0.0394182034685818\\
17	0.0271500347563403\\
18	0.0426161263484089\\
19	0.0948209251290638\\
20	0.0914720127768858\\
21	0.0655161392778137\\
22	0.0343608092897045\\
23	0.0799411615180813\\
24	0.0703005965187107\\
25	0.0346439525715349\\
26	0.1225472600087\\
27	0.00753658101943532\\
28	0.185177866227508\\
29	0.0181328353959349\\
30	0.00848008828029387\\
31	0.06001084336742\\
32	0.11834709299644\\
33	0.0431246366061722\\
34	0.0479115460043465\\
35	0.11869010644276\\
36	0.17714791539222\\
37	0.186223983532779\\
38	0.15179892886276\\
39	0.0810695348566983\\
40	0.00651327235496582\\
41	0.0451929333874637\\
42	0.0755649057957271\\
43	0.141307442900557\\
44	0.136287908561718\\
45	0.185062551095983\\
46	0.0481261509474532\\
47	0.0442463781812295\\
48	0.0391395005029069\\
49	0.00510428683975589\\
50	0.0686727987195369\\
51	0.115436516280186\\
52	0.0546561511321277\\
53	0.14755810114364\\
54	0.0690792312715141\\
55	0.111761135303756\\
56	0.0862281605700612\\
57	0.0907635791448441\\
58	0.104824183111494\\
59	0.177308170993387\\
60	0.0789433312426345\\
61	0.0494265485615208\\
62	0.162802369546101\\
63	0.0477556792651385\\
64	0.137781390189565\\
65	0.134817925163898\\
66	0.0832311812245453\\
67	0.0923800334860905\\
68	0.156326766592776\\
69	0.20038502884239\\
70	0.11861432418781\\
71	0.0642539945074158\\
72	0.0695704123790637\\
73	0.0132669983788472\\
74	0.139128068515572\\
75	0.0436465549149588\\
76	0.165985080888122\\
77	0.0395185858507145\\
78	0.0834151762107326\\
79	0.0778853523678509\\
80	0.111490196410532\\
81	0.10581556057652\\
82	0.00591836271558511\\
83	0.0332041159314146\\
84	0.2071094127694\\
85	0.0638145452978815\\
86	0.111418795389145\\
87	0.0476095762220875\\
88	0.0359490936072322\\
89	0.0303106451398605\\
90	0.0992617776386967\\
91	0.104865588292918\\
92	0.0629576311347503\\
93	0.0411903521027402\\
94	0.148467707217458\\
95	0.101299652353498\\
96	0.0873616961259093\\
97	0.192311146734308\\
98	0.0687099524229229\\
99	0.108991754435526\\
};
\addlegendentry{$\mathbf{\hat{h}_{2}}$}

\end{axis}
\end{tikzpicture}%