% This file was created by matlab2tikz.
%
%The latest updates can be retrieved from
%  http://www.mathworks.com/matlabcentral/fileexchange/22022-matlab2tikz-matlab2tikz
%where you can also make suggestions and rate matlab2tikz.
%
\definecolor{mycolor1}{rgb}{0.00000,0.44700,0.74100}%
\definecolor{mycolor2}{rgb}{0.85000,0.32500,0.09800}%
%
\begin{tikzpicture}

\begin{axis}[%
width=1.935in,
height=3.2in,
at={(0.758in,0.512in)},
scale only axis,
xmin=0,
xmax=100,
xlabel style={font=\color{white!15!black}, align=center},
xlabel={Sample Index\\[1ex](a) Actual},
ymin=0,
ymax=1,
axis background/.style={fill=white},
legend style={legend cell align=left, align=left, draw=white!15!black}
]
\addplot [color=mycolor1]
  table[row sep=crcr]{%
1	0.0216926152020066\\
2	0.0241183965289278\\
3	0.0267807478156139\\
4	0.0354280601095614\\
5	0.221828667704926\\
6	0.648965745595675\\
7	0.241270440438586\\
8	0.0776642628644082\\
9	0.0581044824071981\\
10	0.0611489366831747\\
11	0.0798140419847986\\
12	0.062735544320507\\
13	0.113011040425493\\
14	0.377485382687519\\
15	0.331649248845691\\
16	0.18615433793772\\
17	0.146493252817741\\
18	0.0847190801249442\\
19	0.0628278567269286\\
20	0.0148364296169451\\
21	0.0250471739922352\\
22	0.0344835915107885\\
23	0.116323790948646\\
24	0.279210940275387\\
25	0.101045410677318\\
26	0.0464379665429307\\
27	0.041398863205924\\
28	0.0263226969199998\\
29	0.0221848789960478\\
30	0.0197642774213948\\
31	0.0186496517239344\\
32	0.0219339353832985\\
33	0.018414044189717\\
34	0.00937919788338426\\
35	0.0100670783096178\\
36	0.0098135024549665\\
37	0.00937197330245933\\
38	0.00884810306396591\\
39	0.00821513429074651\\
40	0.00732026654240377\\
41	0.00945021173361951\\
42	0.0127255218727005\\
43	0.00946415089832864\\
44	0.00862800399957479\\
45	0.00816256372793386\\
46	0.00784857678072338\\
47	0.00764005346579914\\
48	0.00755773656417068\\
49	0.00776075567554332\\
50	0.00986938420958768\\
51	0.00319649311885596\\
52	0.00500292172051245\\
53	0.00524752973649041\\
54	0.00526667690567613\\
55	0.00521575322380608\\
56	0.00513704586881206\\
57	0.00504647235310817\\
58	0.00495116794332671\\
59	0.00485468351773321\\
60	0.00475890010347922\\
61	0.00466484578572566\\
62	0.00457308311118313\\
63	0.00448390798586452\\
64	0.0043974582605137\\
65	0.00431377595094964\\
66	0.00423284428954661\\
67	0.00415461047403326\\
68	0.00407899997367922\\
69	0.00400592569101114\\
70	0.00393529390404367\\
71	0.0038670081481966\\
72	0.00380097175500134\\
73	0.00373708950172093\\
74	0.00367526866536834\\
75	0.00361541967416126\\
76	0.00355745648532918\\
77	0.00350129677649243\\
78	0.00344686201027152\\
79	0.00339407741330312\\
80	0.00334287189828014\\
81	0.0032931779490063\\
82	0.00324493148246751\\
83	0.00319807169773062\\
84	0.003152540918526\\
85	0.00310828443427485\\
86	0.00306525034282854\\
87	0.00302338939712195\\
88	0.00298265485717807\\
89	0.00294300234835571\\
90	0.00290438972634362\\
91	0.0028667769491261\\
92	0.00283012595595264\\
93	0.0027944005532083\\
94	0.00275956630699144\\
95	0.0027255904421446\\
96	0.00269244174744817\\
97	0.00266009048666622\\
98	0.00262850831512411\\
99	0\\
100	0\\
};
\addlegendentry{$\mathbf{h_1}$}

\addplot [color=mycolor2]
  table[row sep=crcr]{%
1	0.00108294891904515\\
2	0.00115806441999571\\
3	0.00125656841390277\\
4	0.00139359850086552\\
5	0.00159676508941691\\
6	0.00191784013184518\\
7	0.00245777585368985\\
8	0.00342819163679349\\
9	0.00533730915065768\\
10	0.00974214709050295\\
11	0.0244449264542886\\
12	0.973731186814765\\
13	0.0500739614470277\\
14	0.0426946282907342\\
15	0.00536788790071817\\
16	0.0362080823589407\\
17	0.176144271962331\\
18	0.115663212635922\\
19	0.0234963057121139\\
20	0.0138738178597906\\
21	0.00966054585381422\\
22	0.00731818549393035\\
23	0.00584139575065055\\
24	0.0048330083027894\\
25	0.00410500747522503\\
26	0.00355723928842746\\
27	0.00313167065616096\\
28	0.00279247304593218\\
29	0.00251639833876938\\
30	0.00228774297450139\\
31	0.00209554142652578\\
32	0.00193191967393617\\
33	0.00179108704155738\\
34	0.00166869616651274\\
35	0\\
36	0\\
37	0\\
38	0\\
39	0\\
40	0\\
41	0\\
42	0\\
43	0\\
44	0\\
45	0\\
46	0\\
47	0\\
48	0\\
49	0\\
50	0\\
51	0\\
52	0\\
53	0\\
54	0\\
55	0\\
56	0\\
57	0\\
58	0\\
59	0\\
60	0\\
61	0\\
62	0\\
63	0\\
64	0\\
65	0\\
66	0\\
67	0\\
68	0\\
69	0\\
70	0\\
71	0\\
72	0\\
73	0\\
74	0\\
75	0\\
76	0\\
77	0\\
78	0\\
79	0\\
80	0\\
81	0\\
82	0\\
83	0\\
84	0\\
85	0\\
86	0\\
87	0\\
88	0\\
89	0\\
90	0\\
91	0\\
92	0\\
93	0\\
94	0\\
95	0\\
96	0\\
97	0\\
98	0\\
99	0\\
100	0\\
};
\addlegendentry{$\mathbf{h_{2}}$}

\end{axis}

\begin{axis}[%
width=1.935in,
height=3.2in,
at={(3.327in,0.512in)},
scale only axis,
xmin=0,
xmax=100,
xlabel style={font=\color{white!15!black}, align=center},
xlabel={Sample Index\\[1ex](b) Estimated},
ymin=0,
ymax=1,
axis background/.style={fill=white},
legend style={legend cell align=left, align=left, draw=white!15!black}
]
\addplot [color=mycolor1]
  table[row sep=crcr]{%
0	0.017855090946227\\
1	0.0128265096158648\\
2	0.0176862202052665\\
3	0.0130224532854214\\
4	0.0328937786981826\\
5	0.0212351900282424\\
6	0.0150857372650742\\
7	0.0124358385619965\\
8	0.0283551804198607\\
9	0.00424160885167808\\
10	0.0201573872657342\\
11	0.0079885171614373\\
12	0.00410559772961183\\
13	0.0139927596505966\\
14	0.0366948970585517\\
15	0.0125306293468345\\
16	0.00205884516072362\\
17	0.0148128674477537\\
18	0.00943595705105762\\
19	0.00779052299801135\\
20	0.0181744424806181\\
21	0.00620119083368735\\
22	0.00919267242946173\\
23	0.0149590297591136\\
24	0.005929881076222\\
25	0.0125437323542318\\
26	0.00654309871004191\\
27	0.0147058099240417\\
28	0.0038959605951452\\
29	0.0195895451227521\\
30	0.00476569539285239\\
31	0.0105433861458132\\
32	0.0152463559801388\\
33	0.0120025498840365\\
34	0.0200698866266727\\
35	0.00542503308765397\\
36	0.0433125558025317\\
37	0.0417716109197979\\
38	0.139037262823025\\
39	0.0232632399069645\\
40	0.031342505811196\\
41	0.0596557401068368\\
42	0.178474903237134\\
43	0.64583334576823\\
44	0.202533550866925\\
45	0.0464165839259155\\
46	0.16282701530393\\
47	0.0814935484792191\\
48	0.0429286268720154\\
49	0.036580126967601\\
50	0.103663340098141\\
51	0.392951272605555\\
52	0.304558070374549\\
53	0.15846466846054\\
54	0.11996958536461\\
55	0.0839696279310781\\
56	0.135995799489365\\
57	0.0185691929752411\\
58	0.0341871825964691\\
59	0.0352638889576332\\
60	0.0763559972019377\\
61	0.290869634824548\\
62	0.0742947812791836\\
63	0.034112233684643\\
64	0.0295349628419689\\
65	0.022852641162255\\
66	0.0117884085673812\\
67	0.0227474710990117\\
68	0.0265918752664384\\
69	0.0246866681086342\\
70	0.0145530155256128\\
71	0.0190703341319254\\
72	0.0143519894308864\\
73	0.00343796218035399\\
74	0.00637799682720195\\
75	0.0210325629344923\\
76	0.00620241030940797\\
77	0.0115325778321946\\
78	0.012456402803813\\
79	0.015807115714914\\
80	0.0132285693526723\\
81	0.0262257204902996\\
82	0.0183040170479694\\
83	0.00682902600199446\\
84	0.009906474897357\\
85	0.0228738241737364\\
86	0.0237056645357164\\
87	0.00735301137847245\\
88	0.00811429814980015\\
89	0.011486293419899\\
90	0.0332754979061061\\
91	0.0272248023562468\\
92	0.0077491012050729\\
93	0.00574230777406716\\
94	0.0206876870366765\\
95	0.00310276765733259\\
96	0.0213414751208405\\
97	0.021568168522117\\
98	0.024903814109864\\
99	0.0105777958335629\\
};
\addlegendentry{$\mathbf{\hat{h}_{1}}$}

\addplot [color=mycolor2]
  table[row sep=crcr]{%
0	9.44107310635964e-05\\
1	0.000121754048714763\\
2	0.000215646620538125\\
3	0.000175806260032227\\
4	0.000115844073130437\\
5	2.48698568526611e-05\\
6	0.00021827813735563\\
7	7.20078093614928e-05\\
8	9.46116083010144e-05\\
9	5.40562580722449e-05\\
10	0.000289395303261313\\
11	8.72876059586614e-05\\
12	0.000205585556532726\\
13	6.9721139369175e-05\\
14	9.27029950927092e-05\\
15	0.000113112390176533\\
16	7.49054480885893e-05\\
17	0.000111782287069681\\
18	1.03936929599104e-05\\
19	0.000106036446680555\\
20	0.000155567458000771\\
21	8.80527139057364e-05\\
22	6.49674272752477e-06\\
23	0.000138024046321885\\
24	5.80676927803554e-05\\
25	2.59131774755287e-05\\
26	8.89711072016914e-05\\
27	0.000106682106311886\\
28	5.7504738860835e-05\\
29	0.000215546580671482\\
30	0.000158623130198329\\
31	0.00126280215638939\\
32	1.83281081748638e-06\\
33	0.000161363567547501\\
34	5.76771359330144e-05\\
35	3.86115468300992e-05\\
36	0.000448954586295511\\
37	0.000154160933105009\\
38	0.000844268244201163\\
39	0.00147155019651905\\
40	0.000573435514447711\\
41	0.00178349986429963\\
42	0.00018303657546692\\
43	0.0001378799740601\\
44	0.000377221365799017\\
45	0.000242895019027032\\
46	0.000657655090202501\\
47	0.00078101641746305\\
48	0.000109757240798502\\
49	0.999989936588681\\
50	0.000109549414748292\\
51	0.000780725118840853\\
52	0.000655604321728107\\
53	0.000236716855086273\\
54	0.000381755769181411\\
55	0.000126795645841495\\
56	0.000184734828452633\\
57	0.00178951386917551\\
58	0.000563401377932549\\
59	0.00147975570475537\\
60	0.000846892567519094\\
61	0.000168696142234435\\
62	0.000452994019330753\\
63	3.71975933039399e-05\\
64	5.47020066832359e-05\\
65	0.00014458480234365\\
66	1.15516273575392e-05\\
67	0.0012632112143469\\
68	0.000133447166194718\\
69	0.000213018622961893\\
70	6.60302027956819e-05\\
71	0.000113107550543643\\
72	7.96418036865981e-05\\
73	1.85972653308566e-05\\
74	7.17921751590103e-05\\
75	0.000135812556522371\\
76	5.92831624630604e-06\\
77	8.87870824098431e-05\\
78	0.000142419190700189\\
79	0.000103170462506904\\
80	5.18516870254206e-06\\
81	0.000116889057147412\\
82	6.61493995587089e-05\\
83	0.000114363336240937\\
84	0.000102294097497127\\
85	8.27224743054913e-05\\
86	0.00017846466563565\\
87	5.69557657281093e-05\\
88	0.000251140639812973\\
89	6.77829534532454e-05\\
90	8.22820693237601e-05\\
91	8.09864805111616e-05\\
92	0.000217666923268594\\
93	3.04047048933592e-05\\
94	0.000100356909809344\\
95	0.000178520199315024\\
96	0.000199325226751904\\
97	7.79430329645568e-05\\
98	0.000106383679397802\\
99	0.000121849978870606\\
};
\addlegendentry{$\mathbf{\hat{h}_{2}}$}

\end{axis}
\end{tikzpicture}%