% This file was created by matlab2tikz.
%
%The latest updates can be retrieved from
%  http://www.mathworks.com/matlabcentral/fileexchange/22022-matlab2tikz-matlab2tikz
%where you can also make suggestions and rate matlab2tikz.
%
\definecolor{mycolor1}{rgb}{0.00000,0.44700,0.74100}%
\definecolor{mycolor2}{rgb}{0.85000,0.32500,0.09800}%
%
\begin{tikzpicture}

\begin{axis}[%
width=1.935in,
height=3.2in,
at={(0.758in,0.512in)},
scale only axis,
xmin=0,
xmax=150,
xlabel style={font=\color{white!15!black}, align=center},
xlabel={Sample Index\\[1ex](a) Actual},
ymin=0,
ymax=0.7,
axis background/.style={fill=white},
legend style={legend cell align=left, align=left, draw=white!15!black}
]
\addplot [color=mycolor1]
  table[row sep=crcr]{%
1	0.0234657806037261\\
2	0.0272334504034075\\
3	0.0326864300765018\\
4	0.0414541482980318\\
5	0.0586677033458464\\
6	0.117843438362983\\
7	0.159969331461504\\
8	0.174397116945152\\
9	0.616552810702634\\
10	0.0882137642931462\\
11	0.0472681903124796\\
12	0.0327587509505929\\
13	0.0272256709659274\\
14	0.0412344622245766\\
15	0.0186762848129325\\
16	0.0451940046978057\\
17	0.0153724087875252\\
18	0.0239672675363248\\
19	0.0400285717874473\\
20	0.0828333966509162\\
21	0.557624977131952\\
22	0.149414784250917\\
23	0.109138078132702\\
24	0.0381681231028791\\
25	0.032799759178118\\
26	0.191519461959093\\
27	0.0734580287558902\\
28	0.0358315656953253\\
29	0.0179563195827385\\
30	0.0169149242156914\\
31	0.0179798517146348\\
32	0.0199431506445131\\
33	0.0279225394655299\\
34	0.0908594243819801\\
35	0.0439964246924232\\
36	0.330890477505262\\
37	0.037800506563543\\
38	0.020261933748638\\
39	0.0138181229977315\\
40	0.0211497159554441\\
41	0.0112042208144458\\
42	0.00964538908702694\\
43	0.00864780826327016\\
44	0.00787736374270682\\
45	0.00720180133294831\\
46	0.00651453200193765\\
47	0.00565492088107664\\
48	0.0112814316241706\\
49	0.0075966567083061\\
50	0.0102713040739602\\
51	0.00787142060243747\\
52	0.00711780022683946\\
53	0.00668443537322835\\
54	0.00638223966522588\\
55	0.00615487020840034\\
56	0.00598242225636516\\
57	0.00586293416152974\\
58	0.00581626175933958\\
59	0.00593494184987807\\
60	0.00707647204853056\\
61	0.00861312572402681\\
62	0.00240649054353041\\
63	0.0036902508247688\\
64	0.0040125763148678\\
65	0.00408542983582614\\
66	0.00408934467211144\\
67	0.00406760360864643\\
68	0.00403657730104579\\
69	0.00400486664899167\\
70	0.00397913876457006\\
71	0.00396763365360209\\
72	0.00398577860522856\\
73	0.00407460869510253\\
74	0.00440882178496405\\
75	0.00852319154542653\\
76	0.00211982859547221\\
77	0.00279674481878385\\
78	0.00295234209521732\\
79	0.00299967450324673\\
80	0.00300734384297471\\
81	0.00299658049652506\\
82	0.00297609501762909\\
83	0.00295010695632826\\
84	0.00292089738309008\\
85	0.00288979839106794\\
86	0.00285763293534116\\
87	0.00282493110979805\\
88	0.00279204510261472\\
89	0.00275921420187501\\
90	0.00272660345813555\\
91	0.00269432766245323\\
92	0.00266246675038502\\
93	0.00263107599882434\\
94	0.00260019295165966\\
95	0.00256984222925479\\
96	0.00254003893333548\\
97	0.0025107910982644\\
98	0.00248210148178531\\
99	0.00245396889001376\\
100	0.00242638916874131\\
101	0.00239935595223708\\
102	0.00237286123354156\\
103	0.00234689580183488\\
104	0.00232144957979209\\
105	0.00229651188498403\\
106	0.00227207163310714\\
107	0.0022481174963278\\
108	0.00222463802675857\\
109	0.00220162175268604\\
110	0.00217905725339276\\
111	0.0021569332170867\\
112	0.00213523848544673\\
113	0.00211396208753109\\
114	0.00209309326520902\\
115	0.00207262149182518\\
116	0.00205253648545491\\
117	0.00203282821783402\\
118	0.00201348691983224\\
119	0.00199450308416773\\
120	0.00197586746592614\\
121	0.00195757108133911\\
122	0.0019396052051902\\
123	0.0019219613671484\\
124	0.00190463134727109\\
125	0.00188760717087541\\
126	0.00187088110293773\\
127	0.00185444564215264\\
128	0.0018382935147574\\
129	0.00182241766820821\\
130	0.00180681126477794\\
131	0.00179146767513212\\
132	0.00177638047192757\\
133	0.00176154342347035\\
134	0.00174695048746156\\
135	0.0017325958048528\\
136	0.00171847369382931\\
137	0.00170457864393352\\
138	0.0016909053103386\\
139	0.00167744850827835\\
140	0.00166420320763913\\
141	0.00165116452771496\\
142	0.00163832773212761\\
143	0.00162568822391149\\
144	0.00161324154076111\\
145	0.0016009833504405\\
146	0.00158890944635072\\
147	0.00157701574325256\\
148	0.00156529827314105\\
149	0\\
150	0\\
};
\addlegendentry{$\mathbf{h_1}$}

\addplot [color=mycolor2]
  table[row sep=crcr]{%
1	0.019775303219206\\
2	0.0210217764534023\\
3	0.0224372323963497\\
4	0.024058742711813\\
5	0.0259351263737046\\
6	0.0281320174688059\\
7	0.0307398096072034\\
8	0.0338865833958781\\
9	0.0377600935275399\\
10	0.0426472101764649\\
11	0.0490094599986528\\
12	0.0576401827385178\\
13	0.0700288298559564\\
14	0.0893407156606893\\
15	0.123700774100431\\
16	0.202175033398071\\
17	0.564479813098353\\
18	0.690442426104836\\
19	0.212260509632627\\
20	0.126132345068284\\
21	0.100380135781766\\
22	0.0378663697499036\\
23	0.0333199748773482\\
24	0.0149453064107011\\
25	0.10083899339379\\
26	0.161002397050911\\
27	0.0405118251764787\\
28	0.0383644765554957\\
29	0.0341227495803863\\
30	0.0306469105251072\\
31	0.0278570926171954\\
32	0.0255709383506331\\
33	0.0236574529195357\\
34	0.0220274984760589\\
35	0.0206190941704396\\
36	0.0193877726649002\\
37	0.0183006807256663\\
38	0.0173329207549748\\
39	0.016465211935799\\
40	0.0156823459816501\\
41	0.0149721364414517\\
42	0.0143246843629073\\
43	0.0137318527665838\\
44	0.0131868826449622\\
45	0.0126841071808284\\
46	0.0122187355837443\\
47	0.0117866872087634\\
48	0.0113844626077037\\
49	0.0110090421200206\\
50	0.0106578052804057\\
51	0\\
52	0\\
53	0\\
54	0\\
55	0\\
56	0\\
57	0\\
58	0\\
59	0\\
60	0\\
61	0\\
62	0\\
63	0\\
64	0\\
65	0\\
66	0\\
67	0\\
68	0\\
69	0\\
70	0\\
71	0\\
72	0\\
73	0\\
74	0\\
75	0\\
76	0\\
77	0\\
78	0\\
79	0\\
80	0\\
81	0\\
82	0\\
83	0\\
84	0\\
85	0\\
86	0\\
87	0\\
88	0\\
89	0\\
90	0\\
91	0\\
92	0\\
93	0\\
94	0\\
95	0\\
96	0\\
97	0\\
98	0\\
99	0\\
100	0\\
101	0\\
102	0\\
103	0\\
104	0\\
105	0\\
106	0\\
107	0\\
108	0\\
109	0\\
110	0\\
111	0\\
112	0\\
113	0\\
114	0\\
115	0\\
116	0\\
117	0\\
118	0\\
119	0\\
120	0\\
121	0\\
122	0\\
123	0\\
124	0\\
125	0\\
126	0\\
127	0\\
128	0\\
129	0\\
130	0\\
131	0\\
132	0\\
133	0\\
134	0\\
135	0\\
136	0\\
137	0\\
138	0\\
139	0\\
140	0\\
141	0\\
142	0\\
143	0\\
144	0\\
145	0\\
146	0\\
147	0\\
148	0\\
149	0\\
150	0\\
};
\addlegendentry{$\mathbf{h_{2}}$}

\end{axis}

\begin{axis}[%
width=1.935in,
height=3.2in,
at={(3.327in,0.512in)},
scale only axis,
xmin=0,
xmax=300,
xlabel style={font=\color{white!15!black}, align=center},
xlabel={Sample Index\\[1ex](b) Estimated},
ymin=0,
ymax=1,
axis background/.style={fill=white},
legend style={legend cell align=left, align=left, draw=white!15!black}
]
\addplot [color=mycolor1]
  table[row sep=crcr]{%
0	2.28062743440751e-05\\
1	9.10790708830171e-06\\
2	3.78239123963975e-05\\
3	7.14146052287298e-05\\
4	6.14225362111811e-05\\
5	3.33646781305315e-05\\
6	0.000106519405523608\\
7	8.11665502778246e-05\\
8	7.42741690470866e-05\\
9	3.95287523541661e-05\\
10	2.64936785576928e-05\\
11	5.43562907252043e-05\\
12	0.000110514042801081\\
13	3.35319545842811e-05\\
14	0.000114592731496523\\
15	7.75981214877432e-05\\
16	4.99461257230394e-05\\
17	0.000162033513540167\\
18	3.20212123478149e-05\\
19	3.86737693466999e-05\\
20	4.29384185848759e-05\\
21	1.54853651944821e-05\\
22	3.03261444279665e-05\\
23	0.00014246195866546\\
24	3.74141505708261e-05\\
25	0.000131947701733363\\
26	0.00015824526245426\\
27	5.35505303547108e-05\\
28	0.000123547731269252\\
29	4.20855194802819e-05\\
30	4.18540180150531e-05\\
31	5.32132553866902e-05\\
32	2.57513793878107e-05\\
33	5.59970856721712e-05\\
34	2.57733512014755e-05\\
35	2.47458627444334e-05\\
36	8.87176698733991e-06\\
37	0.000105560053458698\\
38	5.40007169938444e-05\\
39	3.60482806384993e-05\\
40	0.000107851045081064\\
41	5.37946205833449e-05\\
42	6.48143828749838e-05\\
43	2.59864838935732e-05\\
44	6.81878305508862e-05\\
45	2.01493594200893e-05\\
46	5.49505237153638e-05\\
47	8.57862617189788e-05\\
48	6.519185291107e-05\\
49	4.93174765465567e-05\\
50	3.69243871005848e-05\\
51	5.06369861156663e-05\\
52	7.02918038979105e-05\\
53	1.22392036171822e-05\\
54	1.57017599431361e-05\\
55	7.40072875094245e-05\\
56	5.55769028858951e-05\\
57	5.45954645289415e-05\\
58	9.50948648224437e-05\\
59	4.54744315332286e-05\\
60	2.26220956326597e-05\\
61	3.99773961931098e-05\\
62	0.000109933540218767\\
63	5.48458042293187e-05\\
64	4.6922038385672e-05\\
65	8.77458240514863e-05\\
66	8.64331371823636e-05\\
67	2.24397270335938e-05\\
68	4.84546751500604e-05\\
69	5.50068058268264e-05\\
70	2.74496277433507e-05\\
71	7.26169084349173e-05\\
72	6.0763176643902e-05\\
73	4.65219990414031e-05\\
74	0.000128975391673516\\
75	2.05748919431669e-05\\
76	3.23741993783991e-05\\
77	5.98451907344831e-05\\
78	6.43674323981454e-05\\
79	8.64404253940933e-05\\
80	7.8434138897418e-05\\
81	3.44779209544044e-05\\
82	2.17565082920958e-05\\
83	2.70141518265538e-05\\
84	6.21835073828005e-05\\
85	3.49563879271492e-05\\
86	2.00057905235272e-05\\
87	0.000119757608098417\\
88	8.73427630633987e-05\\
89	3.78014032963057e-05\\
90	4.56445108622873e-05\\
91	2.3031562464106e-05\\
92	0.000147950811601112\\
93	6.90387198863811e-05\\
94	5.25098799675176e-05\\
95	4.08617803520974e-05\\
96	4.19528595822818e-05\\
97	2.81312194096519e-05\\
98	8.67970121273305e-05\\
99	3.23572647560116e-05\\
100	3.38251221220598e-05\\
101	5.59866849618856e-05\\
102	4.20226303449053e-05\\
103	5.59180307608749e-05\\
104	3.83783399989924e-05\\
105	1.28113405175558e-05\\
106	5.97674515435275e-05\\
107	4.29471005234618e-05\\
108	7.41828879570013e-05\\
109	6.82291552711776e-05\\
110	6.62992082912015e-05\\
111	9.75631033135195e-05\\
112	1.8586981614503e-05\\
113	0.000215564139824714\\
114	0.000117801090287798\\
115	2.63087389199033e-05\\
116	4.44154728910257e-05\\
117	4.70727873406346e-05\\
118	5.23422014809487e-05\\
119	9.70353960703426e-05\\
120	0.000111064875348786\\
121	7.20129212921964e-05\\
122	5.6977607891013e-05\\
123	5.19529071498291e-05\\
124	2.13507463197767e-05\\
125	0.000301801199692409\\
126	0.0128806878396136\\
127	0.000610121446700603\\
128	4.41374427835423e-05\\
129	0.0123620009631501\\
130	2.94038842406892e-05\\
131	0.0123990422555271\\
132	0.115181360434453\\
133	0.03115285469461\\
134	0.0107977922579907\\
135	0.0104261942892844\\
136	0.000653020625121343\\
137	0.0244771999771846\\
138	0.156297253620101\\
139	0.0132878874675332\\
140	0.507861277170343\\
141	0.414649223314806\\
142	0.0993955332397933\\
143	0.0539981157112242\\
144	0.0292610389354419\\
145	0.110606018961158\\
146	0.0060196655957255\\
147	0.0288733685006419\\
148	3.28228913284105e-05\\
149	0.0451724810475635\\
150	0.0525637665342653\\
151	0.0883646392538086\\
152	0.265357760264998\\
153	0.5018974338964\\
154	0.16599706707787\\
155	0.0323476030647232\\
156	0.0543177393541242\\
157	0.104092254328571\\
158	0.0766065097106979\\
159	0.105883985719395\\
160	0.00100746537619346\\
161	0.00467821001114532\\
162	0.00214527023520797\\
163	0.000223617866646456\\
164	0.0136072626981983\\
165	0.053637976027526\\
166	0.0942691448758074\\
167	0.295317565217114\\
168	0.0965770012704774\\
169	0.0156540993169628\\
170	0.00805854446906369\\
171	1.41083719608067e-05\\
172	3.58180422942e-05\\
173	0.000123601181838577\\
174	1.91696618789499e-05\\
175	1.04793378772871e-05\\
176	7.09791320751347e-05\\
177	3.05226150867205e-05\\
178	0.000124483317448122\\
179	0.00504766501593043\\
180	0.000494139769441796\\
181	2.94933090010412e-05\\
182	6.62320017768575e-05\\
183	4.12665216438538e-05\\
184	7.11067415655576e-05\\
185	3.01461270119944e-05\\
186	3.46419916689494e-05\\
187	5.54103043508693e-05\\
188	2.9235238597998e-05\\
189	4.47287727802884e-05\\
190	4.85600317560103e-05\\
191	6.0228676546484e-05\\
192	8.81988429344234e-05\\
193	2.27828904786024e-05\\
194	0.000139719672481149\\
195	6.78781078239884e-05\\
196	5.28235893018966e-05\\
197	2.58610793470558e-05\\
198	1.65505339815188e-05\\
199	7.11751740878206e-05\\
200	6.10584769096682e-05\\
201	3.36516651658803e-05\\
202	2.80081367142145e-05\\
203	3.21210340362761e-05\\
204	7.70379934643159e-05\\
205	0.000135542516609397\\
206	8.47934879775259e-05\\
207	3.80292946560717e-05\\
208	2.11376975565029e-05\\
209	2.20764127487571e-05\\
210	3.5645133213947e-05\\
211	0.000118264158938685\\
212	4.83558404995814e-05\\
213	3.95070874451881e-05\\
214	5.96234587575775e-05\\
215	9.46569469993763e-05\\
216	1.78252381115427e-05\\
217	0.000164892977007953\\
218	4.39273378942879e-05\\
219	0.000164597188896622\\
220	6.43681166413064e-05\\
221	5.25246565420833e-05\\
222	2.7486298995664e-05\\
223	3.20133840959525e-05\\
224	3.09258073973255e-05\\
225	1.32369761872463e-05\\
226	3.89424190483302e-05\\
227	6.37062166664325e-05\\
228	9.52764132076566e-05\\
229	5.9826514343277e-05\\
230	1.50232740895937e-05\\
231	5.07702407319375e-05\\
232	2.8003482918744e-05\\
233	7.66677149170622e-05\\
234	9.98286053041309e-05\\
235	7.66666852626244e-05\\
236	8.22475630378765e-05\\
237	3.27310702859759e-05\\
238	1.76378230701854e-05\\
239	4.5006961384662e-05\\
240	9.14482567040213e-06\\
241	5.22778171146033e-05\\
242	8.84283278854496e-05\\
243	0.000124471004419436\\
244	3.42258565820849e-05\\
245	6.33239237696214e-05\\
246	7.95441986715202e-05\\
247	5.84203884863691e-05\\
248	2.62492358979937e-05\\
249	6.26045378046892e-05\\
250	8.67015003487206e-06\\
251	5.35916898323988e-05\\
252	6.76332151587382e-05\\
253	5.4883984438101e-05\\
254	7.326767033421e-05\\
255	0.000109348680907654\\
256	4.36782385329354e-05\\
257	2.84919167578227e-05\\
258	5.72631539764766e-05\\
259	3.32304276259899e-05\\
260	2.91694442740323e-05\\
261	2.86341776070678e-05\\
262	7.75365155090888e-05\\
263	8.21023830874876e-05\\
264	9.35606725924425e-06\\
265	7.60305513682224e-05\\
266	6.77413739748283e-05\\
267	0.000101017842234268\\
268	3.59563867265028e-05\\
269	9.39451638919224e-05\\
270	7.52855587187683e-05\\
271	4.85125083420908e-05\\
272	2.32943456569434e-05\\
273	6.76913742255414e-05\\
274	9.39580400146581e-05\\
275	4.56753412585863e-05\\
276	0.000103159269887165\\
277	7.42207067207541e-05\\
278	4.55257072478647e-05\\
279	4.4636101246192e-05\\
280	8.74570911190946e-05\\
281	6.74900756936462e-06\\
282	1.88205779964207e-05\\
283	2.20932688424288e-05\\
284	7.63394632427213e-05\\
285	4.54371795696061e-05\\
286	2.81348600023389e-05\\
287	7.73123276795366e-05\\
288	9.85940956625302e-05\\
289	2.30757068446572e-05\\
290	1.87914584887084e-05\\
291	6.69260579358009e-05\\
292	0.00013905539734886\\
293	2.74012719376595e-05\\
294	2.50719662382162e-05\\
295	5.65768471899324e-05\\
296	6.7891186398843e-05\\
297	5.53485613201223e-05\\
298	5.52785911877336e-05\\
299	9.2953022437573e-05\\
};
\addlegendentry{$\mathbf{\hat{h}_{1}}$}

\addplot [color=mycolor2]
  table[row sep=crcr]{%
0	9.67799992074265e-06\\
1	1.42570947946134e-05\\
2	2.71887615227696e-05\\
3	1.74648442518907e-05\\
4	8.13195411109516e-06\\
5	2.28954745758302e-05\\
6	1.04042500589123e-05\\
7	5.13070042467749e-06\\
8	7.58730646207514e-06\\
9	1.62779426535719e-05\\
10	1.37669115203296e-05\\
11	8.91188309355704e-06\\
12	4.68933500408241e-06\\
13	1.77519871820476e-05\\
14	9.53075138064512e-06\\
15	1.95741712777665e-05\\
16	6.97392873808833e-06\\
17	1.70835237849456e-05\\
18	9.91504570114597e-06\\
19	1.78163140824092e-05\\
20	7.29045241634546e-06\\
21	3.10564787827578e-06\\
22	1.50664664801222e-05\\
23	1.26980976365673e-05\\
24	1.6199944101756e-05\\
25	1.66484667029143e-05\\
26	1.02223454797111e-05\\
27	1.58885305152059e-05\\
28	1.14230002151168e-05\\
29	6.71136007551593e-06\\
30	2.14130557606984e-05\\
31	5.37301745661563e-06\\
32	1.59054180601489e-05\\
33	1.85388335965485e-05\\
34	1.57189410095824e-05\\
35	1.58903780495747e-05\\
36	2.2581961226366e-05\\
37	5.01844351354744e-06\\
38	1.17697359260109e-05\\
39	1.67959692350131e-05\\
40	1.32253897034992e-05\\
41	1.2720075622348e-05\\
42	3.26018201182451e-05\\
43	1.60206574447954e-05\\
44	1.20721637346272e-05\\
45	1.12635591455374e-05\\
46	1.84734622279149e-05\\
47	1.7684770502111e-05\\
48	2.12101846365426e-05\\
49	8.14262195232885e-06\\
50	4.63572623496062e-06\\
51	1.94516877249695e-05\\
52	6.7855565452368e-06\\
53	9.05036304492338e-06\\
54	1.13346409407486e-05\\
55	1.09999232455098e-05\\
56	4.33690129398513e-05\\
57	5.60438399750109e-06\\
58	4.27526919581035e-06\\
59	2.05298850979044e-05\\
60	1.5289066572612e-05\\
61	8.71363460619645e-06\\
62	2.0601705522141e-05\\
63	3.34058104006397e-06\\
64	8.7107389133187e-06\\
65	1.02082146077944e-05\\
66	5.32090323175756e-06\\
67	4.33014922932858e-06\\
68	2.09631954244199e-05\\
69	1.4118028691639e-05\\
70	2.11310445050822e-05\\
71	1.85535518523652e-05\\
72	1.29243934707492e-05\\
73	5.23502164990937e-06\\
74	1.77017515816956e-05\\
75	2.18172263371502e-05\\
76	4.66507295869602e-06\\
77	1.97317853243586e-05\\
78	1.74410247024296e-05\\
79	4.79065660461472e-06\\
80	1.38427887997522e-05\\
81	9.39682431012701e-06\\
82	2.46904350689789e-06\\
83	3.66490464851201e-05\\
84	5.36618734934117e-06\\
85	2.93038539275282e-05\\
86	4.00150634328102e-06\\
87	3.55543078281976e-05\\
88	6.49270766147491e-06\\
89	2.92363296927808e-05\\
90	5.24997045898251e-06\\
91	4.18778837972471e-06\\
92	1.3416694134974e-05\\
93	7.06493512519191e-06\\
94	6.0767375310741e-06\\
95	9.24037499106345e-06\\
96	1.02785201935328e-05\\
97	9.23915569109476e-06\\
98	3.04623018887988e-06\\
99	9.99201207536578e-06\\
100	3.36714034347464e-06\\
101	5.67544387851811e-06\\
102	9.42665947311462e-06\\
103	3.95510236813596e-06\\
104	6.32044052191744e-06\\
105	6.36126290013191e-06\\
106	7.43909362615957e-06\\
107	4.54694573024113e-06\\
108	1.05281948983003e-05\\
109	2.85401073790672e-05\\
110	5.07795946433015e-05\\
111	1.11971335042052e-05\\
112	5.1696460588958e-06\\
113	1.05342042244078e-05\\
114	1.02299476825309e-05\\
115	8.50539003213829e-06\\
116	1.39227258698142e-05\\
117	3.7651584411565e-05\\
118	1.507232951352e-05\\
119	2.84509825261095e-05\\
120	0.00485329407036846\\
121	0.00146816276128004\\
122	0.026161687692551\\
123	0.00232542416490964\\
124	0.00757472405333078\\
125	0.0017954487395236\\
126	2.34004575660341e-05\\
127	1.30196148958894e-05\\
128	1.73652489254066e-05\\
129	0.000877716206291684\\
130	0.00378732737391475\\
131	0.000158951579380207\\
132	0.012159861372995\\
133	0.00508940963574199\\
134	0.0289692114890351\\
135	0.0171058393101135\\
136	0.0206072531016221\\
137	0.0548139137173809\\
138	0.00534529287971502\\
139	0.0110735699200206\\
140	0.000833433203342682\\
141	9.85501827055424e-05\\
142	0.00474939378937827\\
143	0.00370745848676843\\
144	0.00465347711914766\\
145	0.00394145202420315\\
146	0.0100881581909969\\
147	0.0164868866828434\\
148	0.0127833413244034\\
149	0.993693269410815\\
150	0.0127497025132011\\
151	0.0162092079026967\\
152	0.00971367024875281\\
153	0.00428356509824878\\
154	0.00511434052320619\\
155	0.0039665136043264\\
156	0.00464873882265297\\
157	0.000130626152806771\\
158	0.00106734367832798\\
159	0.0107117961145358\\
160	0.00539163690094636\\
161	0.0545188452774578\\
162	0.0207093722439789\\
163	0.0168596210955662\\
164	0.0294003158306966\\
165	0.00517273042224044\\
166	0.0124663496199491\\
167	9.53540930328153e-05\\
168	0.0040758689090528\\
169	0.000629834327185978\\
170	1.84982815775307e-05\\
171	1.49478970253762e-05\\
172	2.10974667207111e-05\\
173	0.00169059515191558\\
174	0.00752821546852761\\
175	0.00207279026054391\\
176	0.0264780995706067\\
177	0.00147577555925869\\
178	0.00475040130480028\\
179	2.3530180755977e-05\\
180	1.34777137999377e-05\\
181	2.81389812086865e-05\\
182	1.52575640327306e-05\\
183	8.95923167634209e-06\\
184	7.47089317978987e-06\\
185	9.35239603639908e-06\\
186	3.79702874398112e-06\\
187	2.05084125198987e-05\\
188	5.05015680584457e-05\\
189	2.61779808055849e-05\\
190	8.9617269792679e-06\\
191	9.35846845116068e-06\\
192	7.5139664765368e-06\\
193	1.04231501234872e-05\\
194	7.53581681238973e-06\\
195	1.04695281496676e-05\\
196	2.03208743932556e-05\\
197	9.77781889179155e-06\\
198	1.89616534939613e-05\\
199	9.65979063302169e-06\\
200	8.09070025329659e-06\\
201	6.03449159962614e-06\\
202	1.50069784077742e-05\\
203	1.14443867243162e-05\\
204	9.87194368482079e-06\\
205	1.06119890186949e-05\\
206	1.16203079582851e-05\\
207	6.34324879930993e-06\\
208	1.38395824510419e-05\\
209	4.66284819958656e-05\\
210	2.06208860357773e-05\\
211	3.64949968433648e-05\\
212	5.53494211504132e-06\\
213	1.95194183733021e-05\\
214	9.81577274975027e-06\\
215	3.28276967471258e-05\\
216	2.7064935231478e-06\\
217	7.59721716516106e-06\\
218	1.09051427517573e-05\\
219	1.35288723762261e-06\\
220	1.39308369599301e-05\\
221	2.41966922178606e-05\\
222	6.47307238485638e-06\\
223	1.95703715428914e-05\\
224	9.72463506537082e-06\\
225	7.50899470928581e-06\\
226	2.03566805106903e-05\\
227	1.44482743793428e-05\\
228	2.09245588846582e-05\\
229	1.72967246996278e-05\\
230	1.6529086936793e-05\\
231	1.0804990406538e-05\\
232	1.52302620051971e-06\\
233	1.34165897841203e-05\\
234	1.36910235299679e-05\\
235	1.19324256086647e-06\\
236	2.89740880525436e-05\\
237	3.45291005866415e-06\\
238	9.51162788605933e-06\\
239	1.6848601842503e-05\\
240	7.02770589193416e-06\\
241	9.30069962418007e-06\\
242	4.28889603721003e-05\\
243	1.36784291718493e-05\\
244	7.93559687651269e-06\\
245	1.0929857994125e-05\\
246	5.67402060908979e-06\\
247	3.2817443575984e-05\\
248	6.53619091870779e-06\\
249	2.24880842854818e-06\\
250	1.89816412896345e-05\\
251	2.27137543493151e-05\\
252	1.48492340872603e-05\\
253	1.17002450315452e-05\\
254	9.5176459127408e-06\\
255	7.7734188637049e-06\\
256	3.01986737411086e-05\\
257	2.19295542642314e-06\\
258	4.35853117997479e-06\\
259	2.28194913667081e-05\\
260	1.56243172860566e-05\\
261	9.34040472585836e-06\\
262	2.21030325758535e-05\\
263	2.36557999426962e-05\\
264	1.22066664305886e-05\\
265	2.17696017018869e-05\\
266	4.74462521240434e-06\\
267	8.21882566509537e-06\\
268	1.43172764276396e-05\\
269	1.15574409631165e-05\\
270	9.4121896280434e-06\\
271	1.78390543054624e-05\\
272	9.96817549899037e-06\\
273	8.32546715360681e-06\\
274	1.0272203262192e-05\\
275	5.99848388377097e-06\\
276	1.73045161736496e-05\\
277	9.50234534330113e-06\\
278	1.15450906248438e-05\\
279	9.21038245285373e-06\\
280	8.44082451605643e-06\\
281	8.03065885517115e-06\\
282	1.32785298500717e-05\\
283	1.85610248180302e-05\\
284	1.31217843489175e-05\\
285	1.70043951980242e-05\\
286	1.554914134493e-05\\
287	1.19946164072005e-05\\
288	3.35010783283735e-06\\
289	1.30112377897739e-05\\
290	7.19230728072079e-06\\
291	7.7834371622517e-06\\
292	8.20244749033986e-06\\
293	8.17993672075216e-06\\
294	5.73341578911555e-06\\
295	8.04058612393627e-06\\
296	2.53366555306097e-05\\
297	9.65922511871368e-06\\
298	9.23448589414425e-06\\
299	1.47527596428929e-05\\
};
\addlegendentry{$\mathbf{\hat{h}_{2}}$}

\end{axis}
\end{tikzpicture}%