% This file was created by matlab2tikz.
%
%The latest updates can be retrieved from
%  http://www.mathworks.com/matlabcentral/fileexchange/22022-matlab2tikz-matlab2tikz
%where you can also make suggestions and rate matlab2tikz.
%
\definecolor{mycolor1}{rgb}{0.00000,0.44700,0.74100}%
\definecolor{mycolor2}{rgb}{0.85000,0.32500,0.09800}%
%
\begin{tikzpicture}

\begin{axis}[%
width=1.935in,
height=3.2in,
at={(0.758in,0.512in)},
scale only axis,
xmin=0,
xmax=150,
xlabel style={font=\color{white!15!black}, align=center},
xlabel={Sample Index\\[1ex](a) Actual},
ymin=0,
ymax=0.7,
axis background/.style={fill=white},
legend style={legend cell align=left, align=left, draw=white!15!black}
]
\addplot [color=mycolor1]
  table[row sep=crcr]{%
1	0.0234657806037261\\
2	0.0272334504034075\\
3	0.0326864300765018\\
4	0.0414541482980318\\
5	0.0586677033458464\\
6	0.117843438362983\\
7	0.159969331461504\\
8	0.174397116945152\\
9	0.616552810702634\\
10	0.0882137642931462\\
11	0.0472681903124796\\
12	0.0327587509505929\\
13	0.0272256709659274\\
14	0.0412344622245766\\
15	0.0186762848129325\\
16	0.0451940046978057\\
17	0.0153724087875252\\
18	0.0239672675363248\\
19	0.0400285717874473\\
20	0.0828333966509162\\
21	0.557624977131952\\
22	0.149414784250917\\
23	0.109138078132702\\
24	0.0381681231028791\\
25	0.032799759178118\\
26	0.191519461959093\\
27	0.0734580287558902\\
28	0.0358315656953253\\
29	0.0179563195827385\\
30	0.0169149242156914\\
31	0.0179798517146348\\
32	0.0199431506445131\\
33	0.0279225394655299\\
34	0.0908594243819801\\
35	0.0439964246924232\\
36	0.330890477505262\\
37	0.037800506563543\\
38	0.020261933748638\\
39	0.0138181229977315\\
40	0.0211497159554441\\
41	0.0112042208144458\\
42	0.00964538908702694\\
43	0.00864780826327016\\
44	0.00787736374270682\\
45	0.00720180133294831\\
46	0.00651453200193765\\
47	0.00565492088107664\\
48	0.0112814316241706\\
49	0.0075966567083061\\
50	0.0102713040739602\\
51	0.00787142060243747\\
52	0.00711780022683946\\
53	0.00668443537322835\\
54	0.00638223966522588\\
55	0.00615487020840034\\
56	0.00598242225636516\\
57	0.00586293416152974\\
58	0.00581626175933958\\
59	0.00593494184987807\\
60	0.00707647204853056\\
61	0.00861312572402681\\
62	0.00240649054353041\\
63	0.0036902508247688\\
64	0.0040125763148678\\
65	0.00408542983582614\\
66	0.00408934467211144\\
67	0.00406760360864643\\
68	0.00403657730104579\\
69	0.00400486664899167\\
70	0.00397913876457006\\
71	0.00396763365360209\\
72	0.00398577860522856\\
73	0.00407460869510253\\
74	0.00440882178496405\\
75	0.00852319154542653\\
76	0.00211982859547221\\
77	0.00279674481878385\\
78	0.00295234209521732\\
79	0.00299967450324673\\
80	0.00300734384297471\\
81	0.00299658049652506\\
82	0.00297609501762909\\
83	0.00295010695632826\\
84	0.00292089738309008\\
85	0.00288979839106794\\
86	0.00285763293534116\\
87	0.00282493110979805\\
88	0.00279204510261472\\
89	0.00275921420187501\\
90	0.00272660345813555\\
91	0.00269432766245323\\
92	0.00266246675038502\\
93	0.00263107599882434\\
94	0.00260019295165966\\
95	0.00256984222925479\\
96	0.00254003893333548\\
97	0.0025107910982644\\
98	0.00248210148178531\\
99	0.00245396889001376\\
100	0.00242638916874131\\
101	0.00239935595223708\\
102	0.00237286123354156\\
103	0.00234689580183488\\
104	0.00232144957979209\\
105	0.00229651188498403\\
106	0.00227207163310714\\
107	0.0022481174963278\\
108	0.00222463802675857\\
109	0.00220162175268604\\
110	0.00217905725339276\\
111	0.0021569332170867\\
112	0.00213523848544673\\
113	0.00211396208753109\\
114	0.00209309326520902\\
115	0.00207262149182518\\
116	0.00205253648545491\\
117	0.00203282821783402\\
118	0.00201348691983224\\
119	0.00199450308416773\\
120	0.00197586746592614\\
121	0.00195757108133911\\
122	0.0019396052051902\\
123	0.0019219613671484\\
124	0.00190463134727109\\
125	0.00188760717087541\\
126	0.00187088110293773\\
127	0.00185444564215264\\
128	0.0018382935147574\\
129	0.00182241766820821\\
130	0.00180681126477794\\
131	0.00179146767513212\\
132	0.00177638047192757\\
133	0.00176154342347035\\
134	0.00174695048746156\\
135	0.0017325958048528\\
136	0.00171847369382931\\
137	0.00170457864393352\\
138	0.0016909053103386\\
139	0.00167744850827835\\
140	0.00166420320763913\\
141	0.00165116452771496\\
142	0.00163832773212761\\
143	0.00162568822391149\\
144	0.00161324154076111\\
145	0.0016009833504405\\
146	0.00158890944635072\\
147	0.00157701574325256\\
148	0.00156529827314105\\
149	0\\
150	0\\
};
\addlegendentry{$\mathbf{h_1}$}

\addplot [color=mycolor2]
  table[row sep=crcr]{%
1	0.019775303219206\\
2	0.0210217764534023\\
3	0.0224372323963497\\
4	0.024058742711813\\
5	0.0259351263737046\\
6	0.0281320174688059\\
7	0.0307398096072034\\
8	0.0338865833958781\\
9	0.0377600935275399\\
10	0.0426472101764649\\
11	0.0490094599986528\\
12	0.0576401827385178\\
13	0.0700288298559564\\
14	0.0893407156606893\\
15	0.123700774100431\\
16	0.202175033398071\\
17	0.564479813098353\\
18	0.690442426104836\\
19	0.212260509632627\\
20	0.126132345068284\\
21	0.100380135781766\\
22	0.0378663697499036\\
23	0.0333199748773482\\
24	0.0149453064107011\\
25	0.10083899339379\\
26	0.161002397050911\\
27	0.0405118251764787\\
28	0.0383644765554957\\
29	0.0341227495803863\\
30	0.0306469105251072\\
31	0.0278570926171954\\
32	0.0255709383506331\\
33	0.0236574529195357\\
34	0.0220274984760589\\
35	0.0206190941704396\\
36	0.0193877726649002\\
37	0.0183006807256663\\
38	0.0173329207549748\\
39	0.016465211935799\\
40	0.0156823459816501\\
41	0.0149721364414517\\
42	0.0143246843629073\\
43	0.0137318527665838\\
44	0.0131868826449622\\
45	0.0126841071808284\\
46	0.0122187355837443\\
47	0.0117866872087634\\
48	0.0113844626077037\\
49	0.0110090421200206\\
50	0.0106578052804057\\
51	0\\
52	0\\
53	0\\
54	0\\
55	0\\
56	0\\
57	0\\
58	0\\
59	0\\
60	0\\
61	0\\
62	0\\
63	0\\
64	0\\
65	0\\
66	0\\
67	0\\
68	0\\
69	0\\
70	0\\
71	0\\
72	0\\
73	0\\
74	0\\
75	0\\
76	0\\
77	0\\
78	0\\
79	0\\
80	0\\
81	0\\
82	0\\
83	0\\
84	0\\
85	0\\
86	0\\
87	0\\
88	0\\
89	0\\
90	0\\
91	0\\
92	0\\
93	0\\
94	0\\
95	0\\
96	0\\
97	0\\
98	0\\
99	0\\
100	0\\
101	0\\
102	0\\
103	0\\
104	0\\
105	0\\
106	0\\
107	0\\
108	0\\
109	0\\
110	0\\
111	0\\
112	0\\
113	0\\
114	0\\
115	0\\
116	0\\
117	0\\
118	0\\
119	0\\
120	0\\
121	0\\
122	0\\
123	0\\
124	0\\
125	0\\
126	0\\
127	0\\
128	0\\
129	0\\
130	0\\
131	0\\
132	0\\
133	0\\
134	0\\
135	0\\
136	0\\
137	0\\
138	0\\
139	0\\
140	0\\
141	0\\
142	0\\
143	0\\
144	0\\
145	0\\
146	0\\
147	0\\
148	0\\
149	0\\
150	0\\
};
\addlegendentry{$\mathbf{h_{2}}$}

\end{axis}

\begin{axis}[%
width=1.935in,
height=3.2in,
at={(3.327in,0.512in)},
scale only axis,
xmin=0,
xmax=150,
xlabel style={font=\color{white!15!black}, align=center},
xlabel={Sample Index\\[1ex](b) Estimated},
ymin=0,
ymax=1,
axis background/.style={fill=white},
legend style={legend cell align=left, align=left, draw=white!15!black}
]
\addplot [color=mycolor1]
  table[row sep=crcr]{%
0	1.0329030955834e-05\\
1	1.60802101693163e-05\\
2	2.09441938304516e-05\\
3	1.64851273581101e-05\\
4	1.49003677445084e-05\\
5	7.38847830259035e-06\\
6	2.25982620298806e-05\\
7	2.01786484076771e-05\\
8	3.6711903062289e-05\\
9	3.76262894018571e-05\\
10	7.50024930929829e-06\\
11	2.22697832445318e-05\\
12	3.98611757817395e-05\\
13	1.34425526051691e-05\\
14	1.32942007718915e-05\\
15	1.74716417359965e-05\\
16	3.25022334326129e-05\\
17	2.19108437226707e-05\\
18	1.10418851636435e-05\\
19	1.95650362413178e-05\\
20	3.31472833990766e-05\\
21	5.9037936976689e-05\\
22	3.5300501352443e-05\\
23	2.59411735818588e-05\\
24	2.3980984544839e-05\\
25	2.20052726331702e-05\\
26	3.1847330539889e-05\\
27	2.34162606497648e-05\\
28	1.93850354517068e-05\\
29	1.68475870866829e-05\\
30	1.36319054448125e-05\\
31	1.57279598325049e-05\\
32	1.28364311623725e-05\\
33	0.00902216878708756\\
34	0.00494208253862822\\
35	3.48667528597279e-05\\
36	0.00175365976255557\\
37	1.1240184009e-05\\
38	4.09847857348197e-05\\
39	3.35397141427593e-05\\
40	3.64631524464973e-05\\
41	2.67474607930659e-05\\
42	3.24560976109937e-05\\
43	0.00665678566983805\\
44	2.23097946543332e-05\\
45	0.0213154962937241\\
46	0.0753758060060349\\
47	0.0165603578828056\\
48	0.0165538141927787\\
49	0.0405755162010611\\
50	4.25597148828398e-05\\
51	0.00393368190767582\\
52	0.0952336686570869\\
53	0.0206849669183176\\
54	0.0197451687783275\\
55	0.0247074387307569\\
56	0.0176825488067603\\
57	0.0342543876032731\\
58	0.146720364193074\\
59	0.02611769275349\\
60	0.496721823524753\\
61	0.4100906687557\\
62	0.0984485736806227\\
63	0.0777924771745631\\
64	0.0216859339263048\\
65	0.0900598265583087\\
66	0.0247711576695635\\
67	0.0447029207629807\\
68	0.0103052111019451\\
69	0.0780007949826766\\
70	0.0800436549669589\\
71	0.111921000833702\\
72	0.248552990190408\\
73	0.48753526271918\\
74	0.185656525383891\\
75	0.0652546845352791\\
76	0.0704559388446601\\
77	0.10286872615596\\
78	0.092992723547771\\
79	0.102299684360688\\
80	0.0142481759654714\\
81	0.0213420683769512\\
82	0.0274204572070619\\
83	0.0175103156140143\\
84	0.0318758861247275\\
85	0.103988954855694\\
86	0.0952628524668092\\
87	0.284748388083897\\
88	0.0910101399492356\\
89	0.0227481616448111\\
90	0.0355519832723572\\
91	0.00188213596993045\\
92	7.87170225406659e-05\\
93	0.00186126210335508\\
94	0.0035318445048581\\
95	0.015685009750184\\
96	1.83167675302988e-05\\
97	0.0034813271054001\\
98	0.013246325482139\\
99	0.048145187480441\\
100	0.0265886323715701\\
101	3.69584801604593e-05\\
102	0.0152226877374827\\
103	6.03167173008962e-06\\
104	1.20913929773728e-05\\
105	2.16349486166362e-05\\
106	1.80822501437168e-05\\
107	1.96589735541697e-05\\
108	2.30193522846072e-05\\
109	2.33590122085527e-05\\
110	2.7466549314518e-05\\
111	1.57669938462456e-05\\
112	0.00294414816586048\\
113	4.06829278896481e-05\\
114	1.32021703231697e-05\\
115	5.72575307122868e-05\\
116	3.20314926749661e-05\\
117	5.28894392329425e-05\\
118	4.42448088289388e-05\\
119	2.63070831613852e-05\\
120	1.45460589933834e-05\\
121	2.93392454785536e-05\\
122	6.23068164157108e-06\\
123	1.23072381914466e-05\\
124	8.96333308269936e-06\\
125	1.34103960224745e-05\\
126	2.07144034802775e-05\\
127	3.44927329032354e-05\\
128	2.91037501513001e-06\\
129	3.59124332899112e-05\\
130	1.62956331523632e-05\\
131	3.76739590739786e-05\\
132	2.606293222441e-05\\
133	1.7641691880841e-05\\
134	4.28552512366615e-06\\
135	1.06976852661141e-05\\
136	7.89508559429405e-06\\
137	2.93601601848728e-05\\
138	1.80020327876219e-05\\
139	2.86385529473999e-05\\
};
\addlegendentry{$\mathbf{\hat{h}_{1}}$}

\addplot [color=mycolor2]
  table[row sep=crcr]{%
0	1.58091128531489e-05\\
1	1.21237396916709e-05\\
2	2.34998418002603e-05\\
3	2.74670327479693e-05\\
4	1.72152395592142e-05\\
5	6.0585991746533e-06\\
6	9.02391535679053e-06\\
7	3.38758508158502e-06\\
8	5.28869397576268e-06\\
9	1.97790130573171e-05\\
10	1.05271161069734e-05\\
11	1.35785262170195e-05\\
12	1.33133843676926e-05\\
13	1.39608067108068e-05\\
14	1.44310456880027e-05\\
15	6.20448659189428e-06\\
16	1.53616349039285e-05\\
17	1.38013970040911e-05\\
18	2.90260043014527e-05\\
19	9.09970022212596e-06\\
20	1.02866262032586e-05\\
21	2.56495423539794e-05\\
22	1.4326576928351e-05\\
23	1.27427446314718e-05\\
24	1.85905967583569e-05\\
25	4.39066049182549e-06\\
26	5.86894514525932e-06\\
27	0.00129378542286704\\
28	0.00461340024150083\\
29	0.00247816626384295\\
30	0.00719911423999548\\
31	1.19042301389955e-05\\
32	0.00255413806572963\\
33	2.0819457443518e-05\\
34	1.10301734615703e-05\\
35	1.22200717292919e-05\\
36	2.2553709314209e-05\\
37	0.00393580402262233\\
38	8.79220376432749e-06\\
39	9.9443731328985e-06\\
40	0.014548861647854\\
41	0.00398562843686427\\
42	0.0500435878545621\\
43	0.00516632790379763\\
44	0.0247363328994742\\
45	0.00990251391758189\\
46	0.0040213107688887\\
47	1.84623779729164e-05\\
48	7.91988529164928e-06\\
49	0.00664744764111029\\
50	0.000737409288653979\\
51	0.00208783331533317\\
52	0.0281260002080591\\
53	0.0192746464100201\\
54	0.0599996154634157\\
55	0.0308597663129828\\
56	0.0429119386997921\\
57	0.136752654194068\\
58	0.024868964697902\\
59	0.0289197985741953\\
60	0.00139876865009043\\
61	0.0163342676898314\\
62	0.0151740620317475\\
63	0.0140397152254959\\
64	0.0019604418709822\\
65	0.00912689118973409\\
66	0.0279137303111463\\
67	0.0351593790119827\\
68	0.0279222830662652\\
69	0.964477403931427\\
70	0.0267149786441666\\
71	0.0333190860755433\\
72	0.0253383985703927\\
73	0.0118794564277505\\
74	0.00471131770324102\\
75	0.0162725340233623\\
76	0.0166320298538229\\
77	0.0234971962473861\\
78	0.0039500433130172\\
79	0.0250190386763193\\
80	0.023379676325533\\
81	0.134800442335921\\
82	0.0444906490649236\\
83	0.0281720342959073\\
84	0.0629144212286652\\
85	0.0188552123794493\\
86	0.0297822705854532\\
87	0.00286694103221232\\
88	0.00306242903098888\\
89	0.00530551477944155\\
90	5.11882434698574e-06\\
91	2.35407341625592e-05\\
92	0.00175434171168608\\
93	0.00829227634972079\\
94	0.0237634525473936\\
95	0.00475947179794974\\
96	0.0528956875096423\\
97	0.00440065860115541\\
98	0.0139694758783622\\
99	1.71551519413655e-05\\
100	1.86251288288232e-05\\
101	0.00387850380910522\\
102	0.00013466711774505\\
103	1.45068402916171e-05\\
104	9.52072936662014e-06\\
105	2.23713198540712e-05\\
106	0.00211085591743885\\
107	1.70822004505117e-05\\
108	0.00502388153666194\\
109	0.00129149320100774\\
110	0.00452048204678346\\
111	0.00396677874636819\\
112	1.60729213919173e-05\\
113	7.50217475633071e-06\\
114	1.5108165840332e-05\\
115	9.91876529325831e-06\\
116	7.25398168449049e-06\\
117	3.07611158409436e-05\\
118	1.70870882921084e-05\\
119	8.30712592006516e-06\\
120	2.64489043098247e-05\\
121	1.34231413246883e-05\\
122	1.48261627360281e-05\\
123	2.025887894764e-06\\
124	8.85421852853202e-06\\
125	2.39561367347878e-05\\
126	1.50392170873517e-05\\
127	5.39655448676437e-06\\
128	1.2904202415222e-05\\
129	6.6378934458199e-06\\
130	8.60170761951725e-06\\
131	9.81304619176413e-06\\
132	1.18311084176066e-05\\
133	3.29967658960721e-06\\
134	7.2896390355014e-06\\
135	1.14153914767516e-05\\
136	1.66843411074344e-05\\
137	1.16122765164276e-05\\
138	1.82255409589295e-05\\
139	1.68456030797912e-05\\
};
\addlegendentry{$\mathbf{\hat{h}_{2}}$}

\end{axis}
\end{tikzpicture}%