% This file was created by matlab2tikz.
%
%The latest updates can be retrieved from
%  http://www.mathworks.com/matlabcentral/fileexchange/22022-matlab2tikz-matlab2tikz
%where you can also make suggestions and rate matlab2tikz.
%
\definecolor{mycolor1}{rgb}{0.00000,0.44700,0.74100}%
\definecolor{mycolor2}{rgb}{0.85000,0.32500,0.09800}%
%
\begin{tikzpicture}

\begin{axis}[%
width=1.935in,
height=3.2in,
at={(0.758in,0.512in)},
scale only axis,
xmin=0,
xmax=150,
xlabel style={font=\color{white!15!black}, align=center},
xlabel={Sample Index\\[1ex](a) Actual},
ymin=0,
ymax=0.7,
axis background/.style={fill=white},
legend style={legend cell align=left, align=left, draw=white!15!black}
]
\addplot [color=mycolor1]
  table[row sep=crcr]{%
1	0.0234657806037261\\
2	0.0272334504034075\\
3	0.0326864300765018\\
4	0.0414541482980318\\
5	0.0586677033458464\\
6	0.117843438362983\\
7	0.159969331461504\\
8	0.174397116945152\\
9	0.616552810702634\\
10	0.0882137642931462\\
11	0.0472681903124796\\
12	0.0327587509505929\\
13	0.0272256709659274\\
14	0.0412344622245766\\
15	0.0186762848129325\\
16	0.0451940046978057\\
17	0.0153724087875252\\
18	0.0239672675363248\\
19	0.0400285717874473\\
20	0.0828333966509162\\
21	0.557624977131952\\
22	0.149414784250917\\
23	0.109138078132702\\
24	0.0381681231028791\\
25	0.032799759178118\\
26	0.191519461959093\\
27	0.0734580287558902\\
28	0.0358315656953253\\
29	0.0179563195827385\\
30	0.0169149242156914\\
31	0.0179798517146348\\
32	0.0199431506445131\\
33	0.0279225394655299\\
34	0.0908594243819801\\
35	0.0439964246924232\\
36	0.330890477505262\\
37	0.037800506563543\\
38	0.020261933748638\\
39	0.0138181229977315\\
40	0.0211497159554441\\
41	0.0112042208144458\\
42	0.00964538908702694\\
43	0.00864780826327016\\
44	0.00787736374270682\\
45	0.00720180133294831\\
46	0.00651453200193765\\
47	0.00565492088107664\\
48	0.0112814316241706\\
49	0.0075966567083061\\
50	0.0102713040739602\\
51	0.00787142060243747\\
52	0.00711780022683946\\
53	0.00668443537322835\\
54	0.00638223966522588\\
55	0.00615487020840034\\
56	0.00598242225636516\\
57	0.00586293416152974\\
58	0.00581626175933958\\
59	0.00593494184987807\\
60	0.00707647204853056\\
61	0.00861312572402681\\
62	0.00240649054353041\\
63	0.0036902508247688\\
64	0.0040125763148678\\
65	0.00408542983582614\\
66	0.00408934467211144\\
67	0.00406760360864643\\
68	0.00403657730104579\\
69	0.00400486664899167\\
70	0.00397913876457006\\
71	0.00396763365360209\\
72	0.00398577860522856\\
73	0.00407460869510253\\
74	0.00440882178496405\\
75	0.00852319154542653\\
76	0.00211982859547221\\
77	0.00279674481878385\\
78	0.00295234209521732\\
79	0.00299967450324673\\
80	0.00300734384297471\\
81	0.00299658049652506\\
82	0.00297609501762909\\
83	0.00295010695632826\\
84	0.00292089738309008\\
85	0.00288979839106794\\
86	0.00285763293534116\\
87	0.00282493110979805\\
88	0.00279204510261472\\
89	0.00275921420187501\\
90	0.00272660345813555\\
91	0.00269432766245323\\
92	0.00266246675038502\\
93	0.00263107599882434\\
94	0.00260019295165966\\
95	0.00256984222925479\\
96	0.00254003893333548\\
97	0.0025107910982644\\
98	0.00248210148178531\\
99	0.00245396889001376\\
100	0.00242638916874131\\
101	0.00239935595223708\\
102	0.00237286123354156\\
103	0.00234689580183488\\
104	0.00232144957979209\\
105	0.00229651188498403\\
106	0.00227207163310714\\
107	0.0022481174963278\\
108	0.00222463802675857\\
109	0.00220162175268604\\
110	0.00217905725339276\\
111	0.0021569332170867\\
112	0.00213523848544673\\
113	0.00211396208753109\\
114	0.00209309326520902\\
115	0.00207262149182518\\
116	0.00205253648545491\\
117	0.00203282821783402\\
118	0.00201348691983224\\
119	0.00199450308416773\\
120	0.00197586746592614\\
121	0.00195757108133911\\
122	0.0019396052051902\\
123	0.0019219613671484\\
124	0.00190463134727109\\
125	0.00188760717087541\\
126	0.00187088110293773\\
127	0.00185444564215264\\
128	0.0018382935147574\\
129	0.00182241766820821\\
130	0.00180681126477794\\
131	0.00179146767513212\\
132	0.00177638047192757\\
133	0.00176154342347035\\
134	0.00174695048746156\\
135	0.0017325958048528\\
136	0.00171847369382931\\
137	0.00170457864393352\\
138	0.0016909053103386\\
139	0.00167744850827835\\
140	0.00166420320763913\\
141	0.00165116452771496\\
142	0.00163832773212761\\
143	0.00162568822391149\\
144	0.00161324154076111\\
145	0.0016009833504405\\
146	0.00158890944635072\\
147	0.00157701574325256\\
148	0.00156529827314105\\
149	0\\
150	0\\
};
\addlegendentry{$\mathbf{h_1}$}

\addplot [color=mycolor2]
  table[row sep=crcr]{%
1	0.019775303219206\\
2	0.0210217764534023\\
3	0.0224372323963497\\
4	0.024058742711813\\
5	0.0259351263737046\\
6	0.0281320174688059\\
7	0.0307398096072034\\
8	0.0338865833958781\\
9	0.0377600935275399\\
10	0.0426472101764649\\
11	0.0490094599986528\\
12	0.0576401827385178\\
13	0.0700288298559564\\
14	0.0893407156606893\\
15	0.123700774100431\\
16	0.202175033398071\\
17	0.564479813098353\\
18	0.690442426104836\\
19	0.212260509632627\\
20	0.126132345068284\\
21	0.100380135781766\\
22	0.0378663697499036\\
23	0.0333199748773482\\
24	0.0149453064107011\\
25	0.10083899339379\\
26	0.161002397050911\\
27	0.0405118251764787\\
28	0.0383644765554957\\
29	0.0341227495803863\\
30	0.0306469105251072\\
31	0.0278570926171954\\
32	0.0255709383506331\\
33	0.0236574529195357\\
34	0.0220274984760589\\
35	0.0206190941704396\\
36	0.0193877726649002\\
37	0.0183006807256663\\
38	0.0173329207549748\\
39	0.016465211935799\\
40	0.0156823459816501\\
41	0.0149721364414517\\
42	0.0143246843629073\\
43	0.0137318527665838\\
44	0.0131868826449622\\
45	0.0126841071808284\\
46	0.0122187355837443\\
47	0.0117866872087634\\
48	0.0113844626077037\\
49	0.0110090421200206\\
50	0.0106578052804057\\
51	0\\
52	0\\
53	0\\
54	0\\
55	0\\
56	0\\
57	0\\
58	0\\
59	0\\
60	0\\
61	0\\
62	0\\
63	0\\
64	0\\
65	0\\
66	0\\
67	0\\
68	0\\
69	0\\
70	0\\
71	0\\
72	0\\
73	0\\
74	0\\
75	0\\
76	0\\
77	0\\
78	0\\
79	0\\
80	0\\
81	0\\
82	0\\
83	0\\
84	0\\
85	0\\
86	0\\
87	0\\
88	0\\
89	0\\
90	0\\
91	0\\
92	0\\
93	0\\
94	0\\
95	0\\
96	0\\
97	0\\
98	0\\
99	0\\
100	0\\
101	0\\
102	0\\
103	0\\
104	0\\
105	0\\
106	0\\
107	0\\
108	0\\
109	0\\
110	0\\
111	0\\
112	0\\
113	0\\
114	0\\
115	0\\
116	0\\
117	0\\
118	0\\
119	0\\
120	0\\
121	0\\
122	0\\
123	0\\
124	0\\
125	0\\
126	0\\
127	0\\
128	0\\
129	0\\
130	0\\
131	0\\
132	0\\
133	0\\
134	0\\
135	0\\
136	0\\
137	0\\
138	0\\
139	0\\
140	0\\
141	0\\
142	0\\
143	0\\
144	0\\
145	0\\
146	0\\
147	0\\
148	0\\
149	0\\
150	0\\
};
\addlegendentry{$\mathbf{h_{2}}$}

\end{axis}

\begin{axis}[%
width=1.935in,
height=3.2in,
at={(3.327in,0.512in)},
scale only axis,
xmin=0,
xmax=159,
xlabel style={font=\color{white!15!black}, align=center},
xlabel={Sample Index\\[1ex](b) Estimated},
ymin=0,
ymax=1,
axis background/.style={fill=white},
legend style={legend cell align=left, align=left, draw=white!15!black}
]
\addplot [color=mycolor1]
  table[row sep=crcr]{%
0	4.96292061141412e-05\\
1	5.21618309221708e-05\\
2	6.03579324961977e-05\\
3	2.70643302939807e-05\\
4	0.000137422519129078\\
5	9.08392159194248e-05\\
6	0.000101684130305\\
7	3.7794298090452e-05\\
8	7.15770592639935e-05\\
9	6.09957327782311e-05\\
10	7.18368648180357e-05\\
11	4.84910948438845e-05\\
12	5.22876951453072e-05\\
13	4.19233131209404e-05\\
14	3.32554324972215e-05\\
15	3.3588977599869e-05\\
16	5.06203478405505e-05\\
17	5.17249591770195e-05\\
18	9.41238933393225e-05\\
19	5.87391225296744e-05\\
20	6.81383502445114e-05\\
21	2.51783698457094e-05\\
22	2.02547845366579e-05\\
23	1.58445422708437e-05\\
24	3.60027032124328e-05\\
25	7.40492844869551e-05\\
26	1.70203446533634e-05\\
27	2.32176129770896e-05\\
28	6.96443097227932e-05\\
29	3.29315846913495e-05\\
30	5.71436183414519e-05\\
31	2.45921475694364e-05\\
32	3.14093399622829e-05\\
33	2.44772289360976e-05\\
34	2.88125594098224e-05\\
35	5.63962224756181e-05\\
36	9.70880804965018e-05\\
37	1.58164929653395e-05\\
38	6.08721248953461e-05\\
39	5.27394527885962e-05\\
40	9.22999142160604e-05\\
41	6.17792963200875e-05\\
42	5.23267601422393e-05\\
43	0.00443711805769763\\
44	0.00234690027818968\\
45	8.38868460287531e-05\\
46	0.00037055584885384\\
47	6.18350922999856e-05\\
48	0.000871948544809516\\
49	0.000120394798845873\\
50	0.00065178520256686\\
51	5.55348805159265e-05\\
52	0.00103025604238097\\
53	0.00652142633025487\\
54	0.00163046084436159\\
55	0.0131187008463512\\
56	0.0437772477336189\\
57	0.0114232302535844\\
58	0.00302350888191729\\
59	0.0305346318772339\\
60	2.12533288387979e-05\\
61	0.0136378104696196\\
62	0.111128669538346\\
63	0.0337692641031059\\
64	0.0244188790183301\\
65	0.0251269761179415\\
66	0.0118448882910566\\
67	0.0393257618902723\\
68	0.157230526310099\\
69	0.0238584204973212\\
70	0.496762993691736\\
71	0.409064131019844\\
72	0.10245545075023\\
73	0.0692627388107035\\
74	0.0325544153092432\\
75	0.106867093165794\\
76	0.0192464952324648\\
77	0.0414904028094214\\
78	0.000748718103980848\\
79	0.0668132386586954\\
80	0.0712212772933512\\
81	0.101833329527637\\
82	0.260865080704627\\
83	0.489182200332645\\
84	0.179038261507833\\
85	0.0484693777055831\\
86	0.0679842366766991\\
87	0.10636051021316\\
88	0.087099045075997\\
89	0.10820990643934\\
90	0.00866234595758591\\
91	0.0197961268220202\\
92	0.0187192419590191\\
93	0.0104478637706201\\
94	0.0288862207439012\\
95	0.0791466196347374\\
96	0.0995236014499888\\
97	0.288875154092281\\
98	0.100027976343096\\
99	0.0279280385236845\\
100	0.0265570131407817\\
101	0.00320088905213116\\
102	5.0614622885999e-05\\
103	0.00209519800592264\\
104	0.00144633331064719\\
105	0.00811692370602718\\
106	6.57869048818742e-05\\
107	0.000327885751766183\\
108	0.00701897976657797\\
109	0.0288794704862115\\
110	0.0121964519311607\\
111	3.15038541444521e-05\\
112	0.00599935637012547\\
113	4.41088094654106e-05\\
114	5.5953011032339e-05\\
115	5.76572544639903e-05\\
116	5.90607897855893e-05\\
117	9.11159180539724e-05\\
118	8.35791293674307e-05\\
119	9.22338551040773e-05\\
120	9.78852203074709e-05\\
121	1.35594231642995e-05\\
122	0.000408375920465932\\
123	0.000111062011898959\\
124	4.10163344596119e-05\\
125	0.000135257618513996\\
126	7.66826492061281e-05\\
127	1.06934649239457e-05\\
128	6.01318521876807e-05\\
129	2.11818032571836e-05\\
130	2.90593838798938e-05\\
131	5.71087013857533e-05\\
132	3.13291444973917e-05\\
133	0.000112336380070918\\
134	2.75417690407012e-05\\
135	6.02959990549996e-05\\
136	0.000172752277781374\\
137	6.49804514065651e-05\\
138	7.45647491279969e-05\\
139	6.98656321915702e-05\\
140	3.05339286629128e-05\\
141	1.58674288835192e-05\\
142	1.70395912913715e-05\\
143	8.12243387052251e-05\\
144	8.05321212800052e-06\\
145	0.000102254436928187\\
146	0.000102457137794181\\
147	2.98762410411998e-06\\
148	1.73678351089015e-05\\
149	0.000139280407409684\\
150	4.71720036015287e-05\\
151	6.35081493219903e-05\\
152	0.000122519845329834\\
153	3.22700795863938e-05\\
154	8.35284821039994e-05\\
155	4.78922586196881e-05\\
156	1.4898651797152e-05\\
157	8.3917282017485e-05\\
158	6.90398028360496e-05\\
159	4.61011657208246e-05\\
};
\addlegendentry{$\mathbf{\hat{h}_{1}}$}

\addplot [color=mycolor2]
  table[row sep=crcr]{%
0	2.39937110604699e-05\\
1	5.93308039508727e-05\\
2	6.13762293393676e-06\\
3	1.27084574580564e-05\\
4	4.09326795985598e-05\\
5	1.03049380468164e-05\\
6	2.34601610297684e-05\\
7	1.89332032091713e-05\\
8	1.82460291628234e-05\\
9	1.41840534757498e-05\\
10	3.37738357933477e-05\\
11	2.19614565131353e-05\\
12	3.35360434646168e-06\\
13	6.53610918957953e-05\\
14	1.64818422573294e-05\\
15	2.46864294307096e-05\\
16	2.94406990161196e-05\\
17	1.22839869181318e-06\\
18	3.49975498695228e-05\\
19	2.48032934587263e-06\\
20	1.22623513073658e-05\\
21	2.05204606202144e-05\\
22	1.22730633469738e-05\\
23	9.70015900349068e-06\\
24	2.21337228484949e-05\\
25	3.45949124948326e-05\\
26	2.25131325936746e-05\\
27	2.62428825592261e-05\\
28	8.3388763965469e-06\\
29	2.99733223338654e-05\\
30	9.20995627338732e-06\\
31	8.49050816087934e-06\\
32	4.38322155242676e-05\\
33	8.01827733099361e-06\\
34	1.47296308150977e-05\\
35	0.000102533460573723\\
36	1.23073729551113e-05\\
37	0.000687643426079832\\
38	0.00181523017022147\\
39	0.000503950235348476\\
40	0.00199932239598058\\
41	1.02380960814583e-05\\
42	0.000399832203893813\\
43	1.30050464030666e-05\\
44	3.68509092070251e-05\\
45	5.08735234394952e-05\\
46	5.11953364100818e-06\\
47	0.00236054107442082\\
48	0.00066686517087471\\
49	0.0001904268029503\\
50	0.0113495757875628\\
51	0.00510322177898089\\
52	0.0413032065268282\\
53	0.00623905625839335\\
54	0.0154383483995024\\
55	0.00692269571130639\\
56	0.00323409562679397\\
57	9.77914258340815e-06\\
58	0.00114576861711989\\
59	0.00521747194317611\\
60	0.00631533230993728\\
61	0.00395315795030394\\
62	0.0215916309718162\\
63	0.0129511202304965\\
64	0.0467136167445974\\
65	0.0271267372104996\\
66	0.0336290028467867\\
67	0.090785771507279\\
68	0.0134442853762117\\
69	0.0201246293423136\\
70	0.00358126065584307\\
71	0.00460968405091853\\
72	0.0109241955049447\\
73	0.00907651746686115\\
74	0.00863839491465354\\
75	0.00736546416051138\\
76	0.0195435339129768\\
77	0.0280437961464962\\
78	0.0231358106990409\\
79	0.981960535170214\\
80	0.0230125822712476\\
81	0.0275296816217166\\
82	0.0189398745169275\\
83	0.00790562401495715\\
84	0.00952920912420138\\
85	0.00967342993746942\\
86	0.0109607345257846\\
87	0.00561341409131151\\
88	0.00418874145454359\\
89	0.0193294039009588\\
90	0.0135037437807989\\
91	0.090296381428375\\
92	0.0339739726665476\\
93	0.0266122106262015\\
94	0.0474663739734468\\
95	0.0129968940899557\\
96	0.0220982263310053\\
97	0.00409027053891077\\
98	0.00701579538625559\\
99	0.00472448720053807\\
100	0.000734202262203697\\
101	4.16847570216932e-06\\
102	0.00299876444968139\\
103	0.00661928576829784\\
104	0.0151303330026899\\
105	0.00606667027362206\\
106	0.0420227127864728\\
107	0.00507135167373837\\
108	0.011103057709162\\
109	0.000460802058852259\\
110	0.000689137859172587\\
111	0.00216222797352848\\
112	1.13570659571605e-05\\
113	8.17177773105874e-05\\
114	3.80430222312416e-05\\
115	2.1293726171098e-05\\
116	0.000376962043330841\\
117	4.72442548266403e-06\\
118	0.00171907329218279\\
119	0.000243461365827355\\
120	0.00168944145881216\\
121	0.00127938489162868\\
122	1.00774766371579e-05\\
123	8.43613691152186e-05\\
124	2.46092743692214e-05\\
125	3.74303880522797e-06\\
126	3.88683502046133e-05\\
127	1.98773159840125e-05\\
128	7.50627921005467e-06\\
129	2.71994009743338e-05\\
130	2.39447509343837e-06\\
131	2.6883995641184e-05\\
132	2.22566434531478e-05\\
133	3.09458777624586e-05\\
134	1.99888469476451e-05\\
135	1.24145916826231e-05\\
136	1.95612000315806e-05\\
137	2.12398929302286e-05\\
138	1.88212191386528e-05\\
139	5.04368179648145e-06\\
140	2.83900107598295e-05\\
141	7.11940386667465e-06\\
142	3.3406251913573e-05\\
143	1.7031823731132e-05\\
144	1.92889901436962e-05\\
145	6.42116880642792e-05\\
146	1.81633780563929e-05\\
147	3.98248202351643e-05\\
148	3.48400718973091e-05\\
149	2.25132209343722e-05\\
150	1.07352851476503e-05\\
151	1.37647048450672e-05\\
152	1.88560217961525e-05\\
153	1.07349850236656e-05\\
154	5.11628569499196e-05\\
155	8.39448895747359e-06\\
156	6.27179464900177e-06\\
157	4.26893647511128e-05\\
158	5.07090355649666e-05\\
159	1.71057609429404e-05\\
};
\addlegendentry{$\mathbf{\hat{h}_{2}}$}

\end{axis}
\end{tikzpicture}%