% This file was created by matlab2tikz.
%
%The latest updates can be retrieved from
%  http://www.mathworks.com/matlabcentral/fileexchange/22022-matlab2tikz-matlab2tikz
%where you can also make suggestions and rate matlab2tikz.
%
\definecolor{mycolor1}{rgb}{0.00000,0.44700,0.74100}%
\definecolor{mycolor2}{rgb}{0.85000,0.32500,0.09800}%
%
\begin{tikzpicture}

\begin{axis}[%
width=1.935in,
height=3.2in,
at={(0.758in,0.512in)},
scale only axis,
xmin=0,
xmax=150,
xlabel style={font=\color{white!15!black}, align=center},
xlabel={Sample Index\\[1ex](a) Actual},
ymin=0,
ymax=0.7,
axis background/.style={fill=white},
legend style={legend cell align=left, align=left, draw=white!15!black}
]
\addplot [color=mycolor1]
  table[row sep=crcr]{%
1	0.0234657806037261\\
2	0.0272334504034075\\
3	0.0326864300765018\\
4	0.0414541482980318\\
5	0.0586677033458464\\
6	0.117843438362983\\
7	0.159969331461504\\
8	0.174397116945152\\
9	0.616552810702634\\
10	0.0882137642931462\\
11	0.0472681903124796\\
12	0.0327587509505929\\
13	0.0272256709659274\\
14	0.0412344622245766\\
15	0.0186762848129325\\
16	0.0451940046978057\\
17	0.0153724087875252\\
18	0.0239672675363248\\
19	0.0400285717874473\\
20	0.0828333966509162\\
21	0.557624977131952\\
22	0.149414784250917\\
23	0.109138078132702\\
24	0.0381681231028791\\
25	0.032799759178118\\
26	0.191519461959093\\
27	0.0734580287558902\\
28	0.0358315656953253\\
29	0.0179563195827385\\
30	0.0169149242156914\\
31	0.0179798517146348\\
32	0.0199431506445131\\
33	0.0279225394655299\\
34	0.0908594243819801\\
35	0.0439964246924232\\
36	0.330890477505262\\
37	0.037800506563543\\
38	0.020261933748638\\
39	0.0138181229977315\\
40	0.0211497159554441\\
41	0.0112042208144458\\
42	0.00964538908702694\\
43	0.00864780826327016\\
44	0.00787736374270682\\
45	0.00720180133294831\\
46	0.00651453200193765\\
47	0.00565492088107664\\
48	0.0112814316241706\\
49	0.0075966567083061\\
50	0.0102713040739602\\
51	0.00787142060243747\\
52	0.00711780022683946\\
53	0.00668443537322835\\
54	0.00638223966522588\\
55	0.00615487020840034\\
56	0.00598242225636516\\
57	0.00586293416152974\\
58	0.00581626175933958\\
59	0.00593494184987807\\
60	0.00707647204853056\\
61	0.00861312572402681\\
62	0.00240649054353041\\
63	0.0036902508247688\\
64	0.0040125763148678\\
65	0.00408542983582614\\
66	0.00408934467211144\\
67	0.00406760360864643\\
68	0.00403657730104579\\
69	0.00400486664899167\\
70	0.00397913876457006\\
71	0.00396763365360209\\
72	0.00398577860522856\\
73	0.00407460869510253\\
74	0.00440882178496405\\
75	0.00852319154542653\\
76	0.00211982859547221\\
77	0.00279674481878385\\
78	0.00295234209521732\\
79	0.00299967450324673\\
80	0.00300734384297471\\
81	0.00299658049652506\\
82	0.00297609501762909\\
83	0.00295010695632826\\
84	0.00292089738309008\\
85	0.00288979839106794\\
86	0.00285763293534116\\
87	0.00282493110979805\\
88	0.00279204510261472\\
89	0.00275921420187501\\
90	0.00272660345813555\\
91	0.00269432766245323\\
92	0.00266246675038502\\
93	0.00263107599882434\\
94	0.00260019295165966\\
95	0.00256984222925479\\
96	0.00254003893333548\\
97	0.0025107910982644\\
98	0.00248210148178531\\
99	0.00245396889001376\\
100	0.00242638916874131\\
101	0.00239935595223708\\
102	0.00237286123354156\\
103	0.00234689580183488\\
104	0.00232144957979209\\
105	0.00229651188498403\\
106	0.00227207163310714\\
107	0.0022481174963278\\
108	0.00222463802675857\\
109	0.00220162175268604\\
110	0.00217905725339276\\
111	0.0021569332170867\\
112	0.00213523848544673\\
113	0.00211396208753109\\
114	0.00209309326520902\\
115	0.00207262149182518\\
116	0.00205253648545491\\
117	0.00203282821783402\\
118	0.00201348691983224\\
119	0.00199450308416773\\
120	0.00197586746592614\\
121	0.00195757108133911\\
122	0.0019396052051902\\
123	0.0019219613671484\\
124	0.00190463134727109\\
125	0.00188760717087541\\
126	0.00187088110293773\\
127	0.00185444564215264\\
128	0.0018382935147574\\
129	0.00182241766820821\\
130	0.00180681126477794\\
131	0.00179146767513212\\
132	0.00177638047192757\\
133	0.00176154342347035\\
134	0.00174695048746156\\
135	0.0017325958048528\\
136	0.00171847369382931\\
137	0.00170457864393352\\
138	0.0016909053103386\\
139	0.00167744850827835\\
140	0.00166420320763913\\
141	0.00165116452771496\\
142	0.00163832773212761\\
143	0.00162568822391149\\
144	0.00161324154076111\\
145	0.0016009833504405\\
146	0.00158890944635072\\
147	0.00157701574325256\\
148	0.00156529827314105\\
149	0\\
150	0\\
};
\addlegendentry{$\mathbf{h_1}$}

\addplot [color=mycolor2]
  table[row sep=crcr]{%
1	0.019775303219206\\
2	0.0210217764534023\\
3	0.0224372323963497\\
4	0.024058742711813\\
5	0.0259351263737046\\
6	0.0281320174688059\\
7	0.0307398096072034\\
8	0.0338865833958781\\
9	0.0377600935275399\\
10	0.0426472101764649\\
11	0.0490094599986528\\
12	0.0576401827385178\\
13	0.0700288298559564\\
14	0.0893407156606893\\
15	0.123700774100431\\
16	0.202175033398071\\
17	0.564479813098353\\
18	0.690442426104836\\
19	0.212260509632627\\
20	0.126132345068284\\
21	0.100380135781766\\
22	0.0378663697499036\\
23	0.0333199748773482\\
24	0.0149453064107011\\
25	0.10083899339379\\
26	0.161002397050911\\
27	0.0405118251764787\\
28	0.0383644765554957\\
29	0.0341227495803863\\
30	0.0306469105251072\\
31	0.0278570926171954\\
32	0.0255709383506331\\
33	0.0236574529195357\\
34	0.0220274984760589\\
35	0.0206190941704396\\
36	0.0193877726649002\\
37	0.0183006807256663\\
38	0.0173329207549748\\
39	0.016465211935799\\
40	0.0156823459816501\\
41	0.0149721364414517\\
42	0.0143246843629073\\
43	0.0137318527665838\\
44	0.0131868826449622\\
45	0.0126841071808284\\
46	0.0122187355837443\\
47	0.0117866872087634\\
48	0.0113844626077037\\
49	0.0110090421200206\\
50	0.0106578052804057\\
51	0\\
52	0\\
53	0\\
54	0\\
55	0\\
56	0\\
57	0\\
58	0\\
59	0\\
60	0\\
61	0\\
62	0\\
63	0\\
64	0\\
65	0\\
66	0\\
67	0\\
68	0\\
69	0\\
70	0\\
71	0\\
72	0\\
73	0\\
74	0\\
75	0\\
76	0\\
77	0\\
78	0\\
79	0\\
80	0\\
81	0\\
82	0\\
83	0\\
84	0\\
85	0\\
86	0\\
87	0\\
88	0\\
89	0\\
90	0\\
91	0\\
92	0\\
93	0\\
94	0\\
95	0\\
96	0\\
97	0\\
98	0\\
99	0\\
100	0\\
101	0\\
102	0\\
103	0\\
104	0\\
105	0\\
106	0\\
107	0\\
108	0\\
109	0\\
110	0\\
111	0\\
112	0\\
113	0\\
114	0\\
115	0\\
116	0\\
117	0\\
118	0\\
119	0\\
120	0\\
121	0\\
122	0\\
123	0\\
124	0\\
125	0\\
126	0\\
127	0\\
128	0\\
129	0\\
130	0\\
131	0\\
132	0\\
133	0\\
134	0\\
135	0\\
136	0\\
137	0\\
138	0\\
139	0\\
140	0\\
141	0\\
142	0\\
143	0\\
144	0\\
145	0\\
146	0\\
147	0\\
148	0\\
149	0\\
150	0\\
};
\addlegendentry{$\mathbf{h_{2}}$}

\end{axis}

\begin{axis}[%
width=1.935in,
height=3.2in,
at={(3.327in,0.512in)},
scale only axis,
xmin=0,
xmax=159,
xlabel style={font=\color{white!15!black}, align=center},
xlabel={Sample Index\\[1ex](b) Estimated},
ymin=0,
ymax=1,
axis background/.style={fill=white},
legend style={legend cell align=left, align=left, draw=white!15!black}
]
\addplot [color=mycolor1]
  table[row sep=crcr]{%
0	4.56940640997884e-05\\
1	1.19653997307036e-05\\
2	3.88480304010417e-05\\
3	8.24918833156401e-05\\
4	7.28272280508909e-05\\
5	0.000139601190717069\\
6	2.85205448287993e-05\\
7	6.62128663579909e-05\\
8	9.52238571494908e-05\\
9	6.63785552505052e-05\\
10	9.6904626236419e-05\\
11	5.66903172960852e-05\\
12	3.72716628886587e-05\\
13	3.97407977434395e-05\\
14	0.000118451844145912\\
15	5.46491761016576e-05\\
16	5.69596686800295e-05\\
17	4.44827969438866e-05\\
18	4.92701690758554e-05\\
19	5.19550741106322e-05\\
20	8.6384373158119e-05\\
21	2.15835533111927e-05\\
22	4.41742174211961e-05\\
23	7.69764291140573e-06\\
24	0.000145954045743566\\
25	6.74125932210654e-05\\
26	9.04576925146385e-05\\
27	1.64123098751195e-05\\
28	8.8563639625432e-05\\
29	3.47301533093095e-05\\
30	2.5403223469931e-05\\
31	3.29176788898611e-05\\
32	3.96929430296724e-05\\
33	4.64300753615189e-05\\
34	5.73001485381731e-05\\
35	4.38760848039174e-05\\
36	0.000125037407496438\\
37	4.77205267789553e-05\\
38	3.45930422489134e-05\\
39	0.000104070130994595\\
40	8.35683186107241e-05\\
41	5.25384839641641e-05\\
42	0.000495643547025487\\
43	0.00411323355011343\\
44	0.00222030350116531\\
45	6.69384433158593e-05\\
46	0.000398189267402805\\
47	5.30315035336164e-05\\
48	0.000781415125550777\\
49	7.61796322572168e-05\\
50	0.00087898058584202\\
51	7.64397017033963e-05\\
52	0.000970212677849712\\
53	0.00556952559773745\\
54	0.0014320942770066\\
55	0.0115507375927716\\
56	0.0440528912322891\\
57	0.0118302663390136\\
58	0.00309513689934347\\
59	0.026650394672721\\
60	2.14865236261436e-05\\
61	0.0149875528742766\\
62	0.112245396755207\\
63	0.0308196288246855\\
64	0.0228666209224307\\
65	0.0256977455344985\\
66	0.0116880057603865\\
67	0.0382957899204537\\
68	0.154735216864095\\
69	0.0237247827136137\\
70	0.495157869186968\\
71	0.409356293063132\\
72	0.105486196657103\\
73	0.0720824366401423\\
74	0.0328831935704761\\
75	0.106133346995531\\
76	0.0208901071301284\\
77	0.0450182380056441\\
78	0.0018837902226583\\
79	0.0679418731275834\\
80	0.0707004238732128\\
81	0.102363070299925\\
82	0.260733414345961\\
83	0.488476524303585\\
84	0.179474832627475\\
85	0.0517841322862679\\
86	0.0657319641999467\\
87	0.106448247391948\\
88	0.0885581574336238\\
89	0.108876975227744\\
90	0.00893960105423339\\
91	0.018728695595257\\
92	0.0182780639539121\\
93	0.0108199267891707\\
94	0.0283616629277097\\
95	0.0791418676230713\\
96	0.101740169525576\\
97	0.290536200075963\\
98	0.100288583922296\\
99	0.0247644913816045\\
100	0.0261653881840867\\
101	0.00343135149678765\\
102	8.2674586636708e-05\\
103	0.000483993628469499\\
104	0.00148266533347221\\
105	0.00788140432960598\\
106	1.04764880915404e-05\\
107	0.000550237405082729\\
108	0.0063147610574812\\
109	0.0271320405296851\\
110	0.013285765660247\\
111	9.42556730394882e-05\\
112	0.00552068101692308\\
113	4.63456444778803e-05\\
114	6.25643157962156e-05\\
115	4.36431146741028e-05\\
116	0.000142562488623663\\
117	8.71677422949972e-05\\
118	8.78110544929111e-05\\
119	4.17256944710113e-05\\
120	4.91474641251658e-05\\
121	7.25717200290301e-05\\
122	0.000297448379563167\\
123	2.53553521547184e-05\\
124	3.62824118054533e-05\\
125	3.51660736985382e-05\\
126	4.26425758016846e-05\\
127	9.47540706301214e-05\\
128	1.16077126572979e-05\\
129	3.39335112453269e-05\\
130	3.11948426266958e-05\\
131	6.68554167186772e-05\\
132	2.21904831436008e-05\\
133	4.05370773658556e-05\\
134	9.40617382008797e-05\\
135	6.20936038795658e-05\\
136	8.62266003814208e-05\\
137	2.95363701322535e-05\\
138	5.87652867351746e-05\\
139	9.36301470529236e-05\\
140	7.80024388939001e-05\\
141	3.5391367047231e-05\\
142	7.59889828075607e-05\\
143	3.57666204349538e-05\\
144	9.59450261646237e-05\\
145	0.000115161285116418\\
146	9.15082175507759e-05\\
147	5.64574285482972e-05\\
148	5.02144908320453e-05\\
149	5.26152363194836e-06\\
150	0.000105222075735351\\
151	2.28669464592162e-05\\
152	6.14852023513424e-05\\
153	4.43165884195108e-05\\
154	8.78166149944339e-05\\
155	3.007048970871e-05\\
156	7.27620876161449e-05\\
157	4.14969687869479e-05\\
158	3.52790136521792e-05\\
159	4.69277749040601e-05\\
};
\addlegendentry{$\mathbf{\hat{h}_{1}}$}

\addplot [color=mycolor2]
  table[row sep=crcr]{%
0	4.32737125611787e-05\\
1	4.47152522057846e-05\\
2	2.73237940869802e-05\\
3	1.36523636040467e-05\\
4	3.26494500868303e-05\\
5	1.16754708628537e-05\\
6	3.88907523462655e-05\\
7	2.42431135347651e-05\\
8	3.16726567471329e-05\\
9	9.68507185033471e-06\\
10	3.14414217739123e-05\\
11	1.38567065044403e-05\\
12	2.74323794214721e-05\\
13	4.82598168402761e-06\\
14	1.26990701890713e-05\\
15	5.28500857346422e-06\\
16	6.22792402703454e-05\\
17	2.72445329238486e-05\\
18	2.84010781161622e-05\\
19	2.59055088542705e-05\\
20	1.44276412475535e-05\\
21	2.34919042959265e-05\\
22	1.34557330895174e-05\\
23	2.74949641153337e-05\\
24	4.20770984141755e-05\\
25	1.61407145014026e-05\\
26	1.2769709827708e-05\\
27	1.64318775688009e-05\\
28	3.29574434582913e-05\\
29	3.34603832283722e-06\\
30	2.09256354647533e-05\\
31	2.65661193727883e-05\\
32	3.28689538444199e-05\\
33	5.41319484958189e-05\\
34	2.12449239876438e-05\\
35	3.17566042801884e-05\\
36	3.54128655104525e-05\\
37	0.000178987965612665\\
38	0.00176983692847516\\
39	0.000877406849010015\\
40	0.00182853044522503\\
41	3.21058273978899e-05\\
42	0.00103591054442847\\
43	2.0903848036874e-05\\
44	3.20395685238967e-05\\
45	0.000367199110400251\\
46	0.000103738673421539\\
47	0.00230022569535345\\
48	6.56326202623824e-05\\
49	0.000210093291628691\\
50	0.0114415320683976\\
51	0.00584272322388538\\
52	0.0414917373562871\\
53	0.00636955402995993\\
54	0.0158191542066821\\
55	0.00683727021417643\\
56	0.00365873274570347\\
57	1.78058974800258e-05\\
58	0.00125143867960122\\
59	0.00520272906997747\\
60	0.0062855033271255\\
61	0.00422009105886477\\
62	0.021678831834764\\
63	0.0122428422764324\\
64	0.0465663918517685\\
65	0.0269510317973326\\
66	0.0335956357663829\\
67	0.0912214451563261\\
68	0.014441920250694\\
69	0.0200344696524207\\
70	0.00383903677062585\\
71	0.00539738404016787\\
72	0.0108362535196517\\
73	0.00947050295404001\\
74	0.00751131105699904\\
75	0.00758804901130273\\
76	0.018788400674346\\
77	0.0272660341977086\\
78	0.0223769081316855\\
79	0.981958869963607\\
80	0.0222955252374222\\
81	0.0267162138213721\\
82	0.0181819934698429\\
83	0.0081320527778218\\
84	0.00848937330249941\\
85	0.0100916747230855\\
86	0.010962462149836\\
87	0.00639517028873223\\
88	0.00452162599606467\\
89	0.0192703793112012\\
90	0.0144421839875392\\
91	0.0906813629906893\\
92	0.0339139055273512\\
93	0.0263835436387587\\
94	0.047417598241878\\
95	0.012313825072918\\
96	0.0222181521334469\\
97	0.00429964912084463\\
98	0.0070080876052301\\
99	0.00477393639808725\\
100	0.000845103281264793\\
101	1.45497807295103e-05\\
102	0.00338984951570344\\
103	0.00640349974508052\\
104	0.0155931565819741\\
105	0.00607413837973903\\
106	0.0422181881485469\\
107	0.00567443291134166\\
108	0.0112542578601558\\
109	0.000473824291678802\\
110	6.26888172012476e-05\\
111	0.00209689800736526\\
112	6.77685769904351e-05\\
113	0.000618768314835842\\
114	3.08428329263729e-05\\
115	1.96726055052637e-05\\
116	0.000954992567515397\\
117	2.72075224574713e-05\\
118	0.00154850195490581\\
119	0.000580435433946062\\
120	0.00167145220961294\\
121	0.000545771255175673\\
122	1.86319039384108e-05\\
123	2.95021699940088e-05\\
124	1.09357349542046e-05\\
125	5.84699378184186e-05\\
126	2.44601667397439e-05\\
127	3.09694977080971e-05\\
128	1.58528788335955e-05\\
129	1.72942505923781e-06\\
130	3.07194267832232e-05\\
131	2.00400572118633e-05\\
132	6.16401480413807e-06\\
133	1.21511136095985e-05\\
134	4.09777988323392e-05\\
135	2.07003520202422e-05\\
136	1.27569180074738e-05\\
137	1.16937154943098e-05\\
138	1.4873102405568e-05\\
139	2.64990771398251e-05\\
140	2.14667941069742e-05\\
141	2.83573672629543e-05\\
142	5.21552622854497e-05\\
143	8.49010867413669e-06\\
144	1.63462557351978e-05\\
145	5.34567505362763e-06\\
146	2.27930983994308e-05\\
147	1.9171905838502e-05\\
148	1.67969574754119e-05\\
149	1.8814852047349e-05\\
150	3.41538514126306e-05\\
151	2.70368815653171e-05\\
152	3.96598992930149e-05\\
153	1.55784395247479e-05\\
154	3.77049471482868e-05\\
155	1.56757024228291e-05\\
156	2.19799219631949e-05\\
157	4.40886767788725e-05\\
158	4.61205792720297e-05\\
159	2.07996643517063e-05\\
};
\addlegendentry{$\mathbf{\hat{h}_{2}}$}

\end{axis}
\end{tikzpicture}%