% This file was created by matlab2tikz.
%
%The latest updates can be retrieved from
%  http://www.mathworks.com/matlabcentral/fileexchange/22022-matlab2tikz-matlab2tikz
%where you can also make suggestions and rate matlab2tikz.
%
\definecolor{mycolor1}{rgb}{0.00000,0.44700,0.74100}%
\definecolor{mycolor2}{rgb}{0.85000,0.32500,0.09800}%
%
\begin{tikzpicture}

\begin{axis}[%
width=1.935in,
height=3.2in,
at={(0.758in,0.512in)},
scale only axis,
xmin=0,
xmax=200,
xlabel style={font=\color{white!15!black}, align=center},
xlabel={Sample Index\\[1ex](a) Actual},
ymin=0,
ymax=1,
axis background/.style={fill=white},
legend style={legend cell align=left, align=left, draw=white!15!black}
]
\addplot [color=mycolor1]
  table[row sep=crcr]{%
1	0.0167418731260698\\
2	0.018659722218203\\
3	0.0211495716349754\\
4	0.0245407494314006\\
5	0.029505643974117\\
6	0.0377161636169434\\
7	0.0550750576238134\\
8	0.131028403455825\\
9	0.141533477104454\\
10	0.158175166246243\\
11	0.163761757297189\\
12	0.600100605556833\\
13	0.118033417583129\\
14	0.0610914209628117\\
15	0.0426162246246858\\
16	0.0332715711707656\\
17	0.0321939439283243\\
18	0.0268871008873183\\
19	0.0316920608120786\\
20	0.0286771919664519\\
21	0.00773119825769845\\
22	0.0330073087209196\\
23	0.019415059292473\\
24	0.0177688778425817\\
25	0.0188194600762088\\
26	0.0237714798713867\\
27	0.0430806655948836\\
28	0.586023006720236\\
29	0.0970905103802927\\
30	0.0246981078960262\\
31	0.0780346253424249\\
32	0.0580455436901626\\
33	0.0681836526256362\\
34	0.163824852865525\\
35	0.0446106828365612\\
36	0.06119675966513\\
37	0.00907835157153909\\
38	0.0310093774848825\\
39	0.00125972832884384\\
40	0.005422098150711\\
41	0.0107374596162295\\
42	0.0165479326643041\\
43	0.024789327411243\\
44	0.0446277431282512\\
45	0.058019450740893\\
46	0.074843365423057\\
47	0.199666615467323\\
48	0.216838516027539\\
49	0.0783890355452335\\
50	0.0495529240878659\\
51	0.0370791446049236\\
52	0.0307530810094058\\
53	0.0155757068681131\\
54	0.0198807977432187\\
55	0.0179871495341263\\
56	0.0162887905400521\\
57	0.0148728268904216\\
58	0.0136909847461918\\
59	0.0126943671543235\\
60	0.011846112844806\\
61	0.0111233301448608\\
62	0.0105291449791113\\
63	0.0102108676347222\\
64	0.00751288118280402\\
65	0.00739035992869396\\
66	0.0116365722557393\\
67	0.00899390796280924\\
68	0.00831157148096884\\
69	0.00788086875151191\\
70	0.00754217236777393\\
71	0.00725475830161164\\
72	0.00700327644843893\\
73	0.006780818536885\\
74	0.00658453626015097\\
75	0.00641472878078445\\
76	0.00627599401250467\\
77	0.00618216997550965\\
78	0.00617516728867787\\
79	0.00642745729543014\\
80	0.00873051939586948\\
81	0.00471465923588381\\
82	0.00195996010568866\\
83	0.004980313957114\\
84	0.00475839614864904\\
85	0.00464733241660508\\
86	0.00455444244400457\\
87	0.00446749239384432\\
88	0.00438406292262191\\
89	0.00430366820355207\\
90	0.00422628355118023\\
91	0.00415201532524293\\
92	0.00408104289588831\\
93	0.00401365198230764\\
94	0.00395033763548775\\
95	0.00389203620501121\\
96	0.00384070443755282\\
97	0.00380107128140597\\
98	0.00378779867734327\\
99	0.00387836096292209\\
100	0.00228454900881806\\
101	0.00321909463290553\\
102	0.00328982387499096\\
103	0.00328100374444436\\
104	0.00325253146337885\\
105	0.00321692683031362\\
106	0.00317840637543852\\
107	0.00313876414674543\\
108	0.00309887602618152\\
109	0.00305920797263281\\
110	0.00302002111537278\\
111	0.00298146552488656\\
112	0.00294362726599965\\
113	0.0029065537719176\\
114	0.00287026833389302\\
115	0.00283477876811283\\
116	0.00280008280049957\\
117	0.00276617151884636\\
118	0.00273303164395387\\
119	0.00270064705586787\\
120	0.00266899983729428\\
121	0.00263807099659409\\
122	0.00260784097374635\\
123	0.00257828999668392\\
124	0.00254939833288439\\
125	0.00252114646667125\\
126	0.00249351522323938\\
127	0.00246648585412356\\
128	0.00244004009455901\\
129	0.00241416020024051\\
130	0.00238882896892876\\
131	0.0023640297508985\\
132	0.00233974645117835\\
133	0.00231596352577768\\
134	0.00229266597354371\\
135	0.00226983932488367\\
136	0.00224746962828519\\
137	0.00222554343533969\\
138	0.00220404778480324\\
139	0.00218297018609978\\
140	0.00216229860257188\\
141	0.00214202143470905\\
142	0.00212212750352594\\
143	0.00210260603421662\\
144	0.00208344664017788\\
145	0.00206463930746792\\
146	0.00204617437974413\\
147	0.00202804254371082\\
148	0.00201023481509265\\
149	0.00199274252514179\\
150	0.00197555730767936\\
151	0.0019586710866655\\
152	0.00194207606428942\\
153	0.00192576470956709\\
154	0.00190972974743187\\
155	0.00189396414830307\\
156	0.00187846111811499\\
157	0.00186321408878906\\
158	0.00184821670913216\\
159	0.00183346283614256\\
160	0.00181894652670628\\
161	0.00180466202966742\\
162	0.00179060377825436\\
163	0.00177676638284649\\
164	0.00176314462406556\\
165	0.00174973344617591\\
166	0.0017365279507797\\
167	0.00172352339079259\\
168	0.00171071516468654\\
169	0.00169809881098722\\
170	0.00168567000301325\\
171	0.00167342454384613\\
172	0.00166135836151948\\
173	0.00164946750441694\\
174	0.00163774813686889\\
175	0.00162619653493841\\
176	0.00161480908238697\\
177	0.00160358226681213\\
178	0.001592512675948\\
179	0.00158159699412143\\
180	0.00157083199885632\\
181	0.00156021455761888\\
182	0.00154974162469766\\
183	0.00153941023821136\\
184	0.00152921751723897\\
185	0.00151916065906659\\
186	0.00150923693654504\\
187	0.00149944369555362\\
188	0.00148977835256491\\
189	0.00148023839230615\\
190	0.0014708213655126\\
191	0.00146152488676917\\
192	0.00145234663243548\\
193	0.00144328433865201\\
194	0.00143433579942216\\
195	0.0014254988647679\\
196	0.00141677143895562\\
197	0.00140815147878894\\
198	0.00139963699196521\\
199	0\\
200	0\\
};
\addlegendentry{$\mathbf{h_1}$}

\addplot [color=mycolor2]
  table[row sep=crcr]{%
1	0.00495033386861547\\
2	0.00515738368500011\\
3	0.00538309861623286\\
4	0.00563019833310769\\
5	0.00590197136255583\\
6	0.00620243506959928\\
7	0.00653655369620811\\
8	0.00691054090538825\\
9	0.00733228812251618\\
10	0.00781198494389501\\
11	0.00836304134465097\\
12	0.0090034999823859\\
13	0.00975827527656913\\
14	0.0106628508662167\\
15	0.0117696896019869\\
16	0.0131600228416925\\
17	0.0149671880151623\\
18	0.0174273921400842\\
19	0.0210049332363351\\
20	0.0267613442180004\\
21	0.037792597580649\\
22	0.068721841139076\\
23	0.97572931769219\\
24	0.0649085399616321\\
25	0.0262918397391367\\
26	0.0126468169615953\\
27	0.00419508123086451\\
28	0.0214241856295046\\
29	0.0134643328328179\\
30	0.00412679327935559\\
31	0.0112712342656943\\
32	0.0282552508318709\\
33	0.111702725947746\\
34	0.12653020104749\\
35	0.0361926668223949\\
36	0.024130019396178\\
37	0.019518168382204\\
38	0.0163235660243771\\
39	0.0140849625225472\\
40	0.0124312948441269\\
41	0.0111552918846637\\
42	0.0101369616841952\\
43	0.00930266674553233\\
44	0.00860476970863487\\
45	0.00801105372801389\\
46	0.00749890841387189\\
47	0.00705196472677567\\
48	0.00665805661850076\\
49	0.0063079366485928\\
50	0.00599443852440938\\
51	0.00571191453485358\\
52	0.00545584764793091\\
53	0.0052225778141873\\
54	0.00500910486747672\\
55	0.00481294397681212\\
56	0.00463201789166602\\
57	0.00446457542356871\\
58	0.00430912894812168\\
59	0.00416440590497024\\
60	0.00402931074167137\\
61	0.00390289474814389\\
62	0.00378433192171684\\
63	0.00367289949042518\\
64	0.0035679620699816\\
65	0.00346895868109233\\
66	0.00337539203747226\\
67	0.00328681965070268\\
68	0.00320284639950925\\
69	0\\
70	0\\
71	0\\
72	0\\
73	0\\
74	0\\
75	0\\
76	0\\
77	0\\
78	0\\
79	0\\
80	0\\
81	0\\
82	0\\
83	0\\
84	0\\
85	0\\
86	0\\
87	0\\
88	0\\
89	0\\
90	0\\
91	0\\
92	0\\
93	0\\
94	0\\
95	0\\
96	0\\
97	0\\
98	0\\
99	0\\
100	0\\
101	0\\
102	0\\
103	0\\
104	0\\
105	0\\
106	0\\
107	0\\
108	0\\
109	0\\
110	0\\
111	0\\
112	0\\
113	0\\
114	0\\
115	0\\
116	0\\
117	0\\
118	0\\
119	0\\
120	0\\
121	0\\
122	0\\
123	0\\
124	0\\
125	0\\
126	0\\
127	0\\
128	0\\
129	0\\
130	0\\
131	0\\
132	0\\
133	0\\
134	0\\
135	0\\
136	0\\
137	0\\
138	0\\
139	0\\
140	0\\
141	0\\
142	0\\
143	0\\
144	0\\
145	0\\
146	0\\
147	0\\
148	0\\
149	0\\
150	0\\
151	0\\
152	0\\
153	0\\
154	0\\
155	0\\
156	0\\
157	0\\
158	0\\
159	0\\
160	0\\
161	0\\
162	0\\
163	0\\
164	0\\
165	0\\
166	0\\
167	0\\
168	0\\
169	0\\
170	0\\
171	0\\
172	0\\
173	0\\
174	0\\
175	0\\
176	0\\
177	0\\
178	0\\
179	0\\
180	0\\
181	0\\
182	0\\
183	0\\
184	0\\
185	0\\
186	0\\
187	0\\
188	0\\
189	0\\
190	0\\
191	0\\
192	0\\
193	0\\
194	0\\
195	0\\
196	0\\
197	0\\
198	0\\
199	0\\
200	0\\
};
\addlegendentry{$\mathbf{h_{2}}$}

\end{axis}

\begin{axis}[%
width=1.935in,
height=3.2in,
at={(3.327in,0.512in)},
scale only axis,
xmin=0,
xmax=200,
xlabel style={font=\color{white!15!black}, align=center},
xlabel={Sample Index\\[1ex](b) Estimated},
ymin=0,
ymax=1,
axis background/.style={fill=white},
legend style={legend cell align=left, align=left, draw=white!15!black}
]
\addplot [color=mycolor1]
  table[row sep=crcr]{%
0	5.75784858853743e-05\\
1	4.74510664707653e-05\\
2	6.60754148774095e-05\\
3	0.000126969492509788\\
4	7.32853627651009e-06\\
5	7.55018230768586e-05\\
6	3.61153413897217e-05\\
7	4.48774701948302e-05\\
8	4.71225112756943e-05\\
9	2.25176909176627e-05\\
10	3.68730882637994e-05\\
11	4.57411800038075e-05\\
12	5.30037509526358e-06\\
13	0.000128994687164226\\
14	4.07101254058204e-05\\
15	6.12801824057616e-05\\
16	0.000135290601331429\\
17	9.59828366519363e-05\\
18	2.55876287854098e-05\\
19	7.91663258039665e-05\\
20	8.53939348659841e-06\\
21	5.19282862472616e-05\\
22	8.10239918941983e-05\\
23	4.64502049842485e-05\\
24	8.5968895534129e-05\\
25	2.70629776180833e-05\\
26	4.73760075082416e-05\\
27	5.28934681291645e-05\\
28	1.59585045767574e-05\\
29	5.82371320578848e-05\\
30	9.49436400629306e-06\\
31	5.35149145569465e-05\\
32	8.87400171207762e-05\\
33	8.95219672910637e-05\\
34	6.86627983896505e-05\\
35	0.000159136769875479\\
36	8.01911187587733e-06\\
37	2.97081571743891e-05\\
38	4.72263328067378e-05\\
39	3.42108073987742e-05\\
40	4.86803347201589e-05\\
41	2.37932304639234e-05\\
42	2.58232765705295e-05\\
43	8.19122978259567e-05\\
44	8.26640902642535e-05\\
45	2.72312875517216e-05\\
46	3.23463947635267e-05\\
47	0.000103729008316596\\
48	6.16148255503864e-05\\
49	0.000166077343101363\\
50	2.77736490633381e-05\\
51	7.04082298429082e-05\\
52	4.62975960059195e-05\\
53	6.37532253264286e-05\\
54	5.92753477308985e-05\\
55	9.56808622583135e-05\\
56	6.68771207507153e-05\\
57	3.19927479347067e-05\\
58	7.99828545968221e-05\\
59	4.66903154750267e-05\\
60	5.73918400462857e-05\\
61	3.46972666477231e-05\\
62	0.000107414192700946\\
63	6.45575776857781e-05\\
64	8.46233864257132e-05\\
65	7.50710939007553e-05\\
66	0.000149963420772551\\
67	7.51882864578474e-06\\
68	0.0155101100131232\\
69	0.00235250490335949\\
70	0.00633566125882465\\
71	8.82394603888515e-05\\
72	0.0248072496290393\\
73	0.000166925369406462\\
74	0.0214637007055236\\
75	0.0266423451985792\\
76	0.00948107651888304\\
77	0.0853624889789592\\
78	0.00105935790072295\\
79	0.000141089481726151\\
80	7.02170220057429e-05\\
81	0.000119412429264636\\
82	0.032587491593103\\
83	0.0488038981794996\\
84	0.143128082966703\\
85	0.0956067029431432\\
86	0.128049387032238\\
87	0.208105593222714\\
88	0.59366929541669\\
89	0.12611389763713\\
90	0.054255387628296\\
91	0.00668711619815088\\
92	0.036105376839547\\
93	0.0609187996299164\\
94	0.0620122559208574\\
95	0.000987623381535795\\
96	0.0151164980525562\\
97	1.58960963005763e-05\\
98	0.0275820185744205\\
99	0.0120704039198563\\
100	0.0250662043754263\\
101	0.0242123876478333\\
102	0.0298114883411928\\
103	0.068782478534851\\
104	0.601782224918819\\
105	0.120210421815224\\
106	0.0144863481236803\\
107	0.050629375134772\\
108	0.045653683181093\\
109	0.0661690316232175\\
110	0.167912129771768\\
111	0.00554467574184983\\
112	0.0351428111796771\\
113	0.0280928038064423\\
114	0.0037790271657342\\
115	0.000204266222397808\\
116	4.07613402344101e-05\\
117	2.69692105253048e-05\\
118	0.00535699700713151\\
119	0.000998973117356363\\
120	0.0549521213587055\\
121	0.049725819578177\\
122	0.0669885845245825\\
123	0.219861519113836\\
124	0.170968290660405\\
125	0.0646624445399072\\
126	0.0381600221149409\\
127	0.00752137391021903\\
128	0.0119587344393853\\
129	0.00408887106013121\\
130	4.62587784889311e-05\\
131	0.000101434233033098\\
132	0.0017713193760174\\
133	2.82082245362238e-05\\
134	5.94525877586348e-05\\
135	0.000243483866443731\\
136	2.04630540800011e-05\\
137	5.2844441334965e-05\\
138	0.00012202638420637\\
139	0.00675118882928111\\
140	0.005885931436047\\
141	9.74037885625449e-05\\
142	0.000118446369269952\\
143	9.50916471739961e-05\\
144	0.000131444979405149\\
145	0.000102290778164837\\
146	8.00327120310375e-06\\
147	4.27816199065991e-05\\
148	0.000113663814276571\\
149	3.40655811233545e-05\\
150	0.000167185607398572\\
151	4.2367852615105e-05\\
152	3.81842401963981e-05\\
153	8.66347421725578e-05\\
154	5.82330533027609e-05\\
155	7.13134742089852e-05\\
156	9.31728944012112e-05\\
157	0.000111457034684264\\
158	5.58391491329401e-05\\
159	1.41328407453008e-05\\
160	1.79150331105138e-05\\
161	8.33409707926643e-05\\
162	9.62961501331401e-05\\
163	4.36574410734679e-05\\
164	0.000129125271779055\\
165	6.31623776972638e-05\\
166	1.70571158088464e-05\\
167	2.82761948911535e-05\\
168	4.94231159743822e-05\\
169	0.000163959833404104\\
170	5.67312552461392e-05\\
171	5.22267774801469e-05\\
172	5.91551118773838e-05\\
173	6.61570616062471e-05\\
174	5.90150566055942e-05\\
175	6.91655988139541e-05\\
176	0.000136037398697483\\
177	2.21933957850417e-05\\
178	0.000123176786740276\\
179	1.51912806349657e-05\\
180	4.62053606171947e-05\\
181	3.74301695336609e-05\\
182	5.86400637727071e-05\\
183	5.5477299012865e-05\\
184	1.93380285061639e-05\\
185	8.79187347093338e-05\\
186	7.08890465472011e-05\\
187	3.54241560754436e-05\\
188	6.63587813455177e-05\\
189	6.46745045204507e-05\\
190	3.33827251874215e-05\\
191	5.3486455019278e-05\\
192	9.88129870333788e-06\\
193	4.11819668553822e-05\\
194	6.117521269749e-05\\
195	6.71998088800014e-05\\
196	3.9484242411963e-05\\
197	2.31345174945207e-05\\
198	1.41043089045674e-05\\
199	4.18113159580489e-05\\
};
\addlegendentry{$\mathbf{\hat{h}_{1}}$}

\addplot [color=mycolor2]
  table[row sep=crcr]{%
0	1.61849119551603e-05\\
1	2.2658792635819e-06\\
2	2.1890154463788e-05\\
3	6.82609010384356e-06\\
4	1.21345176937276e-05\\
5	3.90013630146472e-06\\
6	1.89975627060861e-05\\
7	6.38369590788878e-06\\
8	5.56296953160969e-05\\
9	3.66041519339853e-05\\
10	8.78051631351372e-06\\
11	4.70951277994623e-05\\
12	3.43692959213938e-05\\
13	1.15071546140451e-05\\
14	1.76452818779787e-05\\
15	1.85274573199887e-05\\
16	7.03978008780183e-06\\
17	1.2324678089806e-05\\
18	2.23285083303689e-05\\
19	2.7920671609066e-05\\
20	8.84710260244025e-06\\
21	7.42344155600152e-06\\
22	1.44418389461976e-05\\
23	1.29609522870764e-05\\
24	2.0570461646527e-05\\
25	1.83422000243811e-05\\
26	4.99821818123864e-06\\
27	2.29021842274606e-05\\
28	9.38753627970693e-06\\
29	2.00051742817481e-05\\
30	5.71715358669956e-06\\
31	1.85782177585772e-05\\
32	2.17641134848217e-05\\
33	2.27076956922228e-05\\
34	3.66190494866683e-05\\
35	7.97437839663443e-05\\
36	1.50066886579878e-05\\
37	5.35580786041071e-05\\
38	1.54743077942107e-05\\
39	2.20717631772363e-05\\
40	1.51558086845056e-05\\
41	8.65725233157676e-06\\
42	1.60203281853353e-05\\
43	4.84050509553682e-05\\
44	8.14264232992189e-05\\
45	1.98317774843261e-05\\
46	6.00751114089005e-05\\
47	8.30609565063314e-06\\
48	2.93353557019074e-05\\
49	7.17433938596745e-06\\
50	1.70257350357736e-05\\
51	1.69502766281317e-05\\
52	6.12855486437824e-06\\
53	2.48790800747005e-05\\
54	6.70944277891707e-07\\
55	2.30896072353495e-05\\
56	1.38157189509255e-05\\
57	1.85378051409107e-05\\
58	2.8614604864393e-05\\
59	0.00131917026727084\\
60	0.0156689380332965\\
61	0.00998230703517715\\
62	0.000273643787149023\\
63	0.0307250517439058\\
64	0.0113422355471989\\
65	0.00731064126970893\\
66	0.00595875037962789\\
67	0.00204676293764522\\
68	1.53093082810427e-05\\
69	1.9019797085639e-05\\
70	1.41156123420036e-05\\
71	4.67058302675999e-06\\
72	0.000809161478954675\\
73	0.0116770781902272\\
74	0.000134947529483227\\
75	0.000335907105859553\\
76	0.0126568892889112\\
77	0.0107255395228979\\
78	0.00576943637567133\\
79	0.0296015368019495\\
80	0.0367663179087379\\
81	0.0186456887023589\\
82	0.00459132860976874\\
83	0.0804676734548901\\
84	0.00752699984288106\\
85	0.00104919030066814\\
86	0.01067889548066\\
87	0.00207864642498763\\
88	0.00257054704216727\\
89	2.35229325979276e-05\\
90	0.0076357701494031\\
91	0.0106233090266713\\
92	0.0038994683008811\\
93	0.00449506534245732\\
94	0.00166735489149606\\
95	0.000446074847311292\\
96	0.0340420686631973\\
97	0.015024413274834\\
98	6.21901576919524e-05\\
99	0.987001331274949\\
100	5.86805972394047e-05\\
101	0.0156819784546205\\
102	0.0346733033323904\\
103	5.71656191432296e-05\\
104	0.00230219784439335\\
105	0.00597805268971548\\
106	0.00325648405987261\\
107	0.0101507094311827\\
108	0.00632536499524457\\
109	0.000255051105485797\\
110	0.00281656010708306\\
111	0.00220361167853226\\
112	0.010770037817323\\
113	0.000372457415044228\\
114	0.006556857119526\\
115	0.0804331930407788\\
116	0.00425066361970042\\
117	0.0190145394064324\\
118	0.0369700223561682\\
119	0.0302529763678712\\
120	0.00661959195507863\\
121	0.0111926830116222\\
122	0.0132441510838259\\
123	0.000349627789157996\\
124	3.25561889948752e-05\\
125	0.0120510747350307\\
126	0.00120917614530871\\
127	1.0097112902952e-05\\
128	3.14065374777179e-06\\
129	0.000116991358508808\\
130	1.1352302407443e-05\\
131	0.00142625732867853\\
132	0.00669149791927947\\
133	0.00710097814613126\\
134	0.0110893908070688\\
135	0.0312855327506214\\
136	8.64795027885343e-05\\
137	0.0105238186646374\\
138	0.0164413484854712\\
139	0.00193658027546681\\
140	4.20052249409363e-05\\
141	2.40709048688698e-05\\
142	3.04587653780441e-06\\
143	3.64338010860136e-05\\
144	8.35886522827038e-06\\
145	1.60510869234863e-05\\
146	8.41520190669185e-06\\
147	1.07935102168996e-05\\
148	1.55457821507687e-05\\
149	8.87511818567413e-06\\
150	4.0505435083053e-05\\
151	7.04380670741477e-06\\
152	6.34041120277489e-05\\
153	2.83988094694748e-05\\
154	5.27579568244082e-05\\
155	0.000122796136721305\\
156	2.22484064034234e-05\\
157	1.63859545586523e-05\\
158	2.7119145668431e-05\\
159	2.87170772332977e-05\\
160	1.47896370641127e-05\\
161	6.38631880532612e-05\\
162	1.60102264259993e-05\\
163	0.000102413643102869\\
164	5.32108790266912e-05\\
165	2.59242785132659e-05\\
166	1.11577615299875e-05\\
167	2.41502930986287e-05\\
168	5.84043333821195e-06\\
169	1.71364865464797e-05\\
170	6.62699332506539e-06\\
171	1.78038749972812e-05\\
172	1.32267574531028e-05\\
173	1.48911286412896e-05\\
174	2.34778837925444e-05\\
175	2.03225753855764e-05\\
176	2.42877082429668e-05\\
177	1.54775484107777e-05\\
178	1.62638214039281e-05\\
179	2.7036348167863e-05\\
180	3.41294350802798e-05\\
181	1.18803776725993e-05\\
182	2.53203415693458e-05\\
183	2.97183663505355e-05\\
184	2.73069251748473e-05\\
185	1.07256312088794e-05\\
186	3.71478786426079e-05\\
187	4.39677183204976e-05\\
188	1.29338297197535e-05\\
189	3.17417670917283e-05\\
190	3.92751979244352e-05\\
191	6.08705002980159e-06\\
192	2.01523309191566e-05\\
193	1.37179489220658e-05\\
194	4.92176417227731e-06\\
195	1.00564307739521e-05\\
196	1.40752559240532e-05\\
197	1.00431454988257e-05\\
198	1.88176177100645e-05\\
199	4.94116915409136e-06\\
};
\addlegendentry{$\mathbf{\hat{h}_{2}}$}

\end{axis}
\end{tikzpicture}%