% This file was created by matlab2tikz.
%
%The latest updates can be retrieved from
%  http://www.mathworks.com/matlabcentral/fileexchange/22022-matlab2tikz-matlab2tikz
%where you can also make suggestions and rate matlab2tikz.
%
\definecolor{mycolor1}{rgb}{0.00000,0.44700,0.74100}%
\definecolor{mycolor2}{rgb}{0.85000,0.32500,0.09800}%
%
\begin{tikzpicture}

\begin{axis}[%
width=1.935in,
height=3.2in,
at={(0.758in,0.512in)},
scale only axis,
xmin=0,
xmax=200,
xlabel style={font=\color{white!15!black}, align=center},
xlabel={Sample Index\\[1ex](a) Actual},
ymin=0,
ymax=1,
axis background/.style={fill=white},
legend style={legend cell align=left, align=left, draw=white!15!black}
]
\addplot [color=mycolor1]
  table[row sep=crcr]{%
1	0.0167418731260698\\
2	0.018659722218203\\
3	0.0211495716349754\\
4	0.0245407494314006\\
5	0.029505643974117\\
6	0.0377161636169434\\
7	0.0550750576238134\\
8	0.131028403455825\\
9	0.141533477104454\\
10	0.158175166246243\\
11	0.163761757297189\\
12	0.600100605556833\\
13	0.118033417583129\\
14	0.0610914209628117\\
15	0.0426162246246858\\
16	0.0332715711707656\\
17	0.0321939439283243\\
18	0.0268871008873183\\
19	0.0316920608120786\\
20	0.0286771919664519\\
21	0.00773119825769845\\
22	0.0330073087209196\\
23	0.019415059292473\\
24	0.0177688778425817\\
25	0.0188194600762088\\
26	0.0237714798713867\\
27	0.0430806655948836\\
28	0.586023006720236\\
29	0.0970905103802927\\
30	0.0246981078960262\\
31	0.0780346253424249\\
32	0.0580455436901626\\
33	0.0681836526256362\\
34	0.163824852865525\\
35	0.0446106828365612\\
36	0.06119675966513\\
37	0.00907835157153909\\
38	0.0310093774848825\\
39	0.00125972832884384\\
40	0.005422098150711\\
41	0.0107374596162295\\
42	0.0165479326643041\\
43	0.024789327411243\\
44	0.0446277431282512\\
45	0.058019450740893\\
46	0.074843365423057\\
47	0.199666615467323\\
48	0.216838516027539\\
49	0.0783890355452335\\
50	0.0495529240878659\\
51	0.0370791446049236\\
52	0.0307530810094058\\
53	0.0155757068681131\\
54	0.0198807977432187\\
55	0.0179871495341263\\
56	0.0162887905400521\\
57	0.0148728268904216\\
58	0.0136909847461918\\
59	0.0126943671543235\\
60	0.011846112844806\\
61	0.0111233301448608\\
62	0.0105291449791113\\
63	0.0102108676347222\\
64	0.00751288118280402\\
65	0.00739035992869396\\
66	0.0116365722557393\\
67	0.00899390796280924\\
68	0.00831157148096884\\
69	0.00788086875151191\\
70	0.00754217236777393\\
71	0.00725475830161164\\
72	0.00700327644843893\\
73	0.006780818536885\\
74	0.00658453626015097\\
75	0.00641472878078445\\
76	0.00627599401250467\\
77	0.00618216997550965\\
78	0.00617516728867787\\
79	0.00642745729543014\\
80	0.00873051939586948\\
81	0.00471465923588381\\
82	0.00195996010568866\\
83	0.004980313957114\\
84	0.00475839614864904\\
85	0.00464733241660508\\
86	0.00455444244400457\\
87	0.00446749239384432\\
88	0.00438406292262191\\
89	0.00430366820355207\\
90	0.00422628355118023\\
91	0.00415201532524293\\
92	0.00408104289588831\\
93	0.00401365198230764\\
94	0.00395033763548775\\
95	0.00389203620501121\\
96	0.00384070443755282\\
97	0.00380107128140597\\
98	0.00378779867734327\\
99	0.00387836096292209\\
100	0.00228454900881806\\
101	0.00321909463290553\\
102	0.00328982387499096\\
103	0.00328100374444436\\
104	0.00325253146337885\\
105	0.00321692683031362\\
106	0.00317840637543852\\
107	0.00313876414674543\\
108	0.00309887602618152\\
109	0.00305920797263281\\
110	0.00302002111537278\\
111	0.00298146552488656\\
112	0.00294362726599965\\
113	0.0029065537719176\\
114	0.00287026833389302\\
115	0.00283477876811283\\
116	0.00280008280049957\\
117	0.00276617151884636\\
118	0.00273303164395387\\
119	0.00270064705586787\\
120	0.00266899983729428\\
121	0.00263807099659409\\
122	0.00260784097374635\\
123	0.00257828999668392\\
124	0.00254939833288439\\
125	0.00252114646667125\\
126	0.00249351522323938\\
127	0.00246648585412356\\
128	0.00244004009455901\\
129	0.00241416020024051\\
130	0.00238882896892876\\
131	0.0023640297508985\\
132	0.00233974645117835\\
133	0.00231596352577768\\
134	0.00229266597354371\\
135	0.00226983932488367\\
136	0.00224746962828519\\
137	0.00222554343533969\\
138	0.00220404778480324\\
139	0.00218297018609978\\
140	0.00216229860257188\\
141	0.00214202143470905\\
142	0.00212212750352594\\
143	0.00210260603421662\\
144	0.00208344664017788\\
145	0.00206463930746792\\
146	0.00204617437974413\\
147	0.00202804254371082\\
148	0.00201023481509265\\
149	0.00199274252514179\\
150	0.00197555730767936\\
151	0.0019586710866655\\
152	0.00194207606428942\\
153	0.00192576470956709\\
154	0.00190972974743187\\
155	0.00189396414830307\\
156	0.00187846111811499\\
157	0.00186321408878906\\
158	0.00184821670913216\\
159	0.00183346283614256\\
160	0.00181894652670628\\
161	0.00180466202966742\\
162	0.00179060377825436\\
163	0.00177676638284649\\
164	0.00176314462406556\\
165	0.00174973344617591\\
166	0.0017365279507797\\
167	0.00172352339079259\\
168	0.00171071516468654\\
169	0.00169809881098722\\
170	0.00168567000301325\\
171	0.00167342454384613\\
172	0.00166135836151948\\
173	0.00164946750441694\\
174	0.00163774813686889\\
175	0.00162619653493841\\
176	0.00161480908238697\\
177	0.00160358226681213\\
178	0.001592512675948\\
179	0.00158159699412143\\
180	0.00157083199885632\\
181	0.00156021455761888\\
182	0.00154974162469766\\
183	0.00153941023821136\\
184	0.00152921751723897\\
185	0.00151916065906659\\
186	0.00150923693654504\\
187	0.00149944369555362\\
188	0.00148977835256491\\
189	0.00148023839230615\\
190	0.0014708213655126\\
191	0.00146152488676917\\
192	0.00145234663243548\\
193	0.00144328433865201\\
194	0.00143433579942216\\
195	0.0014254988647679\\
196	0.00141677143895562\\
197	0.00140815147878894\\
198	0.00139963699196521\\
199	0\\
200	0\\
};
\addlegendentry{$\mathbf{h_1}$}

\addplot [color=mycolor2]
  table[row sep=crcr]{%
1	0.00495033386861547\\
2	0.00515738368500011\\
3	0.00538309861623286\\
4	0.00563019833310769\\
5	0.00590197136255583\\
6	0.00620243506959928\\
7	0.00653655369620811\\
8	0.00691054090538825\\
9	0.00733228812251618\\
10	0.00781198494389501\\
11	0.00836304134465097\\
12	0.0090034999823859\\
13	0.00975827527656913\\
14	0.0106628508662167\\
15	0.0117696896019869\\
16	0.0131600228416925\\
17	0.0149671880151623\\
18	0.0174273921400842\\
19	0.0210049332363351\\
20	0.0267613442180004\\
21	0.037792597580649\\
22	0.068721841139076\\
23	0.97572931769219\\
24	0.0649085399616321\\
25	0.0262918397391367\\
26	0.0126468169615953\\
27	0.00419508123086451\\
28	0.0214241856295046\\
29	0.0134643328328179\\
30	0.00412679327935559\\
31	0.0112712342656943\\
32	0.0282552508318709\\
33	0.111702725947746\\
34	0.12653020104749\\
35	0.0361926668223949\\
36	0.024130019396178\\
37	0.019518168382204\\
38	0.0163235660243771\\
39	0.0140849625225472\\
40	0.0124312948441269\\
41	0.0111552918846637\\
42	0.0101369616841952\\
43	0.00930266674553233\\
44	0.00860476970863487\\
45	0.00801105372801389\\
46	0.00749890841387189\\
47	0.00705196472677567\\
48	0.00665805661850076\\
49	0.0063079366485928\\
50	0.00599443852440938\\
51	0.00571191453485358\\
52	0.00545584764793091\\
53	0.0052225778141873\\
54	0.00500910486747672\\
55	0.00481294397681212\\
56	0.00463201789166602\\
57	0.00446457542356871\\
58	0.00430912894812168\\
59	0.00416440590497024\\
60	0.00402931074167137\\
61	0.00390289474814389\\
62	0.00378433192171684\\
63	0.00367289949042518\\
64	0.0035679620699816\\
65	0.00346895868109233\\
66	0.00337539203747226\\
67	0.00328681965070268\\
68	0.00320284639950925\\
69	0\\
70	0\\
71	0\\
72	0\\
73	0\\
74	0\\
75	0\\
76	0\\
77	0\\
78	0\\
79	0\\
80	0\\
81	0\\
82	0\\
83	0\\
84	0\\
85	0\\
86	0\\
87	0\\
88	0\\
89	0\\
90	0\\
91	0\\
92	0\\
93	0\\
94	0\\
95	0\\
96	0\\
97	0\\
98	0\\
99	0\\
100	0\\
101	0\\
102	0\\
103	0\\
104	0\\
105	0\\
106	0\\
107	0\\
108	0\\
109	0\\
110	0\\
111	0\\
112	0\\
113	0\\
114	0\\
115	0\\
116	0\\
117	0\\
118	0\\
119	0\\
120	0\\
121	0\\
122	0\\
123	0\\
124	0\\
125	0\\
126	0\\
127	0\\
128	0\\
129	0\\
130	0\\
131	0\\
132	0\\
133	0\\
134	0\\
135	0\\
136	0\\
137	0\\
138	0\\
139	0\\
140	0\\
141	0\\
142	0\\
143	0\\
144	0\\
145	0\\
146	0\\
147	0\\
148	0\\
149	0\\
150	0\\
151	0\\
152	0\\
153	0\\
154	0\\
155	0\\
156	0\\
157	0\\
158	0\\
159	0\\
160	0\\
161	0\\
162	0\\
163	0\\
164	0\\
165	0\\
166	0\\
167	0\\
168	0\\
169	0\\
170	0\\
171	0\\
172	0\\
173	0\\
174	0\\
175	0\\
176	0\\
177	0\\
178	0\\
179	0\\
180	0\\
181	0\\
182	0\\
183	0\\
184	0\\
185	0\\
186	0\\
187	0\\
188	0\\
189	0\\
190	0\\
191	0\\
192	0\\
193	0\\
194	0\\
195	0\\
196	0\\
197	0\\
198	0\\
199	0\\
200	0\\
};
\addlegendentry{$\mathbf{h_{2}}$}

\end{axis}

\begin{axis}[%
width=1.935in,
height=3.2in,
at={(3.327in,0.512in)},
scale only axis,
xmin=0,
xmax=200,
xlabel style={font=\color{white!15!black}, align=center},
xlabel={Sample Index\\[1ex](b) Estimated},
ymin=0,
ymax=1,
axis background/.style={fill=white},
legend style={legend cell align=left, align=left, draw=white!15!black}
]
\addplot [color=mycolor1]
  table[row sep=crcr]{%
0	6.97546364380903e-05\\
1	3.62828896065225e-05\\
2	1.69654672917528e-05\\
3	4.45202773374347e-05\\
4	6.99644214267316e-05\\
5	8.04900102828662e-05\\
6	3.43611091061489e-05\\
7	1.63856357463278e-05\\
8	7.28467796902047e-05\\
9	6.46862465292231e-05\\
10	2.57903311429527e-05\\
11	7.46725732479816e-05\\
12	2.5461030981805e-05\\
13	6.70456657212303e-05\\
14	3.43920566646471e-05\\
15	6.24235659421814e-05\\
16	9.36544791537132e-05\\
17	8.84491579388448e-05\\
18	8.08877179393654e-05\\
19	9.63187477050745e-05\\
20	7.02517202240128e-05\\
21	3.90035481570172e-05\\
22	0.000206009913765501\\
23	3.47003572117823e-05\\
24	2.52342790638491e-05\\
25	1.72977474908186e-05\\
26	1.90403979679561e-05\\
27	5.57682999030155e-05\\
28	6.47107605443459e-05\\
29	3.95621812182842e-05\\
30	5.73278260902959e-05\\
31	0.000118646521416951\\
32	4.24929549092688e-05\\
33	3.68287744263605e-05\\
34	6.15732529962838e-05\\
35	7.58341418289635e-05\\
36	0.000126402464508084\\
37	5.60475176628692e-05\\
38	4.87213444872392e-05\\
39	5.95353634938561e-05\\
40	4.25281429564416e-05\\
41	7.95760497479743e-05\\
42	2.95566078463456e-05\\
43	3.01886032622276e-05\\
44	2.79350760647525e-05\\
45	5.87384234554948e-05\\
46	0.000100001125175109\\
47	0.000137976765056782\\
48	5.70575787381703e-05\\
49	0.000103186663200841\\
50	0.000106303186438239\\
51	1.91396322066071e-05\\
52	0.000137845368129385\\
53	4.69511512877207e-05\\
54	2.48078005742908e-05\\
55	0.000106422850233497\\
56	1.4260418870971e-05\\
57	2.87559758544284e-05\\
58	5.24231821728831e-05\\
59	0.000151438418352831\\
60	0.000284910225645812\\
61	5.83728360331749e-05\\
62	7.65924887481059e-05\\
63	0.0171286550216284\\
64	0.0039072709397735\\
65	0.00868647195643643\\
66	8.01460217212603e-05\\
67	0.027436097988831\\
68	0.000302834578307918\\
69	0.022766680610128\\
70	0.0272112309554212\\
71	0.0128475062804565\\
72	0.0852891194801258\\
73	0.000239205769244879\\
74	0.00142836734836971\\
75	4.88330074086007e-05\\
76	0.000954234350084308\\
77	0.0333018525503586\\
78	0.0502604831843226\\
79	0.144952291715077\\
80	0.0964179653891057\\
81	0.12899145468097\\
82	0.207001560521214\\
83	0.592502130143466\\
84	0.127040464379154\\
85	0.0565112384867793\\
86	0.00697998185812975\\
87	0.0382498451125694\\
88	0.0612944939553574\\
89	0.0604387216349291\\
90	0.00190820515501916\\
91	0.0166590518007272\\
92	1.57829863798617e-05\\
93	0.0299534877783798\\
94	0.0118416984592816\\
95	0.0252373380576929\\
96	0.0257553435565994\\
97	0.0308912895341749\\
98	0.0680310216429829\\
99	0.600321941115579\\
100	0.121580858758117\\
101	0.0144411543349579\\
102	0.0526610689212905\\
103	0.0464266896454358\\
104	0.06707051639716\\
105	0.168899989690654\\
106	0.0060280194096078\\
107	0.033056387023032\\
108	0.0251729688429893\\
109	0.00385336110979505\\
110	9.58410023261435e-05\\
111	4.2039785641565e-05\\
112	5.55203568565669e-05\\
113	0.0050515662687843\\
114	0.00180709265559896\\
115	0.0557572695011737\\
116	0.0518746259367001\\
117	0.0688771621828917\\
118	0.218478738169474\\
119	0.172100279937808\\
120	0.0648021088751689\\
121	0.0391631705810039\\
122	0.00861803040945251\\
123	0.0120785247948064\\
124	0.00702072219909057\\
125	3.82003300483021e-05\\
126	3.91646747011059e-05\\
127	0.00116484182289359\\
128	0.000327325947435478\\
129	5.69144855250078e-05\\
130	0.000674258042334634\\
131	0.000213806974800443\\
132	4.4610590608845e-05\\
133	0.000252963487283332\\
134	0.0110948496106736\\
135	0.00739480954386914\\
136	0.000176037287005132\\
137	0.000559835700582022\\
138	4.79523418289315e-05\\
139	7.86753182949645e-05\\
140	1.41859322594904e-05\\
141	3.32174902986222e-05\\
142	0.0001744880515522\\
143	2.9649134993098e-05\\
144	5.27835698251029e-05\\
145	1.28220578544342e-05\\
146	5.29810967433501e-05\\
147	2.8000792994434e-05\\
148	5.69534999010025e-05\\
149	5.01809222452131e-05\\
150	5.21124287870938e-05\\
151	8.7577931387974e-05\\
152	2.9886585429916e-05\\
153	7.24464127867946e-05\\
154	2.74746007053314e-05\\
155	4.24670942673723e-05\\
156	7.12442187987982e-05\\
157	2.85830978974228e-05\\
158	4.26354951651122e-05\\
159	4.05472328963052e-05\\
160	3.28759142827888e-05\\
161	0.000132094678184425\\
162	6.47396482209163e-05\\
163	0.000123183730917675\\
164	8.90328456713117e-05\\
165	4.17896434284135e-05\\
166	7.7274531512506e-05\\
167	8.19665218852913e-05\\
168	6.14955441042812e-05\\
169	1.96005164163267e-05\\
170	6.7201193490547e-05\\
171	7.75010741534263e-05\\
172	5.69299258664452e-05\\
173	7.42431025982183e-05\\
174	4.69202599173438e-05\\
175	3.25734452907513e-05\\
176	1.80991227302803e-05\\
177	1.26952627612206e-05\\
178	6.29840754002977e-05\\
179	8.22700590475723e-06\\
180	6.25010136915124e-05\\
181	5.36450155822192e-05\\
182	3.54183745917506e-05\\
183	4.32259279556249e-05\\
184	0.000103299464926911\\
185	0.000108728376691728\\
186	4.50772671433613e-05\\
187	5.13692079660782e-05\\
188	0.000134634966374272\\
189	1.43910964571214e-05\\
};
\addlegendentry{$\mathbf{\hat{h}_{1}}$}

\addplot [color=mycolor2]
  table[row sep=crcr]{%
0	1.05009089996044e-05\\
1	1.40831497053039e-05\\
2	6.13782143141328e-06\\
3	1.5497994338943e-05\\
4	3.01371398522742e-06\\
5	1.40173159768696e-05\\
6	2.77724278717784e-05\\
7	1.57212909644091e-05\\
8	2.53804270371554e-05\\
9	5.9755087508639e-06\\
10	1.82752387472793e-05\\
11	3.34428147331016e-05\\
12	2.80937359694913e-05\\
13	2.13187676239748e-05\\
14	2.90643808556308e-05\\
15	1.37797643336355e-05\\
16	4.50750384248733e-06\\
17	1.28010536384896e-05\\
18	7.73455195168214e-06\\
19	2.64780622308961e-05\\
20	1.63877691327571e-05\\
21	2.71642128206299e-05\\
22	4.70685536459806e-05\\
23	6.34793791784366e-06\\
24	1.91370761491065e-06\\
25	2.34514121038457e-05\\
26	3.7752379235424e-05\\
27	9.00394740953422e-06\\
28	1.17433647625058e-05\\
29	2.78338366663206e-05\\
30	1.97527522778535e-05\\
31	2.5872430695553e-05\\
32	7.12920279002589e-06\\
33	1.31839689571399e-05\\
34	8.90094329015696e-06\\
35	3.76361096030155e-05\\
36	6.5572190985614e-06\\
37	1.3865808443806e-05\\
38	4.72664293124206e-05\\
39	0.000345491139802913\\
40	4.02339555281555e-05\\
41	2.93599580544544e-05\\
42	8.77854864012045e-05\\
43	1.84906445358469e-05\\
44	7.60324360201681e-05\\
45	2.98112842555407e-05\\
46	1.9613875067948e-05\\
47	0.00010586907462649\\
48	1.54591927748498e-05\\
49	1.74335498273745e-05\\
50	8.70668600028417e-06\\
51	1.72194801996182e-05\\
52	5.74674089420192e-06\\
53	1.02288739744315e-05\\
54	0.00123574560351485\\
55	0.0159968434709822\\
56	0.0110049501114308\\
57	0.000202866937139618\\
58	0.0316443120744043\\
59	0.0105466171832899\\
60	0.00769921961165609\\
61	0.00654619781175475\\
62	0.0023585026035066\\
63	1.73766680153161e-05\\
64	2.01283791519768e-05\\
65	7.9611212913041e-06\\
66	2.48886199073982e-05\\
67	0.00110854460703596\\
68	0.0112837135241697\\
69	7.73880754006853e-05\\
70	0.000284116562603518\\
71	0.0128978591127998\\
72	0.0115167069077482\\
73	0.00583507022891143\\
74	0.0308388152046374\\
75	0.0380510710342874\\
76	0.0196028998621241\\
77	0.00475958749378877\\
78	0.0835557531178599\\
79	0.00825541277271741\\
80	0.00177881110371771\\
81	0.0115376935455748\\
82	0.00287241244651978\\
83	0.00306284475680871\\
84	1.85912111475523e-06\\
85	0.00810042508671982\\
86	0.0110380546433921\\
87	0.00436321453913961\\
88	0.00464267242275294\\
89	0.00254897688943919\\
90	0.000987357183944509\\
91	0.035795788822911\\
92	0.0161242973343972\\
93	1.10569222566657e-05\\
94	0.985935689001366\\
95	2.67134863928956e-05\\
96	0.0167629001343691\\
97	0.0364913696898941\\
98	0.000454964459350149\\
99	0.00319650073137823\\
100	0.00614935946176242\\
101	0.00369380213244501\\
102	0.0105102227817771\\
103	0.00665185669539065\\
104	0.000478268064434196\\
105	0.0033713642097116\\
106	0.00290519173525962\\
107	0.0116734967791264\\
108	0.000828609034260567\\
109	0.00724269837606517\\
110	0.0834619053214003\\
111	0.00447834180359621\\
112	0.0199869803389791\\
113	0.038301758314061\\
114	0.0315029504220795\\
115	0.00676636736295962\\
116	0.0120584268735239\\
117	0.0134649765494366\\
118	0.000184200600166195\\
119	2.68036267708333e-05\\
120	0.0117396669982323\\
121	0.00155500879717009\\
122	1.11458696712212e-05\\
123	1.23206844016976e-05\\
124	6.27444707106213e-05\\
125	5.38463843243818e-06\\
126	0.00173452944291022\\
127	0.00727358079331334\\
128	0.00740346642973543\\
129	0.0103204098035482\\
130	0.0323287706713062\\
131	2.54197471721281e-05\\
132	0.0116521994761457\\
133	0.0168937542204903\\
134	0.00194033285581001\\
135	1.3887823082605e-05\\
136	4.06540375581758e-06\\
137	2.2992843743299e-05\\
138	2.70647844388605e-05\\
139	2.07980724087665e-05\\
140	1.39563344269247e-05\\
141	0.00024576478294418\\
142	6.34454835385817e-06\\
143	1.45041528018048e-05\\
144	9.74667084953297e-05\\
145	2.01671495774958e-05\\
146	8.05376782789656e-05\\
147	3.48976352727062e-05\\
148	5.57876631629891e-05\\
149	0.000199190598775007\\
150	4.67217808272083e-05\\
151	1.57078041394251e-05\\
152	1.15376266080822e-05\\
153	4.59779778013786e-05\\
154	8.90597926160378e-06\\
155	1.44784857545029e-05\\
156	1.14504172712148e-05\\
157	2.35940138156003e-05\\
158	3.39543781218225e-05\\
159	3.61817412092704e-05\\
160	1.44538973613118e-05\\
161	2.36857472398275e-05\\
162	4.73492069214136e-05\\
163	2.63569169377615e-05\\
164	2.20654372767367e-05\\
165	4.79934436915709e-06\\
166	3.64130664381406e-05\\
167	7.0604839746959e-06\\
168	1.34299589795836e-05\\
169	1.35538985885238e-05\\
170	9.41433676288501e-06\\
171	2.29654528247816e-05\\
172	1.09251022738415e-05\\
173	1.26706331450549e-05\\
174	2.39450571495416e-05\\
175	2.01141659726835e-05\\
176	2.33656777674096e-05\\
177	2.71202510923203e-05\\
178	2.6453066424747e-05\\
179	1.41512382108601e-05\\
180	2.69672367903541e-05\\
181	1.82989175218247e-05\\
182	2.3008330301264e-05\\
183	6.15517338233676e-06\\
184	2.62377683709357e-06\\
185	1.58318796860229e-05\\
186	1.99199401674317e-05\\
187	7.61530058178011e-06\\
188	2.73700347381688e-05\\
189	1.36057990103304e-05\\
};
\addlegendentry{$\mathbf{\hat{h}_{2}}$}

\end{axis}
\end{tikzpicture}%