% This file was created by matlab2tikz.
%
%The latest updates can be retrieved from
%  http://www.mathworks.com/matlabcentral/fileexchange/22022-matlab2tikz-matlab2tikz
%where you can also make suggestions and rate matlab2tikz.
%
\definecolor{mycolor1}{rgb}{0.00000,0.44700,0.74100}%
\definecolor{mycolor2}{rgb}{0.85000,0.32500,0.09800}%
%
\begin{tikzpicture}

\begin{axis}[%
width=1.935in,
height=3.2in,
at={(0.758in,0.512in)},
scale only axis,
xmin=0,
xmax=200,
xlabel style={font=\color{white!15!black}, align=center},
xlabel={Sample Index\\[1ex](a) Actual},
ymin=0,
ymax=1,
axis background/.style={fill=white},
legend style={legend cell align=left, align=left, draw=white!15!black}
]
\addplot [color=mycolor1]
  table[row sep=crcr]{%
1	0.0167418731260698\\
2	0.018659722218203\\
3	0.0211495716349754\\
4	0.0245407494314006\\
5	0.029505643974117\\
6	0.0377161636169434\\
7	0.0550750576238134\\
8	0.131028403455825\\
9	0.141533477104454\\
10	0.158175166246243\\
11	0.163761757297189\\
12	0.600100605556833\\
13	0.118033417583129\\
14	0.0610914209628117\\
15	0.0426162246246858\\
16	0.0332715711707656\\
17	0.0321939439283243\\
18	0.0268871008873183\\
19	0.0316920608120786\\
20	0.0286771919664519\\
21	0.00773119825769845\\
22	0.0330073087209196\\
23	0.019415059292473\\
24	0.0177688778425817\\
25	0.0188194600762088\\
26	0.0237714798713867\\
27	0.0430806655948836\\
28	0.586023006720236\\
29	0.0970905103802927\\
30	0.0246981078960262\\
31	0.0780346253424249\\
32	0.0580455436901626\\
33	0.0681836526256362\\
34	0.163824852865525\\
35	0.0446106828365612\\
36	0.06119675966513\\
37	0.00907835157153909\\
38	0.0310093774848825\\
39	0.00125972832884384\\
40	0.005422098150711\\
41	0.0107374596162295\\
42	0.0165479326643041\\
43	0.024789327411243\\
44	0.0446277431282512\\
45	0.058019450740893\\
46	0.074843365423057\\
47	0.199666615467323\\
48	0.216838516027539\\
49	0.0783890355452335\\
50	0.0495529240878659\\
51	0.0370791446049236\\
52	0.0307530810094058\\
53	0.0155757068681131\\
54	0.0198807977432187\\
55	0.0179871495341263\\
56	0.0162887905400521\\
57	0.0148728268904216\\
58	0.0136909847461918\\
59	0.0126943671543235\\
60	0.011846112844806\\
61	0.0111233301448608\\
62	0.0105291449791113\\
63	0.0102108676347222\\
64	0.00751288118280402\\
65	0.00739035992869396\\
66	0.0116365722557393\\
67	0.00899390796280924\\
68	0.00831157148096884\\
69	0.00788086875151191\\
70	0.00754217236777393\\
71	0.00725475830161164\\
72	0.00700327644843893\\
73	0.006780818536885\\
74	0.00658453626015097\\
75	0.00641472878078445\\
76	0.00627599401250467\\
77	0.00618216997550965\\
78	0.00617516728867787\\
79	0.00642745729543014\\
80	0.00873051939586948\\
81	0.00471465923588381\\
82	0.00195996010568866\\
83	0.004980313957114\\
84	0.00475839614864904\\
85	0.00464733241660508\\
86	0.00455444244400457\\
87	0.00446749239384432\\
88	0.00438406292262191\\
89	0.00430366820355207\\
90	0.00422628355118023\\
91	0.00415201532524293\\
92	0.00408104289588831\\
93	0.00401365198230764\\
94	0.00395033763548775\\
95	0.00389203620501121\\
96	0.00384070443755282\\
97	0.00380107128140597\\
98	0.00378779867734327\\
99	0.00387836096292209\\
100	0.00228454900881806\\
101	0.00321909463290553\\
102	0.00328982387499096\\
103	0.00328100374444436\\
104	0.00325253146337885\\
105	0.00321692683031362\\
106	0.00317840637543852\\
107	0.00313876414674543\\
108	0.00309887602618152\\
109	0.00305920797263281\\
110	0.00302002111537278\\
111	0.00298146552488656\\
112	0.00294362726599965\\
113	0.0029065537719176\\
114	0.00287026833389302\\
115	0.00283477876811283\\
116	0.00280008280049957\\
117	0.00276617151884636\\
118	0.00273303164395387\\
119	0.00270064705586787\\
120	0.00266899983729428\\
121	0.00263807099659409\\
122	0.00260784097374635\\
123	0.00257828999668392\\
124	0.00254939833288439\\
125	0.00252114646667125\\
126	0.00249351522323938\\
127	0.00246648585412356\\
128	0.00244004009455901\\
129	0.00241416020024051\\
130	0.00238882896892876\\
131	0.0023640297508985\\
132	0.00233974645117835\\
133	0.00231596352577768\\
134	0.00229266597354371\\
135	0.00226983932488367\\
136	0.00224746962828519\\
137	0.00222554343533969\\
138	0.00220404778480324\\
139	0.00218297018609978\\
140	0.00216229860257188\\
141	0.00214202143470905\\
142	0.00212212750352594\\
143	0.00210260603421662\\
144	0.00208344664017788\\
145	0.00206463930746792\\
146	0.00204617437974413\\
147	0.00202804254371082\\
148	0.00201023481509265\\
149	0.00199274252514179\\
150	0.00197555730767936\\
151	0.0019586710866655\\
152	0.00194207606428942\\
153	0.00192576470956709\\
154	0.00190972974743187\\
155	0.00189396414830307\\
156	0.00187846111811499\\
157	0.00186321408878906\\
158	0.00184821670913216\\
159	0.00183346283614256\\
160	0.00181894652670628\\
161	0.00180466202966742\\
162	0.00179060377825436\\
163	0.00177676638284649\\
164	0.00176314462406556\\
165	0.00174973344617591\\
166	0.0017365279507797\\
167	0.00172352339079259\\
168	0.00171071516468654\\
169	0.00169809881098722\\
170	0.00168567000301325\\
171	0.00167342454384613\\
172	0.00166135836151948\\
173	0.00164946750441694\\
174	0.00163774813686889\\
175	0.00162619653493841\\
176	0.00161480908238697\\
177	0.00160358226681213\\
178	0.001592512675948\\
179	0.00158159699412143\\
180	0.00157083199885632\\
181	0.00156021455761888\\
182	0.00154974162469766\\
183	0.00153941023821136\\
184	0.00152921751723897\\
185	0.00151916065906659\\
186	0.00150923693654504\\
187	0.00149944369555362\\
188	0.00148977835256491\\
189	0.00148023839230615\\
190	0.0014708213655126\\
191	0.00146152488676917\\
192	0.00145234663243548\\
193	0.00144328433865201\\
194	0.00143433579942216\\
195	0.0014254988647679\\
196	0.00141677143895562\\
197	0.00140815147878894\\
198	0.00139963699196521\\
199	0\\
200	0\\
};
\addlegendentry{$\mathbf{h_1}$}

\addplot [color=mycolor2]
  table[row sep=crcr]{%
1	0.00495033386861547\\
2	0.00515738368500011\\
3	0.00538309861623286\\
4	0.00563019833310769\\
5	0.00590197136255583\\
6	0.00620243506959928\\
7	0.00653655369620811\\
8	0.00691054090538825\\
9	0.00733228812251618\\
10	0.00781198494389501\\
11	0.00836304134465097\\
12	0.0090034999823859\\
13	0.00975827527656913\\
14	0.0106628508662167\\
15	0.0117696896019869\\
16	0.0131600228416925\\
17	0.0149671880151623\\
18	0.0174273921400842\\
19	0.0210049332363351\\
20	0.0267613442180004\\
21	0.037792597580649\\
22	0.068721841139076\\
23	0.97572931769219\\
24	0.0649085399616321\\
25	0.0262918397391367\\
26	0.0126468169615953\\
27	0.00419508123086451\\
28	0.0214241856295046\\
29	0.0134643328328179\\
30	0.00412679327935559\\
31	0.0112712342656943\\
32	0.0282552508318709\\
33	0.111702725947746\\
34	0.12653020104749\\
35	0.0361926668223949\\
36	0.024130019396178\\
37	0.019518168382204\\
38	0.0163235660243771\\
39	0.0140849625225472\\
40	0.0124312948441269\\
41	0.0111552918846637\\
42	0.0101369616841952\\
43	0.00930266674553233\\
44	0.00860476970863487\\
45	0.00801105372801389\\
46	0.00749890841387189\\
47	0.00705196472677567\\
48	0.00665805661850076\\
49	0.0063079366485928\\
50	0.00599443852440938\\
51	0.00571191453485358\\
52	0.00545584764793091\\
53	0.0052225778141873\\
54	0.00500910486747672\\
55	0.00481294397681212\\
56	0.00463201789166602\\
57	0.00446457542356871\\
58	0.00430912894812168\\
59	0.00416440590497024\\
60	0.00402931074167137\\
61	0.00390289474814389\\
62	0.00378433192171684\\
63	0.00367289949042518\\
64	0.0035679620699816\\
65	0.00346895868109233\\
66	0.00337539203747226\\
67	0.00328681965070268\\
68	0.00320284639950925\\
69	0\\
70	0\\
71	0\\
72	0\\
73	0\\
74	0\\
75	0\\
76	0\\
77	0\\
78	0\\
79	0\\
80	0\\
81	0\\
82	0\\
83	0\\
84	0\\
85	0\\
86	0\\
87	0\\
88	0\\
89	0\\
90	0\\
91	0\\
92	0\\
93	0\\
94	0\\
95	0\\
96	0\\
97	0\\
98	0\\
99	0\\
100	0\\
101	0\\
102	0\\
103	0\\
104	0\\
105	0\\
106	0\\
107	0\\
108	0\\
109	0\\
110	0\\
111	0\\
112	0\\
113	0\\
114	0\\
115	0\\
116	0\\
117	0\\
118	0\\
119	0\\
120	0\\
121	0\\
122	0\\
123	0\\
124	0\\
125	0\\
126	0\\
127	0\\
128	0\\
129	0\\
130	0\\
131	0\\
132	0\\
133	0\\
134	0\\
135	0\\
136	0\\
137	0\\
138	0\\
139	0\\
140	0\\
141	0\\
142	0\\
143	0\\
144	0\\
145	0\\
146	0\\
147	0\\
148	0\\
149	0\\
150	0\\
151	0\\
152	0\\
153	0\\
154	0\\
155	0\\
156	0\\
157	0\\
158	0\\
159	0\\
160	0\\
161	0\\
162	0\\
163	0\\
164	0\\
165	0\\
166	0\\
167	0\\
168	0\\
169	0\\
170	0\\
171	0\\
172	0\\
173	0\\
174	0\\
175	0\\
176	0\\
177	0\\
178	0\\
179	0\\
180	0\\
181	0\\
182	0\\
183	0\\
184	0\\
185	0\\
186	0\\
187	0\\
188	0\\
189	0\\
190	0\\
191	0\\
192	0\\
193	0\\
194	0\\
195	0\\
196	0\\
197	0\\
198	0\\
199	0\\
200	0\\
};
\addlegendentry{$\mathbf{h_{2}}$}

\end{axis}

\begin{axis}[%
width=1.935in,
height=3.2in,
at={(3.327in,0.512in)},
scale only axis,
xmin=0,
xmax=200,
xlabel style={font=\color{white!15!black}, align=center},
xlabel={Sample Index\\[1ex](b) Estimated},
ymin=0,
ymax=0.3,
axis background/.style={fill=white},
legend style={legend cell align=left, align=left, draw=white!15!black}
]
\addplot [color=mycolor1]
  table[row sep=crcr]{%
0	0.0324022548243719\\
1	0.0184919775794652\\
2	0.00996530425071614\\
3	0.0122329461174966\\
4	0.0375985638910685\\
5	0.0285852625626384\\
6	0.16266886411136\\
7	0.107473851665026\\
8	0.0359753357448537\\
9	0.0500597766684005\\
10	0.0222599095851156\\
11	0.0351474263625135\\
12	0.0266606336119198\\
13	0.0340564214003473\\
14	0.0338367363618533\\
15	0.0563628001439546\\
16	6.69425988522374e-06\\
17	0.016685536995229\\
18	0.0631896319716579\\
19	0.0311197589984924\\
20	0.00718689677626124\\
21	0.00845975049161287\\
22	0.147229532149535\\
23	0.136335632448274\\
24	0.0310630995653255\\
25	0.0985880436415822\\
26	0.0443240268918291\\
27	0.0481680862363206\\
28	0.00934863232490718\\
29	0.0350375677902983\\
30	0.114462271582076\\
31	0.0646778449549715\\
32	0.0654509167019775\\
33	0.0455267620070319\\
34	0.0391593534762961\\
35	0.126064878176207\\
36	0.030901745636197\\
37	0.067751554701026\\
38	0.0323088822056186\\
39	0.0648966695437339\\
40	0.0671036956697409\\
41	0.0619484486917283\\
42	0.0826772130802867\\
43	0.161909627092134\\
44	0.018065587957151\\
45	0.0150625146888333\\
46	0.0939612657931035\\
47	0.105621879416335\\
48	0.0192958115772405\\
49	0.0329162232072181\\
50	0.0219420843843128\\
51	0.00143476221632094\\
52	0.00616069667347251\\
53	0.0500155211657279\\
54	0.0255149091980603\\
55	0.0380748938757776\\
56	0.0817279343371188\\
57	0.026769378290378\\
58	0.142899873755441\\
59	0.0758668187927486\\
60	0.0979619253486642\\
61	0.0212644854962157\\
62	0.00403157133053693\\
63	0.099541885235071\\
64	0.0825819492980724\\
65	0.0350615093073103\\
66	0.00400016960766843\\
67	0.0370601048979418\\
68	0.0214907978298977\\
69	0.0165372971199851\\
70	0.00640724668290722\\
71	0.0375842277617306\\
72	0.0693082213957929\\
73	0.0999335985055162\\
74	0.0968292271308093\\
75	0.0119884038862266\\
76	0.0101202033309778\\
77	0.0137260864350951\\
78	0.0126605216990575\\
79	0.0711401228114105\\
80	0.095260061891361\\
81	0.0628732542654288\\
82	0.0296194737332899\\
83	0.00822472249987689\\
84	0.110932398067929\\
85	0.0715404421170046\\
86	0.12152664405685\\
87	0.027457221090704\\
88	0.0409362779403906\\
89	0.110027964040594\\
90	0.098722065529695\\
91	0.0272373225943364\\
92	0.10713366731428\\
93	0.057176897339885\\
94	0.037093897277861\\
95	0.0760275290630742\\
96	0.0593552779704707\\
97	0.0201657355841496\\
98	0.0576366667457648\\
99	0.0971404356937624\\
100	0.03576974653132\\
101	0.0639820806291145\\
102	0.0283277080062791\\
103	5.45704491508977e-05\\
104	0.106611595003547\\
105	0.063538388458281\\
106	0.255747665929938\\
107	0.00663125430315077\\
108	0.143823841673914\\
109	0.0166196571473682\\
110	0.0719551831189288\\
111	0.0019263216416229\\
112	0.0606644352713297\\
113	0.154732338563411\\
114	0.0337152271910909\\
115	0.0564432272766693\\
116	0.112784072694373\\
117	0.00541858198127787\\
118	0.0761677368342932\\
119	0.107708482684781\\
120	0.00724438156144567\\
121	0.00844273217133668\\
122	0.0864665918086575\\
123	0.0632733835864432\\
124	2.92906399899929e-05\\
125	0.0506260286022486\\
126	0.0900763616456977\\
127	0.0597727526822286\\
128	0.0721206620353684\\
129	0.00508023962945294\\
130	0.0250923619235374\\
131	0.0722281929093969\\
132	0.00229013721278667\\
133	0.0660950307807111\\
134	0.0122451557940666\\
135	0.0865275888504507\\
136	0.18541033376924\\
137	0.0285415630778138\\
138	0.0193955621822465\\
139	0.0308087640019105\\
140	0.0333042759420002\\
141	0.0295377653159053\\
142	0.0600297466173228\\
143	0.176426247955555\\
144	0.0510552377731726\\
145	0.0325280766440525\\
146	0.0226452630724407\\
147	0.0155220161845314\\
148	0.0202308884562813\\
149	0.037552382268563\\
150	0.00491041841582888\\
151	0.0459955660516206\\
152	0.0606349450216645\\
153	0.0044434045851108\\
154	0.0535370243668325\\
155	0.0095535945011492\\
156	0.0919962822608628\\
157	0.0630026210600505\\
158	0.0390642225440876\\
159	0.091521456322613\\
160	0.0450782017575553\\
161	0.0405123471056731\\
162	0.187223105376465\\
163	0.0260020480349988\\
164	0.0562948004380556\\
165	0.121004000862658\\
166	0.0880589217819726\\
167	0.053337531687266\\
168	0.00680743130656456\\
169	0.0813448559955347\\
170	0.00949597508701403\\
171	0.0510092620476068\\
172	0.114426962311882\\
173	0.0887921049805516\\
174	0.00672187988767585\\
175	0.0396656367852744\\
176	0.00523620951892325\\
177	0.0134378587709743\\
178	0.0537733458782271\\
179	0.0578840235233725\\
180	0.0319811491332229\\
181	0.026535335861744\\
182	0.0320482582034908\\
183	0.0846099475541421\\
184	0.137677056608962\\
185	0.0142606272307231\\
186	0.100806564827845\\
187	0.195233538374637\\
188	0.0688932724530881\\
189	0.136374235895047\\
190	0.0222352855801106\\
191	0.0454110911031845\\
192	0.0640953264101125\\
193	0.0702291244271168\\
194	0.0122719829372248\\
195	0.0092353001684515\\
196	0.00275220081387051\\
197	0.0673591032655636\\
198	0.0309386534548824\\
199	0.0169276970630855\\
};
\addlegendentry{$\mathbf{\hat{h}_{1}}$}

\addplot [color=mycolor2]
  table[row sep=crcr]{%
0	0.00408210217499286\\
1	0.0286227700599279\\
2	0.0257804580988091\\
3	0.052900300537257\\
4	0.00318096256064184\\
5	0.0552267105997137\\
6	0.0529257188152054\\
7	0.0391295291069941\\
8	0.0541895817155109\\
9	0.00832097954800983\\
10	0.104569455879194\\
11	0.0646870303516879\\
12	0.00936871598094631\\
13	0.0190166870464675\\
14	0.0256500524595232\\
15	0.0804185441951012\\
16	0.0403032622153532\\
17	0.101801617192536\\
18	0.0789660961365249\\
19	0.044291806347431\\
20	0.0278880773386687\\
21	0.0496746087145451\\
22	0.177619524456068\\
23	0.0261572851833236\\
24	0.030975998582171\\
25	0.0134944954326972\\
26	0.100042989667921\\
27	0.052771059666565\\
28	0.0252021450503285\\
29	0.0384307489077337\\
30	0.0814400249844552\\
31	0.0273323954297146\\
32	0.113777998517997\\
33	0.051439996829897\\
34	0.193516561789732\\
35	0.0942361353735377\\
36	0.0729129549294043\\
37	0.0523781823700364\\
38	0.056396694619548\\
39	0.020037779285653\\
40	0.0221221159118397\\
41	0.0512121274629603\\
42	0.022395580568013\\
43	0.0340261536408256\\
44	0.0361527032397945\\
45	0.0389818852872596\\
46	0.0460103529839841\\
47	0.0794920619999061\\
48	0.0489213820745233\\
49	0.0103587598755782\\
50	0.119350179098116\\
51	0.0534025058268633\\
52	0.109186159127096\\
53	0.119577580713098\\
54	0.0250162956223825\\
55	0.0368879937988845\\
56	0.0705020044341052\\
57	0.0478900796508228\\
58	0.115237089072243\\
59	0.00140673815063985\\
60	0.106473447393143\\
61	0.0265613345336471\\
62	0.0619799055406218\\
63	0.0264791630856814\\
64	0.0820082554686904\\
65	0.0433398944105592\\
66	0.0817873974085642\\
67	0.0816263848846409\\
68	0.0800991431716877\\
69	0.101721038631981\\
70	0.00697199644234475\\
71	0.158646293617119\\
72	0.0961646436847551\\
73	0.03513972298966\\
74	0.105964312833764\\
75	0.0688776919336857\\
76	0.0160635027473668\\
77	0.119922426216921\\
78	0.15548487777182\\
79	0.075708981352069\\
80	0.0475070295159698\\
81	0.00568377448108448\\
82	0.167619923494319\\
83	0.133972587994009\\
84	0.0421845866804978\\
85	0.00103749828349106\\
86	0.0348456045299261\\
87	0.0328883502992825\\
88	0.00755904355706841\\
89	0.0842192239587232\\
90	0.031266689681077\\
91	0.0853427486111755\\
92	0.16987753704288\\
93	0.0912093805653139\\
94	0.0233587345299599\\
95	0.0515348535197309\\
96	0.0939447727484185\\
97	0.0244650285996248\\
98	0.0506351933715753\\
99	0.0874196960666666\\
100	0.196287732803554\\
101	0.0528080016699287\\
102	0.0222314497455437\\
103	0.0352536148608834\\
104	0.0370096479943795\\
105	0.0229094712388127\\
106	0.0706667580477155\\
107	0.104020060740755\\
108	0.101079576788009\\
109	0.0611770101858209\\
110	0.0555703598760604\\
111	0.153458098970055\\
112	0.0694996824228526\\
113	0.0819253050064732\\
114	0.0361805688224139\\
115	0.0556873731230416\\
116	0.0557192900946175\\
117	0.0997029673567041\\
118	0.0388438978648427\\
119	0.0990492483733021\\
120	0.0269112406498194\\
121	0.0159867535193019\\
122	0.0495387640258008\\
123	0.007052133907991\\
124	0.00675171438913393\\
125	0.13674783145666\\
126	0.0410991734610167\\
127	0.0372341714660419\\
128	0.0307010876689979\\
129	0.059970449231772\\
130	0.00397558331678615\\
131	0.0700802040905201\\
132	0.0293093035140319\\
133	0.0236992863840527\\
134	0.0632091170725477\\
135	0.0372821179669237\\
136	0.0851389793755239\\
137	0.0904554099168639\\
138	0.0738240001963843\\
139	0.055555940274781\\
140	0.023491381073242\\
141	0.0498918009703302\\
142	0.0606248598179794\\
143	0.0553448937684962\\
144	0.0595495810663036\\
145	0.0282406131226628\\
146	0.129334221115892\\
147	0.0706570922453197\\
148	0.0532995426327561\\
149	0.0237940864691872\\
150	0.0697289434053652\\
151	0.0396145558205063\\
152	0.0443790533088795\\
153	0.0603329098265155\\
154	0.0813354131374863\\
155	0.00127788368580628\\
156	0.0225125725585945\\
157	0.0311290756272864\\
158	0.00175086823468026\\
159	0.0115327926841533\\
160	0.143182912541279\\
161	0.0116521788116867\\
162	0.0136091844652768\\
163	0.00200971718990472\\
164	0.0159114295494541\\
165	0.000712336011921098\\
166	0.0620064423728306\\
167	0.0639466905249636\\
168	0.0299193856040396\\
169	0.155094657055189\\
170	0.0548034092918057\\
171	0.0875893007477195\\
172	0.0998098518363493\\
173	0.0721411677228617\\
174	0.0579317245707676\\
175	0.013107832768758\\
176	0.0593102179160608\\
177	0.0143933267294894\\
178	0.0765923642974777\\
179	0.0510540107846672\\
180	0.000989102074989517\\
181	0.0222166523786942\\
182	0.0368823068801167\\
183	0.00612383526661227\\
184	0.0751004153826522\\
185	0.0586195206107319\\
186	3.51202247209361e-05\\
187	0.0335959309061551\\
188	0.118947685642113\\
189	0.0359405108537596\\
190	0.00747366588654726\\
191	0.0642565230690865\\
192	0.0244583358161478\\
193	0.0739852933626446\\
194	0.0782905332429253\\
195	0.131528855136905\\
196	0.114897151718098\\
197	0.0915388510356123\\
198	0.0243461749985262\\
199	0.0234572851922644\\
};
\addlegendentry{$\mathbf{\hat{h}_{2}}$}

\end{axis}
\end{tikzpicture}%