% This file was created by matlab2tikz.
%
%The latest updates can be retrieved from
%  http://www.mathworks.com/matlabcentral/fileexchange/22022-matlab2tikz-matlab2tikz
%where you can also make suggestions and rate matlab2tikz.
%
\definecolor{mycolor1}{rgb}{0.00000,0.44700,0.74100}%
\definecolor{mycolor2}{rgb}{0.85000,0.32500,0.09800}%
%
\begin{tikzpicture}

\begin{axis}[%
width=1.935in,
height=3.2in,
at={(0.758in,0.512in)},
scale only axis,
xmin=0,
xmax=200,
xlabel style={font=\color{white!15!black}, align=center},
xlabel={Sample Index\\[1ex](a) Actual},
ymin=0,
ymax=1,
axis background/.style={fill=white},
legend style={legend cell align=left, align=left, draw=white!15!black}
]
\addplot [color=mycolor1]
  table[row sep=crcr]{%
1	0.0167418731260698\\
2	0.018659722218203\\
3	0.0211495716349754\\
4	0.0245407494314006\\
5	0.029505643974117\\
6	0.0377161636169434\\
7	0.0550750576238134\\
8	0.131028403455825\\
9	0.141533477104454\\
10	0.158175166246243\\
11	0.163761757297189\\
12	0.600100605556833\\
13	0.118033417583129\\
14	0.0610914209628117\\
15	0.0426162246246858\\
16	0.0332715711707656\\
17	0.0321939439283243\\
18	0.0268871008873183\\
19	0.0316920608120786\\
20	0.0286771919664519\\
21	0.00773119825769845\\
22	0.0330073087209196\\
23	0.019415059292473\\
24	0.0177688778425817\\
25	0.0188194600762088\\
26	0.0237714798713867\\
27	0.0430806655948836\\
28	0.586023006720236\\
29	0.0970905103802927\\
30	0.0246981078960262\\
31	0.0780346253424249\\
32	0.0580455436901626\\
33	0.0681836526256362\\
34	0.163824852865525\\
35	0.0446106828365612\\
36	0.06119675966513\\
37	0.00907835157153909\\
38	0.0310093774848825\\
39	0.00125972832884384\\
40	0.005422098150711\\
41	0.0107374596162295\\
42	0.0165479326643041\\
43	0.024789327411243\\
44	0.0446277431282512\\
45	0.058019450740893\\
46	0.074843365423057\\
47	0.199666615467323\\
48	0.216838516027539\\
49	0.0783890355452335\\
50	0.0495529240878659\\
51	0.0370791446049236\\
52	0.0307530810094058\\
53	0.0155757068681131\\
54	0.0198807977432187\\
55	0.0179871495341263\\
56	0.0162887905400521\\
57	0.0148728268904216\\
58	0.0136909847461918\\
59	0.0126943671543235\\
60	0.011846112844806\\
61	0.0111233301448608\\
62	0.0105291449791113\\
63	0.0102108676347222\\
64	0.00751288118280402\\
65	0.00739035992869396\\
66	0.0116365722557393\\
67	0.00899390796280924\\
68	0.00831157148096884\\
69	0.00788086875151191\\
70	0.00754217236777393\\
71	0.00725475830161164\\
72	0.00700327644843893\\
73	0.006780818536885\\
74	0.00658453626015097\\
75	0.00641472878078445\\
76	0.00627599401250467\\
77	0.00618216997550965\\
78	0.00617516728867787\\
79	0.00642745729543014\\
80	0.00873051939586948\\
81	0.00471465923588381\\
82	0.00195996010568866\\
83	0.004980313957114\\
84	0.00475839614864904\\
85	0.00464733241660508\\
86	0.00455444244400457\\
87	0.00446749239384432\\
88	0.00438406292262191\\
89	0.00430366820355207\\
90	0.00422628355118023\\
91	0.00415201532524293\\
92	0.00408104289588831\\
93	0.00401365198230764\\
94	0.00395033763548775\\
95	0.00389203620501121\\
96	0.00384070443755282\\
97	0.00380107128140597\\
98	0.00378779867734327\\
99	0.00387836096292209\\
100	0.00228454900881806\\
101	0.00321909463290553\\
102	0.00328982387499096\\
103	0.00328100374444436\\
104	0.00325253146337885\\
105	0.00321692683031362\\
106	0.00317840637543852\\
107	0.00313876414674543\\
108	0.00309887602618152\\
109	0.00305920797263281\\
110	0.00302002111537278\\
111	0.00298146552488656\\
112	0.00294362726599965\\
113	0.0029065537719176\\
114	0.00287026833389302\\
115	0.00283477876811283\\
116	0.00280008280049957\\
117	0.00276617151884636\\
118	0.00273303164395387\\
119	0.00270064705586787\\
120	0.00266899983729428\\
121	0.00263807099659409\\
122	0.00260784097374635\\
123	0.00257828999668392\\
124	0.00254939833288439\\
125	0.00252114646667125\\
126	0.00249351522323938\\
127	0.00246648585412356\\
128	0.00244004009455901\\
129	0.00241416020024051\\
130	0.00238882896892876\\
131	0.0023640297508985\\
132	0.00233974645117835\\
133	0.00231596352577768\\
134	0.00229266597354371\\
135	0.00226983932488367\\
136	0.00224746962828519\\
137	0.00222554343533969\\
138	0.00220404778480324\\
139	0.00218297018609978\\
140	0.00216229860257188\\
141	0.00214202143470905\\
142	0.00212212750352594\\
143	0.00210260603421662\\
144	0.00208344664017788\\
145	0.00206463930746792\\
146	0.00204617437974413\\
147	0.00202804254371082\\
148	0.00201023481509265\\
149	0.00199274252514179\\
150	0.00197555730767936\\
151	0.0019586710866655\\
152	0.00194207606428942\\
153	0.00192576470956709\\
154	0.00190972974743187\\
155	0.00189396414830307\\
156	0.00187846111811499\\
157	0.00186321408878906\\
158	0.00184821670913216\\
159	0.00183346283614256\\
160	0.00181894652670628\\
161	0.00180466202966742\\
162	0.00179060377825436\\
163	0.00177676638284649\\
164	0.00176314462406556\\
165	0.00174973344617591\\
166	0.0017365279507797\\
167	0.00172352339079259\\
168	0.00171071516468654\\
169	0.00169809881098722\\
170	0.00168567000301325\\
171	0.00167342454384613\\
172	0.00166135836151948\\
173	0.00164946750441694\\
174	0.00163774813686889\\
175	0.00162619653493841\\
176	0.00161480908238697\\
177	0.00160358226681213\\
178	0.001592512675948\\
179	0.00158159699412143\\
180	0.00157083199885632\\
181	0.00156021455761888\\
182	0.00154974162469766\\
183	0.00153941023821136\\
184	0.00152921751723897\\
185	0.00151916065906659\\
186	0.00150923693654504\\
187	0.00149944369555362\\
188	0.00148977835256491\\
189	0.00148023839230615\\
190	0.0014708213655126\\
191	0.00146152488676917\\
192	0.00145234663243548\\
193	0.00144328433865201\\
194	0.00143433579942216\\
195	0.0014254988647679\\
196	0.00141677143895562\\
197	0.00140815147878894\\
198	0.00139963699196521\\
199	0\\
200	0\\
};
\addlegendentry{$\mathbf{h_1}$}

\addplot [color=mycolor2]
  table[row sep=crcr]{%
1	0.00495033386861547\\
2	0.00515738368500011\\
3	0.00538309861623286\\
4	0.00563019833310769\\
5	0.00590197136255583\\
6	0.00620243506959928\\
7	0.00653655369620811\\
8	0.00691054090538825\\
9	0.00733228812251618\\
10	0.00781198494389501\\
11	0.00836304134465097\\
12	0.0090034999823859\\
13	0.00975827527656913\\
14	0.0106628508662167\\
15	0.0117696896019869\\
16	0.0131600228416925\\
17	0.0149671880151623\\
18	0.0174273921400842\\
19	0.0210049332363351\\
20	0.0267613442180004\\
21	0.037792597580649\\
22	0.068721841139076\\
23	0.97572931769219\\
24	0.0649085399616321\\
25	0.0262918397391367\\
26	0.0126468169615953\\
27	0.00419508123086451\\
28	0.0214241856295046\\
29	0.0134643328328179\\
30	0.00412679327935559\\
31	0.0112712342656943\\
32	0.0282552508318709\\
33	0.111702725947746\\
34	0.12653020104749\\
35	0.0361926668223949\\
36	0.024130019396178\\
37	0.019518168382204\\
38	0.0163235660243771\\
39	0.0140849625225472\\
40	0.0124312948441269\\
41	0.0111552918846637\\
42	0.0101369616841952\\
43	0.00930266674553233\\
44	0.00860476970863487\\
45	0.00801105372801389\\
46	0.00749890841387189\\
47	0.00705196472677567\\
48	0.00665805661850076\\
49	0.0063079366485928\\
50	0.00599443852440938\\
51	0.00571191453485358\\
52	0.00545584764793091\\
53	0.0052225778141873\\
54	0.00500910486747672\\
55	0.00481294397681212\\
56	0.00463201789166602\\
57	0.00446457542356871\\
58	0.00430912894812168\\
59	0.00416440590497024\\
60	0.00402931074167137\\
61	0.00390289474814389\\
62	0.00378433192171684\\
63	0.00367289949042518\\
64	0.0035679620699816\\
65	0.00346895868109233\\
66	0.00337539203747226\\
67	0.00328681965070268\\
68	0.00320284639950925\\
69	0\\
70	0\\
71	0\\
72	0\\
73	0\\
74	0\\
75	0\\
76	0\\
77	0\\
78	0\\
79	0\\
80	0\\
81	0\\
82	0\\
83	0\\
84	0\\
85	0\\
86	0\\
87	0\\
88	0\\
89	0\\
90	0\\
91	0\\
92	0\\
93	0\\
94	0\\
95	0\\
96	0\\
97	0\\
98	0\\
99	0\\
100	0\\
101	0\\
102	0\\
103	0\\
104	0\\
105	0\\
106	0\\
107	0\\
108	0\\
109	0\\
110	0\\
111	0\\
112	0\\
113	0\\
114	0\\
115	0\\
116	0\\
117	0\\
118	0\\
119	0\\
120	0\\
121	0\\
122	0\\
123	0\\
124	0\\
125	0\\
126	0\\
127	0\\
128	0\\
129	0\\
130	0\\
131	0\\
132	0\\
133	0\\
134	0\\
135	0\\
136	0\\
137	0\\
138	0\\
139	0\\
140	0\\
141	0\\
142	0\\
143	0\\
144	0\\
145	0\\
146	0\\
147	0\\
148	0\\
149	0\\
150	0\\
151	0\\
152	0\\
153	0\\
154	0\\
155	0\\
156	0\\
157	0\\
158	0\\
159	0\\
160	0\\
161	0\\
162	0\\
163	0\\
164	0\\
165	0\\
166	0\\
167	0\\
168	0\\
169	0\\
170	0\\
171	0\\
172	0\\
173	0\\
174	0\\
175	0\\
176	0\\
177	0\\
178	0\\
179	0\\
180	0\\
181	0\\
182	0\\
183	0\\
184	0\\
185	0\\
186	0\\
187	0\\
188	0\\
189	0\\
190	0\\
191	0\\
192	0\\
193	0\\
194	0\\
195	0\\
196	0\\
197	0\\
198	0\\
199	0\\
200	0\\
};
\addlegendentry{$\mathbf{h_{2}}$}

\end{axis}

\begin{axis}[%
width=1.935in,
height=3.2in,
at={(3.327in,0.512in)},
scale only axis,
xmin=0,
xmax=200,
xlabel style={font=\color{white!15!black}, align=center},
xlabel={Sample Index\\[1ex](b) Estimated},
ymin=0,
ymax=1,
axis background/.style={fill=white},
legend style={legend cell align=left, align=left, draw=white!15!black}
]
\addplot [color=mycolor1]
  table[row sep=crcr]{%
0	0.0125036153916678\\
1	0.0173646043080187\\
2	0.00393775098696232\\
3	0.0130657306887844\\
4	0.00594404332538752\\
5	0.0136801017414397\\
6	0.0104318456175714\\
7	0.0119911912925542\\
8	0.00512520188750173\\
9	0.00675256200100347\\
10	0.0125874782914444\\
11	0.0133576514649184\\
12	0.0084365868699253\\
13	0.0149274944492859\\
14	0.00247268369509976\\
15	0.0122412430292777\\
16	0.0216183217682844\\
17	0.00585145085168662\\
18	0.00907124114231911\\
19	0.00284634451707362\\
20	0.00524008666244602\\
21	0.0141804634223652\\
22	0.00473255980240125\\
23	0.0151533320207129\\
24	0.00563446894738708\\
25	0.0137687248013727\\
26	0.0118580723032932\\
27	0.0118083911713453\\
28	0.0104741226048516\\
29	0.0100366425625833\\
30	0.0133882239799298\\
31	0.0190647174997691\\
32	0.00472171574917737\\
33	0.0100705098231897\\
34	0.0225423752550762\\
35	0.0164263798906391\\
36	0.0134732688045233\\
37	0.00812369595584471\\
38	0.00796227037602473\\
39	0.00398239065419797\\
40	0.0246004604841861\\
41	0.00518547003319668\\
42	0.00307641335965209\\
43	0.0168660017370962\\
44	0.00343063103813982\\
45	0.00542361976297708\\
46	0.00789576028375447\\
47	0.0122767689642056\\
48	0.00918115021470171\\
49	0.012103070334548\\
50	0.00931004184058274\\
51	0.0180556974527693\\
52	0.0270192824298747\\
53	0.0130566454287889\\
54	0.00961444327165322\\
55	0.0173285081521173\\
56	0.0120767146761701\\
57	0.00361073424596941\\
58	0.0177242250986528\\
59	0.00251838048461073\\
60	0.0187057935982004\\
61	0.0153581336861277\\
62	0.0134939818801884\\
63	0.0111341674899195\\
64	0.0179184515829436\\
65	0.0235350414022182\\
66	0.0165354734750787\\
67	0.00419455231787574\\
68	0.00466862081851813\\
69	0.0140892828348518\\
70	0.0131919956063435\\
71	0.00563337396112872\\
72	0.0442840509249156\\
73	0.00433435308167302\\
74	0.0375205566744817\\
75	0.0461812694965603\\
76	0.0336080208308097\\
77	0.10417822869128\\
78	0.00778173597810248\\
79	0.010002775246516\\
80	0.00766514263300094\\
81	0.0110041135096718\\
82	0.0174203112473067\\
83	0.0571353535695385\\
84	0.131139474247071\\
85	0.0969552459813279\\
86	0.116704963845538\\
87	0.207970198164201\\
88	0.566657082445257\\
89	0.139913088113221\\
90	0.0481312341149065\\
91	0.0460298736054203\\
92	0.058663427421576\\
93	0.0730664330557889\\
94	0.0937856476071635\\
95	0.032909845647471\\
96	0.0131002385250022\\
97	0.0124096793555634\\
98	0.0348826782244486\\
99	0.020492842857099\\
100	0.0178723931481766\\
101	0.0316129899709932\\
102	0.0484738466873721\\
103	0.0458883968955223\\
104	0.579756739155836\\
105	0.103177696637598\\
106	0.0231922211575918\\
107	0.0722792497033072\\
108	0.0311842258745143\\
109	0.0636016300604669\\
110	0.167392235595736\\
111	0.0321074532248984\\
112	0.0433740467839719\\
113	0.0334631052506357\\
114	0.0148725141637368\\
115	0.0213487676951306\\
116	0.000986420693491574\\
117	0.0174832900053371\\
118	0.0138456392578374\\
119	0.00562590598714215\\
120	0.0588789376455692\\
121	0.0443466059293322\\
122	0.0679390205389633\\
123	0.235336667867457\\
124	0.169117829534396\\
125	0.0855858185018963\\
126	0.0163921098049885\\
127	0.033476974436753\\
128	0.0374159130090027\\
129	0.0126326833643643\\
130	0.00761348631380067\\
131	0.0284467886670383\\
132	0.00304507293410817\\
133	0.009129516748074\\
134	0.00810082651256612\\
135	0.0119760760001747\\
136	0.0213586039277662\\
137	0.0124072288055822\\
138	0.00934238365036556\\
139	0.00104837403550129\\
140	0.00645475615175974\\
141	0.010271430109031\\
142	0.0162076516932066\\
143	0.00340838436226179\\
144	0.0114918677789826\\
145	0.0188982008490791\\
146	0.0208059998483182\\
147	0.00775049279302181\\
148	0.00505780717101341\\
149	0.0193007143545488\\
150	0.0183911383175254\\
151	0.00470051559918265\\
152	0.00985911086300837\\
153	0.0328360017997381\\
154	0.00745672234372085\\
155	0.0286644880993459\\
156	0.00656229744388813\\
157	0.0249111709992154\\
158	0.00744131340131643\\
159	0.0230506033633151\\
160	0.0115283434545815\\
161	0.00610432949394485\\
162	0.0309082314577261\\
163	0.016966796597908\\
164	0.00480957818532884\\
165	0.0220002462937947\\
166	0.0213724345276947\\
167	0.0181538318919922\\
168	0.0190894034542724\\
169	0.0132805512434098\\
170	0.015774552062829\\
171	0.0142727805717027\\
172	0.0224824363807894\\
173	0.0140824323635882\\
174	0.0140828328170375\\
175	0.0246447507908155\\
176	0.00761961085866442\\
177	0.00702334370107533\\
178	0.0150689424419723\\
179	0.00623580833353151\\
180	0.00682404180969039\\
181	0.0228019027610625\\
182	0.0263530327032112\\
183	0.0195558669853428\\
184	0.00776019071233846\\
185	0.00692297803096027\\
186	0.00221922687438993\\
187	0.0274561278266016\\
188	0.0113368875406358\\
189	0.00274707561369721\\
190	0.0204771665019892\\
191	0.00805799210261104\\
192	0.00580255425594817\\
193	0.0156745919286378\\
194	0.00922951735776327\\
195	0.00783894513822396\\
196	0.0097666893326786\\
197	0.00687941761122347\\
198	0.0069453086060072\\
199	0.015038563310695\\
};
\addlegendentry{$\mathbf{\hat{h}_{1}}$}

\addplot [color=mycolor2]
  table[row sep=crcr]{%
0	6.72562977638345e-05\\
1	2.64937308932473e-05\\
2	2.51340783720923e-05\\
3	5.71262290191963e-06\\
4	7.40039363851405e-05\\
5	4.15578865395602e-05\\
6	5.00572791511943e-05\\
7	6.59635212413133e-05\\
8	3.47426435297974e-05\\
9	3.96502103436113e-05\\
10	5.73005771462061e-05\\
11	3.48652075859994e-05\\
12	3.79036639792942e-05\\
13	7.41386651380622e-06\\
14	2.37153625465234e-05\\
15	6.99585526185983e-05\\
16	4.19505706191863e-05\\
17	2.67024119553671e-05\\
18	1.48135471792086e-05\\
19	2.20510609409691e-05\\
20	6.0987427745051e-05\\
21	3.13998271400435e-05\\
22	6.39522290899264e-05\\
23	3.57204867122477e-05\\
24	3.17919771869158e-05\\
25	9.35292754571348e-05\\
26	4.91577177234338e-05\\
27	5.90329125263181e-05\\
28	9.33766534665734e-05\\
29	7.47520029489409e-05\\
30	1.40304534067031e-05\\
31	4.97203346696504e-05\\
32	5.21105106147955e-05\\
33	9.45991070566378e-06\\
34	6.81294713963611e-05\\
35	0.000113078206184935\\
36	4.38650287355607e-05\\
37	7.38842734345013e-05\\
38	7.69209783430727e-05\\
39	5.78749853950985e-05\\
40	3.39957499143495e-05\\
41	0.00014192553307692\\
42	5.53219308198348e-05\\
43	5.51709082395627e-05\\
44	6.61472004127774e-05\\
45	7.5145873528664e-05\\
46	5.12531091107001e-05\\
47	0.000106923651870596\\
48	5.02260338487192e-05\\
49	9.70214998144149e-06\\
50	5.62525843202916e-05\\
51	7.15565993284001e-05\\
52	1.69668151386212e-05\\
53	8.00878435353707e-05\\
54	7.02862737309636e-05\\
55	1.61850096217701e-05\\
56	3.16319332852527e-05\\
57	2.4055718708366e-05\\
58	4.56769378826422e-05\\
59	5.06640777501866e-05\\
60	0.000289937832246001\\
61	3.99486284813157e-05\\
62	3.82580646543081e-05\\
63	0.000458424843488108\\
64	0.000240685453241695\\
65	0.000180535507396836\\
66	0.000151020695158556\\
67	0.000136453392666405\\
68	4.37598227405519e-05\\
69	3.83946650463852e-05\\
70	5.22227295641544e-05\\
71	2.25439758478058e-05\\
72	0.000130281582713011\\
73	8.01074366548763e-05\\
74	3.44729000023423e-05\\
75	3.27809258309871e-05\\
76	0.000224549568804268\\
77	0.000196612594470086\\
78	0.000163908810728294\\
79	0.000391034272553797\\
80	0.000531476422837906\\
81	0.000276181273759956\\
82	0.000131847946947883\\
83	0.000971263233436643\\
84	0.00017282781228528\\
85	3.29413283915666e-05\\
86	0.000245485050434356\\
87	7.92217990735547e-05\\
88	0.000115828882819326\\
89	8.01492569538859e-05\\
90	5.03618920583167e-05\\
91	9.0917614171285e-05\\
92	1.39609215289963e-05\\
93	0.000174860096759731\\
94	2.2054665730331e-05\\
95	3.33631089577023e-05\\
96	0.000450731547671195\\
97	0.000202133076973338\\
98	2.06402893563991e-05\\
99	0.999997334677953\\
100	2.08106682849762e-05\\
101	0.000202184105544399\\
102	0.000452103100130006\\
103	3.05115835442704e-05\\
104	2.31291043828641e-05\\
105	0.000180266834853909\\
106	1.25392379502316e-05\\
107	9.46360734573101e-05\\
108	4.87220402442289e-05\\
109	8.04440268631604e-05\\
110	0.00011334743159787\\
111	8.25397210498478e-05\\
112	0.000250270622774334\\
113	3.1388919805905e-05\\
114	0.000175881733041953\\
115	0.00097367028445407\\
116	0.000126040474788526\\
117	0.000276548370225099\\
118	0.000530552752980015\\
119	0.000388366461993723\\
120	0.000159131611596324\\
121	0.00020634663124376\\
122	0.000215840077139928\\
123	3.78339258744572e-05\\
124	3.08249757453478e-05\\
125	7.96351858784638e-05\\
126	0.000135102891003231\\
127	2.39076383072003e-05\\
128	5.60830266360603e-05\\
129	4.11328423813451e-05\\
130	4.17520833665006e-05\\
131	0.000138367202705916\\
132	0.000147055027180991\\
133	0.000171931068901816\\
134	0.000249798290453447\\
135	0.000460826906090729\\
136	3.83541499280002e-05\\
137	2.94593663424865e-05\\
138	0.000273689485440875\\
139	6.90769284296295e-05\\
140	5.34393013023899e-05\\
141	1.72557944810595e-05\\
142	4.33117539732851e-05\\
143	1.94946452701153e-05\\
144	7.04798978257727e-05\\
145	8.11433764567608e-05\\
146	1.32026125053207e-06\\
147	8.01988548352201e-05\\
148	4.83876855114002e-05\\
149	1.50734423102599e-05\\
150	5.60965196730051e-05\\
151	0.000105091550330861\\
152	7.28949156342509e-05\\
153	7.74359633824367e-05\\
154	6.75042778740417e-05\\
155	5.3476274025069e-05\\
156	5.24926185452658e-05\\
157	0.000123830893008649\\
158	9.91031912018068e-06\\
159	5.85641462271289e-05\\
160	7.6177033481029e-05\\
161	8.37668696209732e-05\\
162	5.55574574944851e-05\\
163	9.51383609273404e-05\\
164	6.22573405393424e-05\\
165	2.86786020861219e-05\\
166	5.23651006021753e-05\\
167	5.57300737557727e-05\\
168	4.41010863984613e-05\\
169	6.56670671491225e-05\\
170	0.000115251869816748\\
171	5.05851281661087e-05\\
172	6.55019757622376e-05\\
173	8.46598454642641e-05\\
174	4.66754815185413e-06\\
175	3.32767984112912e-05\\
176	6.91760293382338e-05\\
177	5.10110136989912e-05\\
178	8.58752539002549e-05\\
179	2.09614171765269e-05\\
180	3.70305869305972e-06\\
181	2.41182622007964e-05\\
182	5.70187401577823e-05\\
183	8.77201537353068e-05\\
184	2.71140621621813e-05\\
185	2.92221423282881e-05\\
186	5.70839930876482e-05\\
187	3.18674052027053e-05\\
188	5.64833725843889e-05\\
189	3.82107681005436e-05\\
190	3.4165577837097e-05\\
191	7.02889171315953e-05\\
192	5.64071992443745e-05\\
193	2.61773208059715e-05\\
194	9.55456624566805e-05\\
195	1.8054986570502e-05\\
196	3.53350511200804e-05\\
197	3.69850741305247e-05\\
198	8.18957740495386e-05\\
199	3.74195429621955e-05\\
};
\addlegendentry{$\mathbf{\hat{h}_{2}}$}

\end{axis}
\end{tikzpicture}%