% This file was created by matlab2tikz.
%
%The latest updates can be retrieved from
%  http://www.mathworks.com/matlabcentral/fileexchange/22022-matlab2tikz-matlab2tikz
%where you can also make suggestions and rate matlab2tikz.
%
\definecolor{mycolor1}{rgb}{0.00000,0.44700,0.74100}%
\definecolor{mycolor2}{rgb}{0.85000,0.32500,0.09800}%
%
\begin{tikzpicture}

\begin{axis}[%
width=1.952in,
height=3.2in,
at={(0.758in,0.512in)},
scale only axis,
xmin=0,
xmax=20,
xlabel style={font=\color{white!15!black}, align=center},
xlabel={Sample Index\\[1ex](a) Actual},
ymin=0,
ymax=0.9,
axis background/.style={fill=white},
legend style={legend cell align=left, align=left, draw=white!15!black}
]
\addplot [color=mycolor1]
  table[row sep=crcr]{%
1	0.0444337104356374\\
2	0.738127803558165\\
3	0.357839506790865\\
4	0.481268775571525\\
5	0.10955194752004\\
6	0.267783168107473\\
7	0.0769544524124665\\
8	0.0372836026936495\\
9	0.027789744685169\\
10	0.0196434178633453\\
11	0.0212138243269196\\
12	0.0147156812719569\\
13	0.0126517206023441\\
14	0.0111331007215966\\
15	0.00994473974674355\\
16	0.00898571135769806\\
17	0.00819466874468931\\
18	0.00753086667278431\\
19	0.00696589032366256\\
20	0.00647923877975415\\
};
\addlegendentry{$\mathbf{h_1}$}

\addplot [color=mycolor2]
  table[row sep=crcr]{%
1	0.0696363384444256\\
2	0.13399148454392\\
3	0.889181852408627\\
4	0.426869408918664\\
5	0.0527923084371181\\
6	0.0393468637154593\\
7	0\\
8	0\\
9	0\\
10	0\\
11	0\\
12	0\\
13	0\\
14	0\\
15	0\\
16	0\\
17	0\\
18	0\\
19	0\\
20	0\\
};
\addlegendentry{$\mathbf{h_{2}}$}

\end{axis}

\begin{axis}[%
width=1.952in,
height=3.2in,
at={(3.327in,0.512in)},
scale only axis,
xmin=0,
xmax=40,
xlabel style={font=\color{white!15!black}, align=center},
xlabel={Sample Index\\[1ex](b) Estimated},
ymin=0,
ymax=1,
axis background/.style={fill=white},
legend style={legend cell align=left, align=left, draw=white!15!black}
]
\addplot [color=mycolor1]
  table[row sep=crcr]{%
0	2.32647117772593e-05\\
1	2.19105314129744e-05\\
2	1.56932554802092e-06\\
3	6.62162288794321e-06\\
4	1.17480789981601e-05\\
5	1.2456798748918e-05\\
6	4.25384749543368e-06\\
7	1.55878808307633e-05\\
8	7.6108306077671e-06\\
9	1.01131257894639e-05\\
10	5.78860634825845e-06\\
11	0.00717631382936752\\
12	0.0118985357235224\\
13	0.0190900321822463\\
14	0.0340577794058611\\
15	0.024375984420577\\
16	0.2051197918274\\
17	0.147926809149909\\
18	0.77603601055192\\
19	0.214000622138606\\
20	0.37994917040664\\
21	0.290958696256216\\
22	0.175031972599641\\
23	0.155163371148607\\
24	0.0171765836483516\\
25	0.0287380066360023\\
26	0.0207788873744236\\
27	0.0185749761576123\\
28	0.00868598566492298\\
29	2.32597860257806e-05\\
30	1.63455805566375e-05\\
31	6.535124037559e-06\\
32	1.05584880139147e-05\\
33	1.1902204602716e-05\\
34	4.1647004193324e-06\\
35	1.56161989060503e-06\\
36	0.00063335759705568\\
37	7.58540494083582e-06\\
38	2.30030286639025e-05\\
39	1.03613297766587e-05\\
};
\addlegendentry{$\mathbf{\hat{h}_{1}}$}

\addplot [color=mycolor2]
  table[row sep=crcr]{%
0	1.2415623567974e-05\\
1	3.57716819650225e-06\\
2	1.08619480550907e-05\\
3	7.4841846376751e-06\\
4	3.34028756500428e-06\\
5	7.72815054408209e-06\\
6	1.46927598630481e-05\\
7	1.77279530223425e-05\\
8	1.43900524502826e-05\\
9	1.95171117346898e-05\\
10	0.0016026499586748\\
11	0.00640329091420931\\
12	0.0157183354818984\\
13	0.0064081986300103\\
14	0.039622244088475\\
15	0.0600511819791287\\
16	0.074951030989594\\
17	0.17366337908779\\
18	0.0156695269906125\\
19	0.955077143108021\\
20	0.014036733183331\\
21	0.179947551603565\\
22	0.0792457714036557\\
23	0.0679380108051907\\
24	0.0424011042501892\\
25	0.013752335720629\\
26	0.0243672008072647\\
27	0.0123592592290117\\
28	0.00770649161596181\\
29	0.00414970667805194\\
30	0.00308874914453204\\
31	0.00196889082567787\\
32	0.000761035726815881\\
33	6.77494189657164e-05\\
34	1.26064475790834e-05\\
35	7.28216809278278e-06\\
36	1.03358043931418e-05\\
37	6.67593832384045e-06\\
38	1.31565030242693e-05\\
39	1.43682009604291e-05\\
};
\addlegendentry{$\mathbf{\hat{h}_{2}}$}

\end{axis}
\end{tikzpicture}%